%!PS-Adobe-2.0 EPSF-2.0
%%BoundingBox:  0 0 567 544
%%Title: : c_1_B
%%Creator: ROOT Version 6.04/14
%%CreationDate: Mon Feb 20 23:08:22 2017
%%DocumentNeededResources: ProcSet (FontSetInit)
%%EndComments
%%BeginProlog
80 dict begin
/s {stroke} def /l {lineto} def /m {moveto} def /t {translate} def
/r {rotate} def /rl {roll}  def /R {repeat} def
/d {rlineto} def /rm {rmoveto} def /gr {grestore} def /f {eofill} def
/c {setrgbcolor} def /black {0 setgray} def /sd {setdash} def
/cl {closepath} def /sf {scalefont setfont} def /lw {setlinewidth} def
/box {m dup 0 exch d exch 0 d 0 exch neg d cl} def
/NC{systemdict begin initclip end}def/C{NC box clip newpath}def
/bl {box s} def /bf {gsave box gsave f grestore 1 lw [] 0 sd s grestore} def /Y { 0 exch d} def /X { 0 d} def 
/K {{pop pop 0 moveto} exch kshow} bind def
/ita {/ang 15 def gsave [1 0 ang dup sin exch cos div 1 0 0] concat} def 
/mp {newpath /y exch def /x exch def} def
/side {[w .77 mul w .23 mul] .385 w mul sd w 0 l currentpoint t -144 r} def
/mr {mp x y w2 0 360 arc} def /m24 {mr s} def /m20 {mr f} def
/mb {mp x y w2 add m w2 neg 0 d 0 w neg d w 0 d 0 w d cl} def
/mt {mp x y w2 add m w2 neg w neg d w 0 d cl} def
/m21 {mb f} def /m25 {mb s} def /m22 {mt f} def /m26{mt s} def
/m23 {mp x y w2 sub m w2 w d w neg 0 d cl f} def
/m27 {mp x y w2 add m w3 neg w2 neg d w3 w2 neg d w3 w2 d cl s} def
/m28 {mp x w2 sub y w2 sub w3 add m w3 0 d  0 w3 neg d w3 0 d 0 w3 d w3 0 d  0 w3 d w3 neg 0 d 0 w3 d w3 neg 0 d 0 w3 neg d w3 neg 0 d cl s } def
/m29 {mp gsave x w2 sub y w2 add w3 sub m currentpoint t 4 {side} repeat cl fill gr} def
/m30 {mp gsave x w2 sub y w2 add w3 sub m currentpoint t 4 {side} repeat cl s gr} def
/m31 {mp x y w2 sub m 0 w d x w2 sub y m w 0 d x w2 sub y w2 add m w w neg d x w2 sub y w2 sub m w w d s} def
/m32 {mp x y w2 sub m w2 w d w neg 0 d cl s} def
/m33 {mp x y w2 add m w3 neg w2 neg d w3 w2 neg d w3 w2 d cl f} def
/m34 {mp x w2 sub y w2 sub w3 add m w3 0 d  0 w3 neg d w3 0 d 0 w3 d w3 0 d  0 w3 d w3 neg 0 d 0 w3 d w3 neg 0 d 0 w3 neg d w3 neg 0 d cl f } def
/m2 {mp x y w2 sub m 0 w d x w2 sub y m w 0 d s} def
/m5 {mp x w2 sub y w2 sub m w w d x w2 sub y w2 add m w w neg d s} def
%%IncludeResource: ProcSet (FontSetInit)
%%IncludeResource: font Times-Roman
%%IncludeResource: font Times-Italic
%%IncludeResource: font Times-Bold
%%IncludeResource: font Times-BoldItalic
%%IncludeResource: font Helvetica
%%IncludeResource: font Helvetica-Oblique
%%IncludeResource: font Helvetica-Bold
%%IncludeResource: font Helvetica-BoldOblique
%%IncludeResource: font Courier
%%IncludeResource: font Courier-Oblique
%%IncludeResource: font Courier-Bold
%%IncludeResource: font Courier-BoldOblique
%%IncludeResource: font Symbol
%%IncludeResource: font ZapfDingbats
/reEncode {exch findfont dup length dict begin {1 index /FID eq  {pop pop} {def} ifelse } forall /Encoding exch def currentdict end dup /FontName get exch definefont pop } def [/Times-Bold /Times-Italic /Times-BoldItalic /Helvetica /Helvetica-Oblique
 /Helvetica-Bold /Helvetica-BoldOblique /Courier /Courier-Oblique /Courier-Bold /Courier-BoldOblique /Times-Roman /AvantGarde-Book /AvantGarde-BookOblique /AvantGarde-Demi /AvantGarde-DemiOblique /Bookman-Demi /Bookman-DemiItalic /Bookman-Light
 /Bookman-LightItalic /Helvetica-Narrow /Helvetica-Narrow-Bold /Helvetica-Narrow-BoldOblique /Helvetica-Narrow-Oblique /NewCenturySchlbk-Roman /NewCenturySchlbk-Bold /NewCenturySchlbk-BoldItalic /NewCenturySchlbk-Italic /Palatino-Bold
 /Palatino-BoldItalic /Palatino-Italic /Palatino-Roman ] {ISOLatin1Encoding reEncode } forall
%%EndProlog
%%BeginSetup
%%EndSetup
newpath  gsave  .25 .25 scale  gsave  0 0 t black[  ] 0 sd 3 lw 1 1 1 c 2268 2177 0 0 bf black 1 1 1 c 1791 1720 363 348 bf black 1791 1720 363 348 bl 1 1 1 c 1791 1720 363 348 bf black 1791 1720 363 348 bl 1 1 1 c black 427 401 m 13 Y s 427 444 m 14
 Y s 363 429 m 49 X s 442 429 m 49 X s /w 36 def /w2 {w 2 div} def /w3 {w 3 div} def 427 429 m20 555 426 m 18 Y s 555 475 m 18 Y s 491 460 m 49 X s 570 460 m 49 X s 555 460 m20 683 443 m 22 Y s 683 495 m 21 Y s 619 480 m 49 X s 698 480 m 49 X s 683
 480 m20 811 409 m 15 Y s 811 454 m 16 Y s 747 439 m 49 X s 826 439 m 49 X s 811 439 m20 939 443 m 22 Y s 939 495 m 21 Y s 875 480 m 49 X s 954 480 m 49 X s 939 480 m20 1067 479 m 26 Y s 1067 535 m 27 Y s 1003 520 m 48 X s 1082 520 m 49 X s 1067 520
 m20 1195 532 m 34 Y s 1195 596 m 33 Y s 1131 581 m 48 X s 1210 581 m 49 X s 1195 581 m20 1323 514 m 32 Y s 1323 576 m 31 Y s 1259 561 m 48 X s 1338 561 m 49 X s 1323 561 m20 1451 670 m 47 Y s 1451 748 m 47 Y s 1387 733 m 48 X s 1466 733 m 49 X s
 1451 733 m20 1578 1249 m 86 Y s 1578 1365 m 85 Y s 1515 1350 m 48 X s 1594 1350 m 48 X s 1578 1350 m20 1706 1201 m 83 Y s 1706 1314 m 83 Y s 1642 1299 m 49 X s 1722 1299 m 48 X s 1706 1299 m20 1834 615 m 42 Y s 1834 687 m 42 Y s 1770 672 m 49 X s
 1850 672 m 48 X s 1834 672 m20 1962 409 m 15 Y s 1962 454 m 16 Y s 1898 439 m 49 X s 1978 439 m 48 X s 1962 439 m20 2090 376 m 8 Y s 2090 414 m 7 Y s 2026 399 m 49 X s 2106 399 m 48 X s 2090 399 m20 363 348 m 1791 X s
 gsave  2268 2177 0 0 C 1869.54 79.6355 t 0 r /Helvetica findfont 102.389 sf 0 0 m ( [GeV]) show NC gr 
 gsave  2268 2177 0 0 C 1793.7 49.2982 t 0 r /Helvetica findfont 68.259 sf 0 0 m (12) show NC gr 
 gsave  2268 2177 0 0 C 1714.06 79.6355 t 0 r /Helvetica findfont 102.389 sf 0 0 m (m) show NC gr  363 400 m -52 Y s 427 374 m -26 Y s 491 374 m -26 Y s 555 374 m -26 Y s 619 374 m -26 Y s 683 400 m -52 Y s 747 374 m -26 Y s 811 374 m -26 Y s 875 374
 m -26 Y s 939 374 m -26 Y s 1003 400 m -52 Y s 1067 374 m -26 Y s 1131 374 m -26 Y s 1195 374 m -26 Y s 1259 374 m -26 Y s 1323 400 m -52 Y s 1387 374 m -26 Y s 1451 374 m -26 Y s 1515 374 m -26 Y s 1578 374 m -26 Y s 1642 400 m -52 Y s 1706 374 m
 -26 Y s 1770 374 m -26 Y s 1834 374 m -26 Y s 1898 374 m -26 Y s 1962 400 m -52 Y s 1962 400 m -52 Y s 2026 374 m -26 Y s 2090 374 m -26 Y s
 gsave  2268 2177 0 0 C 303.373 254.075 t 0 r /Helvetica findfont 102.389 sf 0 0 m (50) show NC gr 
 gsave  2268 2177 0 0 C 625.708 254.075 t 0 r /Helvetica findfont 102.389 sf 0 0 m (60) show NC gr 
 gsave  2268 2177 0 0 C 944.25 254.075 t 0 r /Helvetica findfont 102.389 sf 0 0 m (70) show NC gr 
 gsave  2268 2177 0 0 C 1262.79 254.075 t 0 r /Helvetica findfont 102.389 sf 0 0 m (80) show NC gr 
 gsave  2268 2177 0 0 C 1585.13 254.075 t 0 r /Helvetica findfont 102.389 sf 0 0 m (90) show NC gr 
 gsave  2268 2177 0 0 C 1877.12 254.075 t 0 r /Helvetica findfont 102.389 sf 0 0 m (100) show NC gr  363 2068 m 1791 X s 363 2016 m 52 Y s 427 2042 m 26 Y s 491 2042 m 26 Y s 555 2042 m 26 Y s 619 2042 m 26 Y s 683 2016 m 52 Y s 747 2042 m 26 Y s 811
 2042 m 26 Y s 875 2042 m 26 Y s 939 2042 m 26 Y s 1003 2016 m 52 Y s 1067 2042 m 26 Y s 1131 2042 m 26 Y s 1195 2042 m 26 Y s 1259 2042 m 26 Y s 1323 2016 m 52 Y s 1387 2042 m 26 Y s 1451 2042 m 26 Y s 1515 2042 m 26 Y s 1578 2042 m 26 Y s 1642 2016
 m 52 Y s 1706 2042 m 26 Y s 1770 2042 m 26 Y s 1834 2042 m 26 Y s 1898 2042 m 26 Y s 1962 2016 m 52 Y s 1962 2016 m 52 Y s 2026 2042 m 26 Y s 2090 2042 m 26 Y s 363 348 m 1720 Y s
 gsave  2268 2177 0 0 C 132.726 1547.2 t 90 r /Helvetica findfont 102.389 sf 0 0 m (Entries / \(4\)) show NC gr  417 348 m -54 X s 390 399 m -27 X s 390 449 m -27 X s 390 500 m -27 X s 417 551 m -54 X s 390 601 m -27 X s 390 652 m -27 X s 390 702 m
 -27 X s 417 753 m -54 X s 390 803 m -27 X s 390 854 m -27 X s 390 905 m -27 X s 417 955 m -54 X s 390 1006 m -27 X s 390 1056 m -27 X s 390 1107 m -27 X s 417 1157 m -54 X s 390 1208 m -27 X s 390 1259 m -27 X s 390 1309 m -27 X s 417 1360 m -54 X s
 390 1410 m -27 X s 390 1461 m -27 X s 390 1512 m -27 X s 417 1562 m -54 X s 390 1613 m -27 X s 390 1663 m -27 X s 390 1714 m -27 X s 417 1764 m -54 X s 390 1815 m -27 X s 390 1866 m -27 X s 390 1916 m -27 X s 417 1967 m -54 X s 417 1967 m -54 X s
 390 2017 m -27 X s 390 2068 m -27 X s
 gsave  2268 2177 0 0 C 295.789 310.958 t 0 r /Helvetica findfont 102.389 sf 0 0 m (0) show NC gr 
 gsave  2268 2177 0 0 C 238.907 515.735 t 0 r /Helvetica findfont 102.389 sf 0 0 m (20) show NC gr 
 gsave  2268 2177 0 0 C 238.907 716.72 t 0 r /Helvetica findfont 102.389 sf 0 0 m (40) show NC gr 
 gsave  2268 2177 0 0 C 238.907 917.705 t 0 r /Helvetica findfont 102.389 sf 0 0 m (60) show NC gr 
 gsave  2268 2177 0 0 C 238.907 1122.48 t 0 r /Helvetica findfont 102.389 sf 0 0 m (80) show NC gr 
 gsave  2268 2177 0 0 C 182.024 1323.47 t 0 r /Helvetica findfont 102.389 sf 0 0 m (100) show NC gr 
 gsave  2268 2177 0 0 C 182.024 1524.45 t 0 r /Helvetica findfont 102.389 sf 0 0 m (120) show NC gr 
 gsave  2268 2177 0 0 C 182.024 1729.23 t 0 r /Helvetica findfont 102.389 sf 0 0 m (140) show NC gr 
 gsave  2268 2177 0 0 C 182.024 1930.21 t 0 r /Helvetica findfont 102.389 sf 0 0 m (160) show NC gr  2154 348 m 1720 Y s 2101 348 m 53 X s 2127 399 m 27 X s 2127 449 m 27 X s 2127 500 m 27 X s 2101 551 m 53 X s 2127 601 m 27 X s 2127 652 m 27 X s
 2127 702 m 27 X s 2101 753 m 53 X s 2127 803 m 27 X s 2127 854 m 27 X s 2127 905 m 27 X s 2101 955 m 53 X s 2127 1006 m 27 X s 2127 1056 m 27 X s 2127 1107 m 27 X s 2101 1157 m 53 X s 2127 1208 m 27 X s 2127 1259 m 27 X s 2127 1309 m 27 X s 2101
 1360 m 53 X s 2127 1410 m 27 X s 2127 1461 m 27 X s 2127 1512 m 27 X s 2101 1562 m 53 X s 2127 1613 m 27 X s 2127 1663 m 27 X s 2127 1714 m 27 X s 2101 1764 m 53 X s 2127 1815 m 27 X s 2127 1866 m 27 X s 2127 1916 m 27 X s 2101 1967 m 53 X s 2101
 1967 m 53 X s 2127 2017 m 27 X s 2127 2068 m 27 X s 0 0.4 0 c 0 0.8 0 c black 0 0.8 0 c 363 348 m 88 Y 128 X 24 Y 128 X 4 Y 128 X -2 Y 384 X -1 Y 128 X 34 Y 128 X 147 Y 128 X 509 Y 127 X 331 Y 128 X -822 Y 128 X -207 Y 128 X -41 Y 128 X -64 Y f 0
 0.4 0 c 0 0.8 0 c 0 0.4 0 c 363 436 m 128 X 24 Y 128 X 4 Y 128 X -2 Y 384 X -1 Y 128 X 34 Y 128 X 147 Y 128 X 509 Y 127 X 331 Y 128 X -822 Y 128 X -207 Y 128 X -41 Y 128 X s 0.6 0.2 0 c 0.999 0.999 0.999 c black 0.999 0.999 0.999 c 363 348 m 78 Y
 128 X 13 Y 128 X 16 Y 128 X -3 Y 128 X -2 Y 128 X -8 Y 128 X -8 Y 128 X -9 Y 128 X 15 Y 128 X 83 Y 127 X 77 Y 128 X -160 Y 128 X -35 Y 128 X -14 Y 128 X -43 Y f 0.6 0.2 0 c 0.999 0.999 0.999 c 0.6 0.2 0 c 363 426 m 128 X 13 Y 128 X 16 Y 128 X -3 Y
 128 X -2 Y 128 X -8 Y 128 X -8 Y 128 X -9 Y 128 X 15 Y 128 X 83 Y 127 X 77 Y 128 X -160 Y 128 X -35 Y 128 X -14 Y 128 X s 1 1 1 c black 0.6 0.2 0 c 363 426 m 128 X 13 Y 128 X 16 Y 128 X -3 Y 128 X -2 Y 128 X -8 Y 128 X -8 Y 128 X -9 Y 128 X 15 Y 128
 X 83 Y 127 X 77 Y 128 X -160 Y 128 X -35 Y 128 X -14 Y 128 X s 1 0.6 0 c black 1 0.6 0 c 363 348 m 78 Y 128 X 13 Y 128 X 16 Y 128 X -3 Y 128 X -2 Y 128 X -8 Y 128 X -8 Y 128 X -9 Y 128 X 15 Y 128 X 83 Y 127 X 77 Y 128 X -160 Y 128 X -35 Y 128 X -14
 Y 128 X -43 Y f 0.6 0.2 0 c 1 0.6 0 c 0.6 0.2 0 c 363 426 m 128 X 13 Y 128 X 16 Y 128 X -3 Y 128 X -2 Y 128 X -8 Y 128 X -8 Y 128 X -9 Y 128 X 15 Y 128 X 83 Y 127 X 77 Y 128 X -160 Y 128 X -35 Y 128 X -14 Y 128 X s 0.631373 0 0 c 0.999 0.999 0.999 c
 black 0.999 0.999 0.999 c 363 348 m 20 Y 128 X 8 Y 384 X -8 Y 128 X -4 Y 128 X -6 Y 128 X 1 Y 128 X 14 Y 128 X 81 Y 127 X 67 Y 128 X -138 Y 128 X -26 Y 128 X -7 Y 128 X -2 Y f 0.631373 0 0 c 0.999 0.999 0.999 c 0.631373 0 0 c 363 368 m 128 X 8 Y 384
 X -8 Y 128 X -4 Y 128 X -6 Y 128 X 1 Y 128 X 14 Y 128 X 81 Y 127 X 67 Y 128 X -138 Y 128 X -26 Y 128 X -7 Y 128 X s 1 1 1 c black 0.631373 0 0 c 363 368 m 128 X 8 Y 384 X -8 Y 128 X -4 Y 128 X -6 Y 128 X 1 Y 128 X 14 Y 128 X 81 Y 127 X 67 Y 128 X
 -138 Y 128 X -26 Y 128 X -7 Y 128 X s 0.933333 0 0 c black 0.933333 0 0 c 363 348 m 20 Y 128 X 8 Y 384 X -8 Y 128 X -4 Y 128 X -6 Y 128 X 1 Y 128 X 14 Y 128 X 81 Y 127 X 67 Y 128 X -138 Y 128 X -26 Y 128 X -7 Y 128 X -2 Y f 0.631373 0 0 c 0.933333 0
 0 c 0.631373 0 0 c 363 368 m 128 X 8 Y 384 X -8 Y 128 X -4 Y 128 X -6 Y 128 X 1 Y 128 X 14 Y 128 X 81 Y 127 X 67 Y 128 X -138 Y 128 X -26 Y 128 X -7 Y 128 X s 0.2 0.2 0.2 c 0.999 0.999 0.999 c black 0.999 0.999 0.999 c 363 348 m 1 Y 128 X 1 Y 128 X
 -1 Y 256 X 1 Y 128 X 1 Y 128 X 2 Y 128 X 1 Y 128 X 6 Y 128 X 29 Y 127 X 19 Y 128 X -46 Y 128 X -10 Y 128 X -3 Y 128 X -1 Y f 0.2 0.2 0.2 c 0.999 0.999 0.999 c 0.2 0.2 0.2 c 363 349 m 128 X 1 Y 128 X -1 Y 256 X 1 Y 128 X 1 Y 128 X 2 Y 128 X 1 Y 128 X
 6 Y 128 X 29 Y 127 X 19 Y 128 X -46 Y 128 X -10 Y 128 X -3 Y 128 X s 1 1 1 c black 0.2 0.2 0.2 c 363 349 m 128 X 1 Y 128 X -1 Y 256 X 1 Y 128 X 1 Y 128 X 2 Y 128 X 1 Y 128 X 6 Y 128 X 29 Y 127 X 19 Y 128 X -46 Y 128 X -10 Y 128 X -3 Y 128 X s 0.8
 0.8 0.8 c black 0.8 0.8 0.8 c 363 348 m 1 Y 128 X 1 Y 128 X -1 Y 256 X 1 Y 128 X 1 Y 128 X 2 Y 128 X 1 Y 128 X 6 Y 128 X 29 Y 127 X 19 Y 128 X -46 Y 128 X -10 Y 128 X -3 Y 128 X -1 Y f 0.2 0.2 0.2 c 0.8 0.8 0.8 c 0.2 0.2 0.2 c 363 349 m 128 X 1 Y
 128 X -1 Y 256 X 1 Y 128 X 1 Y 128 X 2 Y 128 X 1 Y 128 X 6 Y 128 X 29 Y 127 X 19 Y 128 X -46 Y 128 X -10 Y 128 X -3 Y 128 X s black 1 1 1 c black 427 401 m 13 Y s 427 444 m 14 Y s 363 429 m 49 X s 442 429 m 49 X s 427 429 m20 555 426 m 18 Y s 555
 475 m 18 Y s 491 460 m 49 X s 570 460 m 49 X s 555 460 m20 683 443 m 22 Y s 683 495 m 21 Y s 619 480 m 49 X s 698 480 m 49 X s 683 480 m20 811 409 m 15 Y s 811 454 m 16 Y s 747 439 m 49 X s 826 439 m 49 X s 811 439 m20 939 443 m 22 Y s 939 495 m 21
 Y s 875 480 m 49 X s 954 480 m 49 X s 939 480 m20 1067 479 m 26 Y s 1067 535 m 27 Y s 1003 520 m 48 X s 1082 520 m 49 X s 1067 520 m20 1195 532 m 34 Y s 1195 596 m 33 Y s 1131 581 m 48 X s 1210 581 m 49 X s 1195 581 m20 1323 514 m 32 Y s 1323 576 m
 31 Y s 1259 561 m 48 X s 1338 561 m 49 X s 1323 561 m20 1451 670 m 47 Y s 1451 748 m 47 Y s 1387 733 m 48 X s 1466 733 m 49 X s 1451 733 m20 1578 1249 m 86 Y s 1578 1365 m 85 Y s 1515 1350 m 48 X s 1594 1350 m 48 X s 1578 1350 m20 1706 1201 m 83 Y s
 1706 1314 m 83 Y s 1642 1299 m 49 X s 1722 1299 m 48 X s 1706 1299 m20 1834 615 m 42 Y s 1834 687 m 42 Y s 1770 672 m 49 X s 1850 672 m 48 X s 1834 672 m20 1962 409 m 15 Y s 1962 454 m 16 Y s 1898 439 m 49 X s 1978 439 m 48 X s 1962 439 m20 2090 376
 m 8 Y s 2090 414 m 7 Y s 2026 399 m 49 X s 2106 399 m 48 X s 2090 399 m20
 gsave  2268 2177 0 0 C 451.268 1907.46 t 0 r /Helvetica-BoldOblique findfont 102.389 sf 0 0 m (ATLAS) show NC gr 
 gsave  2268 2177 0 0 C 819.108 1907.46 t 0 r /Helvetica findfont 102.389 sf 0 0 m (Internal) show NC gr 
 gsave  2268 2177 0 0 C 451.268 1763.36 t 0 r /Helvetica findfont 87.2199 sf 0 0 m (Inverted Isolation CR) show NC gr 
 gsave  2268 2177 0 0 C 993.548 1695.1 t 0 r /Helvetica findfont 53.0904 sf 0 0 m (\2551) show NC gr 
 gsave  2268 2177 0 0 C 451.268 1657.18 t 0 r /Helvetica findfont 79.6355 sf 0 0 m (13 TeV, 36.1 fb) show NC gr 
 gsave  2268 2177 0 0 C 1569.96 1945.38 t 0 r /Helvetica findfont 83.4277 sf 0 0 m ( Data) show NC gr  1495 1935 m 59 Y s 1495 1964 m20
 gsave  2268 2177 0 0 C 1736.81 1846.79 t 0 r /Helvetica findfont 83.4277 sf 0 0 m (b) show NC gr  6 lw 1737 1919 m 45 X s
 gsave  2268 2177 0 0 C 1569.96 1846.79 t 0 r /Helvetica findfont 83.4277 sf 0 0 m ( Z+b) show NC gr  0 0.8 0 c 3 lw 1441 1832 m 109 X 69 Y -109 X f 6 lw 0 0.4 0 c 3 lw 1441 1901 m 109 X s 1441 1832 m 109 X s 1550 1832 m 69 Y s 1441 1832 m 69 Y s
 black
 gsave  2268 2177 0 0 C 1615.46 1748.19 t 0 r /Helvetica findfont 83.4277 sf 0 0 m (t) show NC gr  6 lw 1615 1813 m 23 X s
 gsave  2268 2177 0 0 C 1569.96 1748.19 t 0 r /Helvetica findfont 83.4277 sf 0 0 m ( t) show NC gr  1 0.6 0 c 3 lw 1441 1734 m 109 X 69 Y -109 X f 6 lw 0.6 0.2 0 c 3 lw 1441 1803 m 109 X s 1441 1734 m 109 X s 1550 1734 m 69 Y s 1441 1734 m 69 Y s
 black
 gsave  2268 2177 0 0 C 1569.96 1649.59 t 0 r /Helvetica findfont 83.4277 sf 0 0 m ( ZZ*) show NC gr  0.933333 0 0 c 1441 1636 m 109 X 69 Y -109 X f 0.631373 0 0 c 1441 1705 m 109 X s 1441 1636 m 109 X s 1550 1636 m 69 Y s 1441 1636 m 69 Y s black
 gsave  2268 2177 0 0 C 1569.96 1551 t 0 r /Helvetica findfont 83.4277 sf 0 0 m ( WZ) show NC gr  0.8 0.8 0.8 c 1441 1538 m 109 X 69 Y -109 X f 0.2 0.2 0.2 c 1441 1607 m 109 X s 1441 1538 m 109 X s 1550 1538 m 69 Y s 1441 1538 m 69 Y s black 363 348
 m 1791 X s 363 400 m -52 Y s 427 374 m -26 Y s 491 374 m -26 Y s 555 374 m -26 Y s 619 374 m -26 Y s 683 400 m -52 Y s 747 374 m -26 Y s 811 374 m -26 Y s 875 374 m -26 Y s 939 374 m -26 Y s 1003 400 m -52 Y s 1067 374 m -26 Y s 1131 374 m -26 Y s
 1195 374 m -26 Y s 1259 374 m -26 Y s 1323 400 m -52 Y s 1387 374 m -26 Y s 1451 374 m -26 Y s 1515 374 m -26 Y s 1578 374 m -26 Y s 1642 400 m -52 Y s 1706 374 m -26 Y s 1770 374 m -26 Y s 1834 374 m -26 Y s 1898 374 m -26 Y s 1962 400 m -52 Y s
 1962 400 m -52 Y s 2026 374 m -26 Y s 2090 374 m -26 Y s 363 2068 m 1791 X s 363 2016 m 52 Y s 427 2042 m 26 Y s 491 2042 m 26 Y s 555 2042 m 26 Y s 619 2042 m 26 Y s 683 2016 m 52 Y s 747 2042 m 26 Y s 811 2042 m 26 Y s 875 2042 m 26 Y s 939 2042 m
 26 Y s 1003 2016 m 52 Y s 1067 2042 m 26 Y s 1131 2042 m 26 Y s 1195 2042 m 26 Y s 1259 2042 m 26 Y s 1323 2016 m 52 Y s 1387 2042 m 26 Y s 1451 2042 m 26 Y s 1515 2042 m 26 Y s 1578 2042 m 26 Y s 1642 2016 m 52 Y s 1706 2042 m 26 Y s 1770 2042 m 26
 Y s 1834 2042 m 26 Y s 1898 2042 m 26 Y s 1962 2016 m 52 Y s 1962 2016 m 52 Y s 2026 2042 m 26 Y s 2090 2042 m 26 Y s 363 348 m 1720 Y s 417 348 m -54 X s 390 399 m -27 X s 390 449 m -27 X s 390 500 m -27 X s 417 551 m -54 X s 390 601 m -27 X s 390
 652 m -27 X s 390 702 m -27 X s 417 753 m -54 X s 390 803 m -27 X s 390 854 m -27 X s 390 905 m -27 X s 417 955 m -54 X s 390 1006 m -27 X s 390 1056 m -27 X s 390 1107 m -27 X s 417 1157 m -54 X s 390 1208 m -27 X s 390 1259 m -27 X s 390 1309 m
 -27 X s 417 1360 m -54 X s 390 1410 m -27 X s 390 1461 m -27 X s 390 1512 m -27 X s 417 1562 m -54 X s 390 1613 m -27 X s 390 1663 m -27 X s 390 1714 m -27 X s 417 1764 m -54 X s 390 1815 m -27 X s 390 1866 m -27 X s 390 1916 m -27 X s 417 1967 m
 -54 X s 417 1967 m -54 X s 390 2017 m -27 X s 390 2068 m -27 X s 2154 348 m 1720 Y s 2101 348 m 53 X s 2127 399 m 27 X s 2127 449 m 27 X s 2127 500 m 27 X s 2101 551 m 53 X s 2127 601 m 27 X s 2127 652 m 27 X s 2127 702 m 27 X s 2101 753 m 53 X s
 2127 803 m 27 X s 2127 854 m 27 X s 2127 905 m 27 X s 2101 955 m 53 X s 2127 1006 m 27 X s 2127 1056 m 27 X s 2127 1107 m 27 X s 2101 1157 m 53 X s 2127 1208 m 27 X s 2127 1259 m 27 X s 2127 1309 m 27 X s 2101 1360 m 53 X s 2127 1410 m 27 X s 2127
 1461 m 27 X s 2127 1512 m 27 X s 2101 1562 m 53 X s 2127 1613 m 27 X s 2127 1663 m 27 X s 2127 1714 m 27 X s 2101 1764 m 53 X s 2127 1815 m 27 X s 2127 1866 m 27 X s 2127 1916 m 27 X s 2101 1967 m 53 X s 2101 1967 m 53 X s 2127 2017 m 27 X s 2127
 2068 m 27 X s
 gr  gr showpage
end
%%EOF
