%!PS-Adobe-2.0 EPSF-2.0
%%BoundingBox:  0 0 567 544
%%Title: : c_1_C
%%Creator: ROOT Version 6.04/14
%%CreationDate: Mon Feb 20 23:06:31 2017
%%DocumentNeededResources: ProcSet (FontSetInit)
%%EndComments
%%BeginProlog
80 dict begin
/s {stroke} def /l {lineto} def /m {moveto} def /t {translate} def
/r {rotate} def /rl {roll}  def /R {repeat} def
/d {rlineto} def /rm {rmoveto} def /gr {grestore} def /f {eofill} def
/c {setrgbcolor} def /black {0 setgray} def /sd {setdash} def
/cl {closepath} def /sf {scalefont setfont} def /lw {setlinewidth} def
/box {m dup 0 exch d exch 0 d 0 exch neg d cl} def
/NC{systemdict begin initclip end}def/C{NC box clip newpath}def
/bl {box s} def /bf {gsave box gsave f grestore 1 lw [] 0 sd s grestore} def /Y { 0 exch d} def /X { 0 d} def 
/K {{pop pop 0 moveto} exch kshow} bind def
/ita {/ang 15 def gsave [1 0 ang dup sin exch cos div 1 0 0] concat} def 
/mp {newpath /y exch def /x exch def} def
/side {[w .77 mul w .23 mul] .385 w mul sd w 0 l currentpoint t -144 r} def
/mr {mp x y w2 0 360 arc} def /m24 {mr s} def /m20 {mr f} def
/mb {mp x y w2 add m w2 neg 0 d 0 w neg d w 0 d 0 w d cl} def
/mt {mp x y w2 add m w2 neg w neg d w 0 d cl} def
/m21 {mb f} def /m25 {mb s} def /m22 {mt f} def /m26{mt s} def
/m23 {mp x y w2 sub m w2 w d w neg 0 d cl f} def
/m27 {mp x y w2 add m w3 neg w2 neg d w3 w2 neg d w3 w2 d cl s} def
/m28 {mp x w2 sub y w2 sub w3 add m w3 0 d  0 w3 neg d w3 0 d 0 w3 d w3 0 d  0 w3 d w3 neg 0 d 0 w3 d w3 neg 0 d 0 w3 neg d w3 neg 0 d cl s } def
/m29 {mp gsave x w2 sub y w2 add w3 sub m currentpoint t 4 {side} repeat cl fill gr} def
/m30 {mp gsave x w2 sub y w2 add w3 sub m currentpoint t 4 {side} repeat cl s gr} def
/m31 {mp x y w2 sub m 0 w d x w2 sub y m w 0 d x w2 sub y w2 add m w w neg d x w2 sub y w2 sub m w w d s} def
/m32 {mp x y w2 sub m w2 w d w neg 0 d cl s} def
/m33 {mp x y w2 add m w3 neg w2 neg d w3 w2 neg d w3 w2 d cl f} def
/m34 {mp x w2 sub y w2 sub w3 add m w3 0 d  0 w3 neg d w3 0 d 0 w3 d w3 0 d  0 w3 d w3 neg 0 d 0 w3 d w3 neg 0 d 0 w3 neg d w3 neg 0 d cl f } def
/m2 {mp x y w2 sub m 0 w d x w2 sub y m w 0 d s} def
/m5 {mp x w2 sub y w2 sub m w w d x w2 sub y w2 add m w w neg d s} def
%%IncludeResource: ProcSet (FontSetInit)
%%IncludeResource: font Times-Roman
%%IncludeResource: font Times-Italic
%%IncludeResource: font Times-Bold
%%IncludeResource: font Times-BoldItalic
%%IncludeResource: font Helvetica
%%IncludeResource: font Helvetica-Oblique
%%IncludeResource: font Helvetica-Bold
%%IncludeResource: font Helvetica-BoldOblique
%%IncludeResource: font Courier
%%IncludeResource: font Courier-Oblique
%%IncludeResource: font Courier-Bold
%%IncludeResource: font Courier-BoldOblique
%%IncludeResource: font Symbol
%%IncludeResource: font ZapfDingbats
/reEncode {exch findfont dup length dict begin {1 index /FID eq  {pop pop} {def} ifelse } forall /Encoding exch def currentdict end dup /FontName get exch definefont pop } def [/Times-Bold /Times-Italic /Times-BoldItalic /Helvetica /Helvetica-Oblique
 /Helvetica-Bold /Helvetica-BoldOblique /Courier /Courier-Oblique /Courier-Bold /Courier-BoldOblique /Times-Roman /AvantGarde-Book /AvantGarde-BookOblique /AvantGarde-Demi /AvantGarde-DemiOblique /Bookman-Demi /Bookman-DemiItalic /Bookman-Light
 /Bookman-LightItalic /Helvetica-Narrow /Helvetica-Narrow-Bold /Helvetica-Narrow-BoldOblique /Helvetica-Narrow-Oblique /NewCenturySchlbk-Roman /NewCenturySchlbk-Bold /NewCenturySchlbk-BoldItalic /NewCenturySchlbk-Italic /Palatino-Bold
 /Palatino-BoldItalic /Palatino-Italic /Palatino-Roman ] {ISOLatin1Encoding reEncode } forall
%%EndProlog
%%BeginSetup
%%EndSetup
newpath  gsave  .25 .25 scale  gsave  0 0 t black[  ] 0 sd 3 lw 1 1 1 c 2268 2177 0 0 bf black 1 1 1 c 1791 1720 363 348 bf black 1791 1720 363 348 bl 1 1 1 c 1791 1720 363 348 bf black 1791 1720 363 348 bl 1 1 1 c black 427 1145 m 62 Y s 427 1237 m
 62 Y s 363 1222 m 49 X s 442 1222 m 49 X s /w 36 def /w2 {w 2 div} def /w3 {w 3 div} def 427 1222 m20 555 1131 m 62 Y s 555 1223 m 62 Y s 491 1208 m 49 X s 570 1208 m 49 X s 555 1208 m20 683 1131 m 62 Y s 683 1223 m 62 Y s 619 1208 m 49 X s 698 1208
 m 49 X s 683 1208 m20 811 1203 m 65 Y s 811 1298 m 65 Y s 747 1283 m 49 X s 826 1283 m 49 X s 811 1283 m20 939 1086 m 59 Y s 939 1175 m 60 Y s 875 1160 m 49 X s 954 1160 m 49 X s 939 1160 m20 1067 1223 m 65 Y s 1067 1319 m 65 Y s 1003 1304 m 48 X s
 1082 1304 m 49 X s 1067 1304 m20 1195 1066 m 59 Y s 1195 1155 m 58 Y s 1131 1140 m 48 X s 1210 1140 m 49 X s 1195 1140 m20 1323 1203 m 65 Y s 1323 1298 m 65 Y s 1259 1283 m 48 X s 1338 1283 m 49 X s 1323 1283 m20 1451 1138 m 62 Y s 1451 1230 m 62 Y
 s 1387 1215 m 48 X s 1466 1215 m 49 X s 1451 1215 m20 1578 1151 m 62 Y s 1578 1244 m 62 Y s 1515 1229 m 48 X s 1594 1229 m 48 X s 1578 1229 m20 1706 1014 m 56 Y s 1706 1100 m 56 Y s 1642 1085 m 49 X s 1722 1085 m 48 X s 1706 1085 m20 1834 949 m 53 Y
 s 1834 1032 m 53 Y s 1770 1017 m 49 X s 1850 1017 m 48 X s 1834 1017 m20 1962 852 m 47 Y s 1962 930 m 47 Y s 1898 915 m 49 X s 1978 915 m 48 X s 1962 915 m20 2090 769 m 42 Y s 2090 841 m 42 Y s 2026 826 m 49 X s 2106 826 m 48 X s 2090 826 m20 363
 348 m 1791 X s
 gsave  2268 2177 0 0 C 1869.54 79.6355 t 0 r /Helvetica findfont 102.389 sf 0 0 m ( [GeV]) show NC gr 
 gsave  2268 2177 0 0 C 1793.7 49.2982 t 0 r /Helvetica findfont 68.259 sf 0 0 m (12) show NC gr 
 gsave  2268 2177 0 0 C 1714.06 79.6355 t 0 r /Helvetica findfont 102.389 sf 0 0 m (m) show NC gr  363 400 m -52 Y s 427 374 m -26 Y s 491 374 m -26 Y s 555 374 m -26 Y s 619 374 m -26 Y s 683 400 m -52 Y s 747 374 m -26 Y s 811 374 m -26 Y s 875 374
 m -26 Y s 939 374 m -26 Y s 1003 400 m -52 Y s 1067 374 m -26 Y s 1131 374 m -26 Y s 1195 374 m -26 Y s 1259 374 m -26 Y s 1323 400 m -52 Y s 1387 374 m -26 Y s 1451 374 m -26 Y s 1515 374 m -26 Y s 1578 374 m -26 Y s 1642 400 m -52 Y s 1706 374 m
 -26 Y s 1770 374 m -26 Y s 1834 374 m -26 Y s 1898 374 m -26 Y s 1962 400 m -52 Y s 1962 400 m -52 Y s 2026 374 m -26 Y s 2090 374 m -26 Y s
 gsave  2268 2177 0 0 C 303.373 254.075 t 0 r /Helvetica findfont 102.389 sf 0 0 m (50) show NC gr 
 gsave  2268 2177 0 0 C 625.708 254.075 t 0 r /Helvetica findfont 102.389 sf 0 0 m (60) show NC gr 
 gsave  2268 2177 0 0 C 944.25 254.075 t 0 r /Helvetica findfont 102.389 sf 0 0 m (70) show NC gr 
 gsave  2268 2177 0 0 C 1262.79 254.075 t 0 r /Helvetica findfont 102.389 sf 0 0 m (80) show NC gr 
 gsave  2268 2177 0 0 C 1585.13 254.075 t 0 r /Helvetica findfont 102.389 sf 0 0 m (90) show NC gr 
 gsave  2268 2177 0 0 C 1877.12 254.075 t 0 r /Helvetica findfont 102.389 sf 0 0 m (100) show NC gr  363 2068 m 1791 X s 363 2016 m 52 Y s 427 2042 m 26 Y s 491 2042 m 26 Y s 555 2042 m 26 Y s 619 2042 m 26 Y s 683 2016 m 52 Y s 747 2042 m 26 Y s 811
 2042 m 26 Y s 875 2042 m 26 Y s 939 2042 m 26 Y s 1003 2016 m 52 Y s 1067 2042 m 26 Y s 1131 2042 m 26 Y s 1195 2042 m 26 Y s 1259 2042 m 26 Y s 1323 2016 m 52 Y s 1387 2042 m 26 Y s 1451 2042 m 26 Y s 1515 2042 m 26 Y s 1578 2042 m 26 Y s 1642 2016
 m 52 Y s 1706 2042 m 26 Y s 1770 2042 m 26 Y s 1834 2042 m 26 Y s 1898 2042 m 26 Y s 1962 2016 m 52 Y s 1962 2016 m 52 Y s 2026 2042 m 26 Y s 2090 2042 m 26 Y s 363 348 m 1720 Y s
 gsave  2268 2177 0 0 C 132.726 1547.2 t 90 r /Helvetica findfont 102.389 sf 0 0 m (Entries / \(4\)) show NC gr  417 689 m -54 X s 390 758 m -27 X s 390 826 m -27 X s 390 894 m -27 X s 390 962 m -27 X s 417 1031 m -54 X s 390 1099 m -27 X s 390 1167
 m -27 X s 390 1235 m -27 X s 390 1304 m -27 X s 417 1372 m -54 X s 390 1440 m -27 X s 390 1508 m -27 X s 390 1577 m -27 X s 390 1645 m -27 X s 417 1713 m -54 X s 390 1781 m -27 X s 390 1850 m -27 X s 390 1918 m -27 X s 390 1986 m -27 X s 417 2054 m
 -54 X s 417 689 m -54 X s 390 621 m -27 X s 390 553 m -27 X s 390 485 m -27 X s 390 417 m -27 X s 417 2054 m -54 X s
 gsave  2268 2177 0 0 C 238.907 652.253 t 0 r /Helvetica findfont 102.389 sf 0 0 m (50) show NC gr 
 gsave  2268 2177 0 0 C 182.024 993.548 t 0 r /Helvetica findfont 102.389 sf 0 0 m (100) show NC gr 
 gsave  2268 2177 0 0 C 182.024 1334.84 t 0 r /Helvetica findfont 102.389 sf 0 0 m (150) show NC gr 
 gsave  2268 2177 0 0 C 182.024 1676.14 t 0 r /Helvetica findfont 102.389 sf 0 0 m (200) show NC gr 
 gsave  2268 2177 0 0 C 182.024 2017.43 t 0 r /Helvetica findfont 102.389 sf 0 0 m (250) show NC gr  2154 348 m 1720 Y s 2101 689 m 53 X s 2127 758 m 27 X s 2127 826 m 27 X s 2127 894 m 27 X s 2127 962 m 27 X s 2101 1031 m 53 X s 2127 1099 m 27 X s
 2127 1167 m 27 X s 2127 1235 m 27 X s 2127 1304 m 27 X s 2101 1372 m 53 X s 2127 1440 m 27 X s 2127 1508 m 27 X s 2127 1577 m 27 X s 2127 1645 m 27 X s 2101 1713 m 53 X s 2127 1781 m 27 X s 2127 1850 m 27 X s 2127 1918 m 27 X s 2127 1986 m 27 X s
 2101 2054 m 53 X s 2101 689 m 53 X s 2127 621 m 27 X s 2127 553 m 27 X s 2127 485 m 27 X s 2127 417 m 27 X s 2101 2054 m 53 X s 0 0.4 0 c 0 0.8 0 c black 0 0.8 0 c 363 348 m 522 Y 128 X 42 Y 128 X -4 Y 128 X 74 Y 128 X 6 Y 128 X -23 Y 128 X 5 Y 128
 X -22 Y 128 X -18 Y 128 X -18 Y 127 X -41 Y 128 X -39 Y 128 X -63 Y 128 X -48 Y 128 X -373 Y f 0 0.4 0 c 0 0.8 0 c 0 0.4 0 c 363 870 m 128 X 42 Y 128 X -4 Y 128 X 74 Y 128 X 6 Y 128 X -23 Y 128 X 5 Y 128 X -22 Y 128 X -18 Y 128 X -18 Y 127 X -41 Y
 128 X -39 Y 128 X -63 Y 128 X -48 Y 128 X s 0.6 0.2 0 c 0.999 0.999 0.999 c black 0.999 0.999 0.999 c 363 348 m 485 Y 128 X 34 Y 128 X 8 Y 128 X 65 Y 128 X 14 Y 128 X -15 Y 128 X 13 Y 128 X -28 Y 128 X -9 Y 128 X -21 Y 127 X -33 Y 128 X -36 Y 128 X
 -67 Y 128 X -41 Y 128 X -369 Y f 0.6 0.2 0 c 0.999 0.999 0.999 c 0.6 0.2 0 c 363 833 m 128 X 34 Y 128 X 8 Y 128 X 65 Y 128 X 14 Y 128 X -15 Y 128 X 13 Y 128 X -28 Y 128 X -9 Y 128 X -21 Y 127 X -33 Y 128 X -36 Y 128 X -67 Y 128 X -41 Y 128 X s 1 1 1
 c black 0.6 0.2 0 c 363 833 m 128 X 34 Y 128 X 8 Y 128 X 65 Y 128 X 14 Y 128 X -15 Y 128 X 13 Y 128 X -28 Y 128 X -9 Y 128 X -21 Y 127 X -33 Y 128 X -36 Y 128 X -67 Y 128 X -41 Y 128 X s 1 0.6 0 c black 1 0.6 0 c 363 348 m 485 Y 128 X 34 Y 128 X 8 Y
 128 X 65 Y 128 X 14 Y 128 X -15 Y 128 X 13 Y 128 X -28 Y 128 X -9 Y 128 X -21 Y 127 X -33 Y 128 X -36 Y 128 X -67 Y 128 X -41 Y 128 X -369 Y f 0.6 0.2 0 c 1 0.6 0 c 0.6 0.2 0 c 363 833 m 128 X 34 Y 128 X 8 Y 128 X 65 Y 128 X 14 Y 128 X -15 Y 128 X
 13 Y 128 X -28 Y 128 X -9 Y 128 X -21 Y 127 X -33 Y 128 X -36 Y 128 X -67 Y 128 X -41 Y 128 X s 0.631373 0 0 c 0.999 0.999 0.999 c black 0.999 0.999 0.999 c 363 348 m 6 Y 256 X -2 Y 128 X 1 Y 128 X 4 Y 128 X -2 Y 128 X -1 Y 256 X 3 Y 128 X -2 Y 127
 X -1 Y 256 X -1 Y 128 X -2 Y 128 X -3 Y f 0.631373 0 0 c 0.999 0.999 0.999 c 0.631373 0 0 c 363 354 m 256 X -2 Y 128 X 1 Y 128 X 4 Y 128 X -2 Y 128 X -1 Y 256 X 3 Y 128 X -2 Y 127 X -1 Y 256 X -1 Y 128 X -2 Y 128 X s 1 1 1 c black 0.631373 0 0 c 363
 354 m 256 X -2 Y 128 X 1 Y 128 X 4 Y 128 X -2 Y 128 X -1 Y 256 X 3 Y 128 X -2 Y 127 X -1 Y 256 X -1 Y 128 X -2 Y 128 X s 0.933333 0 0 c black 0.933333 0 0 c 363 348 m 6 Y 256 X -2 Y 128 X 1 Y 128 X 4 Y 128 X -2 Y 128 X -1 Y 256 X 3 Y 128 X -2 Y 127
 X -1 Y 256 X -1 Y 128 X -2 Y 128 X -3 Y f 0.631373 0 0 c 0.933333 0 0 c 0.631373 0 0 c 363 354 m 256 X -2 Y 128 X 1 Y 128 X 4 Y 128 X -2 Y 128 X -1 Y 256 X 3 Y 128 X -2 Y 127 X -1 Y 256 X -1 Y 128 X -2 Y 128 X s 0.2 0.2 0.2 c 0.999 0.999 0.999 c
 black 0.999 0.999 0.999 c 363 348 m 4 Y 256 X -1 Y 128 X 1 Y 128 X 3 Y 128 X -2 Y 384 X 1 Y 128 X -1 Y 127 X -1 Y 128 X -1 Y 256 X -1 Y 128 X -2 Y f 0.2 0.2 0.2 c 0.999 0.999 0.999 c 0.2 0.2 0.2 c 363 352 m 256 X -1 Y 128 X 1 Y 128 X 3 Y 128 X -2 Y
 384 X 1 Y 128 X -1 Y 127 X -1 Y 128 X -1 Y 256 X -1 Y 128 X s 1 1 1 c black 0.2 0.2 0.2 c 363 352 m 256 X -1 Y 128 X 1 Y 128 X 3 Y 128 X -2 Y 384 X 1 Y 128 X -1 Y 127 X -1 Y 128 X -1 Y 256 X -1 Y 128 X s 0.8 0.8 0.8 c black 0.8 0.8 0.8 c 363 348 m 4
 Y 256 X -1 Y 128 X 1 Y 128 X 3 Y 128 X -2 Y 384 X 1 Y 128 X -1 Y 127 X -1 Y 128 X -1 Y 256 X -1 Y 128 X -2 Y f 0.2 0.2 0.2 c 0.8 0.8 0.8 c 0.2 0.2 0.2 c 363 352 m 256 X -1 Y 128 X 1 Y 128 X 3 Y 128 X -2 Y 384 X 1 Y 128 X -1 Y 127 X -1 Y 128 X -1 Y
 256 X -1 Y 128 X s black 1 1 1 c black 427 1145 m 62 Y s 427 1237 m 62 Y s 363 1222 m 49 X s 442 1222 m 49 X s 427 1222 m20 555 1131 m 62 Y s 555 1223 m 62 Y s 491 1208 m 49 X s 570 1208 m 49 X s 555 1208 m20 683 1131 m 62 Y s 683 1223 m 62 Y s 619
 1208 m 49 X s 698 1208 m 49 X s 683 1208 m20 811 1203 m 65 Y s 811 1298 m 65 Y s 747 1283 m 49 X s 826 1283 m 49 X s 811 1283 m20 939 1086 m 59 Y s 939 1175 m 60 Y s 875 1160 m 49 X s 954 1160 m 49 X s 939 1160 m20 1067 1223 m 65 Y s 1067 1319 m 65
 Y s 1003 1304 m 48 X s 1082 1304 m 49 X s 1067 1304 m20 1195 1066 m 59 Y s 1195 1155 m 58 Y s 1131 1140 m 48 X s 1210 1140 m 49 X s 1195 1140 m20 1323 1203 m 65 Y s 1323 1298 m 65 Y s 1259 1283 m 48 X s 1338 1283 m 49 X s 1323 1283 m20 1451 1138 m
 62 Y s 1451 1230 m 62 Y s 1387 1215 m 48 X s 1466 1215 m 49 X s 1451 1215 m20 1578 1151 m 62 Y s 1578 1244 m 62 Y s 1515 1229 m 48 X s 1594 1229 m 48 X s 1578 1229 m20 1706 1014 m 56 Y s 1706 1100 m 56 Y s 1642 1085 m 49 X s 1722 1085 m 48 X s 1706
 1085 m20 1834 949 m 53 Y s 1834 1032 m 53 Y s 1770 1017 m 49 X s 1850 1017 m 48 X s 1834 1017 m20 1962 852 m 47 Y s 1962 930 m 47 Y s 1898 915 m 49 X s 1978 915 m 48 X s 1962 915 m20 2090 769 m 42 Y s 2090 841 m 42 Y s 2026 826 m 49 X s 2106 826 m
 48 X s 2090 826 m20
 gsave  2268 2177 0 0 C 451.268 1907.46 t 0 r /Helvetica-BoldOblique findfont 102.389 sf 0 0 m (ATLAS) show NC gr 
 gsave  2268 2177 0 0 C 819.108 1907.46 t 0 r /Helvetica findfont 102.389 sf 0 0 m (Internal) show NC gr 
 gsave  2268 2177 0 0 C 705.343 1763.36 t 0 r /Helvetica findfont 87.2199 sf 0 0 m ( CR) show NC gr 
 gsave  2268 2177 0 0 C 652.253 1763.36 t 0 r /Symbol findfont 87.2199 sf 0 0 m (m) show NC gr 
 gsave  2268 2177 0 0 C 599.163 1763.36 t 0 r /Symbol findfont 87.2199 sf 0 0 m (m) show NC gr 
 gsave  2268 2177 0 0 C 549.864 1763.36 t 0 r /Helvetica findfont 87.2199 sf 0 0 m (+) show NC gr 
 gsave  2268 2177 0 0 C 496.774 1763.36 t 0 r /Symbol findfont 87.2199 sf 0 0 m (m) show NC gr 
 gsave  2268 2177 0 0 C 451.268 1763.36 t 0 r /Helvetica findfont 87.2199 sf 0 0 m (e) show NC gr 
 gsave  2268 2177 0 0 C 993.548 1695.1 t 0 r /Helvetica findfont 53.0904 sf 0 0 m (\2551) show NC gr 
 gsave  2268 2177 0 0 C 451.268 1657.18 t 0 r /Helvetica findfont 79.6355 sf 0 0 m (13 TeV, 36.1 fb) show NC gr 
 gsave  2268 2177 0 0 C 1569.96 1945.38 t 0 r /Helvetica findfont 83.4277 sf 0 0 m ( Data) show NC gr  1495 1935 m 59 Y s 1495 1964 m20
 gsave  2268 2177 0 0 C 1736.81 1846.79 t 0 r /Helvetica findfont 83.4277 sf 0 0 m (b) show NC gr  6 lw 1737 1919 m 45 X s
 gsave  2268 2177 0 0 C 1569.96 1846.79 t 0 r /Helvetica findfont 83.4277 sf 0 0 m ( Z+b) show NC gr  0 0.8 0 c 3 lw 1441 1832 m 109 X 69 Y -109 X f 6 lw 0 0.4 0 c 3 lw 1441 1901 m 109 X s 1441 1832 m 109 X s 1550 1832 m 69 Y s 1441 1832 m 69 Y s
 black
 gsave  2268 2177 0 0 C 1615.46 1748.19 t 0 r /Helvetica findfont 83.4277 sf 0 0 m (t) show NC gr  6 lw 1615 1813 m 23 X s
 gsave  2268 2177 0 0 C 1569.96 1748.19 t 0 r /Helvetica findfont 83.4277 sf 0 0 m ( t) show NC gr  1 0.6 0 c 3 lw 1441 1734 m 109 X 69 Y -109 X f 6 lw 0.6 0.2 0 c 3 lw 1441 1803 m 109 X s 1441 1734 m 109 X s 1550 1734 m 69 Y s 1441 1734 m 69 Y s
 black
 gsave  2268 2177 0 0 C 1569.96 1649.59 t 0 r /Helvetica findfont 83.4277 sf 0 0 m ( ZZ*) show NC gr  0.933333 0 0 c 1441 1636 m 109 X 69 Y -109 X f 0.631373 0 0 c 1441 1705 m 109 X s 1441 1636 m 109 X s 1550 1636 m 69 Y s 1441 1636 m 69 Y s black
 gsave  2268 2177 0 0 C 1569.96 1551 t 0 r /Helvetica findfont 83.4277 sf 0 0 m ( WZ) show NC gr  0.8 0.8 0.8 c 1441 1538 m 109 X 69 Y -109 X f 0.2 0.2 0.2 c 1441 1607 m 109 X s 1441 1538 m 109 X s 1550 1538 m 69 Y s 1441 1538 m 69 Y s black 363 348
 m 1791 X s 363 400 m -52 Y s 427 374 m -26 Y s 491 374 m -26 Y s 555 374 m -26 Y s 619 374 m -26 Y s 683 400 m -52 Y s 747 374 m -26 Y s 811 374 m -26 Y s 875 374 m -26 Y s 939 374 m -26 Y s 1003 400 m -52 Y s 1067 374 m -26 Y s 1131 374 m -26 Y s
 1195 374 m -26 Y s 1259 374 m -26 Y s 1323 400 m -52 Y s 1387 374 m -26 Y s 1451 374 m -26 Y s 1515 374 m -26 Y s 1578 374 m -26 Y s 1642 400 m -52 Y s 1706 374 m -26 Y s 1770 374 m -26 Y s 1834 374 m -26 Y s 1898 374 m -26 Y s 1962 400 m -52 Y s
 1962 400 m -52 Y s 2026 374 m -26 Y s 2090 374 m -26 Y s 363 2068 m 1791 X s 363 2016 m 52 Y s 427 2042 m 26 Y s 491 2042 m 26 Y s 555 2042 m 26 Y s 619 2042 m 26 Y s 683 2016 m 52 Y s 747 2042 m 26 Y s 811 2042 m 26 Y s 875 2042 m 26 Y s 939 2042 m
 26 Y s 1003 2016 m 52 Y s 1067 2042 m 26 Y s 1131 2042 m 26 Y s 1195 2042 m 26 Y s 1259 2042 m 26 Y s 1323 2016 m 52 Y s 1387 2042 m 26 Y s 1451 2042 m 26 Y s 1515 2042 m 26 Y s 1578 2042 m 26 Y s 1642 2016 m 52 Y s 1706 2042 m 26 Y s 1770 2042 m 26
 Y s 1834 2042 m 26 Y s 1898 2042 m 26 Y s 1962 2016 m 52 Y s 1962 2016 m 52 Y s 2026 2042 m 26 Y s 2090 2042 m 26 Y s 363 348 m 1720 Y s 417 689 m -54 X s 390 758 m -27 X s 390 826 m -27 X s 390 894 m -27 X s 390 962 m -27 X s 417 1031 m -54 X s 390
 1099 m -27 X s 390 1167 m -27 X s 390 1235 m -27 X s 390 1304 m -27 X s 417 1372 m -54 X s 390 1440 m -27 X s 390 1508 m -27 X s 390 1577 m -27 X s 390 1645 m -27 X s 417 1713 m -54 X s 390 1781 m -27 X s 390 1850 m -27 X s 390 1918 m -27 X s 390
 1986 m -27 X s 417 2054 m -54 X s 417 689 m -54 X s 390 621 m -27 X s 390 553 m -27 X s 390 485 m -27 X s 390 417 m -27 X s 417 2054 m -54 X s 2154 348 m 1720 Y s 2101 689 m 53 X s 2127 758 m 27 X s 2127 826 m 27 X s 2127 894 m 27 X s 2127 962 m 27
 X s 2101 1031 m 53 X s 2127 1099 m 27 X s 2127 1167 m 27 X s 2127 1235 m 27 X s 2127 1304 m 27 X s 2101 1372 m 53 X s 2127 1440 m 27 X s 2127 1508 m 27 X s 2127 1577 m 27 X s 2127 1645 m 27 X s 2101 1713 m 53 X s 2127 1781 m 27 X s 2127 1850 m 27 X
 s 2127 1918 m 27 X s 2127 1986 m 27 X s 2101 2054 m 53 X s 2101 689 m 53 X s 2127 621 m 27 X s 2127 553 m 27 X s 2127 485 m 27 X s 2127 417 m 27 X s 2101 2054 m 53 X s
 gr  gr showpage
end
%%EOF
