%!PS-Adobe-2.0 EPSF-2.0
%%BoundingBox:  0 0 567 544
%%Title: output/Fit_CRB_data.eps: CRB
%%Creator: ROOT Version 6.04/14
%%CreationDate: Mon Feb 20 22:58:59 2017
%%DocumentNeededResources: ProcSet (FontSetInit)
%%EndComments
%%BeginProlog
80 dict begin
/s {stroke} def /l {lineto} def /m {moveto} def /t {translate} def
/r {rotate} def /rl {roll}  def /R {repeat} def
/d {rlineto} def /rm {rmoveto} def /gr {grestore} def /f {eofill} def
/c {setrgbcolor} def /black {0 setgray} def /sd {setdash} def
/cl {closepath} def /sf {scalefont setfont} def /lw {setlinewidth} def
/box {m dup 0 exch d exch 0 d 0 exch neg d cl} def
/NC{systemdict begin initclip end}def/C{NC box clip newpath}def
/bl {box s} def /bf {gsave box gsave f grestore 1 lw [] 0 sd s grestore} def /Y { 0 exch d} def /X { 0 d} def 
/K {{pop pop 0 moveto} exch kshow} bind def
/ita {/ang 15 def gsave [1 0 ang dup sin exch cos div 1 0 0] concat} def 
/mp {newpath /y exch def /x exch def} def
/side {[w .77 mul w .23 mul] .385 w mul sd w 0 l currentpoint t -144 r} def
/mr {mp x y w2 0 360 arc} def /m24 {mr s} def /m20 {mr f} def
/mb {mp x y w2 add m w2 neg 0 d 0 w neg d w 0 d 0 w d cl} def
/mt {mp x y w2 add m w2 neg w neg d w 0 d cl} def
/m21 {mb f} def /m25 {mb s} def /m22 {mt f} def /m26{mt s} def
/m23 {mp x y w2 sub m w2 w d w neg 0 d cl f} def
/m27 {mp x y w2 add m w3 neg w2 neg d w3 w2 neg d w3 w2 d cl s} def
/m28 {mp x w2 sub y w2 sub w3 add m w3 0 d  0 w3 neg d w3 0 d 0 w3 d w3 0 d  0 w3 d w3 neg 0 d 0 w3 d w3 neg 0 d 0 w3 neg d w3 neg 0 d cl s } def
/m29 {mp gsave x w2 sub y w2 add w3 sub m currentpoint t 4 {side} repeat cl fill gr} def
/m30 {mp gsave x w2 sub y w2 add w3 sub m currentpoint t 4 {side} repeat cl s gr} def
/m31 {mp x y w2 sub m 0 w d x w2 sub y m w 0 d x w2 sub y w2 add m w w neg d x w2 sub y w2 sub m w w d s} def
/m32 {mp x y w2 sub m w2 w d w neg 0 d cl s} def
/m33 {mp x y w2 add m w3 neg w2 neg d w3 w2 neg d w3 w2 d cl f} def
/m34 {mp x w2 sub y w2 sub w3 add m w3 0 d  0 w3 neg d w3 0 d 0 w3 d w3 0 d  0 w3 d w3 neg 0 d 0 w3 d w3 neg 0 d 0 w3 neg d w3 neg 0 d cl f } def
/m2 {mp x y w2 sub m 0 w d x w2 sub y m w 0 d s} def
/m5 {mp x w2 sub y w2 sub m w w d x w2 sub y w2 add m w w neg d s} def
%%IncludeResource: ProcSet (FontSetInit)
%%IncludeResource: font Times-Roman
%%IncludeResource: font Times-Italic
%%IncludeResource: font Times-Bold
%%IncludeResource: font Times-BoldItalic
%%IncludeResource: font Helvetica
%%IncludeResource: font Helvetica-Oblique
%%IncludeResource: font Helvetica-Bold
%%IncludeResource: font Helvetica-BoldOblique
%%IncludeResource: font Courier
%%IncludeResource: font Courier-Oblique
%%IncludeResource: font Courier-Bold
%%IncludeResource: font Courier-BoldOblique
%%IncludeResource: font Symbol
%%IncludeResource: font ZapfDingbats
/reEncode {exch findfont dup length dict begin {1 index /FID eq  {pop pop} {def} ifelse } forall /Encoding exch def currentdict end dup /FontName get exch definefont pop } def [/Times-Bold /Times-Italic /Times-BoldItalic /Helvetica /Helvetica-Oblique
 /Helvetica-Bold /Helvetica-BoldOblique /Courier /Courier-Oblique /Courier-Bold /Courier-BoldOblique /Times-Roman /AvantGarde-Book /AvantGarde-BookOblique /AvantGarde-Demi /AvantGarde-DemiOblique /Bookman-Demi /Bookman-DemiItalic /Bookman-Light
 /Bookman-LightItalic /Helvetica-Narrow /Helvetica-Narrow-Bold /Helvetica-Narrow-BoldOblique /Helvetica-Narrow-Oblique /NewCenturySchlbk-Roman /NewCenturySchlbk-Bold /NewCenturySchlbk-BoldItalic /NewCenturySchlbk-Italic /Palatino-Bold
 /Palatino-BoldItalic /Palatino-Italic /Palatino-Roman ] {ISOLatin1Encoding reEncode } forall
%%EndProlog
%%BeginSetup
%%EndSetup
newpath  gsave  .25 .25 scale  gsave  0 0 t black[  ] 0 sd 3 lw 1 1 1 c 2268 2177 0 0 bf black 1 1 1 c 1814 1720 340 348 bf black 1814 1720 340 348 bl 340 348 m 1814 X s
 gsave  2268 2177 0 0 C 1869.54 79.6355 t 0 r /Helvetica findfont 102.389 sf 0 0 m ( [GeV]) show NC gr 
 gsave  2268 2177 0 0 C 1793.7 49.2982 t 0 r /Helvetica findfont 68.259 sf 0 0 m (12) show NC gr 
 gsave  2268 2177 0 0 C 1714.06 79.6355 t 0 r /Helvetica findfont 102.389 sf 0 0 m (m) show NC gr  340 401 m -53 Y s 405 374 m -26 Y s 470 374 m -26 Y s 535 374 m -26 Y s 599 374 m -26 Y s 664 401 m -53 Y s 729 374 m -26 Y s 794 374 m -26 Y s 858 374
 m -26 Y s 923 374 m -26 Y s 988 401 m -53 Y s 1053 374 m -26 Y s 1118 374 m -26 Y s 1182 374 m -26 Y s 1247 374 m -26 Y s 1312 401 m -53 Y s 1377 374 m -26 Y s 1442 374 m -26 Y s 1506 374 m -26 Y s 1571 374 m -26 Y s 1636 401 m -53 Y s 1701 374 m
 -26 Y s 1766 374 m -26 Y s 1830 374 m -26 Y s 1895 374 m -26 Y s 1960 401 m -53 Y s 1960 401 m -53 Y s 2025 374 m -26 Y s 2090 374 m -26 Y s
 gsave  2268 2177 0 0 C 280.62 254.075 t 0 r /Helvetica findfont 102.389 sf 0 0 m (50) show NC gr 
 gsave  2268 2177 0 0 C 606.747 254.075 t 0 r /Helvetica findfont 102.389 sf 0 0 m (60) show NC gr 
 gsave  2268 2177 0 0 C 929.081 254.075 t 0 r /Helvetica findfont 102.389 sf 0 0 m (70) show NC gr 
 gsave  2268 2177 0 0 C 1251.42 254.075 t 0 r /Helvetica findfont 102.389 sf 0 0 m (80) show NC gr 
 gsave  2268 2177 0 0 C 1577.54 254.075 t 0 r /Helvetica findfont 102.389 sf 0 0 m (90) show NC gr 
 gsave  2268 2177 0 0 C 1873.33 254.075 t 0 r /Helvetica findfont 102.389 sf 0 0 m (100) show NC gr  340 2068 m 1814 X s 340 2016 m 52 Y s 405 2042 m 26 Y s 470 2042 m 26 Y s 535 2042 m 26 Y s 599 2042 m 26 Y s 664 2016 m 52 Y s 729 2042 m 26 Y s 794
 2042 m 26 Y s 858 2042 m 26 Y s 923 2042 m 26 Y s 988 2016 m 52 Y s 1053 2042 m 26 Y s 1118 2042 m 26 Y s 1182 2042 m 26 Y s 1247 2042 m 26 Y s 1312 2016 m 52 Y s 1377 2042 m 26 Y s 1442 2042 m 26 Y s 1506 2042 m 26 Y s 1571 2042 m 26 Y s 1636 2016
 m 52 Y s 1701 2042 m 26 Y s 1766 2042 m 26 Y s 1830 2042 m 26 Y s 1895 2042 m 26 Y s 1960 2016 m 52 Y s 1960 2016 m 52 Y s 2025 2042 m 26 Y s 2090 2042 m 26 Y s 340 348 m 1720 Y s
 gsave  2268 2177 0 0 C 121.349 1441.02 t 90 r /Helvetica findfont 102.389 sf 0 0 m (Events/4 GeV) show NC gr  394 509 m -54 X s 367 549 m -27 X s 367 589 m -27 X s 367 629 m -27 X s 394 669 m -54 X s 367 709 m -27 X s 367 749 m -27 X s 367 789 m -27
 X s 394 829 m -54 X s 367 869 m -27 X s 367 910 m -27 X s 367 950 m -27 X s 394 990 m -54 X s 367 1030 m -27 X s 367 1070 m -27 X s 367 1110 m -27 X s 394 1150 m -54 X s 367 1190 m -27 X s 367 1230 m -27 X s 367 1270 m -27 X s 394 1310 m -54 X s 367
 1350 m -27 X s 367 1391 m -27 X s 367 1431 m -27 X s 394 1471 m -54 X s 367 1511 m -27 X s 367 1551 m -27 X s 367 1591 m -27 X s 394 1631 m -54 X s 367 1671 m -27 X s 367 1711 m -27 X s 367 1751 m -27 X s 394 1791 m -54 X s 367 1832 m -27 X s 367
 1872 m -27 X s 367 1912 m -27 X s 394 1952 m -54 X s 394 509 m -54 X s 367 469 m -27 X s 367 428 m -27 X s 367 388 m -27 X s 394 1952 m -54 X s 367 1992 m -27 X s 367 2032 m -27 X s
 gsave  2268 2177 0 0 C 216.154 474.021 t 0 r /Helvetica findfont 102.389 sf 0 0 m (20) show NC gr 
 gsave  2268 2177 0 0 C 216.154 633.292 t 0 r /Helvetica findfont 102.389 sf 0 0 m (40) show NC gr 
 gsave  2268 2177 0 0 C 216.154 792.563 t 0 r /Helvetica findfont 102.389 sf 0 0 m (60) show NC gr 
 gsave  2268 2177 0 0 C 216.154 951.834 t 0 r /Helvetica findfont 102.389 sf 0 0 m (80) show NC gr 
 gsave  2268 2177 0 0 C 159.271 1114.9 t 0 r /Helvetica findfont 102.389 sf 0 0 m (100) show NC gr 
 gsave  2268 2177 0 0 C 159.271 1274.17 t 0 r /Helvetica findfont 102.389 sf 0 0 m (120) show NC gr 
 gsave  2268 2177 0 0 C 159.271 1433.44 t 0 r /Helvetica findfont 102.389 sf 0 0 m (140) show NC gr 
 gsave  2268 2177 0 0 C 159.271 1596.5 t 0 r /Helvetica findfont 102.389 sf 0 0 m (160) show NC gr 
 gsave  2268 2177 0 0 C 159.271 1755.77 t 0 r /Helvetica findfont 102.389 sf 0 0 m (180) show NC gr 
 gsave  2268 2177 0 0 C 159.271 1915.04 t 0 r /Helvetica findfont 102.389 sf 0 0 m (200) show NC gr  2154 348 m 1720 Y s 2101 509 m 53 X s 2127 549 m 27 X s 2127 589 m 27 X s 2127 629 m 27 X s 2101 669 m 53 X s 2127 709 m 27 X s 2127 749 m 27 X s
 2127 789 m 27 X s 2101 829 m 53 X s 2127 869 m 27 X s 2127 910 m 27 X s 2127 950 m 27 X s 2101 990 m 53 X s 2127 1030 m 27 X s 2127 1070 m 27 X s 2127 1110 m 27 X s 2101 1150 m 53 X s 2127 1190 m 27 X s 2127 1230 m 27 X s 2127 1270 m 27 X s 2101
 1310 m 53 X s 2127 1350 m 27 X s 2127 1391 m 27 X s 2127 1431 m 27 X s 2101 1471 m 53 X s 2127 1511 m 27 X s 2127 1551 m 27 X s 2127 1591 m 27 X s 2101 1631 m 53 X s 2127 1671 m 27 X s 2127 1711 m 27 X s 2127 1751 m 27 X s 2101 1791 m 53 X s 2127
 1832 m 27 X s 2127 1872 m 27 X s 2127 1912 m 27 X s 2101 1952 m 53 X s 2101 509 m 53 X s 2127 469 m 27 X s 2127 428 m 27 X s 2127 388 m 27 X s 2101 1952 m 53 X s 2127 1992 m 27 X s 2127 2032 m 27 X s 405 412 m -65 X s 340 412 m cl s 405 412 m 65 X s
 470 412 m cl s 405 412 m 32 Y s 405 444 m cl s 405 412 m -22 Y s 405 390 m cl s 535 436 m -65 X s 470 436 m cl s 535 436 m 64 X s 599 436 m cl s 535 436 m 36 Y s 535 472 m cl s 535 436 m -26 Y s 535 410 m cl s 664 452 m -65 X s 599 452 m cl s 664
 452 m 65 X s 729 452 m cl s 664 452 m 38 Y s 664 490 m cl s 664 452 m -28 Y s 664 424 m cl s 794 420 m -65 X s 729 420 m cl s 794 420 m 64 X s 858 420 m cl s 794 420 m 33 Y s 794 453 m cl s 794 420 m -23 Y s 794 397 m cl s 923 452 m -65 X s 858 452
 m cl s 923 452 m 65 X s 988 452 m cl s 923 452 m 38 Y s 923 490 m cl s 923 452 m -28 Y s 923 424 m cl s 1053 485 m -65 X s 988 485 m cl s 1053 485 m 65 X s 1118 485 m cl s 1053 485 m 41 Y s 1053 526 m cl s 1053 485 m -33 Y s 1053 452 m cl s 1182 533
 m -64 X s 1118 533 m cl s 1182 533 m 65 X s 1247 533 m cl s 1182 533 m 47 Y s 1182 580 m cl s 1182 533 m -38 Y s 1182 495 m cl s 1312 517 m -65 X s 1247 517 m cl s 1312 517 m 65 X s 1377 517 m cl s 1312 517 m 45 Y s 1312 562 m cl s 1312 517 m -37 Y
 s 1312 480 m cl s 1442 653 m -65 X s 1377 653 m cl s 1442 653 m 64 X s 1506 653 m cl s 1442 653 m 58 Y s 1442 711 m cl s 1442 653 m -49 Y s 1442 604 m cl s 1571 1142 m -65 X s 1506 1142 m cl s 1571 1142 m 65 X s 1636 1142 m cl s 1571 1142 m 88 Y s
 1571 1230 m cl s 1571 1142 m -80 Y s 1571 1062 m cl s 1701 1102 m -65 X s 1636 1102 m cl s 1701 1102 m 65 X s 1766 1102 m cl s 1701 1102 m 86 Y s 1701 1188 m cl s 1701 1102 m -78 Y s 1701 1024 m cl s 1830 605 m -64 X s 1766 605 m cl s 1830 605 m 65
 X s 1895 605 m cl s 1830 605 m 54 Y s 1830 659 m cl s 1830 605 m -45 Y s 1830 560 m cl s 1960 420 m -65 X s 1895 420 m cl s 1960 420 m 65 X s 2025 420 m cl s 1960 420 m 33 Y s 1960 453 m cl s 1960 420 m -23 Y s 1960 397 m cl s 2090 388 m -65 X s
 2025 388 m cl s 2090 388 m 64 X s 2154 388 m cl s 2090 388 m 27 Y s 2090 415 m cl s 2090 388 m -17 Y s 2090 371 m cl s /w 36 def /w2 {w 2 div} def /w3 {w 3 div} def 405 412 535 436 664 452 794 420 923 452 1053 485 1182 533 1312 517 1442 653 1571
 1142 1701 1102 1830 605 1960 420 2090 388 14 { m20} R 0.8 0 0 c 9 lw black 0.8 0 0 c 340 416 m cl s 340 416 m 130 7 d 129 7 d 130 9 d 129 7 d 130 7 d 130 12 d 64 8 d 65 14 d 33 9 d 32 12 d 32 16 d 33 22 d 16 14 d 16 16 d 16 20 d 17 23 d 16 28 d 16
 35 d 8 20 d 8 22 d 8 25 d 8 27 d 9 30 d 8 34 d 8 37 d 8 40 d 8 44 d 8 47 d 16 102 d 16 105 d 9 50 d 8 47 d 8 41 d 8 34 d 4 15 d 4 12 d 4 10 d 4 8 d 4 5 d 4 3 d 4 X 4 -2 d 4 -5 d 4 -7 d 4 -9 d 4 -12 d 4 -14 d 4 -17 d 9 -38 d 8 -45 d 8 -50 d 8 -54 d 8
 -57 d 16 -115 d 8 -56 d 8 -54 d 8 -51 d 9 -47 d 8 -44 d 8 -40 d 8 -35 d 8 -32 d 8 -28 d 8 -24 d 8 -22 d 8 -18 d 8 -17 d 9 -14 d 16 -23 d 16 -17 d 16 -13 d 33 -19 d 32 -13 d 65 -18 d 129 -22 d s 1 0.6 0 c[  12 12 ] 0 sd black 1 0.6 0 c 340 414 m cl s
 340 414 m 65 3 d 65 3 d 65 3 d 64 3 d 65 2 d 65 2 d 65 2 d 64 1 d 65 1 d 65 1 d 65 1 d 129 X 65 -1 d 65 -1 d 65 -1 d 65 -1 d 64 -2 d 65 -2 d 65 -2 d 65 -3 d 65 -3 d 64 -3 d 65 -4 d 65 -4 d 65 -4 d 65 -4 d 64 -5 d s 0 1 0 c[  ] 0 sd black 0 1 0 c 340
 348 m cl s 340 348 m 1814 X s 0 0.6 0 c[  12 12 ] 0 sd black 0 0.6 0 c 340 350 m cl s 340 350 m 130 1 d 129 1 d 130 3 d 129 3 d 130 5 d 130 8 d 64 8 d 65 11 d 33 8 d 32 10 d 32 13 d 33 18 d 16 12 d 16 13 d 16 16 d 17 20 d 16 23 d 16 28 d 8 16 d 8 19
 d 8 20 d 8 22 d 9 25 d 8 27 d 8 30 d 8 33 d 8 36 d 8 38 d 16 83 d 16 85 d 9 41 d 8 38 d 8 33 d 8 28 d 4 12 d 4 10 d 4 8 d 4 7 d 4 4 d 4 3 d 4 X 4 -2 d 4 -3 d 4 -6 d 4 -7 d 4 -10 d 4 -11 d 4 -13 d 9 -31 d 8 -36 d 8 -40 d 8 -44 d 8 -45 d 16 -93 d 8
 -45 d 8 -43 d 8 -41 d 9 -38 d 8 -35 d 8 -32 d 8 -28 d 8 -26 d 8 -22 d 8 -19 d 8 -17 d 8 -15 d 8 -13 d 9 -11 d 16 -18 d 16 -13 d 16 -10 d 16 -8 d 17 -6 d 32 -9 d 32 -6 d 33 -4 d 65 -7 d 64 -4 d s black[  ] 0 sd 3 lw 405 412 m -65 X s 340 412 m cl s
 405 412 m 65 X s 470 412 m cl s 405 412 m 32 Y s 405 444 m cl s 405 412 m -22 Y s 405 390 m cl s 535 436 m -65 X s 470 436 m cl s 535 436 m 64 X s 599 436 m cl s 535 436 m 36 Y s 535 472 m cl s 535 436 m -26 Y s 535 410 m cl s 664 452 m -65 X s 599
 452 m cl s 664 452 m 65 X s 729 452 m cl s 664 452 m 38 Y s 664 490 m cl s 664 452 m -28 Y s 664 424 m cl s 794 420 m -65 X s 729 420 m cl s 794 420 m 64 X s 858 420 m cl s 794 420 m 33 Y s 794 453 m cl s 794 420 m -23 Y s 794 397 m cl s 923 452 m
 -65 X s 858 452 m cl s 923 452 m 65 X s 988 452 m cl s 923 452 m 38 Y s 923 490 m cl s 923 452 m -28 Y s 923 424 m cl s 1053 485 m -65 X s 988 485 m cl s 1053 485 m 65 X s 1118 485 m cl s 1053 485 m 41 Y s 1053 526 m cl s 1053 485 m -33 Y s 1053 452
 m cl s 1182 533 m -64 X s 1118 533 m cl s 1182 533 m 65 X s 1247 533 m cl s 1182 533 m 47 Y s 1182 580 m cl s 1182 533 m -38 Y s 1182 495 m cl s 1312 517 m -65 X s 1247 517 m cl s 1312 517 m 65 X s 1377 517 m cl s 1312 517 m 45 Y s 1312 562 m cl s
 1312 517 m -37 Y s 1312 480 m cl s 1442 653 m -65 X s 1377 653 m cl s 1442 653 m 64 X s 1506 653 m cl s 1442 653 m 58 Y s 1442 711 m cl s 1442 653 m -49 Y s 1442 604 m cl s 1571 1142 m -65 X s 1506 1142 m cl s 1571 1142 m 65 X s 1636 1142 m cl s
 1571 1142 m 88 Y s 1571 1230 m cl s 1571 1142 m -80 Y s 1571 1062 m cl s 1701 1102 m -65 X s 1636 1102 m cl s 1701 1102 m 65 X s 1766 1102 m cl s 1701 1102 m 86 Y s 1701 1188 m cl s 1701 1102 m -78 Y s 1701 1024 m cl s 1830 605 m -64 X s 1766 605 m
 cl s 1830 605 m 65 X s 1895 605 m cl s 1830 605 m 54 Y s 1830 659 m cl s 1830 605 m -45 Y s 1830 560 m cl s 1960 420 m -65 X s 1895 420 m cl s 1960 420 m 65 X s 2025 420 m cl s 1960 420 m 33 Y s 1960 453 m cl s 1960 420 m -23 Y s 1960 397 m cl s
 2090 388 m -65 X s 2025 388 m cl s 2090 388 m 64 X s 2154 388 m cl s 2090 388 m 27 Y s 2090 415 m cl s 2090 388 m -17 Y s 2090 371 m cl s 405 412 535 436 664 452 794 420 923 452 1053 485 1182 533 1312 517 1442 653 1571 1142 1701 1102 1830 605 1960
 420 2090 388 14 { m20} R 340 348 m 1814 X s 340 401 m -53 Y s 405 374 m -26 Y s 470 374 m -26 Y s 535 374 m -26 Y s 599 374 m -26 Y s 664 401 m -53 Y s 729 374 m -26 Y s 794 374 m -26 Y s 858 374 m -26 Y s 923 374 m -26 Y s 988 401 m -53 Y s 1053
 374 m -26 Y s 1118 374 m -26 Y s 1182 374 m -26 Y s 1247 374 m -26 Y s 1312 401 m -53 Y s 1377 374 m -26 Y s 1442 374 m -26 Y s 1506 374 m -26 Y s 1571 374 m -26 Y s 1636 401 m -53 Y s 1701 374 m -26 Y s 1766 374 m -26 Y s 1830 374 m -26 Y s 1895
 374 m -26 Y s 1960 401 m -53 Y s 1960 401 m -53 Y s 2025 374 m -26 Y s 2090 374 m -26 Y s 340 2068 m 1814 X s 340 2016 m 52 Y s 405 2042 m 26 Y s 470 2042 m 26 Y s 535 2042 m 26 Y s 599 2042 m 26 Y s 664 2016 m 52 Y s 729 2042 m 26 Y s 794 2042 m 26
 Y s 858 2042 m 26 Y s 923 2042 m 26 Y s 988 2016 m 52 Y s 1053 2042 m 26 Y s 1118 2042 m 26 Y s 1182 2042 m 26 Y s 1247 2042 m 26 Y s 1312 2016 m 52 Y s 1377 2042 m 26 Y s 1442 2042 m 26 Y s 1506 2042 m 26 Y s 1571 2042 m 26 Y s 1636 2016 m 52 Y s
 1701 2042 m 26 Y s 1766 2042 m 26 Y s 1830 2042 m 26 Y s 1895 2042 m 26 Y s 1960 2016 m 52 Y s 1960 2016 m 52 Y s 2025 2042 m 26 Y s 2090 2042 m 26 Y s 340 348 m 1720 Y s 394 509 m -54 X s 367 549 m -27 X s 367 589 m -27 X s 367 629 m -27 X s 394
 669 m -54 X s 367 709 m -27 X s 367 749 m -27 X s 367 789 m -27 X s 394 829 m -54 X s 367 869 m -27 X s 367 910 m -27 X s 367 950 m -27 X s 394 990 m -54 X s 367 1030 m -27 X s 367 1070 m -27 X s 367 1110 m -27 X s 394 1150 m -54 X s 367 1190 m -27
 X s 367 1230 m -27 X s 367 1270 m -27 X s 394 1310 m -54 X s 367 1350 m -27 X s 367 1391 m -27 X s 367 1431 m -27 X s 394 1471 m -54 X s 367 1511 m -27 X s 367 1551 m -27 X s 367 1591 m -27 X s 394 1631 m -54 X s 367 1671 m -27 X s 367 1711 m -27 X
 s 367 1751 m -27 X s 394 1791 m -54 X s 367 1832 m -27 X s 367 1872 m -27 X s 367 1912 m -27 X s 394 1952 m -54 X s 394 509 m -54 X s 367 469 m -27 X s 367 428 m -27 X s 367 388 m -27 X s 394 1952 m -54 X s 367 1992 m -27 X s 367 2032 m -27 X s 2154
 348 m 1720 Y s 2101 509 m 53 X s 2127 549 m 27 X s 2127 589 m 27 X s 2127 629 m 27 X s 2101 669 m 53 X s 2127 709 m 27 X s 2127 749 m 27 X s 2127 789 m 27 X s 2101 829 m 53 X s 2127 869 m 27 X s 2127 910 m 27 X s 2127 950 m 27 X s 2101 990 m 53 X s
 2127 1030 m 27 X s 2127 1070 m 27 X s 2127 1110 m 27 X s 2101 1150 m 53 X s 2127 1190 m 27 X s 2127 1230 m 27 X s 2127 1270 m 27 X s 2101 1310 m 53 X s 2127 1350 m 27 X s 2127 1391 m 27 X s 2127 1431 m 27 X s 2101 1471 m 53 X s 2127 1511 m 27 X s
 2127 1551 m 27 X s 2127 1591 m 27 X s 2101 1631 m 53 X s 2127 1671 m 27 X s 2127 1711 m 27 X s 2127 1751 m 27 X s 2101 1791 m 53 X s 2127 1832 m 27 X s 2127 1872 m 27 X s 2127 1912 m 27 X s 2101 1952 m 53 X s 2101 509 m 53 X s 2127 469 m 27 X s 2127
 428 m 27 X s 2127 388 m 27 X s 2101 1952 m 53 X s 2127 1992 m 27 X s 2127 2032 m 27 X s
 gsave  2268 2177 0 0 C 1569.96 1945.38 t 0 r /Helvetica findfont 79.6355 sf 0 0 m ( Data) show NC gr  6 lw 1495 1935 m 59 Y s 3 lw 1495 1964 m20 6 lw
 gsave  2268 2177 0 0 C 1569.96 1846.79 t 0 r /Helvetica findfont 79.6355 sf 0 0 m ( Total) show NC gr  0.8 0 0 c 1441 1867 m 109 X s black
 gsave  2268 2177 0 0 C 1615.46 1748.19 t 0 r /Helvetica findfont 79.6355 sf 0 0 m (t) show NC gr  1615 1813 m 23 X s
 gsave  2268 2177 0 0 C 1569.96 1748.19 t 0 r /Helvetica findfont 79.6355 sf 0 0 m ( t) show NC gr  1 0.6 0 c[  12 12 ] 0 sd 1441 1769 m 109 X s black
 gsave  2268 2177 0 0 C 1569.96 1649.59 t 0 r /Helvetica findfont 79.6355 sf 0 0 m ( Z+HF) show NC gr  0 0.4 0 c 1441 1671 m 109 X s black
 gsave  2268 2177 0 0 C 1569.96 1551 t 0 r /Helvetica findfont 79.6355 sf 0 0 m ( Z+LF) show NC gr  0 1 0 c[  ] 0 sd 1441 1573 m 109 X s black
 gsave  2268 2177 0 0 C 451.268 1907.46 t 0 r /Helvetica-BoldOblique findfont 102.389 sf 0 0 m (ATLAS) show NC gr 
 gsave  2268 2177 0 0 C 819.108 1907.46 t 0 r /Helvetica findfont 102.389 sf 0 0 m (Internal) show NC gr 
 gsave  2268 2177 0 0 C 451.268 1763.36 t 0 r /Helvetica findfont 87.2199 sf 0 0 m (Inverted Isolation CR) show NC gr 
 gsave  2268 2177 0 0 C 993.548 1695.1 t 0 r /Helvetica findfont 53.0904 sf 0 0 m (\2551) show NC gr 
 gsave  2268 2177 0 0 C 451.268 1657.18 t 0 r /Helvetica findfont 79.6355 sf 0 0 m (13 TeV, 36.1 fb) show NC gr 
 gr  gr showpage
end
%%EOF
