%!PS-Adobe-2.0 EPSF-2.0
%%BoundingBox:  0 0 567 544
%%Title: plots/Fit_relaxee_nInner_data_LOG.eps: fitPlot
%%Creator: ROOT Version 6.04/16
%%CreationDate: Fri Dec  9 00:13:48 2016
%%DocumentNeededResources: ProcSet (FontSetInit)
%%EndComments
%%BeginProlog
80 dict begin
/s {stroke} def /l {lineto} def /m {moveto} def /t {translate} def
/r {rotate} def /rl {roll}  def /R {repeat} def
/d {rlineto} def /rm {rmoveto} def /gr {grestore} def /f {eofill} def
/c {setrgbcolor} def /black {0 setgray} def /sd {setdash} def
/cl {closepath} def /sf {scalefont setfont} def /lw {setlinewidth} def
/box {m dup 0 exch d exch 0 d 0 exch neg d cl} def
/NC{systemdict begin initclip end}def/C{NC box clip newpath}def
/bl {box s} def /bf {gsave box gsave f grestore 1 lw [] 0 sd s grestore} def /Y { 0 exch d} def /X { 0 d} def 
/K {{pop pop 0 moveto} exch kshow} bind def
/ita {/ang 15 def gsave [1 0 ang dup sin exch cos div 1 0 0] concat} def 
/mp {newpath /y exch def /x exch def} def
/side {[w .77 mul w .23 mul] .385 w mul sd w 0 l currentpoint t -144 r} def
/mr {mp x y w2 0 360 arc} def /m24 {mr s} def /m20 {mr f} def
/mb {mp x y w2 add m w2 neg 0 d 0 w neg d w 0 d 0 w d cl} def
/mt {mp x y w2 add m w2 neg w neg d w 0 d cl} def
/m21 {mb f} def /m25 {mb s} def /m22 {mt f} def /m26{mt s} def
/m23 {mp x y w2 sub m w2 w d w neg 0 d cl f} def
/m27 {mp x y w2 add m w3 neg w2 neg d w3 w2 neg d w3 w2 d cl s} def
/m28 {mp x w2 sub y w2 sub w3 add m w3 0 d  0 w3 neg d w3 0 d 0 w3 d w3 0 d  0 w3 d w3 neg 0 d 0 w3 d w3 neg 0 d 0 w3 neg d w3 neg 0 d cl s } def
/m29 {mp gsave x w2 sub y w2 add w3 sub m currentpoint t 4 {side} repeat cl fill gr} def
/m30 {mp gsave x w2 sub y w2 add w3 sub m currentpoint t 4 {side} repeat cl s gr} def
/m31 {mp x y w2 sub m 0 w d x w2 sub y m w 0 d x w2 sub y w2 add m w w neg d x w2 sub y w2 sub m w w d s} def
/m32 {mp x y w2 sub m w2 w d w neg 0 d cl s} def
/m33 {mp x y w2 add m w3 neg w2 neg d w3 w2 neg d w3 w2 d cl f} def
/m34 {mp x w2 sub y w2 sub w3 add m w3 0 d  0 w3 neg d w3 0 d 0 w3 d w3 0 d  0 w3 d w3 neg 0 d 0 w3 d w3 neg 0 d 0 w3 neg d w3 neg 0 d cl f } def
/m2 {mp x y w2 sub m 0 w d x w2 sub y m w 0 d s} def
/m5 {mp x w2 sub y w2 sub m w w d x w2 sub y w2 add m w w neg d s} def
%%IncludeResource: ProcSet (FontSetInit)
%%IncludeResource: font Times-Roman
%%IncludeResource: font Times-Italic
%%IncludeResource: font Times-Bold
%%IncludeResource: font Times-BoldItalic
%%IncludeResource: font Helvetica
%%IncludeResource: font Helvetica-Oblique
%%IncludeResource: font Helvetica-Bold
%%IncludeResource: font Helvetica-BoldOblique
%%IncludeResource: font Courier
%%IncludeResource: font Courier-Oblique
%%IncludeResource: font Courier-Bold
%%IncludeResource: font Courier-BoldOblique
%%IncludeResource: font Symbol
%%IncludeResource: font ZapfDingbats
/reEncode {exch findfont dup length dict begin {1 index /FID eq  {pop pop} {def} ifelse } forall /Encoding exch def currentdict end dup /FontName get exch definefont pop } def [/Times-Bold /Times-Italic /Times-BoldItalic /Helvetica /Helvetica-Oblique
 /Helvetica-Bold /Helvetica-BoldOblique /Courier /Courier-Oblique /Courier-Bold /Courier-BoldOblique /Times-Roman /AvantGarde-Book /AvantGarde-BookOblique /AvantGarde-Demi /AvantGarde-DemiOblique /Bookman-Demi /Bookman-DemiItalic /Bookman-Light
 /Bookman-LightItalic /Helvetica-Narrow /Helvetica-Narrow-Bold /Helvetica-Narrow-BoldOblique /Helvetica-Narrow-Oblique /NewCenturySchlbk-Roman /NewCenturySchlbk-Bold /NewCenturySchlbk-BoldItalic /NewCenturySchlbk-Italic /Palatino-Bold
 /Palatino-BoldItalic /Palatino-Italic /Palatino-Roman ] {ISOLatin1Encoding reEncode } forall
%%EndProlog
%%BeginSetup
%%EndSetup
newpath  gsave  .25 .25 scale  gsave  0 0 t black[  ] 0 sd 3 lw 1 1 1 c 2268 2176 0 0 bf black 1 1 1 c 1791 1720 363 348 bf black 1791 1720 363 348 bl 1 1 1 c 1791 1720 363 348 bf black 1791 1720 363 348 bl 363 348 m 1791 X s
 gsave  2268 2176 0 0 C 1902.45 60.8783 t 0 r /Helvetica findfont 68.4881 sf 0 0 m (InnerPix) show NC gr 
 gsave  2268 2176 0 0 C 1849.18 95.1223 t 0 r /Helvetica findfont 102.732 sf 0 0 m (n) show NC gr  587 400 m -52 Y s 1035 400 m -52 Y s 1483 400 m -52 Y s 1930 400 m -52 Y s 587 400 m -52 Y s 1930 400 m -52 Y s
 gsave  2268 2176 0 0 C 559.319 251.123 t 0 r /Helvetica findfont 102.732 sf 0 0 m (0) show NC gr 
 gsave  2268 2176 0 0 C 1012.1 251.123 t 0 r /Helvetica findfont 102.732 sf 0 0 m (1) show NC gr 
 gsave  2268 2176 0 0 C 1453.47 251.123 t 0 r /Helvetica findfont 102.732 sf 0 0 m (2) show NC gr 
 gsave  2268 2176 0 0 C 1902.45 251.123 t 0 r /Helvetica findfont 102.732 sf 0 0 m (3) show NC gr  363 2068 m 1791 X s 587 2016 m 52 Y s 1035 2016 m 52 Y s 1483 2016 m 52 Y s 1930 2016 m 52 Y s 587 2016 m 52 Y s 1930 2016 m 52 Y s 363 348 m 1720 Y s
 gsave  2268 2176 0 0 C 144.586 1757.86 t 90 r /Helvetica findfont 102.732 sf 0 0 m (Events) show NC gr  390 348 m -27 X s 390 367 m -27 X s 417 383 m -54 X s
 gsave  2268 2176 0 0 C 342.425 340.584 t 0 r  -56 0 t /Helvetica findfont 102.732 sf 0 0 m (1) show NC gr  390 492 m -27 X s 390 555 m -27 X s 390 600 m -27 X s 390 635 m -27 X s 390 664 m -27 X s 390 688 m -27 X s 390 709 m -27 X s 390 728 m -27 X
 s 417 744 m -54 X s
 gsave  2268 2176 0 0 C 342.425 701.486 t 0 r  -112 0 t /Helvetica findfont 102.732 sf 0 0 m (10) show NC gr  390 853 m -27 X s 390 916 m -27 X s 390 961 m -27 X s 390 996 m -27 X s 390 1025 m -27 X s 390 1049 m -27 X s 390 1070 m -27 X s 390 1088 m
 -27 X s 417 1105 m -54 X s
 gsave  2268 2176 0 0 C 300.587 1103.42 t 0 r /Helvetica findfont 68.4881 sf 0 0 m (2) show NC gr 
 gsave  2268 2176 0 0 C 190.245 1057.76 t 0 r /Helvetica findfont 102.732 sf 0 0 m (10) show NC gr  390 1214 m -27 X s 390 1277 m -27 X s 390 1322 m -27 X s 390 1357 m -27 X s 390 1386 m -27 X s 390 1410 m -27 X s 390 1431 m -27 X s 390 1449 m -27 X
 s 417 1466 m -54 X s
 gsave  2268 2176 0 0 C 300.587 1468.69 t 0 r /Helvetica findfont 68.4881 sf 0 0 m (3) show NC gr 
 gsave  2268 2176 0 0 C 190.245 1419.23 t 0 r /Helvetica findfont 102.732 sf 0 0 m (10) show NC gr  390 1575 m -27 X s 390 1638 m -27 X s 390 1683 m -27 X s 390 1718 m -27 X s 390 1747 m -27 X s 390 1771 m -27 X s 390 1792 m -27 X s 390 1810 m -27 X
 s 417 1827 m -54 X s
 gsave  2268 2176 0 0 C 300.587 1826.35 t 0 r /Helvetica findfont 68.4881 sf 0 0 m (4) show NC gr 
 gsave  2268 2176 0 0 C 190.245 1780.69 t 0 r /Helvetica findfont 102.732 sf 0 0 m (10) show NC gr  390 1935 m -27 X s 390 1999 m -27 X s 390 2044 m -27 X s 2154 348 m 1720 Y s 2127 348 m 27 X s 2127 367 m 27 X s 2101 383 m 53 X s 2127 492 m 27 X s
 2127 555 m 27 X s 2127 600 m 27 X s 2127 635 m 27 X s 2127 664 m 27 X s 2127 688 m 27 X s 2127 709 m 27 X s 2127 728 m 27 X s 2101 744 m 53 X s 2127 853 m 27 X s 2127 916 m 27 X s 2127 961 m 27 X s 2127 996 m 27 X s 2127 1025 m 27 X s 2127 1049 m 27
 X s 2127 1070 m 27 X s 2127 1088 m 27 X s 2101 1105 m 53 X s 2127 1214 m 27 X s 2127 1277 m 27 X s 2127 1322 m 27 X s 2127 1357 m 27 X s 2127 1386 m 27 X s 2127 1410 m 27 X s 2127 1431 m 27 X s 2127 1449 m 27 X s 2101 1466 m 53 X s 2127 1575 m 27 X
 s 2127 1638 m 27 X s 2127 1683 m 27 X s 2127 1718 m 27 X s 2127 1747 m 27 X s 2127 1771 m 27 X s 2127 1792 m 27 X s 2127 1810 m 27 X s 2101 1827 m 53 X s 2127 1935 m 27 X s 2127 1999 m 27 X s 2127 2044 m 27 X s 0 0 1 c 9 lw 1 0.8 0 c black 3 lw 1
 0.8 0 c 363 348 m 840 Y 448 X -240 Y 448 X -417 Y 447 X -183 Y f 9 lw black 3 lw 587 1203 m -224 X s 363 1203 m cl s 587 1203 m 224 X s 811 1203 m cl s 587 1203 m 12 Y s 587 1215 m cl s 587 1203 m -11 Y s 587 1192 m cl s 1035 1633 m -224 X s 811
 1633 m cl s 1035 1633 m 224 X s 1259 1633 m cl s 1035 1633 m 2 Y s 1035 1635 m cl s 1035 1633 m -3 Y s 1035 1630 m cl s 1483 1194 m -224 X s 1259 1194 m cl s 1483 1194 m 223 X s 1706 1194 m cl s 1483 1194 m 11 Y s 1483 1205 m cl s 1483 1194 m -12 Y
 s 1483 1182 m cl s 1930 348 m -224 X s 1706 348 m cl s 1930 348 m 224 X s 2154 348 m cl s 1930 348 m 57 Y s 1930 405 m cl s /w 37 def /w2 {w 2 div} def /w3 {w 3 div} def 587 1203 1035 1633 1483 1194 3 { m20} R 0 0.4 0 c[  12 12 ] 0 sd 9 lw black 0
 0.4 0 c 363 348 m 476 Y s 363 824 m 448 X 806 Y 448 X -438 Y 447 X -844 Y s 0.8 0 0 c[  ] 0 sd black 0.8 0 0 c 363 348 m 855 Y s 363 1203 m 448 X 429 Y 448 X -437 Y 447 X -847 Y s black 3 lw 587 1203 m -224 X s 363 1203 m cl s 587 1203 m 224 X s 811
 1203 m cl s 587 1203 m 12 Y s 587 1215 m cl s 587 1203 m -11 Y s 587 1192 m cl s 1035 1633 m -224 X s 811 1633 m cl s 1035 1633 m 224 X s 1259 1633 m cl s 1035 1633 m 2 Y s 1035 1635 m cl s 1035 1633 m -3 Y s 1035 1630 m cl s 1483 1194 m -224 X s
 1259 1194 m cl s 1483 1194 m 223 X s 1706 1194 m cl s 1483 1194 m 11 Y s 1483 1205 m cl s 1483 1194 m -12 Y s 1483 1182 m cl s 1930 348 m -224 X s 1706 348 m cl s 1930 348 m 224 X s 2154 348 m cl s 1930 348 m 57 Y s 1930 405 m cl s 587 1203 1035
 1633 1483 1194 3 { m20} R 363 348 m 1791 X s 587 400 m -52 Y s 1035 400 m -52 Y s 1483 400 m -52 Y s 1930 400 m -52 Y s 587 400 m -52 Y s 1930 400 m -52 Y s 363 2068 m 1791 X s 587 2016 m 52 Y s 1035 2016 m 52 Y s 1483 2016 m 52 Y s 1930 2016 m 52 Y
 s 587 2016 m 52 Y s 1930 2016 m 52 Y s 363 348 m 1720 Y s 390 348 m -27 X s 390 367 m -27 X s 417 383 m -54 X s 390 492 m -27 X s 390 555 m -27 X s 390 600 m -27 X s 390 635 m -27 X s 390 664 m -27 X s 390 688 m -27 X s 390 709 m -27 X s 390 728 m
 -27 X s 417 744 m -54 X s 390 853 m -27 X s 390 916 m -27 X s 390 961 m -27 X s 390 996 m -27 X s 390 1025 m -27 X s 390 1049 m -27 X s 390 1070 m -27 X s 390 1088 m -27 X s 417 1105 m -54 X s 390 1214 m -27 X s 390 1277 m -27 X s 390 1322 m -27 X s
 390 1357 m -27 X s 390 1386 m -27 X s 390 1410 m -27 X s 390 1431 m -27 X s 390 1449 m -27 X s 417 1466 m -54 X s 390 1575 m -27 X s 390 1638 m -27 X s 390 1683 m -27 X s 390 1718 m -27 X s 390 1747 m -27 X s 390 1771 m -27 X s 390 1792 m -27 X s
 390 1810 m -27 X s 417 1827 m -54 X s 390 1935 m -27 X s 390 1999 m -27 X s 390 2044 m -27 X s 2154 348 m 1720 Y s 2127 348 m 27 X s 2127 367 m 27 X s 2101 383 m 53 X s 2127 492 m 27 X s 2127 555 m 27 X s 2127 600 m 27 X s 2127 635 m 27 X s 2127 664
 m 27 X s 2127 688 m 27 X s 2127 709 m 27 X s 2127 728 m 27 X s 2101 744 m 53 X s 2127 853 m 27 X s 2127 916 m 27 X s 2127 961 m 27 X s 2127 996 m 27 X s 2127 1025 m 27 X s 2127 1049 m 27 X s 2127 1070 m 27 X s 2127 1088 m 27 X s 2101 1105 m 53 X s
 2127 1214 m 27 X s 2127 1277 m 27 X s 2127 1322 m 27 X s 2127 1357 m 27 X s 2127 1386 m 27 X s 2127 1410 m 27 X s 2127 1431 m 27 X s 2127 1449 m 27 X s 2101 1466 m 53 X s 2127 1575 m 27 X s 2127 1638 m 27 X s 2127 1683 m 27 X s 2127 1718 m 27 X s
 2127 1747 m 27 X s 2127 1771 m 27 X s 2127 1792 m 27 X s 2127 1810 m 27 X s 2101 1827 m 53 X s 2127 1935 m 27 X s 2127 1999 m 27 X s 2127 2044 m 27 X s
 gsave  2268 2176 0 0 C 1658.93 1898.64 t 0 r /Helvetica findfont 87.5126 sf 0 0 m (Data) show NC gr  6 lw 1502 1929 m 131 X s 3 lw 1568 1929 m20 6 lw
 gsave  2268 2176 0 0 C 1658.93 1750.25 t 0 r /Helvetica findfont 87.5126 sf 0 0 m (Fit) show NC gr  0.8 0 0 c 1502 1782 m 131 X s black
 gsave  2268 2176 0 0 C 1658.93 1605.67 t 0 r /Helvetica findfont 87.5126 sf 0 0 m (f) show NC gr  0 0.4 0 c[  12 12 ] 0 sd 9 lw 1502 1635 m 131 X s black
 gsave  2268 2176 0 0 C 1658.93 1457.27 t 0 r /Symbol findfont 87.5126 sf 0 0 m (g) show NC gr  1 0.8 0 c[  ] 0 sd 3 lw 1502 1437 m 131 X 103 Y -131 X f[  12 12 ] 0 sd 9 lw[  ] 0 sd 6 lw 1502 1540 m 131 X s 1502 1437 m 131 X s 1633 1437 m 103 Y s
 1502 1437 m 103 Y s black
 gsave  2268 2176 0 0 C 452.782 1906.25 t 0 r /Helvetica-BoldOblique findfont 102.732 sf 0 0 m (ATLAS) show NC gr 
 gsave  2268 2176 0 0 C 821.857 1906.25 t 0 r /Helvetica findfont 102.732 sf 0 0 m (Internal) show NC gr 
 gsave  2268 2176 0 0 C 452.782 1765.47 t 0 r /Helvetica findfont 87.5126 sf 0 0 m (llee, 3L+X CR) show NC gr 
 gsave  2268 2176 0 0 C 871.321 1685.57 t 0 r /Helvetica findfont 41.8538 sf 0 0 m (\2551) show NC gr 
 gsave  2268 2176 0 0 C 452.782 1655.13 t 0 r /Helvetica findfont 60.8783 sf 0 0 m (13 TeV, 36.5 fb) show NC gr 
 gr  gr showpage
end
%%EOF
