%!PS-Adobe-2.0 EPSF-2.0
%%BoundingBox:  0 0 567 544
%%Title: output/Fit_CRC_data.eps: CRC
%%Creator: ROOT Version 6.04/14
%%CreationDate: Mon Feb 20 22:58:45 2017
%%DocumentNeededResources: ProcSet (FontSetInit)
%%EndComments
%%BeginProlog
80 dict begin
/s {stroke} def /l {lineto} def /m {moveto} def /t {translate} def
/r {rotate} def /rl {roll}  def /R {repeat} def
/d {rlineto} def /rm {rmoveto} def /gr {grestore} def /f {eofill} def
/c {setrgbcolor} def /black {0 setgray} def /sd {setdash} def
/cl {closepath} def /sf {scalefont setfont} def /lw {setlinewidth} def
/box {m dup 0 exch d exch 0 d 0 exch neg d cl} def
/NC{systemdict begin initclip end}def/C{NC box clip newpath}def
/bl {box s} def /bf {gsave box gsave f grestore 1 lw [] 0 sd s grestore} def /Y { 0 exch d} def /X { 0 d} def 
/K {{pop pop 0 moveto} exch kshow} bind def
/ita {/ang 15 def gsave [1 0 ang dup sin exch cos div 1 0 0] concat} def 
/mp {newpath /y exch def /x exch def} def
/side {[w .77 mul w .23 mul] .385 w mul sd w 0 l currentpoint t -144 r} def
/mr {mp x y w2 0 360 arc} def /m24 {mr s} def /m20 {mr f} def
/mb {mp x y w2 add m w2 neg 0 d 0 w neg d w 0 d 0 w d cl} def
/mt {mp x y w2 add m w2 neg w neg d w 0 d cl} def
/m21 {mb f} def /m25 {mb s} def /m22 {mt f} def /m26{mt s} def
/m23 {mp x y w2 sub m w2 w d w neg 0 d cl f} def
/m27 {mp x y w2 add m w3 neg w2 neg d w3 w2 neg d w3 w2 d cl s} def
/m28 {mp x w2 sub y w2 sub w3 add m w3 0 d  0 w3 neg d w3 0 d 0 w3 d w3 0 d  0 w3 d w3 neg 0 d 0 w3 d w3 neg 0 d 0 w3 neg d w3 neg 0 d cl s } def
/m29 {mp gsave x w2 sub y w2 add w3 sub m currentpoint t 4 {side} repeat cl fill gr} def
/m30 {mp gsave x w2 sub y w2 add w3 sub m currentpoint t 4 {side} repeat cl s gr} def
/m31 {mp x y w2 sub m 0 w d x w2 sub y m w 0 d x w2 sub y w2 add m w w neg d x w2 sub y w2 sub m w w d s} def
/m32 {mp x y w2 sub m w2 w d w neg 0 d cl s} def
/m33 {mp x y w2 add m w3 neg w2 neg d w3 w2 neg d w3 w2 d cl f} def
/m34 {mp x w2 sub y w2 sub w3 add m w3 0 d  0 w3 neg d w3 0 d 0 w3 d w3 0 d  0 w3 d w3 neg 0 d 0 w3 d w3 neg 0 d 0 w3 neg d w3 neg 0 d cl f } def
/m2 {mp x y w2 sub m 0 w d x w2 sub y m w 0 d s} def
/m5 {mp x w2 sub y w2 sub m w w d x w2 sub y w2 add m w w neg d s} def
%%IncludeResource: ProcSet (FontSetInit)
%%IncludeResource: font Times-Roman
%%IncludeResource: font Times-Italic
%%IncludeResource: font Times-Bold
%%IncludeResource: font Times-BoldItalic
%%IncludeResource: font Helvetica
%%IncludeResource: font Helvetica-Oblique
%%IncludeResource: font Helvetica-Bold
%%IncludeResource: font Helvetica-BoldOblique
%%IncludeResource: font Courier
%%IncludeResource: font Courier-Oblique
%%IncludeResource: font Courier-Bold
%%IncludeResource: font Courier-BoldOblique
%%IncludeResource: font Symbol
%%IncludeResource: font ZapfDingbats
/reEncode {exch findfont dup length dict begin {1 index /FID eq  {pop pop} {def} ifelse } forall /Encoding exch def currentdict end dup /FontName get exch definefont pop } def [/Times-Bold /Times-Italic /Times-BoldItalic /Helvetica /Helvetica-Oblique
 /Helvetica-Bold /Helvetica-BoldOblique /Courier /Courier-Oblique /Courier-Bold /Courier-BoldOblique /Times-Roman /AvantGarde-Book /AvantGarde-BookOblique /AvantGarde-Demi /AvantGarde-DemiOblique /Bookman-Demi /Bookman-DemiItalic /Bookman-Light
 /Bookman-LightItalic /Helvetica-Narrow /Helvetica-Narrow-Bold /Helvetica-Narrow-BoldOblique /Helvetica-Narrow-Oblique /NewCenturySchlbk-Roman /NewCenturySchlbk-Bold /NewCenturySchlbk-BoldItalic /NewCenturySchlbk-Italic /Palatino-Bold
 /Palatino-BoldItalic /Palatino-Italic /Palatino-Roman ] {ISOLatin1Encoding reEncode } forall
%%EndProlog
%%BeginSetup
%%EndSetup
newpath  gsave  .25 .25 scale  gsave  0 0 t black[  ] 0 sd 3 lw 1 1 1 c 2268 2177 0 0 bf black 1 1 1 c 1814 1720 340 348 bf black 1814 1720 340 348 bl 340 348 m 1814 X s
 gsave  2268 2177 0 0 C 1869.54 79.6355 t 0 r /Helvetica findfont 102.389 sf 0 0 m ( [GeV]) show NC gr 
 gsave  2268 2177 0 0 C 1793.7 49.2982 t 0 r /Helvetica findfont 68.259 sf 0 0 m (12) show NC gr 
 gsave  2268 2177 0 0 C 1714.06 79.6355 t 0 r /Helvetica findfont 102.389 sf 0 0 m (m) show NC gr  340 401 m -53 Y s 405 374 m -26 Y s 470 374 m -26 Y s 535 374 m -26 Y s 599 374 m -26 Y s 664 401 m -53 Y s 729 374 m -26 Y s 794 374 m -26 Y s 858 374
 m -26 Y s 923 374 m -26 Y s 988 401 m -53 Y s 1053 374 m -26 Y s 1118 374 m -26 Y s 1182 374 m -26 Y s 1247 374 m -26 Y s 1312 401 m -53 Y s 1377 374 m -26 Y s 1442 374 m -26 Y s 1506 374 m -26 Y s 1571 374 m -26 Y s 1636 401 m -53 Y s 1701 374 m
 -26 Y s 1766 374 m -26 Y s 1830 374 m -26 Y s 1895 374 m -26 Y s 1960 401 m -53 Y s 1960 401 m -53 Y s 2025 374 m -26 Y s 2090 374 m -26 Y s
 gsave  2268 2177 0 0 C 280.62 254.075 t 0 r /Helvetica findfont 102.389 sf 0 0 m (50) show NC gr 
 gsave  2268 2177 0 0 C 606.747 254.075 t 0 r /Helvetica findfont 102.389 sf 0 0 m (60) show NC gr 
 gsave  2268 2177 0 0 C 929.081 254.075 t 0 r /Helvetica findfont 102.389 sf 0 0 m (70) show NC gr 
 gsave  2268 2177 0 0 C 1251.42 254.075 t 0 r /Helvetica findfont 102.389 sf 0 0 m (80) show NC gr 
 gsave  2268 2177 0 0 C 1577.54 254.075 t 0 r /Helvetica findfont 102.389 sf 0 0 m (90) show NC gr 
 gsave  2268 2177 0 0 C 1873.33 254.075 t 0 r /Helvetica findfont 102.389 sf 0 0 m (100) show NC gr  340 2068 m 1814 X s 340 2016 m 52 Y s 405 2042 m 26 Y s 470 2042 m 26 Y s 535 2042 m 26 Y s 599 2042 m 26 Y s 664 2016 m 52 Y s 729 2042 m 26 Y s 794
 2042 m 26 Y s 858 2042 m 26 Y s 923 2042 m 26 Y s 988 2016 m 52 Y s 1053 2042 m 26 Y s 1118 2042 m 26 Y s 1182 2042 m 26 Y s 1247 2042 m 26 Y s 1312 2016 m 52 Y s 1377 2042 m 26 Y s 1442 2042 m 26 Y s 1506 2042 m 26 Y s 1571 2042 m 26 Y s 1636 2016
 m 52 Y s 1701 2042 m 26 Y s 1766 2042 m 26 Y s 1830 2042 m 26 Y s 1895 2042 m 26 Y s 1960 2016 m 52 Y s 1960 2016 m 52 Y s 2025 2042 m 26 Y s 2090 2042 m 26 Y s 340 348 m 1720 Y s
 gsave  2268 2177 0 0 C 121.349 1441.02 t 90 r /Helvetica findfont 102.389 sf 0 0 m (Events/4 GeV) show NC gr  394 502 m -54 X s 367 540 m -27 X s 367 579 m -27 X s 367 617 m -27 X s 394 655 m -54 X s 367 694 m -27 X s 367 732 m -27 X s 367 771 m -27
 X s 394 809 m -54 X s 367 847 m -27 X s 367 886 m -27 X s 367 924 m -27 X s 394 963 m -54 X s 367 1001 m -27 X s 367 1039 m -27 X s 367 1078 m -27 X s 394 1116 m -54 X s 367 1155 m -27 X s 367 1193 m -27 X s 367 1231 m -27 X s 394 1270 m -54 X s 367
 1308 m -27 X s 367 1347 m -27 X s 367 1385 m -27 X s 394 1423 m -54 X s 367 1462 m -27 X s 367 1500 m -27 X s 367 1538 m -27 X s 394 1577 m -54 X s 367 1615 m -27 X s 367 1654 m -27 X s 367 1692 m -27 X s 394 1730 m -54 X s 367 1769 m -27 X s 367
 1807 m -27 X s 367 1846 m -27 X s 394 1884 m -54 X s 367 1922 m -27 X s 367 1961 m -27 X s 367 1999 m -27 X s 394 2038 m -54 X s 394 502 m -54 X s 367 463 m -27 X s 367 425 m -27 X s 367 387 m -27 X s 394 2038 m -54 X s
 gsave  2268 2177 0 0 C 216.154 466.437 t 0 r /Helvetica findfont 102.389 sf 0 0 m (20) show NC gr 
 gsave  2268 2177 0 0 C 216.154 618.123 t 0 r /Helvetica findfont 102.389 sf 0 0 m (40) show NC gr 
 gsave  2268 2177 0 0 C 216.154 773.602 t 0 r /Helvetica findfont 102.389 sf 0 0 m (60) show NC gr 
 gsave  2268 2177 0 0 C 216.154 925.289 t 0 r /Helvetica findfont 102.389 sf 0 0 m (80) show NC gr 
 gsave  2268 2177 0 0 C 159.271 1080.77 t 0 r /Helvetica findfont 102.389 sf 0 0 m (100) show NC gr 
 gsave  2268 2177 0 0 C 159.271 1232.45 t 0 r /Helvetica findfont 102.389 sf 0 0 m (120) show NC gr 
 gsave  2268 2177 0 0 C 159.271 1387.93 t 0 r /Helvetica findfont 102.389 sf 0 0 m (140) show NC gr 
 gsave  2268 2177 0 0 C 159.271 1539.62 t 0 r /Helvetica findfont 102.389 sf 0 0 m (160) show NC gr 
 gsave  2268 2177 0 0 C 159.271 1695.1 t 0 r /Helvetica findfont 102.389 sf 0 0 m (180) show NC gr 
 gsave  2268 2177 0 0 C 159.271 1846.79 t 0 r /Helvetica findfont 102.389 sf 0 0 m (200) show NC gr 
 gsave  2268 2177 0 0 C 159.271 2002.26 t 0 r /Helvetica findfont 102.389 sf 0 0 m (220) show NC gr  2154 348 m 1720 Y s 2101 502 m 53 X s 2127 540 m 27 X s 2127 579 m 27 X s 2127 617 m 27 X s 2101 655 m 53 X s 2127 694 m 27 X s 2127 732 m 27 X s
 2127 771 m 27 X s 2101 809 m 53 X s 2127 847 m 27 X s 2127 886 m 27 X s 2127 924 m 27 X s 2101 963 m 53 X s 2127 1001 m 27 X s 2127 1039 m 27 X s 2127 1078 m 27 X s 2101 1116 m 53 X s 2127 1155 m 27 X s 2127 1193 m 27 X s 2127 1231 m 27 X s 2101
 1270 m 53 X s 2127 1308 m 27 X s 2127 1347 m 27 X s 2127 1385 m 27 X s 2101 1423 m 53 X s 2127 1462 m 27 X s 2127 1500 m 27 X s 2127 1538 m 27 X s 2101 1577 m 53 X s 2127 1615 m 27 X s 2127 1654 m 27 X s 2127 1692 m 27 X s 2101 1730 m 53 X s 2127
 1769 m 27 X s 2127 1807 m 27 X s 2127 1846 m 27 X s 2101 1884 m 53 X s 2127 1922 m 27 X s 2127 1961 m 27 X s 2127 1999 m 27 X s 2101 2038 m 53 X s 2101 502 m 53 X s 2127 463 m 27 X s 2127 425 m 27 X s 2127 387 m 27 X s 2101 2038 m 53 X s 405 1331 m
 -65 X s 340 1331 m cl s 405 1331 m 65 X s 470 1331 m cl s 405 1331 m 91 Y s 405 1422 m cl s 405 1331 m -83 Y s 405 1248 m cl s 535 1316 m -65 X s 470 1316 m cl s 535 1316 m 64 X s 599 1316 m cl s 535 1316 m 90 Y s 535 1406 m cl s 535 1316 m -83 Y s
 535 1233 m cl s 664 1316 m -65 X s 599 1316 m cl s 664 1316 m 65 X s 729 1316 m cl s 664 1316 m 90 Y s 664 1406 m cl s 664 1316 m -83 Y s 664 1233 m cl s 794 1400 m -65 X s 729 1400 m cl s 794 1400 m 64 X s 858 1400 m cl s 794 1400 m 94 Y s 794 1494
 m cl s 794 1400 m -86 Y s 794 1314 m cl s 923 1262 m -65 X s 858 1262 m cl s 923 1262 m 65 X s 988 1262 m cl s 923 1262 m 88 Y s 923 1350 m cl s 923 1262 m -80 Y s 923 1182 m cl s 1053 1423 m -65 X s 988 1423 m cl s 1053 1423 m 65 X s 1118 1423 m cl
 s 1053 1423 m 95 Y s 1053 1518 m cl s 1053 1423 m -87 Y s 1053 1336 m cl s 1182 1239 m -64 X s 1118 1239 m cl s 1182 1239 m 65 X s 1247 1239 m cl s 1182 1239 m 87 Y s 1182 1326 m cl s 1182 1239 m -79 Y s 1182 1160 m cl s 1312 1400 m -65 X s 1247
 1400 m cl s 1312 1400 m 65 X s 1377 1400 m cl s 1312 1400 m 94 Y s 1312 1494 m cl s 1312 1400 m -86 Y s 1312 1314 m cl s 1442 1323 m -65 X s 1377 1323 m cl s 1442 1323 m 64 X s 1506 1323 m cl s 1442 1323 m 91 Y s 1442 1414 m cl s 1442 1323 m -82 Y s
 1442 1241 m cl s 1571 1339 m -65 X s 1506 1339 m cl s 1571 1339 m 65 X s 1636 1339 m cl s 1571 1339 m 91 Y s 1571 1430 m cl s 1571 1339 m -84 Y s 1571 1255 m cl s 1701 1178 m -65 X s 1636 1178 m cl s 1701 1178 m 65 X s 1766 1178 m cl s 1701 1178 m
 83 Y s 1701 1261 m cl s 1701 1178 m -76 Y s 1701 1102 m cl s 1830 1101 m -64 X s 1766 1101 m cl s 1830 1101 m 65 X s 1895 1101 m cl s 1830 1101 m 84 Y s 1830 1185 m cl s 1830 1101 m -76 Y s 1830 1025 m cl s 1960 986 m -65 X s 1895 986 m cl s 1960
 986 m 65 X s 2025 986 m cl s 1960 986 m 78 Y s 1960 1064 m cl s 1960 986 m -70 Y s 1960 916 m cl s 2090 886 m -65 X s 2025 886 m cl s 2090 886 m 64 X s 2154 886 m cl s 2090 886 m 72 Y s 2090 958 m cl s 2090 886 m -64 Y s 2090 822 m cl s /w 36 def
 /w2 {w 2 div} def /w3 {w 3 div} def 405 1331 535 1316 664 1316 794 1400 923 1262 1053 1423 1182 1239 1312 1400 1442 1323 1571 1339 1701 1178 1830 1101 1960 986 2090 886 14 { m20} R 0.8 0 0 c 9 lw black 0.8 0 0 c 340 1153 m cl s 340 1153 m 65 37 d 65
 34 d 65 31 d 64 27 d 65 24 d 65 20 d 65 16 d 64 14 d 65 9 d 65 7 d 65 3 d 65 -1 d 64 -4 d 65 -7 d 65 -11 d 65 -15 d 65 -17 d 64 -22 d 65 -24 d 65 -28 d 65 -32 d 65 -35 d 64 -39 d 65 -42 d 65 -45 d 65 -49 d 65 -52 d 64 -56 d s 1 0.6 0 c[  12 12 ] 0
 sd black 1 0.6 0 c 340 1094 m cl s 340 1094 m 65 39 d 65 36 d 65 32 d 64 29 d 65 25 d 65 22 d 65 18 d 64 15 d 65 12 d 65 8 d 65 5 d 65 1 d 64 -2 d 65 -6 d 65 -9 d 65 -13 d 65 -16 d 64 -19 d 65 -23 d 65 -27 d 65 -29 d 65 -34 d 64 -37 d 65 -40 d 65
 -43 d 65 -48 d 65 -50 d 64 -54 d s 0 0.6 0 c black 0 0.6 0 c 340 401 m cl s 340 401 m 130 -3 d 129 -4 d 130 -4 d 129 -3 d 130 -4 d 130 -3 d 129 -4 d 130 -3 d 129 -4 d 130 -3 d 130 -4 d 129 -3 d 130 -4 d 129 -3 d s black[  ] 0 sd 3 lw 405 1331 m -65
 X s 340 1331 m cl s 405 1331 m 65 X s 470 1331 m cl s 405 1331 m 91 Y s 405 1422 m cl s 405 1331 m -83 Y s 405 1248 m cl s 535 1316 m -65 X s 470 1316 m cl s 535 1316 m 64 X s 599 1316 m cl s 535 1316 m 90 Y s 535 1406 m cl s 535 1316 m -83 Y s 535
 1233 m cl s 664 1316 m -65 X s 599 1316 m cl s 664 1316 m 65 X s 729 1316 m cl s 664 1316 m 90 Y s 664 1406 m cl s 664 1316 m -83 Y s 664 1233 m cl s 794 1400 m -65 X s 729 1400 m cl s 794 1400 m 64 X s 858 1400 m cl s 794 1400 m 94 Y s 794 1494 m
 cl s 794 1400 m -86 Y s 794 1314 m cl s 923 1262 m -65 X s 858 1262 m cl s 923 1262 m 65 X s 988 1262 m cl s 923 1262 m 88 Y s 923 1350 m cl s 923 1262 m -80 Y s 923 1182 m cl s 1053 1423 m -65 X s 988 1423 m cl s 1053 1423 m 65 X s 1118 1423 m cl s
 1053 1423 m 95 Y s 1053 1518 m cl s 1053 1423 m -87 Y s 1053 1336 m cl s 1182 1239 m -64 X s 1118 1239 m cl s 1182 1239 m 65 X s 1247 1239 m cl s 1182 1239 m 87 Y s 1182 1326 m cl s 1182 1239 m -79 Y s 1182 1160 m cl s 1312 1400 m -65 X s 1247 1400
 m cl s 1312 1400 m 65 X s 1377 1400 m cl s 1312 1400 m 94 Y s 1312 1494 m cl s 1312 1400 m -86 Y s 1312 1314 m cl s 1442 1323 m -65 X s 1377 1323 m cl s 1442 1323 m 64 X s 1506 1323 m cl s 1442 1323 m 91 Y s 1442 1414 m cl s 1442 1323 m -82 Y s 1442
 1241 m cl s 1571 1339 m -65 X s 1506 1339 m cl s 1571 1339 m 65 X s 1636 1339 m cl s 1571 1339 m 91 Y s 1571 1430 m cl s 1571 1339 m -84 Y s 1571 1255 m cl s 1701 1178 m -65 X s 1636 1178 m cl s 1701 1178 m 65 X s 1766 1178 m cl s 1701 1178 m 83 Y s
 1701 1261 m cl s 1701 1178 m -76 Y s 1701 1102 m cl s 1830 1101 m -64 X s 1766 1101 m cl s 1830 1101 m 65 X s 1895 1101 m cl s 1830 1101 m 84 Y s 1830 1185 m cl s 1830 1101 m -76 Y s 1830 1025 m cl s 1960 986 m -65 X s 1895 986 m cl s 1960 986 m 65
 X s 2025 986 m cl s 1960 986 m 78 Y s 1960 1064 m cl s 1960 986 m -70 Y s 1960 916 m cl s 2090 886 m -65 X s 2025 886 m cl s 2090 886 m 64 X s 2154 886 m cl s 2090 886 m 72 Y s 2090 958 m cl s 2090 886 m -64 Y s 2090 822 m cl s 405 1331 535 1316 664
 1316 794 1400 923 1262 1053 1423 1182 1239 1312 1400 1442 1323 1571 1339 1701 1178 1830 1101 1960 986 2090 886 14 { m20} R 340 348 m 1814 X s 340 401 m -53 Y s 405 374 m -26 Y s 470 374 m -26 Y s 535 374 m -26 Y s 599 374 m -26 Y s 664 401 m -53 Y s
 729 374 m -26 Y s 794 374 m -26 Y s 858 374 m -26 Y s 923 374 m -26 Y s 988 401 m -53 Y s 1053 374 m -26 Y s 1118 374 m -26 Y s 1182 374 m -26 Y s 1247 374 m -26 Y s 1312 401 m -53 Y s 1377 374 m -26 Y s 1442 374 m -26 Y s 1506 374 m -26 Y s 1571
 374 m -26 Y s 1636 401 m -53 Y s 1701 374 m -26 Y s 1766 374 m -26 Y s 1830 374 m -26 Y s 1895 374 m -26 Y s 1960 401 m -53 Y s 1960 401 m -53 Y s 2025 374 m -26 Y s 2090 374 m -26 Y s 340 2068 m 1814 X s 340 2016 m 52 Y s 405 2042 m 26 Y s 470 2042
 m 26 Y s 535 2042 m 26 Y s 599 2042 m 26 Y s 664 2016 m 52 Y s 729 2042 m 26 Y s 794 2042 m 26 Y s 858 2042 m 26 Y s 923 2042 m 26 Y s 988 2016 m 52 Y s 1053 2042 m 26 Y s 1118 2042 m 26 Y s 1182 2042 m 26 Y s 1247 2042 m 26 Y s 1312 2016 m 52 Y s
 1377 2042 m 26 Y s 1442 2042 m 26 Y s 1506 2042 m 26 Y s 1571 2042 m 26 Y s 1636 2016 m 52 Y s 1701 2042 m 26 Y s 1766 2042 m 26 Y s 1830 2042 m 26 Y s 1895 2042 m 26 Y s 1960 2016 m 52 Y s 1960 2016 m 52 Y s 2025 2042 m 26 Y s 2090 2042 m 26 Y s
 340 348 m 1720 Y s 394 502 m -54 X s 367 540 m -27 X s 367 579 m -27 X s 367 617 m -27 X s 394 655 m -54 X s 367 694 m -27 X s 367 732 m -27 X s 367 771 m -27 X s 394 809 m -54 X s 367 847 m -27 X s 367 886 m -27 X s 367 924 m -27 X s 394 963 m -54
 X s 367 1001 m -27 X s 367 1039 m -27 X s 367 1078 m -27 X s 394 1116 m -54 X s 367 1155 m -27 X s 367 1193 m -27 X s 367 1231 m -27 X s 394 1270 m -54 X s 367 1308 m -27 X s 367 1347 m -27 X s 367 1385 m -27 X s 394 1423 m -54 X s 367 1462 m -27 X
 s 367 1500 m -27 X s 367 1538 m -27 X s 394 1577 m -54 X s 367 1615 m -27 X s 367 1654 m -27 X s 367 1692 m -27 X s 394 1730 m -54 X s 367 1769 m -27 X s 367 1807 m -27 X s 367 1846 m -27 X s 394 1884 m -54 X s 367 1922 m -27 X s 367 1961 m -27 X s
 367 1999 m -27 X s 394 2038 m -54 X s 394 502 m -54 X s 367 463 m -27 X s 367 425 m -27 X s 367 387 m -27 X s 394 2038 m -54 X s 2154 348 m 1720 Y s 2101 502 m 53 X s 2127 540 m 27 X s 2127 579 m 27 X s 2127 617 m 27 X s 2101 655 m 53 X s 2127 694 m
 27 X s 2127 732 m 27 X s 2127 771 m 27 X s 2101 809 m 53 X s 2127 847 m 27 X s 2127 886 m 27 X s 2127 924 m 27 X s 2101 963 m 53 X s 2127 1001 m 27 X s 2127 1039 m 27 X s 2127 1078 m 27 X s 2101 1116 m 53 X s 2127 1155 m 27 X s 2127 1193 m 27 X s
 2127 1231 m 27 X s 2101 1270 m 53 X s 2127 1308 m 27 X s 2127 1347 m 27 X s 2127 1385 m 27 X s 2101 1423 m 53 X s 2127 1462 m 27 X s 2127 1500 m 27 X s 2127 1538 m 27 X s 2101 1577 m 53 X s 2127 1615 m 27 X s 2127 1654 m 27 X s 2127 1692 m 27 X s
 2101 1730 m 53 X s 2127 1769 m 27 X s 2127 1807 m 27 X s 2127 1846 m 27 X s 2101 1884 m 53 X s 2127 1922 m 27 X s 2127 1961 m 27 X s 2127 1999 m 27 X s 2101 2038 m 53 X s 2101 502 m 53 X s 2127 463 m 27 X s 2127 425 m 27 X s 2127 387 m 27 X s 2101
 2038 m 53 X s
 gsave  2268 2177 0 0 C 1569.96 1945.38 t 0 r /Helvetica findfont 79.6355 sf 0 0 m ( Data) show NC gr  6 lw 1495 1935 m 59 Y s 3 lw 1495 1964 m20 6 lw
 gsave  2268 2177 0 0 C 1569.96 1846.79 t 0 r /Helvetica findfont 79.6355 sf 0 0 m ( Total) show NC gr  0.8 0 0 c 1441 1867 m 109 X s black
 gsave  2268 2177 0 0 C 1615.46 1748.19 t 0 r /Helvetica findfont 79.6355 sf 0 0 m (t) show NC gr  1615 1813 m 23 X s
 gsave  2268 2177 0 0 C 1569.96 1748.19 t 0 r /Helvetica findfont 79.6355 sf 0 0 m ( t) show NC gr  1 0.6 0 c[  12 12 ] 0 sd 1441 1769 m 109 X s black
 gsave  2268 2177 0 0 C 1569.96 1649.59 t 0 r /Helvetica findfont 79.6355 sf 0 0 m ( Z+HF) show NC gr  0 0.4 0 c 1441 1671 m 109 X s black
 gsave  2268 2177 0 0 C 451.268 1907.46 t 0 r /Helvetica-BoldOblique findfont 102.389 sf 0 0 m (ATLAS) show NC gr 
 gsave  2268 2177 0 0 C 819.108 1907.46 t 0 r /Helvetica findfont 102.389 sf 0 0 m (Internal) show NC gr 
 gsave  2268 2177 0 0 C 705.343 1763.36 t 0 r /Helvetica findfont 87.2199 sf 0 0 m ( CR) show NC gr 
 gsave  2268 2177 0 0 C 652.253 1763.36 t 0 r /Symbol findfont 87.2199 sf 0 0 m (m) show NC gr 
 gsave  2268 2177 0 0 C 599.163 1763.36 t 0 r /Symbol findfont 87.2199 sf 0 0 m (m) show NC gr 
 gsave  2268 2177 0 0 C 549.864 1763.36 t 0 r /Helvetica findfont 87.2199 sf 0 0 m (+) show NC gr 
 gsave  2268 2177 0 0 C 496.774 1763.36 t 0 r /Symbol findfont 87.2199 sf 0 0 m (m) show NC gr 
 gsave  2268 2177 0 0 C 451.268 1763.36 t 0 r /Helvetica findfont 87.2199 sf 0 0 m (e) show NC gr 
 gsave  2268 2177 0 0 C 993.548 1695.1 t 0 r /Helvetica findfont 53.0904 sf 0 0 m (\2551) show NC gr 
 gsave  2268 2177 0 0 C 451.268 1657.18 t 0 r /Helvetica findfont 79.6355 sf 0 0 m (13 TeV, 36.1 fb) show NC gr 
 gr  gr showpage
end
%%EOF
