%!PS-Adobe-2.0 EPSF-2.0
%%BoundingBox:  0 0 567 544
%%Title: output/Fit_CRA_data.eps: CRA
%%Creator: ROOT Version 6.04/14
%%CreationDate: Mon Feb 20 22:58:35 2017
%%DocumentNeededResources: ProcSet (FontSetInit)
%%EndComments
%%BeginProlog
80 dict begin
/s {stroke} def /l {lineto} def /m {moveto} def /t {translate} def
/r {rotate} def /rl {roll}  def /R {repeat} def
/d {rlineto} def /rm {rmoveto} def /gr {grestore} def /f {eofill} def
/c {setrgbcolor} def /black {0 setgray} def /sd {setdash} def
/cl {closepath} def /sf {scalefont setfont} def /lw {setlinewidth} def
/box {m dup 0 exch d exch 0 d 0 exch neg d cl} def
/NC{systemdict begin initclip end}def/C{NC box clip newpath}def
/bl {box s} def /bf {gsave box gsave f grestore 1 lw [] 0 sd s grestore} def /Y { 0 exch d} def /X { 0 d} def 
/K {{pop pop 0 moveto} exch kshow} bind def
/ita {/ang 15 def gsave [1 0 ang dup sin exch cos div 1 0 0] concat} def 
/mp {newpath /y exch def /x exch def} def
/side {[w .77 mul w .23 mul] .385 w mul sd w 0 l currentpoint t -144 r} def
/mr {mp x y w2 0 360 arc} def /m24 {mr s} def /m20 {mr f} def
/mb {mp x y w2 add m w2 neg 0 d 0 w neg d w 0 d 0 w d cl} def
/mt {mp x y w2 add m w2 neg w neg d w 0 d cl} def
/m21 {mb f} def /m25 {mb s} def /m22 {mt f} def /m26{mt s} def
/m23 {mp x y w2 sub m w2 w d w neg 0 d cl f} def
/m27 {mp x y w2 add m w3 neg w2 neg d w3 w2 neg d w3 w2 d cl s} def
/m28 {mp x w2 sub y w2 sub w3 add m w3 0 d  0 w3 neg d w3 0 d 0 w3 d w3 0 d  0 w3 d w3 neg 0 d 0 w3 d w3 neg 0 d 0 w3 neg d w3 neg 0 d cl s } def
/m29 {mp gsave x w2 sub y w2 add w3 sub m currentpoint t 4 {side} repeat cl fill gr} def
/m30 {mp gsave x w2 sub y w2 add w3 sub m currentpoint t 4 {side} repeat cl s gr} def
/m31 {mp x y w2 sub m 0 w d x w2 sub y m w 0 d x w2 sub y w2 add m w w neg d x w2 sub y w2 sub m w w d s} def
/m32 {mp x y w2 sub m w2 w d w neg 0 d cl s} def
/m33 {mp x y w2 add m w3 neg w2 neg d w3 w2 neg d w3 w2 d cl f} def
/m34 {mp x w2 sub y w2 sub w3 add m w3 0 d  0 w3 neg d w3 0 d 0 w3 d w3 0 d  0 w3 d w3 neg 0 d 0 w3 d w3 neg 0 d 0 w3 neg d w3 neg 0 d cl f } def
/m2 {mp x y w2 sub m 0 w d x w2 sub y m w 0 d s} def
/m5 {mp x w2 sub y w2 sub m w w d x w2 sub y w2 add m w w neg d s} def
%%IncludeResource: ProcSet (FontSetInit)
%%IncludeResource: font Times-Roman
%%IncludeResource: font Times-Italic
%%IncludeResource: font Times-Bold
%%IncludeResource: font Times-BoldItalic
%%IncludeResource: font Helvetica
%%IncludeResource: font Helvetica-Oblique
%%IncludeResource: font Helvetica-Bold
%%IncludeResource: font Helvetica-BoldOblique
%%IncludeResource: font Courier
%%IncludeResource: font Courier-Oblique
%%IncludeResource: font Courier-Bold
%%IncludeResource: font Courier-BoldOblique
%%IncludeResource: font Symbol
%%IncludeResource: font ZapfDingbats
/reEncode {exch findfont dup length dict begin {1 index /FID eq  {pop pop} {def} ifelse } forall /Encoding exch def currentdict end dup /FontName get exch definefont pop } def [/Times-Bold /Times-Italic /Times-BoldItalic /Helvetica /Helvetica-Oblique
 /Helvetica-Bold /Helvetica-BoldOblique /Courier /Courier-Oblique /Courier-Bold /Courier-BoldOblique /Times-Roman /AvantGarde-Book /AvantGarde-BookOblique /AvantGarde-Demi /AvantGarde-DemiOblique /Bookman-Demi /Bookman-DemiItalic /Bookman-Light
 /Bookman-LightItalic /Helvetica-Narrow /Helvetica-Narrow-Bold /Helvetica-Narrow-BoldOblique /Helvetica-Narrow-Oblique /NewCenturySchlbk-Roman /NewCenturySchlbk-Bold /NewCenturySchlbk-BoldItalic /NewCenturySchlbk-Italic /Palatino-Bold
 /Palatino-BoldItalic /Palatino-Italic /Palatino-Roman ] {ISOLatin1Encoding reEncode } forall
%%EndProlog
%%BeginSetup
%%EndSetup
newpath  gsave  .25 .25 scale  gsave  0 0 t black[  ] 0 sd 3 lw 1 1 1 c 2268 2177 0 0 bf black 1 1 1 c 1814 1720 340 348 bf black 1814 1720 340 348 bl 340 348 m 1814 X s
 gsave  2268 2177 0 0 C 1869.54 79.6355 t 0 r /Helvetica findfont 102.389 sf 0 0 m ( [GeV]) show NC gr 
 gsave  2268 2177 0 0 C 1793.7 49.2982 t 0 r /Helvetica findfont 68.259 sf 0 0 m (12) show NC gr 
 gsave  2268 2177 0 0 C 1714.06 79.6355 t 0 r /Helvetica findfont 102.389 sf 0 0 m (m) show NC gr  340 401 m -53 Y s 405 374 m -26 Y s 470 374 m -26 Y s 535 374 m -26 Y s 599 374 m -26 Y s 664 401 m -53 Y s 729 374 m -26 Y s 794 374 m -26 Y s 858 374
 m -26 Y s 923 374 m -26 Y s 988 401 m -53 Y s 1053 374 m -26 Y s 1118 374 m -26 Y s 1182 374 m -26 Y s 1247 374 m -26 Y s 1312 401 m -53 Y s 1377 374 m -26 Y s 1442 374 m -26 Y s 1506 374 m -26 Y s 1571 374 m -26 Y s 1636 401 m -53 Y s 1701 374 m
 -26 Y s 1766 374 m -26 Y s 1830 374 m -26 Y s 1895 374 m -26 Y s 1960 401 m -53 Y s 1960 401 m -53 Y s 2025 374 m -26 Y s 2090 374 m -26 Y s
 gsave  2268 2177 0 0 C 280.62 254.075 t 0 r /Helvetica findfont 102.389 sf 0 0 m (50) show NC gr 
 gsave  2268 2177 0 0 C 606.747 254.075 t 0 r /Helvetica findfont 102.389 sf 0 0 m (60) show NC gr 
 gsave  2268 2177 0 0 C 929.081 254.075 t 0 r /Helvetica findfont 102.389 sf 0 0 m (70) show NC gr 
 gsave  2268 2177 0 0 C 1251.42 254.075 t 0 r /Helvetica findfont 102.389 sf 0 0 m (80) show NC gr 
 gsave  2268 2177 0 0 C 1577.54 254.075 t 0 r /Helvetica findfont 102.389 sf 0 0 m (90) show NC gr 
 gsave  2268 2177 0 0 C 1873.33 254.075 t 0 r /Helvetica findfont 102.389 sf 0 0 m (100) show NC gr  340 2068 m 1814 X s 340 2016 m 52 Y s 405 2042 m 26 Y s 470 2042 m 26 Y s 535 2042 m 26 Y s 599 2042 m 26 Y s 664 2016 m 52 Y s 729 2042 m 26 Y s 794
 2042 m 26 Y s 858 2042 m 26 Y s 923 2042 m 26 Y s 988 2016 m 52 Y s 1053 2042 m 26 Y s 1118 2042 m 26 Y s 1182 2042 m 26 Y s 1247 2042 m 26 Y s 1312 2016 m 52 Y s 1377 2042 m 26 Y s 1442 2042 m 26 Y s 1506 2042 m 26 Y s 1571 2042 m 26 Y s 1636 2016
 m 52 Y s 1701 2042 m 26 Y s 1766 2042 m 26 Y s 1830 2042 m 26 Y s 1895 2042 m 26 Y s 1960 2016 m 52 Y s 1960 2016 m 52 Y s 2025 2042 m 26 Y s 2090 2042 m 26 Y s 340 348 m 1720 Y s
 gsave  2268 2177 0 0 C 121.349 1441.02 t 90 r /Helvetica findfont 102.389 sf 0 0 m (Events/4 GeV) show NC gr  394 634 m -54 X s 367 691 m -27 X s 367 748 m -27 X s 367 805 m -27 X s 367 862 m -27 X s 394 919 m -54 X s 367 977 m -27 X s 367 1034 m
 -27 X s 367 1091 m -27 X s 367 1148 m -27 X s 394 1205 m -54 X s 367 1262 m -27 X s 367 1319 m -27 X s 367 1376 m -27 X s 367 1433 m -27 X s 394 1491 m -54 X s 367 1548 m -27 X s 367 1605 m -27 X s 367 1662 m -27 X s 367 1719 m -27 X s 394 1776 m
 -54 X s 367 1833 m -27 X s 367 1890 m -27 X s 367 1948 m -27 X s 367 2005 m -27 X s 394 2062 m -54 X s 394 634 m -54 X s 367 577 m -27 X s 367 520 m -27 X s 367 463 m -27 X s 367 405 m -27 X s 394 2062 m -54 X s
 gsave  2268 2177 0 0 C 159.271 599.163 t 0 r /Helvetica findfont 102.389 sf 0 0 m (100) show NC gr 
 gsave  2268 2177 0 0 C 159.271 883.575 t 0 r /Helvetica findfont 102.389 sf 0 0 m (200) show NC gr 
 gsave  2268 2177 0 0 C 159.271 1167.99 t 0 r /Helvetica findfont 102.389 sf 0 0 m (300) show NC gr 
 gsave  2268 2177 0 0 C 159.271 1456.19 t 0 r /Helvetica findfont 102.389 sf 0 0 m (400) show NC gr 
 gsave  2268 2177 0 0 C 159.271 1740.61 t 0 r /Helvetica findfont 102.389 sf 0 0 m (500) show NC gr 
 gsave  2268 2177 0 0 C 159.271 2025.02 t 0 r /Helvetica findfont 102.389 sf 0 0 m (600) show NC gr  2154 348 m 1720 Y s 2101 634 m 53 X s 2127 691 m 27 X s 2127 748 m 27 X s 2127 805 m 27 X s 2127 862 m 27 X s 2101 919 m 53 X s 2127 977 m 27 X s
 2127 1034 m 27 X s 2127 1091 m 27 X s 2127 1148 m 27 X s 2101 1205 m 53 X s 2127 1262 m 27 X s 2127 1319 m 27 X s 2127 1376 m 27 X s 2127 1433 m 27 X s 2101 1491 m 53 X s 2127 1548 m 27 X s 2127 1605 m 27 X s 2127 1662 m 27 X s 2127 1719 m 27 X s
 2101 1776 m 53 X s 2127 1833 m 27 X s 2127 1890 m 27 X s 2127 1948 m 27 X s 2127 2005 m 27 X s 2101 2062 m 53 X s 2101 634 m 53 X s 2127 577 m 27 X s 2127 520 m 27 X s 2127 463 m 27 X s 2127 405 m 27 X s 2101 2062 m 53 X s 405 528 m -65 X s 340 528
 m cl s 405 528 m 65 X s 470 528 m cl s 405 528 m 26 Y s 405 554 m cl s 405 528 m -22 Y s 405 506 m cl s 535 497 m -65 X s 470 497 m cl s 535 497 m 64 X s 599 497 m cl s 535 497 m 23 Y s 535 520 m cl s 535 497 m -21 Y s 535 476 m cl s 664 494 m -65 X
 s 599 494 m cl s 664 494 m 65 X s 729 494 m cl s 664 494 m 23 Y s 664 517 m cl s 664 494 m -20 Y s 664 474 m cl s 794 508 m -65 X s 729 508 m cl s 794 508 m 64 X s 858 508 m cl s 794 508 m 25 Y s 794 533 m cl s 794 508 m -21 Y s 794 487 m cl s 923
 534 m -65 X s 858 534 m cl s 923 534 m 65 X s 988 534 m cl s 923 534 m 26 Y s 923 560 m cl s 923 534 m -23 Y s 923 511 m cl s 1053 548 m -65 X s 988 548 m cl s 1053 548 m 65 X s 1118 548 m cl s 1053 548 m 27 Y s 1053 575 m cl s 1053 548 m -24 Y s
 1053 524 m cl s 1182 554 m -64 X s 1118 554 m cl s 1182 554 m 65 X s 1247 554 m cl s 1182 554 m 27 Y s 1182 581 m cl s 1182 554 m -24 Y s 1182 530 m cl s 1312 562 m -65 X s 1247 562 m cl s 1312 562 m 65 X s 1377 562 m cl s 1312 562 m 28 Y s 1312 590
 m cl s 1312 562 m -24 Y s 1312 538 m cl s 1442 694 m -65 X s 1377 694 m cl s 1442 694 m 64 X s 1506 694 m cl s 1442 694 m 33 Y s 1442 727 m cl s 1442 694 m -30 Y s 1442 664 m cl s 1571 1071 m -65 X s 1506 1071 m cl s 1571 1071 m 65 X s 1636 1071 m
 cl s 1571 1071 m 47 Y s 1571 1118 m cl s 1571 1071 m -44 Y s 1571 1027 m cl s 1701 1288 m -65 X s 1636 1288 m cl s 1701 1288 m 65 X s 1766 1288 m cl s 1701 1288 m 53 Y s 1701 1341 m cl s 1701 1288 m -51 Y s 1701 1237 m cl s 1830 691 m -64 X s 1766
 691 m cl s 1830 691 m 65 X s 1895 691 m cl s 1830 691 m 33 Y s 1830 724 m cl s 1830 691 m -30 Y s 1830 661 m cl s 1960 500 m -65 X s 1895 500 m cl s 1960 500 m 65 X s 2025 500 m cl s 1960 500 m 23 Y s 1960 523 m cl s 1960 500 m -21 Y s 1960 479 m cl
 s 2090 463 m -65 X s 2025 463 m cl s 2090 463 m 64 X s 2154 463 m cl s 2090 463 m 21 Y s 2090 484 m cl s 2090 463 m -18 Y s 2090 445 m cl s /w 36 def /w2 {w 2 div} def /w3 {w 3 div} def 405 528 535 497 664 494 794 508 923 534 1053 548 1182 554 1312
 562 1442 694 1571 1071 1701 1288 1830 691 1960 500 2090 463 14 { m20} R 0.8 0 0 c 9 lw black 0.8 0 0 c 340 483 m cl s 340 483 m 130 13 d 129 12 d 130 12 d 129 10 d 130 8 d 130 11 d 64 8 d 65 11 d 33 7 d 32 10 d 32 13 d 33 18 d 16 12 d 16 13 d 16 16
 d 17 19 d 16 24 d 16 28 d 16 35 d 8 21 d 8 22 d 9 25 d 8 28 d 8 31 d 8 34 d 8 38 d 8 40 d 8 44 d 8 46 d 16 97 d 9 48 d 8 46 d 8 43 d 8 37 d 8 32 d 4 13 d 4 10 d 4 9 d 4 7 d 4 4 d 4 2 d 4 X 4 -3 d 4 -5 d 4 -7 d 4 -10 d 4 -11 d 5 -14 d 4 -16 d 8 -37 d
 8 -43 d 8 -47 d 8 -51 d 16 -108 d 16 -106 d 8 -50 d 9 -47 d 8 -44 d 8 -40 d 8 -37 d 8 -33 d 8 -29 d 8 -26 d 8 -22 d 8 -20 d 8 -17 d 9 -15 d 16 -25 d 16 -19 d 16 -14 d 16 -12 d 17 -10 d 32 -15 d 32 -11 d 33 -10 d 129 -31 d s 1 0.6 0 c[  12 12 ] 0 sd
 black 1 0.6 0 c 340 480 m cl s 340 480 m 65 7 d 65 7 d 65 6 d 64 5 d 65 4 d 65 4 d 65 3 d 64 3 d 65 2 d 65 1 d 65 1 d 129 X 65 -1 d 65 -2 d 65 -2 d 65 -3 d 64 -3 d 65 -4 d 65 -5 d 65 -5 d 65 -6 d 64 -7 d 65 -7 d 65 -7 d 65 -9 d 65 -9 d 64 -9 d s 0
 0.6 0 c black 0 0.6 0 c 340 351 m cl s 340 351 m 130 X 129 1 d 130 3 d 129 4 d 130 5 d 130 9 d 64 8 d 65 12 d 33 8 d 32 11 d 32 14 d 33 18 d 16 12 d 16 14 d 16 16 d 17 20 d 16 23 d 16 29 d 16 35 d 8 21 d 8 22 d 9 25 d 8 28 d 8 31 d 8 34 d 8 37 d 8
 40 d 8 43 d 8 46 d 16 96 d 9 48 d 8 45 d 8 42 d 8 38 d 8 31 d 4 13 d 4 11 d 4 9 d 4 6 d 4 5 d 4 2 d 4 X 4 -2 d 4 -5 d 4 -7 d 4 -9 d 4 -11 d 5 -13 d 4 -15 d 8 -35 d 8 -41 d 8 -46 d 8 -50 d 16 -103 d 16 -103 d 8 -48 d 9 -45 d 8 -43 d 8 -38 d 8 -35 d 8
 -31 d 8 -28 d 8 -24 d 8 -22 d 8 -18 d 8 -16 d 9 -14 d 16 -23 d 16 -16 d 16 -13 d 16 -9 d 17 -8 d 32 -11 d 32 -7 d 33 -5 d 65 -7 d 64 -5 d s black[  ] 0 sd 3 lw 405 528 m -65 X s 340 528 m cl s 405 528 m 65 X s 470 528 m cl s 405 528 m 26 Y s 405 554
 m cl s 405 528 m -22 Y s 405 506 m cl s 535 497 m -65 X s 470 497 m cl s 535 497 m 64 X s 599 497 m cl s 535 497 m 23 Y s 535 520 m cl s 535 497 m -21 Y s 535 476 m cl s 664 494 m -65 X s 599 494 m cl s 664 494 m 65 X s 729 494 m cl s 664 494 m 23 Y
 s 664 517 m cl s 664 494 m -20 Y s 664 474 m cl s 794 508 m -65 X s 729 508 m cl s 794 508 m 64 X s 858 508 m cl s 794 508 m 25 Y s 794 533 m cl s 794 508 m -21 Y s 794 487 m cl s 923 534 m -65 X s 858 534 m cl s 923 534 m 65 X s 988 534 m cl s 923
 534 m 26 Y s 923 560 m cl s 923 534 m -23 Y s 923 511 m cl s 1053 548 m -65 X s 988 548 m cl s 1053 548 m 65 X s 1118 548 m cl s 1053 548 m 27 Y s 1053 575 m cl s 1053 548 m -24 Y s 1053 524 m cl s 1182 554 m -64 X s 1118 554 m cl s 1182 554 m 65 X
 s 1247 554 m cl s 1182 554 m 27 Y s 1182 581 m cl s 1182 554 m -24 Y s 1182 530 m cl s 1312 562 m -65 X s 1247 562 m cl s 1312 562 m 65 X s 1377 562 m cl s 1312 562 m 28 Y s 1312 590 m cl s 1312 562 m -24 Y s 1312 538 m cl s 1442 694 m -65 X s 1377
 694 m cl s 1442 694 m 64 X s 1506 694 m cl s 1442 694 m 33 Y s 1442 727 m cl s 1442 694 m -30 Y s 1442 664 m cl s 1571 1071 m -65 X s 1506 1071 m cl s 1571 1071 m 65 X s 1636 1071 m cl s 1571 1071 m 47 Y s 1571 1118 m cl s 1571 1071 m -44 Y s 1571
 1027 m cl s 1701 1288 m -65 X s 1636 1288 m cl s 1701 1288 m 65 X s 1766 1288 m cl s 1701 1288 m 53 Y s 1701 1341 m cl s 1701 1288 m -51 Y s 1701 1237 m cl s 1830 691 m -64 X s 1766 691 m cl s 1830 691 m 65 X s 1895 691 m cl s 1830 691 m 33 Y s 1830
 724 m cl s 1830 691 m -30 Y s 1830 661 m cl s 1960 500 m -65 X s 1895 500 m cl s 1960 500 m 65 X s 2025 500 m cl s 1960 500 m 23 Y s 1960 523 m cl s 1960 500 m -21 Y s 1960 479 m cl s 2090 463 m -65 X s 2025 463 m cl s 2090 463 m 64 X s 2154 463 m
 cl s 2090 463 m 21 Y s 2090 484 m cl s 2090 463 m -18 Y s 2090 445 m cl s 405 528 535 497 664 494 794 508 923 534 1053 548 1182 554 1312 562 1442 694 1571 1071 1701 1288 1830 691 1960 500 2090 463 14 { m20} R 340 348 m 1814 X s 340 401 m -53 Y s 405
 374 m -26 Y s 470 374 m -26 Y s 535 374 m -26 Y s 599 374 m -26 Y s 664 401 m -53 Y s 729 374 m -26 Y s 794 374 m -26 Y s 858 374 m -26 Y s 923 374 m -26 Y s 988 401 m -53 Y s 1053 374 m -26 Y s 1118 374 m -26 Y s 1182 374 m -26 Y s 1247 374 m -26 Y
 s 1312 401 m -53 Y s 1377 374 m -26 Y s 1442 374 m -26 Y s 1506 374 m -26 Y s 1571 374 m -26 Y s 1636 401 m -53 Y s 1701 374 m -26 Y s 1766 374 m -26 Y s 1830 374 m -26 Y s 1895 374 m -26 Y s 1960 401 m -53 Y s 1960 401 m -53 Y s 2025 374 m -26 Y s
 2090 374 m -26 Y s 340 2068 m 1814 X s 340 2016 m 52 Y s 405 2042 m 26 Y s 470 2042 m 26 Y s 535 2042 m 26 Y s 599 2042 m 26 Y s 664 2016 m 52 Y s 729 2042 m 26 Y s 794 2042 m 26 Y s 858 2042 m 26 Y s 923 2042 m 26 Y s 988 2016 m 52 Y s 1053 2042 m
 26 Y s 1118 2042 m 26 Y s 1182 2042 m 26 Y s 1247 2042 m 26 Y s 1312 2016 m 52 Y s 1377 2042 m 26 Y s 1442 2042 m 26 Y s 1506 2042 m 26 Y s 1571 2042 m 26 Y s 1636 2016 m 52 Y s 1701 2042 m 26 Y s 1766 2042 m 26 Y s 1830 2042 m 26 Y s 1895 2042 m 26
 Y s 1960 2016 m 52 Y s 1960 2016 m 52 Y s 2025 2042 m 26 Y s 2090 2042 m 26 Y s 340 348 m 1720 Y s 394 634 m -54 X s 367 691 m -27 X s 367 748 m -27 X s 367 805 m -27 X s 367 862 m -27 X s 394 919 m -54 X s 367 977 m -27 X s 367 1034 m -27 X s 367
 1091 m -27 X s 367 1148 m -27 X s 394 1205 m -54 X s 367 1262 m -27 X s 367 1319 m -27 X s 367 1376 m -27 X s 367 1433 m -27 X s 394 1491 m -54 X s 367 1548 m -27 X s 367 1605 m -27 X s 367 1662 m -27 X s 367 1719 m -27 X s 394 1776 m -54 X s 367
 1833 m -27 X s 367 1890 m -27 X s 367 1948 m -27 X s 367 2005 m -27 X s 394 2062 m -54 X s 394 634 m -54 X s 367 577 m -27 X s 367 520 m -27 X s 367 463 m -27 X s 367 405 m -27 X s 394 2062 m -54 X s 2154 348 m 1720 Y s 2101 634 m 53 X s 2127 691 m
 27 X s 2127 748 m 27 X s 2127 805 m 27 X s 2127 862 m 27 X s 2101 919 m 53 X s 2127 977 m 27 X s 2127 1034 m 27 X s 2127 1091 m 27 X s 2127 1148 m 27 X s 2101 1205 m 53 X s 2127 1262 m 27 X s 2127 1319 m 27 X s 2127 1376 m 27 X s 2127 1433 m 27 X s
 2101 1491 m 53 X s 2127 1548 m 27 X s 2127 1605 m 27 X s 2127 1662 m 27 X s 2127 1719 m 27 X s 2101 1776 m 53 X s 2127 1833 m 27 X s 2127 1890 m 27 X s 2127 1948 m 27 X s 2127 2005 m 27 X s 2101 2062 m 53 X s 2101 634 m 53 X s 2127 577 m 27 X s 2127
 520 m 27 X s 2127 463 m 27 X s 2127 405 m 27 X s 2101 2062 m 53 X s
 gsave  2268 2177 0 0 C 1569.96 1945.38 t 0 r /Helvetica findfont 79.6355 sf 0 0 m ( Data) show NC gr  6 lw 1495 1935 m 59 Y s 3 lw 1495 1964 m20 6 lw
 gsave  2268 2177 0 0 C 1569.96 1846.79 t 0 r /Helvetica findfont 79.6355 sf 0 0 m ( Total) show NC gr  0.8 0 0 c 1441 1867 m 109 X s black
 gsave  2268 2177 0 0 C 1615.46 1748.19 t 0 r /Helvetica findfont 79.6355 sf 0 0 m (t) show NC gr  1615 1813 m 23 X s
 gsave  2268 2177 0 0 C 1569.96 1748.19 t 0 r /Helvetica findfont 79.6355 sf 0 0 m ( t) show NC gr  1 0.6 0 c[  12 12 ] 0 sd 1441 1769 m 109 X s black
 gsave  2268 2177 0 0 C 1569.96 1649.59 t 0 r /Helvetica findfont 79.6355 sf 0 0 m ( Z+HF) show NC gr  0 0.4 0 c 1441 1671 m 109 X s black
 gsave  2268 2177 0 0 C 451.268 1907.46 t 0 r /Helvetica-BoldOblique findfont 102.389 sf 0 0 m (ATLAS) show NC gr 
 gsave  2268 2177 0 0 C 819.108 1907.46 t 0 r /Helvetica findfont 102.389 sf 0 0 m (Internal) show NC gr 
 gsave  2268 2177 0 0 C 864.614 1763.36 t 0 r /Helvetica findfont 87.2199 sf 0 0 m ( CR) show NC gr 
 gsave  2268 2177 0 0 C 834.277 1736.81 t 0 r /Helvetica findfont 56.8825 sf 0 0 m (0) show NC gr 
 gsave  2268 2177 0 0 C 451.268 1763.36 t 0 r /Helvetica findfont 87.2199 sf 0 0 m (Inverted d) show NC gr 
 gsave  2268 2177 0 0 C 993.548 1695.1 t 0 r /Helvetica findfont 53.0904 sf 0 0 m (\2551) show NC gr 
 gsave  2268 2177 0 0 C 451.268 1657.18 t 0 r /Helvetica findfont 79.6355 sf 0 0 m (13 TeV, 36.1 fb) show NC gr 
 gr  gr showpage
end
%%EOF
