%!PS-Adobe-2.0 EPSF-2.0
%%BoundingBox:  0 0 567 407
%%Title: plots/AC_ratio_VBF.eps: c
%%Creator: ROOT Version 6.04/02
%%CreationDate: Mon Jun 27 22:59:48 2016
%%DocumentNeededResources: ProcSet (FontSetInit)
%%EndComments
%%BeginProlog
80 dict begin
/s {stroke} def /l {lineto} def /m {moveto} def /t {translate} def
/r {rotate} def /rl {roll}  def /R {repeat} def
/d {rlineto} def /rm {rmoveto} def /gr {grestore} def /f {eofill} def
/c {setrgbcolor} def /black {0 setgray} def /sd {setdash} def
/cl {closepath} def /sf {scalefont setfont} def /lw {setlinewidth} def
/box {m dup 0 exch d exch 0 d 0 exch neg d cl} def
/NC{systemdict begin initclip end}def/C{NC box clip newpath}def
/bl {box s} def /bf {gsave box gsave f grestore 1 lw [] 0 sd s grestore} def /Y { 0 exch d} def /X { 0 d} def 
/K {{pop pop 0 moveto} exch kshow} bind def
/ita {/ang 15 def gsave [1 0 ang dup sin exch cos div 1 0 0] concat} def 
/mp {newpath /y exch def /x exch def} def
/side {[w .77 mul w .23 mul] .385 w mul sd w 0 l currentpoint t -144 r} def
/mr {mp x y w2 0 360 arc} def /m24 {mr s} def /m20 {mr f} def
/mb {mp x y w2 add m w2 neg 0 d 0 w neg d w 0 d 0 w d cl} def
/mt {mp x y w2 add m w2 neg w neg d w 0 d cl} def
/m21 {mb f} def /m25 {mb s} def /m22 {mt f} def /m26{mt s} def
/m23 {mp x y w2 sub m w2 w d w neg 0 d cl f} def
/m27 {mp x y w2 add m w3 neg w2 neg d w3 w2 neg d w3 w2 d cl s} def
/m28 {mp x w2 sub y w2 sub w3 add m w3 0 d  0 w3 neg d w3 0 d 0 w3 d w3 0 d  0 w3 d w3 neg 0 d 0 w3 d w3 neg 0 d 0 w3 neg d w3 neg 0 d cl s } def
/m29 {mp gsave x w2 sub y w2 add w3 sub m currentpoint t 4 {side} repeat cl fill gr} def
/m30 {mp gsave x w2 sub y w2 add w3 sub m currentpoint t 4 {side} repeat cl s gr} def
/m31 {mp x y w2 sub m 0 w d x w2 sub y m w 0 d x w2 sub y w2 add m w w neg d x w2 sub y w2 sub m w w d s} def
/m32 {mp x y w2 sub m w2 w d w neg 0 d cl s} def
/m33 {mp x y w2 add m w3 neg w2 neg d w3 w2 neg d w3 w2 d cl f} def
/m34 {mp x w2 sub y w2 sub w3 add m w3 0 d  0 w3 neg d w3 0 d 0 w3 d w3 0 d  0 w3 d w3 neg 0 d 0 w3 d w3 neg 0 d 0 w3 neg d w3 neg 0 d cl f } def
/m2 {mp x y w2 sub m 0 w d x w2 sub y m w 0 d s} def
/m5 {mp x w2 sub y w2 sub m w w d x w2 sub y w2 add m w w neg d s} def
%%IncludeResource: ProcSet (FontSetInit)
%%IncludeResource: font Times-Roman
%%IncludeResource: font Times-Italic
%%IncludeResource: font Times-Bold
%%IncludeResource: font Times-BoldItalic
%%IncludeResource: font Helvetica
%%IncludeResource: font Helvetica-Oblique
%%IncludeResource: font Helvetica-Bold
%%IncludeResource: font Helvetica-BoldOblique
%%IncludeResource: font Courier
%%IncludeResource: font Courier-Oblique
%%IncludeResource: font Courier-Bold
%%IncludeResource: font Courier-BoldOblique
%%IncludeResource: font Symbol
%%IncludeResource: font ZapfDingbats
/reEncode {exch findfont dup length dict begin {1 index /FID eq  {pop pop} {def} ifelse } forall /Encoding exch def currentdict end dup /FontName get exch definefont pop } def [/Times-Bold /Times-Italic /Times-BoldItalic /Helvetica /Helvetica-Oblique
 /Helvetica-Bold /Helvetica-BoldOblique /Courier /Courier-Oblique /Courier-Bold /Courier-BoldOblique /Times-Roman /AvantGarde-Book /AvantGarde-BookOblique /AvantGarde-Demi /AvantGarde-DemiOblique /Bookman-Demi /Bookman-DemiItalic /Bookman-Light
 /Bookman-LightItalic /Helvetica-Narrow /Helvetica-Narrow-Bold /Helvetica-Narrow-BoldOblique /Helvetica-Narrow-Oblique /NewCenturySchlbk-Roman /NewCenturySchlbk-Bold /NewCenturySchlbk-BoldItalic /NewCenturySchlbk-Italic /Palatino-Bold
 /Palatino-BoldItalic /Palatino-Italic /Palatino-Roman ] {ISOLatin1Encoding reEncode } forall
%%EndProlog
%%BeginSetup
%%EndSetup
newpath  gsave  .25 .25 scale  gsave  0 0 t black[  ] 0 sd 3 lw 1 1 1 c 2268 1630 0 0 bf black 1 1 1 c 1905 1434 272 147 bf black 1905 1434 272 147 bl 1 1 1 c 1905 1434 272 147 bf black 1905 1434 272 147 bl 272 147 m 1905 X s
 gsave  2268 1630 0 0 C 1185.14 42.7334 t 0 r /Helvetica findfont 54.1289 sf 0 0 m ([GeV]) show NC gr 
 gsave  2268 1630 0 0 C 1162.35 28.4889 t 0 r /Helvetica findfont 34.1867 sf 0 0 m (S) show NC gr 
 gsave  2268 1630 0 0 C 1119.61 42.7334 t 0 r /Helvetica findfont 54.1289 sf 0 0 m (m) show NC gr  375 188 m -41 Y s 417 167 m -20 Y s 460 167 m -20 Y s 502 167 m -20 Y s 545 167 m -20 Y s 587 188 m -41 Y s 630 167 m -20 Y s 672 167 m -20 Y s 715 167
 m -20 Y s 757 167 m -20 Y s 800 188 m -41 Y s 842 167 m -20 Y s 885 167 m -20 Y s 927 167 m -20 Y s 970 167 m -20 Y s 1012 188 m -41 Y s 1055 167 m -20 Y s 1097 167 m -20 Y s 1140 167 m -20 Y s 1182 167 m -20 Y s 1225 188 m -41 Y s 1267 167 m -20 Y
 s 1310 167 m -20 Y s 1352 167 m -20 Y s 1395 167 m -20 Y s 1437 188 m -41 Y s 1480 167 m -20 Y s 1522 167 m -20 Y s 1565 167 m -20 Y s 1607 167 m -20 Y s 1650 188 m -41 Y s 1692 167 m -20 Y s 1735 167 m -20 Y s 1777 167 m -20 Y s 1820 167 m -20 Y s
 1862 188 m -41 Y s 1905 167 m -20 Y s 1947 167 m -20 Y s 1989 167 m -20 Y s 2032 167 m -20 Y s 2074 188 m -41 Y s 375 188 m -41 Y s 332 167 m -20 Y s 290 167 m -20 Y s 2074 188 m -41 Y s 2117 167 m -20 Y s 2159 167 m -20 Y s
 gsave  2268 1630 0 0 C 327.622 94.0134 t 0 r /Helvetica findfont 54.1289 sf 0 0 m (200) show NC gr 
 gsave  2268 1630 0 0 C 541.289 94.0134 t 0 r /Helvetica findfont 54.1289 sf 0 0 m (300) show NC gr 
 gsave  2268 1630 0 0 C 752.107 94.0134 t 0 r /Helvetica findfont 54.1289 sf 0 0 m (400) show NC gr 
 gsave  2268 1630 0 0 C 965.774 94.0134 t 0 r /Helvetica findfont 54.1289 sf 0 0 m (500) show NC gr 
 gsave  2268 1630 0 0 C 1176.59 94.0134 t 0 r /Helvetica findfont 54.1289 sf 0 0 m (600) show NC gr 
 gsave  2268 1630 0 0 C 1390.26 94.0134 t 0 r /Helvetica findfont 54.1289 sf 0 0 m (700) show NC gr 
 gsave  2268 1630 0 0 C 1603.93 94.0134 t 0 r /Helvetica findfont 54.1289 sf 0 0 m (800) show NC gr 
 gsave  2268 1630 0 0 C 1814.74 94.0134 t 0 r /Helvetica findfont 54.1289 sf 0 0 m (900) show NC gr 
 gsave  2268 1630 0 0 C 2014.17 94.0134 t 0 r /Helvetica findfont 54.1289 sf 0 0 m (1000) show NC gr  272 147 m 1434 Y s
 gsave  2268 1630 0 0 C 145.293 880.307 t 90 r /Helvetica findfont 54.1289 sf 0 0 m (Fit \(on NWA\)) show NC gr 
 gsave  2268 1630 0 0 C 85.4667 994.263 t 90 r /Helvetica findfont 54.1289 sf 0 0 m (MC) show NC gr  97 880 m 311 Y s
 gsave  2268 1630 0 0 C 111.107 541.289 t 90 r /Helvetica findfont 54.1289 sf 0 0 m (acceptance:   ) show NC gr  332 147 m -60 X s 302 204 m -30 X s 302 261 m -30 X s 302 319 m -30 X s 302 376 m -30 X s 332 433 m -60 X s 302 491 m -30 X s 302 548 m
 -30 X s 302 606 m -30 X s 302 663 m -30 X s 332 720 m -60 X s 302 778 m -30 X s 302 835 m -30 X s 302 892 m -30 X s 302 950 m -30 X s 332 1007 m -60 X s 302 1064 m -30 X s 302 1122 m -30 X s 302 1179 m -30 X s 302 1237 m -30 X s 332 1294 m -60 X s
 302 1351 m -30 X s 302 1409 m -30 X s 302 1466 m -30 X s 302 1523 m -30 X s 332 1581 m -60 X s
 gsave  2268 1630 0 0 C 185.178 128.2 t 0 r /Helvetica findfont 54.1289 sf 0 0 m (0.5) show NC gr 
 gsave  2268 1630 0 0 C 239.307 413.089 t 0 r /Helvetica findfont 54.1289 sf 0 0 m (1) show NC gr 
 gsave  2268 1630 0 0 C 185.178 700.827 t 0 r /Helvetica findfont 54.1289 sf 0 0 m (1.5) show NC gr 
 gsave  2268 1630 0 0 C 230.76 985.716 t 0 r /Helvetica findfont 54.1289 sf 0 0 m (2) show NC gr 
 gsave  2268 1630 0 0 C 185.178 1276.3 t 0 r /Helvetica findfont 54.1289 sf 0 0 m (2.5) show NC gr 
 gsave  2268 1630 0 0 C 230.76 1561.19 t 0 r /Helvetica findfont 54.1289 sf 0 0 m (3) show NC gr  359 454 m 37 Y s 353 491 m 11 X s 359 432 m -37 Y s 353 395 m 11 X s 571 469 m 31 Y s 565 500 m 12 X s 571 446 m -31 Y s 565 415 m 12 X s 784 417 m 23 Y
 s 778 440 m 11 X s 784 394 m -23 Y s 778 371 m 11 X s 996 427 m 20 Y s 990 447 m 12 X s 996 405 m -20 Y s 990 385 m 12 X s 1209 408 m 17 Y s 1203 425 m 11 X s 1209 385 m -18 Y s 1203 367 m 11 X s 1421 460 m 17 Y s 1415 477 m 12 X s 1421 437 m -17 Y
 s 1415 420 m 12 X s 1634 533 m 19 Y s 1628 552 m 11 X s 1634 510 m -20 Y s 1628 490 m 11 X s 1846 458 m 14 Y s 1840 472 m 12 X s 1846 435 m -15 Y s 1840 420 m 12 X s 2059 409 m 13 Y s 2053 422 m 11 X s 2059 386 m -13 Y s 2053 373 m 11 X s 1 0 0 c /w
 27 def /w2 {w 2 div} def /w3 {w 3 div} def 359 443 571 458 784 406 996 416 1209 396 1421 449 1634 521 1846 446 2059 397 9 { m22} R black 1857 584 m 5 Y s 1851 589 m 11 X s 1857 562 m -5 Y s 1851 557 m 11 X s 1 0 0 c 1857 573 m25 black 1867 606 m 5 Y
 s 1862 611 m 11 X s 1867 584 m -5 Y s 1862 579 m 11 X s 1 0 0 c 1867 595 m27 black 391 1352 m 28 Y s 385 1380 m 11 X s 391 1329 m -28 Y s 385 1301 m 11 X s 603 955 m 17 Y s 597 972 m 12 X s 603 933 m -17 Y s 597 916 m 12 X s 816 764 m 11 Y s 810 775
 m 11 X s 816 741 m -12 Y s 810 729 m 11 X s 1028 711 m 8 Y s 1022 719 m 12 X s 1028 688 m -8 Y s 1022 680 m 12 X s 1241 702 m 8 Y s 1235 710 m 11 X s 1241 680 m -8 Y s 1235 672 m 11 X s 1453 675 m 8 Y s 1447 683 m 12 X s 1453 653 m -8 Y s 1447 645 m
 12 X s 1665 645 m 5 Y s 1660 650 m 11 X s 1665 622 m -5 Y s 1660 617 m 11 X s 1878 603 m 4 Y s 1872 607 m 12 X s 1878 580 m -4 Y s 1872 576 m 12 X s 2090 586 m 4 Y s 2085 590 m 11 X s 2090 564 m -4 Y s 2085 560 m 11 X s 1 0 0 c 391 1340 603 944 816
 752 1028 700 1241 691 1453 664 1665 634 1878 592 2090 575 9 { m24} R 6 lw 272 433 m 1905 X s black
 gsave  2268 1630 0 0 C 361.809 1501.37 t 0 r /Helvetica findfont 59.8267 sf 0 0 m (ggH acceptance into category: VBF) show NC gr  1 0 0 c 1628 1499 m 27 X s black
 gsave  2268 1630 0 0 C 1700.79 1484.27 t 0 r /Helvetica findfont 59.8267 sf 0 0 m (Fit \(on NWA\)) show NC gr  1 0 0 c 3 lw 1646 1418 m22 6 lw black
 gsave  2268 1630 0 0 C 1700.79 1393.11 t 0 r /Helvetica findfont 59.8267 sf 0 0 m (NWA) show NC gr  1 0 0 c 3 lw 1646 1336 m25 6 lw black
 gsave  2268 1630 0 0 C 1700.79 1316.19 t 0 r /Helvetica findfont 59.8267 sf 0 0 m (5% width) show NC gr  1 0 0 c 3 lw 1646 1255 m27 6 lw black
 gsave  2268 1630 0 0 C 1700.79 1233.57 t 0 r /Helvetica findfont 59.8267 sf 0 0 m (10% width) show NC gr  1 0 0 c 3 lw 1646 1173 m24 6 lw black
 gsave  2268 1630 0 0 C 1700.79 1150.95 t 0 r /Helvetica findfont 59.8267 sf 0 0 m (15% width) show NC gr 
 gr  gr showpage
end
%%EOF
