%!PS-Adobe-2.0 EPSF-2.0
%%BoundingBox:  0 0 567 407
%%Title: plots/AC_ratio_ggF_4e.eps: c
%%Creator: ROOT Version 6.04/02
%%CreationDate: Mon Jun 27 22:59:48 2016
%%DocumentNeededResources: ProcSet (FontSetInit)
%%EndComments
%%BeginProlog
80 dict begin
/s {stroke} def /l {lineto} def /m {moveto} def /t {translate} def
/r {rotate} def /rl {roll}  def /R {repeat} def
/d {rlineto} def /rm {rmoveto} def /gr {grestore} def /f {eofill} def
/c {setrgbcolor} def /black {0 setgray} def /sd {setdash} def
/cl {closepath} def /sf {scalefont setfont} def /lw {setlinewidth} def
/box {m dup 0 exch d exch 0 d 0 exch neg d cl} def
/NC{systemdict begin initclip end}def/C{NC box clip newpath}def
/bl {box s} def /bf {gsave box gsave f grestore 1 lw [] 0 sd s grestore} def /Y { 0 exch d} def /X { 0 d} def 
/K {{pop pop 0 moveto} exch kshow} bind def
/ita {/ang 15 def gsave [1 0 ang dup sin exch cos div 1 0 0] concat} def 
/mp {newpath /y exch def /x exch def} def
/side {[w .77 mul w .23 mul] .385 w mul sd w 0 l currentpoint t -144 r} def
/mr {mp x y w2 0 360 arc} def /m24 {mr s} def /m20 {mr f} def
/mb {mp x y w2 add m w2 neg 0 d 0 w neg d w 0 d 0 w d cl} def
/mt {mp x y w2 add m w2 neg w neg d w 0 d cl} def
/m21 {mb f} def /m25 {mb s} def /m22 {mt f} def /m26{mt s} def
/m23 {mp x y w2 sub m w2 w d w neg 0 d cl f} def
/m27 {mp x y w2 add m w3 neg w2 neg d w3 w2 neg d w3 w2 d cl s} def
/m28 {mp x w2 sub y w2 sub w3 add m w3 0 d  0 w3 neg d w3 0 d 0 w3 d w3 0 d  0 w3 d w3 neg 0 d 0 w3 d w3 neg 0 d 0 w3 neg d w3 neg 0 d cl s } def
/m29 {mp gsave x w2 sub y w2 add w3 sub m currentpoint t 4 {side} repeat cl fill gr} def
/m30 {mp gsave x w2 sub y w2 add w3 sub m currentpoint t 4 {side} repeat cl s gr} def
/m31 {mp x y w2 sub m 0 w d x w2 sub y m w 0 d x w2 sub y w2 add m w w neg d x w2 sub y w2 sub m w w d s} def
/m32 {mp x y w2 sub m w2 w d w neg 0 d cl s} def
/m33 {mp x y w2 add m w3 neg w2 neg d w3 w2 neg d w3 w2 d cl f} def
/m34 {mp x w2 sub y w2 sub w3 add m w3 0 d  0 w3 neg d w3 0 d 0 w3 d w3 0 d  0 w3 d w3 neg 0 d 0 w3 d w3 neg 0 d 0 w3 neg d w3 neg 0 d cl f } def
/m2 {mp x y w2 sub m 0 w d x w2 sub y m w 0 d s} def
/m5 {mp x w2 sub y w2 sub m w w d x w2 sub y w2 add m w w neg d s} def
%%IncludeResource: ProcSet (FontSetInit)
%%IncludeResource: font Times-Roman
%%IncludeResource: font Times-Italic
%%IncludeResource: font Times-Bold
%%IncludeResource: font Times-BoldItalic
%%IncludeResource: font Helvetica
%%IncludeResource: font Helvetica-Oblique
%%IncludeResource: font Helvetica-Bold
%%IncludeResource: font Helvetica-BoldOblique
%%IncludeResource: font Courier
%%IncludeResource: font Courier-Oblique
%%IncludeResource: font Courier-Bold
%%IncludeResource: font Courier-BoldOblique
%%IncludeResource: font Symbol
%%IncludeResource: font ZapfDingbats
/reEncode {exch findfont dup length dict begin {1 index /FID eq  {pop pop} {def} ifelse } forall /Encoding exch def currentdict end dup /FontName get exch definefont pop } def [/Times-Bold /Times-Italic /Times-BoldItalic /Helvetica /Helvetica-Oblique
 /Helvetica-Bold /Helvetica-BoldOblique /Courier /Courier-Oblique /Courier-Bold /Courier-BoldOblique /Times-Roman /AvantGarde-Book /AvantGarde-BookOblique /AvantGarde-Demi /AvantGarde-DemiOblique /Bookman-Demi /Bookman-DemiItalic /Bookman-Light
 /Bookman-LightItalic /Helvetica-Narrow /Helvetica-Narrow-Bold /Helvetica-Narrow-BoldOblique /Helvetica-Narrow-Oblique /NewCenturySchlbk-Roman /NewCenturySchlbk-Bold /NewCenturySchlbk-BoldItalic /NewCenturySchlbk-Italic /Palatino-Bold
 /Palatino-BoldItalic /Palatino-Italic /Palatino-Roman ] {ISOLatin1Encoding reEncode } forall
%%EndProlog
%%BeginSetup
%%EndSetup
newpath  gsave  .25 .25 scale  gsave  0 0 t black[  ] 0 sd 3 lw 1 1 1 c 2268 1630 0 0 bf black 1 1 1 c 1905 1434 272 147 bf black 1905 1434 272 147 bl 1 1 1 c 1905 1434 272 147 bf black 1905 1434 272 147 bl 272 147 m 1905 X s
 gsave  2268 1630 0 0 C 1185.14 42.7334 t 0 r /Helvetica findfont 54.1289 sf 0 0 m ([GeV]) show NC gr 
 gsave  2268 1630 0 0 C 1162.35 28.4889 t 0 r /Helvetica findfont 34.1867 sf 0 0 m (S) show NC gr 
 gsave  2268 1630 0 0 C 1119.61 42.7334 t 0 r /Helvetica findfont 54.1289 sf 0 0 m (m) show NC gr  375 188 m -41 Y s 417 167 m -20 Y s 460 167 m -20 Y s 502 167 m -20 Y s 545 167 m -20 Y s 587 188 m -41 Y s 630 167 m -20 Y s 672 167 m -20 Y s 715 167
 m -20 Y s 757 167 m -20 Y s 800 188 m -41 Y s 842 167 m -20 Y s 885 167 m -20 Y s 927 167 m -20 Y s 970 167 m -20 Y s 1012 188 m -41 Y s 1055 167 m -20 Y s 1097 167 m -20 Y s 1140 167 m -20 Y s 1182 167 m -20 Y s 1225 188 m -41 Y s 1267 167 m -20 Y
 s 1310 167 m -20 Y s 1352 167 m -20 Y s 1395 167 m -20 Y s 1437 188 m -41 Y s 1480 167 m -20 Y s 1522 167 m -20 Y s 1565 167 m -20 Y s 1607 167 m -20 Y s 1650 188 m -41 Y s 1692 167 m -20 Y s 1735 167 m -20 Y s 1777 167 m -20 Y s 1820 167 m -20 Y s
 1862 188 m -41 Y s 1905 167 m -20 Y s 1947 167 m -20 Y s 1989 167 m -20 Y s 2032 167 m -20 Y s 2074 188 m -41 Y s 375 188 m -41 Y s 332 167 m -20 Y s 290 167 m -20 Y s 2074 188 m -41 Y s 2117 167 m -20 Y s 2159 167 m -20 Y s
 gsave  2268 1630 0 0 C 327.622 94.0134 t 0 r /Helvetica findfont 54.1289 sf 0 0 m (200) show NC gr 
 gsave  2268 1630 0 0 C 541.289 94.0134 t 0 r /Helvetica findfont 54.1289 sf 0 0 m (300) show NC gr 
 gsave  2268 1630 0 0 C 752.107 94.0134 t 0 r /Helvetica findfont 54.1289 sf 0 0 m (400) show NC gr 
 gsave  2268 1630 0 0 C 965.774 94.0134 t 0 r /Helvetica findfont 54.1289 sf 0 0 m (500) show NC gr 
 gsave  2268 1630 0 0 C 1176.59 94.0134 t 0 r /Helvetica findfont 54.1289 sf 0 0 m (600) show NC gr 
 gsave  2268 1630 0 0 C 1390.26 94.0134 t 0 r /Helvetica findfont 54.1289 sf 0 0 m (700) show NC gr 
 gsave  2268 1630 0 0 C 1603.93 94.0134 t 0 r /Helvetica findfont 54.1289 sf 0 0 m (800) show NC gr 
 gsave  2268 1630 0 0 C 1814.74 94.0134 t 0 r /Helvetica findfont 54.1289 sf 0 0 m (900) show NC gr 
 gsave  2268 1630 0 0 C 2014.17 94.0134 t 0 r /Helvetica findfont 54.1289 sf 0 0 m (1000) show NC gr  272 147 m 1434 Y s
 gsave  2268 1630 0 0 C 145.293 880.307 t 90 r /Helvetica findfont 54.1289 sf 0 0 m (Fit \(on NWA\)) show NC gr 
 gsave  2268 1630 0 0 C 85.4667 994.263 t 90 r /Helvetica findfont 54.1289 sf 0 0 m (MC) show NC gr  97 880 m 311 Y s
 gsave  2268 1630 0 0 C 111.107 541.289 t 90 r /Helvetica findfont 54.1289 sf 0 0 m (acceptance:   ) show NC gr  332 266 m -60 X s 302 326 m -30 X s 302 386 m -30 X s 302 445 m -30 X s 302 505 m -30 X s 332 565 m -60 X s 302 625 m -30 X s 302 684 m
 -30 X s 302 744 m -30 X s 302 804 m -30 X s 332 864 m -60 X s 302 923 m -30 X s 302 983 m -30 X s 302 1043 m -30 X s 302 1103 m -30 X s 332 1162 m -60 X s 302 1222 m -30 X s 302 1282 m -30 X s 302 1342 m -30 X s 302 1401 m -30 X s 332 1461 m -60 X s
 332 266 m -60 X s 302 206 m -30 X s 302 147 m -30 X s 332 1461 m -60 X s 302 1521 m -30 X s 302 1581 m -30 X s
 gsave  2268 1630 0 0 C 185.178 247.853 t 0 r /Helvetica findfont 54.1289 sf 0 0 m (0.9) show NC gr 
 gsave  2268 1630 0 0 C 153.84 546.987 t 0 r /Helvetica findfont 54.1289 sf 0 0 m (0.95) show NC gr 
 gsave  2268 1630 0 0 C 239.307 843.271 t 0 r /Helvetica findfont 54.1289 sf 0 0 m (1) show NC gr 
 gsave  2268 1630 0 0 C 153.84 1145.25 t 0 r /Helvetica findfont 54.1289 sf 0 0 m (1.05) show NC gr 
 gsave  2268 1630 0 0 C 193.725 1438.69 t 0 r /Helvetica findfont 54.1289 sf 0 0 m (1.1) show NC gr  359 944 m 168 Y s 353 1112 m 11 X s 359 921 m -168 Y s 353 753 m 11 X s 571 744 m 160 Y s 565 904 m 12 X s 571 721 m -159 Y s 565 562 m 12 X s 784
 956 m 156 Y s 778 1112 m 11 X s 784 934 m -156 Y s 778 778 m 11 X s 996 769 m 147 Y s 990 916 m 12 X s 996 746 m -147 Y s 990 599 m 12 X s 1209 1090 m 148 Y s 1203 1238 m 11 X s 1209 1067 m -147 Y s 1203 920 m 11 X s 1421 675 m 136 Y s 1415 811 m 12
 X s 1421 652 m -137 Y s 1415 515 m 12 X s 1634 981 m 143 Y s 1628 1124 m 11 X s 1634 959 m -143 Y s 1628 816 m 11 X s 1846 914 m 139 Y s 1840 1053 m 12 X s 1846 891 m -138 Y s 1840 753 m 12 X s 2059 833 m 136 Y s 2053 969 m 11 X s 2059 810 m -137 Y
 s 2053 673 m 11 X s 1 0.8 0 c /w 27 def /w2 {w 2 div} def /w3 {w 3 div} def 359 933 571 733 784 945 996 758 1209 1079 1421 663 1634 970 1846 903 2059 821 9 { m22} R black 1857 1091 m 68 Y s 1851 1159 m 11 X s 1857 1068 m -68 Y s 1851 1000 m 11 X s 1
 0.8 0 c 1857 1079 m25 black 1867 1154 m 71 Y s 1862 1225 m 11 X s 1867 1131 m -70 Y s 1862 1061 m 11 X s 1 0.8 0 c 1867 1143 m27 black 391 1235 m 82 Y s 385 1317 m 11 X s 391 1212 m -82 Y s 385 1130 m 11 X s 603 918 m 74 Y s 597 992 m 12 X s 603 895
 m -73 Y s 597 822 m 12 X s 816 841 m 73 Y s 810 914 m 11 X s 816 818 m -72 Y s 810 746 m 11 X s 1028 901 m 69 Y s 1022 970 m 12 X s 1028 878 m -68 Y s 1022 810 m 12 X s 1241 1094 m 70 Y s 1235 1164 m 11 X s 1241 1071 m -70 Y s 1235 1001 m 11 X s
 1453 887 m 68 Y s 1447 955 m 12 X s 1453 864 m -68 Y s 1447 796 m 12 X s 1665 1005 m 67 Y s 1660 1072 m 11 X s 1665 982 m -67 Y s 1660 915 m 11 X s 1878 994 m 68 Y s 1872 1062 m 12 X s 1878 971 m -67 Y s 1872 904 m 12 X s 2090 962 m 68 Y s 2085 1030
 m 11 X s 2090 939 m -67 Y s 2085 872 m 11 X s 1 0.8 0 c 391 1224 603 907 816 830 1028 890 1241 1082 1453 875 1665 993 1878 983 2090 951 9 { m24} R 6 lw 272 864 m 1905 X s black
 gsave  2268 1630 0 0 C 361.809 1501.37 t 0 r /Helvetica findfont 59.8267 sf 0 0 m (ggH acceptance into category: ggF_4e) show NC gr  1 0.8 0 c 1628 1499 m 27 X s black
 gsave  2268 1630 0 0 C 1700.79 1484.27 t 0 r /Helvetica findfont 59.8267 sf 0 0 m (Fit \(on NWA\)) show NC gr  1 0.8 0 c 3 lw 1646 1418 m22 6 lw black
 gsave  2268 1630 0 0 C 1700.79 1393.11 t 0 r /Helvetica findfont 59.8267 sf 0 0 m (NWA) show NC gr  1 0.8 0 c 3 lw 1646 1336 m25 6 lw black
 gsave  2268 1630 0 0 C 1700.79 1316.19 t 0 r /Helvetica findfont 59.8267 sf 0 0 m (5% width) show NC gr  1 0.8 0 c 3 lw 1646 1255 m27 6 lw black
 gsave  2268 1630 0 0 C 1700.79 1233.57 t 0 r /Helvetica findfont 59.8267 sf 0 0 m (10% width) show NC gr  1 0.8 0 c 3 lw 1646 1173 m24 6 lw black
 gsave  2268 1630 0 0 C 1700.79 1150.95 t 0 r /Helvetica findfont 59.8267 sf 0 0 m (15% width) show NC gr 
 gr  gr showpage
end
%%EOF
