%!PS-Adobe-2.0 EPSF-2.0
%%BoundingBox:  0 0 567 544
%%Title: : 
%%Creator: ROOT Version 6.04/02
%%CreationDate: Fri Feb 17 10:04:48 2017
%%DocumentNeededResources: ProcSet (FontSetInit)
%%EndComments
%%BeginProlog
80 dict begin
/s {stroke} def /l {lineto} def /m {moveto} def /t {translate} def
/r {rotate} def /rl {roll}  def /R {repeat} def
/d {rlineto} def /rm {rmoveto} def /gr {grestore} def /f {eofill} def
/c {setrgbcolor} def /black {0 setgray} def /sd {setdash} def
/cl {closepath} def /sf {scalefont setfont} def /lw {setlinewidth} def
/box {m dup 0 exch d exch 0 d 0 exch neg d cl} def
/NC{systemdict begin initclip end}def/C{NC box clip newpath}def
/bl {box s} def /bf {gsave box gsave f grestore 1 lw [] 0 sd s grestore} def /Y { 0 exch d} def /X { 0 d} def 
/K {{pop pop 0 moveto} exch kshow} bind def
/ita {/ang 15 def gsave [1 0 ang dup sin exch cos div 1 0 0] concat} def 
/mp {newpath /y exch def /x exch def} def
/side {[w .77 mul w .23 mul] .385 w mul sd w 0 l currentpoint t -144 r} def
/mr {mp x y w2 0 360 arc} def /m24 {mr s} def /m20 {mr f} def
/mb {mp x y w2 add m w2 neg 0 d 0 w neg d w 0 d 0 w d cl} def
/mt {mp x y w2 add m w2 neg w neg d w 0 d cl} def
/m21 {mb f} def /m25 {mb s} def /m22 {mt f} def /m26{mt s} def
/m23 {mp x y w2 sub m w2 w d w neg 0 d cl f} def
/m27 {mp x y w2 add m w3 neg w2 neg d w3 w2 neg d w3 w2 d cl s} def
/m28 {mp x w2 sub y w2 sub w3 add m w3 0 d  0 w3 neg d w3 0 d 0 w3 d w3 0 d  0 w3 d w3 neg 0 d 0 w3 d w3 neg 0 d 0 w3 neg d w3 neg 0 d cl s } def
/m29 {mp gsave x w2 sub y w2 add w3 sub m currentpoint t 4 {side} repeat cl fill gr} def
/m30 {mp gsave x w2 sub y w2 add w3 sub m currentpoint t 4 {side} repeat cl s gr} def
/m31 {mp x y w2 sub m 0 w d x w2 sub y m w 0 d x w2 sub y w2 add m w w neg d x w2 sub y w2 sub m w w d s} def
/m32 {mp x y w2 sub m w2 w d w neg 0 d cl s} def
/m33 {mp x y w2 add m w3 neg w2 neg d w3 w2 neg d w3 w2 d cl f} def
/m34 {mp x w2 sub y w2 sub w3 add m w3 0 d  0 w3 neg d w3 0 d 0 w3 d w3 0 d  0 w3 d w3 neg 0 d 0 w3 d w3 neg 0 d 0 w3 neg d w3 neg 0 d cl f } def
/m2 {mp x y w2 sub m 0 w d x w2 sub y m w 0 d s} def
/m5 {mp x w2 sub y w2 sub m w w d x w2 sub y w2 add m w w neg d s} def
%%IncludeResource: ProcSet (FontSetInit)
%%IncludeResource: font Times-Roman
%%IncludeResource: font Times-Italic
%%IncludeResource: font Times-Bold
%%IncludeResource: font Times-BoldItalic
%%IncludeResource: font Helvetica
%%IncludeResource: font Helvetica-Oblique
%%IncludeResource: font Helvetica-Bold
%%IncludeResource: font Helvetica-BoldOblique
%%IncludeResource: font Courier
%%IncludeResource: font Courier-Oblique
%%IncludeResource: font Courier-Bold
%%IncludeResource: font Courier-BoldOblique
%%IncludeResource: font Symbol
%%IncludeResource: font ZapfDingbats
/reEncode {exch findfont dup length dict begin {1 index /FID eq  {pop pop} {def} ifelse } forall /Encoding exch def currentdict end dup /FontName get exch definefont pop } def [/Times-Bold /Times-Italic /Times-BoldItalic /Helvetica /Helvetica-Oblique
 /Helvetica-Bold /Helvetica-BoldOblique /Courier /Courier-Oblique /Courier-Bold /Courier-BoldOblique /Times-Roman /AvantGarde-Book /AvantGarde-BookOblique /AvantGarde-Demi /AvantGarde-DemiOblique /Bookman-Demi /Bookman-DemiItalic /Bookman-Light
 /Bookman-LightItalic /Helvetica-Narrow /Helvetica-Narrow-Bold /Helvetica-Narrow-BoldOblique /Helvetica-Narrow-Oblique /NewCenturySchlbk-Roman /NewCenturySchlbk-Bold /NewCenturySchlbk-BoldItalic /NewCenturySchlbk-Italic /Palatino-Bold
 /Palatino-BoldItalic /Palatino-Italic /Palatino-Roman ] {ISOLatin1Encoding reEncode } forall
%%EndProlog
%%BeginSetup
%%EndSetup
newpath  gsave  .25 .25 scale  gsave  0 0 t black[  ] 0 sd 3 lw 1 1 1 c 2268 2176 0 0 bf black 1 1 1 c 1701 1741 340 218 bf black 1701 1741 340 218 bl 1 1 1 c 1701 1741 340 218 bf black 1701 1741 340 218 bl 340 218 m 1701 X s[ 4 8] 0 sd 417 1959 m
 -1741 Y s 635 1959 m -1741 Y s 854 1959 m -1741 Y s 1073 1959 m -1741 Y s 1291 1959 m -1741 Y s 1510 1959 m -1741 Y s 1729 1959 m -1741 Y s 1948 1959 m -1741 Y s 417 1959 m -1741 Y s 1948 1959 m -1741 Y s[  ] 0 sd 340 218 m 1741 Y s[ 4 8] 0 sd 2041
 218 m -1701 X s 2041 435 m -1701 X s 2041 653 m -1701 X s 2041 871 m -1701 X s 2041 1088 m -1701 X s 2041 1306 m -1701 X s 2041 1523 m -1701 X s 2041 1741 m -1701 X s 2041 1959 m -1701 X s[  ] 0 sd 340 218 m 1701 X s
 gsave  2268 2176 0 0 C 1122.44 60.8783 t 0 r /Helvetica findfont 79.9028 sf 0 0 m ( [GeV]) show NC gr 
 gsave  2268 2176 0 0 C 1088.2 34.244 t 0 r /Helvetica findfont 53.2685 sf 0 0 m (H) show NC gr 
 gsave  2268 2176 0 0 C 1023.52 60.8783 t 0 r /Helvetica findfont 79.9028 sf 0 0 m (m) show NC gr  417 267 m -49 Y s 471 242 m -24 Y s 526 242 m -24 Y s 581 242 m -24 Y s 635 267 m -49 Y s 690 242 m -24 Y s 745 242 m -24 Y s 799 242 m -24 Y s 854 267
 m -49 Y s 909 242 m -24 Y s 963 242 m -24 Y s 1018 242 m -24 Y s 1073 267 m -49 Y s 1127 242 m -24 Y s 1182 242 m -24 Y s 1237 242 m -24 Y s 1291 267 m -49 Y s 1346 242 m -24 Y s 1401 242 m -24 Y s 1455 242 m -24 Y s 1510 267 m -49 Y s 1565 242 m
 -24 Y s 1620 242 m -24 Y s 1674 242 m -24 Y s 1729 267 m -49 Y s 1784 242 m -24 Y s 1838 242 m -24 Y s 1893 242 m -24 Y s 1948 267 m -49 Y s 417 267 m -49 Y s 362 242 m -24 Y s 1948 267 m -49 Y s 2002 242 m -24 Y s
 gsave  2268 2176 0 0 C 353.855 148.391 t 0 r /Helvetica findfont 72.293 sf 0 0 m (200) show NC gr 
 gsave  2268 2176 0 0 C 570.734 148.391 t 0 r /Helvetica findfont 72.293 sf 0 0 m (400) show NC gr 
 gsave  2268 2176 0 0 C 791.418 148.391 t 0 r /Helvetica findfont 72.293 sf 0 0 m (600) show NC gr 
 gsave  2268 2176 0 0 C 1008.3 148.391 t 0 r /Helvetica findfont 72.293 sf 0 0 m (800) show NC gr 
 gsave  2268 2176 0 0 C 1209.96 148.391 t 0 r /Helvetica findfont 72.293 sf 0 0 m (1000) show NC gr 
 gsave  2268 2176 0 0 C 1426.84 148.391 t 0 r /Helvetica findfont 72.293 sf 0 0 m (1200) show NC gr 
 gsave  2268 2176 0 0 C 1647.52 148.391 t 0 r /Helvetica findfont 72.293 sf 0 0 m (1400) show NC gr 
 gsave  2268 2176 0 0 C 1864.4 148.391 t 0 r /Helvetica findfont 72.293 sf 0 0 m (1600) show NC gr  340 218 m 1741 Y s
 gsave  2268 2176 0 0 C 156.001 1544.79 t 90 r /Helvetica findfont 79.9028 sf 0 0 m (Acceptance) show NC gr  395 218 m -55 X s 367 261 m -27 X s 367 305 m -27 X s 367 348 m -27 X s 367 392 m -27 X s 395 435 m -55 X s 367 479 m -27 X s 367 522 m -27 X
 s 367 566 m -27 X s 367 609 m -27 X s 395 653 m -55 X s 367 696 m -27 X s 367 740 m -27 X s 367 784 m -27 X s 367 827 m -27 X s 395 871 m -55 X s 367 914 m -27 X s 367 958 m -27 X s 367 1001 m -27 X s 367 1045 m -27 X s 395 1088 m -55 X s 367 1132 m
 -27 X s 367 1175 m -27 X s 367 1219 m -27 X s 367 1262 m -27 X s 395 1306 m -55 X s 367 1349 m -27 X s 367 1393 m -27 X s 367 1436 m -27 X s 367 1480 m -27 X s 395 1523 m -55 X s 367 1567 m -27 X s 367 1611 m -27 X s 367 1654 m -27 X s 367 1698 m
 -27 X s 395 1741 m -55 X s 367 1785 m -27 X s 367 1828 m -27 X s 367 1872 m -27 X s 367 1915 m -27 X s 395 1959 m -55 X s
 gsave  2268 2176 0 0 C 289.172 194.05 t 0 r /Helvetica findfont 72.293 sf 0 0 m (0) show NC gr 
 gsave  2268 2176 0 0 C 186.44 410.929 t 0 r /Helvetica findfont 72.293 sf 0 0 m (0.05) show NC gr 
 gsave  2268 2176 0 0 C 239.708 627.807 t 0 r /Helvetica findfont 72.293 sf 0 0 m (0.1) show NC gr 
 gsave  2268 2176 0 0 C 186.44 844.686 t 0 r /Helvetica findfont 72.293 sf 0 0 m (0.15) show NC gr 
 gsave  2268 2176 0 0 C 228.294 1061.57 t 0 r /Helvetica findfont 72.293 sf 0 0 m (0.2) show NC gr 
 gsave  2268 2176 0 0 C 186.44 1282.25 t 0 r /Helvetica findfont 72.293 sf 0 0 m (0.25) show NC gr 
 gsave  2268 2176 0 0 C 228.294 1499.13 t 0 r /Helvetica findfont 72.293 sf 0 0 m (0.3) show NC gr 
 gsave  2268 2176 0 0 C 186.44 1716.01 t 0 r /Helvetica findfont 72.293 sf 0 0 m (0.35) show NC gr 
 gsave  2268 2176 0 0 C 228.294 1932.89 t 0 r /Helvetica findfont 72.293 sf 0 0 m (0.4) show NC gr  0.8 0 1 c black 0.8 0 1 c /w 23 def /w2 {w 2 div} def /w3 {w 3 div} def 417 807 526 803 635 841 745 885 854 912 963 910 1073 917 1182 925 1291 935
 1510 917 1729 909 1948 903 12 { m24} R 6 lw 0.95 0.95 0.95 c black 0.8 0 1 c 349 776 m 17 5 d 17 5 d 17 5 d 17 4 d 17 5 d 17 5 d 17 4 d 17 5 d 17 4 d 17 5 d 17 4 d 17 4 d 17 4 d 17 4 d 17 4 d 17 4 d 17 4 d 17 3 d 17 4 d 17 3 d 17 4 d 17 3 d 17 3 d
 17 3 d 17 4 d 17 3 d 17 2 d 17 3 d 17 3 d 17 3 d 17 2 d 17 3 d 17 2 d 17 3 d 17 2 d 17 2 d 17 2 d 17 2 d 17 2 d 17 2 d 17 2 d 17 1 d 17 2 d 17 1 d 17 2 d 17 1 d 17 2 d 17 1 d 17 1 d s 1182 927 m 17 1 d 17 1 d 17 1 d 17 X 17 1 d 17 1 d 17 X 17 1 d 34
 X 17 1 d 68 X 17 -1 d 34 X 17 -1 d 17 X 17 -1 d 17 -1 d 17 -1 d 17 X 17 -1 d 17 -1 d 17 -1 d 17 -2 d 17 -1 d 17 -1 d 17 -2 d 17 -1 d 17 -2 d 17 -2 d 17 -1 d 17 -2 d 17 -2 d 17 -2 d 17 -2 d 17 -3 d 17 -2 d 17 -2 d 17 -3 d 17 -2 d 17 -3 d 17 -2 d 17
 -3 d 17 -3 d 17 -3 d s 2015 880 m 17 -3 d s 1 0.8 0 c 3 lw black 1 0.8 0 c 417 621 526 647 635 698 745 737 854 779 963 782 1073 819 1182 816 1291 820 1510 830 1729 840 1948 857 12 { m25} R 6 lw 0.95 0.95 0.95 c black 1 0.8 0 c 349 596 m 17 7 d 17 6
 d 17 7 d 17 6 d 17 7 d 17 6 d 17 6 d 17 6 d 17 6 d 17 6 d 17 6 d 17 5 d 17 6 d 17 6 d 17 5 d 17 5 d 17 6 d 17 5 d 17 5 d 17 5 d 17 5 d 17 5 d 17 4 d 17 5 d 17 5 d 17 4 d 17 4 d 17 5 d 17 4 d 17 4 d 17 4 d 17 4 d 17 4 d 17 4 d 17 3 d 17 4 d 17 4 d 17
 3 d 17 3 d 17 3 d 17 4 d 17 3 d 17 3 d 17 3 d 17 2 d 17 3 d 17 3 d 17 2 d 17 3 d s 1182 820 m 17 2 d 17 2 d 17 3 d 17 2 d 17 2 d 17 2 d 17 1 d 17 2 d 17 2 d 17 1 d 17 2 d 17 1 d 17 2 d 17 1 d 17 1 d 17 1 d 17 1 d 17 1 d 17 1 d 17 X 17 1 d 17 X 17 1
 d 51 X 17 1 d 17 X 17 -1 d 51 X 17 -1 d 17 X 17 -1 d 17 -1 d 17 -1 d 17 -1 d 17 X 17 -2 d 17 -1 d 17 -1 d 17 -1 d 17 -2 d 17 -1 d 17 -2 d 17 -2 d 17 -1 d 17 -2 d s 2015 832 m 17 -2 d s 0 0.6 0 c 3 lw 526 1269 m s 518 1269 m 16 X s 526 1246 m s 518
 1246 m 16 X s 635 1355 m s 628 1355 m 15 X s 635 1332 m -1 Y s 628 1331 m 15 X s 745 1419 m 1 Y s 737 1420 m 15 X s 745 1396 m -1 Y s 737 1395 m 15 X s 854 1448 m 1 Y s 846 1449 m 16 X s 854 1425 m -1 Y s 846 1424 m 16 X s 963 1500 m 2 Y s 956 1502
 m 15 X s 963 1477 m -1 Y s 956 1476 m 15 X s 1073 1508 m 1 Y s 1065 1509 m 15 X s 1073 1485 m -2 Y s 1065 1483 m 15 X s 1182 1542 m 1 Y s 1175 1543 m 15 X s 1182 1519 m -2 Y s 1175 1517 m 15 X s 1291 1576 m 2 Y s 1284 1578 m 15 X s 1291 1553 m -2 Y
 s 1284 1551 m 15 X s 1510 1558 m 2 Y s 1503 1560 m 15 X s 1510 1535 m -1 Y s 1503 1534 m 15 X s 1729 1549 m 2 Y s 1721 1551 m 15 X s 1729 1526 m -2 Y s 1721 1524 m 15 X s 1948 1550 m 2 Y s 1940 1552 m 15 X s 1948 1527 m -1 Y s 1940 1526 m 15 X s
 black 0 0.6 0 c 417 1183 526 1258 635 1343 745 1408 854 1436 963 1489 1073 1496 1182 1530 1291 1564 1510 1547 1729 1537 1948 1539 12 { m26} R 6 lw 0.95 0.95 0.95 c black 0 0.6 0 c 349 1149 m 17 12 d 17 12 d 17 12 d 17 11 d 17 12 d 17 11 d 17 11 d 17
 11 d 17 11 d 17 10 d 17 10 d 17 11 d 17 10 d 17 9 d 17 10 d 17 10 d 17 9 d 17 9 d 17 9 d 17 9 d 17 8 d 17 9 d 17 8 d 17 8 d 17 8 d 17 8 d 17 7 d 17 7 d 17 8 d 17 7 d 17 6 d 17 7 d 17 7 d 17 6 d 17 6 d 17 6 d 17 6 d 17 5 d 17 6 d 17 5 d 17 5 d 17 5 d
 17 4 d 17 5 d 17 4 d 17 5 d 17 4 d 17 3 d 17 4 d s 1182 1535 m 17 3 d 17 4 d 17 3 d 17 3 d 17 3 d 17 2 d 17 2 d 17 3 d 17 2 d 17 2 d 17 1 d 17 2 d 17 1 d 17 1 d 17 1 d 17 1 d 17 1 d 17 X 17 1 d 34 X 17 -1 d 17 X 17 -1 d 17 -1 d 17 X 17 -2 d 17 -1 d
 17 -1 d 17 -2 d 17 -2 d 17 -2 d 17 -2 d 17 -2 d 17 -3 d 17 -3 d 17 -3 d 17 -3 d 17 -3 d 17 -3 d 17 -4 d 17 -4 d 17 -4 d 17 -4 d 17 -4 d 17 -5 d 17 -4 d 17 -5 d 17 -5 d s 2015 1497 m 17 -5 d s 1 0 0 c 3 lw black 1 0 0 c 417 276 526 293 635 314 745
 340 854 358 963 383 1073 397 1182 406 1291 415 1510 442 1729 454 1948 466 12 { m32} R 6 lw 0.95 0.95 0.95 c black 1 0 0 c 349 257 m 17 4 d 17 4 d 17 4 d 17 4 d 17 4 d 17 3 d 17 4 d 17 4 d 17 3 d 17 4 d 17 4 d 17 3 d 17 4 d 17 3 d 17 3 d 17 4 d 17 3
 d 17 4 d 17 3 d 17 3 d 17 3 d 17 3 d 17 4 d 17 3 d 17 3 d 17 3 d 17 3 d 17 3 d 17 2 d 17 3 d 17 3 d 17 3 d 17 3 d 17 2 d 17 3 d 17 3 d 17 2 d 17 3 d 17 2 d 17 3 d 17 2 d 17 3 d 17 2 d 17 2 d 17 3 d 17 2 d 17 2 d 17 2 d 17 3 d s 1182 407 m 17 2 d 17
 2 d 17 2 d 17 2 d 17 2 d 17 2 d 17 2 d 17 1 d 17 2 d 17 2 d 17 2 d 17 2 d 17 1 d 17 2 d 17 1 d 17 2 d 17 1 d 17 2 d 17 1 d 17 2 d 17 1 d 17 2 d 17 1 d 17 1 d 17 1 d 17 1 d 17 2 d 17 1 d 17 1 d 17 1 d 17 1 d 17 1 d 17 1 d 17 1 d 17 X 17 1 d 17 1 d 17
 1 d 17 X 17 1 d 17 1 d 17 X 17 1 d 17 X 17 1 d 17 X 17 1 d 34 X s 2015 466 m 17 1 d s 0.8 0 1 c 9 lw 567 1850 m 68 X s black
 gsave  2268 2176 0 0 C 757.174 1830.15 t 0 r /Helvetica findfont 72.293 sf 0 0 m ( ggF\255like) show NC gr 
 gsave  2268 2176 0 0 C 715.32 1830.15 t 0 r /Symbol findfont 72.293 sf 0 0 m (m) show NC gr 
 gsave  2268 2176 0 0 C 677.271 1830.15 t 0 r /Helvetica findfont 72.293 sf 0 0 m (4) show NC gr  1 0.8 0 c 567 1763 m 68 X s black
 gsave  2268 2176 0 0 C 677.271 1742.64 t 0 r /Helvetica findfont 72.293 sf 0 0 m (4e ggF\255like) show NC gr  0 0.6 0 c 567 1676 m 68 X s black
 gsave  2268 2176 0 0 C 757.174 1655.13 t 0 r /Helvetica findfont 72.293 sf 0 0 m (2e ggF\255like) show NC gr 
 gsave  2268 2176 0 0 C 715.32 1655.13 t 0 r /Symbol findfont 72.293 sf 0 0 m (m) show NC gr 
 gsave  2268 2176 0 0 C 677.271 1655.13 t 0 r /Helvetica findfont 72.293 sf 0 0 m (2) show NC gr  1 0 0 c 567 1589 m 68 X s black
 gsave  2268 2176 0 0 C 677.271 1567.62 t 0 r /Helvetica findfont 72.293 sf 0 0 m (VBF\255like) show NC gr 
 gr  gr showpage
end
%%EOF
