%!PS-Adobe-2.0 EPSF-2.0
%%BoundingBox:  0 0 567 544
%%Title: : 
%%Creator: ROOT Version 6.04/02
%%CreationDate: Thu Jul  7 19:07:42 2016
%%DocumentNeededResources: ProcSet (FontSetInit)
%%EndComments
%%BeginProlog
80 dict begin
/s {stroke} def /l {lineto} def /m {moveto} def /t {translate} def
/r {rotate} def /rl {roll}  def /R {repeat} def
/d {rlineto} def /rm {rmoveto} def /gr {grestore} def /f {eofill} def
/c {setrgbcolor} def /black {0 setgray} def /sd {setdash} def
/cl {closepath} def /sf {scalefont setfont} def /lw {setlinewidth} def
/box {m dup 0 exch d exch 0 d 0 exch neg d cl} def
/NC{systemdict begin initclip end}def/C{NC box clip newpath}def
/bl {box s} def /bf {gsave box gsave f grestore 1 lw [] 0 sd s grestore} def /Y { 0 exch d} def /X { 0 d} def 
/K {{pop pop 0 moveto} exch kshow} bind def
/ita {/ang 15 def gsave [1 0 ang dup sin exch cos div 1 0 0] concat} def 
/mp {newpath /y exch def /x exch def} def
/side {[w .77 mul w .23 mul] .385 w mul sd w 0 l currentpoint t -144 r} def
/mr {mp x y w2 0 360 arc} def /m24 {mr s} def /m20 {mr f} def
/mb {mp x y w2 add m w2 neg 0 d 0 w neg d w 0 d 0 w d cl} def
/mt {mp x y w2 add m w2 neg w neg d w 0 d cl} def
/m21 {mb f} def /m25 {mb s} def /m22 {mt f} def /m26{mt s} def
/m23 {mp x y w2 sub m w2 w d w neg 0 d cl f} def
/m27 {mp x y w2 add m w3 neg w2 neg d w3 w2 neg d w3 w2 d cl s} def
/m28 {mp x w2 sub y w2 sub w3 add m w3 0 d  0 w3 neg d w3 0 d 0 w3 d w3 0 d  0 w3 d w3 neg 0 d 0 w3 d w3 neg 0 d 0 w3 neg d w3 neg 0 d cl s } def
/m29 {mp gsave x w2 sub y w2 add w3 sub m currentpoint t 4 {side} repeat cl fill gr} def
/m30 {mp gsave x w2 sub y w2 add w3 sub m currentpoint t 4 {side} repeat cl s gr} def
/m31 {mp x y w2 sub m 0 w d x w2 sub y m w 0 d x w2 sub y w2 add m w w neg d x w2 sub y w2 sub m w w d s} def
/m32 {mp x y w2 sub m w2 w d w neg 0 d cl s} def
/m33 {mp x y w2 add m w3 neg w2 neg d w3 w2 neg d w3 w2 d cl f} def
/m34 {mp x w2 sub y w2 sub w3 add m w3 0 d  0 w3 neg d w3 0 d 0 w3 d w3 0 d  0 w3 d w3 neg 0 d 0 w3 d w3 neg 0 d 0 w3 neg d w3 neg 0 d cl f } def
/m2 {mp x y w2 sub m 0 w d x w2 sub y m w 0 d s} def
/m5 {mp x w2 sub y w2 sub m w w d x w2 sub y w2 add m w w neg d s} def
%%IncludeResource: ProcSet (FontSetInit)
%%IncludeResource: font Times-Roman
%%IncludeResource: font Times-Italic
%%IncludeResource: font Times-Bold
%%IncludeResource: font Times-BoldItalic
%%IncludeResource: font Helvetica
%%IncludeResource: font Helvetica-Oblique
%%IncludeResource: font Helvetica-Bold
%%IncludeResource: font Helvetica-BoldOblique
%%IncludeResource: font Courier
%%IncludeResource: font Courier-Oblique
%%IncludeResource: font Courier-Bold
%%IncludeResource: font Courier-BoldOblique
%%IncludeResource: font Symbol
%%IncludeResource: font ZapfDingbats
/reEncode {exch findfont dup length dict begin {1 index /FID eq  {pop pop} {def} ifelse } forall /Encoding exch def currentdict end dup /FontName get exch definefont pop } def [/Times-Bold /Times-Italic /Times-BoldItalic /Helvetica /Helvetica-Oblique
 /Helvetica-Bold /Helvetica-BoldOblique /Courier /Courier-Oblique /Courier-Bold /Courier-BoldOblique /Times-Roman /AvantGarde-Book /AvantGarde-BookOblique /AvantGarde-Demi /AvantGarde-DemiOblique /Bookman-Demi /Bookman-DemiItalic /Bookman-Light
 /Bookman-LightItalic /Helvetica-Narrow /Helvetica-Narrow-Bold /Helvetica-Narrow-BoldOblique /Helvetica-Narrow-Oblique /NewCenturySchlbk-Roman /NewCenturySchlbk-Bold /NewCenturySchlbk-BoldItalic /NewCenturySchlbk-Italic /Palatino-Bold
 /Palatino-BoldItalic /Palatino-Italic /Palatino-Roman ] {ISOLatin1Encoding reEncode } forall
%%EndProlog
%%BeginSetup
%%EndSetup
newpath  gsave  .25 .25 scale  gsave  0 0 t black[  ] 0 sd 3 lw 1 1 1 c 2268 2176 0 0 bf black 1 1 1 c 1701 1741 340 218 bf black 1701 1741 340 218 bl 1 1 1 c 1701 1741 340 218 bf black 1701 1741 340 218 bl 340 218 m 1701 X s[ 4 8] 0 sd 350 1959 m
 -1741 Y s 560 1959 m -1741 Y s 770 1959 m -1741 Y s 980 1959 m -1741 Y s 1191 1959 m -1741 Y s 1401 1959 m -1741 Y s 1611 1959 m -1741 Y s 1821 1959 m -1741 Y s 2031 1959 m -1741 Y s 350 1959 m -1741 Y s 2031 1959 m -1741 Y s[  ] 0 sd 340 218 m 1741
 Y s[ 4 8] 0 sd 2041 218 m -1701 X s 2041 435 m -1701 X s 2041 653 m -1701 X s 2041 871 m -1701 X s 2041 1088 m -1701 X s 2041 1306 m -1701 X s 2041 1523 m -1701 X s 2041 1741 m -1701 X s 2041 1959 m -1701 X s[  ] 0 sd 340 218 m 1701 X s
 gsave  2268 2176 0 0 C 1122.44 60.8783 t 0 r /Helvetica findfont 79.9028 sf 0 0 m ( [GeV]) show NC gr 
 gsave  2268 2176 0 0 C 1088.2 38.0489 t 0 r /Helvetica findfont 53.2685 sf 0 0 m (S) show NC gr 
 gsave  2268 2176 0 0 C 1023.52 60.8783 t 0 r /Helvetica findfont 79.9028 sf 0 0 m (m) show NC gr  350 267 m -49 Y s 392 242 m -24 Y s 434 242 m -24 Y s 476 242 m -24 Y s 518 242 m -24 Y s 560 267 m -49 Y s 602 242 m -24 Y s 644 242 m -24 Y s 686 242
 m -24 Y s 728 242 m -24 Y s 770 267 m -49 Y s 812 242 m -24 Y s 854 242 m -24 Y s 896 242 m -24 Y s 938 242 m -24 Y s 980 267 m -49 Y s 1022 242 m -24 Y s 1065 242 m -24 Y s 1107 242 m -24 Y s 1149 242 m -24 Y s 1191 267 m -49 Y s 1233 242 m -24 Y s
 1275 242 m -24 Y s 1317 242 m -24 Y s 1359 242 m -24 Y s 1401 267 m -49 Y s 1443 242 m -24 Y s 1485 242 m -24 Y s 1527 242 m -24 Y s 1569 242 m -24 Y s 1611 267 m -49 Y s 1653 242 m -24 Y s 1695 242 m -24 Y s 1737 242 m -24 Y s 1779 242 m -24 Y s
 1821 267 m -49 Y s 1863 242 m -24 Y s 1905 242 m -24 Y s 1947 242 m -24 Y s 1989 242 m -24 Y s 2031 267 m -49 Y s 350 267 m -49 Y s 2031 267 m -49 Y s
 gsave  2268 2176 0 0 C 289.172 148.391 t 0 r /Helvetica findfont 72.293 sf 0 0 m (200) show NC gr 
 gsave  2268 2176 0 0 C 498.441 148.391 t 0 r /Helvetica findfont 72.293 sf 0 0 m (300) show NC gr 
 gsave  2268 2176 0 0 C 707.71 148.391 t 0 r /Helvetica findfont 72.293 sf 0 0 m (400) show NC gr 
 gsave  2268 2176 0 0 C 916.979 148.391 t 0 r /Helvetica findfont 72.293 sf 0 0 m (500) show NC gr 
 gsave  2268 2176 0 0 C 1126.25 148.391 t 0 r /Helvetica findfont 72.293 sf 0 0 m (600) show NC gr 
 gsave  2268 2176 0 0 C 1339.32 148.391 t 0 r /Helvetica findfont 72.293 sf 0 0 m (700) show NC gr 
 gsave  2268 2176 0 0 C 1548.59 148.391 t 0 r /Helvetica findfont 72.293 sf 0 0 m (800) show NC gr 
 gsave  2268 2176 0 0 C 1757.86 148.391 t 0 r /Helvetica findfont 72.293 sf 0 0 m (900) show NC gr 
 gsave  2268 2176 0 0 C 1948.11 148.391 t 0 r /Helvetica findfont 72.293 sf 0 0 m (1000) show NC gr  340 218 m 1741 Y s
 gsave  2268 2176 0 0 C 156.001 1354.54 t 90 r /Helvetica findfont 79.9028 sf 0 0 m (VBF  acceptance) show NC gr  395 218 m -55 X s 367 261 m -27 X s 367 305 m -27 X s 367 348 m -27 X s 367 392 m -27 X s 395 435 m -55 X s 367 479 m -27 X s 367 522 m
 -27 X s 367 566 m -27 X s 367 609 m -27 X s 395 653 m -55 X s 367 696 m -27 X s 367 740 m -27 X s 367 784 m -27 X s 367 827 m -27 X s 395 871 m -55 X s 367 914 m -27 X s 367 958 m -27 X s 367 1001 m -27 X s 367 1045 m -27 X s 395 1088 m -55 X s 367
 1132 m -27 X s 367 1175 m -27 X s 367 1219 m -27 X s 367 1262 m -27 X s 395 1306 m -55 X s 367 1349 m -27 X s 367 1393 m -27 X s 367 1436 m -27 X s 367 1480 m -27 X s 395 1523 m -55 X s 367 1567 m -27 X s 367 1611 m -27 X s 367 1654 m -27 X s 367
 1698 m -27 X s 395 1741 m -55 X s 367 1785 m -27 X s 367 1828 m -27 X s 367 1872 m -27 X s 367 1915 m -27 X s 395 1959 m -55 X s
 gsave  2268 2176 0 0 C 289.172 194.05 t 0 r /Helvetica findfont 72.293 sf 0 0 m (0) show NC gr 
 gsave  2268 2176 0 0 C 186.44 410.929 t 0 r /Helvetica findfont 72.293 sf 0 0 m (0.05) show NC gr 
 gsave  2268 2176 0 0 C 239.708 627.807 t 0 r /Helvetica findfont 72.293 sf 0 0 m (0.1) show NC gr 
 gsave  2268 2176 0 0 C 186.44 844.686 t 0 r /Helvetica findfont 72.293 sf 0 0 m (0.15) show NC gr 
 gsave  2268 2176 0 0 C 228.294 1061.57 t 0 r /Helvetica findfont 72.293 sf 0 0 m (0.2) show NC gr 
 gsave  2268 2176 0 0 C 186.44 1282.25 t 0 r /Helvetica findfont 72.293 sf 0 0 m (0.25) show NC gr 
 gsave  2268 2176 0 0 C 228.294 1499.13 t 0 r /Helvetica findfont 72.293 sf 0 0 m (0.3) show NC gr 
 gsave  2268 2176 0 0 C 186.44 1716.01 t 0 r /Helvetica findfont 72.293 sf 0 0 m (0.35) show NC gr 
 gsave  2268 2176 0 0 C 228.294 1932.89 t 0 r /Helvetica findfont 72.293 sf 0 0 m (0.4) show NC gr  0.8 0 1 c 350 648 m 3 Y s 343 651 m 15 X s 350 625 m -3 Y s 343 622 m 15 X s 560 617 m 3 Y s 553 620 m 15 X s 560 594 m -3 Y s 553 591 m 15 X s 770
 610 m 3 Y s 763 613 m 15 X s 770 587 m -2 Y s 763 585 m 15 X s 980 656 m 5 Y s 973 661 m 15 X s 980 633 m -4 Y s 973 629 m 15 X s 1191 660 m 5 Y s 1183 665 m 15 X s 1191 637 m -5 Y s 1183 632 m 15 X s 1401 694 m 6 Y s 1393 700 m 15 X s 1401 671 m -5
 Y s 1393 666 m 15 X s 1611 677 m 6 Y s 1603 683 m 15 X s 1611 654 m -6 Y s 1603 648 m 15 X s 1821 647 m 4 Y s 1813 651 m 15 X s 1821 624 m -5 Y s 1813 619 m 15 X s 2031 693 m 6 Y s 2023 699 m 15 X s 2031 670 m -6 Y s 2023 664 m 15 X s black 0.8 0 1
 c /w 23 def /w2 {w 2 div} def /w3 {w 3 div} def 350 637 560 606 770 599 980 645 1191 649 1401 683 1611 665 1821 635 2031 682 9 { m20} R 6 lw 0.95 0.95 0.95 c black 0.8 0 1 c 349 615 m 17 X 17 1 d 17 X 17 1 d 17 X 17 1 d 17 X 17 1 d 17 X 17 1 d 17 X
 17 1 d 17 X 17 1 d 17 X 17 1 d 17 X 17 1 d 17 X 17 1 d 17 X 17 1 d 17 1 d 17 X 17 1 d 17 X 17 1 d 17 X 17 1 d 17 X 17 1 d 17 X 17 1 d 17 1 d 17 X 17 1 d 17 X 17 1 d 17 X 17 1 d 17 1 d 17 X 17 1 d 17 X 17 1 d 17 1 d 17 X 17 1 d 17 X s 1182 641 m 17 1
 d 17 1 d 17 X 17 1 d 17 X 17 1 d 17 1 d 17 X 17 1 d 17 X 17 1 d 17 1 d 17 X 17 1 d 17 1 d 17 X 17 1 d 17 1 d 17 X 17 1 d 17 X 17 1 d 17 1 d 17 X 17 1 d 17 1 d 17 X 17 1 d 17 1 d 17 X 17 1 d 17 1 d 17 X 17 1 d 17 1 d 17 X 17 1 d 17 1 d 17 X 17 1 d 17
 1 d 17 X 17 1 d 17 1 d 17 1 d 17 X 17 1 d 17 1 d 17 X s 2015 673 m 17 1 d s 0.2 1 0 c 3 lw 350 664 m 7 Y s 343 671 m 15 X s 350 641 m -6 Y s 343 635 m 15 X s 560 633 m 6 Y s 553 639 m 15 X s 560 610 m -6 Y s 553 604 m 15 X s 770 636 m 7 Y s 763 643
 m 15 X s 770 613 m -6 Y s 763 607 m 15 X s 980 653 m 7 Y s 973 660 m 15 X s 980 630 m -7 Y s 973 623 m 15 X s 1191 682 m 8 Y s 1183 690 m 15 X s 1191 659 m -8 Y s 1183 651 m 15 X s 1401 680 m 8 Y s 1393 688 m 15 X s 1401 657 m -8 Y s 1393 649 m 15 X
 s 1611 641 m 7 Y s 1603 648 m 15 X s 1611 618 m -7 Y s 1603 611 m 15 X s 1821 688 m 9 Y s 1813 697 m 15 X s 1821 665 m -8 Y s 1813 657 m 15 X s 2031 690 m 10 Y s 2023 700 m 15 X s 2031 668 m -10 Y s 2023 658 m 15 X s black 0.2 1 0 c 350 653 560 622
 770 625 980 641 1191 671 1401 668 1611 630 1821 677 2031 679 9 { m24} R 6 lw 0.95 0.95 0.95 c black 0.2 1 0 c 349 638 m 34 X 17 -1 d 204 X 17 1 d 136 X 17 1 d 68 X 17 1 d 68 X 17 1 d 34 X 17 1 d 51 X 17 1 d 17 X 17 1 d 34 X 17 1 d 34 X s 1182 645 m
 17 1 d 17 X 17 1 d 17 X 17 1 d 17 X 17 1 d 17 X 17 1 d 17 X 17 1 d 17 X 17 1 d 17 X 17 1 d 17 X 17 1 d 17 1 d 17 X 17 1 d 17 X 17 1 d 17 1 d 17 X 17 1 d 17 1 d 17 X 17 1 d 17 1 d 17 X 17 1 d 17 1 d 17 1 d 17 X 17 1 d 17 1 d 17 1 d 17 1 d 17 X 17 1 d
 17 1 d 17 1 d 17 1 d 17 1 d 17 1 d 17 X 17 1 d 17 1 d 17 1 d s 2015 678 m 17 1 d s 1 0.8 0 c 3 lw 350 505 m 2 Y s 343 507 m 15 X s 350 483 m -2 Y s 343 481 m 15 X s 560 522 m s 553 522 m 15 X s 560 499 m s 553 499 m 15 X s 770 542 m 2 Y s 763 544 m
 15 X s 770 520 m -2 Y s 763 518 m 15 X s 980 559 m 3 Y s 973 562 m 15 X s 980 536 m -3 Y s 973 533 m 15 X s 1191 605 m 3 Y s 1183 608 m 15 X s 1191 582 m -3 Y s 1183 579 m 15 X s 1401 601 m 4 Y s 1393 605 m 15 X s 1401 578 m -4 Y s 1393 574 m 15 X s
 1611 597 m 4 Y s 1603 601 m 15 X s 1611 574 m -4 Y s 1603 570 m 15 X s 1821 607 m 4 Y s 1813 611 m 15 X s 1821 584 m -4 Y s 1813 580 m 15 X s 2031 629 m 5 Y s 2023 634 m 15 X s 2031 606 m -5 Y s 2023 601 m 15 X s black 1 0.8 0 c 350 494 560 510 770
 531 980 548 1191 594 1401 590 1611 585 1821 596 2031 618 9 { m21} R 6 lw 0.95 0.95 0.95 c black 1 0.8 0 c 349 490 m 17 2 d 17 2 d 17 2 d 17 2 d 17 2 d 17 2 d 17 2 d 17 2 d 17 2 d 17 2 d 17 1 d 17 2 d 17 2 d 17 2 d 17 2 d 17 2 d 17 2 d 17 1 d 17 2 d
 17 2 d 17 2 d 17 1 d 17 2 d 17 2 d 17 1 d 17 2 d 17 2 d 17 1 d 17 2 d 17 1 d 17 2 d 17 1 d 17 2 d 17 1 d 17 2 d 17 1 d 17 2 d 17 1 d 17 2 d 17 1 d 17 1 d 17 2 d 17 1 d 17 1 d 17 2 d 17 1 d 17 1 d 17 2 d 17 1 d s 1182 571 m 17 1 d 17 1 d 17 1 d 17 2
 d 17 1 d 17 1 d 17 1 d 17 1 d 17 1 d 17 1 d 17 1 d 17 1 d 17 1 d 17 1 d 17 1 d 17 1 d 17 1 d 17 1 d 17 1 d 17 1 d 17 1 d 17 1 d 17 X 17 1 d 17 1 d 17 1 d 17 X 17 1 d 17 1 d 17 1 d 17 X 17 1 d 17 1 d 17 X 17 1 d 17 1 d 17 X 17 1 d 17 X 17 1 d 17 X 17
 1 d 17 X 17 1 d 17 X 17 1 d 34 X 17 1 d s 2015 610 m 17 X s 0 0.2 1 c 3 lw 350 504 m 3 Y s 343 507 m 15 X s 350 481 m -3 Y s 343 478 m 15 X s 560 524 m 3 Y s 553 527 m 15 X s 560 501 m -4 Y s 553 497 m 15 X s 770 541 m 5 Y s 763 546 m 15 X s 770 519
 m -4 Y s 763 515 m 15 X s 980 580 m 5 Y s 973 585 m 15 X s 980 557 m -5 Y s 973 552 m 15 X s 1191 581 m 5 Y s 1183 586 m 15 X s 1191 558 m -5 Y s 1183 553 m 15 X s 1401 602 m 6 Y s 1393 608 m 15 X s 1401 580 m -6 Y s 1393 574 m 15 X s 1611 600 m 6 Y
 s 1603 606 m 15 X s 1611 577 m -7 Y s 1603 570 m 15 X s 1821 625 m 6 Y s 1813 631 m 15 X s 1821 602 m -7 Y s 1813 595 m 15 X s 2031 630 m 8 Y s 2023 638 m 15 X s 2031 608 m -8 Y s 2023 600 m 15 X s black 0 0.2 1 c 350 493 560 512 770 530 980 568
 1191 570 1401 591 1611 588 1821 613 2031 619 9 { m25} R 6 lw 0.95 0.95 0.95 c black 0 0.2 1 c 349 491 m 17 2 d 17 2 d 17 2 d 17 2 d 17 2 d 17 2 d 17 2 d 17 2 d 17 1 d 17 2 d 17 2 d 17 2 d 17 2 d 17 2 d 17 1 d 17 2 d 17 2 d 17 2 d 17 1 d 17 2 d 17 2
 d 17 2 d 17 1 d 17 2 d 17 2 d 17 1 d 17 2 d 17 1 d 17 2 d 17 2 d 17 1 d 17 2 d 17 1 d 17 2 d 17 1 d 17 2 d 17 1 d 17 2 d 17 1 d 17 2 d 17 1 d 17 1 d 17 2 d 17 1 d 17 2 d 17 1 d 17 1 d 17 2 d 17 1 d s 1182 572 m 17 1 d 17 1 d 17 2 d 17 1 d 17 1 d 17
 1 d 17 1 d 17 2 d 17 1 d 17 1 d 17 1 d 17 1 d 17 1 d 17 1 d 17 1 d 17 2 d 17 1 d 17 1 d 17 1 d 17 1 d 17 1 d 17 1 d 17 X 17 1 d 17 1 d 17 1 d 17 1 d 17 1 d 17 1 d 17 1 d 17 1 d 17 X 17 1 d 17 1 d 17 1 d 17 1 d 17 X 17 1 d 17 1 d 17 X 17 1 d 17 1 d
 17 X 17 1 d 17 1 d 17 X 17 1 d 17 X 17 1 d s 2015 617 m 17 1 d s 0 0.6 0 c 3 lw 350 903 m 9 Y s 343 912 m 15 X s 350 880 m -9 Y s 343 871 m 15 X s 560 949 m 9 Y s 553 958 m 15 X s 560 926 m -9 Y s 553 917 m 15 X s 770 989 m 10 Y s 763 999 m 15 X s
 770 966 m -10 Y s 763 956 m 15 X s 980 987 m 9 Y s 973 996 m 15 X s 980 964 m -9 Y s 973 955 m 15 X s 1191 1034 m 11 Y s 1183 1045 m 15 X s 1191 1011 m -11 Y s 1183 1000 m 15 X s 1401 1026 m 11 Y s 1393 1037 m 15 X s 1401 1003 m -10 Y s 1393 993 m
 15 X s 1611 1082 m 13 Y s 1603 1095 m 15 X s 1611 1059 m -13 Y s 1603 1046 m 15 X s 1821 1061 m 12 Y s 1813 1073 m 15 X s 1821 1038 m -12 Y s 1813 1026 m 15 X s 2031 1103 m 14 Y s 2023 1117 m 15 X s 2031 1080 m -13 Y s 2023 1067 m 15 X s black 0 0.6
 0 c 350 892 560 938 770 977 980 975 1191 1022 1401 1015 1611 1071 1821 1050 2031 1092 9 { m22} R 6 lw 0.95 0.95 0.95 c black 0 0.6 0 c 349 900 m 17 2 d 17 3 d 17 3 d 17 2 d 17 3 d 17 3 d 17 2 d 17 3 d 17 2 d 17 3 d 17 2 d 17 3 d 17 2 d 17 3 d 17 2 d
 17 3 d 17 2 d 17 2 d 17 3 d 17 2 d 17 2 d 17 3 d 17 2 d 17 2 d 17 3 d 17 2 d 17 2 d 17 2 d 17 3 d 17 2 d 17 2 d 17 2 d 17 2 d 17 2 d 17 2 d 17 2 d 17 2 d 17 2 d 17 3 d 17 2 d 17 1 d 17 2 d 17 2 d 17 2 d 17 2 d 17 2 d 17 2 d 17 2 d 17 2 d s 1182 1011
 m 17 2 d 17 1 d 17 2 d 17 2 d 17 2 d 17 1 d 17 2 d 17 2 d 17 2 d 17 1 d 17 2 d 17 2 d 17 1 d 17 2 d 17 1 d 17 2 d 17 1 d 17 2 d 17 1 d 17 2 d 17 1 d 17 2 d 17 1 d 17 2 d 17 1 d 17 2 d 17 1 d 17 1 d 17 2 d 17 1 d 17 1 d 17 2 d 17 1 d 17 1 d 17 1 d 17
 1 d 17 2 d 17 1 d 17 1 d 17 1 d 17 1 d 17 1 d 17 1 d 17 2 d 17 1 d 17 1 d 17 1 d 17 1 d 17 1 d s 2015 1080 m 17 1 d s 0.6 0 0.6 c 3 lw 350 914 m 11 Y s 343 925 m 15 X s 350 892 m -11 Y s 343 881 m 15 X s 560 943 m 11 Y s 553 954 m 15 X s 560 920 m
 -12 Y s 553 908 m 15 X s 770 977 m 13 Y s 763 990 m 15 X s 770 955 m -13 Y s 763 942 m 15 X s 980 1002 m 13 Y s 973 1015 m 15 X s 980 979 m -13 Y s 973 966 m 15 X s 1191 1058 m 14 Y s 1183 1072 m 15 X s 1191 1035 m -14 Y s 1183 1021 m 15 X s 1401
 1045 m 14 Y s 1393 1059 m 15 X s 1401 1022 m -14 Y s 1393 1008 m 15 X s 1611 1087 m 16 Y s 1603 1103 m 15 X s 1611 1064 m -16 Y s 1603 1048 m 15 X s 1821 1073 m 16 Y s 1813 1089 m 15 X s 1821 1050 m -15 Y s 1813 1035 m 15 X s 2031 1077 m 16 Y s 2023
 1093 m 15 X s 2031 1054 m -16 Y s 2023 1038 m 15 X s black 0.6 0 0.6 c 350 903 560 931 770 966 980 990 1191 1046 1401 1033 1611 1076 1821 1062 2031 1065 9 { m26} R 6 lw 0.95 0.95 0.95 c black 0.6 0 0.6 c 349 896 m 17 3 d 17 4 d 17 3 d 17 3 d 17 4 d
 17 3 d 17 3 d 17 4 d 17 3 d 17 3 d 17 3 d 17 3 d 17 3 d 17 3 d 17 3 d 17 3 d 17 3 d 17 3 d 17 3 d 17 3 d 17 2 d 17 3 d 17 3 d 17 3 d 17 2 d 17 3 d 17 2 d 17 3 d 17 2 d 17 3 d 17 2 d 17 3 d 17 2 d 17 2 d 17 3 d 17 2 d 17 2 d 17 2 d 17 3 d 17 2 d 17 2
 d 17 2 d 17 2 d 17 2 d 17 2 d 17 2 d 17 1 d 17 2 d 17 2 d s 1182 1025 m 17 2 d 17 1 d 17 2 d 17 2 d 17 1 d 17 2 d 17 2 d 17 1 d 17 2 d 17 1 d 17 1 d 17 2 d 17 1 d 17 1 d 17 2 d 17 1 d 17 1 d 17 1 d 17 1 d 17 1 d 17 2 d 17 1 d 17 X 17 1 d 17 1 d 17 1
 d 17 1 d 17 1 d 17 1 d 17 X 17 1 d 17 1 d 17 X 17 1 d 17 1 d 17 X 17 1 d 34 X 17 1 d 34 X 17 1 d 68 X 17 1 d 17 X s 2015 1070 m 17 X s 1 0 0 c 3 lw 350 1150 m 12 Y s 343 1162 m 15 X s 350 1127 m -12 Y s 343 1115 m 15 X s 560 1200 m 11 Y s 553 1211 m
 15 X s 560 1177 m -11 Y s 553 1166 m 15 X s 770 1317 m 14 Y s 763 1331 m 15 X s 770 1295 m -14 Y s 763 1281 m 15 X s 980 1426 m 15 Y s 973 1441 m 15 X s 980 1403 m -14 Y s 973 1389 m 15 X s 1191 1462 m 16 Y s 1183 1478 m 15 X s 1191 1440 m -16 Y s
 1183 1424 m 15 X s 1401 1469 m 15 Y s 1393 1484 m 15 X s 1401 1447 m -15 Y s 1393 1432 m 15 X s 1611 1505 m 16 Y s 1603 1521 m 15 X s 1611 1482 m -16 Y s 1603 1466 m 15 X s 1821 1571 m 17 Y s 1813 1588 m 15 X s 1821 1548 m -17 Y s 1813 1531 m 15 X s
 2031 1513 m 16 Y s 2023 1529 m 15 X s 2031 1490 m -16 Y s 2023 1474 m 15 X s black 1 0 0 c 350 1139 560 1188 770 1306 980 1415 1191 1451 1401 1458 1611 1493 1821 1560 2031 1502 9 { m23} R 6 lw 0.95 0.95 0.95 c black 1 0 0 c 349 1118 m 17 9 d 17 9 d
 17 9 d 17 8 d 17 9 d 17 8 d 17 9 d 17 8 d 17 8 d 17 8 d 17 8 d 17 8 d 17 7 d 17 8 d 17 7 d 17 8 d 17 7 d 17 7 d 17 8 d 17 7 d 17 7 d 17 6 d 17 7 d 17 7 d 17 6 d 17 7 d 17 6 d 17 6 d 17 6 d 17 6 d 17 6 d 17 6 d 17 6 d 17 5 d 17 6 d 17 5 d 17 6 d 17 5
 d 17 5 d 17 5 d 17 5 d 17 5 d 17 5 d 17 4 d 17 5 d 17 4 d 17 4 d 17 5 d 17 4 d s 1182 1438 m 17 4 d 17 4 d 17 4 d 17 3 d 17 4 d 17 3 d 17 4 d 17 3 d 17 3 d 17 4 d 17 3 d 17 3 d 17 2 d 17 3 d 17 3 d 17 2 d 17 3 d 17 2 d 17 2 d 17 2 d 17 2 d 17 2 d 17
 2 d 17 2 d 17 2 d 17 1 d 17 2 d 17 1 d 17 1 d 17 1 d 17 1 d 17 1 d 17 1 d 17 1 d 17 X 17 1 d 17 X 17 1 d 102 X 17 -1 d 17 X 17 -1 d 17 X 17 -1 d s 2015 1518 m 17 -1 d s 0 1 1 c 3 lw 350 1122 m 14 Y s 343 1136 m 15 X s 350 1099 m -14 Y s 343 1085 m
 15 X s 560 1194 m 15 Y s 553 1209 m 15 X s 560 1171 m -15 Y s 553 1156 m 15 X s 770 1303 m 18 Y s 763 1321 m 15 X s 770 1281 m -17 Y s 763 1264 m 15 X s 980 1397 m 18 Y s 973 1415 m 15 X s 980 1374 m -18 Y s 973 1356 m 15 X s 1191 1441 m 19 Y s 1183
 1460 m 15 X s 1191 1418 m -19 Y s 1183 1399 m 15 X s 1401 1466 m 19 Y s 1393 1485 m 15 X s 1401 1443 m -20 Y s 1393 1423 m 15 X s 1611 1533 m 20 Y s 1603 1553 m 15 X s 1611 1510 m -20 Y s 1603 1490 m 15 X s 1821 1497 m 19 Y s 1813 1516 m 15 X s 1821
 1474 m -20 Y s 1813 1454 m 15 X s 2031 1539 m 22 Y s 2023 1561 m 15 X s 2031 1516 m -21 Y s 2023 1495 m 15 X s black 0 1 1 c 350 1110 560 1182 770 1292 980 1385 1191 1429 1401 1454 1611 1522 1821 1485 2031 1528 9 { m27} R 6 lw 0.95 0.95 0.95 c black
 0 1 1 c 349 1100 m 17 9 d 17 9 d 17 8 d 17 9 d 17 8 d 17 9 d 17 8 d 17 8 d 17 9 d 17 8 d 17 8 d 17 7 d 17 8 d 17 8 d 17 7 d 17 8 d 17 7 d 17 8 d 17 7 d 17 7 d 17 7 d 17 7 d 17 6 d 17 7 d 17 7 d 17 6 d 17 7 d 17 6 d 17 6 d 17 6 d 17 6 d 17 6 d 17 6 d
 17 6 d 17 5 d 17 6 d 17 5 d 17 6 d 17 5 d 17 5 d 17 5 d 17 5 d 17 5 d 17 5 d 17 4 d 17 5 d 17 4 d 17 5 d 17 4 d s 1182 1423 m 17 4 d 17 4 d 17 4 d 17 4 d 17 4 d 17 4 d 17 3 d 17 4 d 17 3 d 17 4 d 17 3 d 17 3 d 17 3 d 17 3 d 17 3 d 17 2 d 17 3 d 17 3
 d 17 2 d 17 2 d 17 3 d 17 2 d 17 2 d 17 2 d 17 2 d 17 2 d 17 1 d 17 2 d 17 1 d 17 2 d 17 1 d 17 1 d 17 1 d 17 1 d 17 1 d 17 1 d 17 1 d 17 X 17 1 d 34 X 17 1 d 68 X 17 -1 d 34 X s 2015 1515 m 17 -1 d s 0.8 0 1 c 9 lw 1519 1850 m 68 X s black
 gsave  2268 2176 0 0 C 1811.13 1830.15 t 0 r /Helvetica findfont 79.9028 sf 0 0 m (>12) show NC gr 
 gsave  2268 2176 0 0 C 1765.47 1830.15 t 0 r /Symbol findfont 79.9028 sf 0 0 m (m) show NC gr 
 gsave  2268 2176 0 0 C 1719.81 1830.15 t 0 r /Helvetica findfont 79.9028 sf 0 0 m (, ) show NC gr 
 gsave  2268 2176 0 0 C 1674.15 1830.15 t 0 r /Symbol findfont 79.9028 sf 0 0 m (m) show NC gr 
 gsave  2268 2176 0 0 C 1632.3 1830.15 t 0 r /Helvetica findfont 79.9028 sf 0 0 m (4) show NC gr  0.2 1 0 c 1519 1741 m 68 X s black
 gsave  2268 2176 0 0 C 1811.13 1719.81 t 0 r /Helvetica findfont 79.9028 sf 0 0 m (<=12) show NC gr 
 gsave  2268 2176 0 0 C 1765.47 1719.81 t 0 r /Symbol findfont 79.9028 sf 0 0 m (m) show NC gr 
 gsave  2268 2176 0 0 C 1719.81 1719.81 t 0 r /Helvetica findfont 79.9028 sf 0 0 m (, ) show NC gr 
 gsave  2268 2176 0 0 C 1674.15 1719.81 t 0 r /Symbol findfont 79.9028 sf 0 0 m (m) show NC gr 
 gsave  2268 2176 0 0 C 1632.3 1719.81 t 0 r /Helvetica findfont 79.9028 sf 0 0 m (4) show NC gr  1 0.8 0 c 1519 1632 m 68 X s black
 gsave  2268 2176 0 0 C 1811.13 1613.27 t 0 r /Helvetica findfont 79.9028 sf 0 0 m (>12) show NC gr 
 gsave  2268 2176 0 0 C 1765.47 1613.27 t 0 r /Symbol findfont 79.9028 sf 0 0 m (m) show NC gr 
 gsave  2268 2176 0 0 C 1632.3 1613.27 t 0 r /Helvetica findfont 79.9028 sf 0 0 m (4e, ) show NC gr  0 0.2 1 c 1519 1523 m 68 X s black
 gsave  2268 2176 0 0 C 1811.13 1502.93 t 0 r /Helvetica findfont 79.9028 sf 0 0 m (<=12) show NC gr 
 gsave  2268 2176 0 0 C 1765.47 1502.93 t 0 r /Symbol findfont 79.9028 sf 0 0 m (m) show NC gr 
 gsave  2268 2176 0 0 C 1632.3 1502.93 t 0 r /Helvetica findfont 79.9028 sf 0 0 m (4e, ) show NC gr  0 0.6 0 c 1519 1415 m 68 X s black
 gsave  2268 2176 0 0 C 1898.64 1396.4 t 0 r /Helvetica findfont 79.9028 sf 0 0 m (>12) show NC gr 
 gsave  2268 2176 0 0 C 1852.98 1396.4 t 0 r /Symbol findfont 79.9028 sf 0 0 m (m) show NC gr 
 gsave  2268 2176 0 0 C 1719.81 1396.4 t 0 r /Helvetica findfont 79.9028 sf 0 0 m (2e, ) show NC gr 
 gsave  2268 2176 0 0 C 1674.15 1396.4 t 0 r /Symbol findfont 79.9028 sf 0 0 m (m) show NC gr 
 gsave  2268 2176 0 0 C 1632.3 1396.4 t 0 r /Helvetica findfont 79.9028 sf 0 0 m (2) show NC gr  0.6 0 0.6 c 1519 1306 m 68 X s black
 gsave  2268 2176 0 0 C 1898.64 1286.05 t 0 r /Helvetica findfont 79.9028 sf 0 0 m (<=12) show NC gr 
 gsave  2268 2176 0 0 C 1852.98 1286.05 t 0 r /Symbol findfont 79.9028 sf 0 0 m (m) show NC gr 
 gsave  2268 2176 0 0 C 1719.81 1286.05 t 0 r /Helvetica findfont 79.9028 sf 0 0 m (2e, ) show NC gr 
 gsave  2268 2176 0 0 C 1674.15 1286.05 t 0 r /Symbol findfont 79.9028 sf 0 0 m (m) show NC gr 
 gsave  2268 2176 0 0 C 1632.3 1286.05 t 0 r /Helvetica findfont 79.9028 sf 0 0 m (2) show NC gr  1 0 0 c 1519 1197 m 68 X s black
 gsave  2268 2176 0 0 C 1875.81 1175.71 t 0 r /Helvetica findfont 79.9028 sf 0 0 m (>12) show NC gr 
 gsave  2268 2176 0 0 C 1830.15 1175.71 t 0 r /Symbol findfont 79.9028 sf 0 0 m (m) show NC gr 
 gsave  2268 2176 0 0 C 1632.3 1175.71 t 0 r /Helvetica findfont 79.9028 sf 0 0 m (VBF, ) show NC gr  0 1 1 c 1519 1088 m 68 X s black
 gsave  2268 2176 0 0 C 1875.81 1069.18 t 0 r /Helvetica findfont 79.9028 sf 0 0 m (<=12) show NC gr 
 gsave  2268 2176 0 0 C 1830.15 1069.18 t 0 r /Symbol findfont 79.9028 sf 0 0 m (m) show NC gr 
 gsave  2268 2176 0 0 C 1632.3 1069.18 t 0 r /Helvetica findfont 79.9028 sf 0 0 m (VBF, ) show NC gr 
 gr  gr showpage
end
%%EOF
