%!PS-Adobe-2.0 EPSF-2.0
%%BoundingBox:  0 0 567 544
%%Title: : 
%%Creator: ROOT Version 6.04/02
%%CreationDate: Fri Feb 17 10:04:52 2017
%%DocumentNeededResources: ProcSet (FontSetInit)
%%EndComments
%%BeginProlog
80 dict begin
/s {stroke} def /l {lineto} def /m {moveto} def /t {translate} def
/r {rotate} def /rl {roll}  def /R {repeat} def
/d {rlineto} def /rm {rmoveto} def /gr {grestore} def /f {eofill} def
/c {setrgbcolor} def /black {0 setgray} def /sd {setdash} def
/cl {closepath} def /sf {scalefont setfont} def /lw {setlinewidth} def
/box {m dup 0 exch d exch 0 d 0 exch neg d cl} def
/NC{systemdict begin initclip end}def/C{NC box clip newpath}def
/bl {box s} def /bf {gsave box gsave f grestore 1 lw [] 0 sd s grestore} def /Y { 0 exch d} def /X { 0 d} def 
/K {{pop pop 0 moveto} exch kshow} bind def
/ita {/ang 15 def gsave [1 0 ang dup sin exch cos div 1 0 0] concat} def 
/mp {newpath /y exch def /x exch def} def
/side {[w .77 mul w .23 mul] .385 w mul sd w 0 l currentpoint t -144 r} def
/mr {mp x y w2 0 360 arc} def /m24 {mr s} def /m20 {mr f} def
/mb {mp x y w2 add m w2 neg 0 d 0 w neg d w 0 d 0 w d cl} def
/mt {mp x y w2 add m w2 neg w neg d w 0 d cl} def
/m21 {mb f} def /m25 {mb s} def /m22 {mt f} def /m26{mt s} def
/m23 {mp x y w2 sub m w2 w d w neg 0 d cl f} def
/m27 {mp x y w2 add m w3 neg w2 neg d w3 w2 neg d w3 w2 d cl s} def
/m28 {mp x w2 sub y w2 sub w3 add m w3 0 d  0 w3 neg d w3 0 d 0 w3 d w3 0 d  0 w3 d w3 neg 0 d 0 w3 d w3 neg 0 d 0 w3 neg d w3 neg 0 d cl s } def
/m29 {mp gsave x w2 sub y w2 add w3 sub m currentpoint t 4 {side} repeat cl fill gr} def
/m30 {mp gsave x w2 sub y w2 add w3 sub m currentpoint t 4 {side} repeat cl s gr} def
/m31 {mp x y w2 sub m 0 w d x w2 sub y m w 0 d x w2 sub y w2 add m w w neg d x w2 sub y w2 sub m w w d s} def
/m32 {mp x y w2 sub m w2 w d w neg 0 d cl s} def
/m33 {mp x y w2 add m w3 neg w2 neg d w3 w2 neg d w3 w2 d cl f} def
/m34 {mp x w2 sub y w2 sub w3 add m w3 0 d  0 w3 neg d w3 0 d 0 w3 d w3 0 d  0 w3 d w3 neg 0 d 0 w3 d w3 neg 0 d 0 w3 neg d w3 neg 0 d cl f } def
/m2 {mp x y w2 sub m 0 w d x w2 sub y m w 0 d s} def
/m5 {mp x w2 sub y w2 sub m w w d x w2 sub y w2 add m w w neg d s} def
%%IncludeResource: ProcSet (FontSetInit)
%%IncludeResource: font Times-Roman
%%IncludeResource: font Times-Italic
%%IncludeResource: font Times-Bold
%%IncludeResource: font Times-BoldItalic
%%IncludeResource: font Helvetica
%%IncludeResource: font Helvetica-Oblique
%%IncludeResource: font Helvetica-Bold
%%IncludeResource: font Helvetica-BoldOblique
%%IncludeResource: font Courier
%%IncludeResource: font Courier-Oblique
%%IncludeResource: font Courier-Bold
%%IncludeResource: font Courier-BoldOblique
%%IncludeResource: font Symbol
%%IncludeResource: font ZapfDingbats
/reEncode {exch findfont dup length dict begin {1 index /FID eq  {pop pop} {def} ifelse } forall /Encoding exch def currentdict end dup /FontName get exch definefont pop } def [/Times-Bold /Times-Italic /Times-BoldItalic /Helvetica /Helvetica-Oblique
 /Helvetica-Bold /Helvetica-BoldOblique /Courier /Courier-Oblique /Courier-Bold /Courier-BoldOblique /Times-Roman /AvantGarde-Book /AvantGarde-BookOblique /AvantGarde-Demi /AvantGarde-DemiOblique /Bookman-Demi /Bookman-DemiItalic /Bookman-Light
 /Bookman-LightItalic /Helvetica-Narrow /Helvetica-Narrow-Bold /Helvetica-Narrow-BoldOblique /Helvetica-Narrow-Oblique /NewCenturySchlbk-Roman /NewCenturySchlbk-Bold /NewCenturySchlbk-BoldItalic /NewCenturySchlbk-Italic /Palatino-Bold
 /Palatino-BoldItalic /Palatino-Italic /Palatino-Roman ] {ISOLatin1Encoding reEncode } forall
%%EndProlog
%%BeginSetup
%%EndSetup
newpath  gsave  .25 .25 scale  gsave  0 0 t black[  ] 0 sd 3 lw 1 1 1 c 2268 2176 0 0 bf black 1 1 1 c 1701 1741 340 218 bf black 1701 1741 340 218 bl 1 1 1 c 1701 1741 340 218 bf black 1701 1741 340 218 bl 340 218 m 1701 X s[ 4 8] 0 sd 417 1959 m
 -1741 Y s 635 1959 m -1741 Y s 854 1959 m -1741 Y s 1073 1959 m -1741 Y s 1291 1959 m -1741 Y s 1510 1959 m -1741 Y s 1729 1959 m -1741 Y s 1948 1959 m -1741 Y s 417 1959 m -1741 Y s 1948 1959 m -1741 Y s[  ] 0 sd 340 218 m 1741 Y s[ 4 8] 0 sd 2041
 218 m -1701 X s 2041 435 m -1701 X s 2041 653 m -1701 X s 2041 871 m -1701 X s 2041 1088 m -1701 X s 2041 1306 m -1701 X s 2041 1523 m -1701 X s 2041 1741 m -1701 X s 2041 1959 m -1701 X s[  ] 0 sd 340 218 m 1701 X s
 gsave  2268 2176 0 0 C 1122.44 60.8783 t 0 r /Helvetica findfont 79.9028 sf 0 0 m ( [GeV]) show NC gr 
 gsave  2268 2176 0 0 C 1088.2 34.244 t 0 r /Helvetica findfont 53.2685 sf 0 0 m (H) show NC gr 
 gsave  2268 2176 0 0 C 1023.52 60.8783 t 0 r /Helvetica findfont 79.9028 sf 0 0 m (m) show NC gr  417 267 m -49 Y s 471 242 m -24 Y s 526 242 m -24 Y s 581 242 m -24 Y s 635 267 m -49 Y s 690 242 m -24 Y s 745 242 m -24 Y s 799 242 m -24 Y s 854 267
 m -49 Y s 909 242 m -24 Y s 963 242 m -24 Y s 1018 242 m -24 Y s 1073 267 m -49 Y s 1127 242 m -24 Y s 1182 242 m -24 Y s 1237 242 m -24 Y s 1291 267 m -49 Y s 1346 242 m -24 Y s 1401 242 m -24 Y s 1455 242 m -24 Y s 1510 267 m -49 Y s 1565 242 m
 -24 Y s 1620 242 m -24 Y s 1674 242 m -24 Y s 1729 267 m -49 Y s 1784 242 m -24 Y s 1838 242 m -24 Y s 1893 242 m -24 Y s 1948 267 m -49 Y s 417 267 m -49 Y s 362 242 m -24 Y s 1948 267 m -49 Y s 2002 242 m -24 Y s
 gsave  2268 2176 0 0 C 353.855 148.391 t 0 r /Helvetica findfont 72.293 sf 0 0 m (200) show NC gr 
 gsave  2268 2176 0 0 C 570.734 148.391 t 0 r /Helvetica findfont 72.293 sf 0 0 m (400) show NC gr 
 gsave  2268 2176 0 0 C 791.418 148.391 t 0 r /Helvetica findfont 72.293 sf 0 0 m (600) show NC gr 
 gsave  2268 2176 0 0 C 1008.3 148.391 t 0 r /Helvetica findfont 72.293 sf 0 0 m (800) show NC gr 
 gsave  2268 2176 0 0 C 1209.96 148.391 t 0 r /Helvetica findfont 72.293 sf 0 0 m (1000) show NC gr 
 gsave  2268 2176 0 0 C 1426.84 148.391 t 0 r /Helvetica findfont 72.293 sf 0 0 m (1200) show NC gr 
 gsave  2268 2176 0 0 C 1647.52 148.391 t 0 r /Helvetica findfont 72.293 sf 0 0 m (1400) show NC gr 
 gsave  2268 2176 0 0 C 1864.4 148.391 t 0 r /Helvetica findfont 72.293 sf 0 0 m (1600) show NC gr  340 218 m 1741 Y s
 gsave  2268 2176 0 0 C 156.001 1544.79 t 90 r /Helvetica findfont 79.9028 sf 0 0 m (Acceptance) show NC gr  395 218 m -55 X s 367 261 m -27 X s 367 305 m -27 X s 367 348 m -27 X s 367 392 m -27 X s 395 435 m -55 X s 367 479 m -27 X s 367 522 m -27 X
 s 367 566 m -27 X s 367 609 m -27 X s 395 653 m -55 X s 367 696 m -27 X s 367 740 m -27 X s 367 784 m -27 X s 367 827 m -27 X s 395 871 m -55 X s 367 914 m -27 X s 367 958 m -27 X s 367 1001 m -27 X s 367 1045 m -27 X s 395 1088 m -55 X s 367 1132 m
 -27 X s 367 1175 m -27 X s 367 1219 m -27 X s 367 1262 m -27 X s 395 1306 m -55 X s 367 1349 m -27 X s 367 1393 m -27 X s 367 1436 m -27 X s 367 1480 m -27 X s 395 1523 m -55 X s 367 1567 m -27 X s 367 1611 m -27 X s 367 1654 m -27 X s 367 1698 m
 -27 X s 395 1741 m -55 X s 367 1785 m -27 X s 367 1828 m -27 X s 367 1872 m -27 X s 367 1915 m -27 X s 395 1959 m -55 X s
 gsave  2268 2176 0 0 C 289.172 194.05 t 0 r /Helvetica findfont 72.293 sf 0 0 m (0) show NC gr 
 gsave  2268 2176 0 0 C 186.44 410.929 t 0 r /Helvetica findfont 72.293 sf 0 0 m (0.05) show NC gr 
 gsave  2268 2176 0 0 C 239.708 627.807 t 0 r /Helvetica findfont 72.293 sf 0 0 m (0.1) show NC gr 
 gsave  2268 2176 0 0 C 186.44 844.686 t 0 r /Helvetica findfont 72.293 sf 0 0 m (0.15) show NC gr 
 gsave  2268 2176 0 0 C 228.294 1061.57 t 0 r /Helvetica findfont 72.293 sf 0 0 m (0.2) show NC gr 
 gsave  2268 2176 0 0 C 186.44 1282.25 t 0 r /Helvetica findfont 72.293 sf 0 0 m (0.25) show NC gr 
 gsave  2268 2176 0 0 C 228.294 1499.13 t 0 r /Helvetica findfont 72.293 sf 0 0 m (0.3) show NC gr 
 gsave  2268 2176 0 0 C 186.44 1716.01 t 0 r /Helvetica findfont 72.293 sf 0 0 m (0.35) show NC gr 
 gsave  2268 2176 0 0 C 228.294 1932.89 t 0 r /Helvetica findfont 72.293 sf 0 0 m (0.4) show NC gr  0.8 0 1 c 1948 689 m 2 Y s 1940 691 m 15 X s 1948 666 m -2 Y s 1940 664 m 15 X s black 0.8 0 1 c /w 23 def /w2 {w 2 div} def /w3 {w 3 div} def 417 615
 526 593 635 587 745 625 854 620 963 641 1073 647 1182 639 1291 662 1510 671 1729 679 1948 677 12 { m24} R 6 lw 0.95 0.95 0.95 c black 0.8 0 1 c 349 589 m 17 1 d 17 2 d 17 1 d 17 1 d 17 1 d 17 2 d 17 1 d 17 1 d 17 1 d 17 2 d 17 1 d 17 1 d 17 1 d 17 2
 d 17 1 d 17 1 d 17 1 d 17 1 d 17 2 d 17 1 d 17 1 d 17 1 d 17 1 d 17 2 d 17 1 d 17 1 d 17 1 d 17 1 d 17 1 d 17 2 d 17 1 d 17 1 d 17 1 d 17 1 d 17 1 d 17 1 d 17 2 d 17 1 d 17 1 d 17 1 d 17 1 d 17 1 d 17 1 d 17 1 d 17 1 d 17 2 d 17 1 d 17 1 d 17 1 d s
 1182 647 m 17 1 d 17 1 d 17 1 d 17 1 d 17 1 d 17 1 d 17 1 d 17 1 d 17 1 d 17 1 d 17 1 d 17 1 d 17 1 d 17 1 d 17 1 d 17 1 d 17 1 d 17 1 d 17 1 d 17 1 d 17 1 d 17 1 d 17 1 d 17 1 d 17 1 d 17 1 d 17 1 d 17 1 d 17 1 d 17 1 d 17 1 d 17 X 17 1 d 17 1 d 17
 1 d 17 1 d 17 1 d 17 1 d 17 1 d 17 1 d 17 1 d 17 X 17 1 d 17 1 d 17 1 d 17 1 d 17 1 d 17 1 d 17 X s 2015 693 m 17 1 d s 1 0.8 0 c 3 lw black 1 0.8 0 c 417 481 526 497 635 516 745 535 854 565 963 575 1073 573 1182 577 1291 612 1510 615 1729 622 1948
 632 12 { m25} R 6 lw 0.95 0.95 0.95 c black 1 0.8 0 c 349 467 m 17 3 d 17 3 d 17 4 d 17 3 d 17 3 d 17 3 d 17 4 d 17 3 d 17 3 d 17 3 d 17 3 d 17 3 d 17 3 d 17 3 d 17 3 d 17 3 d 17 3 d 17 2 d 17 3 d 17 3 d 17 2 d 17 3 d 17 3 d 17 2 d 17 3 d 17 2 d 17
 3 d 17 2 d 17 3 d 17 2 d 17 2 d 17 3 d 17 2 d 17 2 d 17 2 d 17 2 d 17 2 d 17 2 d 17 2 d 17 2 d 17 2 d 17 2 d 17 2 d 17 2 d 17 2 d 17 2 d 17 1 d 17 2 d 17 2 d s 1182 591 m 17 1 d 17 2 d 17 1 d 17 2 d 17 1 d 17 2 d 17 1 d 17 2 d 17 1 d 17 1 d 17 1 d
 17 2 d 17 1 d 17 1 d 17 1 d 17 1 d 17 1 d 17 1 d 17 1 d 17 1 d 17 1 d 17 1 d 17 1 d 17 X 17 1 d 17 1 d 17 1 d 17 X 17 1 d 17 X 17 1 d 17 X 17 1 d 17 X 17 1 d 34 X 17 1 d 102 X 17 1 d 17 -1 d 51 X s 2015 627 m 17 X s 0 0.6 0 c 3 lw 1510 1074 m s 1503
 1074 m 15 X s 1510 1051 m -1 Y s 1503 1050 m 15 X s 1729 1084 m 1 Y s 1721 1085 m 15 X s 1729 1061 m -1 Y s 1721 1060 m 15 X s 1948 1099 m 4 Y s 1940 1103 m 15 X s 1948 1077 m -4 Y s 1940 1073 m 15 X s black 0 0.6 0 c 417 859 526 875 635 925 745 950
 854 961 963 992 1073 1029 1182 1003 1291 1036 1510 1062 1729 1072 1948 1088 12 { m26} R 6 lw 0.95 0.95 0.95 c black 0 0.6 0 c 349 837 m 17 5 d 17 5 d 17 5 d 17 5 d 17 5 d 17 5 d 17 5 d 17 4 d 17 5 d 17 5 d 17 4 d 17 5 d 17 4 d 17 5 d 17 4 d 17 4 d
 17 5 d 17 4 d 17 4 d 17 4 d 17 4 d 17 4 d 17 4 d 17 4 d 17 4 d 17 4 d 17 3 d 17 4 d 17 4 d 17 3 d 17 4 d 17 3 d 17 3 d 17 4 d 17 3 d 17 3 d 17 3 d 17 4 d 17 3 d 17 3 d 17 3 d 17 2 d 17 3 d 17 3 d 17 3 d 17 3 d 17 2 d 17 3 d 17 2 d s 1182 1024 m 17 3
 d 17 2 d 17 2 d 17 3 d 17 2 d 17 2 d 17 2 d 17 2 d 17 2 d 17 2 d 17 2 d 17 2 d 17 2 d 17 2 d 17 1 d 17 2 d 17 1 d 17 2 d 17 1 d 17 2 d 17 1 d 17 1 d 17 2 d 17 1 d 17 1 d 17 1 d 17 1 d 17 1 d 17 1 d 17 1 d 17 1 d 17 X 17 1 d 17 1 d 17 X 17 1 d 17 X
 17 1 d 34 X 17 1 d 136 X s 2015 1080 m 17 X s 1 0 0 c 3 lw 635 1271 m s 628 1271 m 15 X s 635 1248 m -1 Y s 628 1247 m 15 X s 745 1334 m 1 Y s 737 1335 m 15 X s 745 1311 m s 737 1311 m 15 X s 854 1384 m 2 Y s 846 1386 m 16 X s 854 1362 m -2 Y s 846
 1360 m 16 X s 963 1403 m 1 Y s 956 1404 m 15 X s 963 1380 m -1 Y s 956 1379 m 15 X s 1073 1458 m 2 Y s 1065 1460 m 15 X s 1073 1435 m -1 Y s 1065 1434 m 15 X s 1182 1471 m 2 Y s 1175 1473 m 15 X s 1182 1448 m -2 Y s 1175 1446 m 15 X s 1291 1473 m 2
 Y s 1284 1475 m 15 X s 1291 1450 m -2 Y s 1284 1448 m 15 X s 1510 1455 m 1 Y s 1503 1456 m 15 X s 1510 1432 m -2 Y s 1503 1430 m 15 X s 1729 1433 m 2 Y s 1721 1435 m 15 X s 1729 1410 m -2 Y s 1721 1408 m 15 X s 1948 1444 m 7 Y s 1940 1451 m 15 X s
 1948 1421 m -7 Y s 1940 1414 m 15 X s black 1 0 0 c 417 1047 526 1117 635 1259 745 1323 854 1373 963 1392 1073 1447 1182 1460 1291 1461 1510 1443 1729 1422 1948 1433 12 { m32} R 6 lw 0.95 0.95 0.95 c black 1 0 0 c 349 998 m 17 16 d 17 15 d 17 15 d
 17 14 d 17 15 d 17 14 d 17 14 d 17 14 d 17 13 d 17 13 d 17 13 d 17 13 d 17 12 d 17 12 d 17 12 d 17 12 d 17 11 d 17 12 d 17 10 d 17 11 d 17 11 d 17 10 d 17 10 d 17 9 d 17 10 d 17 9 d 17 9 d 17 9 d 17 8 d 17 8 d 17 8 d 17 8 d 17 8 d 17 7 d 17 7 d 17 7
 d 17 6 d 17 6 d 17 6 d 17 6 d 17 6 d 17 5 d 17 5 d 17 5 d 17 4 d 17 4 d 17 4 d 17 4 d 17 4 d s 1182 1462 m 17 3 d 17 3 d 17 3 d 17 2 d 17 3 d 17 2 d 17 1 d 17 2 d 17 1 d 17 1 d 17 1 d 17 1 d 51 X 17 -1 d 17 X 17 -1 d 17 -1 d 17 -2 d 17 -1 d 17 -2 d
 17 -3 d 17 -2 d 17 -3 d 17 -3 d 17 -3 d 17 -3 d 17 -4 d 17 -4 d 17 -4 d 17 -4 d 17 -5 d 17 -5 d 17 -5 d 17 -5 d 17 -6 d 17 -6 d 17 -6 d 17 -6 d 17 -7 d 17 -7 d 17 -7 d 17 -7 d 17 -8 d 17 -7 d 17 -9 d 17 -8 d 17 -9 d s 2015 1331 m 17 -8 d s 0.8 0 1 c
 9 lw 567 1850 m 68 X s black
 gsave  2268 2176 0 0 C 757.174 1830.15 t 0 r /Helvetica findfont 72.293 sf 0 0 m ( ggF\255like) show NC gr 
 gsave  2268 2176 0 0 C 715.32 1830.15 t 0 r /Symbol findfont 72.293 sf 0 0 m (m) show NC gr 
 gsave  2268 2176 0 0 C 677.271 1830.15 t 0 r /Helvetica findfont 72.293 sf 0 0 m (4) show NC gr  1 0.8 0 c 567 1763 m 68 X s black
 gsave  2268 2176 0 0 C 677.271 1742.64 t 0 r /Helvetica findfont 72.293 sf 0 0 m (4e ggF\255like) show NC gr  0 0.6 0 c 567 1676 m 68 X s black
 gsave  2268 2176 0 0 C 757.174 1655.13 t 0 r /Helvetica findfont 72.293 sf 0 0 m (2e ggF\255like) show NC gr 
 gsave  2268 2176 0 0 C 715.32 1655.13 t 0 r /Symbol findfont 72.293 sf 0 0 m (m) show NC gr 
 gsave  2268 2176 0 0 C 677.271 1655.13 t 0 r /Helvetica findfont 72.293 sf 0 0 m (2) show NC gr  1 0 0 c 567 1589 m 68 X s black
 gsave  2268 2176 0 0 C 677.271 1567.62 t 0 r /Helvetica findfont 72.293 sf 0 0 m (VBF\255like) show NC gr 
 gr  gr showpage
end
%%EOF
