%!PS-Adobe-2.0 EPSF-2.0
%%BoundingBox:  0 0 567 544
%%Title: : 
%%Creator: ROOT Version 6.04/02
%%CreationDate: Thu May 12 14:29:17 2016
%%DocumentNeededResources: ProcSet (FontSetInit)
%%EndComments
%%BeginProlog
80 dict begin
/s {stroke} def /l {lineto} def /m {moveto} def /t {translate} def
/r {rotate} def /rl {roll}  def /R {repeat} def
/d {rlineto} def /rm {rmoveto} def /gr {grestore} def /f {eofill} def
/c {setrgbcolor} def /black {0 setgray} def /sd {setdash} def
/cl {closepath} def /sf {scalefont setfont} def /lw {setlinewidth} def
/box {m dup 0 exch d exch 0 d 0 exch neg d cl} def
/NC{systemdict begin initclip end}def/C{NC box clip newpath}def
/bl {box s} def /bf {gsave box gsave f grestore 1 lw [] 0 sd s grestore} def /Y { 0 exch d} def /X { 0 d} def 
/K {{pop pop 0 moveto} exch kshow} bind def
/ita {/ang 15 def gsave [1 0 ang dup sin exch cos div 1 0 0] concat} def 
/mp {newpath /y exch def /x exch def} def
/side {[w .77 mul w .23 mul] .385 w mul sd w 0 l currentpoint t -144 r} def
/mr {mp x y w2 0 360 arc} def /m24 {mr s} def /m20 {mr f} def
/mb {mp x y w2 add m w2 neg 0 d 0 w neg d w 0 d 0 w d cl} def
/mt {mp x y w2 add m w2 neg w neg d w 0 d cl} def
/m21 {mb f} def /m25 {mb s} def /m22 {mt f} def /m26{mt s} def
/m23 {mp x y w2 sub m w2 w d w neg 0 d cl f} def
/m27 {mp x y w2 add m w3 neg w2 neg d w3 w2 neg d w3 w2 d cl s} def
/m28 {mp x w2 sub y w2 sub w3 add m w3 0 d  0 w3 neg d w3 0 d 0 w3 d w3 0 d  0 w3 d w3 neg 0 d 0 w3 d w3 neg 0 d 0 w3 neg d w3 neg 0 d cl s } def
/m29 {mp gsave x w2 sub y w2 add w3 sub m currentpoint t 4 {side} repeat cl fill gr} def
/m30 {mp gsave x w2 sub y w2 add w3 sub m currentpoint t 4 {side} repeat cl s gr} def
/m31 {mp x y w2 sub m 0 w d x w2 sub y m w 0 d x w2 sub y w2 add m w w neg d x w2 sub y w2 sub m w w d s} def
/m32 {mp x y w2 sub m w2 w d w neg 0 d cl s} def
/m33 {mp x y w2 add m w3 neg w2 neg d w3 w2 neg d w3 w2 d cl f} def
/m34 {mp x w2 sub y w2 sub w3 add m w3 0 d  0 w3 neg d w3 0 d 0 w3 d w3 0 d  0 w3 d w3 neg 0 d 0 w3 d w3 neg 0 d 0 w3 neg d w3 neg 0 d cl f } def
/m2 {mp x y w2 sub m 0 w d x w2 sub y m w 0 d s} def
/m5 {mp x w2 sub y w2 sub m w w d x w2 sub y w2 add m w w neg d s} def
%%IncludeResource: ProcSet (FontSetInit)
%%IncludeResource: font Times-Roman
%%IncludeResource: font Times-Italic
%%IncludeResource: font Times-Bold
%%IncludeResource: font Times-BoldItalic
%%IncludeResource: font Helvetica
%%IncludeResource: font Helvetica-Oblique
%%IncludeResource: font Helvetica-Bold
%%IncludeResource: font Helvetica-BoldOblique
%%IncludeResource: font Courier
%%IncludeResource: font Courier-Oblique
%%IncludeResource: font Courier-Bold
%%IncludeResource: font Courier-BoldOblique
%%IncludeResource: font Symbol
%%IncludeResource: font ZapfDingbats
/reEncode {exch findfont dup length dict begin {1 index /FID eq  {pop pop} {def} ifelse } forall /Encoding exch def currentdict end dup /FontName get exch definefont pop } def [/Times-Bold /Times-Italic /Times-BoldItalic /Helvetica /Helvetica-Oblique
 /Helvetica-Bold /Helvetica-BoldOblique /Courier /Courier-Oblique /Courier-Bold /Courier-BoldOblique /Times-Roman /AvantGarde-Book /AvantGarde-BookOblique /AvantGarde-Demi /AvantGarde-DemiOblique /Bookman-Demi /Bookman-DemiItalic /Bookman-Light
 /Bookman-LightItalic /Helvetica-Narrow /Helvetica-Narrow-Bold /Helvetica-Narrow-BoldOblique /Helvetica-Narrow-Oblique /NewCenturySchlbk-Roman /NewCenturySchlbk-Bold /NewCenturySchlbk-BoldItalic /NewCenturySchlbk-Italic /Palatino-Bold
 /Palatino-BoldItalic /Palatino-Italic /Palatino-Roman ] {ISOLatin1Encoding reEncode } forall
%%EndProlog
%%BeginSetup
%%EndSetup
newpath  gsave  .25 .25 scale  gsave  0 0 t black[  ] 0 sd 3 lw 1 1 1 c 2268 2176 0 0 bf black 1 1 1 c 1701 1741 340 218 bf black 1701 1741 340 218 bl 1 1 1 c 1701 1741 340 218 bf black 1701 1741 340 218 bl 340 218 m 1701 X s
 gsave  2268 2176 0 0 C 1122.44 60.8783 t 0 r /Helvetica findfont 79.9028 sf 0 0 m ( [GeV]) show NC gr 
 gsave  2268 2176 0 0 C 1088.2 34.244 t 0 r /Helvetica findfont 53.2685 sf 0 0 m (H) show NC gr 
 gsave  2268 2176 0 0 C 1023.52 60.8783 t 0 r /Helvetica findfont 79.9028 sf 0 0 m (m) show NC gr  350 267 m -49 Y s 392 242 m -24 Y s 434 242 m -24 Y s 476 242 m -24 Y s 518 242 m -24 Y s 560 267 m -49 Y s 602 242 m -24 Y s 644 242 m -24 Y s 686 242
 m -24 Y s 728 242 m -24 Y s 770 267 m -49 Y s 812 242 m -24 Y s 854 242 m -24 Y s 896 242 m -24 Y s 938 242 m -24 Y s 980 267 m -49 Y s 1022 242 m -24 Y s 1065 242 m -24 Y s 1107 242 m -24 Y s 1149 242 m -24 Y s 1191 267 m -49 Y s 1233 242 m -24 Y s
 1275 242 m -24 Y s 1317 242 m -24 Y s 1359 242 m -24 Y s 1401 267 m -49 Y s 1443 242 m -24 Y s 1485 242 m -24 Y s 1527 242 m -24 Y s 1569 242 m -24 Y s 1611 267 m -49 Y s 1653 242 m -24 Y s 1695 242 m -24 Y s 1737 242 m -24 Y s 1779 242 m -24 Y s
 1821 267 m -49 Y s 1863 242 m -24 Y s 1905 242 m -24 Y s 1947 242 m -24 Y s 1989 242 m -24 Y s 2031 267 m -49 Y s 350 267 m -49 Y s 2031 267 m -49 Y s
 gsave  2268 2176 0 0 C 289.172 148.391 t 0 r /Helvetica findfont 72.293 sf 0 0 m (200) show NC gr 
 gsave  2268 2176 0 0 C 498.441 148.391 t 0 r /Helvetica findfont 72.293 sf 0 0 m (300) show NC gr 
 gsave  2268 2176 0 0 C 707.71 148.391 t 0 r /Helvetica findfont 72.293 sf 0 0 m (400) show NC gr 
 gsave  2268 2176 0 0 C 916.979 148.391 t 0 r /Helvetica findfont 72.293 sf 0 0 m (500) show NC gr 
 gsave  2268 2176 0 0 C 1126.25 148.391 t 0 r /Helvetica findfont 72.293 sf 0 0 m (600) show NC gr 
 gsave  2268 2176 0 0 C 1339.32 148.391 t 0 r /Helvetica findfont 72.293 sf 0 0 m (700) show NC gr 
 gsave  2268 2176 0 0 C 1548.59 148.391 t 0 r /Helvetica findfont 72.293 sf 0 0 m (800) show NC gr 
 gsave  2268 2176 0 0 C 1757.86 148.391 t 0 r /Helvetica findfont 72.293 sf 0 0 m (900) show NC gr 
 gsave  2268 2176 0 0 C 1948.11 148.391 t 0 r /Helvetica findfont 72.293 sf 0 0 m (1000) show NC gr  340 218 m 1741 Y s
 gsave  2268 2176 0 0 C 156.001 1362.15 t 90 r /Helvetica findfont 79.9028 sf 0 0 m (ggH  acceptance) show NC gr  395 218 m -55 X s 367 261 m -27 X s 367 305 m -27 X s 367 348 m -27 X s 367 392 m -27 X s 395 435 m -55 X s 367 479 m -27 X s 367 522 m
 -27 X s 367 566 m -27 X s 367 609 m -27 X s 395 653 m -55 X s 367 696 m -27 X s 367 740 m -27 X s 367 784 m -27 X s 367 827 m -27 X s 395 871 m -55 X s 367 914 m -27 X s 367 958 m -27 X s 367 1001 m -27 X s 367 1045 m -27 X s 395 1088 m -55 X s 367
 1132 m -27 X s 367 1175 m -27 X s 367 1219 m -27 X s 367 1262 m -27 X s 395 1306 m -55 X s 367 1349 m -27 X s 367 1393 m -27 X s 367 1436 m -27 X s 367 1480 m -27 X s 395 1523 m -55 X s 367 1567 m -27 X s 367 1611 m -27 X s 367 1654 m -27 X s 367
 1698 m -27 X s 395 1741 m -55 X s 367 1785 m -27 X s 367 1828 m -27 X s 367 1872 m -27 X s 367 1915 m -27 X s 395 1959 m -55 X s
 gsave  2268 2176 0 0 C 289.172 194.05 t 0 r /Helvetica findfont 72.293 sf 0 0 m (0) show NC gr 
 gsave  2268 2176 0 0 C 186.44 410.929 t 0 r /Helvetica findfont 72.293 sf 0 0 m (0.05) show NC gr 
 gsave  2268 2176 0 0 C 239.708 627.807 t 0 r /Helvetica findfont 72.293 sf 0 0 m (0.1) show NC gr 
 gsave  2268 2176 0 0 C 186.44 844.686 t 0 r /Helvetica findfont 72.293 sf 0 0 m (0.15) show NC gr 
 gsave  2268 2176 0 0 C 228.294 1061.57 t 0 r /Helvetica findfont 72.293 sf 0 0 m (0.2) show NC gr 
 gsave  2268 2176 0 0 C 186.44 1282.25 t 0 r /Helvetica findfont 72.293 sf 0 0 m (0.25) show NC gr 
 gsave  2268 2176 0 0 C 228.294 1499.13 t 0 r /Helvetica findfont 72.293 sf 0 0 m (0.3) show NC gr 
 gsave  2268 2176 0 0 C 186.44 1716.01 t 0 r /Helvetica findfont 72.293 sf 0 0 m (0.35) show NC gr 
 gsave  2268 2176 0 0 C 228.294 1932.89 t 0 r /Helvetica findfont 72.293 sf 0 0 m (0.4) show NC gr  0.8 0 1 c 350 837 m 10 Y s 343 847 m 15 X s 350 814 m -10 Y s 343 804 m 15 X s 560 837 m 10 Y s 553 847 m 15 X s 560 814 m -11 Y s 553 803 m 15 X s
 770 859 m 11 Y s 763 870 m 15 X s 770 837 m -12 Y s 763 825 m 15 X s 980 895 m 11 Y s 973 906 m 15 X s 980 872 m -12 Y s 973 860 m 15 X s 1191 860 m 11 Y s 1183 871 m 15 X s 1191 837 m -11 Y s 1183 826 m 15 X s 1401 906 m 12 Y s 1393 918 m 15 X s
 1401 883 m -11 Y s 1393 872 m 15 X s 1611 877 m 12 Y s 1603 889 m 15 X s 1611 855 m -12 Y s 1603 843 m 15 X s 1821 923 m 12 Y s 1813 935 m 15 X s 1821 900 m -12 Y s 1813 888 m 15 X s 2031 943 m 13 Y s 2023 956 m 15 X s 2031 921 m -13 Y s 2023 908 m
 15 X s black 0.8 0 1 c /w 23 def /w2 {w 2 div} def /w3 {w 3 div} def 350 825 560 825 770 848 980 883 1191 849 1401 895 1611 866 1821 912 2031 932 9 { m24} R 6 lw 0.95 0.95 0.95 c black 0.8 0 1 c 349 826 m 17 1 d 17 X 17 1 d 17 1 d 17 X 17 1 d 17 1 d
 17 X 17 1 d 17 1 d 17 1 d 17 X 17 1 d 17 1 d 17 1 d 17 X 17 1 d 17 1 d 17 1 d 17 1 d 17 X 17 1 d 17 1 d 17 1 d 17 1 d 17 X 17 1 d 17 1 d 17 1 d 17 1 d 17 1 d 17 1 d 17 1 d 17 X 17 1 d 17 1 d 17 1 d 17 1 d 17 1 d 17 1 d 17 1 d 17 1 d 17 1 d 17 1 d 17
 1 d 17 1 d 17 1 d 17 X 17 1 d s 1182 866 m 17 1 d 17 1 d 17 1 d 17 1 d 17 1 d 17 2 d 17 1 d 17 1 d 17 1 d 17 1 d 17 1 d 17 1 d 17 1 d 17 1 d 17 1 d 17 1 d 17 1 d 17 1 d 17 1 d 17 1 d 17 2 d 17 1 d 17 1 d 17 1 d 17 1 d 17 1 d 17 1 d 17 2 d 17 1 d 17
 1 d 17 1 d 17 1 d 17 2 d 17 1 d 17 1 d 17 1 d 17 1 d 17 2 d 17 1 d 17 1 d 17 1 d 17 2 d 17 1 d 17 1 d 17 1 d 17 2 d 17 1 d 17 1 d 17 2 d s 2015 923 m 17 1 d s 1 0.8 0 c 3 lw 350 638 m 7 Y s 343 645 m 15 X s 350 616 m -7 Y s 343 609 m 15 X s 560 640
 m 7 Y s 553 647 m 15 X s 560 617 m -6 Y s 553 611 m 15 X s 770 701 m 8 Y s 763 709 m 15 X s 770 678 m -8 Y s 763 670 m 15 X s 980 737 m 8 Y s 973 745 m 15 X s 980 714 m -9 Y s 973 705 m 15 X s 1191 766 m 9 Y s 1183 775 m 15 X s 1191 743 m -9 Y s
 1183 734 m 15 X s 1401 782 m 10 Y s 1393 792 m 15 X s 1401 759 m -9 Y s 1393 750 m 15 X s 1611 807 m 10 Y s 1603 817 m 15 X s 1611 784 m -10 Y s 1603 774 m 15 X s 1821 780 m 9 Y s 1813 789 m 15 X s 1821 757 m -9 Y s 1813 748 m 15 X s 2031 785 m 9 Y
 s 2023 794 m 15 X s 2031 762 m -9 Y s 2023 753 m 15 X s black 1 0.8 0 c 350 627 560 629 770 690 980 725 1191 755 1401 771 1611 796 1821 769 2031 774 9 { m25} R 6 lw 0.95 0.95 0.95 c black 1 0.8 0 c 349 608 m 17 4 d 17 4 d 17 4 d 17 4 d 17 4 d 17 3 d
 17 4 d 17 4 d 17 3 d 17 4 d 17 3 d 17 4 d 17 3 d 17 4 d 17 3 d 17 3 d 17 3 d 17 4 d 17 3 d 17 3 d 17 3 d 17 3 d 17 3 d 17 3 d 17 3 d 17 2 d 17 3 d 17 3 d 17 3 d 17 2 d 17 3 d 17 2 d 17 3 d 17 2 d 17 3 d 17 2 d 17 2 d 17 3 d 17 2 d 17 2 d 17 2 d 17 2
 d 17 2 d 17 2 d 17 2 d 17 2 d 17 2 d 17 2 d 17 1 d s 1182 748 m 17 2 d 17 2 d 17 1 d 17 2 d 17 1 d 17 2 d 17 1 d 17 2 d 17 1 d 17 1 d 17 2 d 17 1 d 17 1 d 17 1 d 17 1 d 17 1 d 17 1 d 17 1 d 17 1 d 17 1 d 17 X 17 1 d 17 1 d 17 X 17 1 d 17 1 d 34 X 17
 1 d 17 X 17 1 d 204 X 17 -1 d 34 X 17 -1 d 17 X 17 -1 d s 2015 777 m 17 X s 0 0.6 0 c 3 lw 350 1189 m 16 Y s 343 1205 m 15 X s 350 1167 m -16 Y s 343 1151 m 15 X s 560 1273 m 17 Y s 553 1290 m 15 X s 560 1250 m -17 Y s 553 1233 m 15 X s 770 1392 m
 20 Y s 763 1412 m 15 X s 770 1369 m -19 Y s 763 1350 m 15 X s 980 1366 m 19 Y s 973 1385 m 15 X s 980 1343 m -18 Y s 973 1325 m 15 X s 1191 1434 m 20 Y s 1183 1454 m 15 X s 1191 1412 m -20 Y s 1183 1392 m 15 X s 1401 1451 m 19 Y s 1393 1470 m 15 X s
 1401 1428 m -20 Y s 1393 1408 m 15 X s 1611 1476 m 20 Y s 1603 1496 m 15 X s 1611 1453 m -20 Y s 1603 1433 m 15 X s 1821 1479 m 20 Y s 1813 1499 m 15 X s 1821 1456 m -20 Y s 1813 1436 m 15 X s 2031 1430 m 19 Y s 2023 1449 m 15 X s 2031 1407 m -19 Y
 s 2023 1388 m 15 X s black 0 0.6 0 c 350 1178 560 1261 770 1381 980 1355 1191 1423 1401 1439 1611 1465 1821 1467 2031 1419 9 { m26} R 6 lw 0.95 0.95 0.95 c black 0 0.6 0 c 349 1182 m 17 8 d 17 7 d 17 7 d 17 7 d 17 7 d 17 7 d 17 6 d 17 7 d 17 7 d 17
 6 d 17 6 d 17 7 d 17 6 d 17 6 d 17 6 d 17 5 d 17 6 d 17 6 d 17 5 d 17 6 d 17 5 d 17 5 d 17 5 d 17 6 d 17 4 d 17 5 d 17 5 d 17 5 d 17 4 d 17 5 d 17 4 d 17 4 d 17 4 d 17 5 d 17 3 d 17 4 d 17 4 d 17 4 d 17 3 d 17 4 d 17 3 d 17 3 d 17 4 d 17 3 d 17 3 d
 17 3 d 17 2 d 17 3 d 17 3 d s 1182 1425 m 17 2 d 17 2 d 17 3 d 17 2 d 17 2 d 17 2 d 17 2 d 17 2 d 17 1 d 17 2 d 17 2 d 17 1 d 17 1 d 17 1 d 17 2 d 17 1 d 17 X 17 1 d 17 1 d 17 1 d 17 X 17 1 d 119 X 17 -1 d 17 X 17 -1 d 17 X 17 -1 d 17 -1 d 17 -1 d
 17 -1 d 17 -1 d 17 -1 d 17 -2 d 17 -1 d 17 -2 d 17 -1 d 17 -2 d 17 -2 d 17 -2 d 17 -2 d 17 -2 d 17 -2 d s 2015 1431 m 17 -3 d s 1 0 0 c 3 lw 770 418 m 1 Y s 763 419 m 15 X s 770 396 m -1 Y s 763 395 m 15 X s 980 445 m 2 Y s 973 447 m 15 X s 980 423
 m -2 Y s 973 421 m 15 X s 1191 491 m 2 Y s 1183 493 m 15 X s 1191 468 m -3 Y s 1183 465 m 15 X s 1401 538 m 4 Y s 1393 542 m 15 X s 1401 515 m -4 Y s 1393 511 m 15 X s 1611 592 m 6 Y s 1603 598 m 15 X s 1611 569 m -5 Y s 1603 564 m 15 X s 1821 599 m
 6 Y s 1813 605 m 15 X s 1821 576 m -5 Y s 1813 571 m 15 X s 2031 593 m 5 Y s 2023 598 m 15 X s 2031 570 m -6 Y s 2023 564 m 15 X s black 1 0 0 c 350 320 560 370 770 407 980 434 1191 479 1401 527 1611 581 1821 588 2031 581 9 { m32} R 6 lw 0.95 0.95
 0.95 c black 1 0 0 c 349 319 m 17 4 d 17 4 d 17 3 d 17 4 d 17 4 d 17 4 d 17 4 d 17 3 d 17 4 d 17 4 d 17 4 d 17 3 d 17 4 d 17 4 d 17 3 d 17 4 d 17 3 d 17 4 d 17 3 d 17 4 d 17 3 d 17 4 d 17 3 d 17 4 d 17 3 d 17 3 d 17 4 d 17 3 d 17 3 d 17 4 d 17 3 d
 17 3 d 17 3 d 17 4 d 17 3 d 17 3 d 17 3 d 17 3 d 17 3 d 17 3 d 17 3 d 17 3 d 17 3 d 17 3 d 17 3 d 17 3 d 17 3 d 17 3 d 17 3 d s 1182 485 m 17 3 d 17 3 d 17 3 d 17 2 d 17 3 d 17 3 d 17 3 d 17 2 d 17 3 d 17 3 d 17 2 d 17 3 d 17 3 d 17 2 d 17 3 d 17 2
 d 17 3 d 17 2 d 17 3 d 17 2 d 17 3 d 17 2 d 17 2 d 17 3 d 17 2 d 17 2 d 17 3 d 17 2 d 17 2 d 17 3 d 17 2 d 17 2 d 17 2 d 17 2 d 17 2 d 17 3 d 17 2 d 17 2 d 17 2 d 17 2 d 17 2 d 17 2 d 17 2 d 17 2 d 17 2 d 17 1 d 17 2 d 17 2 d 17 2 d s 2015 600 m 17
 2 d s 0.8 0 1 c 9 lw 1519 1523 m 68 X s black
 gsave  2268 2176 0 0 C 1666.54 1502.93 t 0 r /Symbol findfont 60.8783 sf 0 0 m (m) show NC gr 
 gsave  2268 2176 0 0 C 1632.3 1502.93 t 0 r /Helvetica findfont 60.8783 sf 0 0 m (4) show NC gr  1 0.8 0 c 1519 1436 m 68 X s black
 gsave  2268 2176 0 0 C 1632.3 1415.42 t 0 r /Helvetica findfont 60.8783 sf 0 0 m (4e) show NC gr  0 0.6 0 c 1519 1349 m 68 X s black
 gsave  2268 2176 0 0 C 1704.59 1327.91 t 0 r /Helvetica findfont 60.8783 sf 0 0 m (2e) show NC gr 
 gsave  2268 2176 0 0 C 1666.54 1327.91 t 0 r /Symbol findfont 60.8783 sf 0 0 m (m) show NC gr 
 gsave  2268 2176 0 0 C 1632.3 1327.91 t 0 r /Helvetica findfont 60.8783 sf 0 0 m (2) show NC gr  1 0 0 c 1519 1262 m 68 X s black
 gsave  2268 2176 0 0 C 1632.3 1244.2 t 0 r /Helvetica findfont 60.8783 sf 0 0 m (VBF) show NC gr 
 gr  gr showpage
end
%%EOF
