%!PS-Adobe-2.0 EPSF-2.0
%%BoundingBox:  0 0 567 544
%%Title: : 
%%Creator: ROOT Version 6.04/02
%%CreationDate: Thu Jul  7 19:05:39 2016
%%DocumentNeededResources: ProcSet (FontSetInit)
%%EndComments
%%BeginProlog
80 dict begin
/s {stroke} def /l {lineto} def /m {moveto} def /t {translate} def
/r {rotate} def /rl {roll}  def /R {repeat} def
/d {rlineto} def /rm {rmoveto} def /gr {grestore} def /f {eofill} def
/c {setrgbcolor} def /black {0 setgray} def /sd {setdash} def
/cl {closepath} def /sf {scalefont setfont} def /lw {setlinewidth} def
/box {m dup 0 exch d exch 0 d 0 exch neg d cl} def
/NC{systemdict begin initclip end}def/C{NC box clip newpath}def
/bl {box s} def /bf {gsave box gsave f grestore 1 lw [] 0 sd s grestore} def /Y { 0 exch d} def /X { 0 d} def 
/K {{pop pop 0 moveto} exch kshow} bind def
/ita {/ang 15 def gsave [1 0 ang dup sin exch cos div 1 0 0] concat} def 
/mp {newpath /y exch def /x exch def} def
/side {[w .77 mul w .23 mul] .385 w mul sd w 0 l currentpoint t -144 r} def
/mr {mp x y w2 0 360 arc} def /m24 {mr s} def /m20 {mr f} def
/mb {mp x y w2 add m w2 neg 0 d 0 w neg d w 0 d 0 w d cl} def
/mt {mp x y w2 add m w2 neg w neg d w 0 d cl} def
/m21 {mb f} def /m25 {mb s} def /m22 {mt f} def /m26{mt s} def
/m23 {mp x y w2 sub m w2 w d w neg 0 d cl f} def
/m27 {mp x y w2 add m w3 neg w2 neg d w3 w2 neg d w3 w2 d cl s} def
/m28 {mp x w2 sub y w2 sub w3 add m w3 0 d  0 w3 neg d w3 0 d 0 w3 d w3 0 d  0 w3 d w3 neg 0 d 0 w3 d w3 neg 0 d 0 w3 neg d w3 neg 0 d cl s } def
/m29 {mp gsave x w2 sub y w2 add w3 sub m currentpoint t 4 {side} repeat cl fill gr} def
/m30 {mp gsave x w2 sub y w2 add w3 sub m currentpoint t 4 {side} repeat cl s gr} def
/m31 {mp x y w2 sub m 0 w d x w2 sub y m w 0 d x w2 sub y w2 add m w w neg d x w2 sub y w2 sub m w w d s} def
/m32 {mp x y w2 sub m w2 w d w neg 0 d cl s} def
/m33 {mp x y w2 add m w3 neg w2 neg d w3 w2 neg d w3 w2 d cl f} def
/m34 {mp x w2 sub y w2 sub w3 add m w3 0 d  0 w3 neg d w3 0 d 0 w3 d w3 0 d  0 w3 d w3 neg 0 d 0 w3 d w3 neg 0 d 0 w3 neg d w3 neg 0 d cl f } def
/m2 {mp x y w2 sub m 0 w d x w2 sub y m w 0 d s} def
/m5 {mp x w2 sub y w2 sub m w w d x w2 sub y w2 add m w w neg d s} def
%%IncludeResource: ProcSet (FontSetInit)
%%IncludeResource: font Times-Roman
%%IncludeResource: font Times-Italic
%%IncludeResource: font Times-Bold
%%IncludeResource: font Times-BoldItalic
%%IncludeResource: font Helvetica
%%IncludeResource: font Helvetica-Oblique
%%IncludeResource: font Helvetica-Bold
%%IncludeResource: font Helvetica-BoldOblique
%%IncludeResource: font Courier
%%IncludeResource: font Courier-Oblique
%%IncludeResource: font Courier-Bold
%%IncludeResource: font Courier-BoldOblique
%%IncludeResource: font Symbol
%%IncludeResource: font ZapfDingbats
/reEncode {exch findfont dup length dict begin {1 index /FID eq  {pop pop} {def} ifelse } forall /Encoding exch def currentdict end dup /FontName get exch definefont pop } def [/Times-Bold /Times-Italic /Times-BoldItalic /Helvetica /Helvetica-Oblique
 /Helvetica-Bold /Helvetica-BoldOblique /Courier /Courier-Oblique /Courier-Bold /Courier-BoldOblique /Times-Roman /AvantGarde-Book /AvantGarde-BookOblique /AvantGarde-Demi /AvantGarde-DemiOblique /Bookman-Demi /Bookman-DemiItalic /Bookman-Light
 /Bookman-LightItalic /Helvetica-Narrow /Helvetica-Narrow-Bold /Helvetica-Narrow-BoldOblique /Helvetica-Narrow-Oblique /NewCenturySchlbk-Roman /NewCenturySchlbk-Bold /NewCenturySchlbk-BoldItalic /NewCenturySchlbk-Italic /Palatino-Bold
 /Palatino-BoldItalic /Palatino-Italic /Palatino-Roman ] {ISOLatin1Encoding reEncode } forall
%%EndProlog
%%BeginSetup
%%EndSetup
newpath  gsave  .25 .25 scale  gsave  0 0 t black[  ] 0 sd 3 lw 1 1 1 c 2268 2176 0 0 bf black 1 1 1 c 1701 1741 340 218 bf black 1701 1741 340 218 bl 1 1 1 c 1701 1741 340 218 bf black 1701 1741 340 218 bl 340 218 m 1701 X s[ 4 8] 0 sd 350 1959 m
 -1741 Y s 560 1959 m -1741 Y s 770 1959 m -1741 Y s 980 1959 m -1741 Y s 1191 1959 m -1741 Y s 1401 1959 m -1741 Y s 1611 1959 m -1741 Y s 1821 1959 m -1741 Y s 2031 1959 m -1741 Y s 350 1959 m -1741 Y s 2031 1959 m -1741 Y s[  ] 0 sd 340 218 m 1741
 Y s[ 4 8] 0 sd 2041 218 m -1701 X s 2041 435 m -1701 X s 2041 653 m -1701 X s 2041 871 m -1701 X s 2041 1088 m -1701 X s 2041 1306 m -1701 X s 2041 1523 m -1701 X s 2041 1741 m -1701 X s 2041 1959 m -1701 X s[  ] 0 sd 340 218 m 1701 X s
 gsave  2268 2176 0 0 C 1122.44 60.8783 t 0 r /Helvetica findfont 79.9028 sf 0 0 m ( [GeV]) show NC gr 
 gsave  2268 2176 0 0 C 1088.2 38.0489 t 0 r /Helvetica findfont 53.2685 sf 0 0 m (S) show NC gr 
 gsave  2268 2176 0 0 C 1023.52 60.8783 t 0 r /Helvetica findfont 79.9028 sf 0 0 m (m) show NC gr  350 267 m -49 Y s 392 242 m -24 Y s 434 242 m -24 Y s 476 242 m -24 Y s 518 242 m -24 Y s 560 267 m -49 Y s 602 242 m -24 Y s 644 242 m -24 Y s 686 242
 m -24 Y s 728 242 m -24 Y s 770 267 m -49 Y s 812 242 m -24 Y s 854 242 m -24 Y s 896 242 m -24 Y s 938 242 m -24 Y s 980 267 m -49 Y s 1022 242 m -24 Y s 1065 242 m -24 Y s 1107 242 m -24 Y s 1149 242 m -24 Y s 1191 267 m -49 Y s 1233 242 m -24 Y s
 1275 242 m -24 Y s 1317 242 m -24 Y s 1359 242 m -24 Y s 1401 267 m -49 Y s 1443 242 m -24 Y s 1485 242 m -24 Y s 1527 242 m -24 Y s 1569 242 m -24 Y s 1611 267 m -49 Y s 1653 242 m -24 Y s 1695 242 m -24 Y s 1737 242 m -24 Y s 1779 242 m -24 Y s
 1821 267 m -49 Y s 1863 242 m -24 Y s 1905 242 m -24 Y s 1947 242 m -24 Y s 1989 242 m -24 Y s 2031 267 m -49 Y s 350 267 m -49 Y s 2031 267 m -49 Y s
 gsave  2268 2176 0 0 C 289.172 148.391 t 0 r /Helvetica findfont 72.293 sf 0 0 m (200) show NC gr 
 gsave  2268 2176 0 0 C 498.441 148.391 t 0 r /Helvetica findfont 72.293 sf 0 0 m (300) show NC gr 
 gsave  2268 2176 0 0 C 707.71 148.391 t 0 r /Helvetica findfont 72.293 sf 0 0 m (400) show NC gr 
 gsave  2268 2176 0 0 C 916.979 148.391 t 0 r /Helvetica findfont 72.293 sf 0 0 m (500) show NC gr 
 gsave  2268 2176 0 0 C 1126.25 148.391 t 0 r /Helvetica findfont 72.293 sf 0 0 m (600) show NC gr 
 gsave  2268 2176 0 0 C 1339.32 148.391 t 0 r /Helvetica findfont 72.293 sf 0 0 m (700) show NC gr 
 gsave  2268 2176 0 0 C 1548.59 148.391 t 0 r /Helvetica findfont 72.293 sf 0 0 m (800) show NC gr 
 gsave  2268 2176 0 0 C 1757.86 148.391 t 0 r /Helvetica findfont 72.293 sf 0 0 m (900) show NC gr 
 gsave  2268 2176 0 0 C 1948.11 148.391 t 0 r /Helvetica findfont 72.293 sf 0 0 m (1000) show NC gr  340 218 m 1741 Y s
 gsave  2268 2176 0 0 C 156.001 1369.76 t 90 r /Helvetica findfont 79.9028 sf 0 0 m (ggF  acceptance) show NC gr  395 218 m -55 X s 367 261 m -27 X s 367 305 m -27 X s 367 348 m -27 X s 367 392 m -27 X s 395 435 m -55 X s 367 479 m -27 X s 367 522 m
 -27 X s 367 566 m -27 X s 367 609 m -27 X s 395 653 m -55 X s 367 696 m -27 X s 367 740 m -27 X s 367 784 m -27 X s 367 827 m -27 X s 395 871 m -55 X s 367 914 m -27 X s 367 958 m -27 X s 367 1001 m -27 X s 367 1045 m -27 X s 395 1088 m -55 X s 367
 1132 m -27 X s 367 1175 m -27 X s 367 1219 m -27 X s 367 1262 m -27 X s 395 1306 m -55 X s 367 1349 m -27 X s 367 1393 m -27 X s 367 1436 m -27 X s 367 1480 m -27 X s 395 1523 m -55 X s 367 1567 m -27 X s 367 1611 m -27 X s 367 1654 m -27 X s 367
 1698 m -27 X s 395 1741 m -55 X s 367 1785 m -27 X s 367 1828 m -27 X s 367 1872 m -27 X s 367 1915 m -27 X s 395 1959 m -55 X s
 gsave  2268 2176 0 0 C 289.172 194.05 t 0 r /Helvetica findfont 72.293 sf 0 0 m (0) show NC gr 
 gsave  2268 2176 0 0 C 186.44 410.929 t 0 r /Helvetica findfont 72.293 sf 0 0 m (0.05) show NC gr 
 gsave  2268 2176 0 0 C 239.708 627.807 t 0 r /Helvetica findfont 72.293 sf 0 0 m (0.1) show NC gr 
 gsave  2268 2176 0 0 C 186.44 844.686 t 0 r /Helvetica findfont 72.293 sf 0 0 m (0.15) show NC gr 
 gsave  2268 2176 0 0 C 228.294 1061.57 t 0 r /Helvetica findfont 72.293 sf 0 0 m (0.2) show NC gr 
 gsave  2268 2176 0 0 C 186.44 1282.25 t 0 r /Helvetica findfont 72.293 sf 0 0 m (0.25) show NC gr 
 gsave  2268 2176 0 0 C 228.294 1499.13 t 0 r /Helvetica findfont 72.293 sf 0 0 m (0.3) show NC gr 
 gsave  2268 2176 0 0 C 186.44 1716.01 t 0 r /Helvetica findfont 72.293 sf 0 0 m (0.35) show NC gr 
 gsave  2268 2176 0 0 C 228.294 1932.89 t 0 r /Helvetica findfont 72.293 sf 0 0 m (0.4) show NC gr  0.8 0 1 c 350 834 m 6 Y s 343 840 m 15 X s 350 812 m -6 Y s 343 806 m 15 X s 560 863 m 7 Y s 553 870 m 15 X s 560 840 m -7 Y s 553 833 m 15 X s 770
 900 m 8 Y s 763 908 m 15 X s 770 878 m -8 Y s 763 870 m 15 X s 980 912 m 8 Y s 973 920 m 15 X s 980 889 m -8 Y s 973 881 m 15 X s 1191 974 m 9 Y s 1183 983 m 15 X s 1191 951 m -9 Y s 1183 942 m 15 X s 1401 926 m 8 Y s 1393 934 m 15 X s 1401 904 m -8
 Y s 1393 896 m 15 X s 1611 948 m 8 Y s 1603 956 m 15 X s 1611 925 m -8 Y s 1603 917 m 15 X s 1821 945 m 8 Y s 1813 953 m 15 X s 1821 923 m -8 Y s 1813 915 m 15 X s 2031 964 m 9 Y s 2023 973 m 15 X s 2031 941 m -9 Y s 2023 932 m 15 X s black 0.8 0 1
 c /w 23 def /w2 {w 2 div} def /w3 {w 3 div} def 350 823 560 851 770 889 980 901 1191 963 1401 915 1611 936 1821 934 2031 952 9 { m20} R 6 lw 0.95 0.95 0.95 c black 0.8 0 1 c 349 823 m 17 3 d 17 3 d 17 3 d 17 3 d 17 2 d 17 3 d 17 3 d 17 2 d 17 3 d 17
 3 d 17 2 d 17 3 d 17 2 d 17 2 d 17 3 d 17 2 d 17 3 d 17 2 d 17 2 d 17 2 d 17 2 d 17 3 d 17 2 d 17 2 d 17 2 d 17 2 d 17 2 d 17 2 d 17 2 d 17 2 d 17 1 d 17 2 d 17 2 d 17 2 d 17 1 d 17 2 d 17 2 d 17 1 d 17 2 d 17 1 d 17 2 d 17 1 d 17 2 d 17 1 d 17 1 d
 17 2 d 17 1 d 17 1 d 17 1 d s 1182 923 m 17 2 d 17 1 d 17 1 d 17 1 d 17 1 d 17 1 d 17 1 d 17 1 d 17 1 d 17 1 d 17 X 17 1 d 17 1 d 17 1 d 17 X 17 1 d 17 1 d 17 X 17 1 d 17 X 17 1 d 17 X 17 1 d 34 X 17 1 d 51 X 17 1 d 153 X 17 -1 d 51 X 17 -1 d 34 X
 17 -1 d 17 X 17 -1 d s 2015 940 m 17 X s 0.2 1 0 c 3 lw 350 873 m 11 Y s 343 884 m 15 X s 350 850 m -10 Y s 343 840 m 15 X s 560 847 m 9 Y s 553 856 m 15 X s 560 824 m -9 Y s 553 815 m 15 X s 770 860 m 10 Y s 763 870 m 15 X s 770 837 m -10 Y s 763
 827 m 15 X s 980 936 m 11 Y s 973 947 m 15 X s 980 913 m -11 Y s 973 902 m 15 X s 1191 986 m 12 Y s 1183 998 m 15 X s 1191 963 m -12 Y s 1183 951 m 15 X s 1401 954 m 11 Y s 1393 965 m 15 X s 1401 931 m -12 Y s 1393 919 m 15 X s 1611 949 m 11 Y s
 1603 960 m 15 X s 1611 927 m -11 Y s 1603 916 m 15 X s 1821 975 m 12 Y s 1813 987 m 15 X s 1821 953 m -12 Y s 1813 941 m 15 X s 2031 1019 m 13 Y s 2023 1032 m 15 X s 2031 996 m -12 Y s 2023 984 m 15 X s black 0.2 1 0 c 350 862 560 836 770 848 980
 925 1191 974 1401 942 1611 938 1821 964 2031 1008 9 { m24} R 6 lw 0.95 0.95 0.95 c black 0.2 1 0 c 349 837 m 17 2 d 17 2 d 17 2 d 17 2 d 17 2 d 17 2 d 17 1 d 17 2 d 17 2 d 17 2 d 17 2 d 17 2 d 17 2 d 17 1 d 17 2 d 17 2 d 17 2 d 17 2 d 17 1 d 17 2 d
 17 2 d 17 2 d 17 2 d 17 1 d 17 2 d 17 2 d 17 2 d 17 1 d 17 2 d 17 2 d 17 1 d 17 2 d 17 2 d 17 2 d 17 1 d 17 2 d 17 2 d 17 1 d 17 2 d 17 2 d 17 1 d 17 2 d 17 1 d 17 2 d 17 2 d 17 1 d 17 2 d 17 2 d 17 1 d s 1182 923 m 17 2 d 17 1 d 17 2 d 17 1 d 17 2
 d 17 2 d 17 1 d 17 2 d 17 1 d 17 2 d 17 1 d 17 2 d 17 1 d 17 2 d 17 1 d 17 2 d 17 1 d 17 2 d 17 1 d 17 2 d 17 1 d 17 1 d 17 2 d 17 1 d 17 2 d 17 1 d 17 2 d 17 1 d 17 1 d 17 2 d 17 1 d 17 2 d 17 1 d 17 1 d 17 2 d 17 1 d 17 1 d 17 2 d 17 1 d 17 1 d 17
 2 d 17 1 d 17 1 d 17 2 d 17 1 d 17 1 d 17 1 d 17 2 d 17 1 d s 2015 993 m 17 1 d s 1 0.8 0 c 3 lw 350 649 m 3 Y s 343 652 m 15 X s 350 626 m -3 Y s 343 623 m 15 X s 560 677 m 4 Y s 553 681 m 15 X s 560 654 m -3 Y s 553 651 m 15 X s 770 740 m 5 Y s
 763 745 m 15 X s 770 717 m -5 Y s 763 712 m 15 X s 980 772 m 6 Y s 973 778 m 15 X s 980 749 m -6 Y s 973 743 m 15 X s 1191 833 m 7 Y s 1183 840 m 15 X s 1191 811 m -7 Y s 1183 804 m 15 X s 1401 797 m 5 Y s 1393 802 m 15 X s 1401 774 m -5 Y s 1393
 769 m 15 X s 1611 866 m 7 Y s 1603 873 m 15 X s 1611 843 m -7 Y s 1603 836 m 15 X s 1821 856 m 6 Y s 1813 862 m 15 X s 1821 833 m -7 Y s 1813 826 m 15 X s 2031 859 m 7 Y s 2023 866 m 15 X s 2031 836 m -8 Y s 2023 828 m 15 X s black 1 0.8 0 c 350 638
 560 666 770 728 980 760 1191 822 1401 785 1611 854 1821 844 2031 847 9 { m21} R 6 lw 0.95 0.95 0.95 c black 1 0.8 0 c 349 630 m 17 4 d 17 4 d 17 4 d 17 5 d 17 4 d 17 4 d 17 4 d 17 4 d 17 4 d 17 4 d 17 4 d 17 4 d 17 4 d 17 3 d 17 4 d 17 4 d 17 4 d 17
 3 d 17 4 d 17 3 d 17 4 d 17 3 d 17 4 d 17 3 d 17 3 d 17 4 d 17 3 d 17 3 d 17 3 d 17 3 d 17 3 d 17 3 d 17 3 d 17 3 d 17 3 d 17 3 d 17 3 d 17 2 d 17 3 d 17 3 d 17 2 d 17 3 d 17 2 d 17 3 d 17 2 d 17 3 d 17 2 d 17 2 d 17 3 d s 1182 792 m 17 2 d 17 2 d
 17 2 d 17 2 d 17 2 d 17 2 d 17 2 d 17 2 d 17 2 d 17 2 d 17 2 d 17 1 d 17 2 d 17 2 d 17 1 d 17 2 d 17 1 d 17 2 d 17 1 d 17 2 d 17 1 d 17 1 d 17 2 d 17 1 d 17 1 d 17 1 d 17 1 d 17 1 d 17 1 d 17 1 d 17 1 d 17 1 d 17 1 d 17 1 d 17 1 d 17 X 17 1 d 17 1 d
 17 X 17 1 d 17 X 17 1 d 34 X 17 1 d 68 X s 2015 849 m 17 1 d s 0 0.2 1 c 3 lw 350 663 m 6 Y s 343 669 m 15 X s 350 640 m -6 Y s 343 634 m 15 X s 560 698 m 7 Y s 553 705 m 15 X s 560 675 m -7 Y s 553 668 m 15 X s 770 756 m 8 Y s 763 764 m 15 X s 770
 733 m -9 Y s 763 724 m 15 X s 980 767 m 8 Y s 973 775 m 15 X s 980 744 m -8 Y s 973 736 m 15 X s 1191 825 m 9 Y s 1183 834 m 15 X s 1191 802 m -9 Y s 1183 793 m 15 X s 1401 813 m 9 Y s 1393 822 m 15 X s 1401 790 m -9 Y s 1393 781 m 15 X s 1611 848 m
 10 Y s 1603 858 m 15 X s 1611 826 m -10 Y s 1603 816 m 15 X s 1821 855 m 9 Y s 1813 864 m 15 X s 1821 832 m -10 Y s 1813 822 m 15 X s 2031 843 m 10 Y s 2023 853 m 15 X s 2031 820 m -9 Y s 2023 811 m 15 X s black 0 0.2 1 c 350 652 560 687 770 744 980
 756 1191 813 1401 802 1611 837 1821 843 2031 832 9 { m25} R 6 lw 0.95 0.95 0.95 c black 0 0.2 1 c 349 647 m 17 4 d 17 4 d 17 4 d 17 4 d 17 4 d 17 4 d 17 4 d 17 4 d 17 3 d 17 4 d 17 4 d 17 3 d 17 4 d 17 3 d 17 4 d 17 3 d 17 3 d 17 4 d 17 3 d 17 3 d
 17 3 d 17 4 d 17 3 d 17 3 d 17 3 d 17 3 d 17 3 d 17 3 d 17 2 d 17 3 d 17 3 d 17 3 d 17 2 d 17 3 d 17 3 d 17 2 d 17 3 d 17 2 d 17 2 d 17 3 d 17 2 d 17 2 d 17 3 d 17 2 d 17 2 d 17 2 d 17 2 d 17 2 d 17 2 d s 1182 795 m 17 2 d 17 2 d 17 2 d 17 1 d 17 2
 d 17 2 d 17 1 d 17 2 d 17 2 d 17 1 d 17 2 d 17 1 d 17 1 d 17 2 d 17 1 d 17 1 d 17 2 d 17 1 d 17 1 d 17 1 d 17 1 d 17 1 d 17 1 d 17 1 d 17 1 d 17 1 d 17 X 17 1 d 17 1 d 17 X 17 1 d 17 1 d 17 X 17 1 d 34 X 17 1 d 51 X 17 1 d 119 X 17 -1 d s 2015 837 m
 17 X s 0 0.6 0 c 3 lw 350 1257 m 13 Y s 343 1270 m 15 X s 350 1234 m -12 Y s 343 1222 m 15 X s 560 1354 m 14 Y s 553 1368 m 15 X s 560 1332 m -14 Y s 553 1318 m 15 X s 770 1398 m 15 Y s 763 1413 m 15 X s 770 1376 m -14 Y s 763 1362 m 15 X s 980 1450
 m 14 Y s 973 1464 m 15 X s 980 1427 m -14 Y s 973 1413 m 15 X s 1191 1487 m 14 Y s 1183 1501 m 15 X s 1191 1465 m -14 Y s 1183 1451 m 15 X s 1401 1563 m 16 Y s 1393 1579 m 15 X s 1401 1540 m -16 Y s 1393 1524 m 15 X s 1611 1573 m 15 Y s 1603 1588 m
 15 X s 1611 1550 m -15 Y s 1603 1535 m 15 X s 1821 1607 m 16 Y s 1813 1623 m 15 X s 1821 1584 m -16 Y s 1813 1568 m 15 X s 2031 1594 m 16 Y s 2023 1610 m 15 X s 2031 1571 m -16 Y s 2023 1555 m 15 X s black 0 0.6 0 c 350 1246 560 1343 770 1387 980
 1438 1191 1476 1401 1552 1611 1561 1821 1595 2031 1582 9 { m22} R 6 lw 0.95 0.95 0.95 c black 0 0.6 0 c 349 1251 m 17 6 d 17 7 d 17 6 d 17 6 d 17 6 d 17 6 d 17 6 d 17 6 d 17 6 d 17 6 d 17 5 d 17 6 d 17 6 d 17 5 d 17 6 d 17 5 d 17 6 d 17 5 d 17 5 d
 17 5 d 17 6 d 17 5 d 17 5 d 17 5 d 17 5 d 17 4 d 17 5 d 17 5 d 17 5 d 17 4 d 17 5 d 17 4 d 17 5 d 17 4 d 17 5 d 17 4 d 17 4 d 17 4 d 17 4 d 17 4 d 17 4 d 17 4 d 17 4 d 17 4 d 17 4 d 17 3 d 17 4 d 17 4 d 17 3 d s 1182 1492 m 17 4 d 17 3 d 17 3 d 17 4
 d 17 3 d 17 3 d 17 3 d 17 3 d 17 3 d 17 3 d 17 3 d 17 3 d 17 3 d 17 2 d 17 3 d 17 2 d 17 3 d 17 2 d 17 3 d 17 2 d 17 2 d 17 3 d 17 2 d 17 2 d 17 2 d 17 2 d 17 2 d 17 2 d 17 2 d 17 2 d 17 1 d 17 2 d 17 1 d 17 2 d 17 1 d 17 2 d 17 1 d 17 2 d 17 1 d 17
 1 d 17 1 d 17 1 d 17 1 d 17 1 d 17 1 d 17 1 d 17 1 d 17 X 17 1 d s 2015 1593 m 17 1 d s 0.6 0 0.6 c 3 lw 350 1214 m 15 Y s 343 1229 m 15 X s 350 1191 m -15 Y s 343 1176 m 15 X s 560 1337 m 16 Y s 553 1353 m 15 X s 560 1314 m -16 Y s 553 1298 m 15 X
 s 770 1432 m 18 Y s 763 1450 m 15 X s 770 1409 m -18 Y s 763 1391 m 15 X s 980 1448 m 18 Y s 973 1466 m 15 X s 980 1426 m -18 Y s 973 1408 m 15 X s 1191 1512 m 19 Y s 1183 1531 m 15 X s 1191 1489 m -18 Y s 1183 1471 m 15 X s 1401 1539 m 19 Y s 1393
 1558 m 15 X s 1401 1516 m -19 Y s 1393 1497 m 15 X s 1611 1570 m 20 Y s 1603 1590 m 15 X s 1611 1547 m -19 Y s 1603 1528 m 15 X s 1821 1587 m 20 Y s 1813 1607 m 15 X s 1821 1564 m -20 Y s 1813 1544 m 15 X s 2031 1582 m 19 Y s 2023 1601 m 15 X s 2031
 1559 m -20 Y s 2023 1539 m 15 X s black 0.6 0 0.6 c 350 1202 560 1326 770 1420 980 1437 1191 1501 1401 1528 1611 1559 1821 1576 2031 1570 9 { m26} R 6 lw 0.95 0.95 0.95 c black 0.6 0 0.6 c 349 1218 m 17 8 d 17 8 d 17 8 d 17 8 d 17 7 d 17 8 d 17 7 d
 17 8 d 17 7 d 17 7 d 17 7 d 17 7 d 17 7 d 17 7 d 17 6 d 17 7 d 17 6 d 17 7 d 17 6 d 17 6 d 17 7 d 17 6 d 17 6 d 17 6 d 17 5 d 17 6 d 17 6 d 17 5 d 17 6 d 17 5 d 17 5 d 17 5 d 17 5 d 17 5 d 17 5 d 17 5 d 17 5 d 17 4 d 17 5 d 17 4 d 17 5 d 17 4 d 17 4
 d 17 4 d 17 4 d 17 4 d 17 4 d 17 3 d 17 4 d s 1182 1502 m 17 3 d 17 4 d 17 3 d 17 3 d 17 4 d 17 3 d 17 3 d 17 2 d 17 3 d 17 3 d 17 3 d 17 2 d 17 2 d 17 3 d 17 2 d 17 2 d 17 2 d 17 2 d 17 2 d 17 2 d 17 1 d 17 2 d 17 2 d 17 1 d 17 1 d 17 2 d 17 1 d 17
 1 d 17 1 d 17 1 d 17 X 17 1 d 17 1 d 34 X 17 1 d 102 X 17 -1 d 34 X 17 -1 d 17 -1 d 17 -1 d 17 X s 2015 1567 m 17 -1 d s 1 0 0 c 3 lw black 1 0 0 c 350 280 560 292 770 319 980 352 1191 371 1401 399 1611 408 1821 419 2031 424 9 { m23} R 6 lw 0.95
 0.95 0.95 c black 1 0 0 c 349 274 m 17 2 d 17 2 d 17 2 d 17 3 d 17 2 d 17 2 d 17 2 d 17 2 d 17 2 d 17 2 d 17 2 d 17 2 d 17 2 d 17 2 d 17 2 d 17 3 d 17 2 d 17 1 d 17 2 d 17 2 d 17 2 d 17 2 d 17 2 d 17 2 d 17 2 d 17 2 d 17 2 d 17 2 d 17 2 d 17 1 d 17
 2 d 17 2 d 17 2 d 17 2 d 17 1 d 17 2 d 17 2 d 17 2 d 17 1 d 17 2 d 17 2 d 17 1 d 17 2 d 17 2 d 17 1 d 17 2 d 17 2 d 17 1 d 17 2 d s 1182 367 m 17 2 d 17 1 d 17 2 d 17 1 d 17 2 d 17 1 d 17 2 d 17 1 d 17 2 d 17 1 d 17 2 d 17 1 d 17 2 d 17 1 d 17 2 d
 17 1 d 17 1 d 17 2 d 17 1 d 17 1 d 17 2 d 17 1 d 17 1 d 17 2 d 17 1 d 17 1 d 17 2 d 17 1 d 17 1 d 17 1 d 17 2 d 17 1 d 17 1 d 17 1 d 17 1 d 17 2 d 17 1 d 17 1 d 17 1 d 17 1 d 17 1 d 17 1 d 17 1 d 17 1 d 17 1 d 17 1 d 17 1 d 17 1 d 17 1 d s 2015 430
 m 17 1 d s 0 1 1 c 3 lw 1611 437 m 2 Y s 1603 439 m 15 X s 1611 415 m -2 Y s 1603 413 m 15 X s 1821 418 m s 1813 418 m 15 X s 1821 395 m s 1813 395 m 15 X s 2031 406 m s 2023 406 m 15 X s 2031 384 m -1 Y s 2023 383 m 15 X s black 0 1 1 c 350 266 560
 302 770 313 980 332 1191 344 1401 376 1611 426 1821 407 2031 395 9 { m27} R 6 lw 0.95 0.95 0.95 c black 0 1 1 c 349 266 m 17 3 d 17 2 d 17 2 d 17 2 d 17 2 d 17 2 d 17 3 d 17 2 d 17 2 d 17 2 d 17 2 d 17 2 d 17 2 d 17 2 d 17 2 d 17 2 d 17 2 d 17 2 d
 17 2 d 17 2 d 17 2 d 17 2 d 17 1 d 17 2 d 17 2 d 17 2 d 17 2 d 17 2 d 17 1 d 17 2 d 17 2 d 17 2 d 17 1 d 17 2 d 17 2 d 17 1 d 17 2 d 17 2 d 17 1 d 17 2 d 17 1 d 17 2 d 17 2 d 17 1 d 17 2 d 17 1 d 17 2 d 17 1 d 17 2 d s 1182 357 m 17 1 d 17 2 d 17 1
 d 17 1 d 17 2 d 17 1 d 17 2 d 17 1 d 17 1 d 17 2 d 17 1 d 17 1 d 17 1 d 17 2 d 17 1 d 17 1 d 17 1 d 17 2 d 17 1 d 17 1 d 17 1 d 17 1 d 17 1 d 17 1 d 17 1 d 17 2 d 17 1 d 17 1 d 17 1 d 17 1 d 17 1 d 17 1 d 17 1 d 17 X 17 1 d 17 1 d 17 1 d 17 1 d 17 1
 d 17 1 d 17 1 d 17 X 17 1 d 17 1 d 17 1 d 17 1 d 17 X 17 1 d 17 1 d s 2015 410 m 17 1 d s 0.8 0 1 c 9 lw 1519 1850 m 68 X s black
 gsave  2268 2176 0 0 C 1811.13 1830.15 t 0 r /Helvetica findfont 79.9028 sf 0 0 m (>12) show NC gr 
 gsave  2268 2176 0 0 C 1765.47 1830.15 t 0 r /Symbol findfont 79.9028 sf 0 0 m (m) show NC gr 
 gsave  2268 2176 0 0 C 1719.81 1830.15 t 0 r /Helvetica findfont 79.9028 sf 0 0 m (, ) show NC gr 
 gsave  2268 2176 0 0 C 1674.15 1830.15 t 0 r /Symbol findfont 79.9028 sf 0 0 m (m) show NC gr 
 gsave  2268 2176 0 0 C 1632.3 1830.15 t 0 r /Helvetica findfont 79.9028 sf 0 0 m (4) show NC gr  0.2 1 0 c 1519 1741 m 68 X s black
 gsave  2268 2176 0 0 C 1811.13 1719.81 t 0 r /Helvetica findfont 79.9028 sf 0 0 m (<=12) show NC gr 
 gsave  2268 2176 0 0 C 1765.47 1719.81 t 0 r /Symbol findfont 79.9028 sf 0 0 m (m) show NC gr 
 gsave  2268 2176 0 0 C 1719.81 1719.81 t 0 r /Helvetica findfont 79.9028 sf 0 0 m (, ) show NC gr 
 gsave  2268 2176 0 0 C 1674.15 1719.81 t 0 r /Symbol findfont 79.9028 sf 0 0 m (m) show NC gr 
 gsave  2268 2176 0 0 C 1632.3 1719.81 t 0 r /Helvetica findfont 79.9028 sf 0 0 m (4) show NC gr  1 0.8 0 c 1519 1632 m 68 X s black
 gsave  2268 2176 0 0 C 1811.13 1613.27 t 0 r /Helvetica findfont 79.9028 sf 0 0 m (>12) show NC gr 
 gsave  2268 2176 0 0 C 1765.47 1613.27 t 0 r /Symbol findfont 79.9028 sf 0 0 m (m) show NC gr 
 gsave  2268 2176 0 0 C 1632.3 1613.27 t 0 r /Helvetica findfont 79.9028 sf 0 0 m (4e, ) show NC gr  0 0.2 1 c 1519 1523 m 68 X s black
 gsave  2268 2176 0 0 C 1811.13 1502.93 t 0 r /Helvetica findfont 79.9028 sf 0 0 m (<=12) show NC gr 
 gsave  2268 2176 0 0 C 1765.47 1502.93 t 0 r /Symbol findfont 79.9028 sf 0 0 m (m) show NC gr 
 gsave  2268 2176 0 0 C 1632.3 1502.93 t 0 r /Helvetica findfont 79.9028 sf 0 0 m (4e, ) show NC gr  0 0.6 0 c 1519 1415 m 68 X s black
 gsave  2268 2176 0 0 C 1898.64 1396.4 t 0 r /Helvetica findfont 79.9028 sf 0 0 m (>12) show NC gr 
 gsave  2268 2176 0 0 C 1852.98 1396.4 t 0 r /Symbol findfont 79.9028 sf 0 0 m (m) show NC gr 
 gsave  2268 2176 0 0 C 1719.81 1396.4 t 0 r /Helvetica findfont 79.9028 sf 0 0 m (2e, ) show NC gr 
 gsave  2268 2176 0 0 C 1674.15 1396.4 t 0 r /Symbol findfont 79.9028 sf 0 0 m (m) show NC gr 
 gsave  2268 2176 0 0 C 1632.3 1396.4 t 0 r /Helvetica findfont 79.9028 sf 0 0 m (2) show NC gr  0.6 0 0.6 c 1519 1306 m 68 X s black
 gsave  2268 2176 0 0 C 1898.64 1286.05 t 0 r /Helvetica findfont 79.9028 sf 0 0 m (<=12) show NC gr 
 gsave  2268 2176 0 0 C 1852.98 1286.05 t 0 r /Symbol findfont 79.9028 sf 0 0 m (m) show NC gr 
 gsave  2268 2176 0 0 C 1719.81 1286.05 t 0 r /Helvetica findfont 79.9028 sf 0 0 m (2e, ) show NC gr 
 gsave  2268 2176 0 0 C 1674.15 1286.05 t 0 r /Symbol findfont 79.9028 sf 0 0 m (m) show NC gr 
 gsave  2268 2176 0 0 C 1632.3 1286.05 t 0 r /Helvetica findfont 79.9028 sf 0 0 m (2) show NC gr  1 0 0 c 1519 1197 m 68 X s black
 gsave  2268 2176 0 0 C 1875.81 1175.71 t 0 r /Helvetica findfont 79.9028 sf 0 0 m (>12) show NC gr 
 gsave  2268 2176 0 0 C 1830.15 1175.71 t 0 r /Symbol findfont 79.9028 sf 0 0 m (m) show NC gr 
 gsave  2268 2176 0 0 C 1632.3 1175.71 t 0 r /Helvetica findfont 79.9028 sf 0 0 m (VBF, ) show NC gr  0 1 1 c 1519 1088 m 68 X s black
 gsave  2268 2176 0 0 C 1875.81 1069.18 t 0 r /Helvetica findfont 79.9028 sf 0 0 m (<=12) show NC gr 
 gsave  2268 2176 0 0 C 1830.15 1069.18 t 0 r /Symbol findfont 79.9028 sf 0 0 m (m) show NC gr 
 gsave  2268 2176 0 0 C 1632.3 1069.18 t 0 r /Helvetica findfont 79.9028 sf 0 0 m (VBF, ) show NC gr 
 gr  gr showpage
end
%%EOF
