%!PS-Adobe-2.0 EPSF-2.0
%%BoundingBox:  0 0 567 545
%%Title: hist_gg_log.eps: canvas
%%Creator: ROOT Version 6.06/02
%%CreationDate: Mon Mar  6 17:15:05 2017
%%DocumentNeededResources: ProcSet (FontSetInit)
%%EndComments
%%BeginProlog
80 dict begin
/s {stroke} def /l {lineto} def /m {moveto} def /t {translate} def
/r {rotate} def /rl {roll}  def /R {repeat} def
/d {rlineto} def /rm {rmoveto} def /gr {grestore} def /f {eofill} def
/c {setrgbcolor} def /black {0 setgray} def /sd {setdash} def
/cl {closepath} def /sf {scalefont setfont} def /lw {setlinewidth} def
/box {m dup 0 exch d exch 0 d 0 exch neg d cl} def
/NC{systemdict begin initclip end}def/C{NC box clip newpath}def
/bl {box s} def /bf {gsave box gsave f grestore 1 lw [] 0 sd s grestore} def /Y { 0 exch d} def /X { 0 d} def 
/K {{pop pop 0 moveto} exch kshow} bind def
/ita {/ang 15 def gsave [1 0 ang dup sin exch cos div 1 0 0] concat} def 
/mp {newpath /y exch def /x exch def} def
/side {[w .77 mul w .23 mul] .385 w mul sd w 0 l currentpoint t -144 r} def
/mr {mp x y w2 0 360 arc} def /m24 {mr s} def /m20 {mr f} def
/mb {mp x y w2 add m w2 neg 0 d 0 w neg d w 0 d 0 w d cl} def
/mt {mp x y w2 add m w2 neg w neg d w 0 d cl} def
/m21 {mb f} def /m25 {mb s} def /m22 {mt f} def /m26{mt s} def
/m23 {mp x y w2 sub m w2 w d w neg 0 d cl f} def
/m27 {mp x y w2 add m w3 neg w2 neg d w3 w2 neg d w3 w2 d cl s} def
/m28 {mp x w2 sub y w2 sub w3 add m w3 0 d  0 w3 neg d w3 0 d 0 w3 d w3 0 d  0 w3 d w3 neg 0 d 0 w3 d w3 neg 0 d 0 w3 neg d w3 neg 0 d cl s } def
/m29 {mp gsave x w2 sub y w2 add w3 sub m currentpoint t 4 {side} repeat cl fill gr} def
/m30 {mp gsave x w2 sub y w2 add w3 sub m currentpoint t 4 {side} repeat cl s gr} def
/m31 {mp x y w2 sub m 0 w d x w2 sub y m w 0 d x w2 sub y w2 add m w w neg d x w2 sub y w2 sub m w w d s} def
/m32 {mp x y w2 sub m w2 w d w neg 0 d cl s} def
/m33 {mp x y w2 add m w3 neg w2 neg d w3 w2 neg d w3 w2 d cl f} def
/m34 {mp x w2 sub y w2 sub w3 add m w3 0 d  0 w3 neg d w3 0 d 0 w3 d w3 0 d  0 w3 d w3 neg 0 d 0 w3 d w3 neg 0 d 0 w3 neg d w3 neg 0 d cl f } def
/m2 {mp x y w2 sub m 0 w d x w2 sub y m w 0 d s} def
/m5 {mp x w2 sub y w2 sub m w w d x w2 sub y w2 add m w w neg d s} def
%%IncludeResource: ProcSet (FontSetInit)
%%IncludeResource: font Times-Roman
%%IncludeResource: font Times-Italic
%%IncludeResource: font Times-Bold
%%IncludeResource: font Times-BoldItalic
%%IncludeResource: font Helvetica
%%IncludeResource: font Helvetica-Oblique
%%IncludeResource: font Helvetica-Bold
%%IncludeResource: font Helvetica-BoldOblique
%%IncludeResource: font Courier
%%IncludeResource: font Courier-Oblique
%%IncludeResource: font Courier-Bold
%%IncludeResource: font Courier-BoldOblique
%%IncludeResource: font Symbol
%%IncludeResource: font ZapfDingbats
/reEncode {exch findfont dup length dict begin {1 index /FID eq  {pop pop} {def} ifelse } forall /Encoding exch def currentdict end dup /FontName get exch definefont pop } def [/Times-Bold /Times-Italic /Times-BoldItalic /Helvetica /Helvetica-Oblique
 /Helvetica-Bold /Helvetica-BoldOblique /Courier /Courier-Oblique /Courier-Bold /Courier-BoldOblique /Times-Roman /AvantGarde-Book /AvantGarde-BookOblique /AvantGarde-Demi /AvantGarde-DemiOblique /Bookman-Demi /Bookman-DemiItalic /Bookman-Light
 /Bookman-LightItalic /Helvetica-Narrow /Helvetica-Narrow-Bold /Helvetica-Narrow-BoldOblique /Helvetica-Narrow-Oblique /NewCenturySchlbk-Roman /NewCenturySchlbk-Bold /NewCenturySchlbk-BoldItalic /NewCenturySchlbk-Italic /Palatino-Bold
 /Palatino-BoldItalic /Palatino-Italic /Palatino-Roman ] {ISOLatin1Encoding reEncode } forall
%%EndProlog
%%BeginSetup
%%EndSetup
newpath  gsave  .25 .25 scale  gsave  0 0 t black[  ] 0 sd 3 lw 1 1 1 c 2268 2180 0 0 bf black 1 1 1 c 1791 1722 363 349 bf black 1791 1722 363 349 bl 1 1 1 c 1791 1722 363 349 bf black 1791 1722 363 349 bl 1 0 0 c 6 lw 1 1 1 c 1 0 0 c 363 349 m 199
 Y 376 X 42 Y 156 X 28 Y 101 X 22 Y 73 X 19 Y 59 X 16 Y 48 X 16 Y 42 X 14 Y 36 X 13 Y 32 X 12 Y 29 X 12 Y 26 X 11 Y 24 X 11 Y 22 X 11 Y 20 X 10 Y 19 X 10 Y 18 X 10 Y 17 X 9 Y 16 X 9 Y 15 X 9 Y 14 X 10 Y 14 X 9 Y 13 X 8 Y 12 X 9 Y 12 X 9 Y 11 X 8 Y 11
 X 9 Y 11 X 8 Y 10 X 8 Y 10 X 8 Y 9 X 8 Y 10 X 8 Y 9 X 9 Y 8 X 7 Y 9 X 9 Y 8 X 7 Y 8 X 9 Y 7 X 7 Y 8 X 8 Y 7 X 8 Y 7 X 7 Y 7 X 9 Y 7 X 7 Y 6 X 7 Y 7 X 10 Y 6 X 5 Y 6 X 8 Y 6 X 10 Y 6 X 6 Y 6 X 7 Y 6 X 10 Y 5 X 6 Y 6 X 7 Y 5 X 9 Y 6 X 8 Y 5 X 6 Y 5 X
 8 Y 5 X 10 Y 5 X 6 Y 4 X 7 Y 5 X 8 Y 5 X 10 Y 4 X 6 Y 5 X 7 Y 4 X 8 Y 5 X 10 Y 4 X 7 Y 4 X 6 Y 5 X 8 Y 4 X 10 Y 4 X 9 Y 4 X 6 Y 4 X 7 Y 4 X 8 Y 3 X 11 Y 4 X 7 Y 4 X 7 Y 4 X 7 Y 3 X 9 Y 4 X 11 Y 3 X 8 Y 4 X 6 Y 3 X 7 Y 4 X 9 Y 3 X 11 Y 3 X 10 Y 4 X 6
 Y 3 X 7 Y 3 X 8 Y 3 X 10 Y 4 X 12 Y 3 X 9 Y 3 X 6 Y 3 X 7 Y 3 X 9 Y 3 X 10 Y 3 X 13 Y 3 X 9 Y 3 X 6 Y 3 X 7 Y 2 X 9 Y 3 X 10 Y 3 X 12 Y 3 X 14 Y 2 X 6 Y 3 X 7 Y 3 X 8 Y 2 X 9 Y 3 X 11 Y 3 X 13 Y 2 X 14 Y 3 X 6 Y 2 X 7 Y 3 X 8 Y 2 X 10 Y 3 X 11 Y 2 X
 13 Y 3 X 16 Y 2 X 9 Y 3 X 7 Y 2 X 7 Y 2 X 9 Y 3 X 10 Y 2 X 13 Y 2 X 14 Y 2 X 19 Y 3 X 8 Y 2 X 7 Y 2 X 8 Y 2 X 9 Y 2 X 10 Y 3 X 13 Y 2 X 15 Y 2 X 18 Y 2 X 15 Y 2 X 7 Y 2 X 7 Y 2 X 9 Y 2 X 10 Y 2 X 12 Y 2 X 14 Y 2 X 17 Y 2 X 20 Y 2 X 16 Y 2 X 7 Y 2 X
 8 Y 2 X 9 Y 2 X 10 Y 2 X 12 Y 2 X 14 Y 2 X 17 Y 2 X 21 Y 2 X 3 Y 77 X s black 3 lw 363 349 m 1791 X s
 gsave  2268 2180 0 0 C 1869.54 75.8434 t 0 r /Helvetica findfont 102.389 sf 0 0 m ( [GeV]) show NC gr 
 gsave  2268 2180 0 0 C 1835.41 53.0904 t 0 r /Helvetica findfont 68.259 sf 0 0 m (x) show NC gr 
 gsave  2268 2180 0 0 C 1755.77 75.8434 t 0 r /Helvetica findfont 102.389 sf 0 0 m (M) show NC gr  393 401 m -52 Y s
 gsave  2268 2180 0 0 C 392.7 212.598 t 0 r  -56 0 t /Helvetica findfont 102.389 sf 0 0 m (10) show NC gr  589 375 m -26 Y s 704 375 m -26 Y s 786 375 m -26 Y s 849 375 m -26 Y s 901 375 m -26 Y s 944 375 m -26 Y s 982 375 m -26 Y s 1016 375 m -26 Y
 s 1045 401 m -52 Y s
 gsave  2268 2180 0 0 C 1076.98 261.66 t 0 r /Helvetica findfont 68.259 sf 0 0 m (2) show NC gr 
 gsave  2268 2180 0 0 C 967.003 216.154 t 0 r /Helvetica findfont 102.389 sf 0 0 m (10) show NC gr  1242 375 m -26 Y s 1357 375 m -26 Y s 1438 375 m -26 Y s 1502 375 m -26 Y s 1553 375 m -26 Y s 1597 375 m -26 Y s 1635 375 m -26 Y s 1668 375 m -26 Y
 s 1698 401 m -52 Y s
 gsave  2268 2180 0 0 C 1729.23 265.452 t 0 r /Helvetica findfont 68.259 sf 0 0 m (3) show NC gr 
 gsave  2268 2180 0 0 C 1619.26 216.154 t 0 r /Helvetica findfont 102.389 sf 0 0 m (10) show NC gr  1895 375 m -26 Y s 2010 375 m -26 Y s 2091 375 m -26 Y s 2154 375 m -26 Y s 363 2071 m 1791 X s 393 2020 m 51 Y s 589 2046 m 25 Y s 704 2046 m 25 Y s
 786 2046 m 25 Y s 849 2046 m 25 Y s 901 2046 m 25 Y s 944 2046 m 25 Y s 982 2046 m 25 Y s 1016 2046 m 25 Y s 1045 2020 m 51 Y s 1242 2046 m 25 Y s 1357 2046 m 25 Y s 1438 2046 m 25 Y s 1502 2046 m 25 Y s 1553 2046 m 25 Y s 1597 2046 m 25 Y s 1635
 2046 m 25 Y s 1668 2046 m 25 Y s 1698 2020 m 51 Y s 1895 2046 m 25 Y s 2010 2046 m 25 Y s 2091 2046 m 25 Y s 2154 2046 m 25 Y s 363 349 m 1722 Y s
 gsave  2268 2180 0 0 C 140.31 1759.57 t 90 r /Helvetica findfont 102.389 sf 0 0 m ( = 13/8) show NC gr 
 gsave  2268 2180 0 0 C 140.31 1710.27 t 90 r /Helvetica findfont 102.389 sf 0 0 m (s) show NC gr  6 lw 83 1680 m 61 11 d s 3 lw 144 1691 m -91 12 d s 53 1703 m 57 Y s
 gsave  2268 2180 0 0 C 140.31 750.849 t 90 r /Helvetica findfont 102.389 sf 0 0 m (luminosity Ratio for ) show NC gr  417 349 m -54 X s
 gsave  2268 2180 0 0 C 342.425 306.408 t 0 r  -56 0 t /Helvetica findfont 102.389 sf 0 0 m (1) show NC gr  390 608 m -27 X s 390 760 m -27 X s 390 867 m -27 X s 390 951 m -27 X s 390 1019 m -27 X s 390 1077 m -27 X s 390 1127 m -27 X s 390 1171 m
 -27 X s 417 1210 m -54 X s
 gsave  2268 2180 0 0 C 342.425 1167.7 t 0 r  -113 0 t /Helvetica findfont 102.389 sf 0 0 m (10) show NC gr  390 1469 m -27 X s 390 1621 m -27 X s 390 1729 m -27 X s 390 1812 m -27 X s 390 1880 m -27 X s 390 1938 m -27 X s 390 1988 m -27 X s 390 2032
 m -27 X s 417 2071 m -54 X s
 gsave  2268 2180 0 0 C 303.373 2070.52 t 0 r /Helvetica findfont 68.259 sf 0 0 m (2) show NC gr 
 gsave  2268 2180 0 0 C 193.401 2025.02 t 0 r /Helvetica findfont 102.389 sf 0 0 m (10) show NC gr  2154 349 m 1722 Y s 2101 349 m 53 X s 2127 608 m 27 X s 2127 760 m 27 X s 2127 867 m 27 X s 2127 951 m 27 X s 2127 1019 m 27 X s 2127 1077 m 27 X s
 2127 1127 m 27 X s 2127 1171 m 27 X s 2101 1210 m 53 X s 2127 1469 m 27 X s 2127 1621 m 27 X s 2127 1729 m 27 X s 2127 1812 m 27 X s 2127 1880 m 27 X s 2127 1938 m 27 X s 2127 1988 m 27 X s 2127 2032 m 27 X s 2101 2071 m 53 X s 0 0 1 c 6 lw 1 1 1 c
 0 0 1 c 363 349 m 155 Y 376 X 25 Y 156 X 15 Y 101 X 11 Y 73 X 10 Y 59 X 8 Y 48 X 8 Y 42 X 7 Y 36 X 6 Y 32 X 6 Y 29 X 7 Y 26 X 6 Y 24 X 6 Y 22 X 6 Y 20 X 6 Y 19 X 5 Y 18 X 6 Y 17 X 6 Y 16 X 5 Y 15 X 6 Y 14 X 6 Y 14 X 6 Y 13 X 6 Y 12 X 6 Y 12 X 6 Y 11
 X 5 Y 11 X 7 Y 11 X 6 Y 10 X 6 Y 10 X 6 Y 9 X 6 Y 10 X 6 Y 9 X 7 Y 8 X 6 Y 9 X 7 Y 8 X 6 Y 8 X 7 Y 7 X 6 Y 8 X 7 Y 7 X 7 Y 7 X 6 Y 7 X 8 Y 7 X 6 Y 6 X 7 Y 7 X 8 Y 6 X 6 Y 6 X 7 Y 6 X 9 Y 6 X 5 Y 6 X 8 Y 6 X 8 Y 5 X 7 Y 6 X 6 Y 5 X 9 Y 6 X 8 Y 5 X 6
 Y 5 X 8 Y 5 X 9 Y 5 X 7 Y 4 X 7 Y 5 X 8 Y 5 X 10 Y 4 X 6 Y 5 X 7 Y 4 X 8 Y 5 X 10 Y 4 X 7 Y 4 X 7 Y 5 X 8 Y 4 X 10 Y 4 X 9 Y 4 X 7 Y 4 X 7 Y 4 X 9 Y 3 X 11 Y 4 X 8 Y 4 X 6 Y 4 X 8 Y 3 X 10 Y 4 X 11 Y 3 X 8 Y 4 X 7 Y 3 X 8 Y 4 X 9 Y 3 X 11 Y 3 X 10 Y
 4 X 7 Y 3 X 8 Y 3 X 8 Y 3 X 11 Y 4 X 12 Y 3 X 9 Y 3 X 7 Y 3 X 8 Y 3 X 9 Y 3 X 10 Y 3 X 13 Y 3 X 10 Y 3 X 7 Y 3 X 8 Y 2 X 9 Y 3 X 10 Y 3 X 13 Y 3 X 14 Y 2 X 6 Y 3 X 8 Y 3 X 8 Y 2 X 10 Y 3 X 11 Y 3 X 14 Y 2 X 14 Y 3 X 7 Y 2 X 8 Y 3 X 9 Y 2 X 9 Y 3 X
 12 Y 2 X 14 Y 3 X 16 Y 2 X 9 Y 3 X 8 Y 2 X 8 Y 2 X 10 Y 3 X 11 Y 2 X 12 Y 2 X 15 Y 2 X 18 Y 3 X 9 Y 2 X 8 Y 2 X 9 Y 2 X 10 Y 2 X 11 Y 3 X 13 Y 2 X 16 Y 2 X 18 Y 2 X 15 Y 2 X 7 Y 2 X 9 Y 2 X 10 Y 2 X 11 Y 2 X 12 Y 2 X 15 Y 2 X 17 Y 2 X 21 Y 2 X 16 Y
 2 X 8 Y 2 X 9 Y 2 X 10 Y 2 X 11 Y 2 X 13 Y 2 X 15 Y 2 X 18 Y 2 X 21 Y 2 X 26 Y 2 X 9 Y 1 X 9 Y 2 X 9 Y 2 X 11 Y 2 X 13 Y 2 X 14 Y 1 X 16 Y 2 X 20 Y 2 X 23 Y 2 X 29 Y 1 X 1 Y 58 X s 0 0.8 0 c 1 1 1 c 0 0.8 0 c 363 349 m 176 Y 376 X 33 Y 156 X 21 Y
 101 X 16 Y 73 X 13 Y 59 X 12 Y 48 X 11 Y 42 X 10 Y 36 X 10 Y 32 X 8 Y 29 X 9 Y 26 X 8 Y 24 X 8 Y 22 X 8 Y 20 X 7 Y 19 X 8 Y 18 X 7 Y 17 X 7 Y 16 X 6 Y 15 X 7 Y 14 X 7 Y 14 X 7 Y 13 X 6 Y 12 X 7 Y 12 X 7 Y 11 X 6 Y 11 X 7 Y 11 X 6 Y 10 X 7 Y 10 X 6 Y
 9 X 6 Y 10 X 6 Y 9 X 7 Y 8 X 6 Y 9 X 7 Y 8 X 5 Y 8 X 8 Y 7 X 5 Y 8 X 7 Y 7 X 6 Y 7 X 6 Y 7 X 7 Y 7 X 6 Y 6 X 6 Y 7 X 7 Y 6 X 6 Y 6 X 6 Y 6 X 8 Y 6 X 5 Y 6 X 6 Y 6 X 8 Y 5 X 5 Y 6 X 6 Y 5 X 7 Y 6 X 7 Y 5 X 5 Y 5 X 7 Y 5 X 8 Y 5 X 6 Y 4 X 5 Y 5 X 7 Y
 5 X 9 Y 4 X 5 Y 5 X 6 Y 4 X 7 Y 5 X 9 Y 4 X 5 Y 4 X 6 Y 5 X 7 Y 4 X 8 Y 4 X 8 Y 4 X 5 Y 4 X 6 Y 4 X 8 Y 3 X 9 Y 4 X 6 Y 4 X 6 Y 4 X 7 Y 3 X 8 Y 4 X 9 Y 3 X 7 Y 4 X 5 Y 3 X 7 Y 4 X 8 Y 3 X 9 Y 3 X 9 Y 4 X 5 Y 3 X 7 Y 3 X 7 Y 3 X 9 Y 4 X 10 Y 3 X 8 Y
 3 X 6 Y 3 X 6 Y 3 X 8 Y 3 X 9 Y 3 X 11 Y 3 X 8 Y 3 X 6 Y 3 X 7 Y 2 X 8 Y 3 X 9 Y 3 X 10 Y 3 X 12 Y 2 X 6 Y 3 X 6 Y 3 X 8 Y 2 X 8 Y 3 X 10 Y 3 X 11 Y 2 X 13 Y 3 X 6 Y 2 X 6 Y 3 X 8 Y 2 X 8 Y 3 X 10 Y 2 X 12 Y 3 X 14 Y 2 X 8 Y 3 X 7 Y 2 X 7 Y 2 X 8 Y
 3 X 10 Y 2 X 11 Y 2 X 13 Y 2 X 15 Y 3 X 8 Y 2 X 6 Y 2 X 8 Y 2 X 9 Y 2 X 10 Y 3 X 11 Y 2 X 13 Y 2 X 16 Y 2 X 13 Y 2 X 6 Y 2 X 8 Y 2 X 8 Y 2 X 10 Y 2 X 11 Y 2 X 12 Y 2 X 15 Y 2 X 18 Y 2 X 14 Y 2 X 7 Y 2 X 7 Y 2 X 9 Y 2 X 10 Y 2 X 11 Y 2 X 13 Y 2 X 15
 Y 2 X 18 Y 2 X 22 Y 2 X 8 Y 1 X 7 Y 2 X 9 Y 2 X 9 Y 2 X 11 Y 2 X 12 Y 1 X 14 Y 2 X 17 Y 2 X 19 Y 2 X 24 Y 1 X 13 Y 2 X 8 Y 2 X 8 Y 2 X 10 Y 1 X 11 Y 2 X 12 Y 2 X 14 Y 1 X 16 Y 2 X 14 Y 44 X s 1 0.6 0.4 c 1 1 1 c 1 0.6 0.4 c 363 349 m 148 Y 376 X 21
 Y 156 X 13 Y 101 X 9 Y 73 X 7 Y 59 X 5 Y 48 X 5 Y 42 X 4 Y 36 X 4 Y 32 X 3 Y 29 X 3 Y 26 X 3 Y 24 X 2 Y 22 X 3 Y 20 X 2 Y 19 X 2 Y 18 X 2 Y 17 X 2 Y 16 X 2 Y 15 X 2 Y 14 X 2 Y 14 X 2 Y 13 X 2 Y 12 X 2 Y 12 X 2 Y 11 X 2 Y 11 X 2 Y 11 X 2 Y 10 X 2 Y
 10 X 3 Y 9 X 2 Y 10 X 2 Y 9 X 3 Y 8 X 2 Y 9 X 3 Y 8 X 3 Y 8 X 3 Y 7 X 3 Y 8 X 3 Y 7 X 3 Y 7 X 3 Y 7 X 3 Y 7 X 3 Y 6 X 4 Y 7 X 4 Y 6 X 3 Y 6 X 3 Y 6 X 4 Y 6 X 4 Y 6 X 4 Y 6 X 4 Y 5 X 4 Y 6 X 4 Y 5 X 4 Y 6 X 5 Y 5 X 4 Y 5 X 4 Y 5 X 5 Y 5 X 5 Y 4 X 4 Y
 5 X 5 Y 5 X 6 Y 4 X 4 Y 5 X 4 Y 4 X 6 Y 5 X 6 Y 4 X 4 Y 4 X 5 Y 5 X 6 Y 4 X 6 Y 4 X 6 Y 4 X 4 Y 4 X 6 Y 4 X 6 Y 3 X 7 Y 4 X 5 Y 4 X 5 Y 4 X 6 Y 3 X 7 Y 4 X 7 Y 3 X 6 Y 4 X 5 Y 3 X 6 Y 4 X 7 Y 3 X 8 Y 3 X 7 Y 4 X 6 Y 3 X 6 Y 3 X 6 Y 3 X 8 Y 4 X 9 Y 3
 X 6 Y 3 X 6 Y 3 X 7 Y 3 X 7 Y 3 X 8 Y 3 X 9 Y 3 X 8 Y 3 X 6 Y 3 X 6 Y 2 X 8 Y 3 X 8 Y 3 X 9 Y 3 X 10 Y 2 X 6 Y 3 X 7 Y 3 X 7 Y 2 X 8 Y 3 X 9 Y 3 X 10 Y 2 X 11 Y 3 X 6 Y 2 X 7 Y 3 X 8 Y 2 X 8 Y 3 X 10 Y 2 X 10 Y 3 X 12 Y 2 X 8 Y 3 X 7 Y 2 X 8 Y 2 X 8
 Y 3 X 9 Y 2 X 11 Y 2 X 12 Y 2 X 13 Y 3 X 8 Y 2 X 7 Y 2 X 8 Y 2 X 8 Y 2 X 10 Y 3 X 11 Y 2 X 12 Y 2 X 14 Y 2 X 12 Y 2 X 7 Y 2 X 8 Y 2 X 8 Y 2 X 10 Y 2 X 11 Y 2 X 12 Y 2 X 14 Y 2 X 15 Y 2 X 13 Y 2 X 7 Y 2 X 8 Y 2 X 9 Y 2 X 10 Y 2 X 11 Y 2 X 13 Y 2 X 14
 Y 2 X 16 Y 2 X 18 Y 2 X 9 Y 1 X 8 Y 2 X 9 Y 2 X 9 Y 2 X 11 Y 2 X 12 Y 1 X 14 Y 2 X 15 Y 2 X 18 Y 2 X 20 Y 1 X 12 Y 2 X 8 Y 2 X 9 Y 2 X 10 Y 1 X 11 Y 2 X 12 Y 2 X 14 Y 1 X 15 Y 2 X 18 Y 2 X 21 Y 1 X 24 Y 2 X 11 Y 2 X 8 Y 1 X 10 Y 2 X 10 Y 1 X 11 Y 2
 X 13 Y 2 X 14 Y 1 X 16 Y 2 X 19 Y 1 X 22 Y 2 X 25 Y 1 X 26 Y 2 X 8 Y 1 X 9 Y 2 X 10 Y 1 X 11 Y 2 X 12 Y 1 X 14 Y 2 X 15 Y 1 X 18 Y 2 X 20 Y 1 X 1 Y 7 X s black 3 lw 1 1 1 c 454 393 975 1635 bf black
 gsave  2268 2180 0 0 C 1088.35 1956.76 t 0 r /Helvetica findfont 79.6355 sf 0 0 m (gg) show NC gr  1 0 0 c 6 lw 992 1979 m 79 X s black
 gsave  2268 2180 0 0 C 1088.35 1861.95 t 0 r /Helvetica findfont 79.6355 sf 0 0 m (qqbar) show NC gr  0 0 1 c 992 1881 m 79 X s black
 gsave  2268 2180 0 0 C 1088.35 1763.36 t 0 r /Helvetica findfont 79.6355 sf 0 0 m (qg) show NC gr  0 0.8 0 c 992 1783 m 79 X s black
 gsave  2268 2180 0 0 C 1088.35 1664.76 t 0 r /Helvetica findfont 79.6355 sf 0 0 m (qq) show NC gr  1 0.6 0.4 c 992 1684 m 79 X s
 gr  gr showpage
end
%%EOF
