%!PS-Adobe-2.0 EPSF-2.0
%%BoundingBox:  0 0 567 385
%%Title: PLOTS/4mu_poiScan.eps: 
%%Creator: ROOT Version 5.34/18
%%CreationDate: Tue Nov 10 10:12:43 2015
%%EndComments
%%BeginProlog
80 dict begin
/s {stroke} def /l {lineto} def /m {moveto} def /t {translate} def
/r {rotate} def /rl {roll}  def /R {repeat} def
/d {rlineto} def /rm {rmoveto} def /gr {grestore} def /f {eofill} def
/c {setrgbcolor} def /black {0 setgray} def /sd {setdash} def
/cl {closepath} def /sf {scalefont setfont} def /lw {setlinewidth} def
/box {m dup 0 exch d exch 0 d 0 exch neg d cl} def
/NC{systemdict begin initclip end}def/C{NC box clip newpath}def
/bl {box s} def /bf {box f} def /Y { 0 exch d} def /X { 0 d} def 
/K {{pop pop 0 moveto} exch kshow} bind def
/ita {/ang 15 def gsave [1 0 ang dup sin exch cos div 1 0 0] concat} def 
/mp {newpath /y exch def /x exch def} def
/side {[w .77 mul w .23 mul] .385 w mul sd w 0 l currentpoint t -144 r} def
/mr {mp x y w2 0 360 arc} def /m24 {mr s} def /m20 {mr f} def
/mb {mp x y w2 add m w2 neg 0 d 0 w neg d w 0 d 0 w d cl} def
/mt {mp x y w2 add m w2 neg w neg d w 0 d cl} def
/m21 {mb f} def /m25 {mb s} def /m22 {mt f} def /m26{mt s} def
/m23 {mp x y w2 sub m w2 w d w neg 0 d cl f} def
/m27 {mp x y w2 add m w3 neg w2 neg d w3 w2 neg d w3 w2 d cl s} def
/m28 {mp x w2 sub y w2 sub w3 add m w3 0 d  0 w3 neg d w3 0 d 0 w3 d w3 0 d  0 w3 d w3 neg 0 d 0 w3 d w3 neg 0 d 0 w3 neg d w3 neg 0 d cl s } def
/m29 {mp gsave x w2 sub y w2 add w3 sub m currentpoint t 4 {side} repeat cl fill gr} def
/m30 {mp gsave x w2 sub y w2 add w3 sub m currentpoint t 4 {side} repeat cl s gr} def
/m31 {mp x y w2 sub m 0 w d x w2 sub y m w 0 d x w2 sub y w2 add m w w neg d x w2 sub y w2 sub m w w d s} def
/m32 {mp x y w2 sub m w2 w d w neg 0 d cl s} def
/m33 {mp x y w2 add m w3 neg w2 neg d w3 w2 neg d w3 w2 d cl f} def
/m34 {mp x w2 sub y w2 sub w3 add m w3 0 d  0 w3 neg d w3 0 d 0 w3 d w3 0 d  0 w3 d w3 neg 0 d 0 w3 d w3 neg 0 d 0 w3 neg d w3 neg 0 d cl f } def
/m2 {mp x y w2 sub m 0 w d x w2 sub y m w 0 d s} def
/m5 {mp x w2 sub y w2 sub m w w d x w2 sub y w2 add m w w neg d s} def
/reEncode {exch findfont dup length dict begin {1 index /FID eq  {pop pop} {def} ifelse } forall /Encoding exch def currentdict end dup /FontName get exch definefont pop } def [/Times-Bold /Times-Italic /Times-BoldItalic /Helvetica /Helvetica-Oblique
 /Helvetica-Bold /Helvetica-BoldOblique /Courier /Courier-Oblique /Courier-Bold /Courier-BoldOblique /Times-Roman /AvantGarde-Book /AvantGarde-BookOblique /AvantGarde-Demi /AvantGarde-DemiOblique /Bookman-Demi /Bookman-DemiItalic /Bookman-Light
 /Bookman-LightItalic /Helvetica-Narrow /Helvetica-Narrow-Bold /Helvetica-Narrow-BoldOblique /Helvetica-Narrow-Oblique /NewCenturySchlbk-Roman /NewCenturySchlbk-Bold /NewCenturySchlbk-BoldItalic /NewCenturySchlbk-Italic /Palatino-Bold
 /Palatino-BoldItalic /Palatino-Italic /Palatino-Roman ] {ISOLatin1Encoding reEncode } forall
%%EndProlog
%%BeginSetup
%%EndSetup
newpath  gsave  .25 .25 scale  gsave  0 0 t black[  ] 0 sd 3 lw 1 1 1 c 2268 1541 0 0 bf black 1 1 1 c 1088 1511 23 15 bf black 1 1 1 c 870 1209 132 166 bf black 870 1209 132 166 bl 132 166 m 870 X s
 gsave  1088 1511 23 15 C 840.619 71.6807 t 0 r /Helvetica findfont 35.8489 sf 0 0 m (mH \(GeV\)) show NC gr  135 203 m -37 Y s 156 185 m -19 Y s 177 185 m -19 Y s 199 185 m -19 Y s 220 185 m -19 Y s 241 203 m -37 Y s 262 185 m -19 Y s 284 185 m -19
 Y s 305 185 m -19 Y s 326 185 m -19 Y s 347 203 m -37 Y s 369 185 m -19 Y s 390 185 m -19 Y s 411 185 m -19 Y s 432 185 m -19 Y s 454 203 m -37 Y s 475 185 m -19 Y s 496 185 m -19 Y s 517 185 m -19 Y s 538 185 m -19 Y s 560 203 m -37 Y s 581 185 m
 -19 Y s 602 185 m -19 Y s 623 185 m -19 Y s 645 185 m -19 Y s 666 203 m -37 Y s 687 185 m -19 Y s 708 185 m -19 Y s 730 185 m -19 Y s 751 185 m -19 Y s 772 203 m -37 Y s 793 185 m -19 Y s 815 185 m -19 Y s 836 185 m -19 Y s 857 185 m -19 Y s 878 203
 m -37 Y s 900 185 m -19 Y s 921 185 m -19 Y s 942 185 m -19 Y s 963 185 m -19 Y s 984 203 m -37 Y s 135 203 m -37 Y s 984 203 m -37 Y s
 gsave  1088 1511 23 15 C 104.263 117.296 t 0 r /Helvetica findfont 35.8489 sf 0 0 m (200) show NC gr 
 gsave  1088 1511 23 15 C 211.784 117.296 t 0 r /Helvetica findfont 35.8489 sf 0 0 m (300) show NC gr 
 gsave  1088 1511 23 15 C 316.047 117.296 t 0 r /Helvetica findfont 35.8489 sf 0 0 m (400) show NC gr 
 gsave  1088 1511 23 15 C 423.568 117.296 t 0 r /Helvetica findfont 35.8489 sf 0 0 m (500) show NC gr 
 gsave  1088 1511 23 15 C 527.831 117.296 t 0 r /Helvetica findfont 35.8489 sf 0 0 m (600) show NC gr 
 gsave  1088 1511 23 15 C 635.352 117.296 t 0 r /Helvetica findfont 35.8489 sf 0 0 m (700) show NC gr 
 gsave  1088 1511 23 15 C 739.614 117.296 t 0 r /Helvetica findfont 35.8489 sf 0 0 m (800) show NC gr 
 gsave  1088 1511 23 15 C 847.135 117.296 t 0 r /Helvetica findfont 35.8489 sf 0 0 m (900) show NC gr 
 gsave  1088 1511 23 15 C 944.882 117.296 t 0 r /Helvetica findfont 35.8489 sf 0 0 m (1000) show NC gr  132 166 m 1209 Y s
 gsave  1088 1511 23 15 C 48.8732 1101.28 t 90 r /Helvetica findfont 35.8489 sf 0 0 m (Relative variation) show NC gr  158 166 m -26 X s 145 191 m -13 X s 145 215 m -13 X s 145 239 m -13 X s 145 263 m -13 X s 158 287 m -26 X s 145 311 m -13 X s 145
 336 m -13 X s 145 360 m -13 X s 145 384 m -13 X s 158 408 m -26 X s 145 432 m -13 X s 145 456 m -13 X s 145 481 m -13 X s 145 505 m -13 X s 158 529 m -26 X s 145 553 m -13 X s 145 577 m -13 X s 145 601 m -13 X s 145 626 m -13 X s 158 650 m -26 X s
 145 674 m -13 X s 145 698 m -13 X s 145 722 m -13 X s 145 746 m -13 X s 158 771 m -26 X s 145 795 m -13 X s 145 819 m -13 X s 145 843 m -13 X s 145 867 m -13 X s 158 891 m -26 X s 145 916 m -13 X s 145 940 m -13 X s 145 964 m -13 X s 145 988 m -13 X
 s 158 1012 m -26 X s 145 1036 m -13 X s 145 1061 m -13 X s 145 1085 m -13 X s 145 1109 m -13 X s 158 1133 m -26 X s 145 1157 m -13 X s 145 1181 m -13 X s 145 1206 m -13 X s 145 1230 m -13 X s 158 1254 m -26 X s 145 1278 m -13 X s 145 1302 m -13 X s
 145 1326 m -13 X s 145 1351 m -13 X s 158 1375 m -26 X s
 gsave  1088 1511 23 15 C 107.521 159.652 t 0 r /Helvetica findfont 29.3309 sf 0 0 m (0) show NC gr 
 gsave  1088 1511 23 15 C 42.3568 280.206 t 0 r /Helvetica findfont 29.3309 sf 0 0 m (0.005) show NC gr 
 gsave  1088 1511 23 15 C 61.9061 400.76 t 0 r /Helvetica findfont 29.3309 sf 0 0 m (0.01) show NC gr 
 gsave  1088 1511 23 15 C 42.3568 521.314 t 0 r /Helvetica findfont 29.3309 sf 0 0 m (0.015) show NC gr 
 gsave  1088 1511 23 15 C 61.9061 641.868 t 0 r /Helvetica findfont 29.3309 sf 0 0 m (0.02) show NC gr 
 gsave  1088 1511 23 15 C 42.3568 762.422 t 0 r /Helvetica findfont 29.3309 sf 0 0 m (0.025) show NC gr 
 gsave  1088 1511 23 15 C 61.9061 882.976 t 0 r /Helvetica findfont 29.3309 sf 0 0 m (0.03) show NC gr 
 gsave  1088 1511 23 15 C 42.3568 1003.53 t 0 r /Helvetica findfont 29.3309 sf 0 0 m (0.035) show NC gr 
 gsave  1088 1511 23 15 C 61.9061 1124.08 t 0 r /Helvetica findfont 29.3309 sf 0 0 m (0.04) show NC gr 
 gsave  1088 1511 23 15 C 42.3568 1244.64 t 0 r /Helvetica findfont 29.3309 sf 0 0 m (0.045) show NC gr 
 gsave  1088 1511 23 15 C 61.9061 1365.19 t 0 r /Helvetica findfont 29.3309 sf 0 0 m (0.05) show NC gr  1 1 1 c black
 gsave  1088 1511 23 15 C 465.925 1462.94 t 0 r /Helvetica findfont 48.8849 sf 0 0 m (Nsig bias) show NC gr  /w 26 def /w2 {w 2 div} def /w3 {w 3 div} def 135 412 241 258 347 313 454 238 560 233 666 257 772 316 878 349 984 335 9 { m21} R 1 1 1 c
 black
 gsave  1088 1511 23 15 C 465.925 1462.94 t 0 r /Helvetica findfont 48.8849 sf 0 0 m (Nsig bias) show NC gr  1 1 1 c 1088 1511 1157 15 bf black 1 1 1 c 871 1209 1265 166 bf black 871 1209 1265 166 bl 1265 166 m 871 X s
 gsave  1088 1511 1157 15 C 1974.48 71.6807 t 0 r /Helvetica findfont 35.8489 sf 0 0 m (mH \(GeV\)) show NC gr  1269 203 m -37 Y s 1290 185 m -19 Y s 1311 185 m -19 Y s 1333 185 m -19 Y s 1354 185 m -19 Y s 1375 203 m -37 Y s 1396 185 m -19 Y s 1417
 185 m -19 Y s 1439 185 m -19 Y s 1460 185 m -19 Y s 1481 203 m -37 Y s 1502 185 m -19 Y s 1524 185 m -19 Y s 1545 185 m -19 Y s 1566 185 m -19 Y s 1587 203 m -37 Y s 1609 185 m -19 Y s 1630 185 m -19 Y s 1651 185 m -19 Y s 1672 185 m -19 Y s 1694
 203 m -37 Y s 1715 185 m -19 Y s 1736 185 m -19 Y s 1757 185 m -19 Y s 1779 185 m -19 Y s 1800 203 m -37 Y s 1821 185 m -19 Y s 1842 185 m -19 Y s 1863 185 m -19 Y s 1885 185 m -19 Y s 1906 203 m -37 Y s 1927 185 m -19 Y s 1948 185 m -19 Y s 1970
 185 m -19 Y s 1991 185 m -19 Y s 2012 203 m -37 Y s 2033 185 m -19 Y s 2055 185 m -19 Y s 2076 185 m -19 Y s 2097 185 m -19 Y s 2118 203 m -37 Y s 1269 203 m -37 Y s 2118 203 m -37 Y s
 gsave  1088 1511 1157 15 C 1238.12 117.296 t 0 r /Helvetica findfont 35.8489 sf 0 0 m (200) show NC gr 
 gsave  1088 1511 1157 15 C 1345.64 117.296 t 0 r /Helvetica findfont 35.8489 sf 0 0 m (300) show NC gr 
 gsave  1088 1511 1157 15 C 1449.91 117.296 t 0 r /Helvetica findfont 35.8489 sf 0 0 m (400) show NC gr 
 gsave  1088 1511 1157 15 C 1557.43 117.296 t 0 r /Helvetica findfont 35.8489 sf 0 0 m (500) show NC gr 
 gsave  1088 1511 1157 15 C 1661.69 117.296 t 0 r /Helvetica findfont 35.8489 sf 0 0 m (600) show NC gr 
 gsave  1088 1511 1157 15 C 1769.21 117.296 t 0 r /Helvetica findfont 35.8489 sf 0 0 m (700) show NC gr 
 gsave  1088 1511 1157 15 C 1873.47 117.296 t 0 r /Helvetica findfont 35.8489 sf 0 0 m (800) show NC gr 
 gsave  1088 1511 1157 15 C 1980.99 117.296 t 0 r /Helvetica findfont 35.8489 sf 0 0 m (900) show NC gr 
 gsave  1088 1511 1157 15 C 2078.74 117.296 t 0 r /Helvetica findfont 35.8489 sf 0 0 m (1000) show NC gr  1265 166 m 1209 Y s
 gsave  1088 1511 1157 15 C 1185.99 1101.28 t 90 r /Helvetica findfont 35.8489 sf 0 0 m (Relative variation) show NC gr  1292 166 m -27 X s 1278 191 m -13 X s 1278 215 m -13 X s 1278 239 m -13 X s 1278 263 m -13 X s 1292 287 m -27 X s 1278 311 m -13
 X s 1278 336 m -13 X s 1278 360 m -13 X s 1278 384 m -13 X s 1292 408 m -27 X s 1278 432 m -13 X s 1278 456 m -13 X s 1278 481 m -13 X s 1278 505 m -13 X s 1292 529 m -27 X s 1278 553 m -13 X s 1278 577 m -13 X s 1278 601 m -13 X s 1278 626 m -13 X
 s 1292 650 m -27 X s 1278 674 m -13 X s 1278 698 m -13 X s 1278 722 m -13 X s 1278 746 m -13 X s 1292 771 m -27 X s 1278 795 m -13 X s 1278 819 m -13 X s 1278 843 m -13 X s 1278 867 m -13 X s 1292 891 m -27 X s 1278 916 m -13 X s 1278 940 m -13 X s
 1278 964 m -13 X s 1278 988 m -13 X s 1292 1012 m -27 X s 1278 1036 m -13 X s 1278 1061 m -13 X s 1278 1085 m -13 X s 1278 1109 m -13 X s 1292 1133 m -27 X s 1278 1157 m -13 X s 1278 1181 m -13 X s 1278 1206 m -13 X s 1278 1230 m -13 X s 1292 1254 m
 -27 X s 1278 1278 m -13 X s 1278 1302 m -13 X s 1278 1326 m -13 X s 1278 1351 m -13 X s 1292 1375 m -27 X s
 gsave  1088 1511 1157 15 C 1241.38 159.652 t 0 r /Helvetica findfont 29.3309 sf 0 0 m (0) show NC gr 
 gsave  1088 1511 1157 15 C 1176.22 280.206 t 0 r /Helvetica findfont 29.3309 sf 0 0 m (0.005) show NC gr 
 gsave  1088 1511 1157 15 C 1195.76 400.76 t 0 r /Helvetica findfont 29.3309 sf 0 0 m (0.01) show NC gr 
 gsave  1088 1511 1157 15 C 1176.22 521.314 t 0 r /Helvetica findfont 29.3309 sf 0 0 m (0.015) show NC gr 
 gsave  1088 1511 1157 15 C 1195.76 641.868 t 0 r /Helvetica findfont 29.3309 sf 0 0 m (0.02) show NC gr 
 gsave  1088 1511 1157 15 C 1176.22 762.422 t 0 r /Helvetica findfont 29.3309 sf 0 0 m (0.025) show NC gr 
 gsave  1088 1511 1157 15 C 1195.76 882.976 t 0 r /Helvetica findfont 29.3309 sf 0 0 m (0.03) show NC gr 
 gsave  1088 1511 1157 15 C 1176.22 1003.53 t 0 r /Helvetica findfont 29.3309 sf 0 0 m (0.035) show NC gr 
 gsave  1088 1511 1157 15 C 1195.76 1124.08 t 0 r /Helvetica findfont 29.3309 sf 0 0 m (0.04) show NC gr 
 gsave  1088 1511 1157 15 C 1176.22 1244.64 t 0 r /Helvetica findfont 29.3309 sf 0 0 m (0.045) show NC gr 
 gsave  1088 1511 1157 15 C 1195.76 1365.19 t 0 r /Helvetica findfont 29.3309 sf 0 0 m (0.05) show NC gr  1 1 1 c black
 gsave  1088 1511 1157 15 C 1521.59 1462.94 t 0 r /Helvetica findfont 48.8849 sf 0 0 m (mass mean bias) show NC gr  1269 283 1375 297 1481 295 1587 301 1694 309 1800 300 1906 296 2012 299 2118 303 9 { m21} R 1 1 1 c black
 gsave  1088 1511 1157 15 C 1521.59 1462.94 t 0 r /Helvetica findfont 48.8849 sf 0 0 m (mass mean bias) show NC gr 
 gr  gr showpage
end
%%EOF
