%!PS-Adobe-2.0 EPSF-2.0
%%BoundingBox:  0 0 567 385
%%Title: PLOTS/4mu_MUONS_SCALE_Scan.eps: 
%%Creator: ROOT Version 5.34/18
%%CreationDate: Tue Nov 10 09:46:15 2015
%%EndComments
%%BeginProlog
80 dict begin
/s {stroke} def /l {lineto} def /m {moveto} def /t {translate} def
/r {rotate} def /rl {roll}  def /R {repeat} def
/d {rlineto} def /rm {rmoveto} def /gr {grestore} def /f {eofill} def
/c {setrgbcolor} def /black {0 setgray} def /sd {setdash} def
/cl {closepath} def /sf {scalefont setfont} def /lw {setlinewidth} def
/box {m dup 0 exch d exch 0 d 0 exch neg d cl} def
/NC{systemdict begin initclip end}def/C{NC box clip newpath}def
/bl {box s} def /bf {box f} def /Y { 0 exch d} def /X { 0 d} def 
/K {{pop pop 0 moveto} exch kshow} bind def
/ita {/ang 15 def gsave [1 0 ang dup sin exch cos div 1 0 0] concat} def 
/mp {newpath /y exch def /x exch def} def
/side {[w .77 mul w .23 mul] .385 w mul sd w 0 l currentpoint t -144 r} def
/mr {mp x y w2 0 360 arc} def /m24 {mr s} def /m20 {mr f} def
/mb {mp x y w2 add m w2 neg 0 d 0 w neg d w 0 d 0 w d cl} def
/mt {mp x y w2 add m w2 neg w neg d w 0 d cl} def
/m21 {mb f} def /m25 {mb s} def /m22 {mt f} def /m26{mt s} def
/m23 {mp x y w2 sub m w2 w d w neg 0 d cl f} def
/m27 {mp x y w2 add m w3 neg w2 neg d w3 w2 neg d w3 w2 d cl s} def
/m28 {mp x w2 sub y w2 sub w3 add m w3 0 d  0 w3 neg d w3 0 d 0 w3 d w3 0 d  0 w3 d w3 neg 0 d 0 w3 d w3 neg 0 d 0 w3 neg d w3 neg 0 d cl s } def
/m29 {mp gsave x w2 sub y w2 add w3 sub m currentpoint t 4 {side} repeat cl fill gr} def
/m30 {mp gsave x w2 sub y w2 add w3 sub m currentpoint t 4 {side} repeat cl s gr} def
/m31 {mp x y w2 sub m 0 w d x w2 sub y m w 0 d x w2 sub y w2 add m w w neg d x w2 sub y w2 sub m w w d s} def
/m32 {mp x y w2 sub m w2 w d w neg 0 d cl s} def
/m33 {mp x y w2 add m w3 neg w2 neg d w3 w2 neg d w3 w2 d cl f} def
/m34 {mp x w2 sub y w2 sub w3 add m w3 0 d  0 w3 neg d w3 0 d 0 w3 d w3 0 d  0 w3 d w3 neg 0 d 0 w3 d w3 neg 0 d 0 w3 neg d w3 neg 0 d cl f } def
/m2 {mp x y w2 sub m 0 w d x w2 sub y m w 0 d s} def
/m5 {mp x w2 sub y w2 sub m w w d x w2 sub y w2 add m w w neg d s} def
/reEncode {exch findfont dup length dict begin {1 index /FID eq  {pop pop} {def} ifelse } forall /Encoding exch def currentdict end dup /FontName get exch definefont pop } def [/Times-Bold /Times-Italic /Times-BoldItalic /Helvetica /Helvetica-Oblique
 /Helvetica-Bold /Helvetica-BoldOblique /Courier /Courier-Oblique /Courier-Bold /Courier-BoldOblique /Times-Roman /AvantGarde-Book /AvantGarde-BookOblique /AvantGarde-Demi /AvantGarde-DemiOblique /Bookman-Demi /Bookman-DemiItalic /Bookman-Light
 /Bookman-LightItalic /Helvetica-Narrow /Helvetica-Narrow-Bold /Helvetica-Narrow-BoldOblique /Helvetica-Narrow-Oblique /NewCenturySchlbk-Roman /NewCenturySchlbk-Bold /NewCenturySchlbk-BoldItalic /NewCenturySchlbk-Italic /Palatino-Bold
 /Palatino-BoldItalic /Palatino-Italic /Palatino-Roman ] {ISOLatin1Encoding reEncode } forall
%%EndProlog
%%BeginSetup
%%EndSetup
newpath  gsave  .25 .25 scale  gsave  0 0 t black[  ] 0 sd 3 lw 1 1 1 c 2268 1541 0 0 bf black 1 1 1 c 710 740 23 786 bf black 1 1 1 c 568 592 94 860 bf black 568 592 94 860 bl 94 860 m 568 X s
 gsave  710 740 23 786 C 560.413 811.295 t 0 r /Helvetica findfont 22.8159 sf 0 0 m (mH \(GeV\)) show NC gr  96 878 m -18 Y s 110 869 m -9 Y s 124 869 m -9 Y s 138 869 m -9 Y s 151 869 m -9 Y s 165 878 m -18 Y s 179 869 m -9 Y s 193 869 m -9 Y s 207
 869 m -9 Y s 221 869 m -9 Y s 235 878 m -18 Y s 248 869 m -9 Y s 262 869 m -9 Y s 276 869 m -9 Y s 290 869 m -9 Y s 304 878 m -18 Y s 318 869 m -9 Y s 332 869 m -9 Y s 346 869 m -9 Y s 359 869 m -9 Y s 373 878 m -18 Y s 387 869 m -9 Y s 401 869 m -9
 Y s 415 869 m -9 Y s 429 869 m -9 Y s 443 878 m -18 Y s 456 869 m -9 Y s 470 869 m -9 Y s 484 869 m -9 Y s 498 869 m -9 Y s 512 878 m -18 Y s 526 869 m -9 Y s 540 869 m -9 Y s 553 869 m -9 Y s 567 869 m -9 Y s 581 878 m -18 Y s 595 869 m -9 Y s 609
 869 m -9 Y s 623 869 m -9 Y s 637 869 m -9 Y s 651 878 m -18 Y s 96 878 m -18 Y s 651 878 m -18 Y s
 gsave  710 740 23 786 C 74.9389 837.361 t 0 r /Helvetica findfont 22.8159 sf 0 0 m (200) show NC gr 
 gsave  710 740 23 786 C 143.361 837.361 t 0 r /Helvetica findfont 22.8159 sf 0 0 m (300) show NC gr 
 gsave  710 740 23 786 C 215.042 837.361 t 0 r /Helvetica findfont 22.8159 sf 0 0 m (400) show NC gr 
 gsave  710 740 23 786 C 283.465 837.361 t 0 r /Helvetica findfont 22.8159 sf 0 0 m (500) show NC gr 
 gsave  710 740 23 786 C 351.887 837.361 t 0 r /Helvetica findfont 22.8159 sf 0 0 m (600) show NC gr 
 gsave  710 740 23 786 C 420.31 837.361 t 0 r /Helvetica findfont 22.8159 sf 0 0 m (700) show NC gr 
 gsave  710 740 23 786 C 491.99 837.361 t 0 r /Helvetica findfont 22.8159 sf 0 0 m (800) show NC gr 
 gsave  710 740 23 786 C 560.413 837.361 t 0 r /Helvetica findfont 22.8159 sf 0 0 m (900) show NC gr 
 gsave  710 740 23 786 C 622.319 837.361 t 0 r /Helvetica findfont 22.8159 sf 0 0 m (1000) show NC gr  94 860 m 592 Y s 111 860 m -17 X s 102 872 m -8 X s 102 884 m -8 X s 102 895 m -8 X s 102 907 m -8 X s 111 919 m -17 X s 102 931 m -8 X s 102 943 m
 -8 X s 102 955 m -8 X s 102 967 m -8 X s 111 978 m -17 X s 102 990 m -8 X s 102 1002 m -8 X s 102 1014 m -8 X s 102 1026 m -8 X s 111 1038 m -17 X s 102 1050 m -8 X s 102 1061 m -8 X s 102 1073 m -8 X s 102 1085 m -8 X s 111 1097 m -17 X s 102 1109
 m -8 X s 102 1121 m -8 X s 102 1132 m -8 X s 102 1144 m -8 X s 111 1156 m -17 X s 102 1168 m -8 X s 102 1180 m -8 X s 102 1192 m -8 X s 102 1204 m -8 X s 111 1215 m -17 X s 102 1227 m -8 X s 102 1239 m -8 X s 102 1251 m -8 X s 102 1263 m -8 X s 111
 1275 m -17 X s 102 1286 m -8 X s 102 1298 m -8 X s 102 1310 m -8 X s 102 1322 m -8 X s 111 1334 m -17 X s 102 1346 m -8 X s 102 1358 m -8 X s 102 1369 m -8 X s 102 1381 m -8 X s 111 1393 m -17 X s 111 1393 m -17 X s 102 1405 m -8 X s 102 1417 m -8 X
 s 102 1429 m -8 X s 102 1440 m -8 X s
 gsave  710 740 23 786 C 78.1971 850.394 t 0 r /Helvetica findfont 22.8159 sf 0 0 m (0) show NC gr 
 gsave  710 740 23 786 C 65.1643 912.3 t 0 r /Helvetica findfont 22.8159 sf 0 0 m (10) show NC gr 
 gsave  710 740 23 786 C 65.1643 970.948 t 0 r /Helvetica findfont 22.8159 sf 0 0 m (20) show NC gr 
 gsave  710 740 23 786 C 65.1643 1029.6 t 0 r /Helvetica findfont 22.8159 sf 0 0 m (30) show NC gr 
 gsave  710 740 23 786 C 65.1643 1088.24 t 0 r /Helvetica findfont 22.8159 sf 0 0 m (40) show NC gr 
 gsave  710 740 23 786 C 65.1643 1146.89 t 0 r /Helvetica findfont 22.8159 sf 0 0 m (50) show NC gr 
 gsave  710 740 23 786 C 65.1643 1208.8 t 0 r /Helvetica findfont 22.8159 sf 0 0 m (60) show NC gr 
 gsave  710 740 23 786 C 65.1643 1267.45 t 0 r /Helvetica findfont 22.8159 sf 0 0 m (70) show NC gr 
 gsave  710 740 23 786 C 65.1643 1326.09 t 0 r /Helvetica findfont 22.8159 sf 0 0 m (80) show NC gr 
 gsave  710 740 23 786 C 65.1643 1384.74 t 0 r /Helvetica findfont 22.8159 sf 0 0 m (90) show NC gr  1 1 1 c black
 gsave  710 740 23 786 C 237.85 1485.75 t 0 r /Helvetica findfont 35.8535 sf 0 0 m (CB sigma fit scan) show NC gr  /w 26 def /w2 {w 2 div} def /w3 {w 3 div} def 96 887 165 911 235 932 304 963 373 998 443 1051 512 1069 581 1146 651 1210 9 { m21} R 651
 1223 m 6 Y s 644 1229 m 13 X s 651 1197 m -6 Y s 644 1191 m 13 X s 0 0 1 c black 0 0 1 c 96 887 165 911 235 932 304 965 373 997 443 1050 512 1069 581 1150 651 1207 9 { m21} R 1 0 0 c black 1 0 0 c 96 887 165 911 235 933 304 963 373 999 443 1050 512
 1069 581 1146 651 1209 9 { m21} R 1 1 1 c black
 gsave  710 740 23 786 C 237.85 1485.75 t 0 r /Helvetica findfont 35.8535 sf 0 0 m (CB sigma fit scan) show NC gr  1 1 1 c 710 740 779 786 bf black 1 1 1 c 568 592 850 860 bf black 568 592 850 860 bl 850 860 m 568 X s
 gsave  710 740 779 786 C 1316.32 811.295 t 0 r /Helvetica findfont 22.8159 sf 0 0 m (mH \(GeV\)) show NC gr  852 878 m -18 Y s 866 869 m -9 Y s 880 869 m -9 Y s 893 869 m -9 Y s 907 869 m -9 Y s 921 878 m -18 Y s 935 869 m -9 Y s 949 869 m -9 Y s
 963 869 m -9 Y s 977 869 m -9 Y s 991 878 m -18 Y s 1004 869 m -9 Y s 1018 869 m -9 Y s 1032 869 m -9 Y s 1046 869 m -9 Y s 1060 878 m -18 Y s 1074 869 m -9 Y s 1088 869 m -9 Y s 1101 869 m -9 Y s 1115 869 m -9 Y s 1129 878 m -18 Y s 1143 869 m -9 Y
 s 1157 869 m -9 Y s 1171 869 m -9 Y s 1185 869 m -9 Y s 1198 878 m -18 Y s 1212 869 m -9 Y s 1226 869 m -9 Y s 1240 869 m -9 Y s 1254 869 m -9 Y s 1268 878 m -18 Y s 1282 869 m -9 Y s 1296 869 m -9 Y s 1309 869 m -9 Y s 1323 869 m -9 Y s 1337 878 m
 -18 Y s 1351 869 m -9 Y s 1365 869 m -9 Y s 1379 869 m -9 Y s 1393 869 m -9 Y s 1406 878 m -18 Y s 852 878 m -18 Y s 1406 878 m -18 Y s
 gsave  710 740 779 786 C 830.844 837.361 t 0 r /Helvetica findfont 22.8159 sf 0 0 m (200) show NC gr 
 gsave  710 740 779 786 C 899.267 837.361 t 0 r /Helvetica findfont 22.8159 sf 0 0 m (300) show NC gr 
 gsave  710 740 779 786 C 970.948 837.361 t 0 r /Helvetica findfont 22.8159 sf 0 0 m (400) show NC gr 
 gsave  710 740 779 786 C 1039.37 837.361 t 0 r /Helvetica findfont 22.8159 sf 0 0 m (500) show NC gr 
 gsave  710 740 779 786 C 1107.79 837.361 t 0 r /Helvetica findfont 22.8159 sf 0 0 m (600) show NC gr 
 gsave  710 740 779 786 C 1176.22 837.361 t 0 r /Helvetica findfont 22.8159 sf 0 0 m (700) show NC gr 
 gsave  710 740 779 786 C 1247.9 837.361 t 0 r /Helvetica findfont 22.8159 sf 0 0 m (800) show NC gr 
 gsave  710 740 779 786 C 1316.32 837.361 t 0 r /Helvetica findfont 22.8159 sf 0 0 m (900) show NC gr 
 gsave  710 740 779 786 C 1378.22 837.361 t 0 r /Helvetica findfont 22.8159 sf 0 0 m (1000) show NC gr  850 860 m 592 Y s 867 860 m -17 X s 858 875 m -8 X s 858 890 m -8 X s 858 904 m -8 X s 858 919 m -8 X s 867 934 m -17 X s 858 949 m -8 X s 858 964
 m -8 X s 858 978 m -8 X s 858 993 m -8 X s 867 1008 m -17 X s 858 1023 m -8 X s 858 1037 m -8 X s 858 1052 m -8 X s 858 1067 m -8 X s 867 1082 m -17 X s 858 1097 m -8 X s 858 1111 m -8 X s 858 1126 m -8 X s 858 1141 m -8 X s 867 1156 m -17 X s 858
 1171 m -8 X s 858 1185 m -8 X s 858 1200 m -8 X s 858 1215 m -8 X s 867 1230 m -17 X s 858 1245 m -8 X s 858 1259 m -8 X s 858 1274 m -8 X s 858 1289 m -8 X s 867 1304 m -17 X s 858 1319 m -8 X s 858 1333 m -8 X s 858 1348 m -8 X s 858 1363 m -8 X s
 867 1378 m -17 X s 858 1393 m -8 X s 858 1407 m -8 X s 858 1422 m -8 X s 858 1437 m -8 X s 867 1452 m -17 X s
 gsave  710 740 779 786 C 834.103 850.394 t 0 r /Helvetica findfont 22.8159 sf 0 0 m (0) show NC gr 
 gsave  710 740 779 786 C 814.553 925.333 t 0 r /Helvetica findfont 22.8159 sf 0 0 m (0.5) show NC gr 
 gsave  710 740 779 786 C 834.103 1000.27 t 0 r /Helvetica findfont 22.8159 sf 0 0 m (1) show NC gr 
 gsave  710 740 779 786 C 814.553 1075.21 t 0 r /Helvetica findfont 22.8159 sf 0 0 m (1.5) show NC gr 
 gsave  710 740 779 786 C 834.103 1146.89 t 0 r /Helvetica findfont 22.8159 sf 0 0 m (2) show NC gr 
 gsave  710 740 779 786 C 814.553 1221.83 t 0 r /Helvetica findfont 22.8159 sf 0 0 m (2.5) show NC gr 
 gsave  710 740 779 786 C 834.103 1296.77 t 0 r /Helvetica findfont 22.8159 sf 0 0 m (3) show NC gr 
 gsave  710 740 779 786 C 814.553 1368.45 t 0 r /Helvetica findfont 22.8159 sf 0 0 m (3.5) show NC gr 
 gsave  710 740 779 786 C 834.103 1443.39 t 0 r /Helvetica findfont 22.8159 sf 0 0 m (4) show NC gr  1 1 1 c black
 gsave  710 740 779 786 C 997.013 1485.75 t 0 r /Helvetica findfont 35.8535 sf 0 0 m (CB alpha fit scan) show NC gr  852 914 921 945 991 976 1060 969 1129 981 1198 1001 1268 999 1337 1007 1406 1030 9 { m21} R 0 0 1 c black 0 0 1 c 852 914 921 946 991
 976 1060 970 1129 981 1198 1002 1268 1000 1337 1007 1406 1034 9 { m21} R 1 0 0 c black 1 0 0 c 852 914 921 945 991 977 1060 969 1129 980 1198 1000 1268 999 1337 1006 1406 1030 9 { m21} R 1 1 1 c black
 gsave  710 740 779 786 C 997.013 1485.75 t 0 r /Helvetica findfont 35.8535 sf 0 0 m (CB alpha fit scan) show NC gr  1 1 1 c 711 740 1534 786 bf black 1 1 1 c 568 592 1606 860 bf black 568 592 1606 860 bl 1606 860 m 568 X s
 gsave  711 740 1534 786 C 2072.22 811.295 t 0 r /Helvetica findfont 22.8159 sf 0 0 m (mH \(GeV\)) show NC gr  1608 878 m -18 Y s 1622 869 m -9 Y s 1635 869 m -9 Y s 1649 869 m -9 Y s 1663 869 m -9 Y s 1677 878 m -18 Y s 1691 869 m -9 Y s 1705 869 m
 -9 Y s 1719 869 m -9 Y s 1733 869 m -9 Y s 1746 878 m -18 Y s 1760 869 m -9 Y s 1774 869 m -9 Y s 1788 869 m -9 Y s 1802 869 m -9 Y s 1816 878 m -18 Y s 1830 869 m -9 Y s 1843 869 m -9 Y s 1857 869 m -9 Y s 1871 869 m -9 Y s 1885 878 m -18 Y s 1899
 869 m -9 Y s 1913 869 m -9 Y s 1927 869 m -9 Y s 1941 869 m -9 Y s 1954 878 m -18 Y s 1968 869 m -9 Y s 1982 869 m -9 Y s 1996 869 m -9 Y s 2010 869 m -9 Y s 2024 878 m -18 Y s 2038 869 m -9 Y s 2051 869 m -9 Y s 2065 869 m -9 Y s 2079 869 m -9 Y s
 2093 878 m -18 Y s 2107 869 m -9 Y s 2121 869 m -9 Y s 2135 869 m -9 Y s 2148 869 m -9 Y s 2162 878 m -18 Y s 1608 878 m -18 Y s 2162 878 m -18 Y s
 gsave  711 740 1534 786 C 1586.75 837.361 t 0 r /Helvetica findfont 22.8159 sf 0 0 m (200) show NC gr 
 gsave  711 740 1534 786 C 1655.17 837.361 t 0 r /Helvetica findfont 22.8159 sf 0 0 m (300) show NC gr 
 gsave  711 740 1534 786 C 1726.85 837.361 t 0 r /Helvetica findfont 22.8159 sf 0 0 m (400) show NC gr 
 gsave  711 740 1534 786 C 1795.28 837.361 t 0 r /Helvetica findfont 22.8159 sf 0 0 m (500) show NC gr 
 gsave  711 740 1534 786 C 1863.7 837.361 t 0 r /Helvetica findfont 22.8159 sf 0 0 m (600) show NC gr 
 gsave  711 740 1534 786 C 1932.12 837.361 t 0 r /Helvetica findfont 22.8159 sf 0 0 m (700) show NC gr 
 gsave  711 740 1534 786 C 2003.8 837.361 t 0 r /Helvetica findfont 22.8159 sf 0 0 m (800) show NC gr 
 gsave  711 740 1534 786 C 2072.22 837.361 t 0 r /Helvetica findfont 22.8159 sf 0 0 m (900) show NC gr 
 gsave  711 740 1534 786 C 2134.13 837.361 t 0 r /Helvetica findfont 22.8159 sf 0 0 m (1000) show NC gr  1606 860 m 592 Y s 1623 860 m -17 X s 1614 872 m -8 X s 1614 885 m -8 X s 1614 897 m -8 X s 1614 910 m -8 X s 1623 922 m -17 X s 1614 935 m -8 X
 s 1614 947 m -8 X s 1614 960 m -8 X s 1614 972 m -8 X s 1623 985 m -17 X s 1614 997 m -8 X s 1614 1010 m -8 X s 1614 1022 m -8 X s 1614 1034 m -8 X s 1623 1047 m -17 X s 1614 1059 m -8 X s 1614 1072 m -8 X s 1614 1084 m -8 X s 1614 1097 m -8 X s
 1623 1109 m -17 X s 1614 1122 m -8 X s 1614 1134 m -8 X s 1614 1147 m -8 X s 1614 1159 m -8 X s 1623 1172 m -17 X s 1614 1184 m -8 X s 1614 1196 m -8 X s 1614 1209 m -8 X s 1614 1221 m -8 X s 1623 1234 m -17 X s 1614 1246 m -8 X s 1614 1259 m -8 X s
 1614 1271 m -8 X s 1614 1284 m -8 X s 1623 1296 m -17 X s 1614 1309 m -8 X s 1614 1321 m -8 X s 1614 1334 m -8 X s 1614 1346 m -8 X s 1623 1359 m -17 X s 1614 1371 m -8 X s 1614 1383 m -8 X s 1614 1396 m -8 X s 1614 1408 m -8 X s 1623 1421 m -17 X s
 1623 1421 m -17 X s 1614 1433 m -8 X s 1614 1446 m -8 X s
 gsave  711 740 1534 786 C 1590.01 850.394 t 0 r /Helvetica findfont 22.8159 sf 0 0 m (0) show NC gr 
 gsave  711 740 1534 786 C 1590.01 915.558 t 0 r /Helvetica findfont 22.8159 sf 0 0 m (5) show NC gr 
 gsave  711 740 1534 786 C 1576.98 977.464 t 0 r /Helvetica findfont 22.8159 sf 0 0 m (10) show NC gr 
 gsave  711 740 1534 786 C 1576.98 1039.37 t 0 r /Helvetica findfont 22.8159 sf 0 0 m (15) show NC gr 
 gsave  711 740 1534 786 C 1576.98 1101.28 t 0 r /Helvetica findfont 22.8159 sf 0 0 m (20) show NC gr 
 gsave  711 740 1534 786 C 1576.98 1163.18 t 0 r /Helvetica findfont 22.8159 sf 0 0 m (25) show NC gr 
 gsave  711 740 1534 786 C 1576.98 1225.09 t 0 r /Helvetica findfont 22.8159 sf 0 0 m (30) show NC gr 
 gsave  711 740 1534 786 C 1576.98 1286.99 t 0 r /Helvetica findfont 22.8159 sf 0 0 m (35) show NC gr 
 gsave  711 740 1534 786 C 1576.98 1348.9 t 0 r /Helvetica findfont 22.8159 sf 0 0 m (40) show NC gr 
 gsave  711 740 1534 786 C 1576.98 1414.06 t 0 r /Helvetica findfont 22.8159 sf 0 0 m (45) show NC gr  1 1 1 c black
 gsave  711 740 1534 786 C 1713.82 1485.75 t 0 r /Helvetica findfont 35.8535 sf 0 0 m (GAUSS sigma fit scan) show NC gr  /w 27 def /w2 {w 2 div} def /w3 {w 3 div} def 1608 895 1677 924 1746 947 1816 990 1885 1031 1954 1075 2024 1118 2093 1177 2162
 1242 9 { m21} R 0 0 1 c black 0 0 1 c 1608 895 1677 924 1746 947 1816 990 1885 1030 1954 1073 2024 1116 2093 1179 2162 1239 9 { m21} R 1 0 0 c black 1 0 0 c 1608 895 1677 924 1746 948 1816 990 1885 1032 1954 1075 2024 1120 2093 1178 2162 1243 9 {
 m21} R 1 1 1 c black
 gsave  711 740 1534 786 C 1713.82 1485.75 t 0 r /Helvetica findfont 35.8535 sf 0 0 m (GAUSS sigma fit scan) show NC gr  1 1 1 c 710 740 23 15 bf black 1 1 1 c 568 592 94 89 bf black 568 592 94 89 bl 94 89 m 568 X s
 gsave  710 740 23 15 C 560.413 39.0986 t 0 r /Helvetica findfont 22.8159 sf 0 0 m (mH \(GeV\)) show NC gr  96 107 m -18 Y s 110 98 m -9 Y s 124 98 m -9 Y s 138 98 m -9 Y s 151 98 m -9 Y s 165 107 m -18 Y s 179 98 m -9 Y s 193 98 m -9 Y s 207 98 m -9
 Y s 221 98 m -9 Y s 235 107 m -18 Y s 248 98 m -9 Y s 262 98 m -9 Y s 276 98 m -9 Y s 290 98 m -9 Y s 304 107 m -18 Y s 318 98 m -9 Y s 332 98 m -9 Y s 346 98 m -9 Y s 359 98 m -9 Y s 373 107 m -18 Y s 387 98 m -9 Y s 401 98 m -9 Y s 415 98 m -9 Y s
 429 98 m -9 Y s 443 107 m -18 Y s 456 98 m -9 Y s 470 98 m -9 Y s 484 98 m -9 Y s 498 98 m -9 Y s 512 107 m -18 Y s 526 98 m -9 Y s 540 98 m -9 Y s 553 98 m -9 Y s 567 98 m -9 Y s 581 107 m -18 Y s 595 98 m -9 Y s 609 98 m -9 Y s 623 98 m -9 Y s 637
 98 m -9 Y s 651 107 m -18 Y s 96 107 m -18 Y s 651 107 m -18 Y s
 gsave  710 740 23 15 C 74.9389 65.1643 t 0 r /Helvetica findfont 22.8159 sf 0 0 m (200) show NC gr 
 gsave  710 740 23 15 C 143.361 65.1643 t 0 r /Helvetica findfont 22.8159 sf 0 0 m (300) show NC gr 
 gsave  710 740 23 15 C 215.042 65.1643 t 0 r /Helvetica findfont 22.8159 sf 0 0 m (400) show NC gr 
 gsave  710 740 23 15 C 283.465 65.1643 t 0 r /Helvetica findfont 22.8159 sf 0 0 m (500) show NC gr 
 gsave  710 740 23 15 C 351.887 65.1643 t 0 r /Helvetica findfont 22.8159 sf 0 0 m (600) show NC gr 
 gsave  710 740 23 15 C 420.31 65.1643 t 0 r /Helvetica findfont 22.8159 sf 0 0 m (700) show NC gr 
 gsave  710 740 23 15 C 491.99 65.1643 t 0 r /Helvetica findfont 22.8159 sf 0 0 m (800) show NC gr 
 gsave  710 740 23 15 C 560.413 65.1643 t 0 r /Helvetica findfont 22.8159 sf 0 0 m (900) show NC gr 
 gsave  710 740 23 15 C 622.319 65.1643 t 0 r /Helvetica findfont 22.8159 sf 0 0 m (1000) show NC gr  94 89 m 592 Y s 111 89 m -17 X s 102 101 m -8 X s 102 113 m -8 X s 102 125 m -8 X s 102 137 m -8 X s 111 149 m -17 X s 102 160 m -8 X s 102 172 m -8
 X s 102 184 m -8 X s 102 196 m -8 X s 111 208 m -17 X s 102 220 m -8 X s 102 231 m -8 X s 102 243 m -8 X s 102 255 m -8 X s 111 267 m -17 X s 102 279 m -8 X s 102 291 m -8 X s 102 302 m -8 X s 102 314 m -8 X s 111 326 m -17 X s 102 338 m -8 X s 102
 350 m -8 X s 102 362 m -8 X s 102 373 m -8 X s 111 385 m -17 X s 102 397 m -8 X s 102 409 m -8 X s 102 421 m -8 X s 102 433 m -8 X s 111 444 m -17 X s 102 456 m -8 X s 102 468 m -8 X s 102 480 m -8 X s 102 492 m -8 X s 111 504 m -17 X s 102 515 m -8
 X s 102 527 m -8 X s 102 539 m -8 X s 102 551 m -8 X s 111 563 m -17 X s 102 575 m -8 X s 102 586 m -8 X s 102 598 m -8 X s 102 610 m -8 X s 111 622 m -17 X s 102 634 m -8 X s 102 646 m -8 X s 102 658 m -8 X s 102 669 m -8 X s 111 681 m -17 X s
 gsave  710 740 23 15 C 78.1971 81.4553 t 0 r /Helvetica findfont 22.8159 sf 0 0 m (0) show NC gr 
 gsave  710 740 23 15 C 58.6478 140.103 t 0 r /Helvetica findfont 22.8159 sf 0 0 m (0.1) show NC gr 
 gsave  710 740 23 15 C 58.6478 198.751 t 0 r /Helvetica findfont 22.8159 sf 0 0 m (0.2) show NC gr 
 gsave  710 740 23 15 C 58.6478 257.399 t 0 r /Helvetica findfont 22.8159 sf 0 0 m (0.3) show NC gr 
 gsave  710 740 23 15 C 58.6478 319.305 t 0 r /Helvetica findfont 22.8159 sf 0 0 m (0.4) show NC gr 
 gsave  710 740 23 15 C 58.6478 377.953 t 0 r /Helvetica findfont 22.8159 sf 0 0 m (0.5) show NC gr 
 gsave  710 740 23 15 C 58.6478 436.601 t 0 r /Helvetica findfont 22.8159 sf 0 0 m (0.6) show NC gr 
 gsave  710 740 23 15 C 58.6478 495.248 t 0 r /Helvetica findfont 22.8159 sf 0 0 m (0.7) show NC gr 
 gsave  710 740 23 15 C 58.6478 553.896 t 0 r /Helvetica findfont 22.8159 sf 0 0 m (0.8) show NC gr 
 gsave  710 740 23 15 C 58.6478 612.544 t 0 r /Helvetica findfont 22.8159 sf 0 0 m (0.9) show NC gr 
 gsave  710 740 23 15 C 78.1971 674.45 t 0 r /Helvetica findfont 22.8159 sf 0 0 m (1) show NC gr  1 1 1 c black
 gsave  710 740 23 15 C 169.427 716.807 t 0 r /Helvetica findfont 35.8535 sf 0 0 m (fraction CB Gauss fit scan) show NC gr  /w 26 def /w2 {w 2 div} def /w3 {w 3 div} def 96 271 165 254 235 333 304 287 373 298 443 309 512 343 581 308 651 304 9 { m21}
 R 165 267 m 1 Y s 159 268 m 13 X s 165 241 m s 159 241 m 13 X s 235 347 m 7 Y s 228 354 m 13 X s 235 320 m -8 Y s 228 312 m 13 X s 304 300 m 5 Y s 297 305 m 13 X s 304 274 m -5 Y s 297 269 m 13 X s 373 311 m 7 Y s 367 318 m 13 X s 373 285 m -7 Y s
 367 278 m 13 X s 443 322 m 9 Y s 436 331 m 13 X s 443 296 m -10 Y s 436 286 m 13 X s 512 356 m 14 Y s 505 370 m 13 X s 512 330 m -13 Y s 505 317 m 13 X s 581 321 m 10 Y s 575 331 m 13 X s 581 295 m -9 Y s 575 286 m 13 X s 651 317 m 13 Y s 644 330 m
 13 X s 651 291 m -13 Y s 644 278 m 13 X s 0 0 1 c black 0 0 1 c 96 271 165 255 235 333 304 284 373 299 443 314 512 346 581 304 651 310 9 { m21} R 1 0 0 c black 1 0 0 c 96 271 165 253 235 334 304 286 373 293 443 311 512 340 581 309 651 305 9 { m21} R
 1 1 1 c black
 gsave  710 740 23 15 C 169.427 716.807 t 0 r /Helvetica findfont 35.8535 sf 0 0 m (fraction CB Gauss fit scan) show NC gr  1 1 1 c 710 740 779 15 bf black 1 1 1 c 711 740 1534 15 bf black 1 1 1 c 568 592 1606 89 bf black 568 592 1606 89 bl 1606 89 m
 568 X s
 gsave  711 740 1534 15 C 2072.22 39.0986 t 0 r /Helvetica findfont 22.8159 sf 0 0 m (mH \(GeV\)) show NC gr  1608 107 m -18 Y s 1622 98 m -9 Y s 1635 98 m -9 Y s 1649 98 m -9 Y s 1663 98 m -9 Y s 1677 107 m -18 Y s 1691 98 m -9 Y s 1705 98 m -9 Y s
 1719 98 m -9 Y s 1733 98 m -9 Y s 1746 107 m -18 Y s 1760 98 m -9 Y s 1774 98 m -9 Y s 1788 98 m -9 Y s 1802 98 m -9 Y s 1816 107 m -18 Y s 1830 98 m -9 Y s 1843 98 m -9 Y s 1857 98 m -9 Y s 1871 98 m -9 Y s 1885 107 m -18 Y s 1899 98 m -9 Y s 1913
 98 m -9 Y s 1927 98 m -9 Y s 1941 98 m -9 Y s 1954 107 m -18 Y s 1968 98 m -9 Y s 1982 98 m -9 Y s 1996 98 m -9 Y s 2010 98 m -9 Y s 2024 107 m -18 Y s 2038 98 m -9 Y s 2051 98 m -9 Y s 2065 98 m -9 Y s 2079 98 m -9 Y s 2093 107 m -18 Y s 2107 98 m
 -9 Y s 2121 98 m -9 Y s 2135 98 m -9 Y s 2148 98 m -9 Y s 2162 107 m -18 Y s 1608 107 m -18 Y s 2162 107 m -18 Y s
 gsave  711 740 1534 15 C 1586.75 65.1643 t 0 r /Helvetica findfont 22.8159 sf 0 0 m (200) show NC gr 
 gsave  711 740 1534 15 C 1655.17 65.1643 t 0 r /Helvetica findfont 22.8159 sf 0 0 m (300) show NC gr 
 gsave  711 740 1534 15 C 1726.85 65.1643 t 0 r /Helvetica findfont 22.8159 sf 0 0 m (400) show NC gr 
 gsave  711 740 1534 15 C 1795.28 65.1643 t 0 r /Helvetica findfont 22.8159 sf 0 0 m (500) show NC gr 
 gsave  711 740 1534 15 C 1863.7 65.1643 t 0 r /Helvetica findfont 22.8159 sf 0 0 m (600) show NC gr 
 gsave  711 740 1534 15 C 1932.12 65.1643 t 0 r /Helvetica findfont 22.8159 sf 0 0 m (700) show NC gr 
 gsave  711 740 1534 15 C 2003.8 65.1643 t 0 r /Helvetica findfont 22.8159 sf 0 0 m (800) show NC gr 
 gsave  711 740 1534 15 C 2072.22 65.1643 t 0 r /Helvetica findfont 22.8159 sf 0 0 m (900) show NC gr 
 gsave  711 740 1534 15 C 2134.13 65.1643 t 0 r /Helvetica findfont 22.8159 sf 0 0 m (1000) show NC gr  1606 89 m 592 Y s 1623 89 m -17 X s 1614 112 m -8 X s 1614 135 m -8 X s 1614 157 m -8 X s 1623 180 m -17 X s 1614 202 m -8 X s 1614 225 m -8 X s
 1614 247 m -8 X s 1623 270 m -17 X s 1614 292 m -8 X s 1614 315 m -8 X s 1614 338 m -8 X s 1623 360 m -17 X s 1614 383 m -8 X s 1614 405 m -8 X s 1614 428 m -8 X s 1623 450 m -17 X s 1614 473 m -8 X s 1614 495 m -8 X s 1614 518 m -8 X s 1623 541 m
 -17 X s 1614 563 m -8 X s 1614 586 m -8 X s 1614 608 m -8 X s 1623 631 m -17 X s 1623 631 m -17 X s 1614 653 m -8 X s 1614 676 m -8 X s
 gsave  711 740 1534 15 C 1590.01 81.4553 t 0 r /Helvetica findfont 22.8159 sf 0 0 m (0) show NC gr 
 gsave  711 740 1534 15 C 1563.94 172.685 t 0 r /Helvetica findfont 22.8159 sf 0 0 m (200) show NC gr 
 gsave  711 740 1534 15 C 1563.94 260.657 t 0 r /Helvetica findfont 22.8159 sf 0 0 m (400) show NC gr 
 gsave  711 740 1534 15 C 1563.94 351.887 t 0 r /Helvetica findfont 22.8159 sf 0 0 m (600) show NC gr 
 gsave  711 740 1534 15 C 1563.94 443.117 t 0 r /Helvetica findfont 22.8159 sf 0 0 m (800) show NC gr 
 gsave  711 740 1534 15 C 1550.91 531.089 t 0 r /Helvetica findfont 22.8159 sf 0 0 m (1000) show NC gr 
 gsave  711 740 1534 15 C 1550.91 622.319 t 0 r /Helvetica findfont 22.8159 sf 0 0 m (1200) show NC gr  1 1 1 c black
 gsave  711 740 1534 15 C 1798.53 716.807 t 0 r /Helvetica findfont 35.8535 sf 0 0 m (mass mean) show NC gr  /w 27 def /w2 {w 2 div} def /w3 {w 3 div} def 1608 179 1677 224 1746 269 1816 314 1885 358 1954 403 2024 448 2093 493 2162 538 9 { m21} R 0 0
 1 c black 0 0 1 c 1608 179 1677 224 1746 269 1816 314 1885 358 1954 403 2024 448 2093 493 2162 538 9 { m21} R 1 0 0 c black 1 0 0 c 1608 179 1677 224 1746 269 1816 314 1885 359 1954 404 2024 449 2093 493 2162 538 9 { m21} R 1 1 1 c black
 gsave  711 740 1534 15 C 1798.53 716.807 t 0 r /Helvetica findfont 35.8535 sf 0 0 m (mass mean) show NC gr 
 gr  gr showpage
end
%%EOF
