%!PS-Adobe-2.0 EPSF-2.0
%%BoundingBox:  0 0 567 384
%%Title: H4l2015_plotfit/gg_graph_mass_cb_n_4e.eps: 
%%Creator: ROOT Version 5.34/10
%%CreationDate: Thu Feb 16 13:49:40 2017
%%EndComments
%%BeginProlog
80 dict begin
/s {stroke} def /l {lineto} def /m {moveto} def /t {translate} def
/r {rotate} def /rl {roll}  def /R {repeat} def
/d {rlineto} def /rm {rmoveto} def /gr {grestore} def /f {eofill} def
/c {setrgbcolor} def /black {0 setgray} def /sd {setdash} def
/cl {closepath} def /sf {scalefont setfont} def /lw {setlinewidth} def
/box {m dup 0 exch d exch 0 d 0 exch neg d cl} def
/NC{systemdict begin initclip end}def/C{NC box clip newpath}def
/bl {box s} def /bf {box f} def /Y { 0 exch d} def /X { 0 d} def 
/K {{pop pop 0 moveto} exch kshow} bind def
/ita {/ang 15 def gsave [1 0 ang dup sin exch cos div 1 0 0] concat} def 
/mp {newpath /y exch def /x exch def} def
/side {[w .77 mul w .23 mul] .385 w mul sd w 0 l currentpoint t -144 r} def
/mr {mp x y w2 0 360 arc} def /m24 {mr s} def /m20 {mr f} def
/mb {mp x y w2 add m w2 neg 0 d 0 w neg d w 0 d 0 w d cl} def
/mt {mp x y w2 add m w2 neg w neg d w 0 d cl} def
/m21 {mb f} def /m25 {mb s} def /m22 {mt f} def /m26{mt s} def
/m23 {mp x y w2 sub m w2 w d w neg 0 d cl f} def
/m27 {mp x y w2 add m w3 neg w2 neg d w3 w2 neg d w3 w2 d cl s} def
/m28 {mp x w2 sub y w2 sub w3 add m w3 0 d  0 w3 neg d w3 0 d 0 w3 d w3 0 d  0 w3 d w3 neg 0 d 0 w3 d w3 neg 0 d 0 w3 neg d w3 neg 0 d cl s } def
/m29 {mp gsave x w2 sub y w2 add w3 sub m currentpoint t 4 {side} repeat cl fill gr} def
/m30 {mp gsave x w2 sub y w2 add w3 sub m currentpoint t 4 {side} repeat cl s gr} def
/m31 {mp x y w2 sub m 0 w d x w2 sub y m w 0 d x w2 sub y w2 add m w w neg d x w2 sub y w2 sub m w w d s} def
/m32 {mp x y w2 sub m w2 w d w neg 0 d cl s} def
/m33 {mp x y w2 add m w3 neg w2 neg d w3 w2 neg d w3 w2 d cl f} def
/m34 {mp x w2 sub y w2 sub w3 add m w3 0 d  0 w3 neg d w3 0 d 0 w3 d w3 0 d  0 w3 d w3 neg 0 d 0 w3 d w3 neg 0 d 0 w3 neg d w3 neg 0 d cl f } def
/m2 {mp x y w2 sub m 0 w d x w2 sub y m w 0 d s} def
/m5 {mp x w2 sub y w2 sub m w w d x w2 sub y w2 add m w w neg d s} def
/reEncode {exch findfont dup length dict begin {1 index /FID eq  {pop pop} {def} ifelse } forall /Encoding exch def currentdict end dup /FontName get exch definefont pop } def [/Times-Bold /Times-Italic /Times-BoldItalic /Helvetica /Helvetica-Oblique
 /Helvetica-Bold /Helvetica-BoldOblique /Courier /Courier-Oblique /Courier-Bold /Courier-BoldOblique /Times-Roman /AvantGarde-Book /AvantGarde-BookOblique /AvantGarde-Demi /AvantGarde-DemiOblique /Bookman-Demi /Bookman-DemiItalic /Bookman-Light
 /Bookman-LightItalic /Helvetica-Narrow /Helvetica-Narrow-Bold /Helvetica-Narrow-BoldOblique /Helvetica-Narrow-Oblique /NewCenturySchlbk-Roman /NewCenturySchlbk-Bold /NewCenturySchlbk-BoldItalic /NewCenturySchlbk-Italic /Palatino-Bold
 /Palatino-BoldItalic /Palatino-Italic /Palatino-Roman ] {ISOLatin1Encoding reEncode } forall
%%EndProlog
%%BeginSetup
%%EndSetup
newpath  gsave  .25 .25 scale  gsave  0 0 t black[  ] 0 sd 3 lw 1 1 1 c 2268 1538 0 0 bf black 1 1 1 c 1791 1215 363 246 bf black 1791 1215 363 246 bl 363 246 m 1791 X s
 gsave  2268 1538 0 0 C 1668.21 52.1314 t 0 r /Helvetica findfont 71.6807 sf 0 0 m (mass_cb_n_4e) show NC gr  512 283 m -37 Y s 565 264 m -18 Y s 619 264 m -18 Y s 672 264 m -18 Y s 725 283 m -37 Y s 779 264 m -18 Y s 832 264 m -18 Y s 885 264 m -18
 Y s 939 283 m -37 Y s 992 264 m -18 Y s 1045 264 m -18 Y s 1099 264 m -18 Y s 1152 283 m -37 Y s 1205 264 m -18 Y s 1259 264 m -18 Y s 1312 264 m -18 Y s 1365 283 m -37 Y s 1419 264 m -18 Y s 1472 264 m -18 Y s 1525 264 m -18 Y s 1578 283 m -37 Y s
 1632 264 m -18 Y s 1685 264 m -18 Y s 1738 264 m -18 Y s 1792 283 m -37 Y s 1845 264 m -18 Y s 1898 264 m -18 Y s 1952 264 m -18 Y s 2005 283 m -37 Y s 512 283 m -37 Y s 459 264 m -18 Y s 405 264 m -18 Y s 2005 283 m -37 Y s 2058 264 m -18 Y s 2112
 264 m -18 Y s
 gsave  2268 1538 0 0 C 452.892 179.202 t 0 r /Helvetica findfont 71.6807 sf 0 0 m (200) show NC gr 
 gsave  2268 1538 0 0 C 664.676 179.202 t 0 r /Helvetica findfont 71.6807 sf 0 0 m (400) show NC gr 
 gsave  2268 1538 0 0 C 879.718 179.202 t 0 r /Helvetica findfont 71.6807 sf 0 0 m (600) show NC gr 
 gsave  2268 1538 0 0 C 1091.5 179.202 t 0 r /Helvetica findfont 71.6807 sf 0 0 m (800) show NC gr 
 gsave  2268 1538 0 0 C 1286.99 179.202 t 0 r /Helvetica findfont 71.6807 sf 0 0 m (1000) show NC gr 
 gsave  2268 1538 0 0 C 1498.78 179.202 t 0 r /Helvetica findfont 71.6807 sf 0 0 m (1200) show NC gr 
 gsave  2268 1538 0 0 C 1710.56 179.202 t 0 r /Helvetica findfont 71.6807 sf 0 0 m (1400) show NC gr 
 gsave  2268 1538 0 0 C 1925.6 179.202 t 0 r /Helvetica findfont 71.6807 sf 0 0 m (1600) show NC gr  363 1461 m 1791 X s 512 1425 m 36 Y s 565 1443 m 18 Y s 619 1443 m 18 Y s 672 1443 m 18 Y s 725 1425 m 36 Y s 779 1443 m 18 Y s 832 1443 m 18 Y s 885
 1443 m 18 Y s 939 1425 m 36 Y s 992 1443 m 18 Y s 1045 1443 m 18 Y s 1099 1443 m 18 Y s 1152 1425 m 36 Y s 1205 1443 m 18 Y s 1259 1443 m 18 Y s 1312 1443 m 18 Y s 1365 1425 m 36 Y s 1419 1443 m 18 Y s 1472 1443 m 18 Y s 1525 1443 m 18 Y s 1578 1425
 m 36 Y s 1632 1443 m 18 Y s 1685 1443 m 18 Y s 1738 1443 m 18 Y s 1792 1425 m 36 Y s 1845 1443 m 18 Y s 1898 1443 m 18 Y s 1952 1443 m 18 Y s 2005 1425 m 36 Y s 512 1425 m 36 Y s 459 1443 m 18 Y s 405 1443 m 18 Y s 2005 1425 m 36 Y s 2058 1443 m 18
 Y s 2112 1443 m 18 Y s 363 246 m 1215 Y s
 gsave  2268 1538 0 0 C 188.976 1159.92 t 90 r /Helvetica findfont 71.6807 sf 0 0 m (Fit Result) show NC gr  417 376 m -54 X s 390 412 m -27 X s 390 449 m -27 X s 390 485 m -27 X s 417 521 m -54 X s 390 557 m -27 X s 390 593 m -27 X s 390 629 m -27 X
 s 417 665 m -54 X s 390 702 m -27 X s 390 738 m -27 X s 390 774 m -27 X s 417 810 m -54 X s 390 846 m -27 X s 390 882 m -27 X s 390 919 m -27 X s 417 955 m -54 X s 390 991 m -27 X s 390 1027 m -27 X s 390 1063 m -27 X s 417 1099 m -54 X s 390 1136 m
 -27 X s 390 1172 m -27 X s 390 1208 m -27 X s 417 1244 m -54 X s 390 1280 m -27 X s 390 1316 m -27 X s 390 1353 m -27 X s 417 1389 m -54 X s 417 376 m -54 X s 390 340 m -27 X s 390 304 m -27 X s 390 268 m -27 X s 417 1389 m -54 X s 390 1425 m -27 X
 s
 gsave  2268 1538 0 0 C 250.882 351.887 t 0 r /Helvetica findfont 71.6807 sf 0 0 m (1.8) show NC gr 
 gsave  2268 1538 0 0 C 309.53 491.99 t 0 r /Helvetica findfont 71.6807 sf 0 0 m (2) show NC gr 
 gsave  2268 1538 0 0 C 250.882 638.61 t 0 r /Helvetica findfont 71.6807 sf 0 0 m (2.2) show NC gr 
 gsave  2268 1538 0 0 C 250.882 781.971 t 0 r /Helvetica findfont 71.6807 sf 0 0 m (2.4) show NC gr 
 gsave  2268 1538 0 0 C 250.882 931.849 t 0 r /Helvetica findfont 71.6807 sf 0 0 m (2.6) show NC gr 
 gsave  2268 1538 0 0 C 250.882 1075.21 t 0 r /Helvetica findfont 71.6807 sf 0 0 m (2.8) show NC gr 
 gsave  2268 1538 0 0 C 309.53 1218.57 t 0 r /Helvetica findfont 71.6807 sf 0 0 m (3) show NC gr 
 gsave  2268 1538 0 0 C 250.882 1365.19 t 0 r /Helvetica findfont 71.6807 sf 0 0 m (3.2) show NC gr  2154 246 m 1215 Y s 2101 376 m 53 X s 2127 412 m 27 X s 2127 449 m 27 X s 2127 485 m 27 X s 2101 521 m 53 X s 2127 557 m 27 X s 2127 593 m 27 X s
 2127 629 m 27 X s 2101 665 m 53 X s 2127 702 m 27 X s 2127 738 m 27 X s 2127 774 m 27 X s 2101 810 m 53 X s 2127 846 m 27 X s 2127 882 m 27 X s 2127 919 m 27 X s 2101 955 m 53 X s 2127 991 m 27 X s 2127 1027 m 27 X s 2127 1063 m 27 X s 2101 1099 m
 53 X s 2127 1136 m 27 X s 2127 1172 m 27 X s 2127 1208 m 27 X s 2101 1244 m 53 X s 2127 1280 m 27 X s 2127 1316 m 27 X s 2127 1353 m 27 X s 2101 1389 m 53 X s 2101 376 m 53 X s 2127 340 m 27 X s 2127 304 m 27 X s 2127 268 m 27 X s 2101 1389 m 53 X s
 2127 1425 m 27 X s 6 lw 3 lw /w 31 def /w2 {w 2 div} def /w3 {w 3 div} def 512 449 619 449 725 449 832 449 939 449 1045 449 1152 449 1259 449 1365 449 1578 449 1792 449 2005 449 12 { m20} R 6 lw
 gr  gr showpage
end
%%EOF
