%!PS-Adobe-2.0 EPSF-2.0
%%BoundingBox:  0 0 567 384
%%Title: H4l2015_plotfit/gg_graph_YieldCheck_2mu2e_fixed.eps: 
%%Creator: ROOT Version 5.34/10
%%CreationDate: Thu Feb 16 15:43:07 2017
%%EndComments
%%BeginProlog
80 dict begin
/s {stroke} def /l {lineto} def /m {moveto} def /t {translate} def
/r {rotate} def /rl {roll}  def /R {repeat} def
/d {rlineto} def /rm {rmoveto} def /gr {grestore} def /f {eofill} def
/c {setrgbcolor} def /black {0 setgray} def /sd {setdash} def
/cl {closepath} def /sf {scalefont setfont} def /lw {setlinewidth} def
/box {m dup 0 exch d exch 0 d 0 exch neg d cl} def
/NC{systemdict begin initclip end}def/C{NC box clip newpath}def
/bl {box s} def /bf {box f} def /Y { 0 exch d} def /X { 0 d} def 
/K {{pop pop 0 moveto} exch kshow} bind def
/ita {/ang 15 def gsave [1 0 ang dup sin exch cos div 1 0 0] concat} def 
/mp {newpath /y exch def /x exch def} def
/side {[w .77 mul w .23 mul] .385 w mul sd w 0 l currentpoint t -144 r} def
/mr {mp x y w2 0 360 arc} def /m24 {mr s} def /m20 {mr f} def
/mb {mp x y w2 add m w2 neg 0 d 0 w neg d w 0 d 0 w d cl} def
/mt {mp x y w2 add m w2 neg w neg d w 0 d cl} def
/m21 {mb f} def /m25 {mb s} def /m22 {mt f} def /m26{mt s} def
/m23 {mp x y w2 sub m w2 w d w neg 0 d cl f} def
/m27 {mp x y w2 add m w3 neg w2 neg d w3 w2 neg d w3 w2 d cl s} def
/m28 {mp x w2 sub y w2 sub w3 add m w3 0 d  0 w3 neg d w3 0 d 0 w3 d w3 0 d  0 w3 d w3 neg 0 d 0 w3 d w3 neg 0 d 0 w3 neg d w3 neg 0 d cl s } def
/m29 {mp gsave x w2 sub y w2 add w3 sub m currentpoint t 4 {side} repeat cl fill gr} def
/m30 {mp gsave x w2 sub y w2 add w3 sub m currentpoint t 4 {side} repeat cl s gr} def
/m31 {mp x y w2 sub m 0 w d x w2 sub y m w 0 d x w2 sub y w2 add m w w neg d x w2 sub y w2 sub m w w d s} def
/m32 {mp x y w2 sub m w2 w d w neg 0 d cl s} def
/m33 {mp x y w2 add m w3 neg w2 neg d w3 w2 neg d w3 w2 d cl f} def
/m34 {mp x w2 sub y w2 sub w3 add m w3 0 d  0 w3 neg d w3 0 d 0 w3 d w3 0 d  0 w3 d w3 neg 0 d 0 w3 d w3 neg 0 d 0 w3 neg d w3 neg 0 d cl f } def
/m2 {mp x y w2 sub m 0 w d x w2 sub y m w 0 d s} def
/m5 {mp x w2 sub y w2 sub m w w d x w2 sub y w2 add m w w neg d s} def
/reEncode {exch findfont dup length dict begin {1 index /FID eq  {pop pop} {def} ifelse } forall /Encoding exch def currentdict end dup /FontName get exch definefont pop } def [/Times-Bold /Times-Italic /Times-BoldItalic /Helvetica /Helvetica-Oblique
 /Helvetica-Bold /Helvetica-BoldOblique /Courier /Courier-Oblique /Courier-Bold /Courier-BoldOblique /Times-Roman /AvantGarde-Book /AvantGarde-BookOblique /AvantGarde-Demi /AvantGarde-DemiOblique /Bookman-Demi /Bookman-DemiItalic /Bookman-Light
 /Bookman-LightItalic /Helvetica-Narrow /Helvetica-Narrow-Bold /Helvetica-Narrow-BoldOblique /Helvetica-Narrow-Oblique /NewCenturySchlbk-Roman /NewCenturySchlbk-Bold /NewCenturySchlbk-BoldItalic /NewCenturySchlbk-Italic /Palatino-Bold
 /Palatino-BoldItalic /Palatino-Italic /Palatino-Roman ] {ISOLatin1Encoding reEncode } forall
%%EndProlog
%%BeginSetup
%%EndSetup
newpath  gsave  .25 .25 scale  gsave  0 0 t black[  ] 0 sd 3 lw 1 1 1 c 2268 1538 0 0 bf black 1 1 1 c 1791 1215 363 246 bf black 1791 1215 363 246 bl 363 246 m 1791 X s
 gsave  2268 1538 0 0 C 1625.85 52.1314 t 0 r /Helvetica findfont 71.6807 sf 0 0 m (m\(2mu2e\) [GeV]) show NC gr  512 283 m -37 Y s 565 264 m -18 Y s 619 264 m -18 Y s 672 264 m -18 Y s 725 283 m -37 Y s 779 264 m -18 Y s 832 264 m -18 Y s 885 264 m
 -18 Y s 939 283 m -37 Y s 992 264 m -18 Y s 1045 264 m -18 Y s 1099 264 m -18 Y s 1152 283 m -37 Y s 1205 264 m -18 Y s 1259 264 m -18 Y s 1312 264 m -18 Y s 1365 283 m -37 Y s 1419 264 m -18 Y s 1472 264 m -18 Y s 1525 264 m -18 Y s 1578 283 m -37
 Y s 1632 264 m -18 Y s 1685 264 m -18 Y s 1738 264 m -18 Y s 1792 283 m -37 Y s 1845 264 m -18 Y s 1898 264 m -18 Y s 1952 264 m -18 Y s 2005 283 m -37 Y s 512 283 m -37 Y s 459 264 m -18 Y s 405 264 m -18 Y s 2005 283 m -37 Y s 2058 264 m -18 Y s
 2112 264 m -18 Y s
 gsave  2268 1538 0 0 C 452.892 179.202 t 0 r /Helvetica findfont 71.6807 sf 0 0 m (200) show NC gr 
 gsave  2268 1538 0 0 C 664.676 179.202 t 0 r /Helvetica findfont 71.6807 sf 0 0 m (400) show NC gr 
 gsave  2268 1538 0 0 C 879.718 179.202 t 0 r /Helvetica findfont 71.6807 sf 0 0 m (600) show NC gr 
 gsave  2268 1538 0 0 C 1091.5 179.202 t 0 r /Helvetica findfont 71.6807 sf 0 0 m (800) show NC gr 
 gsave  2268 1538 0 0 C 1286.99 179.202 t 0 r /Helvetica findfont 71.6807 sf 0 0 m (1000) show NC gr 
 gsave  2268 1538 0 0 C 1498.78 179.202 t 0 r /Helvetica findfont 71.6807 sf 0 0 m (1200) show NC gr 
 gsave  2268 1538 0 0 C 1710.56 179.202 t 0 r /Helvetica findfont 71.6807 sf 0 0 m (1400) show NC gr 
 gsave  2268 1538 0 0 C 1925.6 179.202 t 0 r /Helvetica findfont 71.6807 sf 0 0 m (1600) show NC gr  363 1461 m 1791 X s 512 1425 m 36 Y s 565 1443 m 18 Y s 619 1443 m 18 Y s 672 1443 m 18 Y s 725 1425 m 36 Y s 779 1443 m 18 Y s 832 1443 m 18 Y s 885
 1443 m 18 Y s 939 1425 m 36 Y s 992 1443 m 18 Y s 1045 1443 m 18 Y s 1099 1443 m 18 Y s 1152 1425 m 36 Y s 1205 1443 m 18 Y s 1259 1443 m 18 Y s 1312 1443 m 18 Y s 1365 1425 m 36 Y s 1419 1443 m 18 Y s 1472 1443 m 18 Y s 1525 1443 m 18 Y s 1578 1425
 m 36 Y s 1632 1443 m 18 Y s 1685 1443 m 18 Y s 1738 1443 m 18 Y s 1792 1425 m 36 Y s 1845 1443 m 18 Y s 1898 1443 m 18 Y s 1952 1443 m 18 Y s 2005 1425 m 36 Y s 512 1425 m 36 Y s 459 1443 m 18 Y s 405 1443 m 18 Y s 2005 1425 m 36 Y s 2058 1443 m 18
 Y s 2112 1443 m 18 Y s 363 246 m 1215 Y s
 gsave  2268 1538 0 0 C 208.526 1423.84 t 90 r /Helvetica findfont 48.8732 sf 0 0 m (fit) show NC gr 
 gsave  2268 1538 0 0 C 172.685 1332.61 t 90 r /Helvetica findfont 71.6807 sf 0 0 m (\)/N) show NC gr 
 gsave  2268 1538 0 0 C 188.976 1238.12 t 90 r /Helvetica findfont 48.8732 sf 0 0 m (reco) show NC gr 
 gsave  2268 1538 0 0 C 172.685 1127.34 t 90 r /Helvetica findfont 71.6807 sf 0 0 m ( \255 N) show NC gr 
 gsave  2268 1538 0 0 C 208.526 1088.24 t 90 r /Helvetica findfont 48.8732 sf 0 0 m (fit) show NC gr 
 gsave  2268 1538 0 0 C 172.685 1016.56 t 90 r /Helvetica findfont 71.6807 sf 0 0 m (\(N) show NC gr  417 246 m -54 X s 390 297 m -27 X s 390 347 m -27 X s 390 398 m -27 X s 417 449 m -54 X s 390 499 m -27 X s 390 550 m -27 X s 390 600 m -27 X s 417
 651 m -54 X s 390 702 m -27 X s 390 752 m -27 X s 390 803 m -27 X s 417 854 m -54 X s 390 904 m -27 X s 390 955 m -27 X s 390 1005 m -27 X s 417 1056 m -54 X s 390 1107 m -27 X s 390 1157 m -27 X s 390 1208 m -27 X s 417 1258 m -54 X s 390 1309 m
 -27 X s 390 1360 m -27 X s 390 1410 m -27 X s 417 1461 m -54 X s
 gsave  2268 1538 0 0 C 185.718 221.559 t 0 r /Helvetica findfont 71.6807 sf 0 0 m (\2550.06) show NC gr 
 gsave  2268 1538 0 0 C 185.718 423.568 t 0 r /Helvetica findfont 71.6807 sf 0 0 m (\2550.04) show NC gr 
 gsave  2268 1538 0 0 C 185.718 625.577 t 0 r /Helvetica findfont 71.6807 sf 0 0 m (\2550.02) show NC gr 
 gsave  2268 1538 0 0 C 309.53 827.586 t 0 r /Helvetica findfont 71.6807 sf 0 0 m (0) show NC gr 
 gsave  2268 1538 0 0 C 211.784 1032.85 t 0 r /Helvetica findfont 71.6807 sf 0 0 m (0.02) show NC gr 
 gsave  2268 1538 0 0 C 208.526 1234.86 t 0 r /Helvetica findfont 71.6807 sf 0 0 m (0.04) show NC gr 
 gsave  2268 1538 0 0 C 211.784 1436.87 t 0 r /Helvetica findfont 71.6807 sf 0 0 m (0.06) show NC gr  2154 246 m 1215 Y s 2101 246 m 53 X s 2127 297 m 27 X s 2127 347 m 27 X s 2127 398 m 27 X s 2101 449 m 53 X s 2127 499 m 27 X s 2127 550 m 27 X s
 2127 600 m 27 X s 2101 651 m 53 X s 2127 702 m 27 X s 2127 752 m 27 X s 2127 803 m 27 X s 2101 854 m 53 X s 2127 904 m 27 X s 2127 955 m 27 X s 2127 1005 m 27 X s 2101 1056 m 53 X s 2127 1107 m 27 X s 2127 1157 m 27 X s 2127 1208 m 27 X s 2101 1258
 m 53 X s 2127 1309 m 27 X s 2127 1360 m 27 X s 2127 1410 m 27 X s 2101 1461 m 53 X s 6 lw 3 lw /w 31 def /w2 {w 2 div} def /w3 {w 3 div} def 512 685 619 557 725 609 832 688 939 709 1045 733 1152 726 1259 749 1365 725 1578 709 1792 767 2005 747 12 {
 m20} R 6 lw 512 698 m 86 Y s 512 784 m cl s 512 672 m -86 Y s 512 586 m cl s 619 570 m 82 Y s 619 652 m cl s 619 544 m -83 Y s 619 461 m cl s 725 622 m 79 Y s 725 701 m cl s 725 596 m -80 Y s 725 516 m cl s 832 701 m 77 Y s 832 778 m cl s 832 675 m
 -77 Y s 832 598 m cl s 939 722 m 75 Y s 939 797 m cl s 939 696 m -75 Y s 939 621 m cl s 1045 746 m 73 Y s 1045 819 m cl s 1045 720 m -74 Y s 1045 646 m cl s 1152 739 m 74 Y s 1152 813 m cl s 1152 713 m -73 Y s 1152 640 m cl s 1259 762 m 72 Y s 1259
 834 m cl s 1259 736 m -73 Y s 1259 663 m cl s 1365 738 m 72 Y s 1365 810 m cl s 1365 712 m -72 Y s 1365 640 m cl s 1578 722 m 73 Y s 1578 795 m cl s 1578 696 m -72 Y s 1578 624 m cl s 1792 780 m 74 Y s 1792 854 m cl s 1792 754 m -74 Y s 1792 680 m
 cl s 2005 760 m 73 Y s 2005 833 m cl s 2005 734 m -72 Y s 2005 662 m cl s 9 lw 0.95 0.95 0.95 c black 372 854 m 878 X s 1250 854 m 877 X s 2127 854 m 18 X s
 gr  gr showpage
end
%%EOF
