%!PS-Adobe-2.0 EPSF-2.0
%%BoundingBox:  0 0 567 384
%%Title: H4l2015_plotfit/gg_mass_signal_1400_H4l_4e.eps: 
%%Creator: ROOT Version 5.34/10
%%CreationDate: Thu Feb 16 13:49:39 2017
%%EndComments
%%BeginProlog
80 dict begin
/s {stroke} def /l {lineto} def /m {moveto} def /t {translate} def
/r {rotate} def /rl {roll}  def /R {repeat} def
/d {rlineto} def /rm {rmoveto} def /gr {grestore} def /f {eofill} def
/c {setrgbcolor} def /black {0 setgray} def /sd {setdash} def
/cl {closepath} def /sf {scalefont setfont} def /lw {setlinewidth} def
/box {m dup 0 exch d exch 0 d 0 exch neg d cl} def
/NC{systemdict begin initclip end}def/C{NC box clip newpath}def
/bl {box s} def /bf {box f} def /Y { 0 exch d} def /X { 0 d} def 
/K {{pop pop 0 moveto} exch kshow} bind def
/ita {/ang 15 def gsave [1 0 ang dup sin exch cos div 1 0 0] concat} def 
/mp {newpath /y exch def /x exch def} def
/side {[w .77 mul w .23 mul] .385 w mul sd w 0 l currentpoint t -144 r} def
/mr {mp x y w2 0 360 arc} def /m24 {mr s} def /m20 {mr f} def
/mb {mp x y w2 add m w2 neg 0 d 0 w neg d w 0 d 0 w d cl} def
/mt {mp x y w2 add m w2 neg w neg d w 0 d cl} def
/m21 {mb f} def /m25 {mb s} def /m22 {mt f} def /m26{mt s} def
/m23 {mp x y w2 sub m w2 w d w neg 0 d cl f} def
/m27 {mp x y w2 add m w3 neg w2 neg d w3 w2 neg d w3 w2 d cl s} def
/m28 {mp x w2 sub y w2 sub w3 add m w3 0 d  0 w3 neg d w3 0 d 0 w3 d w3 0 d  0 w3 d w3 neg 0 d 0 w3 d w3 neg 0 d 0 w3 neg d w3 neg 0 d cl s } def
/m29 {mp gsave x w2 sub y w2 add w3 sub m currentpoint t 4 {side} repeat cl fill gr} def
/m30 {mp gsave x w2 sub y w2 add w3 sub m currentpoint t 4 {side} repeat cl s gr} def
/m31 {mp x y w2 sub m 0 w d x w2 sub y m w 0 d x w2 sub y w2 add m w w neg d x w2 sub y w2 sub m w w d s} def
/m32 {mp x y w2 sub m w2 w d w neg 0 d cl s} def
/m33 {mp x y w2 add m w3 neg w2 neg d w3 w2 neg d w3 w2 d cl f} def
/m34 {mp x w2 sub y w2 sub w3 add m w3 0 d  0 w3 neg d w3 0 d 0 w3 d w3 0 d  0 w3 d w3 neg 0 d 0 w3 d w3 neg 0 d 0 w3 neg d w3 neg 0 d cl f } def
/m2 {mp x y w2 sub m 0 w d x w2 sub y m w 0 d s} def
/m5 {mp x w2 sub y w2 sub m w w d x w2 sub y w2 add m w w neg d s} def
/reEncode {exch findfont dup length dict begin {1 index /FID eq  {pop pop} {def} ifelse } forall /Encoding exch def currentdict end dup /FontName get exch definefont pop } def [/Times-Bold /Times-Italic /Times-BoldItalic /Helvetica /Helvetica-Oblique
 /Helvetica-Bold /Helvetica-BoldOblique /Courier /Courier-Oblique /Courier-Bold /Courier-BoldOblique /Times-Roman /AvantGarde-Book /AvantGarde-BookOblique /AvantGarde-Demi /AvantGarde-DemiOblique /Bookman-Demi /Bookman-DemiItalic /Bookman-Light
 /Bookman-LightItalic /Helvetica-Narrow /Helvetica-Narrow-Bold /Helvetica-Narrow-BoldOblique /Helvetica-Narrow-Oblique /NewCenturySchlbk-Roman /NewCenturySchlbk-Bold /NewCenturySchlbk-BoldItalic /NewCenturySchlbk-Italic /Palatino-Bold
 /Palatino-BoldItalic /Palatino-Italic /Palatino-Roman ] {ISOLatin1Encoding reEncode } forall
%%EndProlog
%%BeginSetup
%%EndSetup
newpath  gsave  .25 .25 scale  gsave  0 0 t black[  ] 0 sd 3 lw 1 1 1 c 2268 1538 0 0 bf black 1 1 1 c 2222 738 23 784 bf black 1 1 1 c 2222 739 23 15 bf black 1 1 1 c 2268 1077 0 461 bf black 1 1 1 c 1791 850 363 634 bf black 1791 850 363 634 bl 363
 634 m 1791 X s
 gsave  2268 1077 0 461 C 1642.14 498.507 t 0 r /Helvetica findfont 48.9324 sf 0 0 m (4l Invariant Mass \(GeV\)) show NC gr  526 659 m -25 Y s 607 646 m -12 Y s 689 646 m -12 Y s 770 646 m -12 Y s 851 659 m -25 Y s 933 646 m -12 Y s 1014 646 m -12 Y
 s 1096 646 m -12 Y s 1177 659 m -25 Y s 1259 646 m -12 Y s 1340 646 m -12 Y s 1421 646 m -12 Y s 1503 659 m -25 Y s 1584 646 m -12 Y s 1666 646 m -12 Y s 1747 646 m -12 Y s 1829 659 m -25 Y s 1910 646 m -12 Y s 1991 646 m -12 Y s 2073 646 m -12 Y s
 2154 659 m -25 Y s 526 659 m -25 Y s 444 646 m -12 Y s 363 646 m -12 Y s
 gsave  2268 1077 0 461 C 469.183 586.478 t 0 r /Helvetica findfont 48.9324 sf 0 0 m (1340) show NC gr 
 gsave  2268 1077 0 461 C 795.004 586.478 t 0 r /Helvetica findfont 48.9324 sf 0 0 m (1360) show NC gr 
 gsave  2268 1077 0 461 C 1120.83 586.478 t 0 r /Helvetica findfont 48.9324 sf 0 0 m (1380) show NC gr 
 gsave  2268 1077 0 461 C 1446.65 586.478 t 0 r /Helvetica findfont 48.9324 sf 0 0 m (1400) show NC gr 
 gsave  2268 1077 0 461 C 1772.47 586.478 t 0 r /Helvetica findfont 48.9324 sf 0 0 m (1420) show NC gr 
 gsave  2268 1077 0 461 C 2098.29 586.478 t 0 r /Helvetica findfont 48.9324 sf 0 0 m (1440) show NC gr  363 1484 m 1791 X s 526 1459 m 25 Y s 607 1471 m 13 Y s 689 1471 m 13 Y s 770 1471 m 13 Y s 851 1459 m 25 Y s 933 1471 m 13 Y s 1014 1471 m 13 Y s
 1096 1471 m 13 Y s 1177 1459 m 25 Y s 1259 1471 m 13 Y s 1340 1471 m 13 Y s 1421 1471 m 13 Y s 1503 1459 m 25 Y s 1584 1471 m 13 Y s 1666 1471 m 13 Y s 1747 1471 m 13 Y s 1829 1459 m 25 Y s 1910 1471 m 13 Y s 1991 1471 m 13 Y s 2073 1471 m 13 Y s
 2154 1459 m 25 Y s 526 1459 m 25 Y s 444 1471 m 13 Y s 363 1471 m 13 Y s 363 634 m 850 Y s
 gsave  2268 1077 0 461 C 120.554 1058.92 t 90 r /Helvetica findfont 48.9324 sf 0 0 m (Events / \( 2.2 GeV \)) show NC gr  390 657 m -27 X s 390 711 m -27 X s 390 749 m -27 X s 390 779 m -27 X s 390 803 m -27 X s 390 823 m -27 X s 390 841 m -27 X s
 390 857 m -27 X s 417 871 m -54 X s
 gsave  2268 1077 0 461 C 342.425 850.049 t 0 r  -55 0 t /Helvetica findfont 48.9324 sf 0 0 m (10) show NC gr  390 963 m -27 X s 390 1017 m -27 X s 390 1055 m -27 X s 390 1085 m -27 X s 390 1109 m -27 X s 390 1130 m -27 X s 390 1147 m -27 X s 390
 1163 m -27 X s 417 1177 m -54 X s
 gsave  2268 1077 0 461 C 322.563 1176.21 t 0 r /Helvetica findfont 32.6216 sf 0 0 m (2) show NC gr 
 gsave  2268 1077 0 461 C 270.432 1156.67 t 0 r /Helvetica findfont 48.9324 sf 0 0 m (10) show NC gr  390 1269 m -27 X s 390 1323 m -27 X s 390 1361 m -27 X s 390 1391 m -27 X s 390 1415 m -27 X s 390 1436 m -27 X s 390 1453 m -27 X s 390 1469 m -27
 X s 417 1483 m -54 X s
 gsave  2268 1077 0 461 C 322.563 1485.75 t 0 r /Helvetica findfont 32.6216 sf 0 0 m (3) show NC gr 
 gsave  2268 1077 0 461 C 270.432 1462.94 t 0 r /Helvetica findfont 48.9324 sf 0 0 m (10) show NC gr  2154 634 m 850 Y s 2127 657 m 27 X s 2127 711 m 27 X s 2127 749 m 27 X s 2127 779 m 27 X s 2127 803 m 27 X s 2127 823 m 27 X s 2127 841 m 27 X s
 2127 857 m 27 X s 2101 871 m 53 X s 2127 963 m 27 X s 2127 1017 m 27 X s 2127 1055 m 27 X s 2127 1085 m 27 X s 2127 1109 m 27 X s 2127 1130 m 27 X s 2127 1147 m 27 X s 2127 1163 m 27 X s 2101 1177 m 53 X s 2127 1269 m 27 X s 2127 1323 m 27 X s 2127
 1361 m 27 X s 2127 1391 m 27 X s 2127 1415 m 27 X s 2127 1436 m 27 X s 2127 1453 m 27 X s 2127 1469 m 27 X s 2101 1483 m 53 X s 381 749 m -18 X s 363 749 m cl s 381 749 m 18 X s 399 749 m cl s 381 749 m 78 Y s 381 827 m cl s 381 749 m -86 Y s 381
 663 m cl s 417 749 m -18 X s 399 749 m cl s 417 749 m 17 X s 434 749 m cl s 417 749 m 78 Y s 417 827 m cl s 417 749 m -86 Y s 417 663 m cl s 452 841 m -18 X s 434 841 m cl s 452 841 m 18 X s 470 841 m cl s 452 841 m 54 Y s 452 895 m cl s 452 841 m
 -56 Y s 452 785 m cl s 488 841 m -18 X s 470 841 m cl s 488 841 m 18 X s 506 841 m cl s 488 841 m 54 Y s 488 895 m cl s 488 841 m -56 Y s 488 785 m cl s 524 857 m -18 X s 506 857 m cl s 524 857 m 18 X s 542 857 m cl s 524 857 m 50 Y s 524 907 m cl s
 524 857 m -53 Y s 524 804 m cl s 560 884 m -18 X s 542 884 m cl s 560 884 m 18 X s 578 884 m cl s 560 884 m 44 Y s 560 928 m cl s 560 884 m -47 Y s 560 837 m cl s 596 884 m -18 X s 578 884 m cl s 596 884 m 18 X s 614 884 m cl s 596 884 m 44 Y s 596
 928 m cl s 596 884 m -47 Y s 596 837 m cl s 632 906 m -18 X s 614 906 m cl s 632 906 m 17 X s 649 906 m cl s 632 906 m 41 Y s 632 947 m cl s 632 906 m -43 Y s 632 863 m cl s 667 895 m -18 X s 649 895 m cl s 667 895 m 18 X s 685 895 m cl s 667 895 m
 43 Y s 667 938 m cl s 667 895 m -44 Y s 667 851 m cl s 703 823 m -18 X s 685 823 m cl s 703 823 m 18 X s 721 823 m cl s 703 823 m 58 Y s 703 881 m cl s 703 823 m -61 Y s 703 762 m cl s 739 916 m -18 X s 721 916 m cl s 739 916 m 18 X s 757 916 m cl s
 739 916 m 39 Y s 739 955 m cl s 739 916 m -41 Y s 739 875 m cl s 775 970 m -18 X s 757 970 m cl s 775 970 m 18 X s 793 970 m cl s 775 970 m 31 Y s 775 1001 m cl s 775 970 m -33 Y s 775 937 m cl s 811 956 m -18 X s 793 956 m cl s 811 956 m 18 X s 829
 956 m cl s 811 956 m 34 Y s 811 990 m cl s 811 956 m -34 Y s 811 922 m cl s 847 949 m -18 X s 829 949 m cl s 847 949 m 17 X s 864 949 m cl s 847 949 m 34 Y s 847 983 m cl s 847 949 m -35 Y s 847 914 m cl s 882 1008 m -18 X s 864 1008 m cl s 882 1008
 m 18 X s 900 1008 m cl s 882 1008 m 27 Y s 882 1035 m cl s 882 1008 m -28 Y s 882 980 m cl s 918 1030 m -18 X s 900 1030 m cl s 918 1030 m 18 X s 936 1030 m cl s 918 1030 m 25 Y s 918 1055 m cl s 918 1030 m -26 Y s 918 1004 m cl s 954 1021 m -18 X s
 936 1021 m cl s 954 1021 m 18 X s 972 1021 m cl s 954 1021 m 26 Y s 954 1047 m cl s 954 1021 m -26 Y s 954 995 m cl s 990 1068 m -18 X s 972 1068 m cl s 990 1068 m 18 X s 1008 1068 m cl s 990 1068 m 21 Y s 990 1089 m cl s 990 1068 m -22 Y s 990 1046
 m cl s 1026 1068 m -18 X s 1008 1068 m cl s 1026 1068 m 18 X s 1044 1068 m cl s 1026 1068 m 21 Y s 1026 1089 m cl s 1026 1068 m -22 Y s 1026 1046 m cl s 1062 1105 m -18 X s 1044 1105 m cl s 1062 1105 m 17 X s 1079 1105 m cl s 1062 1105 m 18 Y s 1062
 1123 m cl s 1062 1105 m -19 Y s 1062 1086 m cl s 1097 1105 m -18 X s 1079 1105 m cl s 1097 1105 m 18 X s 1115 1105 m cl s 1097 1105 m 18 Y s 1097 1123 m cl s 1097 1105 m -19 Y s 1097 1086 m cl s 1133 1162 m -18 X s 1115 1162 m cl s 1133 1162 m 18 X
 s 1151 1162 m cl s 1133 1162 m 14 Y s 1133 1176 m cl s 1133 1162 m -15 Y s 1133 1147 m cl s 1169 1199 m -18 X s 1151 1199 m cl s 1169 1199 m 18 X s 1187 1199 m cl s 1169 1199 m 12 Y s 1169 1211 m cl s 1169 1199 m -12 Y s 1169 1187 m cl s 1205 1252 m
 -18 X s 1187 1252 m cl s 1205 1252 m 18 X s 1223 1252 m cl s 1205 1252 m 10 Y s 1205 1262 m cl s 1205 1252 m -10 Y s 1205 1242 m cl s 1241 1251 m -18 X s 1223 1251 m cl s 1241 1251 m 18 X s 1259 1251 m cl s 1241 1251 m 10 Y s 1241 1261 m cl s 1241
 1251 m -10 Y s 1241 1241 m cl s 1276 1314 m -17 X s 1259 1314 m cl s 1276 1314 m 18 X s 1294 1314 m cl s 1276 1314 m 8 Y s 1276 1322 m cl s 1276 1314 m -8 Y s 1276 1306 m cl s 1312 1339 m -18 X s 1294 1339 m cl s 1312 1339 m 18 X s 1330 1339 m cl s
 1312 1339 m 7 Y s 1312 1346 m cl s 1312 1339 m -7 Y s 1312 1332 m cl s 1348 1359 m -18 X s 1330 1359 m cl s 1348 1359 m 18 X s 1366 1359 m cl s 1348 1359 m 6 Y s 1348 1365 m cl s 1348 1359 m -7 Y s 1348 1352 m cl s 1384 1382 m -18 X s 1366 1382 m cl
 s 1384 1382 m 18 X s 1402 1382 m cl s 1384 1382 m 6 Y s 1384 1388 m cl s 1384 1382 m -7 Y s 1384 1375 m cl s 1420 1404 m -18 X s 1402 1404 m cl s 1420 1404 m 18 X s 1438 1404 m cl s 1420 1404 m 6 Y s 1420 1410 m cl s 1420 1404 m -6 Y s 1420 1398 m
 cl s 1456 1396 m -18 X s 1438 1396 m cl s 1456 1396 m 18 X s 1474 1396 m cl s 1456 1396 m 6 Y s 1456 1402 m cl s 1456 1396 m -6 Y s 1456 1390 m cl s 1491 1418 m -17 X s 1474 1418 m cl s 1491 1418 m 18 X s 1509 1418 m cl s 1491 1418 m 6 Y s 1491 1424
 m cl s 1491 1418 m -5 Y s 1491 1413 m cl s 1527 1398 m -18 X s 1509 1398 m cl s 1527 1398 m 18 X s 1545 1398 m cl s 1527 1398 m 6 Y s 1527 1404 m cl s 1527 1398 m -5 Y s 1527 1393 m cl s 1563 1377 m -18 X s 1545 1377 m cl s 1563 1377 m 18 X s 1581
 1377 m cl s 1563 1377 m 7 Y s 1563 1384 m cl s 1563 1377 m -6 Y s 1563 1371 m cl s 1599 1348 m -18 X s 1581 1348 m cl s 1599 1348 m 18 X s 1617 1348 m cl s 1599 1348 m 7 Y s 1599 1355 m cl s 1599 1348 m -7 Y s 1599 1341 m cl s 1635 1314 m -18 X s
 1617 1314 m cl s 1635 1314 m 18 X s 1653 1314 m cl s 1635 1314 m 8 Y s 1635 1322 m cl s 1635 1314 m -8 Y s 1635 1306 m cl s 1671 1264 m -18 X s 1653 1264 m cl s 1671 1264 m 18 X s 1689 1264 m cl s 1671 1264 m 9 Y s 1671 1273 m cl s 1671 1264 m -10 Y
 s 1671 1254 m cl s 1706 1216 m -17 X s 1689 1216 m cl s 1706 1216 m 18 X s 1724 1216 m cl s 1706 1216 m 11 Y s 1706 1227 m cl s 1706 1216 m -12 Y s 1706 1204 m cl s 1742 1174 m -18 X s 1724 1174 m cl s 1742 1174 m 18 X s 1760 1174 m cl s 1742 1174 m
 14 Y s 1742 1188 m cl s 1742 1174 m -14 Y s 1742 1160 m cl s 1778 1130 m -18 X s 1760 1130 m cl s 1778 1130 m 18 X s 1796 1130 m cl s 1778 1130 m 16 Y s 1778 1146 m cl s 1778 1130 m -17 Y s 1778 1113 m cl s 1814 1082 m -18 X s 1796 1082 m cl s 1814
 1082 m 18 X s 1832 1082 m cl s 1814 1082 m 20 Y s 1814 1102 m cl s 1814 1082 m -20 Y s 1814 1062 m cl s 1850 1021 m -18 X s 1832 1021 m cl s 1850 1021 m 18 X s 1868 1021 m cl s 1850 1021 m 26 Y s 1850 1047 m cl s 1850 1021 m -26 Y s 1850 995 m cl s
 1886 963 m -18 X s 1868 963 m cl s 1886 963 m 18 X s 1904 963 m cl s 1886 963 m 33 Y s 1886 996 m cl s 1886 963 m -33 Y s 1886 930 m cl s 1921 956 m -17 X s 1904 956 m cl s 1921 956 m 18 X s 1939 956 m cl s 1921 956 m 34 Y s 1921 990 m cl s 1921 956
 m -34 Y s 1921 922 m cl s 1957 884 m -18 X s 1939 884 m cl s 1957 884 m 18 X s 1975 884 m cl s 1957 884 m 44 Y s 1957 928 m cl s 1957 884 m -47 Y s 1957 837 m cl s 1993 857 m -18 X s 1975 857 m cl s 1993 857 m 18 X s 2011 857 m cl s 1993 857 m 50 Y
 s 1993 907 m cl s 1993 857 m -53 Y s 1993 804 m cl s 2029 871 m -18 X s 2011 871 m cl s 2029 871 m 18 X s 2047 871 m cl s 2029 871 m 47 Y s 2029 918 m cl s 2029 871 m -50 Y s 2029 821 m cl s 2065 657 m -18 X s 2047 657 m cl s 2065 657 m 18 X s 2083
 657 m cl s 2065 657 m 112 Y s 2065 769 m cl s 2065 657 m -23 Y s 2065 634 m cl s 2101 871 m -18 X s 2083 871 m cl s 2101 871 m 18 X s 2119 871 m cl s 2101 871 m 47 Y s 2101 918 m cl s 2101 871 m -50 Y s 2101 821 m cl s 2136 711 m -17 X s 2119 711 m
 cl s 2136 711 m 18 X s 2154 711 m cl s 2136 711 m 90 Y s 2136 801 m cl s 2136 711 m -77 Y s 2136 634 m cl s /w 31 def /w2 {w 2 div} def /w3 {w 3 div} def 381 749 417 749 452 841 488 841 524 857 560 884 596 884 632 906 667 895 703 823 739 916 775 970
 811 956 847 949 882 1008 918 1030 954 1021 990 1068 1026 1068 1062 1105 1097 1105 1133 1162 1169 1199 1205 1252 1241 1251 1276 1314 1312 1339 1348 1359 1384 1382 1420 1404 1456 1396 1491 1418 1527 1398 1563 1377 1599 1348 1635 1314 1671 1264 1706
 1216 1742 1174 1778 1130 1814 1082 1850 1021 1886 963 1921 956 1957 884 1993 857 2029 871 2065 657 2101 871 2136 711 50 { m20} R 0 1 1 c 1 1 0 c black 1 1 0 c 363 808 m 36 9 d 35 10 d 36 10 d 36 11 d 36 12 d 36 12 d 36 14 d 35 14 d 36 15 d 36 16 d
 36 17 d 36 17 d 36 18 d 35 18 d 36 20 d 36 20 d 36 21 d 36 23 d 36 23 d 35 24 d 36 25 d 18 13 d 18 13 d 18 14 d 18 15 d 18 16 d 9 9 d 9 10 d 9 11 d 9 12 d 9 12 d 9 11 d 17 19 d 18 18 d 36 30 d 18 12 d 18 11 d 9 5 d 9 5 d 9 4 d 9 3 d 9 3 d 9 3 d 9 2
 d 9 2 d 9 1 d 9 1 d 18 X 9 -1 d 8 -2 d 9 -2 d 9 -2 d 9 -3 d 9 -4 d 9 -4 d 9 -5 d 18 -10 d 18 -13 d 36 -29 d 18 -18 d 18 -19 d 18 -20 d 18 -22 d 17 -23 d 18 -25 d 18 -25 d 18 -26 d 18 -26 d 18 -26 d 18 -26 d 18 -24 d 18 -22 d 18 -21 d 36 -38 d 35 -34
 d 36 -31 d 36 -29 d 36 -27 d 36 -26 d 36 -27 d 35 -26 d -142 Y -1 X -34 56 d -36 49 d -36 43 d -36 38 d -36 36 d -36 36 d -35 40 d -36 46 d -18 25 d -18 26 d -18 27 d -18 27 d -18 27 d -18 27 d -18 27 d -18 26 d -18 26 d -17 25 d -18 24 d -18 22 d
 -18 21 d -18 19 d -36 32 d -18 12 d -18 11 d -9 4 d -9 4 d -9 4 d -9 3 d -9 2 d -9 2 d -8 2 d -9 1 d -27 X -9 -1 d -9 -2 d -9 -2 d -9 -2 d -9 -3 d -9 -4 d -9 -4 d -9 -4 d -9 -6 d -18 -12 d -18 -15 d -36 -35 d -18 -21 d -17 -22 d -9 -11 d -9 -10 d -9
 -9 d -9 -9 d -9 -9 d -9 -9 d -18 -18 d -18 -17 d -18 -16 d -18 -15 d -18 -14 d -36 -25 d -35 -24 d -36 -22 d -36 -21 d -36 -22 d -36 -22 d -36 -22 d -35 -21 d -36 -21 d -36 -20 d -36 -19 d -36 -17 d -36 -17 d -35 -15 d -36 -14 d -36 -14 d -36 -12 d
 -36 -12 d -36 -11 d -35 -10 d -36 -10 d f 0 1 1 c 0 1 0 c black 0 1 0 c 363 798 m 36 9 d 35 10 d 36 10 d 36 11 d 36 12 d 36 13 d 36 14 d 35 15 d 36 15 d 36 16 d 36 18 d 36 17 d 36 19 d 35 19 d 36 19 d 36 21 d 36 21 d 36 23 d 36 23 d 35 24 d 36 25 d
 18 13 d 18 14 d 18 14 d 18 15 d 18 17 d 9 9 d 9 9 d 9 11 d 9 11 d 9 12 d 9 10 d 17 20 d 18 19 d 36 31 d 18 13 d 18 12 d 9 5 d 9 4 d 9 4 d 9 4 d 9 3 d 9 3 d 9 2 d 9 1 d 9 1 d 9 1 d 18 X 9 -1 d 8 -2 d 9 -2 d 9 -2 d 9 -3 d 9 -4 d 9 -4 d 9 -5 d 18 -10 d
 18 -13 d 36 -30 d 18 -17 d 18 -20 d 18 -21 d 18 -22 d 17 -24 d 18 -24 d 18 -26 d 18 -26 d 18 -27 d 18 -26 d 18 -25 d 18 -25 d 18 -23 d 18 -22 d 36 -39 d 35 -36 d 36 -32 d 36 -29 d 36 -29 d 36 -28 d 36 -28 d 35 -30 d -77 Y -35 45 d -36 42 d -36 38 d
 -36 35 d -36 34 d -36 34 d -35 38 d -36 44 d -18 23 d -18 26 d -18 25 d -18 27 d -18 27 d -18 27 d -18 27 d -18 26 d -18 25 d -17 25 d -18 23 d -18 22 d -18 20 d -18 19 d -36 31 d -18 12 d -18 11 d -9 4 d -9 4 d -9 4 d -9 3 d -9 2 d -9 2 d -8 2 d -9
 1 d -27 X -9 -1 d -9 -2 d -9 -2 d -9 -2 d -9 -3 d -9 -4 d -9 -4 d -9 -5 d -9 -5 d -18 -12 d -18 -14 d -36 -34 d -18 -20 d -17 -21 d -9 -12 d -9 -10 d -9 -10 d -9 -9 d -9 -9 d -9 -9 d -18 -18 d -18 -16 d -18 -16 d -18 -14 d -18 -14 d -36 -25 d -35
 -24 d -36 -22 d -36 -22 d -36 -21 d -36 -22 d -36 -21 d -35 -21 d -36 -20 d -36 -19 d -36 -19 d -36 -17 d -36 -15 d -35 -15 d -36 -14 d -36 -13 d -36 -12 d -36 -12 d -36 -10 d -35 -11 d -36 -9 d f 0 0 1 c 9 lw black 0 0 1 c 363 788 m 36 9 d 35 10 d
 36 10 d 36 12 d 36 12 d 36 12 d 36 14 d 35 15 d 36 16 d 36 16 d 36 18 d 36 18 d 36 19 d 35 20 d 36 21 d 36 21 d 36 21 d 36 22 d 36 23 d 35 24 d 36 25 d 18 14 d 18 14 d 18 14 d 18 16 d 18 17 d 9 9 d 9 10 d 9 10 d 9 10 d 9 11 d 9 11 d 17 21 d 18 19 d
 36 33 d 18 13 d 18 12 d 9 5 d 9 4 d 9 5 d 9 3 d 9 3 d 9 3 d 9 2 d 9 1 d 9 2 d 27 X 9 -1 d 8 -2 d 9 -2 d 9 -2 d 9 -3 d 9 -4 d 9 -4 d 9 -4 d 18 -11 d 18 -12 d 36 -31 d 18 -18 d 18 -20 d 18 -21 d 18 -23 d 17 -24 d 18 -25 d 18 -26 d 18 -27 d 18 -26 d 18
 -27 d 18 -26 d 18 -25 d 18 -24 d 18 -23 d 36 -41 d 35 -36 d 36 -34 d 36 -31 d 36 -32 d 36 -32 d 36 -33 d 35 -36 d s black 3 lw 381 749 m -18 X s 363 749 m cl s 381 749 m 18 X s 399 749 m cl s 381 749 m 78 Y s 381 827 m cl s 381 749 m -86 Y s 381 663
 m cl s 417 749 m -18 X s 399 749 m cl s 417 749 m 17 X s 434 749 m cl s 417 749 m 78 Y s 417 827 m cl s 417 749 m -86 Y s 417 663 m cl s 452 841 m -18 X s 434 841 m cl s 452 841 m 18 X s 470 841 m cl s 452 841 m 54 Y s 452 895 m cl s 452 841 m -56 Y
 s 452 785 m cl s 488 841 m -18 X s 470 841 m cl s 488 841 m 18 X s 506 841 m cl s 488 841 m 54 Y s 488 895 m cl s 488 841 m -56 Y s 488 785 m cl s 524 857 m -18 X s 506 857 m cl s 524 857 m 18 X s 542 857 m cl s 524 857 m 50 Y s 524 907 m cl s 524
 857 m -53 Y s 524 804 m cl s 560 884 m -18 X s 542 884 m cl s 560 884 m 18 X s 578 884 m cl s 560 884 m 44 Y s 560 928 m cl s 560 884 m -47 Y s 560 837 m cl s 596 884 m -18 X s 578 884 m cl s 596 884 m 18 X s 614 884 m cl s 596 884 m 44 Y s 596 928
 m cl s 596 884 m -47 Y s 596 837 m cl s 632 906 m -18 X s 614 906 m cl s 632 906 m 17 X s 649 906 m cl s 632 906 m 41 Y s 632 947 m cl s 632 906 m -43 Y s 632 863 m cl s 667 895 m -18 X s 649 895 m cl s 667 895 m 18 X s 685 895 m cl s 667 895 m 43 Y
 s 667 938 m cl s 667 895 m -44 Y s 667 851 m cl s 703 823 m -18 X s 685 823 m cl s 703 823 m 18 X s 721 823 m cl s 703 823 m 58 Y s 703 881 m cl s 703 823 m -61 Y s 703 762 m cl s 739 916 m -18 X s 721 916 m cl s 739 916 m 18 X s 757 916 m cl s 739
 916 m 39 Y s 739 955 m cl s 739 916 m -41 Y s 739 875 m cl s 775 970 m -18 X s 757 970 m cl s 775 970 m 18 X s 793 970 m cl s 775 970 m 31 Y s 775 1001 m cl s 775 970 m -33 Y s 775 937 m cl s 811 956 m -18 X s 793 956 m cl s 811 956 m 18 X s 829 956
 m cl s 811 956 m 34 Y s 811 990 m cl s 811 956 m -34 Y s 811 922 m cl s 847 949 m -18 X s 829 949 m cl s 847 949 m 17 X s 864 949 m cl s 847 949 m 34 Y s 847 983 m cl s 847 949 m -35 Y s 847 914 m cl s 882 1008 m -18 X s 864 1008 m cl s 882 1008 m
 18 X s 900 1008 m cl s 882 1008 m 27 Y s 882 1035 m cl s 882 1008 m -28 Y s 882 980 m cl s 918 1030 m -18 X s 900 1030 m cl s 918 1030 m 18 X s 936 1030 m cl s 918 1030 m 25 Y s 918 1055 m cl s 918 1030 m -26 Y s 918 1004 m cl s 954 1021 m -18 X s
 936 1021 m cl s 954 1021 m 18 X s 972 1021 m cl s 954 1021 m 26 Y s 954 1047 m cl s 954 1021 m -26 Y s 954 995 m cl s 990 1068 m -18 X s 972 1068 m cl s 990 1068 m 18 X s 1008 1068 m cl s 990 1068 m 21 Y s 990 1089 m cl s 990 1068 m -22 Y s 990 1046
 m cl s 1026 1068 m -18 X s 1008 1068 m cl s 1026 1068 m 18 X s 1044 1068 m cl s 1026 1068 m 21 Y s 1026 1089 m cl s 1026 1068 m -22 Y s 1026 1046 m cl s 1062 1105 m -18 X s 1044 1105 m cl s 1062 1105 m 17 X s 1079 1105 m cl s 1062 1105 m 18 Y s 1062
 1123 m cl s 1062 1105 m -19 Y s 1062 1086 m cl s 1097 1105 m -18 X s 1079 1105 m cl s 1097 1105 m 18 X s 1115 1105 m cl s 1097 1105 m 18 Y s 1097 1123 m cl s 1097 1105 m -19 Y s 1097 1086 m cl s 1133 1162 m -18 X s 1115 1162 m cl s 1133 1162 m 18 X
 s 1151 1162 m cl s 1133 1162 m 14 Y s 1133 1176 m cl s 1133 1162 m -15 Y s 1133 1147 m cl s 1169 1199 m -18 X s 1151 1199 m cl s 1169 1199 m 18 X s 1187 1199 m cl s 1169 1199 m 12 Y s 1169 1211 m cl s 1169 1199 m -12 Y s 1169 1187 m cl s 1205 1252 m
 -18 X s 1187 1252 m cl s 1205 1252 m 18 X s 1223 1252 m cl s 1205 1252 m 10 Y s 1205 1262 m cl s 1205 1252 m -10 Y s 1205 1242 m cl s 1241 1251 m -18 X s 1223 1251 m cl s 1241 1251 m 18 X s 1259 1251 m cl s 1241 1251 m 10 Y s 1241 1261 m cl s 1241
 1251 m -10 Y s 1241 1241 m cl s 1276 1314 m -17 X s 1259 1314 m cl s 1276 1314 m 18 X s 1294 1314 m cl s 1276 1314 m 8 Y s 1276 1322 m cl s 1276 1314 m -8 Y s 1276 1306 m cl s 1312 1339 m -18 X s 1294 1339 m cl s 1312 1339 m 18 X s 1330 1339 m cl s
 1312 1339 m 7 Y s 1312 1346 m cl s 1312 1339 m -7 Y s 1312 1332 m cl s 1348 1359 m -18 X s 1330 1359 m cl s 1348 1359 m 18 X s 1366 1359 m cl s 1348 1359 m 6 Y s 1348 1365 m cl s 1348 1359 m -7 Y s 1348 1352 m cl s 1384 1382 m -18 X s 1366 1382 m cl
 s 1384 1382 m 18 X s 1402 1382 m cl s 1384 1382 m 6 Y s 1384 1388 m cl s 1384 1382 m -7 Y s 1384 1375 m cl s 1420 1404 m -18 X s 1402 1404 m cl s 1420 1404 m 18 X s 1438 1404 m cl s 1420 1404 m 6 Y s 1420 1410 m cl s 1420 1404 m -6 Y s 1420 1398 m
 cl s 1456 1396 m -18 X s 1438 1396 m cl s 1456 1396 m 18 X s 1474 1396 m cl s 1456 1396 m 6 Y s 1456 1402 m cl s 1456 1396 m -6 Y s 1456 1390 m cl s 1491 1418 m -17 X s 1474 1418 m cl s 1491 1418 m 18 X s 1509 1418 m cl s 1491 1418 m 6 Y s 1491 1424
 m cl s 1491 1418 m -5 Y s 1491 1413 m cl s 1527 1398 m -18 X s 1509 1398 m cl s 1527 1398 m 18 X s 1545 1398 m cl s 1527 1398 m 6 Y s 1527 1404 m cl s 1527 1398 m -5 Y s 1527 1393 m cl s 1563 1377 m -18 X s 1545 1377 m cl s 1563 1377 m 18 X s 1581
 1377 m cl s 1563 1377 m 7 Y s 1563 1384 m cl s 1563 1377 m -6 Y s 1563 1371 m cl s 1599 1348 m -18 X s 1581 1348 m cl s 1599 1348 m 18 X s 1617 1348 m cl s 1599 1348 m 7 Y s 1599 1355 m cl s 1599 1348 m -7 Y s 1599 1341 m cl s 1635 1314 m -18 X s
 1617 1314 m cl s 1635 1314 m 18 X s 1653 1314 m cl s 1635 1314 m 8 Y s 1635 1322 m cl s 1635 1314 m -8 Y s 1635 1306 m cl s 1671 1264 m -18 X s 1653 1264 m cl s 1671 1264 m 18 X s 1689 1264 m cl s 1671 1264 m 9 Y s 1671 1273 m cl s 1671 1264 m -10 Y
 s 1671 1254 m cl s 1706 1216 m -17 X s 1689 1216 m cl s 1706 1216 m 18 X s 1724 1216 m cl s 1706 1216 m 11 Y s 1706 1227 m cl s 1706 1216 m -12 Y s 1706 1204 m cl s 1742 1174 m -18 X s 1724 1174 m cl s 1742 1174 m 18 X s 1760 1174 m cl s 1742 1174 m
 14 Y s 1742 1188 m cl s 1742 1174 m -14 Y s 1742 1160 m cl s 1778 1130 m -18 X s 1760 1130 m cl s 1778 1130 m 18 X s 1796 1130 m cl s 1778 1130 m 16 Y s 1778 1146 m cl s 1778 1130 m -17 Y s 1778 1113 m cl s 1814 1082 m -18 X s 1796 1082 m cl s 1814
 1082 m 18 X s 1832 1082 m cl s 1814 1082 m 20 Y s 1814 1102 m cl s 1814 1082 m -20 Y s 1814 1062 m cl s 1850 1021 m -18 X s 1832 1021 m cl s 1850 1021 m 18 X s 1868 1021 m cl s 1850 1021 m 26 Y s 1850 1047 m cl s 1850 1021 m -26 Y s 1850 995 m cl s
 1886 963 m -18 X s 1868 963 m cl s 1886 963 m 18 X s 1904 963 m cl s 1886 963 m 33 Y s 1886 996 m cl s 1886 963 m -33 Y s 1886 930 m cl s 1921 956 m -17 X s 1904 956 m cl s 1921 956 m 18 X s 1939 956 m cl s 1921 956 m 34 Y s 1921 990 m cl s 1921 956
 m -34 Y s 1921 922 m cl s 1957 884 m -18 X s 1939 884 m cl s 1957 884 m 18 X s 1975 884 m cl s 1957 884 m 44 Y s 1957 928 m cl s 1957 884 m -47 Y s 1957 837 m cl s 1993 857 m -18 X s 1975 857 m cl s 1993 857 m 18 X s 2011 857 m cl s 1993 857 m 50 Y
 s 1993 907 m cl s 1993 857 m -53 Y s 1993 804 m cl s 2029 871 m -18 X s 2011 871 m cl s 2029 871 m 18 X s 2047 871 m cl s 2029 871 m 47 Y s 2029 918 m cl s 2029 871 m -50 Y s 2029 821 m cl s 2065 657 m -18 X s 2047 657 m cl s 2065 657 m 18 X s 2083
 657 m cl s 2065 657 m 112 Y s 2065 769 m cl s 2065 657 m -23 Y s 2065 634 m cl s 2101 871 m -18 X s 2083 871 m cl s 2101 871 m 18 X s 2119 871 m cl s 2101 871 m 47 Y s 2101 918 m cl s 2101 871 m -50 Y s 2101 821 m cl s 2136 711 m -17 X s 2119 711 m
 cl s 2136 711 m 18 X s 2154 711 m cl s 2136 711 m 90 Y s 2136 801 m cl s 2136 711 m -77 Y s 2136 634 m cl s 381 749 417 749 452 841 488 841 524 857 560 884 596 884 632 906 667 895 703 823 739 916 775 970 811 956 847 949 882 1008 918 1030 954 1021
 990 1068 1026 1068 1062 1105 1097 1105 1133 1162 1169 1199 1205 1252 1241 1251 1276 1314 1312 1339 1348 1359 1384 1382 1420 1404 1456 1396 1491 1418 1527 1398 1563 1377 1599 1348 1635 1314 1671 1264 1706 1216 1742 1174 1778 1130 1814 1082 1850 1021
 1886 963 1921 956 1957 884 1993 857 2029 871 2065 657 2101 871 2136 711 50 { m20} R 0.52 0.76 0.64 c[ 4 8] 0 sd 9 lw black 0.52 0.76 0.64 c 363 786 m 36 9 d 35 9 d 36 9 d 36 10 d 36 10 d 36 10 d 36 11 d 35 12 d 36 12 d 36 12 d 36 14 d 36 14 d 36 15
 d 35 15 d 36 17 d 36 18 d 36 20 d 36 21 d 36 22 d 35 26 d 36 28 d 18 15 d 18 16 d 18 17 d 18 19 d 18 20 d 9 11 d 9 11 d 9 12 d 9 12 d 9 13 d 9 12 d 17 24 d 18 21 d 36 36 d 18 15 d 18 13 d 9 5 d 9 5 d 9 5 d 9 3 d 9 4 d 9 3 d 9 2 d 9 1 d 9 2 d 27 X 9
 -1 d 8 -2 d 9 -2 d 9 -3 d 9 -3 d 9 -4 d 9 -4 d 9 -5 d 18 -11 d 18 -14 d 36 -34 d 18 -20 d 18 -22 d 18 -24 d 18 -27 d 17 -29 d 18 -31 d 18 -33 d 18 -35 d 18 -38 d 18 -40 d 18 -41 d 18 -44 d 18 -47 d 18 -48 d 36 -104 d 31 -97 d s 0.54 0.66 0.63 c
 black 0.54 0.66 0.63 c 684 634 m 1 1 d s 685 635 m 36 39 d 36 38 d 36 36 d 36 33 d 35 32 d 36 30 d 36 28 d 36 27 d 36 24 d 36 23 d 35 20 d 36 19 d 36 17 d 36 16 d 36 13 d 36 11 d 35 10 d 18 4 d 18 4 d 18 3 d 18 2 d 18 3 d 18 1 d 18 2 d 18 X 18 1 d
 18 X 17 -1 d 18 -1 d 18 -1 d 18 -2 d 18 -3 d 18 -3 d 18 -3 d 18 -4 d 36 -9 d 36 -11 d 35 -13 d 36 -14 d 36 -17 d 36 -18 d 36 -20 d 36 -22 d 35 -24 d 36 -26 d 36 -28 d 36 -29 d 36 -31 d 36 -34 d 35 -35 d s black[  ] 0 sd 3 lw 363 634 m 1791 X s 526
 659 m -25 Y s 607 646 m -12 Y s 689 646 m -12 Y s 770 646 m -12 Y s 851 659 m -25 Y s 933 646 m -12 Y s 1014 646 m -12 Y s 1096 646 m -12 Y s 1177 659 m -25 Y s 1259 646 m -12 Y s 1340 646 m -12 Y s 1421 646 m -12 Y s 1503 659 m -25 Y s 1584 646 m
 -12 Y s 1666 646 m -12 Y s 1747 646 m -12 Y s 1829 659 m -25 Y s 1910 646 m -12 Y s 1991 646 m -12 Y s 2073 646 m -12 Y s 2154 659 m -25 Y s 526 659 m -25 Y s 444 646 m -12 Y s 363 646 m -12 Y s 363 1484 m 1791 X s 526 1459 m 25 Y s 607 1471 m 13 Y
 s 689 1471 m 13 Y s 770 1471 m 13 Y s 851 1459 m 25 Y s 933 1471 m 13 Y s 1014 1471 m 13 Y s 1096 1471 m 13 Y s 1177 1459 m 25 Y s 1259 1471 m 13 Y s 1340 1471 m 13 Y s 1421 1471 m 13 Y s 1503 1459 m 25 Y s 1584 1471 m 13 Y s 1666 1471 m 13 Y s 1747
 1471 m 13 Y s 1829 1459 m 25 Y s 1910 1471 m 13 Y s 1991 1471 m 13 Y s 2073 1471 m 13 Y s 2154 1459 m 25 Y s 526 1459 m 25 Y s 444 1471 m 13 Y s 363 1471 m 13 Y s 363 634 m 850 Y s 390 657 m -27 X s 390 711 m -27 X s 390 749 m -27 X s 390 779 m -27
 X s 390 803 m -27 X s 390 823 m -27 X s 390 841 m -27 X s 390 857 m -27 X s 417 871 m -54 X s 390 963 m -27 X s 390 1017 m -27 X s 390 1055 m -27 X s 390 1085 m -27 X s 390 1109 m -27 X s 390 1130 m -27 X s 390 1147 m -27 X s 390 1163 m -27 X s 417
 1177 m -54 X s 390 1269 m -27 X s 390 1323 m -27 X s 390 1361 m -27 X s 390 1391 m -27 X s 390 1415 m -27 X s 390 1436 m -27 X s 390 1453 m -27 X s 390 1469 m -27 X s 417 1483 m -54 X s 2154 634 m 850 Y s 2127 657 m 27 X s 2127 711 m 27 X s 2127 749
 m 27 X s 2127 779 m 27 X s 2127 803 m 27 X s 2127 823 m 27 X s 2127 841 m 27 X s 2127 857 m 27 X s 2101 871 m 53 X s 2127 963 m 27 X s 2127 1017 m 27 X s 2127 1055 m 27 X s 2127 1085 m 27 X s 2127 1109 m 27 X s 2127 1130 m 27 X s 2127 1147 m 27 X s
 2127 1163 m 27 X s 2101 1177 m 53 X s 2127 1269 m 27 X s 2127 1323 m 27 X s 2127 1361 m 27 X s 2127 1391 m 27 X s 2127 1415 m 27 X s 2127 1436 m 27 X s 2127 1453 m 27 X s 2127 1469 m 27 X s 2101 1483 m 53 X s
 gsave  2268 1077 0 461 C 677.708 1215.31 t 0 r /Helvetica findfont 58.7189 sf 0 0 m (4e) show NC gr  1 1 1 c 453 161 454 1269 bf black
 gsave  2268 1077 0 461 C 566.929 1371.71 t 0 r /Helvetica-Bold findfont 48.9324 sf 0 0 m (MC15) show NC gr  510 1390 m20
 gsave  2268 1077 0 461 C 566.929 1293.51 t 0 r /Helvetica-Bold findfont 48.9324 sf 0 0 m (Projection of Signal pdf) show NC gr  0 0 1 c 9 lw 471 1309 m 79 X s black 3 lw 1 1 1 c 2268 461 0 0 bf black 1 1 1 c 1791 364 363 74 bf black 1791 364 363 74
 bl 363 74 m 1791 X s
 gsave  2268 461 0 0 C 1915.83 13.0329 t 0 r /Helvetica findfont 22.9045 sf 0 0 m (4l Invariant Mass \(GeV\)) show NC gr  526 85 m -11 Y s 607 79 m -5 Y s 689 79 m -5 Y s 770 79 m -5 Y s 851 85 m -11 Y s 933 79 m -5 Y s 1014 79 m -5 Y s 1096 79 m -5
 Y s 1177 85 m -11 Y s 1259 79 m -5 Y s 1340 79 m -5 Y s 1421 79 m -5 Y s 1503 85 m -11 Y s 1584 79 m -5 Y s 1666 79 m -5 Y s 1747 79 m -5 Y s 1829 85 m -11 Y s 1910 79 m -5 Y s 1991 79 m -5 Y s 2073 79 m -5 Y s 2154 85 m -11 Y s 526 85 m -11 Y s 444
 79 m -5 Y s 363 79 m -5 Y s
 gsave  2268 461 0 0 C 498.507 55.3896 t 0 r /Helvetica findfont 22.9045 sf 0 0 m (1340) show NC gr 
 gsave  2268 461 0 0 C 824.328 55.3896 t 0 r /Helvetica findfont 22.9045 sf 0 0 m (1360) show NC gr 
 gsave  2268 461 0 0 C 1150.15 55.3896 t 0 r /Helvetica findfont 22.9045 sf 0 0 m (1380) show NC gr 
 gsave  2268 461 0 0 C 1475.97 55.3896 t 0 r /Helvetica findfont 22.9045 sf 0 0 m (1400) show NC gr 
 gsave  2268 461 0 0 C 1801.79 55.3896 t 0 r /Helvetica findfont 22.9045 sf 0 0 m (1420) show NC gr 
 gsave  2268 461 0 0 C 2127.61 55.3896 t 0 r /Helvetica findfont 22.9045 sf 0 0 m (1440) show NC gr  363 438 m 1791 X s 526 427 m 11 Y s 607 433 m 5 Y s 689 433 m 5 Y s 770 433 m 5 Y s 851 427 m 11 Y s 933 433 m 5 Y s 1014 433 m 5 Y s 1096 433 m 5 Y
 s 1177 427 m 11 Y s 1259 433 m 5 Y s 1340 433 m 5 Y s 1421 433 m 5 Y s 1503 427 m 11 Y s 1584 433 m 5 Y s 1666 433 m 5 Y s 1747 433 m 5 Y s 1829 427 m 11 Y s 1910 433 m 5 Y s 1991 433 m 5 Y s 2073 433 m 5 Y s 2154 427 m 11 Y s 526 427 m 11 Y s 444
 433 m 5 Y s 363 433 m 5 Y s 363 74 m 364 Y s 417 74 m -54 X s 390 81 m -27 X s 390 88 m -27 X s 390 96 m -27 X s 390 103 m -27 X s 417 110 m -54 X s 390 118 m -27 X s 390 125 m -27 X s 390 132 m -27 X s 390 139 m -27 X s 417 147 m -54 X s 390 154 m
 -27 X s 390 161 m -27 X s 390 169 m -27 X s 390 176 m -27 X s 417 183 m -54 X s 390 190 m -27 X s 390 198 m -27 X s 390 205 m -27 X s 390 212 m -27 X s 417 220 m -54 X s 390 227 m -27 X s 390 234 m -27 X s 390 241 m -27 X s 390 249 m -27 X s 417 256
 m -54 X s 390 263 m -27 X s 390 271 m -27 X s 390 278 m -27 X s 390 285 m -27 X s 417 293 m -54 X s 390 300 m -27 X s 390 307 m -27 X s 390 314 m -27 X s 390 322 m -27 X s 417 329 m -54 X s 390 336 m -27 X s 390 344 m -27 X s 390 351 m -27 X s 390
 358 m -27 X s 417 365 m -54 X s 390 373 m -27 X s 390 380 m -27 X s 390 387 m -27 X s 390 395 m -27 X s 417 402 m -54 X s 390 409 m -27 X s 390 416 m -27 X s 390 424 m -27 X s 390 431 m -27 X s 417 438 m -54 X s
 gsave  2268 461 0 0 C 329.08 65.1643 t 0 r /Helvetica findfont 22.9045 sf 0 0 m (\2555) show NC gr 
 gsave  2268 461 0 0 C 329.08 101.005 t 0 r /Helvetica findfont 22.9045 sf 0 0 m (\2554) show NC gr 
 gsave  2268 461 0 0 C 329.08 140.103 t 0 r /Helvetica findfont 22.9045 sf 0 0 m (\2553) show NC gr 
 gsave  2268 461 0 0 C 329.08 175.944 t 0 r /Helvetica findfont 22.9045 sf 0 0 m (\2552) show NC gr 
 gsave  2268 461 0 0 C 332.338 211.784 t 0 r /Helvetica findfont 22.9045 sf 0 0 m (\2551) show NC gr 
 gsave  2268 461 0 0 C 335.596 247.624 t 0 r /Helvetica findfont 22.9045 sf 0 0 m (0) show NC gr 
 gsave  2268 461 0 0 C 338.854 283.465 t 0 r /Helvetica findfont 22.9045 sf 0 0 m (1) show NC gr 
 gsave  2268 461 0 0 C 335.596 319.305 t 0 r /Helvetica findfont 22.9045 sf 0 0 m (2) show NC gr 
 gsave  2268 461 0 0 C 335.596 358.403 t 0 r /Helvetica findfont 22.9045 sf 0 0 m (3) show NC gr 
 gsave  2268 461 0 0 C 335.596 394.244 t 0 r /Helvetica findfont 22.9045 sf 0 0 m (4) show NC gr 
 gsave  2268 461 0 0 C 335.596 430.084 t 0 r /Helvetica findfont 22.9045 sf 0 0 m (5) show NC gr  2154 74 m 364 Y s 2101 74 m 53 X s 2127 81 m 27 X s 2127 88 m 27 X s 2127 96 m 27 X s 2127 103 m 27 X s 2101 110 m 53 X s 2127 118 m 27 X s 2127 125 m
 27 X s 2127 132 m 27 X s 2127 139 m 27 X s 2101 147 m 53 X s 2127 154 m 27 X s 2127 161 m 27 X s 2127 169 m 27 X s 2127 176 m 27 X s 2101 183 m 53 X s 2127 190 m 27 X s 2127 198 m 27 X s 2127 205 m 27 X s 2127 212 m 27 X s 2101 220 m 53 X s 2127 227
 m 27 X s 2127 234 m 27 X s 2127 241 m 27 X s 2127 249 m 27 X s 2101 256 m 53 X s 2127 263 m 27 X s 2127 271 m 27 X s 2127 278 m 27 X s 2127 285 m 27 X s 2101 293 m 53 X s 2127 300 m 27 X s 2127 307 m 27 X s 2127 314 m 27 X s 2127 322 m 27 X s 2101
 329 m 53 X s 2127 336 m 27 X s 2127 344 m 27 X s 2127 351 m 27 X s 2127 358 m 27 X s 2101 365 m 53 X s 2127 373 m 27 X s 2127 380 m 27 X s 2127 387 m 27 X s 2127 395 m 27 X s 2101 402 m 53 X s 2127 409 m 27 X s 2127 416 m 27 X s 2127 424 m 27 X s
 2127 431 m 27 X s 2101 438 m 53 X s 6 lw 0.2 0.8 0.2 c black 3 lw 0.2 0.8 0.2 c 363 256 m -18 Y 36 X -4 Y 35 X 43 Y 36 X -8 Y 36 X 4 Y 36 X 12 Y 36 X -9 Y 36 X 8 Y 35 X -23 Y 36 X -63 Y 36 X 52 Y 36 X 38 Y 36 X -36 Y 36 X -28 Y 35 X 43 Y 36 X 3 Y 36
 X -43 Y 36 X 36 Y 36 X -38 Y 36 X 22 Y 35 X -52 Y 36 X 66 Y 36 X 27 Y 36 X 72 Y 36 X -138 Y 36 X 84 Y 35 X -51 Y 36 X -51 Y 36 X 5 Y 36 X 55 Y 36 X -86 Y 36 X 165 Y 35 X -59 Y 36 X -15 Y 36 X -13 Y 36 X 3 Y 36 X -37 Y 36 X 2 Y 35 X 31 Y 36 X 19 Y 36
 X 6 Y 36 X -22 Y 36 X -18 Y 36 X 36 Y 35 X -35 Y 36 X 6 Y 36 X 33 Y 36 X -83 Y 36 X 119 Y 36 X -70 Y 35 X 10 Y f 6 lw black 0.2 0.8 0.2 c black 363 238 m 36 X -4 Y 35 X 43 Y 36 X -8 Y 36 X 4 Y 36 X 12 Y 36 X -9 Y 36 X 8 Y 35 X -23 Y 36 X -63 Y 36 X
 52 Y 36 X 38 Y 36 X -36 Y 36 X -28 Y 35 X 43 Y 36 X 3 Y 36 X -43 Y 36 X 36 Y 36 X -38 Y 36 X 22 Y 35 X -52 Y 36 X 66 Y 36 X 27 Y 36 X 72 Y 36 X -138 Y 36 X 84 Y 35 X -51 Y 36 X -51 Y 36 X 5 Y 36 X 55 Y 36 X -86 Y 36 X 165 Y 35 X -59 Y 36 X -15 Y 36
 X -13 Y 36 X 3 Y 36 X -37 Y 36 X 2 Y 35 X 31 Y 36 X 19 Y 36 X 6 Y 36 X -22 Y 36 X -18 Y 36 X 36 Y 35 X -35 Y 36 X 6 Y 36 X 33 Y 36 X -83 Y 36 X 119 Y 36 X -70 Y 35 X s 3 lw 363 74 m 1791 X s 526 85 m -11 Y s 607 79 m -5 Y s 689 79 m -5 Y s 770 79 m
 -5 Y s 851 85 m -11 Y s 933 79 m -5 Y s 1014 79 m -5 Y s 1096 79 m -5 Y s 1177 85 m -11 Y s 1259 79 m -5 Y s 1340 79 m -5 Y s 1421 79 m -5 Y s 1503 85 m -11 Y s 1584 79 m -5 Y s 1666 79 m -5 Y s 1747 79 m -5 Y s 1829 85 m -11 Y s 1910 79 m -5 Y s
 1991 79 m -5 Y s 2073 79 m -5 Y s 2154 85 m -11 Y s 526 85 m -11 Y s 444 79 m -5 Y s 363 79 m -5 Y s 363 438 m 1791 X s 526 427 m 11 Y s 607 433 m 5 Y s 689 433 m 5 Y s 770 433 m 5 Y s 851 427 m 11 Y s 933 433 m 5 Y s 1014 433 m 5 Y s 1096 433 m 5 Y
 s 1177 427 m 11 Y s 1259 433 m 5 Y s 1340 433 m 5 Y s 1421 433 m 5 Y s 1503 427 m 11 Y s 1584 433 m 5 Y s 1666 433 m 5 Y s 1747 433 m 5 Y s 1829 427 m 11 Y s 1910 433 m 5 Y s 1991 433 m 5 Y s 2073 433 m 5 Y s 2154 427 m 11 Y s 526 427 m 11 Y s 444
 433 m 5 Y s 363 433 m 5 Y s 363 74 m 364 Y s 417 74 m -54 X s 390 81 m -27 X s 390 88 m -27 X s 390 96 m -27 X s 390 103 m -27 X s 417 110 m -54 X s 390 118 m -27 X s 390 125 m -27 X s 390 132 m -27 X s 390 139 m -27 X s 417 147 m -54 X s 390 154 m
 -27 X s 390 161 m -27 X s 390 169 m -27 X s 390 176 m -27 X s 417 183 m -54 X s 390 190 m -27 X s 390 198 m -27 X s 390 205 m -27 X s 390 212 m -27 X s 417 220 m -54 X s 390 227 m -27 X s 390 234 m -27 X s 390 241 m -27 X s 390 249 m -27 X s 417 256
 m -54 X s 390 263 m -27 X s 390 271 m -27 X s 390 278 m -27 X s 390 285 m -27 X s 417 293 m -54 X s 390 300 m -27 X s 390 307 m -27 X s 390 314 m -27 X s 390 322 m -27 X s 417 329 m -54 X s 390 336 m -27 X s 390 344 m -27 X s 390 351 m -27 X s 390
 358 m -27 X s 417 365 m -54 X s 390 373 m -27 X s 390 380 m -27 X s 390 387 m -27 X s 390 395 m -27 X s 417 402 m -54 X s 390 409 m -27 X s 390 416 m -27 X s 390 424 m -27 X s 390 431 m -27 X s 417 438 m -54 X s 2154 74 m 364 Y s 2101 74 m 53 X s
 2127 81 m 27 X s 2127 88 m 27 X s 2127 96 m 27 X s 2127 103 m 27 X s 2101 110 m 53 X s 2127 118 m 27 X s 2127 125 m 27 X s 2127 132 m 27 X s 2127 139 m 27 X s 2101 147 m 53 X s 2127 154 m 27 X s 2127 161 m 27 X s 2127 169 m 27 X s 2127 176 m 27 X s
 2101 183 m 53 X s 2127 190 m 27 X s 2127 198 m 27 X s 2127 205 m 27 X s 2127 212 m 27 X s 2101 220 m 53 X s 2127 227 m 27 X s 2127 234 m 27 X s 2127 241 m 27 X s 2127 249 m 27 X s 2101 256 m 53 X s 2127 263 m 27 X s 2127 271 m 27 X s 2127 278 m 27 X
 s 2127 285 m 27 X s 2101 293 m 53 X s 2127 300 m 27 X s 2127 307 m 27 X s 2127 314 m 27 X s 2127 322 m 27 X s 2101 329 m 53 X s 2127 336 m 27 X s 2127 344 m 27 X s 2127 351 m 27 X s 2127 358 m 27 X s 2101 365 m 53 X s 2127 373 m 27 X s 2127 380 m 27
 X s 2127 387 m 27 X s 2127 395 m 27 X s 2101 402 m 53 X s 2127 409 m 27 X s 2127 416 m 27 X s 2127 424 m 27 X s 2127 431 m 27 X s 2101 438 m 53 X s
 gr  gr showpage
end
%%EOF
