%!PS-Adobe-2.0 EPSF-2.0
%%BoundingBox:  0 0 567 384
%%Title: H4l2015_plotfit/gg_mass_signal_800_H4l_4e.eps: 
%%Creator: ROOT Version 5.34/10
%%CreationDate: Thu Feb 16 13:49:31 2017
%%EndComments
%%BeginProlog
80 dict begin
/s {stroke} def /l {lineto} def /m {moveto} def /t {translate} def
/r {rotate} def /rl {roll}  def /R {repeat} def
/d {rlineto} def /rm {rmoveto} def /gr {grestore} def /f {eofill} def
/c {setrgbcolor} def /black {0 setgray} def /sd {setdash} def
/cl {closepath} def /sf {scalefont setfont} def /lw {setlinewidth} def
/box {m dup 0 exch d exch 0 d 0 exch neg d cl} def
/NC{systemdict begin initclip end}def/C{NC box clip newpath}def
/bl {box s} def /bf {box f} def /Y { 0 exch d} def /X { 0 d} def 
/K {{pop pop 0 moveto} exch kshow} bind def
/ita {/ang 15 def gsave [1 0 ang dup sin exch cos div 1 0 0] concat} def 
/mp {newpath /y exch def /x exch def} def
/side {[w .77 mul w .23 mul] .385 w mul sd w 0 l currentpoint t -144 r} def
/mr {mp x y w2 0 360 arc} def /m24 {mr s} def /m20 {mr f} def
/mb {mp x y w2 add m w2 neg 0 d 0 w neg d w 0 d 0 w d cl} def
/mt {mp x y w2 add m w2 neg w neg d w 0 d cl} def
/m21 {mb f} def /m25 {mb s} def /m22 {mt f} def /m26{mt s} def
/m23 {mp x y w2 sub m w2 w d w neg 0 d cl f} def
/m27 {mp x y w2 add m w3 neg w2 neg d w3 w2 neg d w3 w2 d cl s} def
/m28 {mp x w2 sub y w2 sub w3 add m w3 0 d  0 w3 neg d w3 0 d 0 w3 d w3 0 d  0 w3 d w3 neg 0 d 0 w3 d w3 neg 0 d 0 w3 neg d w3 neg 0 d cl s } def
/m29 {mp gsave x w2 sub y w2 add w3 sub m currentpoint t 4 {side} repeat cl fill gr} def
/m30 {mp gsave x w2 sub y w2 add w3 sub m currentpoint t 4 {side} repeat cl s gr} def
/m31 {mp x y w2 sub m 0 w d x w2 sub y m w 0 d x w2 sub y w2 add m w w neg d x w2 sub y w2 sub m w w d s} def
/m32 {mp x y w2 sub m w2 w d w neg 0 d cl s} def
/m33 {mp x y w2 add m w3 neg w2 neg d w3 w2 neg d w3 w2 d cl f} def
/m34 {mp x w2 sub y w2 sub w3 add m w3 0 d  0 w3 neg d w3 0 d 0 w3 d w3 0 d  0 w3 d w3 neg 0 d 0 w3 d w3 neg 0 d 0 w3 neg d w3 neg 0 d cl f } def
/m2 {mp x y w2 sub m 0 w d x w2 sub y m w 0 d s} def
/m5 {mp x w2 sub y w2 sub m w w d x w2 sub y w2 add m w w neg d s} def
/reEncode {exch findfont dup length dict begin {1 index /FID eq  {pop pop} {def} ifelse } forall /Encoding exch def currentdict end dup /FontName get exch definefont pop } def [/Times-Bold /Times-Italic /Times-BoldItalic /Helvetica /Helvetica-Oblique
 /Helvetica-Bold /Helvetica-BoldOblique /Courier /Courier-Oblique /Courier-Bold /Courier-BoldOblique /Times-Roman /AvantGarde-Book /AvantGarde-BookOblique /AvantGarde-Demi /AvantGarde-DemiOblique /Bookman-Demi /Bookman-DemiItalic /Bookman-Light
 /Bookman-LightItalic /Helvetica-Narrow /Helvetica-Narrow-Bold /Helvetica-Narrow-BoldOblique /Helvetica-Narrow-Oblique /NewCenturySchlbk-Roman /NewCenturySchlbk-Bold /NewCenturySchlbk-BoldItalic /NewCenturySchlbk-Italic /Palatino-Bold
 /Palatino-BoldItalic /Palatino-Italic /Palatino-Roman ] {ISOLatin1Encoding reEncode } forall
%%EndProlog
%%BeginSetup
%%EndSetup
newpath  gsave  .25 .25 scale  gsave  0 0 t black[  ] 0 sd 3 lw 1 1 1 c 2268 1538 0 0 bf black 1 1 1 c 2222 738 23 784 bf black 1 1 1 c 2222 739 23 15 bf black 1 1 1 c 2268 1077 0 461 bf black 1 1 1 c 1791 850 363 634 bf black 1791 850 363 634 bl 363
 634 m 1791 X s
 gsave  2268 1077 0 461 C 1642.14 498.507 t 0 r /Helvetica findfont 48.9324 sf 0 0 m (4l Invariant Mass \(GeV\)) show NC gr  473 659 m -25 Y s 518 646 m -12 Y s 562 646 m -12 Y s 606 646 m -12 Y s 650 646 m -12 Y s 695 659 m -25 Y s 739 646 m -12 Y s
 783 646 m -12 Y s 827 646 m -12 Y s 872 646 m -12 Y s 916 659 m -25 Y s 960 646 m -12 Y s 1004 646 m -12 Y s 1048 646 m -12 Y s 1093 646 m -12 Y s 1137 659 m -25 Y s 1181 646 m -12 Y s 1225 646 m -12 Y s 1270 646 m -12 Y s 1314 646 m -12 Y s 1358
 659 m -25 Y s 1402 646 m -12 Y s 1447 646 m -12 Y s 1491 646 m -12 Y s 1535 646 m -12 Y s 1579 659 m -25 Y s 1624 646 m -12 Y s 1668 646 m -12 Y s 1712 646 m -12 Y s 1756 646 m -12 Y s 1800 659 m -25 Y s 1845 646 m -12 Y s 1889 646 m -12 Y s 1933
 646 m -12 Y s 1977 646 m -12 Y s 2022 659 m -25 Y s 473 659 m -25 Y s 429 646 m -12 Y s 385 646 m -12 Y s 2022 659 m -25 Y s 2066 646 m -12 Y s 2110 646 m -12 Y s
 gsave  2268 1077 0 461 C 430.084 586.478 t 0 r /Helvetica findfont 48.9324 sf 0 0 m (750) show NC gr 
 gsave  2268 1077 0 461 C 651.643 586.478 t 0 r /Helvetica findfont 48.9324 sf 0 0 m (760) show NC gr 
 gsave  2268 1077 0 461 C 873.201 586.478 t 0 r /Helvetica findfont 48.9324 sf 0 0 m (770) show NC gr 
 gsave  2268 1077 0 461 C 1091.5 586.478 t 0 r /Helvetica findfont 48.9324 sf 0 0 m (780) show NC gr 
 gsave  2268 1077 0 461 C 1313.06 586.478 t 0 r /Helvetica findfont 48.9324 sf 0 0 m (790) show NC gr 
 gsave  2268 1077 0 461 C 1534.62 586.478 t 0 r /Helvetica findfont 48.9324 sf 0 0 m (800) show NC gr 
 gsave  2268 1077 0 461 C 1756.18 586.478 t 0 r /Helvetica findfont 48.9324 sf 0 0 m (810) show NC gr 
 gsave  2268 1077 0 461 C 1977.74 586.478 t 0 r /Helvetica findfont 48.9324 sf 0 0 m (820) show NC gr  363 1484 m 1791 X s 473 1459 m 25 Y s 518 1471 m 13 Y s 562 1471 m 13 Y s 606 1471 m 13 Y s 650 1471 m 13 Y s 695 1459 m 25 Y s 739 1471 m 13 Y s
 783 1471 m 13 Y s 827 1471 m 13 Y s 872 1471 m 13 Y s 916 1459 m 25 Y s 960 1471 m 13 Y s 1004 1471 m 13 Y s 1048 1471 m 13 Y s 1093 1471 m 13 Y s 1137 1459 m 25 Y s 1181 1471 m 13 Y s 1225 1471 m 13 Y s 1270 1471 m 13 Y s 1314 1471 m 13 Y s 1358
 1459 m 25 Y s 1402 1471 m 13 Y s 1447 1471 m 13 Y s 1491 1471 m 13 Y s 1535 1471 m 13 Y s 1579 1459 m 25 Y s 1624 1471 m 13 Y s 1668 1471 m 13 Y s 1712 1471 m 13 Y s 1756 1471 m 13 Y s 1800 1459 m 25 Y s 1845 1471 m 13 Y s 1889 1471 m 13 Y s 1933
 1471 m 13 Y s 1977 1471 m 13 Y s 2022 1459 m 25 Y s 473 1459 m 25 Y s 429 1471 m 13 Y s 385 1471 m 13 Y s 2022 1459 m 25 Y s 2066 1471 m 13 Y s 2110 1471 m 13 Y s 363 634 m 850 Y s
 gsave  2268 1077 0 461 C 120.554 1032.85 t 90 r /Helvetica findfont 48.9324 sf 0 0 m (Events / \( 1.62 GeV \)) show NC gr  390 658 m -27 X s 390 712 m -27 X s 390 750 m -27 X s 390 780 m -27 X s 390 804 m -27 X s 390 824 m -27 X s 390 842 m -27 X s
 390 858 m -27 X s 417 872 m -54 X s
 gsave  2268 1077 0 461 C 342.425 850.826 t 0 r  -55 0 t /Helvetica findfont 48.9324 sf 0 0 m (10) show NC gr  390 964 m -27 X s 390 1018 m -27 X s 390 1056 m -27 X s 390 1086 m -27 X s 390 1110 m -27 X s 390 1130 m -27 X s 390 1148 m -27 X s 390
 1164 m -27 X s 417 1178 m -54 X s
 gsave  2268 1077 0 461 C 322.563 1176.21 t 0 r /Helvetica findfont 32.6216 sf 0 0 m (2) show NC gr 
 gsave  2268 1077 0 461 C 270.432 1156.67 t 0 r /Helvetica findfont 48.9324 sf 0 0 m (10) show NC gr  390 1270 m -27 X s 390 1324 m -27 X s 390 1362 m -27 X s 390 1392 m -27 X s 390 1416 m -27 X s 390 1436 m -27 X s 390 1454 m -27 X s 390 1470 m -27
 X s 417 1484 m -54 X s
 gsave  2268 1077 0 461 C 322.563 1485.75 t 0 r /Helvetica findfont 32.6216 sf 0 0 m (3) show NC gr 
 gsave  2268 1077 0 461 C 270.432 1462.94 t 0 r /Helvetica findfont 48.9324 sf 0 0 m (10) show NC gr  2154 634 m 850 Y s 2127 658 m 27 X s 2127 712 m 27 X s 2127 750 m 27 X s 2127 780 m 27 X s 2127 804 m 27 X s 2127 824 m 27 X s 2127 842 m 27 X s
 2127 858 m 27 X s 2101 872 m 53 X s 2127 964 m 27 X s 2127 1018 m 27 X s 2127 1056 m 27 X s 2127 1086 m 27 X s 2127 1110 m 27 X s 2127 1130 m 27 X s 2127 1148 m 27 X s 2127 1164 m 27 X s 2101 1178 m 53 X s 2127 1270 m 27 X s 2127 1324 m 27 X s 2127
 1362 m 27 X s 2127 1392 m 27 X s 2127 1416 m 27 X s 2127 1436 m 27 X s 2127 1454 m 27 X s 2127 1470 m 27 X s 2101 1484 m 53 X s 381 712 m -18 X s 363 712 m cl s 381 712 m 18 X s 399 712 m cl s 381 712 m 90 Y s 381 802 m cl s 381 712 m -78 Y s 381
 634 m cl s 417 804 m -18 X s 399 804 m cl s 417 804 m 17 X s 434 804 m cl s 417 804 m 62 Y s 417 866 m cl s 417 804 m -67 Y s 417 737 m cl s 452 780 m -18 X s 434 780 m cl s 452 780 m 18 X s 470 780 m cl s 452 780 m 68 Y s 452 848 m cl s 452 780 m
 -76 Y s 452 704 m cl s 488 634 m -18 X s 470 634 m cl s 488 634 m 18 X s 506 634 m cl s 524 842 m -18 X s 506 842 m cl s 524 842 m 18 X s 542 842 m cl s 524 842 m 53 Y s 524 895 m cl s 524 842 m -56 Y s 524 786 m cl s 560 750 m -18 X s 542 750 m cl
 s 560 750 m 18 X s 578 750 m cl s 560 750 m 77 Y s 560 827 m cl s 560 750 m -87 Y s 560 663 m cl s 596 824 m -18 X s 578 824 m cl s 596 824 m 18 X s 614 824 m cl s 596 824 m 58 Y s 596 882 m cl s 596 824 m -61 Y s 596 763 m cl s 632 907 m -18 X s
 614 907 m cl s 632 907 m 17 X s 649 907 m cl s 632 907 m 41 Y s 632 948 m cl s 632 907 m -43 Y s 632 864 m cl s 667 824 m -18 X s 649 824 m cl s 667 824 m 18 X s 685 824 m cl s 667 824 m 58 Y s 667 882 m cl s 667 824 m -61 Y s 667 763 m cl s 703 926
 m -18 X s 685 926 m cl s 703 926 m 18 X s 721 926 m cl s 703 926 m 38 Y s 703 964 m cl s 703 926 m -40 Y s 703 886 m cl s 739 907 m -18 X s 721 907 m cl s 739 907 m 18 X s 757 907 m cl s 739 907 m 41 Y s 739 948 m cl s 739 907 m -43 Y s 739 864 m cl
 s 775 842 m -18 X s 757 842 m cl s 775 842 m 18 X s 793 842 m cl s 775 842 m 53 Y s 775 895 m cl s 775 842 m -56 Y s 775 786 m cl s 811 934 m -18 X s 793 934 m cl s 811 934 m 18 X s 829 934 m cl s 811 934 m 37 Y s 811 971 m cl s 811 934 m -38 Y s
 811 896 m cl s 847 950 m -18 X s 829 950 m cl s 847 950 m 17 X s 864 950 m cl s 847 950 m 34 Y s 847 984 m cl s 847 950 m -36 Y s 847 914 m cl s 882 884 m -18 X s 864 884 m cl s 882 884 m 18 X s 900 884 m cl s 882 884 m 45 Y s 882 929 m cl s 882 884
 m -46 Y s 882 838 m cl s 918 950 m -18 X s 900 950 m cl s 918 950 m 18 X s 936 950 m cl s 918 950 m 34 Y s 918 984 m cl s 918 950 m -36 Y s 918 914 m cl s 954 988 m -18 X s 936 988 m cl s 954 988 m 18 X s 972 988 m cl s 954 988 m 30 Y s 954 1018 m
 cl s 954 988 m -30 Y s 954 958 m cl s 990 1013 m -18 X s 972 1013 m cl s 990 1013 m 18 X s 1008 1013 m cl s 990 1013 m 27 Y s 990 1040 m cl s 990 1013 m -27 Y s 990 986 m cl s 1026 1049 m -18 X s 1008 1049 m cl s 1026 1049 m 18 X s 1044 1049 m cl s
 1026 1049 m 23 Y s 1026 1072 m cl s 1026 1049 m -23 Y s 1026 1026 m cl s 1062 1038 m -18 X s 1044 1038 m cl s 1062 1038 m 17 X s 1079 1038 m cl s 1062 1038 m 24 Y s 1062 1062 m cl s 1062 1038 m -24 Y s 1062 1014 m cl s 1097 1105 m -18 X s 1079 1105
 m cl s 1097 1105 m 18 X s 1115 1105 m cl s 1097 1105 m 19 Y s 1097 1124 m cl s 1097 1105 m -18 Y s 1097 1087 m cl s 1133 1093 m -18 X s 1115 1093 m cl s 1133 1093 m 18 X s 1151 1093 m cl s 1133 1093 m 20 Y s 1133 1113 m cl s 1133 1093 m -19 Y s 1133
 1074 m cl s 1169 1114 m -18 X s 1151 1114 m cl s 1169 1114 m 18 X s 1187 1114 m cl s 1169 1114 m 18 Y s 1169 1132 m cl s 1169 1114 m -18 Y s 1169 1096 m cl s 1205 1162 m -18 X s 1187 1162 m cl s 1205 1162 m 18 X s 1223 1162 m cl s 1205 1162 m 15 Y s
 1205 1177 m cl s 1205 1162 m -15 Y s 1205 1147 m cl s 1241 1222 m -18 X s 1223 1222 m cl s 1241 1222 m 18 X s 1259 1222 m cl s 1241 1222 m 11 Y s 1241 1233 m cl s 1241 1222 m -12 Y s 1241 1210 m cl s 1276 1220 m -17 X s 1259 1220 m cl s 1276 1220 m
 18 X s 1294 1220 m cl s 1276 1220 m 11 Y s 1276 1231 m cl s 1276 1220 m -12 Y s 1276 1208 m cl s 1312 1258 m -18 X s 1294 1258 m cl s 1312 1258 m 18 X s 1330 1258 m cl s 1312 1258 m 10 Y s 1312 1268 m cl s 1312 1258 m -10 Y s 1312 1248 m cl s 1348
 1292 m -18 X s 1330 1292 m cl s 1348 1292 m 18 X s 1366 1292 m cl s 1348 1292 m 9 Y s 1348 1301 m cl s 1348 1292 m -9 Y s 1348 1283 m cl s 1384 1328 m -18 X s 1366 1328 m cl s 1384 1328 m 18 X s 1402 1328 m cl s 1384 1328 m 8 Y s 1384 1336 m cl s
 1384 1328 m -7 Y s 1384 1321 m cl s 1420 1356 m -18 X s 1402 1356 m cl s 1420 1356 m 18 X s 1438 1356 m cl s 1420 1356 m 6 Y s 1420 1362 m cl s 1420 1356 m -7 Y s 1420 1349 m cl s 1456 1394 m -18 X s 1438 1394 m cl s 1456 1394 m 18 X s 1474 1394 m
 cl s 1456 1394 m 6 Y s 1456 1400 m cl s 1456 1394 m -6 Y s 1456 1388 m cl s 1491 1397 m -17 X s 1474 1397 m cl s 1491 1397 m 18 X s 1509 1397 m cl s 1491 1397 m 6 Y s 1491 1403 m cl s 1491 1397 m -6 Y s 1491 1391 m cl s 1527 1417 m -18 X s 1509 1417
 m cl s 1527 1417 m 18 X s 1545 1417 m cl s 1527 1417 m 5 Y s 1527 1422 m cl s 1527 1417 m -6 Y s 1527 1411 m cl s 1563 1408 m -18 X s 1545 1408 m cl s 1563 1408 m 18 X s 1581 1408 m cl s 1563 1408 m 5 Y s 1563 1413 m cl s 1563 1408 m -6 Y s 1563
 1402 m cl s 1599 1400 m -18 X s 1581 1400 m cl s 1599 1400 m 18 X s 1617 1400 m cl s 1599 1400 m 6 Y s 1599 1406 m cl s 1599 1400 m -6 Y s 1599 1394 m cl s 1635 1380 m -18 X s 1617 1380 m cl s 1635 1380 m 18 X s 1653 1380 m cl s 1635 1380 m 6 Y s
 1635 1386 m cl s 1635 1380 m -6 Y s 1635 1374 m cl s 1671 1337 m -18 X s 1653 1337 m cl s 1671 1337 m 18 X s 1689 1337 m cl s 1671 1337 m 8 Y s 1671 1345 m cl s 1671 1337 m -7 Y s 1671 1330 m cl s 1706 1309 m -17 X s 1689 1309 m cl s 1706 1309 m 18
 X s 1724 1309 m cl s 1706 1309 m 8 Y s 1706 1317 m cl s 1706 1309 m -8 Y s 1706 1301 m cl s 1742 1264 m -18 X s 1724 1264 m cl s 1742 1264 m 18 X s 1760 1264 m cl s 1742 1264 m 9 Y s 1742 1273 m cl s 1742 1264 m -10 Y s 1742 1254 m cl s 1778 1215 m
 -18 X s 1760 1215 m cl s 1778 1215 m 18 X s 1796 1215 m cl s 1778 1215 m 11 Y s 1778 1226 m cl s 1778 1215 m -12 Y s 1778 1203 m cl s 1814 1140 m -18 X s 1796 1140 m cl s 1814 1140 m 18 X s 1832 1140 m cl s 1814 1140 m 16 Y s 1814 1156 m cl s 1814
 1140 m -17 Y s 1814 1123 m cl s 1850 1098 m -18 X s 1832 1098 m cl s 1850 1098 m 18 X s 1868 1098 m cl s 1850 1098 m 19 Y s 1850 1117 m cl s 1850 1098 m -19 Y s 1850 1079 m cl s 1886 1022 m -18 X s 1868 1022 m cl s 1886 1022 m 18 X s 1904 1022 m cl
 s 1886 1022 m 26 Y s 1886 1048 m cl s 1886 1022 m -26 Y s 1886 996 m cl s 1921 988 m -17 X s 1904 988 m cl s 1921 988 m 18 X s 1939 988 m cl s 1921 988 m 30 Y s 1921 1018 m cl s 1921 988 m -30 Y s 1921 958 m cl s 1957 934 m -18 X s 1939 934 m cl s
 1957 934 m 18 X s 1975 934 m cl s 1957 934 m 37 Y s 1957 971 m cl s 1957 934 m -38 Y s 1957 896 m cl s 1993 942 m -18 X s 1975 942 m cl s 1993 942 m 18 X s 2011 942 m cl s 1993 942 m 36 Y s 1993 978 m cl s 1993 942 m -36 Y s 1993 906 m cl s 2029 942
 m -18 X s 2011 942 m cl s 2029 942 m 18 X s 2047 942 m cl s 2029 942 m 36 Y s 2029 978 m cl s 2029 942 m -36 Y s 2029 906 m cl s 2065 842 m -18 X s 2047 842 m cl s 2065 842 m 18 X s 2083 842 m cl s 2065 842 m 53 Y s 2065 895 m cl s 2065 842 m -56 Y
 s 2065 786 m cl s 2101 750 m -18 X s 2083 750 m cl s 2101 750 m 18 X s 2119 750 m cl s 2101 750 m 77 Y s 2101 827 m cl s 2101 750 m -87 Y s 2101 663 m cl s /w 31 def /w2 {w 2 div} def /w3 {w 3 div} def 381 712 417 804 452 780 3 { m20} R 524 842 560
 750 596 824 632 907 667 824 703 926 739 907 775 842 811 934 847 950 882 884 918 950 954 988 990 1013 1026 1049 1062 1038 1097 1105 1133 1093 1169 1114 1205 1162 1241 1222 1276 1220 1312 1258 1348 1292 1384 1328 1420 1356 1456 1394 1491 1397 1527
 1417 1563 1408 1599 1400 1635 1380 1671 1337 1706 1309 1742 1264 1778 1215 1814 1140 1850 1098 1886 1022 1921 988 1957 934 1993 942 2029 942 2065 842 2101 750 45 { m20} R 0 1 1 c 1 1 0 c black 1 1 0 c 363 803 m 36 8 d 35 8 d 36 8 d 36 8 d 36 9 d 36
 9 d 36 9 d 35 10 d 36 10 d 36 11 d 36 12 d 36 13 d 36 15 d 35 16 d 36 17 d 36 20 d 36 21 d 36 23 d 36 23 d 35 25 d 36 26 d 36 27 d 36 28 d 36 29 d 18 15 d 18 15 d 17 14 d 18 15 d 18 15 d 18 15 d 9 8 d 9 9 d 9 10 d 9 11 d 9 11 d 9 10 d 18 17 d 36 29
 d 18 11 d 9 5 d 9 4 d 9 4 d 8 4 d 9 3 d 9 2 d 9 2 d 9 1 d 18 X 9 -1 d 9 -2 d 9 -2 d 9 -3 d 9 -4 d 9 -4 d 9 -5 d 9 -5 d 18 -13 d 18 -14 d 36 -35 d 17 -20 d 18 -21 d 18 -23 d 18 -25 d 18 -25 d 18 -25 d 18 -26 d 18 -25 d 18 -25 d 18 -24 d 18 -22 d 18
 -23 d 35 -44 d 36 -43 d 36 -42 d 36 -42 d 36 -44 d 36 -45 d 35 -47 d -105 Y -21 X -14 34 d -36 73 d -36 64 d -36 57 d -36 52 d -36 49 d -35 49 d -18 25 d -18 27 d -18 26 d -18 27 d -18 27 d -18 27 d -18 26 d -18 26 d -18 26 d -18 25 d -18 23 d -17
 22 d -36 37 d -18 15 d -18 13 d -9 5 d -9 5 d -9 4 d -9 3 d -9 3 d -9 2 d -9 2 d -9 1 d -9 1 d -9 -1 d -9 X -9 -2 d -9 -2 d -9 -2 d -8 -4 d -9 -4 d -9 -4 d -9 -6 d -18 -13 d -36 -35 d -18 -21 d -9 -10 d -9 -8 d -9 -9 d -9 -8 d -9 -9 d -9 -9 d -18
 -17 d -18 -17 d -18 -15 d -17 -15 d -18 -15 d -18 -14 d -36 -27 d -36 -28 d -36 -28 d -36 -29 d -35 -28 d -36 -27 d -36 -25 d -36 -22 d -36 -21 d -36 -18 d -35 -17 d -36 -15 d -36 -14 d -36 -13 d -36 -12 d -36 -11 d -35 -11 d -36 -10 d -36 -10 d -36
 -9 d -36 -9 d -36 -8 d -35 -9 d -36 -8 d f 0 1 1 c 0 1 0 c black 0 1 0 c 363 794 m 36 8 d 35 7 d 36 9 d 36 8 d 36 9 d 36 9 d 36 10 d 35 10 d 36 10 d 36 11 d 36 12 d 36 14 d 36 14 d 35 16 d 36 18 d 36 20 d 36 22 d 36 23 d 36 24 d 35 25 d 36 27 d 36
 27 d 36 28 d 36 29 d 18 15 d 18 14 d 17 15 d 18 15 d 18 15 d 18 16 d 9 8 d 9 9 d 9 9 d 9 11 d 9 11 d 9 9 d 18 18 d 36 30 d 18 12 d 9 5 d 9 5 d 9 3 d 8 4 d 9 3 d 9 2 d 9 2 d 9 1 d 18 X 9 -1 d 9 -2 d 9 -2 d 9 -3 d 9 -4 d 9 -4 d 9 -5 d 9 -5 d 18 -13 d
 18 -14 d 36 -36 d 17 -20 d 18 -22 d 18 -23 d 18 -25 d 18 -25 d 18 -26 d 18 -26 d 18 -26 d 18 -25 d 18 -24 d 18 -24 d 18 -23 d 35 -45 d 36 -43 d 36 -44 d 36 -45 d 36 -46 d 36 -49 d 35 -51 d -74 Y -35 66 d -36 62 d -36 56 d -36 53 d -36 49 d -36 47 d
 -35 48 d -18 24 d -18 25 d -18 26 d -18 26 d -18 26 d -18 27 d -18 26 d -18 26 d -18 25 d -18 25 d -18 23 d -17 21 d -36 36 d -18 15 d -18 13 d -9 5 d -9 5 d -9 4 d -9 3 d -9 3 d -9 3 d -9 1 d -9 1 d -9 1 d -9 X -9 -1 d -9 -2 d -9 -2 d -9 -2 d -8 -4
 d -9 -4 d -9 -5 d -9 -5 d -18 -13 d -36 -33 d -18 -19 d -9 -11 d -9 -9 d -9 -9 d -9 -9 d -9 -8 d -9 -9 d -18 -17 d -18 -16 d -18 -15 d -17 -15 d -18 -15 d -18 -14 d -36 -28 d -36 -28 d -36 -28 d -36 -28 d -35 -27 d -36 -26 d -36 -24 d -36 -22 d -36
 -20 d -36 -18 d -35 -17 d -36 -15 d -36 -14 d -36 -12 d -36 -12 d -36 -11 d -35 -10 d -36 -10 d -36 -10 d -36 -9 d -36 -8 d -36 -9 d -35 -8 d -36 -8 d f 0 0 1 c 9 lw black 0 0 1 c 363 784 m 36 8 d 35 8 d 36 8 d 36 9 d 36 8 d 36 10 d 36 9 d 35 11 d
 36 10 d 36 12 d 36 12 d 36 14 d 36 14 d 35 17 d 36 18 d 36 20 d 36 21 d 36 24 d 36 25 d 35 26 d 36 28 d 36 27 d 36 28 d 36 29 d 18 14 d 18 15 d 17 14 d 18 15 d 18 16 d 18 16 d 9 9 d 9 9 d 9 9 d 9 9 d 9 11 d 9 10 d 18 18 d 36 32 d 18 12 d 9 5 d 9 5 d
 9 4 d 8 3 d 9 3 d 9 2 d 9 2 d 9 1 d 9 X 9 -1 d 9 -1 d 9 -1 d 9 -2 d 9 -3 d 9 -4 d 9 -4 d 9 -5 d 9 -5 d 18 -13 d 18 -14 d 36 -36 d 17 -21 d 18 -23 d 18 -23 d 18 -25 d 18 -26 d 18 -26 d 18 -26 d 18 -26 d 18 -26 d 18 -25 d 18 -24 d 18 -24 d 35 -46 d 36
 -45 d 36 -46 d 36 -49 d 36 -50 d 36 -54 d 35 -57 d s black 3 lw 381 712 m -18 X s 363 712 m cl s 381 712 m 18 X s 399 712 m cl s 381 712 m 90 Y s 381 802 m cl s 381 712 m -78 Y s 381 634 m cl s 417 804 m -18 X s 399 804 m cl s 417 804 m 17 X s 434
 804 m cl s 417 804 m 62 Y s 417 866 m cl s 417 804 m -67 Y s 417 737 m cl s 452 780 m -18 X s 434 780 m cl s 452 780 m 18 X s 470 780 m cl s 452 780 m 68 Y s 452 848 m cl s 452 780 m -76 Y s 452 704 m cl s 488 634 m -18 X s 470 634 m cl s 488 634 m
 18 X s 506 634 m cl s 524 842 m -18 X s 506 842 m cl s 524 842 m 18 X s 542 842 m cl s 524 842 m 53 Y s 524 895 m cl s 524 842 m -56 Y s 524 786 m cl s 560 750 m -18 X s 542 750 m cl s 560 750 m 18 X s 578 750 m cl s 560 750 m 77 Y s 560 827 m cl s
 560 750 m -87 Y s 560 663 m cl s 596 824 m -18 X s 578 824 m cl s 596 824 m 18 X s 614 824 m cl s 596 824 m 58 Y s 596 882 m cl s 596 824 m -61 Y s 596 763 m cl s 632 907 m -18 X s 614 907 m cl s 632 907 m 17 X s 649 907 m cl s 632 907 m 41 Y s 632
 948 m cl s 632 907 m -43 Y s 632 864 m cl s 667 824 m -18 X s 649 824 m cl s 667 824 m 18 X s 685 824 m cl s 667 824 m 58 Y s 667 882 m cl s 667 824 m -61 Y s 667 763 m cl s 703 926 m -18 X s 685 926 m cl s 703 926 m 18 X s 721 926 m cl s 703 926 m
 38 Y s 703 964 m cl s 703 926 m -40 Y s 703 886 m cl s 739 907 m -18 X s 721 907 m cl s 739 907 m 18 X s 757 907 m cl s 739 907 m 41 Y s 739 948 m cl s 739 907 m -43 Y s 739 864 m cl s 775 842 m -18 X s 757 842 m cl s 775 842 m 18 X s 793 842 m cl s
 775 842 m 53 Y s 775 895 m cl s 775 842 m -56 Y s 775 786 m cl s 811 934 m -18 X s 793 934 m cl s 811 934 m 18 X s 829 934 m cl s 811 934 m 37 Y s 811 971 m cl s 811 934 m -38 Y s 811 896 m cl s 847 950 m -18 X s 829 950 m cl s 847 950 m 17 X s 864
 950 m cl s 847 950 m 34 Y s 847 984 m cl s 847 950 m -36 Y s 847 914 m cl s 882 884 m -18 X s 864 884 m cl s 882 884 m 18 X s 900 884 m cl s 882 884 m 45 Y s 882 929 m cl s 882 884 m -46 Y s 882 838 m cl s 918 950 m -18 X s 900 950 m cl s 918 950 m
 18 X s 936 950 m cl s 918 950 m 34 Y s 918 984 m cl s 918 950 m -36 Y s 918 914 m cl s 954 988 m -18 X s 936 988 m cl s 954 988 m 18 X s 972 988 m cl s 954 988 m 30 Y s 954 1018 m cl s 954 988 m -30 Y s 954 958 m cl s 990 1013 m -18 X s 972 1013 m
 cl s 990 1013 m 18 X s 1008 1013 m cl s 990 1013 m 27 Y s 990 1040 m cl s 990 1013 m -27 Y s 990 986 m cl s 1026 1049 m -18 X s 1008 1049 m cl s 1026 1049 m 18 X s 1044 1049 m cl s 1026 1049 m 23 Y s 1026 1072 m cl s 1026 1049 m -23 Y s 1026 1026 m
 cl s 1062 1038 m -18 X s 1044 1038 m cl s 1062 1038 m 17 X s 1079 1038 m cl s 1062 1038 m 24 Y s 1062 1062 m cl s 1062 1038 m -24 Y s 1062 1014 m cl s 1097 1105 m -18 X s 1079 1105 m cl s 1097 1105 m 18 X s 1115 1105 m cl s 1097 1105 m 19 Y s 1097
 1124 m cl s 1097 1105 m -18 Y s 1097 1087 m cl s 1133 1093 m -18 X s 1115 1093 m cl s 1133 1093 m 18 X s 1151 1093 m cl s 1133 1093 m 20 Y s 1133 1113 m cl s 1133 1093 m -19 Y s 1133 1074 m cl s 1169 1114 m -18 X s 1151 1114 m cl s 1169 1114 m 18 X
 s 1187 1114 m cl s 1169 1114 m 18 Y s 1169 1132 m cl s 1169 1114 m -18 Y s 1169 1096 m cl s 1205 1162 m -18 X s 1187 1162 m cl s 1205 1162 m 18 X s 1223 1162 m cl s 1205 1162 m 15 Y s 1205 1177 m cl s 1205 1162 m -15 Y s 1205 1147 m cl s 1241 1222 m
 -18 X s 1223 1222 m cl s 1241 1222 m 18 X s 1259 1222 m cl s 1241 1222 m 11 Y s 1241 1233 m cl s 1241 1222 m -12 Y s 1241 1210 m cl s 1276 1220 m -17 X s 1259 1220 m cl s 1276 1220 m 18 X s 1294 1220 m cl s 1276 1220 m 11 Y s 1276 1231 m cl s 1276
 1220 m -12 Y s 1276 1208 m cl s 1312 1258 m -18 X s 1294 1258 m cl s 1312 1258 m 18 X s 1330 1258 m cl s 1312 1258 m 10 Y s 1312 1268 m cl s 1312 1258 m -10 Y s 1312 1248 m cl s 1348 1292 m -18 X s 1330 1292 m cl s 1348 1292 m 18 X s 1366 1292 m cl
 s 1348 1292 m 9 Y s 1348 1301 m cl s 1348 1292 m -9 Y s 1348 1283 m cl s 1384 1328 m -18 X s 1366 1328 m cl s 1384 1328 m 18 X s 1402 1328 m cl s 1384 1328 m 8 Y s 1384 1336 m cl s 1384 1328 m -7 Y s 1384 1321 m cl s 1420 1356 m -18 X s 1402 1356 m
 cl s 1420 1356 m 18 X s 1438 1356 m cl s 1420 1356 m 6 Y s 1420 1362 m cl s 1420 1356 m -7 Y s 1420 1349 m cl s 1456 1394 m -18 X s 1438 1394 m cl s 1456 1394 m 18 X s 1474 1394 m cl s 1456 1394 m 6 Y s 1456 1400 m cl s 1456 1394 m -6 Y s 1456 1388
 m cl s 1491 1397 m -17 X s 1474 1397 m cl s 1491 1397 m 18 X s 1509 1397 m cl s 1491 1397 m 6 Y s 1491 1403 m cl s 1491 1397 m -6 Y s 1491 1391 m cl s 1527 1417 m -18 X s 1509 1417 m cl s 1527 1417 m 18 X s 1545 1417 m cl s 1527 1417 m 5 Y s 1527
 1422 m cl s 1527 1417 m -6 Y s 1527 1411 m cl s 1563 1408 m -18 X s 1545 1408 m cl s 1563 1408 m 18 X s 1581 1408 m cl s 1563 1408 m 5 Y s 1563 1413 m cl s 1563 1408 m -6 Y s 1563 1402 m cl s 1599 1400 m -18 X s 1581 1400 m cl s 1599 1400 m 18 X s
 1617 1400 m cl s 1599 1400 m 6 Y s 1599 1406 m cl s 1599 1400 m -6 Y s 1599 1394 m cl s 1635 1380 m -18 X s 1617 1380 m cl s 1635 1380 m 18 X s 1653 1380 m cl s 1635 1380 m 6 Y s 1635 1386 m cl s 1635 1380 m -6 Y s 1635 1374 m cl s 1671 1337 m -18 X
 s 1653 1337 m cl s 1671 1337 m 18 X s 1689 1337 m cl s 1671 1337 m 8 Y s 1671 1345 m cl s 1671 1337 m -7 Y s 1671 1330 m cl s 1706 1309 m -17 X s 1689 1309 m cl s 1706 1309 m 18 X s 1724 1309 m cl s 1706 1309 m 8 Y s 1706 1317 m cl s 1706 1309 m -8
 Y s 1706 1301 m cl s 1742 1264 m -18 X s 1724 1264 m cl s 1742 1264 m 18 X s 1760 1264 m cl s 1742 1264 m 9 Y s 1742 1273 m cl s 1742 1264 m -10 Y s 1742 1254 m cl s 1778 1215 m -18 X s 1760 1215 m cl s 1778 1215 m 18 X s 1796 1215 m cl s 1778 1215
 m 11 Y s 1778 1226 m cl s 1778 1215 m -12 Y s 1778 1203 m cl s 1814 1140 m -18 X s 1796 1140 m cl s 1814 1140 m 18 X s 1832 1140 m cl s 1814 1140 m 16 Y s 1814 1156 m cl s 1814 1140 m -17 Y s 1814 1123 m cl s 1850 1098 m -18 X s 1832 1098 m cl s
 1850 1098 m 18 X s 1868 1098 m cl s 1850 1098 m 19 Y s 1850 1117 m cl s 1850 1098 m -19 Y s 1850 1079 m cl s 1886 1022 m -18 X s 1868 1022 m cl s 1886 1022 m 18 X s 1904 1022 m cl s 1886 1022 m 26 Y s 1886 1048 m cl s 1886 1022 m -26 Y s 1886 996 m
 cl s 1921 988 m -17 X s 1904 988 m cl s 1921 988 m 18 X s 1939 988 m cl s 1921 988 m 30 Y s 1921 1018 m cl s 1921 988 m -30 Y s 1921 958 m cl s 1957 934 m -18 X s 1939 934 m cl s 1957 934 m 18 X s 1975 934 m cl s 1957 934 m 37 Y s 1957 971 m cl s
 1957 934 m -38 Y s 1957 896 m cl s 1993 942 m -18 X s 1975 942 m cl s 1993 942 m 18 X s 2011 942 m cl s 1993 942 m 36 Y s 1993 978 m cl s 1993 942 m -36 Y s 1993 906 m cl s 2029 942 m -18 X s 2011 942 m cl s 2029 942 m 18 X s 2047 942 m cl s 2029
 942 m 36 Y s 2029 978 m cl s 2029 942 m -36 Y s 2029 906 m cl s 2065 842 m -18 X s 2047 842 m cl s 2065 842 m 18 X s 2083 842 m cl s 2065 842 m 53 Y s 2065 895 m cl s 2065 842 m -56 Y s 2065 786 m cl s 2101 750 m -18 X s 2083 750 m cl s 2101 750 m
 18 X s 2119 750 m cl s 2101 750 m 77 Y s 2101 827 m cl s 2101 750 m -87 Y s 2101 663 m cl s 381 712 417 804 452 780 3 { m20} R 524 842 560 750 596 824 632 907 667 824 703 926 739 907 775 842 811 934 847 950 882 884 918 950 954 988 990 1013 1026 1049
 1062 1038 1097 1105 1133 1093 1169 1114 1205 1162 1241 1222 1276 1220 1312 1258 1348 1292 1384 1328 1420 1356 1456 1394 1491 1397 1527 1417 1563 1408 1599 1400 1635 1380 1671 1337 1706 1309 1742 1264 1778 1215 1814 1140 1850 1098 1886 1022 1921 988
 1957 934 1993 942 2029 942 2065 842 2101 750 45 { m20} R 0.52 0.76 0.64 c[ 4 8] 0 sd 9 lw black 0.52 0.76 0.64 c 363 784 m 36 8 d 35 8 d 36 8 d 36 9 d 36 8 d 36 10 d 36 9 d 35 10 d 36 10 d 36 11 d 36 11 d 36 12 d 36 12 d 35 13 d 36 14 d 36 14 d 36
 15 d 36 16 d 36 18 d 35 18 d 36 20 d 36 22 d 36 24 d 36 26 d 18 15 d 18 15 d 17 16 d 18 17 d 18 19 d 9 9 d 9 11 d 9 10 d 9 11 d 9 12 d 9 12 d 9 13 d 9 12 d 18 24 d 36 37 d 18 15 d 9 6 d 9 5 d 9 5 d 8 4 d 9 3 d 9 3 d 9 1 d 9 1 d 9 1 d 9 -1 d 9 -1 d 9
 -2 d 9 -2 d 9 -4 d 9 -4 d 9 -5 d 9 -5 d 9 -6 d 18 -15 d 18 -18 d 18 -20 d 18 -24 d 17 -26 d 9 -15 d 9 -15 d 9 -16 d 9 -16 d 9 -17 d 9 -18 d 9 -19 d 9 -19 d 9 -21 d 9 -21 d 18 -43 d 18 -47 d 18 -50 d 18 -53 d 18 -56 d 18 -58 d 35 -126 d 3 -10 d s
 0.54 0.66 0.63 c black 0.54 0.66 0.63 c 887 634 m 13 22 d s 900 656 m 36 58 d 36 56 d 36 51 d 18 25 d 18 23 d 18 23 d 17 22 d 18 22 d 18 20 d 18 19 d 18 19 d 18 18 d 18 17 d 18 16 d 18 15 d 36 28 d 35 24 d 36 21 d 36 18 d 18 8 d 18 7 d 18 5 d 18 5 d
 18 5 d 18 3 d 17 3 d 18 1 d 18 1 d 18 X 18 -1 d 18 -2 d 18 -2 d 18 -4 d 18 -4 d 18 -5 d 18 -6 d 18 -7 d 35 -16 d 36 -20 d 36 -23 d 36 -26 d 18 -15 d 18 -15 d 18 -16 d 18 -17 d 17 -18 d 18 -19 d 18 -19 d 18 -21 d 18 -21 d 18 -22 d 18 -23 d 18 -24 d
 36 -50 d 36 -53 d 35 -57 d s black[  ] 0 sd 3 lw 363 634 m 1791 X s 473 659 m -25 Y s 518 646 m -12 Y s 562 646 m -12 Y s 606 646 m -12 Y s 650 646 m -12 Y s 695 659 m -25 Y s 739 646 m -12 Y s 783 646 m -12 Y s 827 646 m -12 Y s 872 646 m -12 Y s
 916 659 m -25 Y s 960 646 m -12 Y s 1004 646 m -12 Y s 1048 646 m -12 Y s 1093 646 m -12 Y s 1137 659 m -25 Y s 1181 646 m -12 Y s 1225 646 m -12 Y s 1270 646 m -12 Y s 1314 646 m -12 Y s 1358 659 m -25 Y s 1402 646 m -12 Y s 1447 646 m -12 Y s 1491
 646 m -12 Y s 1535 646 m -12 Y s 1579 659 m -25 Y s 1624 646 m -12 Y s 1668 646 m -12 Y s 1712 646 m -12 Y s 1756 646 m -12 Y s 1800 659 m -25 Y s 1845 646 m -12 Y s 1889 646 m -12 Y s 1933 646 m -12 Y s 1977 646 m -12 Y s 2022 659 m -25 Y s 473 659
 m -25 Y s 429 646 m -12 Y s 385 646 m -12 Y s 2022 659 m -25 Y s 2066 646 m -12 Y s 2110 646 m -12 Y s 363 1484 m 1791 X s 473 1459 m 25 Y s 518 1471 m 13 Y s 562 1471 m 13 Y s 606 1471 m 13 Y s 650 1471 m 13 Y s 695 1459 m 25 Y s 739 1471 m 13 Y s
 783 1471 m 13 Y s 827 1471 m 13 Y s 872 1471 m 13 Y s 916 1459 m 25 Y s 960 1471 m 13 Y s 1004 1471 m 13 Y s 1048 1471 m 13 Y s 1093 1471 m 13 Y s 1137 1459 m 25 Y s 1181 1471 m 13 Y s 1225 1471 m 13 Y s 1270 1471 m 13 Y s 1314 1471 m 13 Y s 1358
 1459 m 25 Y s 1402 1471 m 13 Y s 1447 1471 m 13 Y s 1491 1471 m 13 Y s 1535 1471 m 13 Y s 1579 1459 m 25 Y s 1624 1471 m 13 Y s 1668 1471 m 13 Y s 1712 1471 m 13 Y s 1756 1471 m 13 Y s 1800 1459 m 25 Y s 1845 1471 m 13 Y s 1889 1471 m 13 Y s 1933
 1471 m 13 Y s 1977 1471 m 13 Y s 2022 1459 m 25 Y s 473 1459 m 25 Y s 429 1471 m 13 Y s 385 1471 m 13 Y s 2022 1459 m 25 Y s 2066 1471 m 13 Y s 2110 1471 m 13 Y s 363 634 m 850 Y s 390 658 m -27 X s 390 712 m -27 X s 390 750 m -27 X s 390 780 m -27
 X s 390 804 m -27 X s 390 824 m -27 X s 390 842 m -27 X s 390 858 m -27 X s 417 872 m -54 X s 390 964 m -27 X s 390 1018 m -27 X s 390 1056 m -27 X s 390 1086 m -27 X s 390 1110 m -27 X s 390 1130 m -27 X s 390 1148 m -27 X s 390 1164 m -27 X s 417
 1178 m -54 X s 390 1270 m -27 X s 390 1324 m -27 X s 390 1362 m -27 X s 390 1392 m -27 X s 390 1416 m -27 X s 390 1436 m -27 X s 390 1454 m -27 X s 390 1470 m -27 X s 417 1484 m -54 X s 2154 634 m 850 Y s 2127 658 m 27 X s 2127 712 m 27 X s 2127 750
 m 27 X s 2127 780 m 27 X s 2127 804 m 27 X s 2127 824 m 27 X s 2127 842 m 27 X s 2127 858 m 27 X s 2101 872 m 53 X s 2127 964 m 27 X s 2127 1018 m 27 X s 2127 1056 m 27 X s 2127 1086 m 27 X s 2127 1110 m 27 X s 2127 1130 m 27 X s 2127 1148 m 27 X s
 2127 1164 m 27 X s 2101 1178 m 53 X s 2127 1270 m 27 X s 2127 1324 m 27 X s 2127 1362 m 27 X s 2127 1392 m 27 X s 2127 1416 m 27 X s 2127 1436 m 27 X s 2127 1454 m 27 X s 2127 1470 m 27 X s 2101 1484 m 53 X s
 gsave  2268 1077 0 461 C 677.708 1215.31 t 0 r /Helvetica findfont 58.7189 sf 0 0 m (4e) show NC gr  1 1 1 c 453 161 454 1269 bf black
 gsave  2268 1077 0 461 C 566.929 1371.71 t 0 r /Helvetica-Bold findfont 48.9324 sf 0 0 m (MC15) show NC gr  510 1390 m20
 gsave  2268 1077 0 461 C 566.929 1293.51 t 0 r /Helvetica-Bold findfont 48.9324 sf 0 0 m (Projection of Signal pdf) show NC gr  0 0 1 c 9 lw 471 1309 m 79 X s black 3 lw 1 1 1 c 2268 461 0 0 bf black 1 1 1 c 1791 364 363 74 bf black 1791 364 363 74
 bl 363 74 m 1791 X s
 gsave  2268 461 0 0 C 1915.83 13.0329 t 0 r /Helvetica findfont 22.9045 sf 0 0 m (4l Invariant Mass \(GeV\)) show NC gr  473 85 m -11 Y s 518 79 m -5 Y s 562 79 m -5 Y s 606 79 m -5 Y s 650 79 m -5 Y s 695 85 m -11 Y s 739 79 m -5 Y s 783 79 m -5 Y
 s 827 79 m -5 Y s 872 79 m -5 Y s 916 85 m -11 Y s 960 79 m -5 Y s 1004 79 m -5 Y s 1048 79 m -5 Y s 1093 79 m -5 Y s 1137 85 m -11 Y s 1181 79 m -5 Y s 1225 79 m -5 Y s 1270 79 m -5 Y s 1314 79 m -5 Y s 1358 85 m -11 Y s 1402 79 m -5 Y s 1447 79 m
 -5 Y s 1491 79 m -5 Y s 1535 79 m -5 Y s 1579 85 m -11 Y s 1624 79 m -5 Y s 1668 79 m -5 Y s 1712 79 m -5 Y s 1756 79 m -5 Y s 1800 85 m -11 Y s 1845 79 m -5 Y s 1889 79 m -5 Y s 1933 79 m -5 Y s 1977 79 m -5 Y s 2022 85 m -11 Y s 473 85 m -11 Y s
 429 79 m -5 Y s 385 79 m -5 Y s 2022 85 m -11 Y s 2066 79 m -5 Y s 2110 79 m -5 Y s
 gsave  2268 461 0 0 C 452.892 55.3896 t 0 r /Helvetica findfont 22.9045 sf 0 0 m (750) show NC gr 
 gsave  2268 461 0 0 C 674.45 55.3896 t 0 r /Helvetica findfont 22.9045 sf 0 0 m (760) show NC gr 
 gsave  2268 461 0 0 C 896.009 55.3896 t 0 r /Helvetica findfont 22.9045 sf 0 0 m (770) show NC gr 
 gsave  2268 461 0 0 C 1114.31 55.3896 t 0 r /Helvetica findfont 22.9045 sf 0 0 m (780) show NC gr 
 gsave  2268 461 0 0 C 1335.87 55.3896 t 0 r /Helvetica findfont 22.9045 sf 0 0 m (790) show NC gr 
 gsave  2268 461 0 0 C 1557.43 55.3896 t 0 r /Helvetica findfont 22.9045 sf 0 0 m (800) show NC gr 
 gsave  2268 461 0 0 C 1778.98 55.3896 t 0 r /Helvetica findfont 22.9045 sf 0 0 m (810) show NC gr 
 gsave  2268 461 0 0 C 2000.54 55.3896 t 0 r /Helvetica findfont 22.9045 sf 0 0 m (820) show NC gr  363 438 m 1791 X s 473 427 m 11 Y s 518 433 m 5 Y s 562 433 m 5 Y s 606 433 m 5 Y s 650 433 m 5 Y s 695 427 m 11 Y s 739 433 m 5 Y s 783 433 m 5 Y s
 827 433 m 5 Y s 872 433 m 5 Y s 916 427 m 11 Y s 960 433 m 5 Y s 1004 433 m 5 Y s 1048 433 m 5 Y s 1093 433 m 5 Y s 1137 427 m 11 Y s 1181 433 m 5 Y s 1225 433 m 5 Y s 1270 433 m 5 Y s 1314 433 m 5 Y s 1358 427 m 11 Y s 1402 433 m 5 Y s 1447 433 m 5
 Y s 1491 433 m 5 Y s 1535 433 m 5 Y s 1579 427 m 11 Y s 1624 433 m 5 Y s 1668 433 m 5 Y s 1712 433 m 5 Y s 1756 433 m 5 Y s 1800 427 m 11 Y s 1845 433 m 5 Y s 1889 433 m 5 Y s 1933 433 m 5 Y s 1977 433 m 5 Y s 2022 427 m 11 Y s 473 427 m 11 Y s 429
 433 m 5 Y s 385 433 m 5 Y s 2022 427 m 11 Y s 2066 433 m 5 Y s 2110 433 m 5 Y s 363 74 m 364 Y s 417 74 m -54 X s 390 81 m -27 X s 390 88 m -27 X s 390 96 m -27 X s 390 103 m -27 X s 417 110 m -54 X s 390 118 m -27 X s 390 125 m -27 X s 390 132 m
 -27 X s 390 139 m -27 X s 417 147 m -54 X s 390 154 m -27 X s 390 161 m -27 X s 390 169 m -27 X s 390 176 m -27 X s 417 183 m -54 X s 390 190 m -27 X s 390 198 m -27 X s 390 205 m -27 X s 390 212 m -27 X s 417 220 m -54 X s 390 227 m -27 X s 390 234
 m -27 X s 390 241 m -27 X s 390 249 m -27 X s 417 256 m -54 X s 390 263 m -27 X s 390 271 m -27 X s 390 278 m -27 X s 390 285 m -27 X s 417 293 m -54 X s 390 300 m -27 X s 390 307 m -27 X s 390 314 m -27 X s 390 322 m -27 X s 417 329 m -54 X s 390
 336 m -27 X s 390 344 m -27 X s 390 351 m -27 X s 390 358 m -27 X s 417 365 m -54 X s 390 373 m -27 X s 390 380 m -27 X s 390 387 m -27 X s 390 395 m -27 X s 417 402 m -54 X s 390 409 m -27 X s 390 416 m -27 X s 390 424 m -27 X s 390 431 m -27 X s
 417 438 m -54 X s
 gsave  2268 461 0 0 C 329.08 65.1643 t 0 r /Helvetica findfont 22.9045 sf 0 0 m (\2555) show NC gr 
 gsave  2268 461 0 0 C 329.08 101.005 t 0 r /Helvetica findfont 22.9045 sf 0 0 m (\2554) show NC gr 
 gsave  2268 461 0 0 C 329.08 140.103 t 0 r /Helvetica findfont 22.9045 sf 0 0 m (\2553) show NC gr 
 gsave  2268 461 0 0 C 329.08 175.944 t 0 r /Helvetica findfont 22.9045 sf 0 0 m (\2552) show NC gr 
 gsave  2268 461 0 0 C 332.338 211.784 t 0 r /Helvetica findfont 22.9045 sf 0 0 m (\2551) show NC gr 
 gsave  2268 461 0 0 C 335.596 247.624 t 0 r /Helvetica findfont 22.9045 sf 0 0 m (0) show NC gr 
 gsave  2268 461 0 0 C 338.854 283.465 t 0 r /Helvetica findfont 22.9045 sf 0 0 m (1) show NC gr 
 gsave  2268 461 0 0 C 335.596 319.305 t 0 r /Helvetica findfont 22.9045 sf 0 0 m (2) show NC gr 
 gsave  2268 461 0 0 C 335.596 358.403 t 0 r /Helvetica findfont 22.9045 sf 0 0 m (3) show NC gr 
 gsave  2268 461 0 0 C 335.596 394.244 t 0 r /Helvetica findfont 22.9045 sf 0 0 m (4) show NC gr 
 gsave  2268 461 0 0 C 335.596 430.084 t 0 r /Helvetica findfont 22.9045 sf 0 0 m (5) show NC gr  2154 74 m 364 Y s 2101 74 m 53 X s 2127 81 m 27 X s 2127 88 m 27 X s 2127 96 m 27 X s 2127 103 m 27 X s 2101 110 m 53 X s 2127 118 m 27 X s 2127 125 m
 27 X s 2127 132 m 27 X s 2127 139 m 27 X s 2101 147 m 53 X s 2127 154 m 27 X s 2127 161 m 27 X s 2127 169 m 27 X s 2127 176 m 27 X s 2101 183 m 53 X s 2127 190 m 27 X s 2127 198 m 27 X s 2127 205 m 27 X s 2127 212 m 27 X s 2101 220 m 53 X s 2127 227
 m 27 X s 2127 234 m 27 X s 2127 241 m 27 X s 2127 249 m 27 X s 2101 256 m 53 X s 2127 263 m 27 X s 2127 271 m 27 X s 2127 278 m 27 X s 2127 285 m 27 X s 2101 293 m 53 X s 2127 300 m 27 X s 2127 307 m 27 X s 2127 314 m 27 X s 2127 322 m 27 X s 2101
 329 m 53 X s 2127 336 m 27 X s 2127 344 m 27 X s 2127 351 m 27 X s 2127 358 m 27 X s 2101 365 m 53 X s 2127 373 m 27 X s 2127 380 m 27 X s 2127 387 m 27 X s 2127 395 m 27 X s 2101 402 m 53 X s 2127 409 m 27 X s 2127 416 m 27 X s 2127 424 m 27 X s
 2127 431 m 27 X s 2101 438 m 53 X s 6 lw 0.2 0.8 0.2 c black 3 lw 0.2 0.8 0.2 c 363 256 m -29 Y 36 X 34 Y 35 X -16 Y 36 X -171 Y 36 X 197 Y 36 X -53 Y 36 X 30 Y 36 X 54 Y 35 X -67 Y 36 X 69 Y 36 X -26 Y 36 X -59 Y 36 X 61 Y 36 X 2 Y 35 X -76 Y 36 X
 38 Y 36 X 19 Y 36 X 4 Y 36 X 19 Y 36 X -56 Y 35 X 70 Y 36 X -75 Y 36 X -19 Y 36 X 41 Y 36 X 93 Y 36 X -95 Y 35 X 27 Y 36 X 2 Y 36 X -10 Y 36 X -42 Y 36 X 65 Y 36 X -90 Y 35 X 80 Y 36 X -41 Y 36 X 32 Y 36 X 16 Y 36 X -60 Y 36 X 55 Y 35 X 1 Y 72 X -58
 Y 36 X 25 Y 36 X -37 Y 36 X 21 Y 35 X -3 Y 36 X 54 Y 36 X 37 Y 36 X -48 Y 36 X -22 Y 36 X -26 Y 35 X 33 Y f 6 lw black 0.2 0.8 0.2 c black 363 227 m 36 X 34 Y 35 X -16 Y 36 X -171 Y 36 X 197 Y 36 X -53 Y 36 X 30 Y 36 X 54 Y 35 X -67 Y 36 X 69 Y 36 X
 -26 Y 36 X -59 Y 36 X 61 Y 36 X 2 Y 35 X -76 Y 36 X 38 Y 36 X 19 Y 36 X 4 Y 36 X 19 Y 36 X -56 Y 35 X 70 Y 36 X -75 Y 36 X -19 Y 36 X 41 Y 36 X 93 Y 36 X -95 Y 35 X 27 Y 36 X 2 Y 36 X -10 Y 36 X -42 Y 36 X 65 Y 36 X -90 Y 35 X 80 Y 36 X -41 Y 36 X
 32 Y 36 X 16 Y 36 X -60 Y 36 X 55 Y 35 X 1 Y 72 X -58 Y 36 X 25 Y 36 X -37 Y 36 X 21 Y 35 X -3 Y 36 X 54 Y 36 X 37 Y 36 X -48 Y 36 X -22 Y 36 X -26 Y 35 X s 3 lw 363 74 m 1791 X s 473 85 m -11 Y s 518 79 m -5 Y s 562 79 m -5 Y s 606 79 m -5 Y s 650
 79 m -5 Y s 695 85 m -11 Y s 739 79 m -5 Y s 783 79 m -5 Y s 827 79 m -5 Y s 872 79 m -5 Y s 916 85 m -11 Y s 960 79 m -5 Y s 1004 79 m -5 Y s 1048 79 m -5 Y s 1093 79 m -5 Y s 1137 85 m -11 Y s 1181 79 m -5 Y s 1225 79 m -5 Y s 1270 79 m -5 Y s
 1314 79 m -5 Y s 1358 85 m -11 Y s 1402 79 m -5 Y s 1447 79 m -5 Y s 1491 79 m -5 Y s 1535 79 m -5 Y s 1579 85 m -11 Y s 1624 79 m -5 Y s 1668 79 m -5 Y s 1712 79 m -5 Y s 1756 79 m -5 Y s 1800 85 m -11 Y s 1845 79 m -5 Y s 1889 79 m -5 Y s 1933 79
 m -5 Y s 1977 79 m -5 Y s 2022 85 m -11 Y s 473 85 m -11 Y s 429 79 m -5 Y s 385 79 m -5 Y s 2022 85 m -11 Y s 2066 79 m -5 Y s 2110 79 m -5 Y s 363 438 m 1791 X s 473 427 m 11 Y s 518 433 m 5 Y s 562 433 m 5 Y s 606 433 m 5 Y s 650 433 m 5 Y s 695
 427 m 11 Y s 739 433 m 5 Y s 783 433 m 5 Y s 827 433 m 5 Y s 872 433 m 5 Y s 916 427 m 11 Y s 960 433 m 5 Y s 1004 433 m 5 Y s 1048 433 m 5 Y s 1093 433 m 5 Y s 1137 427 m 11 Y s 1181 433 m 5 Y s 1225 433 m 5 Y s 1270 433 m 5 Y s 1314 433 m 5 Y s
 1358 427 m 11 Y s 1402 433 m 5 Y s 1447 433 m 5 Y s 1491 433 m 5 Y s 1535 433 m 5 Y s 1579 427 m 11 Y s 1624 433 m 5 Y s 1668 433 m 5 Y s 1712 433 m 5 Y s 1756 433 m 5 Y s 1800 427 m 11 Y s 1845 433 m 5 Y s 1889 433 m 5 Y s 1933 433 m 5 Y s 1977 433
 m 5 Y s 2022 427 m 11 Y s 473 427 m 11 Y s 429 433 m 5 Y s 385 433 m 5 Y s 2022 427 m 11 Y s 2066 433 m 5 Y s 2110 433 m 5 Y s 363 74 m 364 Y s 417 74 m -54 X s 390 81 m -27 X s 390 88 m -27 X s 390 96 m -27 X s 390 103 m -27 X s 417 110 m -54 X s
 390 118 m -27 X s 390 125 m -27 X s 390 132 m -27 X s 390 139 m -27 X s 417 147 m -54 X s 390 154 m -27 X s 390 161 m -27 X s 390 169 m -27 X s 390 176 m -27 X s 417 183 m -54 X s 390 190 m -27 X s 390 198 m -27 X s 390 205 m -27 X s 390 212 m -27 X
 s 417 220 m -54 X s 390 227 m -27 X s 390 234 m -27 X s 390 241 m -27 X s 390 249 m -27 X s 417 256 m -54 X s 390 263 m -27 X s 390 271 m -27 X s 390 278 m -27 X s 390 285 m -27 X s 417 293 m -54 X s 390 300 m -27 X s 390 307 m -27 X s 390 314 m -27
 X s 390 322 m -27 X s 417 329 m -54 X s 390 336 m -27 X s 390 344 m -27 X s 390 351 m -27 X s 390 358 m -27 X s 417 365 m -54 X s 390 373 m -27 X s 390 380 m -27 X s 390 387 m -27 X s 390 395 m -27 X s 417 402 m -54 X s 390 409 m -27 X s 390 416 m
 -27 X s 390 424 m -27 X s 390 431 m -27 X s 417 438 m -54 X s 2154 74 m 364 Y s 2101 74 m 53 X s 2127 81 m 27 X s 2127 88 m 27 X s 2127 96 m 27 X s 2127 103 m 27 X s 2101 110 m 53 X s 2127 118 m 27 X s 2127 125 m 27 X s 2127 132 m 27 X s 2127 139 m
 27 X s 2101 147 m 53 X s 2127 154 m 27 X s 2127 161 m 27 X s 2127 169 m 27 X s 2127 176 m 27 X s 2101 183 m 53 X s 2127 190 m 27 X s 2127 198 m 27 X s 2127 205 m 27 X s 2127 212 m 27 X s 2101 220 m 53 X s 2127 227 m 27 X s 2127 234 m 27 X s 2127 241
 m 27 X s 2127 249 m 27 X s 2101 256 m 53 X s 2127 263 m 27 X s 2127 271 m 27 X s 2127 278 m 27 X s 2127 285 m 27 X s 2101 293 m 53 X s 2127 300 m 27 X s 2127 307 m 27 X s 2127 314 m 27 X s 2127 322 m 27 X s 2101 329 m 53 X s 2127 336 m 27 X s 2127
 344 m 27 X s 2127 351 m 27 X s 2127 358 m 27 X s 2101 365 m 53 X s 2127 373 m 27 X s 2127 380 m 27 X s 2127 387 m 27 X s 2127 395 m 27 X s 2101 402 m 53 X s 2127 409 m 27 X s 2127 416 m 27 X s 2127 424 m 27 X s 2127 431 m 27 X s 2101 438 m 53 X s
 gr  gr showpage
end
%%EOF
