%!PS-Adobe-2.0 EPSF-2.0
%%BoundingBox:  0 0 567 384
%%Title: H4l2015_plotfit/gg_mass_signal_1000_fixed_H4l_2mu2e.eps: 
%%Creator: ROOT Version 5.34/10
%%CreationDate: Thu Feb 16 15:43:05 2017
%%EndComments
%%BeginProlog
80 dict begin
/s {stroke} def /l {lineto} def /m {moveto} def /t {translate} def
/r {rotate} def /rl {roll}  def /R {repeat} def
/d {rlineto} def /rm {rmoveto} def /gr {grestore} def /f {eofill} def
/c {setrgbcolor} def /black {0 setgray} def /sd {setdash} def
/cl {closepath} def /sf {scalefont setfont} def /lw {setlinewidth} def
/box {m dup 0 exch d exch 0 d 0 exch neg d cl} def
/NC{systemdict begin initclip end}def/C{NC box clip newpath}def
/bl {box s} def /bf {box f} def /Y { 0 exch d} def /X { 0 d} def 
/K {{pop pop 0 moveto} exch kshow} bind def
/ita {/ang 15 def gsave [1 0 ang dup sin exch cos div 1 0 0] concat} def 
/mp {newpath /y exch def /x exch def} def
/side {[w .77 mul w .23 mul] .385 w mul sd w 0 l currentpoint t -144 r} def
/mr {mp x y w2 0 360 arc} def /m24 {mr s} def /m20 {mr f} def
/mb {mp x y w2 add m w2 neg 0 d 0 w neg d w 0 d 0 w d cl} def
/mt {mp x y w2 add m w2 neg w neg d w 0 d cl} def
/m21 {mb f} def /m25 {mb s} def /m22 {mt f} def /m26{mt s} def
/m23 {mp x y w2 sub m w2 w d w neg 0 d cl f} def
/m27 {mp x y w2 add m w3 neg w2 neg d w3 w2 neg d w3 w2 d cl s} def
/m28 {mp x w2 sub y w2 sub w3 add m w3 0 d  0 w3 neg d w3 0 d 0 w3 d w3 0 d  0 w3 d w3 neg 0 d 0 w3 d w3 neg 0 d 0 w3 neg d w3 neg 0 d cl s } def
/m29 {mp gsave x w2 sub y w2 add w3 sub m currentpoint t 4 {side} repeat cl fill gr} def
/m30 {mp gsave x w2 sub y w2 add w3 sub m currentpoint t 4 {side} repeat cl s gr} def
/m31 {mp x y w2 sub m 0 w d x w2 sub y m w 0 d x w2 sub y w2 add m w w neg d x w2 sub y w2 sub m w w d s} def
/m32 {mp x y w2 sub m w2 w d w neg 0 d cl s} def
/m33 {mp x y w2 add m w3 neg w2 neg d w3 w2 neg d w3 w2 d cl f} def
/m34 {mp x w2 sub y w2 sub w3 add m w3 0 d  0 w3 neg d w3 0 d 0 w3 d w3 0 d  0 w3 d w3 neg 0 d 0 w3 d w3 neg 0 d 0 w3 neg d w3 neg 0 d cl f } def
/m2 {mp x y w2 sub m 0 w d x w2 sub y m w 0 d s} def
/m5 {mp x w2 sub y w2 sub m w w d x w2 sub y w2 add m w w neg d s} def
/reEncode {exch findfont dup length dict begin {1 index /FID eq  {pop pop} {def} ifelse } forall /Encoding exch def currentdict end dup /FontName get exch definefont pop } def [/Times-Bold /Times-Italic /Times-BoldItalic /Helvetica /Helvetica-Oblique
 /Helvetica-Bold /Helvetica-BoldOblique /Courier /Courier-Oblique /Courier-Bold /Courier-BoldOblique /Times-Roman /AvantGarde-Book /AvantGarde-BookOblique /AvantGarde-Demi /AvantGarde-DemiOblique /Bookman-Demi /Bookman-DemiItalic /Bookman-Light
 /Bookman-LightItalic /Helvetica-Narrow /Helvetica-Narrow-Bold /Helvetica-Narrow-BoldOblique /Helvetica-Narrow-Oblique /NewCenturySchlbk-Roman /NewCenturySchlbk-Bold /NewCenturySchlbk-BoldItalic /NewCenturySchlbk-Italic /Palatino-Bold
 /Palatino-BoldItalic /Palatino-Italic /Palatino-Roman ] {ISOLatin1Encoding reEncode } forall
%%EndProlog
%%BeginSetup
%%EndSetup
newpath  gsave  .25 .25 scale  gsave  0 0 t black[  ] 0 sd 3 lw 1 1 1 c 2268 1538 0 0 bf black 1 1 1 c 2222 738 23 784 bf black 1 1 1 c 2222 739 23 15 bf black 1 1 1 c 2268 1077 0 461 bf black 1 1 1 c 1791 850 363 634 bf black 1791 850 363 634 bl 363
 634 m 1791 X s
 gsave  2268 1077 0 461 C 1642.14 498.507 t 0 r /Helvetica findfont 48.9324 sf 0 0 m (4l Invariant Mass \(GeV\)) show NC gr  469 659 m -25 Y s 514 646 m -12 Y s 558 646 m -12 Y s 602 646 m -12 Y s 647 659 m -25 Y s 691 646 m -12 Y s 735 646 m -12 Y s
 780 646 m -12 Y s 824 659 m -25 Y s 868 646 m -12 Y s 913 646 m -12 Y s 957 646 m -12 Y s 1001 659 m -25 Y s 1046 646 m -12 Y s 1090 646 m -12 Y s 1134 646 m -12 Y s 1179 659 m -25 Y s 1223 646 m -12 Y s 1267 646 m -12 Y s 1312 646 m -12 Y s 1356
 659 m -25 Y s 1400 646 m -12 Y s 1445 646 m -12 Y s 1489 646 m -12 Y s 1534 659 m -25 Y s 1578 646 m -12 Y s 1622 646 m -12 Y s 1667 646 m -12 Y s 1711 659 m -25 Y s 1755 646 m -12 Y s 1800 646 m -12 Y s 1844 646 m -12 Y s 1888 659 m -25 Y s 1933
 646 m -12 Y s 1977 646 m -12 Y s 2021 646 m -12 Y s 2066 659 m -25 Y s 469 659 m -25 Y s 425 646 m -12 Y s 381 646 m -12 Y s 2066 659 m -25 Y s 2110 646 m -12 Y s 2154 646 m -12 Y s
 gsave  2268 1077 0 461 C 426.826 586.478 t 0 r /Helvetica findfont 48.9324 sf 0 0 m (880) show NC gr 
 gsave  2268 1077 0 461 C 602.769 586.478 t 0 r /Helvetica findfont 48.9324 sf 0 0 m (900) show NC gr 
 gsave  2268 1077 0 461 C 778.713 586.478 t 0 r /Helvetica findfont 48.9324 sf 0 0 m (920) show NC gr 
 gsave  2268 1077 0 461 C 957.915 586.478 t 0 r /Helvetica findfont 48.9324 sf 0 0 m (940) show NC gr 
 gsave  2268 1077 0 461 C 1133.86 586.478 t 0 r /Helvetica findfont 48.9324 sf 0 0 m (960) show NC gr 
 gsave  2268 1077 0 461 C 1313.06 586.478 t 0 r /Helvetica findfont 48.9324 sf 0 0 m (980) show NC gr 
 gsave  2268 1077 0 461 C 1475.97 586.478 t 0 r /Helvetica findfont 48.9324 sf 0 0 m (1000) show NC gr 
 gsave  2268 1077 0 461 C 1655.17 586.478 t 0 r /Helvetica findfont 48.9324 sf 0 0 m (1020) show NC gr 
 gsave  2268 1077 0 461 C 1831.12 586.478 t 0 r /Helvetica findfont 48.9324 sf 0 0 m (1040) show NC gr 
 gsave  2268 1077 0 461 C 2007.06 586.478 t 0 r /Helvetica findfont 48.9324 sf 0 0 m (1060) show NC gr  363 1484 m 1791 X s 469 1459 m 25 Y s 514 1471 m 13 Y s 558 1471 m 13 Y s 602 1471 m 13 Y s 647 1459 m 25 Y s 691 1471 m 13 Y s 735 1471 m 13 Y s
 780 1471 m 13 Y s 824 1459 m 25 Y s 868 1471 m 13 Y s 913 1471 m 13 Y s 957 1471 m 13 Y s 1001 1459 m 25 Y s 1046 1471 m 13 Y s 1090 1471 m 13 Y s 1134 1471 m 13 Y s 1179 1459 m 25 Y s 1223 1471 m 13 Y s 1267 1471 m 13 Y s 1312 1471 m 13 Y s 1356
 1459 m 25 Y s 1400 1471 m 13 Y s 1445 1471 m 13 Y s 1489 1471 m 13 Y s 1534 1459 m 25 Y s 1578 1471 m 13 Y s 1622 1471 m 13 Y s 1667 1471 m 13 Y s 1711 1459 m 25 Y s 1755 1471 m 13 Y s 1800 1471 m 13 Y s 1844 1471 m 13 Y s 1888 1459 m 25 Y s 1933
 1471 m 13 Y s 1977 1471 m 13 Y s 2021 1471 m 13 Y s 2066 1459 m 25 Y s 469 1459 m 25 Y s 425 1471 m 13 Y s 381 1471 m 13 Y s 2066 1459 m 25 Y s 2110 1471 m 13 Y s 2154 1471 m 13 Y s 363 634 m 850 Y s
 gsave  2268 1077 0 461 C 120.554 1032.85 t 90 r /Helvetica findfont 48.9324 sf 0 0 m (Events / \( 4.04 GeV \)) show NC gr  390 635 m -27 X s 390 664 m -27 X s 390 689 m -27 X s 390 709 m -27 X s 390 727 m -27 X s 390 743 m -27 X s 417 757 m -54 X s
 gsave  2268 1077 0 461 C 342.425 735.792 t 0 r  -55 0 t /Helvetica findfont 48.9324 sf 0 0 m (10) show NC gr  390 849 m -27 X s 390 903 m -27 X s 390 941 m -27 X s 390 971 m -27 X s 390 995 m -27 X s 390 1015 m -27 X s 390 1033 m -27 X s 390 1049 m
 -27 X s 417 1063 m -54 X s
 gsave  2268 1077 0 461 C 322.563 1062.18 t 0 r /Helvetica findfont 32.6216 sf 0 0 m (2) show NC gr 
 gsave  2268 1077 0 461 C 270.432 1042.63 t 0 r /Helvetica findfont 48.9324 sf 0 0 m (10) show NC gr  390 1155 m -27 X s 390 1209 m -27 X s 390 1247 m -27 X s 390 1277 m -27 X s 390 1301 m -27 X s 390 1321 m -27 X s 390 1339 m -27 X s 390 1355 m -27
 X s 417 1369 m -54 X s
 gsave  2268 1077 0 461 C 322.563 1371.71 t 0 r /Helvetica findfont 32.6216 sf 0 0 m (3) show NC gr 
 gsave  2268 1077 0 461 C 270.432 1348.9 t 0 r /Helvetica findfont 48.9324 sf 0 0 m (10) show NC gr  390 1461 m -27 X s 2154 634 m 850 Y s 2127 635 m 27 X s 2127 664 m 27 X s 2127 689 m 27 X s 2127 709 m 27 X s 2127 727 m 27 X s 2127 743 m 27 X s
 2101 757 m 53 X s 2127 849 m 27 X s 2127 903 m 27 X s 2127 941 m 27 X s 2127 971 m 27 X s 2127 995 m 27 X s 2127 1015 m 27 X s 2127 1033 m 27 X s 2127 1049 m 27 X s 2101 1063 m 53 X s 2127 1155 m 27 X s 2127 1209 m 27 X s 2127 1247 m 27 X s 2127
 1277 m 27 X s 2127 1301 m 27 X s 2127 1321 m 27 X s 2127 1339 m 27 X s 2127 1355 m 27 X s 2101 1369 m 53 X s 2127 1461 m 27 X s 381 769 m -18 X s 363 769 m cl s 381 769 m 18 X s 399 769 m cl s 381 769 m 45 Y s 381 814 m cl s 381 769 m -47 Y s 381
 722 m cl s 417 842 m -18 X s 399 842 m cl s 417 842 m 17 X s 434 842 m cl s 417 842 m 33 Y s 417 875 m cl s 417 842 m -34 Y s 417 808 m cl s 452 884 m -18 X s 434 884 m cl s 452 884 m 18 X s 470 884 m cl s 452 884 m 28 Y s 452 912 m cl s 452 884 m
 -29 Y s 452 855 m cl s 488 811 m -18 X s 470 811 m cl s 488 811 m 18 X s 506 811 m cl s 488 811 m 38 Y s 488 849 m cl s 488 811 m -40 Y s 488 771 m cl s 524 781 m -18 X s 506 781 m cl s 524 781 m 18 X s 542 781 m cl s 524 781 m 43 Y s 524 824 m cl s
 524 781 m -45 Y s 524 736 m cl s 560 873 m -18 X s 542 873 m cl s 560 873 m 18 X s 578 873 m cl s 560 873 m 30 Y s 560 903 m cl s 560 873 m -30 Y s 560 843 m cl s 596 861 m -18 X s 578 861 m cl s 596 861 m 18 X s 614 861 m cl s 596 861 m 31 Y s 596
 892 m cl s 596 861 m -31 Y s 596 830 m cl s 632 903 m -18 X s 614 903 m cl s 632 903 m 17 X s 649 903 m cl s 632 903 m 26 Y s 632 929 m cl s 632 903 m -27 Y s 632 876 m cl s 667 827 m -18 X s 649 827 m cl s 667 827 m 18 X s 685 827 m cl s 667 827 m
 36 Y s 667 863 m cl s 667 827 m -36 Y s 667 791 m cl s 703 934 m -18 X s 685 934 m cl s 703 934 m 18 X s 721 934 m cl s 703 934 m 23 Y s 703 957 m cl s 703 934 m -23 Y s 703 911 m cl s 739 907 m -18 X s 721 907 m cl s 739 907 m 18 X s 757 907 m cl s
 739 907 m 26 Y s 739 933 m cl s 739 907 m -26 Y s 739 881 m cl s 775 941 m -18 X s 757 941 m cl s 775 941 m 18 X s 793 941 m cl s 775 941 m 22 Y s 775 963 m cl s 775 941 m -23 Y s 775 918 m cl s 811 947 m -18 X s 793 947 m cl s 811 947 m 18 X s 829
 947 m cl s 811 947 m 22 Y s 811 969 m cl s 811 947 m -22 Y s 811 925 m cl s 847 927 m -18 X s 829 927 m cl s 847 927 m 17 X s 864 927 m cl s 847 927 m 24 Y s 847 951 m cl s 847 927 m -24 Y s 847 903 m cl s 882 1003 m -18 X s 864 1003 m cl s 882 1003
 m 18 X s 900 1003 m cl s 882 1003 m 18 Y s 882 1021 m cl s 882 1003 m -17 Y s 882 986 m cl s 918 981 m -18 X s 900 981 m cl s 918 981 m 18 X s 936 981 m cl s 918 981 m 19 Y s 918 1000 m cl s 918 981 m -20 Y s 918 961 m cl s 954 1026 m -18 X s 936
 1026 m cl s 954 1026 m 18 X s 972 1026 m cl s 954 1026 m 16 Y s 954 1042 m cl s 954 1026 m -16 Y s 954 1010 m cl s 990 1011 m -18 X s 972 1011 m cl s 990 1011 m 18 X s 1008 1011 m cl s 990 1011 m 18 Y s 990 1029 m cl s 990 1011 m -17 Y s 990 994 m
 cl s 1026 1056 m -18 X s 1008 1056 m cl s 1026 1056 m 18 X s 1044 1056 m cl s 1026 1056 m 14 Y s 1026 1070 m cl s 1026 1056 m -14 Y s 1026 1042 m cl s 1062 1057 m -18 X s 1044 1057 m cl s 1062 1057 m 17 X s 1079 1057 m cl s 1062 1057 m 15 Y s 1062
 1072 m cl s 1062 1057 m -14 Y s 1062 1043 m cl s 1097 1109 m -18 X s 1079 1109 m cl s 1097 1109 m 18 X s 1115 1109 m cl s 1097 1109 m 12 Y s 1097 1121 m cl s 1097 1109 m -11 Y s 1097 1098 m cl s 1133 1119 m -18 X s 1115 1119 m cl s 1133 1119 m 18 X
 s 1151 1119 m cl s 1133 1119 m 11 Y s 1133 1130 m cl s 1133 1119 m -10 Y s 1133 1109 m cl s 1169 1139 m -18 X s 1151 1139 m cl s 1169 1139 m 18 X s 1187 1139 m cl s 1169 1139 m 10 Y s 1169 1149 m cl s 1169 1139 m -10 Y s 1169 1129 m cl s 1205 1165 m
 -18 X s 1187 1165 m cl s 1205 1165 m 18 X s 1223 1165 m cl s 1205 1165 m 9 Y s 1205 1174 m cl s 1205 1165 m -10 Y s 1205 1155 m cl s 1241 1196 m -18 X s 1223 1196 m cl s 1241 1196 m 18 X s 1259 1196 m cl s 1241 1196 m 8 Y s 1241 1204 m cl s 1241
 1196 m -8 Y s 1241 1188 m cl s 1276 1228 m -17 X s 1259 1228 m cl s 1276 1228 m 18 X s 1294 1228 m cl s 1276 1228 m 7 Y s 1276 1235 m cl s 1276 1228 m -7 Y s 1276 1221 m cl s 1312 1264 m -18 X s 1294 1264 m cl s 1312 1264 m 18 X s 1330 1264 m cl s
 1312 1264 m 7 Y s 1312 1271 m cl s 1312 1264 m -6 Y s 1312 1258 m cl s 1348 1293 m -18 X s 1330 1293 m cl s 1348 1293 m 18 X s 1366 1293 m cl s 1348 1293 m 6 Y s 1348 1299 m cl s 1348 1293 m -5 Y s 1348 1288 m cl s 1384 1329 m -18 X s 1366 1329 m cl
 s 1384 1329 m 18 X s 1402 1329 m cl s 1384 1329 m 5 Y s 1384 1334 m cl s 1384 1329 m -5 Y s 1384 1324 m cl s 1420 1371 m -18 X s 1402 1371 m cl s 1420 1371 m 18 X s 1438 1371 m cl s 1420 1371 m 4 Y s 1420 1375 m cl s 1420 1371 m -4 Y s 1420 1367 m
 cl s 1456 1402 m -18 X s 1438 1402 m cl s 1456 1402 m 18 X s 1474 1402 m cl s 1456 1402 m 4 Y s 1456 1406 m cl s 1456 1402 m -4 Y s 1456 1398 m cl s 1491 1414 m -17 X s 1474 1414 m cl s 1491 1414 m 18 X s 1509 1414 m cl s 1491 1414 m 3 Y s 1491 1417
 m cl s 1491 1414 m -4 Y s 1491 1410 m cl s 1527 1420 m -18 X s 1509 1420 m cl s 1527 1420 m 18 X s 1545 1420 m cl s 1527 1420 m 4 Y s 1527 1424 m cl s 1527 1420 m -3 Y s 1527 1417 m cl s 1563 1410 m -18 X s 1545 1410 m cl s 1563 1410 m 18 X s 1581
 1410 m cl s 1563 1410 m 4 Y s 1563 1414 m cl s 1563 1410 m -3 Y s 1563 1407 m cl s 1599 1383 m -18 X s 1581 1383 m cl s 1599 1383 m 18 X s 1617 1383 m cl s 1599 1383 m 4 Y s 1599 1387 m cl s 1599 1383 m -4 Y s 1599 1379 m cl s 1635 1339 m -18 X s
 1617 1339 m cl s 1635 1339 m 18 X s 1653 1339 m cl s 1635 1339 m 5 Y s 1635 1344 m cl s 1635 1339 m -5 Y s 1635 1334 m cl s 1671 1288 m -18 X s 1653 1288 m cl s 1671 1288 m 18 X s 1689 1288 m cl s 1671 1288 m 5 Y s 1671 1293 m cl s 1671 1288 m -6 Y
 s 1671 1282 m cl s 1706 1231 m -17 X s 1689 1231 m cl s 1706 1231 m 18 X s 1724 1231 m cl s 1706 1231 m 7 Y s 1706 1238 m cl s 1706 1231 m -7 Y s 1706 1224 m cl s 1742 1192 m -18 X s 1724 1192 m cl s 1742 1192 m 18 X s 1760 1192 m cl s 1742 1192 m 8
 Y s 1742 1200 m cl s 1742 1192 m -8 Y s 1742 1184 m cl s 1778 1149 m -18 X s 1760 1149 m cl s 1778 1149 m 18 X s 1796 1149 m cl s 1778 1149 m 10 Y s 1778 1159 m cl s 1778 1149 m -9 Y s 1778 1140 m cl s 1814 1106 m -18 X s 1796 1106 m cl s 1814 1106
 m 18 X s 1832 1106 m cl s 1814 1106 m 11 Y s 1814 1117 m cl s 1814 1106 m -12 Y s 1814 1094 m cl s 1850 1078 m -18 X s 1832 1078 m cl s 1850 1078 m 18 X s 1868 1078 m cl s 1850 1078 m 12 Y s 1850 1090 m cl s 1850 1078 m -13 Y s 1850 1065 m cl s 1886
 1023 m -18 X s 1868 1023 m cl s 1886 1023 m 18 X s 1904 1023 m cl s 1886 1023 m 16 Y s 1886 1039 m cl s 1886 1023 m -17 Y s 1886 1006 m cl s 1921 995 m -17 X s 1904 995 m cl s 1921 995 m 18 X s 1939 995 m cl s 1921 995 m 18 Y s 1921 1013 m cl s 1921
 995 m -18 Y s 1921 977 m cl s 1957 957 m -18 X s 1939 957 m cl s 1957 957 m 18 X s 1975 957 m cl s 1957 957 m 21 Y s 1957 978 m cl s 1957 957 m -22 Y s 1957 935 m cl s 1993 944 m -18 X s 1975 944 m cl s 1993 944 m 18 X s 2011 944 m cl s 1993 944 m
 22 Y s 1993 966 m cl s 1993 944 m -22 Y s 1993 922 m cl s 2029 911 m -18 X s 2011 911 m cl s 2029 911 m 18 X s 2047 911 m cl s 2029 911 m 26 Y s 2029 937 m cl s 2029 911 m -25 Y s 2029 886 m cl s 2065 873 m -18 X s 2047 873 m cl s 2065 873 m 18 X s
 2083 873 m cl s 2065 873 m 30 Y s 2065 903 m cl s 2065 873 m -30 Y s 2065 843 m cl s 2101 849 m -18 X s 2083 849 m cl s 2101 849 m 18 X s 2119 849 m cl s 2101 849 m 32 Y s 2101 881 m cl s 2101 849 m -34 Y s 2101 815 m cl s 2136 819 m -17 X s 2119
 819 m cl s 2136 819 m 18 X s 2154 819 m cl s 2136 819 m 37 Y s 2136 856 m cl s 2136 819 m -38 Y s 2136 781 m cl s /w 31 def /w2 {w 2 div} def /w3 {w 3 div} def 381 769 417 842 452 884 488 811 524 781 560 873 596 861 632 903 667 827 703 934 739 907
 775 941 811 947 847 927 882 1003 918 981 954 1026 990 1011 1026 1056 1062 1057 1097 1109 1133 1119 1169 1139 1205 1165 1241 1196 1276 1228 1312 1264 1348 1293 1384 1329 1420 1371 1456 1402 1491 1414 1527 1420 1563 1410 1599 1383 1635 1339 1671 1288
 1706 1231 1742 1192 1778 1149 1814 1106 1850 1078 1886 1023 1921 995 1957 957 1993 944 2029 911 2065 873 2101 849 2136 819 50 { m20} R 0 1 1 c 1 1 0 c black 1 1 0 c 363 811 m 36 6 d 35 7 d 36 7 d 36 8 d 36 7 d 36 8 d 36 9 d 35 10 d 36 10 d 36 11 d
 36 13 d 36 14 d 36 16 d 35 17 d 36 19 d 36 21 d 36 23 d 36 23 d 36 25 d 35 24 d 36 25 d 36 25 d 36 25 d 36 25 d 18 13 d 18 13 d 17 13 d 18 14 d 18 15 d 9 8 d 9 8 d 9 9 d 9 9 d 9 10 d 9 10 d 9 12 d 9 12 d 18 21 d 18 19 d 18 16 d 9 7 d 9 5 d 9 5 d 9 5
 d 9 3 d 8 2 d 9 2 d 9 1 d 9 -1 d 9 -1 d 9 -2 d 9 -3 d 9 -4 d 9 -4 d 9 -6 d 9 -6 d 9 -7 d 9 -8 d 18 -18 d 18 -21 d 18 -24 d 9 -12 d 9 -13 d 9 -13 d 9 -13 d 8 -14 d 9 -13 d 9 -13 d 9 -14 d 9 -13 d 9 -13 d 18 -24 d 18 -23 d 18 -20 d 18 -19 d 18 -18 d
 36 -33 d 36 -32 d 35 -34 d 36 -36 d 36 -38 d 36 -41 d 36 -45 d 36 -47 d 35 -49 d -35 49 d -36 47 d -36 45 d -36 41 d -36 38 d -36 36 d -35 34 d -36 32 d -36 33 d -18 18 d -18 19 d -18 20 d -18 23 d -18 24 d -9 13 d -9 13 d -9 14 d -9 13 d -9 13 d -8
 14 d -9 13 d -9 13 d -9 13 d -9 12 d -18 24 d -18 21 d -18 18 d -9 8 d -9 7 d -9 6 d -9 6 d -9 4 d -9 4 d -9 3 d -9 2 d -9 1 d -9 1 d -9 -1 d -9 -2 d -8 -2 d -9 -3 d -9 -5 d -9 -5 d -9 -5 d -9 -7 d -18 -16 d -18 -19 d -18 -21 d -9 -12 d -9 -12 d -9
 -10 d -9 -10 d -9 -9 d -9 -9 d -9 -8 d -9 -8 d -18 -15 d -18 -14 d -17 -13 d -18 -13 d -18 -13 d -36 -25 d -36 -25 d -36 -25 d -36 -25 d -35 -24 d -36 -25 d -36 -23 d -36 -23 d -36 -21 d -36 -19 d -35 -17 d -36 -16 d -36 -14 d -36 -13 d -36 -11 d
 -36 -10 d -35 -10 d -36 -9 d -36 -8 d -36 -7 d -36 -8 d -36 -7 d -35 -7 d -36 -6 d f 0 1 1 c 0 1 0 c black 0 1 0 c 363 811 m 36 6 d 35 7 d 36 7 d 36 8 d 36 7 d 36 8 d 36 9 d 35 10 d 36 10 d 36 11 d 36 13 d 36 14 d 36 16 d 35 17 d 36 19 d 36 21 d 36
 23 d 36 23 d 36 25 d 35 24 d 36 25 d 36 25 d 36 25 d 36 25 d 18 13 d 18 13 d 17 13 d 18 14 d 18 15 d 9 8 d 9 8 d 9 9 d 9 9 d 9 10 d 9 10 d 9 12 d 9 12 d 18 21 d 18 19 d 18 16 d 9 7 d 9 5 d 9 5 d 9 5 d 9 3 d 8 2 d 9 2 d 9 1 d 9 -1 d 9 -1 d 9 -2 d 9
 -3 d 9 -4 d 9 -4 d 9 -6 d 9 -6 d 9 -7 d 9 -8 d 18 -18 d 18 -21 d 18 -24 d 9 -12 d 9 -13 d 9 -13 d 9 -13 d 8 -14 d 9 -13 d 9 -13 d 9 -14 d 9 -13 d 9 -13 d 18 -24 d 18 -23 d 18 -20 d 18 -19 d 18 -18 d 36 -33 d 36 -32 d 35 -34 d 36 -36 d 36 -38 d 36
 -41 d 36 -45 d 36 -47 d 35 -49 d -35 49 d -36 47 d -36 45 d -36 41 d -36 38 d -36 36 d -35 34 d -36 32 d -36 33 d -18 18 d -18 19 d -18 20 d -18 23 d -18 24 d -9 13 d -9 13 d -9 14 d -9 13 d -9 13 d -8 14 d -9 13 d -9 13 d -9 13 d -9 12 d -18 24 d
 -18 21 d -18 18 d -9 8 d -9 7 d -9 6 d -9 6 d -9 4 d -9 4 d -9 3 d -9 2 d -9 1 d -9 1 d -9 -1 d -9 -2 d -8 -2 d -9 -3 d -9 -5 d -9 -5 d -9 -5 d -9 -7 d -18 -16 d -18 -19 d -18 -21 d -9 -12 d -9 -12 d -9 -10 d -9 -10 d -9 -9 d -9 -9 d -9 -8 d -9 -8 d
 -18 -15 d -18 -14 d -17 -13 d -18 -13 d -18 -13 d -36 -25 d -36 -25 d -36 -25 d -36 -25 d -35 -24 d -36 -25 d -36 -23 d -36 -23 d -36 -21 d -36 -19 d -35 -17 d -36 -16 d -36 -14 d -36 -13 d -36 -11 d -36 -10 d -35 -10 d -36 -9 d -36 -8 d -36 -7 d
 -36 -8 d -36 -7 d -35 -7 d -36 -6 d f 0 0 1 c 9 lw black 0 0 1 c 363 811 m 36 6 d 35 7 d 36 7 d 36 8 d 36 7 d 36 8 d 36 9 d 35 10 d 36 10 d 36 11 d 36 13 d 36 14 d 36 16 d 35 17 d 36 19 d 36 21 d 36 23 d 36 23 d 36 25 d 35 24 d 36 25 d 36 25 d 36 25
 d 36 25 d 18 13 d 18 13 d 17 13 d 18 14 d 18 15 d 9 8 d 9 8 d 9 9 d 9 9 d 9 10 d 9 10 d 9 12 d 9 12 d 18 21 d 18 19 d 18 16 d 9 7 d 9 5 d 9 5 d 9 5 d 9 3 d 8 2 d 9 2 d 9 1 d 9 -1 d 9 -1 d 9 -2 d 9 -3 d 9 -4 d 9 -4 d 9 -6 d 9 -6 d 9 -7 d 9 -8 d 18
 -18 d 18 -21 d 18 -24 d 9 -12 d 9 -13 d 9 -13 d 9 -13 d 8 -14 d 9 -13 d 9 -13 d 9 -14 d 9 -13 d 9 -13 d 18 -24 d 18 -23 d 18 -20 d 18 -19 d 18 -18 d 36 -33 d 36 -32 d 35 -34 d 36 -36 d 36 -38 d 36 -41 d 36 -45 d 36 -47 d 35 -49 d s black 3 lw 381
 769 m -18 X s 363 769 m cl s 381 769 m 18 X s 399 769 m cl s 381 769 m 45 Y s 381 814 m cl s 381 769 m -47 Y s 381 722 m cl s 417 842 m -18 X s 399 842 m cl s 417 842 m 17 X s 434 842 m cl s 417 842 m 33 Y s 417 875 m cl s 417 842 m -34 Y s 417 808
 m cl s 452 884 m -18 X s 434 884 m cl s 452 884 m 18 X s 470 884 m cl s 452 884 m 28 Y s 452 912 m cl s 452 884 m -29 Y s 452 855 m cl s 488 811 m -18 X s 470 811 m cl s 488 811 m 18 X s 506 811 m cl s 488 811 m 38 Y s 488 849 m cl s 488 811 m -40 Y
 s 488 771 m cl s 524 781 m -18 X s 506 781 m cl s 524 781 m 18 X s 542 781 m cl s 524 781 m 43 Y s 524 824 m cl s 524 781 m -45 Y s 524 736 m cl s 560 873 m -18 X s 542 873 m cl s 560 873 m 18 X s 578 873 m cl s 560 873 m 30 Y s 560 903 m cl s 560
 873 m -30 Y s 560 843 m cl s 596 861 m -18 X s 578 861 m cl s 596 861 m 18 X s 614 861 m cl s 596 861 m 31 Y s 596 892 m cl s 596 861 m -31 Y s 596 830 m cl s 632 903 m -18 X s 614 903 m cl s 632 903 m 17 X s 649 903 m cl s 632 903 m 26 Y s 632 929
 m cl s 632 903 m -27 Y s 632 876 m cl s 667 827 m -18 X s 649 827 m cl s 667 827 m 18 X s 685 827 m cl s 667 827 m 36 Y s 667 863 m cl s 667 827 m -36 Y s 667 791 m cl s 703 934 m -18 X s 685 934 m cl s 703 934 m 18 X s 721 934 m cl s 703 934 m 23 Y
 s 703 957 m cl s 703 934 m -23 Y s 703 911 m cl s 739 907 m -18 X s 721 907 m cl s 739 907 m 18 X s 757 907 m cl s 739 907 m 26 Y s 739 933 m cl s 739 907 m -26 Y s 739 881 m cl s 775 941 m -18 X s 757 941 m cl s 775 941 m 18 X s 793 941 m cl s 775
 941 m 22 Y s 775 963 m cl s 775 941 m -23 Y s 775 918 m cl s 811 947 m -18 X s 793 947 m cl s 811 947 m 18 X s 829 947 m cl s 811 947 m 22 Y s 811 969 m cl s 811 947 m -22 Y s 811 925 m cl s 847 927 m -18 X s 829 927 m cl s 847 927 m 17 X s 864 927
 m cl s 847 927 m 24 Y s 847 951 m cl s 847 927 m -24 Y s 847 903 m cl s 882 1003 m -18 X s 864 1003 m cl s 882 1003 m 18 X s 900 1003 m cl s 882 1003 m 18 Y s 882 1021 m cl s 882 1003 m -17 Y s 882 986 m cl s 918 981 m -18 X s 900 981 m cl s 918 981
 m 18 X s 936 981 m cl s 918 981 m 19 Y s 918 1000 m cl s 918 981 m -20 Y s 918 961 m cl s 954 1026 m -18 X s 936 1026 m cl s 954 1026 m 18 X s 972 1026 m cl s 954 1026 m 16 Y s 954 1042 m cl s 954 1026 m -16 Y s 954 1010 m cl s 990 1011 m -18 X s
 972 1011 m cl s 990 1011 m 18 X s 1008 1011 m cl s 990 1011 m 18 Y s 990 1029 m cl s 990 1011 m -17 Y s 990 994 m cl s 1026 1056 m -18 X s 1008 1056 m cl s 1026 1056 m 18 X s 1044 1056 m cl s 1026 1056 m 14 Y s 1026 1070 m cl s 1026 1056 m -14 Y s
 1026 1042 m cl s 1062 1057 m -18 X s 1044 1057 m cl s 1062 1057 m 17 X s 1079 1057 m cl s 1062 1057 m 15 Y s 1062 1072 m cl s 1062 1057 m -14 Y s 1062 1043 m cl s 1097 1109 m -18 X s 1079 1109 m cl s 1097 1109 m 18 X s 1115 1109 m cl s 1097 1109 m
 12 Y s 1097 1121 m cl s 1097 1109 m -11 Y s 1097 1098 m cl s 1133 1119 m -18 X s 1115 1119 m cl s 1133 1119 m 18 X s 1151 1119 m cl s 1133 1119 m 11 Y s 1133 1130 m cl s 1133 1119 m -10 Y s 1133 1109 m cl s 1169 1139 m -18 X s 1151 1139 m cl s 1169
 1139 m 18 X s 1187 1139 m cl s 1169 1139 m 10 Y s 1169 1149 m cl s 1169 1139 m -10 Y s 1169 1129 m cl s 1205 1165 m -18 X s 1187 1165 m cl s 1205 1165 m 18 X s 1223 1165 m cl s 1205 1165 m 9 Y s 1205 1174 m cl s 1205 1165 m -10 Y s 1205 1155 m cl s
 1241 1196 m -18 X s 1223 1196 m cl s 1241 1196 m 18 X s 1259 1196 m cl s 1241 1196 m 8 Y s 1241 1204 m cl s 1241 1196 m -8 Y s 1241 1188 m cl s 1276 1228 m -17 X s 1259 1228 m cl s 1276 1228 m 18 X s 1294 1228 m cl s 1276 1228 m 7 Y s 1276 1235 m cl
 s 1276 1228 m -7 Y s 1276 1221 m cl s 1312 1264 m -18 X s 1294 1264 m cl s 1312 1264 m 18 X s 1330 1264 m cl s 1312 1264 m 7 Y s 1312 1271 m cl s 1312 1264 m -6 Y s 1312 1258 m cl s 1348 1293 m -18 X s 1330 1293 m cl s 1348 1293 m 18 X s 1366 1293 m
 cl s 1348 1293 m 6 Y s 1348 1299 m cl s 1348 1293 m -5 Y s 1348 1288 m cl s 1384 1329 m -18 X s 1366 1329 m cl s 1384 1329 m 18 X s 1402 1329 m cl s 1384 1329 m 5 Y s 1384 1334 m cl s 1384 1329 m -5 Y s 1384 1324 m cl s 1420 1371 m -18 X s 1402 1371
 m cl s 1420 1371 m 18 X s 1438 1371 m cl s 1420 1371 m 4 Y s 1420 1375 m cl s 1420 1371 m -4 Y s 1420 1367 m cl s 1456 1402 m -18 X s 1438 1402 m cl s 1456 1402 m 18 X s 1474 1402 m cl s 1456 1402 m 4 Y s 1456 1406 m cl s 1456 1402 m -4 Y s 1456
 1398 m cl s 1491 1414 m -17 X s 1474 1414 m cl s 1491 1414 m 18 X s 1509 1414 m cl s 1491 1414 m 3 Y s 1491 1417 m cl s 1491 1414 m -4 Y s 1491 1410 m cl s 1527 1420 m -18 X s 1509 1420 m cl s 1527 1420 m 18 X s 1545 1420 m cl s 1527 1420 m 4 Y s
 1527 1424 m cl s 1527 1420 m -3 Y s 1527 1417 m cl s 1563 1410 m -18 X s 1545 1410 m cl s 1563 1410 m 18 X s 1581 1410 m cl s 1563 1410 m 4 Y s 1563 1414 m cl s 1563 1410 m -3 Y s 1563 1407 m cl s 1599 1383 m -18 X s 1581 1383 m cl s 1599 1383 m 18
 X s 1617 1383 m cl s 1599 1383 m 4 Y s 1599 1387 m cl s 1599 1383 m -4 Y s 1599 1379 m cl s 1635 1339 m -18 X s 1617 1339 m cl s 1635 1339 m 18 X s 1653 1339 m cl s 1635 1339 m 5 Y s 1635 1344 m cl s 1635 1339 m -5 Y s 1635 1334 m cl s 1671 1288 m
 -18 X s 1653 1288 m cl s 1671 1288 m 18 X s 1689 1288 m cl s 1671 1288 m 5 Y s 1671 1293 m cl s 1671 1288 m -6 Y s 1671 1282 m cl s 1706 1231 m -17 X s 1689 1231 m cl s 1706 1231 m 18 X s 1724 1231 m cl s 1706 1231 m 7 Y s 1706 1238 m cl s 1706 1231
 m -7 Y s 1706 1224 m cl s 1742 1192 m -18 X s 1724 1192 m cl s 1742 1192 m 18 X s 1760 1192 m cl s 1742 1192 m 8 Y s 1742 1200 m cl s 1742 1192 m -8 Y s 1742 1184 m cl s 1778 1149 m -18 X s 1760 1149 m cl s 1778 1149 m 18 X s 1796 1149 m cl s 1778
 1149 m 10 Y s 1778 1159 m cl s 1778 1149 m -9 Y s 1778 1140 m cl s 1814 1106 m -18 X s 1796 1106 m cl s 1814 1106 m 18 X s 1832 1106 m cl s 1814 1106 m 11 Y s 1814 1117 m cl s 1814 1106 m -12 Y s 1814 1094 m cl s 1850 1078 m -18 X s 1832 1078 m cl s
 1850 1078 m 18 X s 1868 1078 m cl s 1850 1078 m 12 Y s 1850 1090 m cl s 1850 1078 m -13 Y s 1850 1065 m cl s 1886 1023 m -18 X s 1868 1023 m cl s 1886 1023 m 18 X s 1904 1023 m cl s 1886 1023 m 16 Y s 1886 1039 m cl s 1886 1023 m -17 Y s 1886 1006 m
 cl s 1921 995 m -17 X s 1904 995 m cl s 1921 995 m 18 X s 1939 995 m cl s 1921 995 m 18 Y s 1921 1013 m cl s 1921 995 m -18 Y s 1921 977 m cl s 1957 957 m -18 X s 1939 957 m cl s 1957 957 m 18 X s 1975 957 m cl s 1957 957 m 21 Y s 1957 978 m cl s
 1957 957 m -22 Y s 1957 935 m cl s 1993 944 m -18 X s 1975 944 m cl s 1993 944 m 18 X s 2011 944 m cl s 1993 944 m 22 Y s 1993 966 m cl s 1993 944 m -22 Y s 1993 922 m cl s 2029 911 m -18 X s 2011 911 m cl s 2029 911 m 18 X s 2047 911 m cl s 2029
 911 m 26 Y s 2029 937 m cl s 2029 911 m -25 Y s 2029 886 m cl s 2065 873 m -18 X s 2047 873 m cl s 2065 873 m 18 X s 2083 873 m cl s 2065 873 m 30 Y s 2065 903 m cl s 2065 873 m -30 Y s 2065 843 m cl s 2101 849 m -18 X s 2083 849 m cl s 2101 849 m
 18 X s 2119 849 m cl s 2101 849 m 32 Y s 2101 881 m cl s 2101 849 m -34 Y s 2101 815 m cl s 2136 819 m -17 X s 2119 819 m cl s 2136 819 m 18 X s 2154 819 m cl s 2136 819 m 37 Y s 2136 856 m cl s 2136 819 m -38 Y s 2136 781 m cl s 381 769 417 842 452
 884 488 811 524 781 560 873 596 861 632 903 667 827 703 934 739 907 775 941 811 947 847 927 882 1003 918 981 954 1026 990 1011 1026 1056 1062 1057 1097 1109 1133 1119 1169 1139 1205 1165 1241 1196 1276 1228 1312 1264 1348 1293 1384 1329 1420 1371
 1456 1402 1491 1414 1527 1420 1563 1410 1599 1383 1635 1339 1671 1288 1706 1231 1742 1192 1778 1149 1814 1106 1850 1078 1886 1023 1921 995 1957 957 1993 944 2029 911 2065 873 2101 849 2136 819 50 { m20} R 0.52 0.76 0.64 c[ 4 8] 0 sd 9 lw black 0.52
 0.76 0.64 c 363 811 m 36 6 d 35 7 d 36 7 d 36 7 d 36 8 d 36 7 d 36 8 d 35 9 d 36 9 d 36 9 d 36 9 d 36 10 d 36 11 d 35 11 d 36 12 d 36 13 d 36 13 d 36 15 d 36 15 d 35 17 d 36 18 d 36 21 d 36 22 d 36 26 d 18 14 d 18 15 d 17 17 d 18 18 d 18 20 d 9 10 d
 9 11 d 9 12 d 9 13 d 9 14 d 9 14 d 5 8 d 4 8 d 9 15 d 18 28 d 18 23 d 18 19 d 9 8 d 9 7 d 9 6 d 9 5 d 9 4 d 8 3 d 9 2 d 9 1 d 9 -1 d 9 -1 d 9 -2 d 9 -4 d 9 -4 d 9 -6 d 9 -6 d 9 -8 d 9 -9 d 9 -9 d 18 -23 d 18 -26 d 9 -15 d 9 -16 d 9 -17 d 9 -18 d 9
 -19 d 9 -20 d 8 -22 d 9 -22 d 9 -23 d 9 -24 d 9 -26 d 9 -26 d 9 -28 d 9 -28 d 18 -60 d 18 -64 d 18 -69 d 18 -72 d 21 -94 d s 0.54 0.66 0.63 c black 0.54 0.66 0.63 c 807 634 m 22 33 d s 829 667 m 35 53 d 36 50 d 36 47 d 36 45 d 36 41 d 18 20 d 18 19
 d 18 18 d 17 18 d 18 17 d 18 16 d 18 16 d 18 14 d 36 28 d 36 24 d 36 22 d 35 18 d 36 16 d 18 7 d 18 6 d 18 6 d 18 4 d 18 4 d 18 4 d 18 2 d 18 2 d 17 1 d 18 1 d 18 -1 d 18 X 18 -2 d 18 -3 d 18 -3 d 18 -4 d 18 -4 d 18 -5 d 18 -6 d 18 -7 d 35 -16 d 36
 -18 d 36 -21 d 36 -25 d 36 -27 d 18 -14 d 18 -15 d 17 -16 d 18 -17 d 18 -18 d 18 -18 d 18 -19 d 18 -19 d 36 -41 d 36 -45 d 36 -47 d 35 -49 d s black[  ] 0 sd 3 lw 363 634 m 1791 X s 469 659 m -25 Y s 514 646 m -12 Y s 558 646 m -12 Y s 602 646 m -12
 Y s 647 659 m -25 Y s 691 646 m -12 Y s 735 646 m -12 Y s 780 646 m -12 Y s 824 659 m -25 Y s 868 646 m -12 Y s 913 646 m -12 Y s 957 646 m -12 Y s 1001 659 m -25 Y s 1046 646 m -12 Y s 1090 646 m -12 Y s 1134 646 m -12 Y s 1179 659 m -25 Y s 1223
 646 m -12 Y s 1267 646 m -12 Y s 1312 646 m -12 Y s 1356 659 m -25 Y s 1400 646 m -12 Y s 1445 646 m -12 Y s 1489 646 m -12 Y s 1534 659 m -25 Y s 1578 646 m -12 Y s 1622 646 m -12 Y s 1667 646 m -12 Y s 1711 659 m -25 Y s 1755 646 m -12 Y s 1800
 646 m -12 Y s 1844 646 m -12 Y s 1888 659 m -25 Y s 1933 646 m -12 Y s 1977 646 m -12 Y s 2021 646 m -12 Y s 2066 659 m -25 Y s 469 659 m -25 Y s 425 646 m -12 Y s 381 646 m -12 Y s 2066 659 m -25 Y s 2110 646 m -12 Y s 2154 646 m -12 Y s 363 1484 m
 1791 X s 469 1459 m 25 Y s 514 1471 m 13 Y s 558 1471 m 13 Y s 602 1471 m 13 Y s 647 1459 m 25 Y s 691 1471 m 13 Y s 735 1471 m 13 Y s 780 1471 m 13 Y s 824 1459 m 25 Y s 868 1471 m 13 Y s 913 1471 m 13 Y s 957 1471 m 13 Y s 1001 1459 m 25 Y s 1046
 1471 m 13 Y s 1090 1471 m 13 Y s 1134 1471 m 13 Y s 1179 1459 m 25 Y s 1223 1471 m 13 Y s 1267 1471 m 13 Y s 1312 1471 m 13 Y s 1356 1459 m 25 Y s 1400 1471 m 13 Y s 1445 1471 m 13 Y s 1489 1471 m 13 Y s 1534 1459 m 25 Y s 1578 1471 m 13 Y s 1622
 1471 m 13 Y s 1667 1471 m 13 Y s 1711 1459 m 25 Y s 1755 1471 m 13 Y s 1800 1471 m 13 Y s 1844 1471 m 13 Y s 1888 1459 m 25 Y s 1933 1471 m 13 Y s 1977 1471 m 13 Y s 2021 1471 m 13 Y s 2066 1459 m 25 Y s 469 1459 m 25 Y s 425 1471 m 13 Y s 381 1471
 m 13 Y s 2066 1459 m 25 Y s 2110 1471 m 13 Y s 2154 1471 m 13 Y s 363 634 m 850 Y s 390 635 m -27 X s 390 664 m -27 X s 390 689 m -27 X s 390 709 m -27 X s 390 727 m -27 X s 390 743 m -27 X s 417 757 m -54 X s 390 849 m -27 X s 390 903 m -27 X s 390
 941 m -27 X s 390 971 m -27 X s 390 995 m -27 X s 390 1015 m -27 X s 390 1033 m -27 X s 390 1049 m -27 X s 417 1063 m -54 X s 390 1155 m -27 X s 390 1209 m -27 X s 390 1247 m -27 X s 390 1277 m -27 X s 390 1301 m -27 X s 390 1321 m -27 X s 390 1339
 m -27 X s 390 1355 m -27 X s 417 1369 m -54 X s 390 1461 m -27 X s 2154 634 m 850 Y s 2127 635 m 27 X s 2127 664 m 27 X s 2127 689 m 27 X s 2127 709 m 27 X s 2127 727 m 27 X s 2127 743 m 27 X s 2101 757 m 53 X s 2127 849 m 27 X s 2127 903 m 27 X s
 2127 941 m 27 X s 2127 971 m 27 X s 2127 995 m 27 X s 2127 1015 m 27 X s 2127 1033 m 27 X s 2127 1049 m 27 X s 2101 1063 m 53 X s 2127 1155 m 27 X s 2127 1209 m 27 X s 2127 1247 m 27 X s 2127 1277 m 27 X s 2127 1301 m 27 X s 2127 1321 m 27 X s 2127
 1339 m 27 X s 2127 1355 m 27 X s 2101 1369 m 53 X s 2127 1461 m 27 X s
 gsave  2268 1077 0 461 C 677.708 1215.31 t 0 r /Helvetica findfont 58.7189 sf 0 0 m (2mu2e) show NC gr  1 1 1 c 453 161 454 1269 bf black
 gsave  2268 1077 0 461 C 566.929 1371.71 t 0 r /Helvetica-Bold findfont 48.9324 sf 0 0 m (MC15) show NC gr  510 1390 m20
 gsave  2268 1077 0 461 C 566.929 1293.51 t 0 r /Helvetica-Bold findfont 48.9324 sf 0 0 m (Projection of Signal pdf) show NC gr  0 0 1 c 9 lw 471 1309 m 79 X s black 3 lw 1 1 1 c 2268 461 0 0 bf black 1 1 1 c 1791 364 363 74 bf black 1791 364 363 74
 bl 363 74 m 1791 X s
 gsave  2268 461 0 0 C 1915.83 13.0329 t 0 r /Helvetica findfont 22.9045 sf 0 0 m (4l Invariant Mass \(GeV\)) show NC gr  469 85 m -11 Y s 514 79 m -5 Y s 558 79 m -5 Y s 602 79 m -5 Y s 647 85 m -11 Y s 691 79 m -5 Y s 735 79 m -5 Y s 780 79 m -5 Y
 s 824 85 m -11 Y s 868 79 m -5 Y s 913 79 m -5 Y s 957 79 m -5 Y s 1001 85 m -11 Y s 1046 79 m -5 Y s 1090 79 m -5 Y s 1134 79 m -5 Y s 1179 85 m -11 Y s 1223 79 m -5 Y s 1267 79 m -5 Y s 1312 79 m -5 Y s 1356 85 m -11 Y s 1400 79 m -5 Y s 1445 79 m
 -5 Y s 1489 79 m -5 Y s 1534 85 m -11 Y s 1578 79 m -5 Y s 1622 79 m -5 Y s 1667 79 m -5 Y s 1711 85 m -11 Y s 1755 79 m -5 Y s 1800 79 m -5 Y s 1844 79 m -5 Y s 1888 85 m -11 Y s 1933 79 m -5 Y s 1977 79 m -5 Y s 2021 79 m -5 Y s 2066 85 m -11 Y s
 469 85 m -11 Y s 425 79 m -5 Y s 381 79 m -5 Y s 2066 85 m -11 Y s 2110 79 m -5 Y s 2154 79 m -5 Y s
 gsave  2268 461 0 0 C 449.633 55.3896 t 0 r /Helvetica findfont 22.9045 sf 0 0 m (880) show NC gr 
 gsave  2268 461 0 0 C 625.577 55.3896 t 0 r /Helvetica findfont 22.9045 sf 0 0 m (900) show NC gr 
 gsave  2268 461 0 0 C 801.521 55.3896 t 0 r /Helvetica findfont 22.9045 sf 0 0 m (920) show NC gr 
 gsave  2268 461 0 0 C 980.722 55.3896 t 0 r /Helvetica findfont 22.9045 sf 0 0 m (940) show NC gr 
 gsave  2268 461 0 0 C 1156.67 55.3896 t 0 r /Helvetica findfont 22.9045 sf 0 0 m (960) show NC gr 
 gsave  2268 461 0 0 C 1335.87 55.3896 t 0 r /Helvetica findfont 22.9045 sf 0 0 m (980) show NC gr 
 gsave  2268 461 0 0 C 1505.29 55.3896 t 0 r /Helvetica findfont 22.9045 sf 0 0 m (1000) show NC gr 
 gsave  2268 461 0 0 C 1684.5 55.3896 t 0 r /Helvetica findfont 22.9045 sf 0 0 m (1020) show NC gr 
 gsave  2268 461 0 0 C 1860.44 55.3896 t 0 r /Helvetica findfont 22.9045 sf 0 0 m (1040) show NC gr 
 gsave  2268 461 0 0 C 2036.38 55.3896 t 0 r /Helvetica findfont 22.9045 sf 0 0 m (1060) show NC gr  363 438 m 1791 X s 469 427 m 11 Y s 514 433 m 5 Y s 558 433 m 5 Y s 602 433 m 5 Y s 647 427 m 11 Y s 691 433 m 5 Y s 735 433 m 5 Y s 780 433 m 5 Y s
 824 427 m 11 Y s 868 433 m 5 Y s 913 433 m 5 Y s 957 433 m 5 Y s 1001 427 m 11 Y s 1046 433 m 5 Y s 1090 433 m 5 Y s 1134 433 m 5 Y s 1179 427 m 11 Y s 1223 433 m 5 Y s 1267 433 m 5 Y s 1312 433 m 5 Y s 1356 427 m 11 Y s 1400 433 m 5 Y s 1445 433 m
 5 Y s 1489 433 m 5 Y s 1534 427 m 11 Y s 1578 433 m 5 Y s 1622 433 m 5 Y s 1667 433 m 5 Y s 1711 427 m 11 Y s 1755 433 m 5 Y s 1800 433 m 5 Y s 1844 433 m 5 Y s 1888 427 m 11 Y s 1933 433 m 5 Y s 1977 433 m 5 Y s 2021 433 m 5 Y s 2066 427 m 11 Y s
 469 427 m 11 Y s 425 433 m 5 Y s 381 433 m 5 Y s 2066 427 m 11 Y s 2110 433 m 5 Y s 2154 433 m 5 Y s 363 74 m 364 Y s 417 74 m -54 X s 390 81 m -27 X s 390 88 m -27 X s 390 96 m -27 X s 390 103 m -27 X s 417 110 m -54 X s 390 118 m -27 X s 390 125 m
 -27 X s 390 132 m -27 X s 390 139 m -27 X s 417 147 m -54 X s 390 154 m -27 X s 390 161 m -27 X s 390 169 m -27 X s 390 176 m -27 X s 417 183 m -54 X s 390 190 m -27 X s 390 198 m -27 X s 390 205 m -27 X s 390 212 m -27 X s 417 220 m -54 X s 390 227
 m -27 X s 390 234 m -27 X s 390 241 m -27 X s 390 249 m -27 X s 417 256 m -54 X s 390 263 m -27 X s 390 271 m -27 X s 390 278 m -27 X s 390 285 m -27 X s 417 293 m -54 X s 390 300 m -27 X s 390 307 m -27 X s 390 314 m -27 X s 390 322 m -27 X s 417
 329 m -54 X s 390 336 m -27 X s 390 344 m -27 X s 390 351 m -27 X s 390 358 m -27 X s 417 365 m -54 X s 390 373 m -27 X s 390 380 m -27 X s 390 387 m -27 X s 390 395 m -27 X s 417 402 m -54 X s 390 409 m -27 X s 390 416 m -27 X s 390 424 m -27 X s
 390 431 m -27 X s 417 438 m -54 X s
 gsave  2268 461 0 0 C 329.08 65.1643 t 0 r /Helvetica findfont 22.9045 sf 0 0 m (\2555) show NC gr 
 gsave  2268 461 0 0 C 329.08 101.005 t 0 r /Helvetica findfont 22.9045 sf 0 0 m (\2554) show NC gr 
 gsave  2268 461 0 0 C 329.08 140.103 t 0 r /Helvetica findfont 22.9045 sf 0 0 m (\2553) show NC gr 
 gsave  2268 461 0 0 C 329.08 175.944 t 0 r /Helvetica findfont 22.9045 sf 0 0 m (\2552) show NC gr 
 gsave  2268 461 0 0 C 332.338 211.784 t 0 r /Helvetica findfont 22.9045 sf 0 0 m (\2551) show NC gr 
 gsave  2268 461 0 0 C 335.596 247.624 t 0 r /Helvetica findfont 22.9045 sf 0 0 m (0) show NC gr 
 gsave  2268 461 0 0 C 338.854 283.465 t 0 r /Helvetica findfont 22.9045 sf 0 0 m (1) show NC gr 
 gsave  2268 461 0 0 C 335.596 319.305 t 0 r /Helvetica findfont 22.9045 sf 0 0 m (2) show NC gr 
 gsave  2268 461 0 0 C 335.596 358.403 t 0 r /Helvetica findfont 22.9045 sf 0 0 m (3) show NC gr 
 gsave  2268 461 0 0 C 335.596 394.244 t 0 r /Helvetica findfont 22.9045 sf 0 0 m (4) show NC gr 
 gsave  2268 461 0 0 C 335.596 430.084 t 0 r /Helvetica findfont 22.9045 sf 0 0 m (5) show NC gr  2154 74 m 364 Y s 2101 74 m 53 X s 2127 81 m 27 X s 2127 88 m 27 X s 2127 96 m 27 X s 2127 103 m 27 X s 2101 110 m 53 X s 2127 118 m 27 X s 2127 125 m
 27 X s 2127 132 m 27 X s 2127 139 m 27 X s 2101 147 m 53 X s 2127 154 m 27 X s 2127 161 m 27 X s 2127 169 m 27 X s 2127 176 m 27 X s 2101 183 m 53 X s 2127 190 m 27 X s 2127 198 m 27 X s 2127 205 m 27 X s 2127 212 m 27 X s 2101 220 m 53 X s 2127 227
 m 27 X s 2127 234 m 27 X s 2127 241 m 27 X s 2127 249 m 27 X s 2101 256 m 53 X s 2127 263 m 27 X s 2127 271 m 27 X s 2127 278 m 27 X s 2127 285 m 27 X s 2101 293 m 53 X s 2127 300 m 27 X s 2127 307 m 27 X s 2127 314 m 27 X s 2127 322 m 27 X s 2101
 329 m 53 X s 2127 336 m 27 X s 2127 344 m 27 X s 2127 351 m 27 X s 2127 358 m 27 X s 2101 365 m 53 X s 2127 373 m 27 X s 2127 380 m 27 X s 2127 387 m 27 X s 2127 395 m 27 X s 2101 402 m 53 X s 2127 409 m 27 X s 2127 416 m 27 X s 2127 424 m 27 X s
 2127 431 m 27 X s 2101 438 m 53 X s 6 lw 0.2 0.8 0.2 c black 3 lw 0.2 0.8 0.2 c 363 256 m -36 Y 36 X 60 Y 35 X 40 Y 36 X -86 Y 36 X -34 Y 36 X 84 Y 36 X -25 Y 36 X 43 Y 35 X -101 Y 36 X 120 Y 36 X -55 Y 36 X 32 Y 36 X -11 Y 36 X -59 Y 35 X 103 Y 36
 X -81 Y 36 X 51 Y 36 X -83 Y 36 X 46 Y 36 X -61 Y 35 X 76 Y 36 X -50 Y 36 X -21 Y 36 X -4 Y 36 X 24 Y 36 X 26 Y 35 X 46 Y 36 X -29 Y 36 X -56 Y 36 X 7 Y 36 X 18 Y 36 X -30 Y 35 X 57 Y 36 X 34 Y 36 X -5 Y 36 X -46 Y 36 X -16 Y 36 X -13 Y 35 X 64 Y 36
 X 13 Y 36 X -20 Y 36 X 14 Y 36 X -58 Y 36 X 12 Y 35 X -5 Y 36 X 41 Y 36 X 6 Y 36 X 1 Y 36 X 17 Y 36 X 8 Y 35 X -58 Y f 6 lw black 0.2 0.8 0.2 c black 363 220 m 36 X 60 Y 35 X 40 Y 36 X -86 Y 36 X -34 Y 36 X 84 Y 36 X -25 Y 36 X 43 Y 35 X -101 Y 36 X
 120 Y 36 X -55 Y 36 X 32 Y 36 X -11 Y 36 X -59 Y 35 X 103 Y 36 X -81 Y 36 X 51 Y 36 X -83 Y 36 X 46 Y 36 X -61 Y 35 X 76 Y 36 X -50 Y 36 X -21 Y 36 X -4 Y 36 X 24 Y 36 X 26 Y 35 X 46 Y 36 X -29 Y 36 X -56 Y 36 X 7 Y 36 X 18 Y 36 X -30 Y 35 X 57 Y 36
 X 34 Y 36 X -5 Y 36 X -46 Y 36 X -16 Y 36 X -13 Y 35 X 64 Y 36 X 13 Y 36 X -20 Y 36 X 14 Y 36 X -58 Y 36 X 12 Y 35 X -5 Y 36 X 41 Y 36 X 6 Y 36 X 1 Y 36 X 17 Y 36 X 8 Y 35 X s 3 lw 363 74 m 1791 X s 469 85 m -11 Y s 514 79 m -5 Y s 558 79 m -5 Y s
 602 79 m -5 Y s 647 85 m -11 Y s 691 79 m -5 Y s 735 79 m -5 Y s 780 79 m -5 Y s 824 85 m -11 Y s 868 79 m -5 Y s 913 79 m -5 Y s 957 79 m -5 Y s 1001 85 m -11 Y s 1046 79 m -5 Y s 1090 79 m -5 Y s 1134 79 m -5 Y s 1179 85 m -11 Y s 1223 79 m -5 Y s
 1267 79 m -5 Y s 1312 79 m -5 Y s 1356 85 m -11 Y s 1400 79 m -5 Y s 1445 79 m -5 Y s 1489 79 m -5 Y s 1534 85 m -11 Y s 1578 79 m -5 Y s 1622 79 m -5 Y s 1667 79 m -5 Y s 1711 85 m -11 Y s 1755 79 m -5 Y s 1800 79 m -5 Y s 1844 79 m -5 Y s 1888 85
 m -11 Y s 1933 79 m -5 Y s 1977 79 m -5 Y s 2021 79 m -5 Y s 2066 85 m -11 Y s 469 85 m -11 Y s 425 79 m -5 Y s 381 79 m -5 Y s 2066 85 m -11 Y s 2110 79 m -5 Y s 2154 79 m -5 Y s 363 438 m 1791 X s 469 427 m 11 Y s 514 433 m 5 Y s 558 433 m 5 Y s
 602 433 m 5 Y s 647 427 m 11 Y s 691 433 m 5 Y s 735 433 m 5 Y s 780 433 m 5 Y s 824 427 m 11 Y s 868 433 m 5 Y s 913 433 m 5 Y s 957 433 m 5 Y s 1001 427 m 11 Y s 1046 433 m 5 Y s 1090 433 m 5 Y s 1134 433 m 5 Y s 1179 427 m 11 Y s 1223 433 m 5 Y s
 1267 433 m 5 Y s 1312 433 m 5 Y s 1356 427 m 11 Y s 1400 433 m 5 Y s 1445 433 m 5 Y s 1489 433 m 5 Y s 1534 427 m 11 Y s 1578 433 m 5 Y s 1622 433 m 5 Y s 1667 433 m 5 Y s 1711 427 m 11 Y s 1755 433 m 5 Y s 1800 433 m 5 Y s 1844 433 m 5 Y s 1888 427
 m 11 Y s 1933 433 m 5 Y s 1977 433 m 5 Y s 2021 433 m 5 Y s 2066 427 m 11 Y s 469 427 m 11 Y s 425 433 m 5 Y s 381 433 m 5 Y s 2066 427 m 11 Y s 2110 433 m 5 Y s 2154 433 m 5 Y s 363 74 m 364 Y s 417 74 m -54 X s 390 81 m -27 X s 390 88 m -27 X s
 390 96 m -27 X s 390 103 m -27 X s 417 110 m -54 X s 390 118 m -27 X s 390 125 m -27 X s 390 132 m -27 X s 390 139 m -27 X s 417 147 m -54 X s 390 154 m -27 X s 390 161 m -27 X s 390 169 m -27 X s 390 176 m -27 X s 417 183 m -54 X s 390 190 m -27 X
 s 390 198 m -27 X s 390 205 m -27 X s 390 212 m -27 X s 417 220 m -54 X s 390 227 m -27 X s 390 234 m -27 X s 390 241 m -27 X s 390 249 m -27 X s 417 256 m -54 X s 390 263 m -27 X s 390 271 m -27 X s 390 278 m -27 X s 390 285 m -27 X s 417 293 m -54
 X s 390 300 m -27 X s 390 307 m -27 X s 390 314 m -27 X s 390 322 m -27 X s 417 329 m -54 X s 390 336 m -27 X s 390 344 m -27 X s 390 351 m -27 X s 390 358 m -27 X s 417 365 m -54 X s 390 373 m -27 X s 390 380 m -27 X s 390 387 m -27 X s 390 395 m
 -27 X s 417 402 m -54 X s 390 409 m -27 X s 390 416 m -27 X s 390 424 m -27 X s 390 431 m -27 X s 417 438 m -54 X s 2154 74 m 364 Y s 2101 74 m 53 X s 2127 81 m 27 X s 2127 88 m 27 X s 2127 96 m 27 X s 2127 103 m 27 X s 2101 110 m 53 X s 2127 118 m
 27 X s 2127 125 m 27 X s 2127 132 m 27 X s 2127 139 m 27 X s 2101 147 m 53 X s 2127 154 m 27 X s 2127 161 m 27 X s 2127 169 m 27 X s 2127 176 m 27 X s 2101 183 m 53 X s 2127 190 m 27 X s 2127 198 m 27 X s 2127 205 m 27 X s 2127 212 m 27 X s 2101 220
 m 53 X s 2127 227 m 27 X s 2127 234 m 27 X s 2127 241 m 27 X s 2127 249 m 27 X s 2101 256 m 53 X s 2127 263 m 27 X s 2127 271 m 27 X s 2127 278 m 27 X s 2127 285 m 27 X s 2101 293 m 53 X s 2127 300 m 27 X s 2127 307 m 27 X s 2127 314 m 27 X s 2127
 322 m 27 X s 2101 329 m 53 X s 2127 336 m 27 X s 2127 344 m 27 X s 2127 351 m 27 X s 2127 358 m 27 X s 2101 365 m 53 X s 2127 373 m 27 X s 2127 380 m 27 X s 2127 387 m 27 X s 2127 395 m 27 X s 2101 402 m 53 X s 2127 409 m 27 X s 2127 416 m 27 X s
 2127 424 m 27 X s 2127 431 m 27 X s 2101 438 m 53 X s
 gr  gr showpage
end
%%EOF
