%!PS-Adobe-2.0 EPSF-2.0
%%BoundingBox:  0 0 567 384
%%Title: H4l2015_plotfit/gg_mass_signal_900_fixed_H4l_4mu.eps: 
%%Creator: ROOT Version 5.34/10
%%CreationDate: Thu Feb 16 13:03:00 2017
%%EndComments
%%BeginProlog
80 dict begin
/s {stroke} def /l {lineto} def /m {moveto} def /t {translate} def
/r {rotate} def /rl {roll}  def /R {repeat} def
/d {rlineto} def /rm {rmoveto} def /gr {grestore} def /f {eofill} def
/c {setrgbcolor} def /black {0 setgray} def /sd {setdash} def
/cl {closepath} def /sf {scalefont setfont} def /lw {setlinewidth} def
/box {m dup 0 exch d exch 0 d 0 exch neg d cl} def
/NC{systemdict begin initclip end}def/C{NC box clip newpath}def
/bl {box s} def /bf {box f} def /Y { 0 exch d} def /X { 0 d} def 
/K {{pop pop 0 moveto} exch kshow} bind def
/ita {/ang 15 def gsave [1 0 ang dup sin exch cos div 1 0 0] concat} def 
/mp {newpath /y exch def /x exch def} def
/side {[w .77 mul w .23 mul] .385 w mul sd w 0 l currentpoint t -144 r} def
/mr {mp x y w2 0 360 arc} def /m24 {mr s} def /m20 {mr f} def
/mb {mp x y w2 add m w2 neg 0 d 0 w neg d w 0 d 0 w d cl} def
/mt {mp x y w2 add m w2 neg w neg d w 0 d cl} def
/m21 {mb f} def /m25 {mb s} def /m22 {mt f} def /m26{mt s} def
/m23 {mp x y w2 sub m w2 w d w neg 0 d cl f} def
/m27 {mp x y w2 add m w3 neg w2 neg d w3 w2 neg d w3 w2 d cl s} def
/m28 {mp x w2 sub y w2 sub w3 add m w3 0 d  0 w3 neg d w3 0 d 0 w3 d w3 0 d  0 w3 d w3 neg 0 d 0 w3 d w3 neg 0 d 0 w3 neg d w3 neg 0 d cl s } def
/m29 {mp gsave x w2 sub y w2 add w3 sub m currentpoint t 4 {side} repeat cl fill gr} def
/m30 {mp gsave x w2 sub y w2 add w3 sub m currentpoint t 4 {side} repeat cl s gr} def
/m31 {mp x y w2 sub m 0 w d x w2 sub y m w 0 d x w2 sub y w2 add m w w neg d x w2 sub y w2 sub m w w d s} def
/m32 {mp x y w2 sub m w2 w d w neg 0 d cl s} def
/m33 {mp x y w2 add m w3 neg w2 neg d w3 w2 neg d w3 w2 d cl f} def
/m34 {mp x w2 sub y w2 sub w3 add m w3 0 d  0 w3 neg d w3 0 d 0 w3 d w3 0 d  0 w3 d w3 neg 0 d 0 w3 d w3 neg 0 d 0 w3 neg d w3 neg 0 d cl f } def
/m2 {mp x y w2 sub m 0 w d x w2 sub y m w 0 d s} def
/m5 {mp x w2 sub y w2 sub m w w d x w2 sub y w2 add m w w neg d s} def
/reEncode {exch findfont dup length dict begin {1 index /FID eq  {pop pop} {def} ifelse } forall /Encoding exch def currentdict end dup /FontName get exch definefont pop } def [/Times-Bold /Times-Italic /Times-BoldItalic /Helvetica /Helvetica-Oblique
 /Helvetica-Bold /Helvetica-BoldOblique /Courier /Courier-Oblique /Courier-Bold /Courier-BoldOblique /Times-Roman /AvantGarde-Book /AvantGarde-BookOblique /AvantGarde-Demi /AvantGarde-DemiOblique /Bookman-Demi /Bookman-DemiItalic /Bookman-Light
 /Bookman-LightItalic /Helvetica-Narrow /Helvetica-Narrow-Bold /Helvetica-Narrow-BoldOblique /Helvetica-Narrow-Oblique /NewCenturySchlbk-Roman /NewCenturySchlbk-Bold /NewCenturySchlbk-BoldItalic /NewCenturySchlbk-Italic /Palatino-Bold
 /Palatino-BoldItalic /Palatino-Italic /Palatino-Roman ] {ISOLatin1Encoding reEncode } forall
%%EndProlog
%%BeginSetup
%%EndSetup
newpath  gsave  .25 .25 scale  gsave  0 0 t black[  ] 0 sd 3 lw 1 1 1 c 2268 1538 0 0 bf black 1 1 1 c 2222 738 23 784 bf black 1 1 1 c 2222 739 23 15 bf black 1 1 1 c 2268 1077 0 461 bf black 1 1 1 c 1791 850 363 634 bf black 1791 850 363 634 bl 363
 634 m 1791 X s
 gsave  2268 1077 0 461 C 1642.14 498.507 t 0 r /Helvetica findfont 48.9324 sf 0 0 m (4l Invariant Mass \(GeV\)) show NC gr  363 659 m -25 Y s 414 646 m -12 Y s 465 646 m -12 Y s 516 646 m -12 Y s 566 659 m -25 Y s 617 646 m -12 Y s 668 646 m -12 Y s
 719 646 m -12 Y s 770 659 m -25 Y s 821 646 m -12 Y s 872 646 m -12 Y s 923 646 m -12 Y s 974 659 m -25 Y s 1024 646 m -12 Y s 1075 646 m -12 Y s 1126 646 m -12 Y s 1177 659 m -25 Y s 1228 646 m -12 Y s 1279 646 m -12 Y s 1330 646 m -12 Y s 1381 659
 m -25 Y s 1432 646 m -12 Y s 1483 646 m -12 Y s 1533 646 m -12 Y s 1584 659 m -25 Y s 1635 646 m -12 Y s 1686 646 m -12 Y s 1737 646 m -12 Y s 1788 659 m -25 Y s 1839 646 m -12 Y s 1890 646 m -12 Y s 1941 646 m -12 Y s 1991 659 m -25 Y s 1991 659 m
 -25 Y s 2042 646 m -12 Y s 2093 646 m -12 Y s 2144 646 m -12 Y s
 gsave  2268 1077 0 461 C 319.305 586.478 t 0 r /Helvetica findfont 48.9324 sf 0 0 m (780) show NC gr 
 gsave  2268 1077 0 461 C 521.314 586.478 t 0 r /Helvetica findfont 48.9324 sf 0 0 m (800) show NC gr 
 gsave  2268 1077 0 461 C 726.582 586.478 t 0 r /Helvetica findfont 48.9324 sf 0 0 m (820) show NC gr 
 gsave  2268 1077 0 461 C 928.591 586.478 t 0 r /Helvetica findfont 48.9324 sf 0 0 m (840) show NC gr 
 gsave  2268 1077 0 461 C 1133.86 586.478 t 0 r /Helvetica findfont 48.9324 sf 0 0 m (860) show NC gr 
 gsave  2268 1077 0 461 C 1335.87 586.478 t 0 r /Helvetica findfont 48.9324 sf 0 0 m (880) show NC gr 
 gsave  2268 1077 0 461 C 1541.13 586.478 t 0 r /Helvetica findfont 48.9324 sf 0 0 m (900) show NC gr 
 gsave  2268 1077 0 461 C 1743.14 586.478 t 0 r /Helvetica findfont 48.9324 sf 0 0 m (920) show NC gr 
 gsave  2268 1077 0 461 C 1948.41 586.478 t 0 r /Helvetica findfont 48.9324 sf 0 0 m (940) show NC gr  363 1484 m 1791 X s 363 1459 m 25 Y s 414 1471 m 13 Y s 465 1471 m 13 Y s 516 1471 m 13 Y s 566 1459 m 25 Y s 617 1471 m 13 Y s 668 1471 m 13 Y s
 719 1471 m 13 Y s 770 1459 m 25 Y s 821 1471 m 13 Y s 872 1471 m 13 Y s 923 1471 m 13 Y s 974 1459 m 25 Y s 1024 1471 m 13 Y s 1075 1471 m 13 Y s 1126 1471 m 13 Y s 1177 1459 m 25 Y s 1228 1471 m 13 Y s 1279 1471 m 13 Y s 1330 1471 m 13 Y s 1381
 1459 m 25 Y s 1432 1471 m 13 Y s 1483 1471 m 13 Y s 1533 1471 m 13 Y s 1584 1459 m 25 Y s 1635 1471 m 13 Y s 1686 1471 m 13 Y s 1737 1471 m 13 Y s 1788 1459 m 25 Y s 1839 1471 m 13 Y s 1890 1471 m 13 Y s 1941 1471 m 13 Y s 1991 1459 m 25 Y s 1991
 1459 m 25 Y s 2042 1471 m 13 Y s 2093 1471 m 13 Y s 2144 1471 m 13 Y s 363 634 m 850 Y s
 gsave  2268 1077 0 461 C 120.554 1032.85 t 90 r /Helvetica findfont 48.9324 sf 0 0 m (Events / \( 3.52 GeV \)) show NC gr  390 684 m -27 X s 390 724 m -27 X s 390 755 m -27 X s 390 780 m -27 X s 390 802 m -27 X s 390 820 m -27 X s 390 837 m -27 X s
 417 851 m -54 X s
 gsave  2268 1077 0 461 C 342.425 830.361 t 0 r  -55 0 t /Helvetica findfont 48.9324 sf 0 0 m (10) show NC gr  390 948 m -27 X s 390 1004 m -27 X s 390 1044 m -27 X s 390 1075 m -27 X s 390 1101 m -27 X s 390 1122 m -27 X s 390 1141 m -27 X s 390
 1157 m -27 X s 417 1172 m -54 X s
 gsave  2268 1077 0 461 C 322.563 1169.7 t 0 r /Helvetica findfont 32.6216 sf 0 0 m (2) show NC gr 
 gsave  2268 1077 0 461 C 270.432 1150.15 t 0 r /Helvetica findfont 48.9324 sf 0 0 m (10) show NC gr  390 1268 m -27 X s 390 1325 m -27 X s 390 1365 m -27 X s 390 1396 m -27 X s 390 1421 m -27 X s 390 1443 m -27 X s 390 1461 m -27 X s 390 1478 m -27
 X s 2154 634 m 850 Y s 2127 684 m 27 X s 2127 724 m 27 X s 2127 755 m 27 X s 2127 780 m 27 X s 2127 802 m 27 X s 2127 820 m 27 X s 2127 837 m 27 X s 2101 851 m 53 X s 2127 948 m 27 X s 2127 1004 m 27 X s 2127 1044 m 27 X s 2127 1075 m 27 X s 2127
 1101 m 27 X s 2127 1122 m 27 X s 2127 1141 m 27 X s 2127 1157 m 27 X s 2101 1172 m 53 X s 2127 1268 m 27 X s 2127 1325 m 27 X s 2127 1365 m 27 X s 2127 1396 m 27 X s 2127 1421 m 27 X s 2127 1443 m 27 X s 2127 1461 m 27 X s 2127 1478 m 27 X s 381 888
 m -18 X s 363 888 m cl s 381 888 m 18 X s 399 888 m cl s 381 888 m 43 Y s 381 931 m cl s 381 888 m -45 Y s 381 843 m cl s 417 851 m -18 X s 399 851 m cl s 417 851 m 17 X s 434 851 m cl s 417 851 m 50 Y s 417 901 m cl s 417 851 m -52 Y s 417 799 m cl
 s 452 908 m -18 X s 434 908 m cl s 452 908 m 18 X s 470 908 m cl s 452 908 m 39 Y s 452 947 m cl s 452 908 m -41 Y s 452 867 m cl s 488 851 m -18 X s 470 851 m cl s 488 851 m 18 X s 506 851 m cl s 488 851 m 50 Y s 488 901 m cl s 488 851 m -52 Y s
 488 799 m cl s 524 941 m -18 X s 506 941 m cl s 524 941 m 18 X s 542 941 m cl s 524 941 m 35 Y s 524 976 m cl s 524 941 m -36 Y s 524 905 m cl s 560 917 m -18 X s 542 917 m cl s 560 917 m 18 X s 578 917 m cl s 560 917 m 38 Y s 560 955 m cl s 560 917
 m -40 Y s 560 877 m cl s 596 989 m -18 X s 578 989 m cl s 596 989 m 18 X s 614 989 m cl s 596 989 m 30 Y s 596 1019 m cl s 596 989 m -29 Y s 596 960 m cl s 632 888 m -18 X s 614 888 m cl s 632 888 m 17 X s 649 888 m cl s 632 888 m 43 Y s 632 931 m
 cl s 632 888 m -45 Y s 632 843 m cl s 667 917 m -18 X s 649 917 m cl s 667 917 m 18 X s 685 917 m cl s 667 917 m 38 Y s 667 955 m cl s 667 917 m -40 Y s 667 877 m cl s 703 961 m -18 X s 685 961 m cl s 703 961 m 18 X s 721 961 m cl s 703 961 m 32 Y s
 703 993 m cl s 703 961 m -33 Y s 703 928 m cl s 739 1004 m -18 X s 721 1004 m cl s 739 1004 m 18 X s 757 1004 m cl s 739 1004 m 28 Y s 739 1032 m cl s 739 1004 m -28 Y s 739 976 m cl s 775 999 m -18 X s 757 999 m cl s 775 999 m 18 X s 793 999 m cl s
 775 999 m 28 Y s 775 1027 m cl s 775 999 m -28 Y s 775 971 m cl s 811 999 m -18 X s 793 999 m cl s 811 999 m 18 X s 829 999 m cl s 811 999 m 28 Y s 811 1027 m cl s 811 999 m -28 Y s 811 971 m cl s 847 973 m -18 X s 829 973 m cl s 847 973 m 17 X s
 864 973 m cl s 847 973 m 31 Y s 847 1004 m cl s 847 973 m -31 Y s 847 942 m cl s 882 1044 m -18 X s 864 1044 m cl s 882 1044 m 18 X s 900 1044 m cl s 882 1044 m 24 Y s 882 1068 m cl s 882 1044 m -24 Y s 882 1020 m cl s 918 1044 m -18 X s 900 1044 m
 cl s 918 1044 m 18 X s 936 1044 m cl s 918 1044 m 24 Y s 918 1068 m cl s 918 1044 m -24 Y s 918 1020 m cl s 954 1041 m -18 X s 936 1041 m cl s 954 1041 m 18 X s 972 1041 m cl s 954 1041 m 24 Y s 954 1065 m cl s 954 1041 m -25 Y s 954 1016 m cl s 990
 1098 m -18 X s 972 1098 m cl s 990 1098 m 18 X s 1008 1098 m cl s 990 1098 m 19 Y s 990 1117 m cl s 990 1098 m -19 Y s 990 1079 m cl s 1026 1101 m -18 X s 1008 1101 m cl s 1026 1101 m 18 X s 1044 1101 m cl s 1026 1101 m 19 Y s 1026 1120 m cl s 1026
 1101 m -20 Y s 1026 1081 m cl s 1062 1135 m -18 X s 1044 1135 m cl s 1062 1135 m 17 X s 1079 1135 m cl s 1062 1135 m 17 Y s 1062 1152 m cl s 1062 1135 m -16 Y s 1062 1119 m cl s 1097 1152 m -18 X s 1079 1152 m cl s 1097 1152 m 18 X s 1115 1152 m cl
 s 1097 1152 m 16 Y s 1097 1168 m cl s 1097 1152 m -15 Y s 1097 1137 m cl s 1133 1179 m -18 X s 1115 1179 m cl s 1133 1179 m 18 X s 1151 1179 m cl s 1133 1179 m 13 Y s 1133 1192 m cl s 1133 1179 m -14 Y s 1133 1165 m cl s 1169 1192 m -18 X s 1151
 1192 m cl s 1169 1192 m 18 X s 1187 1192 m cl s 1169 1192 m 13 Y s 1169 1205 m cl s 1169 1192 m -13 Y s 1169 1179 m cl s 1205 1197 m -18 X s 1187 1197 m cl s 1205 1197 m 18 X s 1223 1197 m cl s 1205 1197 m 13 Y s 1205 1210 m cl s 1205 1197 m -13 Y s
 1205 1184 m cl s 1241 1238 m -18 X s 1223 1238 m cl s 1241 1238 m 18 X s 1259 1238 m cl s 1241 1238 m 11 Y s 1241 1249 m cl s 1241 1238 m -11 Y s 1241 1227 m cl s 1276 1247 m -17 X s 1259 1247 m cl s 1276 1247 m 18 X s 1294 1247 m cl s 1276 1247 m
 11 Y s 1276 1258 m cl s 1276 1247 m -10 Y s 1276 1237 m cl s 1312 1292 m -18 X s 1294 1292 m cl s 1312 1292 m 18 X s 1330 1292 m cl s 1312 1292 m 9 Y s 1312 1301 m cl s 1312 1292 m -9 Y s 1312 1283 m cl s 1348 1291 m -18 X s 1330 1291 m cl s 1348
 1291 m 18 X s 1366 1291 m cl s 1348 1291 m 9 Y s 1348 1300 m cl s 1348 1291 m -9 Y s 1348 1282 m cl s 1384 1325 m -18 X s 1366 1325 m cl s 1384 1325 m 18 X s 1402 1325 m cl s 1384 1325 m 8 Y s 1384 1333 m cl s 1384 1325 m -8 Y s 1384 1317 m cl s
 1420 1346 m -18 X s 1402 1346 m cl s 1420 1346 m 18 X s 1438 1346 m cl s 1420 1346 m 8 Y s 1420 1354 m cl s 1420 1346 m -7 Y s 1420 1339 m cl s 1456 1373 m -18 X s 1438 1373 m cl s 1456 1373 m 18 X s 1474 1373 m cl s 1456 1373 m 7 Y s 1456 1380 m cl
 s 1456 1373 m -7 Y s 1456 1366 m cl s 1491 1387 m -17 X s 1474 1387 m cl s 1491 1387 m 18 X s 1509 1387 m cl s 1491 1387 m 6 Y s 1491 1393 m cl s 1491 1387 m -7 Y s 1491 1380 m cl s 1527 1394 m -18 X s 1509 1394 m cl s 1527 1394 m 18 X s 1545 1394 m
 cl s 1527 1394 m 7 Y s 1527 1401 m cl s 1527 1394 m -6 Y s 1527 1388 m cl s 1563 1415 m -18 X s 1545 1415 m cl s 1563 1415 m 18 X s 1581 1415 m cl s 1563 1415 m 6 Y s 1563 1421 m cl s 1563 1415 m -6 Y s 1563 1409 m cl s 1599 1408 m -18 X s 1581 1408
 m cl s 1599 1408 m 18 X s 1617 1408 m cl s 1599 1408 m 6 Y s 1599 1414 m cl s 1599 1408 m -6 Y s 1599 1402 m cl s 1635 1381 m -18 X s 1617 1381 m cl s 1635 1381 m 18 X s 1653 1381 m cl s 1635 1381 m 7 Y s 1635 1388 m cl s 1635 1381 m -6 Y s 1635
 1375 m cl s 1671 1364 m -18 X s 1653 1364 m cl s 1671 1364 m 18 X s 1689 1364 m cl s 1671 1364 m 7 Y s 1671 1371 m cl s 1671 1364 m -7 Y s 1671 1357 m cl s 1706 1340 m -17 X s 1689 1340 m cl s 1706 1340 m 18 X s 1724 1340 m cl s 1706 1340 m 8 Y s
 1706 1348 m cl s 1706 1340 m -8 Y s 1706 1332 m cl s 1742 1312 m -18 X s 1724 1312 m cl s 1742 1312 m 18 X s 1760 1312 m cl s 1742 1312 m 8 Y s 1742 1320 m cl s 1742 1312 m -9 Y s 1742 1303 m cl s 1778 1274 m -18 X s 1760 1274 m cl s 1778 1274 m 18
 X s 1796 1274 m cl s 1778 1274 m 10 Y s 1778 1284 m cl s 1778 1274 m -9 Y s 1778 1265 m cl s 1814 1221 m -18 X s 1796 1221 m cl s 1814 1221 m 18 X s 1832 1221 m cl s 1814 1221 m 11 Y s 1814 1232 m cl s 1814 1221 m -12 Y s 1814 1209 m cl s 1850 1215
 m -18 X s 1832 1215 m cl s 1850 1215 m 18 X s 1868 1215 m cl s 1850 1215 m 11 Y s 1850 1226 m cl s 1850 1215 m -12 Y s 1850 1203 m cl s 1886 1205 m -18 X s 1868 1205 m cl s 1886 1205 m 18 X s 1904 1205 m cl s 1886 1205 m 12 Y s 1886 1217 m cl s 1886
 1205 m -12 Y s 1886 1193 m cl s 1921 1122 m -17 X s 1904 1122 m cl s 1921 1122 m 18 X s 1939 1122 m cl s 1921 1122 m 18 Y s 1921 1140 m cl s 1921 1122 m -18 Y s 1921 1104 m cl s 1957 1132 m -18 X s 1939 1132 m cl s 1957 1132 m 18 X s 1975 1132 m cl
 s 1957 1132 m 17 Y s 1957 1149 m cl s 1957 1132 m -17 Y s 1957 1115 m cl s 1993 1057 m -18 X s 1975 1057 m cl s 1993 1057 m 18 X s 2011 1057 m cl s 1993 1057 m 23 Y s 1993 1080 m cl s 1993 1057 m -22 Y s 1993 1035 m cl s 2029 1048 m -18 X s 2011
 1048 m cl s 2029 1048 m 18 X s 2047 1048 m cl s 2029 1048 m 23 Y s 2029 1071 m cl s 2029 1048 m -24 Y s 2029 1024 m cl s 2065 1004 m -18 X s 2047 1004 m cl s 2065 1004 m 18 X s 2083 1004 m cl s 2065 1004 m 28 Y s 2065 1032 m cl s 2065 1004 m -28 Y s
 2065 976 m cl s 2101 1022 m -18 X s 2083 1022 m cl s 2101 1022 m 18 X s 2119 1022 m cl s 2101 1022 m 25 Y s 2101 1047 m cl s 2101 1022 m -26 Y s 2101 996 m cl s 2136 941 m -17 X s 2119 941 m cl s 2136 941 m 18 X s 2154 941 m cl s 2136 941 m 35 Y s
 2136 976 m cl s 2136 941 m -36 Y s 2136 905 m cl s /w 31 def /w2 {w 2 div} def /w3 {w 3 div} def 381 888 417 851 452 908 488 851 524 941 560 917 596 989 632 888 667 917 703 961 739 1004 775 999 811 999 847 973 882 1044 918 1044 954 1041 990 1098
 1026 1101 1062 1135 1097 1152 1133 1179 1169 1192 1205 1197 1241 1238 1276 1247 1312 1292 1348 1291 1384 1325 1420 1346 1456 1373 1491 1387 1527 1394 1563 1415 1599 1408 1635 1381 1671 1364 1706 1340 1742 1312 1778 1274 1814 1221 1850 1215 1886 1205
 1921 1122 1957 1132 1993 1057 2029 1048 2065 1004 2101 1022 2136 941 50 { m20} R 0 1 1 c 1 1 0 c black 1 1 0 c 363 857 m 36 10 d 35 11 d 36 11 d 36 11 d 36 12 d 36 11 d 36 12 d 35 13 d 36 12 d 36 13 d 36 14 d 36 13 d 36 14 d 35 15 d 36 15 d 36 15 d
 36 16 d 36 17 d 36 17 d 35 18 d 36 18 d 36 19 d 36 21 d 18 11 d 18 12 d 18 12 d 18 13 d 17 14 d 18 14 d 18 15 d 18 14 d 18 15 d 18 13 d 18 14 d 18 13 d 36 23 d 18 10 d 18 8 d 9 4 d 8 3 d 9 3 d 9 2 d 9 2 d 9 2 d 9 1 d 27 X 9 -1 d 9 -2 d 9 -2 d 9 -2 d
 9 -3 d 9 -3 d 18 -8 d 18 -9 d 36 -22 d 17 -12 d 18 -14 d 18 -13 d 18 -14 d 18 -15 d 18 -14 d 18 -15 d 18 -15 d 18 -15 d 18 -16 d 18 -16 d 18 -16 d 35 -35 d 36 -37 d 36 -39 d 36 -43 d 36 -46 d 36 -50 d 35 -52 d -35 52 d -36 50 d -36 46 d -36 43 d -36
 39 d -36 37 d -35 35 d -18 16 d -18 16 d -18 16 d -18 15 d -18 15 d -18 15 d -18 14 d -18 15 d -18 14 d -18 13 d -18 14 d -17 12 d -36 22 d -18 9 d -18 8 d -9 3 d -9 3 d -9 2 d -9 2 d -9 2 d -9 1 d -27 X -9 -1 d -9 -2 d -9 -2 d -9 -2 d -9 -3 d -8 -3
 d -9 -4 d -18 -8 d -18 -10 d -36 -23 d -18 -13 d -18 -14 d -18 -13 d -18 -15 d -18 -14 d -18 -15 d -18 -14 d -17 -14 d -18 -13 d -18 -12 d -18 -12 d -18 -11 d -36 -21 d -36 -19 d -36 -18 d -35 -18 d -36 -17 d -36 -17 d -36 -16 d -36 -15 d -36 -15 d
 -35 -15 d -36 -14 d -36 -13 d -36 -14 d -36 -13 d -36 -12 d -35 -13 d -36 -12 d -36 -11 d -36 -12 d -36 -11 d -36 -11 d -35 -11 d -36 -10 d f 0 1 1 c 0 1 0 c black 0 1 0 c 363 857 m 36 10 d 35 11 d 36 11 d 36 11 d 36 12 d 36 11 d 36 12 d 35 13 d 36
 12 d 36 13 d 36 14 d 36 13 d 36 14 d 35 15 d 36 15 d 36 15 d 36 16 d 36 17 d 36 17 d 35 18 d 36 18 d 36 19 d 36 21 d 18 11 d 18 12 d 18 12 d 18 13 d 17 14 d 18 14 d 18 15 d 18 14 d 18 15 d 18 13 d 18 14 d 18 13 d 36 23 d 18 10 d 18 8 d 9 4 d 8 3 d 9
 3 d 9 2 d 9 2 d 9 2 d 9 1 d 27 X 9 -1 d 9 -2 d 9 -2 d 9 -2 d 9 -3 d 9 -3 d 18 -8 d 18 -9 d 36 -22 d 17 -12 d 18 -14 d 18 -13 d 18 -14 d 18 -15 d 18 -14 d 18 -15 d 18 -15 d 18 -15 d 18 -16 d 18 -16 d 18 -16 d 35 -35 d 36 -37 d 36 -39 d 36 -43 d 36
 -46 d 36 -50 d 35 -52 d -35 52 d -36 50 d -36 46 d -36 43 d -36 39 d -36 37 d -35 35 d -18 16 d -18 16 d -18 16 d -18 15 d -18 15 d -18 15 d -18 14 d -18 15 d -18 14 d -18 13 d -18 14 d -17 12 d -36 22 d -18 9 d -18 8 d -9 3 d -9 3 d -9 2 d -9 2 d
 -9 2 d -9 1 d -27 X -9 -1 d -9 -2 d -9 -2 d -9 -2 d -9 -3 d -8 -3 d -9 -4 d -18 -8 d -18 -10 d -36 -23 d -18 -13 d -18 -14 d -18 -13 d -18 -15 d -18 -14 d -18 -15 d -18 -14 d -17 -14 d -18 -13 d -18 -12 d -18 -12 d -18 -11 d -36 -21 d -36 -19 d -36
 -18 d -35 -18 d -36 -17 d -36 -17 d -36 -16 d -36 -15 d -36 -15 d -35 -15 d -36 -14 d -36 -13 d -36 -14 d -36 -13 d -36 -12 d -35 -13 d -36 -12 d -36 -11 d -36 -12 d -36 -11 d -36 -11 d -35 -11 d -36 -10 d f 0 0 1 c 9 lw black 0 0 1 c 363 857 m 36
 10 d 35 11 d 36 11 d 36 11 d 36 12 d 36 11 d 36 12 d 35 13 d 36 12 d 36 13 d 36 14 d 36 13 d 36 14 d 35 15 d 36 15 d 36 15 d 36 16 d 36 17 d 36 17 d 35 18 d 36 18 d 36 19 d 36 21 d 18 11 d 18 12 d 18 12 d 18 13 d 17 14 d 18 14 d 18 15 d 18 14 d 18
 15 d 18 13 d 18 14 d 18 13 d 36 23 d 18 10 d 18 8 d 9 4 d 8 3 d 9 3 d 9 2 d 9 2 d 9 2 d 9 1 d 27 X 9 -1 d 9 -2 d 9 -2 d 9 -2 d 9 -3 d 9 -3 d 18 -8 d 18 -9 d 36 -22 d 17 -12 d 18 -14 d 18 -13 d 18 -14 d 18 -15 d 18 -14 d 18 -15 d 18 -15 d 18 -15 d 18
 -16 d 18 -16 d 18 -16 d 35 -35 d 36 -37 d 36 -39 d 36 -43 d 36 -46 d 36 -50 d 35 -52 d s black 3 lw 381 888 m -18 X s 363 888 m cl s 381 888 m 18 X s 399 888 m cl s 381 888 m 43 Y s 381 931 m cl s 381 888 m -45 Y s 381 843 m cl s 417 851 m -18 X s
 399 851 m cl s 417 851 m 17 X s 434 851 m cl s 417 851 m 50 Y s 417 901 m cl s 417 851 m -52 Y s 417 799 m cl s 452 908 m -18 X s 434 908 m cl s 452 908 m 18 X s 470 908 m cl s 452 908 m 39 Y s 452 947 m cl s 452 908 m -41 Y s 452 867 m cl s 488 851
 m -18 X s 470 851 m cl s 488 851 m 18 X s 506 851 m cl s 488 851 m 50 Y s 488 901 m cl s 488 851 m -52 Y s 488 799 m cl s 524 941 m -18 X s 506 941 m cl s 524 941 m 18 X s 542 941 m cl s 524 941 m 35 Y s 524 976 m cl s 524 941 m -36 Y s 524 905 m cl
 s 560 917 m -18 X s 542 917 m cl s 560 917 m 18 X s 578 917 m cl s 560 917 m 38 Y s 560 955 m cl s 560 917 m -40 Y s 560 877 m cl s 596 989 m -18 X s 578 989 m cl s 596 989 m 18 X s 614 989 m cl s 596 989 m 30 Y s 596 1019 m cl s 596 989 m -29 Y s
 596 960 m cl s 632 888 m -18 X s 614 888 m cl s 632 888 m 17 X s 649 888 m cl s 632 888 m 43 Y s 632 931 m cl s 632 888 m -45 Y s 632 843 m cl s 667 917 m -18 X s 649 917 m cl s 667 917 m 18 X s 685 917 m cl s 667 917 m 38 Y s 667 955 m cl s 667 917
 m -40 Y s 667 877 m cl s 703 961 m -18 X s 685 961 m cl s 703 961 m 18 X s 721 961 m cl s 703 961 m 32 Y s 703 993 m cl s 703 961 m -33 Y s 703 928 m cl s 739 1004 m -18 X s 721 1004 m cl s 739 1004 m 18 X s 757 1004 m cl s 739 1004 m 28 Y s 739
 1032 m cl s 739 1004 m -28 Y s 739 976 m cl s 775 999 m -18 X s 757 999 m cl s 775 999 m 18 X s 793 999 m cl s 775 999 m 28 Y s 775 1027 m cl s 775 999 m -28 Y s 775 971 m cl s 811 999 m -18 X s 793 999 m cl s 811 999 m 18 X s 829 999 m cl s 811 999
 m 28 Y s 811 1027 m cl s 811 999 m -28 Y s 811 971 m cl s 847 973 m -18 X s 829 973 m cl s 847 973 m 17 X s 864 973 m cl s 847 973 m 31 Y s 847 1004 m cl s 847 973 m -31 Y s 847 942 m cl s 882 1044 m -18 X s 864 1044 m cl s 882 1044 m 18 X s 900
 1044 m cl s 882 1044 m 24 Y s 882 1068 m cl s 882 1044 m -24 Y s 882 1020 m cl s 918 1044 m -18 X s 900 1044 m cl s 918 1044 m 18 X s 936 1044 m cl s 918 1044 m 24 Y s 918 1068 m cl s 918 1044 m -24 Y s 918 1020 m cl s 954 1041 m -18 X s 936 1041 m
 cl s 954 1041 m 18 X s 972 1041 m cl s 954 1041 m 24 Y s 954 1065 m cl s 954 1041 m -25 Y s 954 1016 m cl s 990 1098 m -18 X s 972 1098 m cl s 990 1098 m 18 X s 1008 1098 m cl s 990 1098 m 19 Y s 990 1117 m cl s 990 1098 m -19 Y s 990 1079 m cl s
 1026 1101 m -18 X s 1008 1101 m cl s 1026 1101 m 18 X s 1044 1101 m cl s 1026 1101 m 19 Y s 1026 1120 m cl s 1026 1101 m -20 Y s 1026 1081 m cl s 1062 1135 m -18 X s 1044 1135 m cl s 1062 1135 m 17 X s 1079 1135 m cl s 1062 1135 m 17 Y s 1062 1152 m
 cl s 1062 1135 m -16 Y s 1062 1119 m cl s 1097 1152 m -18 X s 1079 1152 m cl s 1097 1152 m 18 X s 1115 1152 m cl s 1097 1152 m 16 Y s 1097 1168 m cl s 1097 1152 m -15 Y s 1097 1137 m cl s 1133 1179 m -18 X s 1115 1179 m cl s 1133 1179 m 18 X s 1151
 1179 m cl s 1133 1179 m 13 Y s 1133 1192 m cl s 1133 1179 m -14 Y s 1133 1165 m cl s 1169 1192 m -18 X s 1151 1192 m cl s 1169 1192 m 18 X s 1187 1192 m cl s 1169 1192 m 13 Y s 1169 1205 m cl s 1169 1192 m -13 Y s 1169 1179 m cl s 1205 1197 m -18 X
 s 1187 1197 m cl s 1205 1197 m 18 X s 1223 1197 m cl s 1205 1197 m 13 Y s 1205 1210 m cl s 1205 1197 m -13 Y s 1205 1184 m cl s 1241 1238 m -18 X s 1223 1238 m cl s 1241 1238 m 18 X s 1259 1238 m cl s 1241 1238 m 11 Y s 1241 1249 m cl s 1241 1238 m
 -11 Y s 1241 1227 m cl s 1276 1247 m -17 X s 1259 1247 m cl s 1276 1247 m 18 X s 1294 1247 m cl s 1276 1247 m 11 Y s 1276 1258 m cl s 1276 1247 m -10 Y s 1276 1237 m cl s 1312 1292 m -18 X s 1294 1292 m cl s 1312 1292 m 18 X s 1330 1292 m cl s 1312
 1292 m 9 Y s 1312 1301 m cl s 1312 1292 m -9 Y s 1312 1283 m cl s 1348 1291 m -18 X s 1330 1291 m cl s 1348 1291 m 18 X s 1366 1291 m cl s 1348 1291 m 9 Y s 1348 1300 m cl s 1348 1291 m -9 Y s 1348 1282 m cl s 1384 1325 m -18 X s 1366 1325 m cl s
 1384 1325 m 18 X s 1402 1325 m cl s 1384 1325 m 8 Y s 1384 1333 m cl s 1384 1325 m -8 Y s 1384 1317 m cl s 1420 1346 m -18 X s 1402 1346 m cl s 1420 1346 m 18 X s 1438 1346 m cl s 1420 1346 m 8 Y s 1420 1354 m cl s 1420 1346 m -7 Y s 1420 1339 m cl
 s 1456 1373 m -18 X s 1438 1373 m cl s 1456 1373 m 18 X s 1474 1373 m cl s 1456 1373 m 7 Y s 1456 1380 m cl s 1456 1373 m -7 Y s 1456 1366 m cl s 1491 1387 m -17 X s 1474 1387 m cl s 1491 1387 m 18 X s 1509 1387 m cl s 1491 1387 m 6 Y s 1491 1393 m
 cl s 1491 1387 m -7 Y s 1491 1380 m cl s 1527 1394 m -18 X s 1509 1394 m cl s 1527 1394 m 18 X s 1545 1394 m cl s 1527 1394 m 7 Y s 1527 1401 m cl s 1527 1394 m -6 Y s 1527 1388 m cl s 1563 1415 m -18 X s 1545 1415 m cl s 1563 1415 m 18 X s 1581
 1415 m cl s 1563 1415 m 6 Y s 1563 1421 m cl s 1563 1415 m -6 Y s 1563 1409 m cl s 1599 1408 m -18 X s 1581 1408 m cl s 1599 1408 m 18 X s 1617 1408 m cl s 1599 1408 m 6 Y s 1599 1414 m cl s 1599 1408 m -6 Y s 1599 1402 m cl s 1635 1381 m -18 X s
 1617 1381 m cl s 1635 1381 m 18 X s 1653 1381 m cl s 1635 1381 m 7 Y s 1635 1388 m cl s 1635 1381 m -6 Y s 1635 1375 m cl s 1671 1364 m -18 X s 1653 1364 m cl s 1671 1364 m 18 X s 1689 1364 m cl s 1671 1364 m 7 Y s 1671 1371 m cl s 1671 1364 m -7 Y
 s 1671 1357 m cl s 1706 1340 m -17 X s 1689 1340 m cl s 1706 1340 m 18 X s 1724 1340 m cl s 1706 1340 m 8 Y s 1706 1348 m cl s 1706 1340 m -8 Y s 1706 1332 m cl s 1742 1312 m -18 X s 1724 1312 m cl s 1742 1312 m 18 X s 1760 1312 m cl s 1742 1312 m 8
 Y s 1742 1320 m cl s 1742 1312 m -9 Y s 1742 1303 m cl s 1778 1274 m -18 X s 1760 1274 m cl s 1778 1274 m 18 X s 1796 1274 m cl s 1778 1274 m 10 Y s 1778 1284 m cl s 1778 1274 m -9 Y s 1778 1265 m cl s 1814 1221 m -18 X s 1796 1221 m cl s 1814 1221
 m 18 X s 1832 1221 m cl s 1814 1221 m 11 Y s 1814 1232 m cl s 1814 1221 m -12 Y s 1814 1209 m cl s 1850 1215 m -18 X s 1832 1215 m cl s 1850 1215 m 18 X s 1868 1215 m cl s 1850 1215 m 11 Y s 1850 1226 m cl s 1850 1215 m -12 Y s 1850 1203 m cl s 1886
 1205 m -18 X s 1868 1205 m cl s 1886 1205 m 18 X s 1904 1205 m cl s 1886 1205 m 12 Y s 1886 1217 m cl s 1886 1205 m -12 Y s 1886 1193 m cl s 1921 1122 m -17 X s 1904 1122 m cl s 1921 1122 m 18 X s 1939 1122 m cl s 1921 1122 m 18 Y s 1921 1140 m cl s
 1921 1122 m -18 Y s 1921 1104 m cl s 1957 1132 m -18 X s 1939 1132 m cl s 1957 1132 m 18 X s 1975 1132 m cl s 1957 1132 m 17 Y s 1957 1149 m cl s 1957 1132 m -17 Y s 1957 1115 m cl s 1993 1057 m -18 X s 1975 1057 m cl s 1993 1057 m 18 X s 2011 1057
 m cl s 1993 1057 m 23 Y s 1993 1080 m cl s 1993 1057 m -22 Y s 1993 1035 m cl s 2029 1048 m -18 X s 2011 1048 m cl s 2029 1048 m 18 X s 2047 1048 m cl s 2029 1048 m 23 Y s 2029 1071 m cl s 2029 1048 m -24 Y s 2029 1024 m cl s 2065 1004 m -18 X s
 2047 1004 m cl s 2065 1004 m 18 X s 2083 1004 m cl s 2065 1004 m 28 Y s 2065 1032 m cl s 2065 1004 m -28 Y s 2065 976 m cl s 2101 1022 m -18 X s 2083 1022 m cl s 2101 1022 m 18 X s 2119 1022 m cl s 2101 1022 m 25 Y s 2101 1047 m cl s 2101 1022 m -26
 Y s 2101 996 m cl s 2136 941 m -17 X s 2119 941 m cl s 2136 941 m 18 X s 2154 941 m cl s 2136 941 m 35 Y s 2136 976 m cl s 2136 941 m -36 Y s 2136 905 m cl s 381 888 417 851 452 908 488 851 524 941 560 917 596 989 632 888 667 917 703 961 739 1004
 775 999 811 999 847 973 882 1044 918 1044 954 1041 990 1098 1026 1101 1062 1135 1097 1152 1133 1179 1169 1192 1205 1197 1241 1238 1276 1247 1312 1292 1348 1291 1384 1325 1420 1346 1456 1373 1491 1387 1527 1394 1563 1415 1599 1408 1635 1381 1671 1364
 1706 1340 1742 1312 1778 1274 1814 1221 1850 1215 1886 1205 1921 1122 1957 1132 1993 1057 2029 1048 2065 1004 2101 1022 2136 941 50 { m20} R 0.52 0.76 0.64 c[ 4 8] 0 sd 9 lw black 0.52 0.76 0.64 c 363 857 m 36 10 d 35 11 d 36 11 d 36 11 d 36 12 d 36
 11 d 36 12 d 35 13 d 36 12 d 36 13 d 36 14 d 36 13 d 36 14 d 35 15 d 36 15 d 36 15 d 36 16 d 36 17 d 36 17 d 35 17 d 36 19 d 36 19 d 18 10 d 18 10 d 18 10 d 18 10 d 18 11 d 18 11 d 17 11 d 18 12 d 36 21 d 36 18 d 18 8 d 18 7 d 18 6 d 18 5 d 18 5 d
 18 4 d 17 3 d 18 2 d 18 1 d 18 1 d 18 X 18 -1 d 18 -2 d 18 -3 d 18 -3 d 18 -4 d 18 -5 d 18 -6 d 17 -7 d 18 -7 d 36 -17 d 36 -21 d 36 -23 d 36 -27 d 18 -15 d 18 -15 d 17 -16 d 18 -17 d 18 -18 d 18 -19 d 18 -19 d 18 -21 d 18 -21 d 18 -21 d 18 -23 d 18
 -23 d 36 -50 d 35 -52 d s 0.54 0.66 0.63 c black 0.54 0.66 0.63 c 1208 634 m 15 55 d s 1223 689 m 18 63 d 18 59 d 17 56 d 18 52 d 9 25 d 9 24 d 9 23 d 9 22 d 9 21 d 9 21 d 9 19 d 9 19 d 9 18 d 9 16 d 9 16 d 9 15 d 18 28 d 18 24 d 18 20 d 9 9 d 9 8 d
 9 7 d 8 6 d 9 5 d 9 5 d 9 3 d 9 3 d 9 2 d 9 1 d 9 X 9 -1 d 9 -2 d 9 -3 d 9 -3 d 9 -4 d 9 -6 d 9 -6 d 9 -7 d 9 -8 d 18 -18 d 18 -23 d 18 -25 d 17 -29 d 9 -16 d 9 -17 d 9 -18 d 9 -18 d 9 -20 d 9 -20 d 9 -21 d 9 -22 d 9 -23 d 9 -24 d 9 -25 d 9 -26 d 18
 -53 d 18 -58 d 18 -61 d 18 -64 d 6 -24 d s black[  ] 0 sd 3 lw 363 634 m 1791 X s 363 659 m -25 Y s 414 646 m -12 Y s 465 646 m -12 Y s 516 646 m -12 Y s 566 659 m -25 Y s 617 646 m -12 Y s 668 646 m -12 Y s 719 646 m -12 Y s 770 659 m -25 Y s 821
 646 m -12 Y s 872 646 m -12 Y s 923 646 m -12 Y s 974 659 m -25 Y s 1024 646 m -12 Y s 1075 646 m -12 Y s 1126 646 m -12 Y s 1177 659 m -25 Y s 1228 646 m -12 Y s 1279 646 m -12 Y s 1330 646 m -12 Y s 1381 659 m -25 Y s 1432 646 m -12 Y s 1483 646 m
 -12 Y s 1533 646 m -12 Y s 1584 659 m -25 Y s 1635 646 m -12 Y s 1686 646 m -12 Y s 1737 646 m -12 Y s 1788 659 m -25 Y s 1839 646 m -12 Y s 1890 646 m -12 Y s 1941 646 m -12 Y s 1991 659 m -25 Y s 1991 659 m -25 Y s 2042 646 m -12 Y s 2093 646 m
 -12 Y s 2144 646 m -12 Y s 363 1484 m 1791 X s 363 1459 m 25 Y s 414 1471 m 13 Y s 465 1471 m 13 Y s 516 1471 m 13 Y s 566 1459 m 25 Y s 617 1471 m 13 Y s 668 1471 m 13 Y s 719 1471 m 13 Y s 770 1459 m 25 Y s 821 1471 m 13 Y s 872 1471 m 13 Y s 923
 1471 m 13 Y s 974 1459 m 25 Y s 1024 1471 m 13 Y s 1075 1471 m 13 Y s 1126 1471 m 13 Y s 1177 1459 m 25 Y s 1228 1471 m 13 Y s 1279 1471 m 13 Y s 1330 1471 m 13 Y s 1381 1459 m 25 Y s 1432 1471 m 13 Y s 1483 1471 m 13 Y s 1533 1471 m 13 Y s 1584
 1459 m 25 Y s 1635 1471 m 13 Y s 1686 1471 m 13 Y s 1737 1471 m 13 Y s 1788 1459 m 25 Y s 1839 1471 m 13 Y s 1890 1471 m 13 Y s 1941 1471 m 13 Y s 1991 1459 m 25 Y s 1991 1459 m 25 Y s 2042 1471 m 13 Y s 2093 1471 m 13 Y s 2144 1471 m 13 Y s 363 634
 m 850 Y s 390 684 m -27 X s 390 724 m -27 X s 390 755 m -27 X s 390 780 m -27 X s 390 802 m -27 X s 390 820 m -27 X s 390 837 m -27 X s 417 851 m -54 X s 390 948 m -27 X s 390 1004 m -27 X s 390 1044 m -27 X s 390 1075 m -27 X s 390 1101 m -27 X s
 390 1122 m -27 X s 390 1141 m -27 X s 390 1157 m -27 X s 417 1172 m -54 X s 390 1268 m -27 X s 390 1325 m -27 X s 390 1365 m -27 X s 390 1396 m -27 X s 390 1421 m -27 X s 390 1443 m -27 X s 390 1461 m -27 X s 390 1478 m -27 X s 2154 634 m 850 Y s
 2127 684 m 27 X s 2127 724 m 27 X s 2127 755 m 27 X s 2127 780 m 27 X s 2127 802 m 27 X s 2127 820 m 27 X s 2127 837 m 27 X s 2101 851 m 53 X s 2127 948 m 27 X s 2127 1004 m 27 X s 2127 1044 m 27 X s 2127 1075 m 27 X s 2127 1101 m 27 X s 2127 1122 m
 27 X s 2127 1141 m 27 X s 2127 1157 m 27 X s 2101 1172 m 53 X s 2127 1268 m 27 X s 2127 1325 m 27 X s 2127 1365 m 27 X s 2127 1396 m 27 X s 2127 1421 m 27 X s 2127 1443 m 27 X s 2127 1461 m 27 X s 2127 1478 m 27 X s
 gsave  2268 1077 0 461 C 677.708 1215.31 t 0 r /Helvetica findfont 58.7189 sf 0 0 m (4mu) show NC gr  1 1 1 c 453 161 454 1269 bf black
 gsave  2268 1077 0 461 C 566.929 1371.71 t 0 r /Helvetica-Bold findfont 48.9324 sf 0 0 m (MC15) show NC gr  510 1390 m20
 gsave  2268 1077 0 461 C 566.929 1293.51 t 0 r /Helvetica-Bold findfont 48.9324 sf 0 0 m (Projection of Signal pdf) show NC gr  0 0 1 c 9 lw 471 1309 m 79 X s black 3 lw 1 1 1 c 2268 461 0 0 bf black 1 1 1 c 1791 364 363 74 bf black 1791 364 363 74
 bl 363 74 m 1791 X s
 gsave  2268 461 0 0 C 1915.83 13.0329 t 0 r /Helvetica findfont 22.9045 sf 0 0 m (4l Invariant Mass \(GeV\)) show NC gr  363 85 m -11 Y s 414 79 m -5 Y s 465 79 m -5 Y s 516 79 m -5 Y s 566 85 m -11 Y s 617 79 m -5 Y s 668 79 m -5 Y s 719 79 m -5 Y
 s 770 85 m -11 Y s 821 79 m -5 Y s 872 79 m -5 Y s 923 79 m -5 Y s 974 85 m -11 Y s 1024 79 m -5 Y s 1075 79 m -5 Y s 1126 79 m -5 Y s 1177 85 m -11 Y s 1228 79 m -5 Y s 1279 79 m -5 Y s 1330 79 m -5 Y s 1381 85 m -11 Y s 1432 79 m -5 Y s 1483 79 m
 -5 Y s 1533 79 m -5 Y s 1584 85 m -11 Y s 1635 79 m -5 Y s 1686 79 m -5 Y s 1737 79 m -5 Y s 1788 85 m -11 Y s 1839 79 m -5 Y s 1890 79 m -5 Y s 1941 79 m -5 Y s 1991 85 m -11 Y s 1991 85 m -11 Y s 2042 79 m -5 Y s 2093 79 m -5 Y s 2144 79 m -5 Y s
 gsave  2268 461 0 0 C 342.112 55.3896 t 0 r /Helvetica findfont 22.9045 sf 0 0 m (780) show NC gr 
 gsave  2268 461 0 0 C 544.122 55.3896 t 0 r /Helvetica findfont 22.9045 sf 0 0 m (800) show NC gr 
 gsave  2268 461 0 0 C 749.389 55.3896 t 0 r /Helvetica findfont 22.9045 sf 0 0 m (820) show NC gr 
 gsave  2268 461 0 0 C 951.398 55.3896 t 0 r /Helvetica findfont 22.9045 sf 0 0 m (840) show NC gr 
 gsave  2268 461 0 0 C 1156.67 55.3896 t 0 r /Helvetica findfont 22.9045 sf 0 0 m (860) show NC gr 
 gsave  2268 461 0 0 C 1358.68 55.3896 t 0 r /Helvetica findfont 22.9045 sf 0 0 m (880) show NC gr 
 gsave  2268 461 0 0 C 1563.94 55.3896 t 0 r /Helvetica findfont 22.9045 sf 0 0 m (900) show NC gr 
 gsave  2268 461 0 0 C 1765.95 55.3896 t 0 r /Helvetica findfont 22.9045 sf 0 0 m (920) show NC gr 
 gsave  2268 461 0 0 C 1971.22 55.3896 t 0 r /Helvetica findfont 22.9045 sf 0 0 m (940) show NC gr  363 438 m 1791 X s 363 427 m 11 Y s 414 433 m 5 Y s 465 433 m 5 Y s 516 433 m 5 Y s 566 427 m 11 Y s 617 433 m 5 Y s 668 433 m 5 Y s 719 433 m 5 Y s
 770 427 m 11 Y s 821 433 m 5 Y s 872 433 m 5 Y s 923 433 m 5 Y s 974 427 m 11 Y s 1024 433 m 5 Y s 1075 433 m 5 Y s 1126 433 m 5 Y s 1177 427 m 11 Y s 1228 433 m 5 Y s 1279 433 m 5 Y s 1330 433 m 5 Y s 1381 427 m 11 Y s 1432 433 m 5 Y s 1483 433 m 5
 Y s 1533 433 m 5 Y s 1584 427 m 11 Y s 1635 433 m 5 Y s 1686 433 m 5 Y s 1737 433 m 5 Y s 1788 427 m 11 Y s 1839 433 m 5 Y s 1890 433 m 5 Y s 1941 433 m 5 Y s 1991 427 m 11 Y s 1991 427 m 11 Y s 2042 433 m 5 Y s 2093 433 m 5 Y s 2144 433 m 5 Y s 363
 74 m 364 Y s 417 74 m -54 X s 390 81 m -27 X s 390 88 m -27 X s 390 96 m -27 X s 390 103 m -27 X s 417 110 m -54 X s 390 118 m -27 X s 390 125 m -27 X s 390 132 m -27 X s 390 139 m -27 X s 417 147 m -54 X s 390 154 m -27 X s 390 161 m -27 X s 390
 169 m -27 X s 390 176 m -27 X s 417 183 m -54 X s 390 190 m -27 X s 390 198 m -27 X s 390 205 m -27 X s 390 212 m -27 X s 417 220 m -54 X s 390 227 m -27 X s 390 234 m -27 X s 390 241 m -27 X s 390 249 m -27 X s 417 256 m -54 X s 390 263 m -27 X s
 390 271 m -27 X s 390 278 m -27 X s 390 285 m -27 X s 417 293 m -54 X s 390 300 m -27 X s 390 307 m -27 X s 390 314 m -27 X s 390 322 m -27 X s 417 329 m -54 X s 390 336 m -27 X s 390 344 m -27 X s 390 351 m -27 X s 390 358 m -27 X s 417 365 m -54 X
 s 390 373 m -27 X s 390 380 m -27 X s 390 387 m -27 X s 390 395 m -27 X s 417 402 m -54 X s 390 409 m -27 X s 390 416 m -27 X s 390 424 m -27 X s 390 431 m -27 X s 417 438 m -54 X s
 gsave  2268 461 0 0 C 329.08 65.1643 t 0 r /Helvetica findfont 22.9045 sf 0 0 m (\2555) show NC gr 
 gsave  2268 461 0 0 C 329.08 101.005 t 0 r /Helvetica findfont 22.9045 sf 0 0 m (\2554) show NC gr 
 gsave  2268 461 0 0 C 329.08 140.103 t 0 r /Helvetica findfont 22.9045 sf 0 0 m (\2553) show NC gr 
 gsave  2268 461 0 0 C 329.08 175.944 t 0 r /Helvetica findfont 22.9045 sf 0 0 m (\2552) show NC gr 
 gsave  2268 461 0 0 C 332.338 211.784 t 0 r /Helvetica findfont 22.9045 sf 0 0 m (\2551) show NC gr 
 gsave  2268 461 0 0 C 335.596 247.624 t 0 r /Helvetica findfont 22.9045 sf 0 0 m (0) show NC gr 
 gsave  2268 461 0 0 C 338.854 283.465 t 0 r /Helvetica findfont 22.9045 sf 0 0 m (1) show NC gr 
 gsave  2268 461 0 0 C 335.596 319.305 t 0 r /Helvetica findfont 22.9045 sf 0 0 m (2) show NC gr 
 gsave  2268 461 0 0 C 335.596 358.403 t 0 r /Helvetica findfont 22.9045 sf 0 0 m (3) show NC gr 
 gsave  2268 461 0 0 C 335.596 394.244 t 0 r /Helvetica findfont 22.9045 sf 0 0 m (4) show NC gr 
 gsave  2268 461 0 0 C 335.596 430.084 t 0 r /Helvetica findfont 22.9045 sf 0 0 m (5) show NC gr  2154 74 m 364 Y s 2101 74 m 53 X s 2127 81 m 27 X s 2127 88 m 27 X s 2127 96 m 27 X s 2127 103 m 27 X s 2101 110 m 53 X s 2127 118 m 27 X s 2127 125 m
 27 X s 2127 132 m 27 X s 2127 139 m 27 X s 2101 147 m 53 X s 2127 154 m 27 X s 2127 161 m 27 X s 2127 169 m 27 X s 2127 176 m 27 X s 2101 183 m 53 X s 2127 190 m 27 X s 2127 198 m 27 X s 2127 205 m 27 X s 2127 212 m 27 X s 2101 220 m 53 X s 2127 227
 m 27 X s 2127 234 m 27 X s 2127 241 m 27 X s 2127 249 m 27 X s 2101 256 m 53 X s 2127 263 m 27 X s 2127 271 m 27 X s 2127 278 m 27 X s 2127 285 m 27 X s 2101 293 m 53 X s 2127 300 m 27 X s 2127 307 m 27 X s 2127 314 m 27 X s 2127 322 m 27 X s 2101
 329 m 53 X s 2127 336 m 27 X s 2127 344 m 27 X s 2127 351 m 27 X s 2127 358 m 27 X s 2101 365 m 53 X s 2127 373 m 27 X s 2127 380 m 27 X s 2127 387 m 27 X s 2127 395 m 27 X s 2101 402 m 53 X s 2127 409 m 27 X s 2127 416 m 27 X s 2127 424 m 27 X s
 2127 431 m 27 X s 2101 438 m 53 X s 6 lw 0.2 0.8 0.2 c black 3 lw 0.2 0.8 0.2 c 363 256 m 22 Y 36 X -36 Y 35 X 37 Y 36 X -54 Y 36 X 66 Y 36 X -36 Y 36 X 68 Y 36 X -115 Y 35 X 13 Y 36 X 29 Y 36 X 38 Y 36 X -24 Y 36 X -18 Y 36 X -51 Y 35 X 73 Y 36 X
 -23 Y 36 X -30 Y 36 X 69 Y 36 X -28 Y 36 X 38 Y 71 X 23 Y 36 X -13 Y 36 X -45 Y 36 X 56 Y 36 X -56 Y 35 X 63 Y 36 X -120 Y 36 X 23 Y 36 X -23 Y 36 X 27 Y 36 X -9 Y 35 X -7 Y 36 X 119 Y 36 X -6 Y 36 X -77 Y 36 X 16 Y 36 X -2 Y 35 X -8 Y 36 X -32 Y 36
 X -79 Y 36 X 85 Y 36 X 65 Y 36 X -122 Y 35 X 101 Y 36 X -64 Y 36 X 52 Y 72 X 78 Y 36 X -45 Y 35 X -38 Y f 6 lw black 0.2 0.8 0.2 c black 363 278 m 36 X -36 Y 35 X 37 Y 36 X -54 Y 36 X 66 Y 36 X -36 Y 36 X 68 Y 36 X -115 Y 35 X 13 Y 36 X 29 Y 36 X 38
 Y 36 X -24 Y 36 X -18 Y 36 X -51 Y 35 X 73 Y 36 X -23 Y 36 X -30 Y 36 X 69 Y 36 X -28 Y 36 X 38 Y 71 X 23 Y 36 X -13 Y 36 X -45 Y 36 X 56 Y 36 X -56 Y 35 X 63 Y 36 X -120 Y 36 X 23 Y 36 X -23 Y 36 X 27 Y 36 X -9 Y 35 X -7 Y 36 X 119 Y 36 X -6 Y 36 X
 -77 Y 36 X 16 Y 36 X -2 Y 35 X -8 Y 36 X -32 Y 36 X -79 Y 36 X 85 Y 36 X 65 Y 36 X -122 Y 35 X 101 Y 36 X -64 Y 36 X 52 Y 72 X 78 Y 36 X -45 Y 35 X s 3 lw 363 74 m 1791 X s 363 85 m -11 Y s 414 79 m -5 Y s 465 79 m -5 Y s 516 79 m -5 Y s 566 85 m
 -11 Y s 617 79 m -5 Y s 668 79 m -5 Y s 719 79 m -5 Y s 770 85 m -11 Y s 821 79 m -5 Y s 872 79 m -5 Y s 923 79 m -5 Y s 974 85 m -11 Y s 1024 79 m -5 Y s 1075 79 m -5 Y s 1126 79 m -5 Y s 1177 85 m -11 Y s 1228 79 m -5 Y s 1279 79 m -5 Y s 1330 79
 m -5 Y s 1381 85 m -11 Y s 1432 79 m -5 Y s 1483 79 m -5 Y s 1533 79 m -5 Y s 1584 85 m -11 Y s 1635 79 m -5 Y s 1686 79 m -5 Y s 1737 79 m -5 Y s 1788 85 m -11 Y s 1839 79 m -5 Y s 1890 79 m -5 Y s 1941 79 m -5 Y s 1991 85 m -11 Y s 1991 85 m -11 Y
 s 2042 79 m -5 Y s 2093 79 m -5 Y s 2144 79 m -5 Y s 363 438 m 1791 X s 363 427 m 11 Y s 414 433 m 5 Y s 465 433 m 5 Y s 516 433 m 5 Y s 566 427 m 11 Y s 617 433 m 5 Y s 668 433 m 5 Y s 719 433 m 5 Y s 770 427 m 11 Y s 821 433 m 5 Y s 872 433 m 5 Y
 s 923 433 m 5 Y s 974 427 m 11 Y s 1024 433 m 5 Y s 1075 433 m 5 Y s 1126 433 m 5 Y s 1177 427 m 11 Y s 1228 433 m 5 Y s 1279 433 m 5 Y s 1330 433 m 5 Y s 1381 427 m 11 Y s 1432 433 m 5 Y s 1483 433 m 5 Y s 1533 433 m 5 Y s 1584 427 m 11 Y s 1635
 433 m 5 Y s 1686 433 m 5 Y s 1737 433 m 5 Y s 1788 427 m 11 Y s 1839 433 m 5 Y s 1890 433 m 5 Y s 1941 433 m 5 Y s 1991 427 m 11 Y s 1991 427 m 11 Y s 2042 433 m 5 Y s 2093 433 m 5 Y s 2144 433 m 5 Y s 363 74 m 364 Y s 417 74 m -54 X s 390 81 m -27
 X s 390 88 m -27 X s 390 96 m -27 X s 390 103 m -27 X s 417 110 m -54 X s 390 118 m -27 X s 390 125 m -27 X s 390 132 m -27 X s 390 139 m -27 X s 417 147 m -54 X s 390 154 m -27 X s 390 161 m -27 X s 390 169 m -27 X s 390 176 m -27 X s 417 183 m -54
 X s 390 190 m -27 X s 390 198 m -27 X s 390 205 m -27 X s 390 212 m -27 X s 417 220 m -54 X s 390 227 m -27 X s 390 234 m -27 X s 390 241 m -27 X s 390 249 m -27 X s 417 256 m -54 X s 390 263 m -27 X s 390 271 m -27 X s 390 278 m -27 X s 390 285 m
 -27 X s 417 293 m -54 X s 390 300 m -27 X s 390 307 m -27 X s 390 314 m -27 X s 390 322 m -27 X s 417 329 m -54 X s 390 336 m -27 X s 390 344 m -27 X s 390 351 m -27 X s 390 358 m -27 X s 417 365 m -54 X s 390 373 m -27 X s 390 380 m -27 X s 390 387
 m -27 X s 390 395 m -27 X s 417 402 m -54 X s 390 409 m -27 X s 390 416 m -27 X s 390 424 m -27 X s 390 431 m -27 X s 417 438 m -54 X s 2154 74 m 364 Y s 2101 74 m 53 X s 2127 81 m 27 X s 2127 88 m 27 X s 2127 96 m 27 X s 2127 103 m 27 X s 2101 110
 m 53 X s 2127 118 m 27 X s 2127 125 m 27 X s 2127 132 m 27 X s 2127 139 m 27 X s 2101 147 m 53 X s 2127 154 m 27 X s 2127 161 m 27 X s 2127 169 m 27 X s 2127 176 m 27 X s 2101 183 m 53 X s 2127 190 m 27 X s 2127 198 m 27 X s 2127 205 m 27 X s 2127
 212 m 27 X s 2101 220 m 53 X s 2127 227 m 27 X s 2127 234 m 27 X s 2127 241 m 27 X s 2127 249 m 27 X s 2101 256 m 53 X s 2127 263 m 27 X s 2127 271 m 27 X s 2127 278 m 27 X s 2127 285 m 27 X s 2101 293 m 53 X s 2127 300 m 27 X s 2127 307 m 27 X s
 2127 314 m 27 X s 2127 322 m 27 X s 2101 329 m 53 X s 2127 336 m 27 X s 2127 344 m 27 X s 2127 351 m 27 X s 2127 358 m 27 X s 2101 365 m 53 X s 2127 373 m 27 X s 2127 380 m 27 X s 2127 387 m 27 X s 2127 395 m 27 X s 2101 402 m 53 X s 2127 409 m 27 X
 s 2127 416 m 27 X s 2127 424 m 27 X s 2127 431 m 27 X s 2101 438 m 53 X s
 gr  gr showpage
end
%%EOF
