%!PS-Adobe-2.0 EPSF-2.0
%%BoundingBox:  0 0 567 384
%%Title: H4l2015_plotfit/gg_mass_signal_1400_H4l_4mu.eps: 
%%Creator: ROOT Version 5.34/10
%%CreationDate: Thu Feb 16 12:42:30 2017
%%EndComments
%%BeginProlog
80 dict begin
/s {stroke} def /l {lineto} def /m {moveto} def /t {translate} def
/r {rotate} def /rl {roll}  def /R {repeat} def
/d {rlineto} def /rm {rmoveto} def /gr {grestore} def /f {eofill} def
/c {setrgbcolor} def /black {0 setgray} def /sd {setdash} def
/cl {closepath} def /sf {scalefont setfont} def /lw {setlinewidth} def
/box {m dup 0 exch d exch 0 d 0 exch neg d cl} def
/NC{systemdict begin initclip end}def/C{NC box clip newpath}def
/bl {box s} def /bf {box f} def /Y { 0 exch d} def /X { 0 d} def 
/K {{pop pop 0 moveto} exch kshow} bind def
/ita {/ang 15 def gsave [1 0 ang dup sin exch cos div 1 0 0] concat} def 
/mp {newpath /y exch def /x exch def} def
/side {[w .77 mul w .23 mul] .385 w mul sd w 0 l currentpoint t -144 r} def
/mr {mp x y w2 0 360 arc} def /m24 {mr s} def /m20 {mr f} def
/mb {mp x y w2 add m w2 neg 0 d 0 w neg d w 0 d 0 w d cl} def
/mt {mp x y w2 add m w2 neg w neg d w 0 d cl} def
/m21 {mb f} def /m25 {mb s} def /m22 {mt f} def /m26{mt s} def
/m23 {mp x y w2 sub m w2 w d w neg 0 d cl f} def
/m27 {mp x y w2 add m w3 neg w2 neg d w3 w2 neg d w3 w2 d cl s} def
/m28 {mp x w2 sub y w2 sub w3 add m w3 0 d  0 w3 neg d w3 0 d 0 w3 d w3 0 d  0 w3 d w3 neg 0 d 0 w3 d w3 neg 0 d 0 w3 neg d w3 neg 0 d cl s } def
/m29 {mp gsave x w2 sub y w2 add w3 sub m currentpoint t 4 {side} repeat cl fill gr} def
/m30 {mp gsave x w2 sub y w2 add w3 sub m currentpoint t 4 {side} repeat cl s gr} def
/m31 {mp x y w2 sub m 0 w d x w2 sub y m w 0 d x w2 sub y w2 add m w w neg d x w2 sub y w2 sub m w w d s} def
/m32 {mp x y w2 sub m w2 w d w neg 0 d cl s} def
/m33 {mp x y w2 add m w3 neg w2 neg d w3 w2 neg d w3 w2 d cl f} def
/m34 {mp x w2 sub y w2 sub w3 add m w3 0 d  0 w3 neg d w3 0 d 0 w3 d w3 0 d  0 w3 d w3 neg 0 d 0 w3 d w3 neg 0 d 0 w3 neg d w3 neg 0 d cl f } def
/m2 {mp x y w2 sub m 0 w d x w2 sub y m w 0 d s} def
/m5 {mp x w2 sub y w2 sub m w w d x w2 sub y w2 add m w w neg d s} def
/reEncode {exch findfont dup length dict begin {1 index /FID eq  {pop pop} {def} ifelse } forall /Encoding exch def currentdict end dup /FontName get exch definefont pop } def [/Times-Bold /Times-Italic /Times-BoldItalic /Helvetica /Helvetica-Oblique
 /Helvetica-Bold /Helvetica-BoldOblique /Courier /Courier-Oblique /Courier-Bold /Courier-BoldOblique /Times-Roman /AvantGarde-Book /AvantGarde-BookOblique /AvantGarde-Demi /AvantGarde-DemiOblique /Bookman-Demi /Bookman-DemiItalic /Bookman-Light
 /Bookman-LightItalic /Helvetica-Narrow /Helvetica-Narrow-Bold /Helvetica-Narrow-BoldOblique /Helvetica-Narrow-Oblique /NewCenturySchlbk-Roman /NewCenturySchlbk-Bold /NewCenturySchlbk-BoldItalic /NewCenturySchlbk-Italic /Palatino-Bold
 /Palatino-BoldItalic /Palatino-Italic /Palatino-Roman ] {ISOLatin1Encoding reEncode } forall
%%EndProlog
%%BeginSetup
%%EndSetup
newpath  gsave  .25 .25 scale  gsave  0 0 t black[  ] 0 sd 3 lw 1 1 1 c 2268 1538 0 0 bf black 1 1 1 c 2222 738 23 784 bf black 1 1 1 c 2222 739 23 15 bf black 1 1 1 c 2268 1077 0 461 bf black 1 1 1 c 1791 850 363 634 bf black 1791 850 363 634 bl 363
 634 m 1791 X s
 gsave  2268 1077 0 461 C 1642.14 498.507 t 0 r /Helvetica findfont 48.9324 sf 0 0 m (4l Invariant Mass \(GeV\)) show NC gr  501 659 m -25 Y s 570 646 m -12 Y s 638 646 m -12 Y s 707 646 m -12 Y s 776 646 m -12 Y s 845 659 m -25 Y s 914 646 m -12 Y s
 983 646 m -12 Y s 1052 646 m -12 Y s 1121 646 m -12 Y s 1190 659 m -25 Y s 1259 646 m -12 Y s 1327 646 m -12 Y s 1396 646 m -12 Y s 1465 646 m -12 Y s 1534 659 m -25 Y s 1603 646 m -12 Y s 1672 646 m -12 Y s 1741 646 m -12 Y s 1810 646 m -12 Y s
 1879 659 m -25 Y s 501 659 m -25 Y s 432 646 m -12 Y s 363 646 m -12 Y s 1879 659 m -25 Y s 1948 646 m -12 Y s 2017 646 m -12 Y s 2085 646 m -12 Y s
 gsave  2268 1077 0 461 C 443.117 586.478 t 0 r /Helvetica findfont 48.9324 sf 0 0 m (1250) show NC gr 
 gsave  2268 1077 0 461 C 788.488 586.478 t 0 r /Helvetica findfont 48.9324 sf 0 0 m (1300) show NC gr 
 gsave  2268 1077 0 461 C 1133.86 586.478 t 0 r /Helvetica findfont 48.9324 sf 0 0 m (1350) show NC gr 
 gsave  2268 1077 0 461 C 1475.97 586.478 t 0 r /Helvetica findfont 48.9324 sf 0 0 m (1400) show NC gr 
 gsave  2268 1077 0 461 C 1821.34 586.478 t 0 r /Helvetica findfont 48.9324 sf 0 0 m (1450) show NC gr  363 1484 m 1791 X s 501 1459 m 25 Y s 570 1471 m 13 Y s 638 1471 m 13 Y s 707 1471 m 13 Y s 776 1471 m 13 Y s 845 1459 m 25 Y s 914 1471 m 13 Y s
 983 1471 m 13 Y s 1052 1471 m 13 Y s 1121 1471 m 13 Y s 1190 1459 m 25 Y s 1259 1471 m 13 Y s 1327 1471 m 13 Y s 1396 1471 m 13 Y s 1465 1471 m 13 Y s 1534 1459 m 25 Y s 1603 1471 m 13 Y s 1672 1471 m 13 Y s 1741 1471 m 13 Y s 1810 1471 m 13 Y s
 1879 1459 m 25 Y s 501 1459 m 25 Y s 432 1471 m 13 Y s 363 1471 m 13 Y s 1879 1459 m 25 Y s 1948 1471 m 13 Y s 2017 1471 m 13 Y s 2085 1471 m 13 Y s 363 634 m 850 Y s
 gsave  2268 1077 0 461 C 120.554 1058.92 t 90 r /Helvetica findfont 48.9324 sf 0 0 m (Events / \( 5.2 GeV \)) show NC gr  390 654 m -27 X s 390 711 m -27 X s 390 751 m -27 X s 390 782 m -27 X s 390 807 m -27 X s 390 829 m -27 X s 390 847 m -27 X s
 390 864 m -27 X s 417 878 m -54 X s
 gsave  2268 1077 0 461 C 342.425 857.634 t 0 r  -55 0 t /Helvetica findfont 48.9324 sf 0 0 m (10) show NC gr  390 975 m -27 X s 390 1031 m -27 X s 390 1071 m -27 X s 390 1103 m -27 X s 390 1128 m -27 X s 390 1149 m -27 X s 390 1168 m -27 X s 390
 1184 m -27 X s 417 1199 m -54 X s
 gsave  2268 1077 0 461 C 322.563 1195.76 t 0 r /Helvetica findfont 32.6216 sf 0 0 m (2) show NC gr 
 gsave  2268 1077 0 461 C 270.432 1176.21 t 0 r /Helvetica findfont 48.9324 sf 0 0 m (10) show NC gr  390 1296 m -27 X s 390 1352 m -27 X s 390 1392 m -27 X s 390 1423 m -27 X s 390 1448 m -27 X s 390 1470 m -27 X s 2154 634 m 850 Y s 2127 654 m 27 X
 s 2127 711 m 27 X s 2127 751 m 27 X s 2127 782 m 27 X s 2127 807 m 27 X s 2127 829 m 27 X s 2127 847 m 27 X s 2127 864 m 27 X s 2101 878 m 53 X s 2127 975 m 27 X s 2127 1031 m 27 X s 2127 1071 m 27 X s 2127 1103 m 27 X s 2127 1128 m 27 X s 2127 1149
 m 27 X s 2127 1168 m 27 X s 2127 1184 m 27 X s 2101 1199 m 53 X s 2127 1296 m 27 X s 2127 1352 m 27 X s 2127 1392 m 27 X s 2127 1423 m 27 X s 2127 1448 m 27 X s 2127 1470 m 27 X s 381 904 m -18 X s 363 904 m cl s 381 904 m 18 X s 399 904 m cl s 381
 904 m 45 Y s 381 949 m cl s 381 904 m -47 Y s 381 857 m cl s 417 988 m -18 X s 399 988 m cl s 417 988 m 17 X s 434 988 m cl s 417 988 m 33 Y s 417 1021 m cl s 417 988 m -33 Y s 417 955 m cl s 452 988 m -18 X s 434 988 m cl s 452 988 m 18 X s 470 988
 m cl s 452 988 m 33 Y s 452 1021 m cl s 452 988 m -33 Y s 452 955 m cl s 488 1017 m -18 X s 470 1017 m cl s 488 1017 m 18 X s 506 1017 m cl s 488 1017 m 29 Y s 488 1046 m cl s 488 1017 m -30 Y s 488 987 m cl s 524 994 m -18 X s 506 994 m cl s 524
 994 m 18 X s 542 994 m cl s 524 994 m 32 Y s 524 1026 m cl s 524 994 m -32 Y s 524 962 m cl s 560 1045 m -18 X s 542 1045 m cl s 560 1045 m 18 X s 578 1045 m cl s 560 1045 m 26 Y s 560 1071 m cl s 560 1045 m -27 Y s 560 1018 m cl s 596 1061 m -18 X
 s 578 1061 m cl s 596 1061 m 18 X s 614 1061 m cl s 596 1061 m 24 Y s 596 1085 m cl s 596 1061 m -25 Y s 596 1036 m cl s 632 1057 m -18 X s 614 1057 m cl s 632 1057 m 17 X s 649 1057 m cl s 632 1057 m 25 Y s 632 1082 m cl s 632 1057 m -25 Y s 632
 1032 m cl s 667 1100 m -18 X s 649 1100 m cl s 667 1100 m 18 X s 685 1100 m cl s 667 1100 m 21 Y s 667 1121 m cl s 667 1100 m -22 Y s 667 1078 m cl s 703 1064 m -18 X s 685 1064 m cl s 703 1064 m 18 X s 721 1064 m cl s 703 1064 m 25 Y s 703 1089 m
 cl s 703 1064 m -24 Y s 703 1040 m cl s 739 1097 m -18 X s 721 1097 m cl s 739 1097 m 18 X s 757 1097 m cl s 739 1097 m 21 Y s 739 1118 m cl s 739 1097 m -22 Y s 739 1075 m cl s 775 1105 m -18 X s 757 1105 m cl s 775 1105 m 18 X s 793 1105 m cl s
 775 1105 m 21 Y s 775 1126 m cl s 775 1105 m -21 Y s 775 1084 m cl s 811 1097 m -18 X s 793 1097 m cl s 811 1097 m 18 X s 829 1097 m cl s 811 1097 m 21 Y s 811 1118 m cl s 811 1097 m -22 Y s 811 1075 m cl s 847 1139 m -18 X s 829 1139 m cl s 847
 1139 m 17 X s 864 1139 m cl s 847 1139 m 18 Y s 847 1157 m cl s 847 1139 m -18 Y s 847 1121 m cl s 882 1061 m -18 X s 864 1061 m cl s 882 1061 m 18 X s 900 1061 m cl s 882 1061 m 24 Y s 882 1085 m cl s 882 1061 m -25 Y s 882 1036 m cl s 918 1153 m
 -18 X s 900 1153 m cl s 918 1153 m 18 X s 936 1153 m cl s 918 1153 m 18 Y s 918 1171 m cl s 918 1153 m -17 Y s 918 1136 m cl s 954 1161 m -18 X s 936 1161 m cl s 954 1161 m 18 X s 972 1161 m cl s 954 1161 m 17 Y s 954 1178 m cl s 954 1161 m -17 Y s
 954 1144 m cl s 990 1195 m -18 X s 972 1195 m cl s 990 1195 m 18 X s 1008 1195 m cl s 990 1195 m 15 Y s 990 1210 m cl s 990 1195 m -15 Y s 990 1180 m cl s 1026 1186 m -18 X s 1008 1186 m cl s 1026 1186 m 18 X s 1044 1186 m cl s 1026 1186 m 15 Y s
 1026 1201 m cl s 1026 1186 m -15 Y s 1026 1171 m cl s 1062 1196 m -18 X s 1044 1196 m cl s 1062 1196 m 17 X s 1079 1196 m cl s 1062 1196 m 15 Y s 1062 1211 m cl s 1062 1196 m -15 Y s 1062 1181 m cl s 1097 1222 m -18 X s 1079 1222 m cl s 1097 1222 m
 18 X s 1115 1222 m cl s 1097 1222 m 13 Y s 1097 1235 m cl s 1097 1222 m -13 Y s 1097 1209 m cl s 1133 1228 m -18 X s 1115 1228 m cl s 1133 1228 m 18 X s 1151 1228 m cl s 1133 1228 m 12 Y s 1133 1240 m cl s 1133 1228 m -13 Y s 1133 1215 m cl s 1169
 1245 m -18 X s 1151 1245 m cl s 1169 1245 m 18 X s 1187 1245 m cl s 1169 1245 m 12 Y s 1169 1257 m cl s 1169 1245 m -12 Y s 1169 1233 m cl s 1205 1275 m -18 X s 1187 1275 m cl s 1205 1275 m 18 X s 1223 1275 m cl s 1205 1275 m 11 Y s 1205 1286 m cl s
 1205 1275 m -10 Y s 1205 1265 m cl s 1241 1283 m -18 X s 1223 1283 m cl s 1241 1283 m 18 X s 1259 1283 m cl s 1241 1283 m 10 Y s 1241 1293 m cl s 1241 1283 m -10 Y s 1241 1273 m cl s 1276 1297 m -17 X s 1259 1297 m cl s 1276 1297 m 18 X s 1294 1297
 m cl s 1276 1297 m 10 Y s 1276 1307 m cl s 1276 1297 m -10 Y s 1276 1287 m cl s 1312 1325 m -18 X s 1294 1325 m cl s 1312 1325 m 18 X s 1330 1325 m cl s 1312 1325 m 9 Y s 1312 1334 m cl s 1312 1325 m -9 Y s 1312 1316 m cl s 1348 1336 m -18 X s 1330
 1336 m cl s 1348 1336 m 18 X s 1366 1336 m cl s 1348 1336 m 8 Y s 1348 1344 m cl s 1348 1336 m -9 Y s 1348 1327 m cl s 1384 1360 m -18 X s 1366 1360 m cl s 1384 1360 m 18 X s 1402 1360 m cl s 1384 1360 m 8 Y s 1384 1368 m cl s 1384 1360 m -8 Y s
 1384 1352 m cl s 1420 1374 m -18 X s 1402 1374 m cl s 1420 1374 m 18 X s 1438 1374 m cl s 1420 1374 m 8 Y s 1420 1382 m cl s 1420 1374 m -7 Y s 1420 1367 m cl s 1456 1388 m -18 X s 1438 1388 m cl s 1456 1388 m 18 X s 1474 1388 m cl s 1456 1388 m 7 Y
 s 1456 1395 m cl s 1456 1388 m -7 Y s 1456 1381 m cl s 1491 1392 m -17 X s 1474 1392 m cl s 1491 1392 m 18 X s 1509 1392 m cl s 1491 1392 m 7 Y s 1491 1399 m cl s 1491 1392 m -7 Y s 1491 1385 m cl s 1527 1407 m -18 X s 1509 1407 m cl s 1527 1407 m
 18 X s 1545 1407 m cl s 1527 1407 m 6 Y s 1527 1413 m cl s 1527 1407 m -7 Y s 1527 1400 m cl s 1563 1394 m -18 X s 1545 1394 m cl s 1563 1394 m 18 X s 1581 1394 m cl s 1563 1394 m 7 Y s 1563 1401 m cl s 1563 1394 m -6 Y s 1563 1388 m cl s 1599 1390
 m -18 X s 1581 1390 m cl s 1599 1390 m 18 X s 1617 1390 m cl s 1599 1390 m 7 Y s 1599 1397 m cl s 1599 1390 m -7 Y s 1599 1383 m cl s 1635 1361 m -18 X s 1617 1361 m cl s 1635 1361 m 18 X s 1653 1361 m cl s 1635 1361 m 8 Y s 1635 1369 m cl s 1635
 1361 m -8 Y s 1635 1353 m cl s 1671 1335 m -18 X s 1653 1335 m cl s 1671 1335 m 18 X s 1689 1335 m cl s 1671 1335 m 9 Y s 1671 1344 m cl s 1671 1335 m -8 Y s 1671 1327 m cl s 1706 1317 m -17 X s 1689 1317 m cl s 1706 1317 m 18 X s 1724 1317 m cl s
 1706 1317 m 9 Y s 1706 1326 m cl s 1706 1317 m -9 Y s 1706 1308 m cl s 1742 1311 m -18 X s 1724 1311 m cl s 1742 1311 m 18 X s 1760 1311 m cl s 1742 1311 m 9 Y s 1742 1320 m cl s 1742 1311 m -10 Y s 1742 1301 m cl s 1778 1268 m -18 X s 1760 1268 m
 cl s 1778 1268 m 18 X s 1796 1268 m cl s 1778 1268 m 11 Y s 1778 1279 m cl s 1778 1268 m -11 Y s 1778 1257 m cl s 1814 1242 m -18 X s 1796 1242 m cl s 1814 1242 m 18 X s 1832 1242 m cl s 1814 1242 m 12 Y s 1814 1254 m cl s 1814 1242 m -12 Y s 1814
 1230 m cl s 1850 1206 m -18 X s 1832 1206 m cl s 1850 1206 m 18 X s 1868 1206 m cl s 1850 1206 m 13 Y s 1850 1219 m cl s 1850 1206 m -14 Y s 1850 1192 m cl s 1886 1173 m -18 X s 1868 1173 m cl s 1886 1173 m 18 X s 1904 1173 m cl s 1886 1173 m 16 Y s
 1886 1189 m cl s 1886 1173 m -16 Y s 1886 1157 m cl s 1921 1173 m -17 X s 1904 1173 m cl s 1921 1173 m 18 X s 1939 1173 m cl s 1921 1173 m 16 Y s 1921 1189 m cl s 1921 1173 m -16 Y s 1921 1157 m cl s 1957 1100 m -18 X s 1939 1100 m cl s 1957 1100 m
 18 X s 1975 1100 m cl s 1957 1100 m 21 Y s 1957 1121 m cl s 1957 1100 m -22 Y s 1957 1078 m cl s 1993 1116 m -18 X s 1975 1116 m cl s 1993 1116 m 18 X s 2011 1116 m cl s 1993 1116 m 20 Y s 1993 1136 m cl s 1993 1116 m -20 Y s 1993 1096 m cl s 2029
 1061 m -18 X s 2011 1061 m cl s 2029 1061 m 18 X s 2047 1061 m cl s 2029 1061 m 24 Y s 2029 1085 m cl s 2029 1061 m -25 Y s 2029 1036 m cl s 2065 1053 m -18 X s 2047 1053 m cl s 2065 1053 m 18 X s 2083 1053 m cl s 2065 1053 m 25 Y s 2065 1078 m cl s
 2065 1053 m -26 Y s 2065 1027 m cl s 2101 1006 m -18 X s 2083 1006 m cl s 2101 1006 m 18 X s 2119 1006 m cl s 2101 1006 m 30 Y s 2101 1036 m cl s 2101 1006 m -31 Y s 2101 975 m cl s 2136 1027 m -17 X s 2119 1027 m cl s 2136 1027 m 18 X s 2154 1027 m
 cl s 2136 1027 m 28 Y s 2136 1055 m cl s 2136 1027 m -29 Y s 2136 998 m cl s /w 31 def /w2 {w 2 div} def /w3 {w 3 div} def 381 904 417 988 452 988 488 1017 524 994 560 1045 596 1061 632 1057 667 1100 703 1064 739 1097 775 1105 811 1097 847 1139 882
 1061 918 1153 954 1161 990 1195 1026 1186 1062 1196 1097 1222 1133 1228 1169 1245 1205 1275 1241 1283 1276 1297 1312 1325 1348 1336 1384 1360 1420 1374 1456 1388 1491 1392 1527 1407 1563 1394 1599 1390 1635 1361 1671 1335 1706 1317 1742 1311 1778
 1268 1814 1242 1850 1206 1886 1173 1921 1173 1957 1100 1993 1116 2029 1061 2065 1053 2101 1006 2136 1027 50 { m20} R 0 1 1 c 1 1 0 c black 1 1 0 c 363 1001 m 36 8 d 35 9 d 36 8 d 36 9 d 36 9 d 36 9 d 36 9 d 35 10 d 36 10 d 36 9 d 36 11 d 36 10 d 36
 11 d 35 11 d 36 12 d 36 12 d 36 12 d 36 13 d 36 14 d 35 15 d 36 15 d 36 17 d 18 9 d 18 10 d 18 10 d 18 10 d 18 11 d 18 11 d 17 11 d 18 10 d 18 10 d 18 9 d 36 16 d 36 19 d 18 11 d 18 11 d 9 4 d 9 4 d 9 4 d 9 2 d 9 3 d 8 1 d 9 1 d 9 X 9 -1 d 9 -1 d 9
 -2 d 9 -3 d 9 -3 d 9 -4 d 9 -4 d 9 -5 d 18 -11 d 18 -12 d 36 -15 d 18 -8 d 18 -8 d 17 -9 d 18 -10 d 18 -11 d 18 -12 d 18 -12 d 18 -12 d 18 -13 d 18 -13 d 36 -27 d 36 -28 d 35 -29 d 36 -30 d 36 -31 d 36 -32 d 36 -34 d 36 -36 d 35 -39 d -66 Y -35 49 d
 -36 46 d -36 43 d -36 40 d -36 36 d -36 32 d -35 28 d -36 24 d -36 22 d -18 11 d -18 10 d -18 11 d -18 11 d -18 11 d -18 13 d -18 12 d -17 14 d -18 14 d -18 15 d -36 23 d -18 5 d -18 2 d -9 1 d -9 1 d -89 X -9 -1 d -9 X -9 -1 d -9 X -18 -2 d -18 -4
 d -36 -18 d -36 -28 d -18 -14 d -18 -13 d -18 -13 d -17 -11 d -18 -11 d -18 -9 d -18 -8 d -18 -8 d -18 -7 d -18 -7 d -36 -13 d -36 -13 d -35 -12 d -36 -12 d -36 -13 d -36 -12 d -36 -12 d -36 -13 d -35 -12 d -36 -12 d -36 -11 d -36 -12 d -36 -11 d
 -36 -11 d -35 -11 d -36 -11 d -36 -10 d -36 -10 d -36 -10 d -36 -10 d -35 -10 d -36 -9 d f 0 1 1 c 0 1 0 c black 0 1 0 c 363 993 m 36 9 d 35 9 d 36 9 d 36 9 d 36 9 d 36 9 d 36 10 d 35 10 d 36 10 d 36 10 d 36 10 d 36 11 d 36 11 d 35 11 d 36 12 d 36
 12 d 36 13 d 36 13 d 36 13 d 35 14 d 36 15 d 36 16 d 18 9 d 18 9 d 18 9 d 18 10 d 18 11 d 18 11 d 17 11 d 18 11 d 18 10 d 18 10 d 36 18 d 36 20 d 18 9 d 18 9 d 9 4 d 9 3 d 9 3 d 9 2 d 9 1 d 8 2 d 27 X 9 -1 d 9 -2 d 9 -2 d 9 -3 d 9 -3 d 9 -3 d 9 -4 d
 18 -9 d 18 -10 d 36 -18 d 18 -8 d 18 -10 d 17 -10 d 18 -11 d 18 -11 d 18 -11 d 18 -12 d 18 -12 d 18 -12 d 18 -13 d 36 -26 d 36 -28 d 35 -28 d 36 -31 d 36 -31 d 36 -34 d 36 -36 d 36 -38 d 35 -40 d -34 Y -35 46 d -36 43 d -36 40 d -36 38 d -36 34 d
 -36 32 d -35 28 d -36 25 d -36 24 d -18 11 d -18 11 d -18 11 d -18 11 d -18 12 d -18 12 d -18 12 d -17 13 d -18 12 d -18 13 d -36 20 d -18 7 d -18 5 d -9 2 d -9 2 d -9 1 d -9 2 d -9 X -9 1 d -9 1 d -18 X -9 -1 d -8 X -9 -1 d -9 -1 d -9 -2 d -9 -1 d
 -9 -2 d -18 -5 d -18 -6 d -36 -18 d -36 -24 d -18 -13 d -18 -12 d -18 -12 d -17 -12 d -18 -10 d -18 -10 d -18 -9 d -18 -8 d -18 -8 d -18 -7 d -36 -14 d -36 -14 d -35 -13 d -36 -13 d -36 -12 d -36 -13 d -36 -12 d -36 -12 d -35 -12 d -36 -11 d -36 -12
 d -36 -11 d -36 -11 d -36 -10 d -35 -11 d -36 -10 d -36 -10 d -36 -10 d -36 -10 d -36 -9 d -35 -9 d -36 -10 d f 0 0 1 c 9 lw black 0 0 1 c 363 986 m 36 8 d 35 9 d 36 10 d 36 9 d 36 9 d 36 10 d 36 10 d 35 10 d 36 11 d 36 10 d 36 11 d 36 11 d 36 11 d
 35 12 d 36 12 d 36 12 d 36 12 d 36 13 d 36 13 d 35 14 d 36 14 d 36 15 d 18 8 d 18 9 d 18 9 d 18 9 d 18 10 d 18 11 d 17 11 d 18 11 d 18 12 d 18 11 d 36 21 d 36 19 d 18 8 d 18 7 d 9 2 d 9 3 d 9 2 d 9 2 d 9 1 d 8 1 d 27 X 9 -1 d 9 -1 d 9 -1 d 9 -2 d 9
 -3 d 9 -2 d 9 -3 d 18 -7 d 18 -9 d 36 -19 d 18 -11 d 18 -11 d 17 -11 d 18 -11 d 18 -12 d 18 -11 d 18 -12 d 18 -11 d 18 -12 d 18 -12 d 36 -25 d 36 -26 d 35 -29 d 36 -30 d 36 -34 d 36 -35 d 36 -38 d 36 -40 d 35 -43 d s black 3 lw 381 904 m -18 X s 363
 904 m cl s 381 904 m 18 X s 399 904 m cl s 381 904 m 45 Y s 381 949 m cl s 381 904 m -47 Y s 381 857 m cl s 417 988 m -18 X s 399 988 m cl s 417 988 m 17 X s 434 988 m cl s 417 988 m 33 Y s 417 1021 m cl s 417 988 m -33 Y s 417 955 m cl s 452 988 m
 -18 X s 434 988 m cl s 452 988 m 18 X s 470 988 m cl s 452 988 m 33 Y s 452 1021 m cl s 452 988 m -33 Y s 452 955 m cl s 488 1017 m -18 X s 470 1017 m cl s 488 1017 m 18 X s 506 1017 m cl s 488 1017 m 29 Y s 488 1046 m cl s 488 1017 m -30 Y s 488
 987 m cl s 524 994 m -18 X s 506 994 m cl s 524 994 m 18 X s 542 994 m cl s 524 994 m 32 Y s 524 1026 m cl s 524 994 m -32 Y s 524 962 m cl s 560 1045 m -18 X s 542 1045 m cl s 560 1045 m 18 X s 578 1045 m cl s 560 1045 m 26 Y s 560 1071 m cl s 560
 1045 m -27 Y s 560 1018 m cl s 596 1061 m -18 X s 578 1061 m cl s 596 1061 m 18 X s 614 1061 m cl s 596 1061 m 24 Y s 596 1085 m cl s 596 1061 m -25 Y s 596 1036 m cl s 632 1057 m -18 X s 614 1057 m cl s 632 1057 m 17 X s 649 1057 m cl s 632 1057 m
 25 Y s 632 1082 m cl s 632 1057 m -25 Y s 632 1032 m cl s 667 1100 m -18 X s 649 1100 m cl s 667 1100 m 18 X s 685 1100 m cl s 667 1100 m 21 Y s 667 1121 m cl s 667 1100 m -22 Y s 667 1078 m cl s 703 1064 m -18 X s 685 1064 m cl s 703 1064 m 18 X s
 721 1064 m cl s 703 1064 m 25 Y s 703 1089 m cl s 703 1064 m -24 Y s 703 1040 m cl s 739 1097 m -18 X s 721 1097 m cl s 739 1097 m 18 X s 757 1097 m cl s 739 1097 m 21 Y s 739 1118 m cl s 739 1097 m -22 Y s 739 1075 m cl s 775 1105 m -18 X s 757
 1105 m cl s 775 1105 m 18 X s 793 1105 m cl s 775 1105 m 21 Y s 775 1126 m cl s 775 1105 m -21 Y s 775 1084 m cl s 811 1097 m -18 X s 793 1097 m cl s 811 1097 m 18 X s 829 1097 m cl s 811 1097 m 21 Y s 811 1118 m cl s 811 1097 m -22 Y s 811 1075 m
 cl s 847 1139 m -18 X s 829 1139 m cl s 847 1139 m 17 X s 864 1139 m cl s 847 1139 m 18 Y s 847 1157 m cl s 847 1139 m -18 Y s 847 1121 m cl s 882 1061 m -18 X s 864 1061 m cl s 882 1061 m 18 X s 900 1061 m cl s 882 1061 m 24 Y s 882 1085 m cl s 882
 1061 m -25 Y s 882 1036 m cl s 918 1153 m -18 X s 900 1153 m cl s 918 1153 m 18 X s 936 1153 m cl s 918 1153 m 18 Y s 918 1171 m cl s 918 1153 m -17 Y s 918 1136 m cl s 954 1161 m -18 X s 936 1161 m cl s 954 1161 m 18 X s 972 1161 m cl s 954 1161 m
 17 Y s 954 1178 m cl s 954 1161 m -17 Y s 954 1144 m cl s 990 1195 m -18 X s 972 1195 m cl s 990 1195 m 18 X s 1008 1195 m cl s 990 1195 m 15 Y s 990 1210 m cl s 990 1195 m -15 Y s 990 1180 m cl s 1026 1186 m -18 X s 1008 1186 m cl s 1026 1186 m 18
 X s 1044 1186 m cl s 1026 1186 m 15 Y s 1026 1201 m cl s 1026 1186 m -15 Y s 1026 1171 m cl s 1062 1196 m -18 X s 1044 1196 m cl s 1062 1196 m 17 X s 1079 1196 m cl s 1062 1196 m 15 Y s 1062 1211 m cl s 1062 1196 m -15 Y s 1062 1181 m cl s 1097 1222
 m -18 X s 1079 1222 m cl s 1097 1222 m 18 X s 1115 1222 m cl s 1097 1222 m 13 Y s 1097 1235 m cl s 1097 1222 m -13 Y s 1097 1209 m cl s 1133 1228 m -18 X s 1115 1228 m cl s 1133 1228 m 18 X s 1151 1228 m cl s 1133 1228 m 12 Y s 1133 1240 m cl s 1133
 1228 m -13 Y s 1133 1215 m cl s 1169 1245 m -18 X s 1151 1245 m cl s 1169 1245 m 18 X s 1187 1245 m cl s 1169 1245 m 12 Y s 1169 1257 m cl s 1169 1245 m -12 Y s 1169 1233 m cl s 1205 1275 m -18 X s 1187 1275 m cl s 1205 1275 m 18 X s 1223 1275 m cl
 s 1205 1275 m 11 Y s 1205 1286 m cl s 1205 1275 m -10 Y s 1205 1265 m cl s 1241 1283 m -18 X s 1223 1283 m cl s 1241 1283 m 18 X s 1259 1283 m cl s 1241 1283 m 10 Y s 1241 1293 m cl s 1241 1283 m -10 Y s 1241 1273 m cl s 1276 1297 m -17 X s 1259
 1297 m cl s 1276 1297 m 18 X s 1294 1297 m cl s 1276 1297 m 10 Y s 1276 1307 m cl s 1276 1297 m -10 Y s 1276 1287 m cl s 1312 1325 m -18 X s 1294 1325 m cl s 1312 1325 m 18 X s 1330 1325 m cl s 1312 1325 m 9 Y s 1312 1334 m cl s 1312 1325 m -9 Y s
 1312 1316 m cl s 1348 1336 m -18 X s 1330 1336 m cl s 1348 1336 m 18 X s 1366 1336 m cl s 1348 1336 m 8 Y s 1348 1344 m cl s 1348 1336 m -9 Y s 1348 1327 m cl s 1384 1360 m -18 X s 1366 1360 m cl s 1384 1360 m 18 X s 1402 1360 m cl s 1384 1360 m 8 Y
 s 1384 1368 m cl s 1384 1360 m -8 Y s 1384 1352 m cl s 1420 1374 m -18 X s 1402 1374 m cl s 1420 1374 m 18 X s 1438 1374 m cl s 1420 1374 m 8 Y s 1420 1382 m cl s 1420 1374 m -7 Y s 1420 1367 m cl s 1456 1388 m -18 X s 1438 1388 m cl s 1456 1388 m
 18 X s 1474 1388 m cl s 1456 1388 m 7 Y s 1456 1395 m cl s 1456 1388 m -7 Y s 1456 1381 m cl s 1491 1392 m -17 X s 1474 1392 m cl s 1491 1392 m 18 X s 1509 1392 m cl s 1491 1392 m 7 Y s 1491 1399 m cl s 1491 1392 m -7 Y s 1491 1385 m cl s 1527 1407
 m -18 X s 1509 1407 m cl s 1527 1407 m 18 X s 1545 1407 m cl s 1527 1407 m 6 Y s 1527 1413 m cl s 1527 1407 m -7 Y s 1527 1400 m cl s 1563 1394 m -18 X s 1545 1394 m cl s 1563 1394 m 18 X s 1581 1394 m cl s 1563 1394 m 7 Y s 1563 1401 m cl s 1563
 1394 m -6 Y s 1563 1388 m cl s 1599 1390 m -18 X s 1581 1390 m cl s 1599 1390 m 18 X s 1617 1390 m cl s 1599 1390 m 7 Y s 1599 1397 m cl s 1599 1390 m -7 Y s 1599 1383 m cl s 1635 1361 m -18 X s 1617 1361 m cl s 1635 1361 m 18 X s 1653 1361 m cl s
 1635 1361 m 8 Y s 1635 1369 m cl s 1635 1361 m -8 Y s 1635 1353 m cl s 1671 1335 m -18 X s 1653 1335 m cl s 1671 1335 m 18 X s 1689 1335 m cl s 1671 1335 m 9 Y s 1671 1344 m cl s 1671 1335 m -8 Y s 1671 1327 m cl s 1706 1317 m -17 X s 1689 1317 m cl
 s 1706 1317 m 18 X s 1724 1317 m cl s 1706 1317 m 9 Y s 1706 1326 m cl s 1706 1317 m -9 Y s 1706 1308 m cl s 1742 1311 m -18 X s 1724 1311 m cl s 1742 1311 m 18 X s 1760 1311 m cl s 1742 1311 m 9 Y s 1742 1320 m cl s 1742 1311 m -10 Y s 1742 1301 m
 cl s 1778 1268 m -18 X s 1760 1268 m cl s 1778 1268 m 18 X s 1796 1268 m cl s 1778 1268 m 11 Y s 1778 1279 m cl s 1778 1268 m -11 Y s 1778 1257 m cl s 1814 1242 m -18 X s 1796 1242 m cl s 1814 1242 m 18 X s 1832 1242 m cl s 1814 1242 m 12 Y s 1814
 1254 m cl s 1814 1242 m -12 Y s 1814 1230 m cl s 1850 1206 m -18 X s 1832 1206 m cl s 1850 1206 m 18 X s 1868 1206 m cl s 1850 1206 m 13 Y s 1850 1219 m cl s 1850 1206 m -14 Y s 1850 1192 m cl s 1886 1173 m -18 X s 1868 1173 m cl s 1886 1173 m 18 X
 s 1904 1173 m cl s 1886 1173 m 16 Y s 1886 1189 m cl s 1886 1173 m -16 Y s 1886 1157 m cl s 1921 1173 m -17 X s 1904 1173 m cl s 1921 1173 m 18 X s 1939 1173 m cl s 1921 1173 m 16 Y s 1921 1189 m cl s 1921 1173 m -16 Y s 1921 1157 m cl s 1957 1100 m
 -18 X s 1939 1100 m cl s 1957 1100 m 18 X s 1975 1100 m cl s 1957 1100 m 21 Y s 1957 1121 m cl s 1957 1100 m -22 Y s 1957 1078 m cl s 1993 1116 m -18 X s 1975 1116 m cl s 1993 1116 m 18 X s 2011 1116 m cl s 1993 1116 m 20 Y s 1993 1136 m cl s 1993
 1116 m -20 Y s 1993 1096 m cl s 2029 1061 m -18 X s 2011 1061 m cl s 2029 1061 m 18 X s 2047 1061 m cl s 2029 1061 m 24 Y s 2029 1085 m cl s 2029 1061 m -25 Y s 2029 1036 m cl s 2065 1053 m -18 X s 2047 1053 m cl s 2065 1053 m 18 X s 2083 1053 m cl
 s 2065 1053 m 25 Y s 2065 1078 m cl s 2065 1053 m -26 Y s 2065 1027 m cl s 2101 1006 m -18 X s 2083 1006 m cl s 2101 1006 m 18 X s 2119 1006 m cl s 2101 1006 m 30 Y s 2101 1036 m cl s 2101 1006 m -31 Y s 2101 975 m cl s 2136 1027 m -17 X s 2119 1027
 m cl s 2136 1027 m 18 X s 2154 1027 m cl s 2136 1027 m 28 Y s 2136 1055 m cl s 2136 1027 m -29 Y s 2136 998 m cl s 381 904 417 988 452 988 488 1017 524 994 560 1045 596 1061 632 1057 667 1100 703 1064 739 1097 775 1105 811 1097 847 1139 882 1061 918
 1153 954 1161 990 1195 1026 1186 1062 1196 1097 1222 1133 1228 1169 1245 1205 1275 1241 1283 1276 1297 1312 1325 1348 1336 1384 1360 1420 1374 1456 1388 1491 1392 1527 1407 1563 1394 1599 1390 1635 1361 1671 1335 1706 1317 1742 1311 1778 1268 1814
 1242 1850 1206 1886 1173 1921 1173 1957 1100 1993 1116 2029 1061 2065 1053 2101 1006 2136 1027 50 { m20} R 0.52 0.76 0.64 c[ 4 8] 0 sd 9 lw black 0.52 0.76 0.64 c 363 986 m 36 8 d 35 9 d 36 10 d 36 9 d 36 9 d 36 10 d 36 10 d 35 10 d 36 11 d 36 10 d
 36 11 d 36 11 d 36 11 d 35 12 d 36 12 d 36 12 d 36 12 d 36 13 d 36 13 d 35 14 d 36 14 d 36 14 d 36 15 d 18 7 d 18 8 d 18 8 d 18 7 d 35 16 d 36 13 d 18 6 d 18 5 d 18 4 d 18 4 d 18 3 d 18 3 d 18 2 d 18 2 d 17 X 18 1 d 18 -1 d 18 -1 d 18 -1 d 18 -3 d
 18 -3 d 18 -3 d 18 -4 d 18 -5 d 18 -5 d 18 -6 d 35 -13 d 36 -16 d 36 -19 d 36 -21 d 36 -23 d 36 -26 d 35 -28 d 18 -15 d 18 -16 d 18 -16 d 18 -17 d 36 -35 d 36 -38 d 36 -40 d 35 -43 d s 0.54 0.66 0.63 c black 0.54 0.66 0.63 c 1164 634 m 5 17 d s 1169
 651 m 18 64 d 18 59 d 18 56 d 18 53 d 18 50 d 9 23 d 8 22 d 9 22 d 9 21 d 9 20 d 9 19 d 9 18 d 9 17 d 9 17 d 9 16 d 18 28 d 18 26 d 18 21 d 18 19 d 9 8 d 9 7 d 9 6 d 9 5 d 9 5 d 9 3 d 9 3 d 8 2 d 9 1 d 9 X 9 -1 d 9 -1 d 9 -3 d 9 -3 d 9 -4 d 9 -5 d 9
 -6 d 9 -7 d 9 -7 d 9 -9 d 18 -19 d 18 -23 d 18 -26 d 9 -15 d 9 -15 d 9 -16 d 9 -17 d 8 -18 d 9 -19 d 9 -20 d 9 -20 d 9 -21 d 9 -23 d 9 -23 d 9 -24 d 18 -50 d 18 -54 d 18 -57 d 18 -61 d 17 -61 d s black[  ] 0 sd 3 lw 363 634 m 1791 X s 501 659 m -25
 Y s 570 646 m -12 Y s 638 646 m -12 Y s 707 646 m -12 Y s 776 646 m -12 Y s 845 659 m -25 Y s 914 646 m -12 Y s 983 646 m -12 Y s 1052 646 m -12 Y s 1121 646 m -12 Y s 1190 659 m -25 Y s 1259 646 m -12 Y s 1327 646 m -12 Y s 1396 646 m -12 Y s 1465
 646 m -12 Y s 1534 659 m -25 Y s 1603 646 m -12 Y s 1672 646 m -12 Y s 1741 646 m -12 Y s 1810 646 m -12 Y s 1879 659 m -25 Y s 501 659 m -25 Y s 432 646 m -12 Y s 363 646 m -12 Y s 1879 659 m -25 Y s 1948 646 m -12 Y s 2017 646 m -12 Y s 2085 646 m
 -12 Y s 363 1484 m 1791 X s 501 1459 m 25 Y s 570 1471 m 13 Y s 638 1471 m 13 Y s 707 1471 m 13 Y s 776 1471 m 13 Y s 845 1459 m 25 Y s 914 1471 m 13 Y s 983 1471 m 13 Y s 1052 1471 m 13 Y s 1121 1471 m 13 Y s 1190 1459 m 25 Y s 1259 1471 m 13 Y s
 1327 1471 m 13 Y s 1396 1471 m 13 Y s 1465 1471 m 13 Y s 1534 1459 m 25 Y s 1603 1471 m 13 Y s 1672 1471 m 13 Y s 1741 1471 m 13 Y s 1810 1471 m 13 Y s 1879 1459 m 25 Y s 501 1459 m 25 Y s 432 1471 m 13 Y s 363 1471 m 13 Y s 1879 1459 m 25 Y s 1948
 1471 m 13 Y s 2017 1471 m 13 Y s 2085 1471 m 13 Y s 363 634 m 850 Y s 390 654 m -27 X s 390 711 m -27 X s 390 751 m -27 X s 390 782 m -27 X s 390 807 m -27 X s 390 829 m -27 X s 390 847 m -27 X s 390 864 m -27 X s 417 878 m -54 X s 390 975 m -27 X s
 390 1031 m -27 X s 390 1071 m -27 X s 390 1103 m -27 X s 390 1128 m -27 X s 390 1149 m -27 X s 390 1168 m -27 X s 390 1184 m -27 X s 417 1199 m -54 X s 390 1296 m -27 X s 390 1352 m -27 X s 390 1392 m -27 X s 390 1423 m -27 X s 390 1448 m -27 X s
 390 1470 m -27 X s 2154 634 m 850 Y s 2127 654 m 27 X s 2127 711 m 27 X s 2127 751 m 27 X s 2127 782 m 27 X s 2127 807 m 27 X s 2127 829 m 27 X s 2127 847 m 27 X s 2127 864 m 27 X s 2101 878 m 53 X s 2127 975 m 27 X s 2127 1031 m 27 X s 2127 1071 m
 27 X s 2127 1103 m 27 X s 2127 1128 m 27 X s 2127 1149 m 27 X s 2127 1168 m 27 X s 2127 1184 m 27 X s 2101 1199 m 53 X s 2127 1296 m 27 X s 2127 1352 m 27 X s 2127 1392 m 27 X s 2127 1423 m 27 X s 2127 1448 m 27 X s 2127 1470 m 27 X s
 gsave  2268 1077 0 461 C 677.708 1215.31 t 0 r /Helvetica findfont 58.7189 sf 0 0 m (4mu) show NC gr  1 1 1 c 453 161 454 1269 bf black
 gsave  2268 1077 0 461 C 566.929 1371.71 t 0 r /Helvetica-Bold findfont 48.9324 sf 0 0 m (MC15) show NC gr  510 1390 m20
 gsave  2268 1077 0 461 C 566.929 1293.51 t 0 r /Helvetica-Bold findfont 48.9324 sf 0 0 m (Projection of Signal pdf) show NC gr  0 0 1 c 9 lw 471 1309 m 79 X s black 3 lw 1 1 1 c 2268 461 0 0 bf black 1 1 1 c 1791 364 363 74 bf black 1791 364 363 74
 bl 363 74 m 1791 X s
 gsave  2268 461 0 0 C 1915.83 13.0329 t 0 r /Helvetica findfont 22.9045 sf 0 0 m (4l Invariant Mass \(GeV\)) show NC gr  501 85 m -11 Y s 570 79 m -5 Y s 638 79 m -5 Y s 707 79 m -5 Y s 776 79 m -5 Y s 845 85 m -11 Y s 914 79 m -5 Y s 983 79 m -5 Y
 s 1052 79 m -5 Y s 1121 79 m -5 Y s 1190 85 m -11 Y s 1259 79 m -5 Y s 1327 79 m -5 Y s 1396 79 m -5 Y s 1465 79 m -5 Y s 1534 85 m -11 Y s 1603 79 m -5 Y s 1672 79 m -5 Y s 1741 79 m -5 Y s 1810 79 m -5 Y s 1879 85 m -11 Y s 501 85 m -11 Y s 432 79
 m -5 Y s 363 79 m -5 Y s 1879 85 m -11 Y s 1948 79 m -5 Y s 2017 79 m -5 Y s 2085 79 m -5 Y s
 gsave  2268 461 0 0 C 472.441 55.3896 t 0 r /Helvetica findfont 22.9045 sf 0 0 m (1250) show NC gr 
 gsave  2268 461 0 0 C 817.812 55.3896 t 0 r /Helvetica findfont 22.9045 sf 0 0 m (1300) show NC gr 
 gsave  2268 461 0 0 C 1163.18 55.3896 t 0 r /Helvetica findfont 22.9045 sf 0 0 m (1350) show NC gr 
 gsave  2268 461 0 0 C 1505.29 55.3896 t 0 r /Helvetica findfont 22.9045 sf 0 0 m (1400) show NC gr 
 gsave  2268 461 0 0 C 1850.67 55.3896 t 0 r /Helvetica findfont 22.9045 sf 0 0 m (1450) show NC gr  363 438 m 1791 X s 501 427 m 11 Y s 570 433 m 5 Y s 638 433 m 5 Y s 707 433 m 5 Y s 776 433 m 5 Y s 845 427 m 11 Y s 914 433 m 5 Y s 983 433 m 5 Y s
 1052 433 m 5 Y s 1121 433 m 5 Y s 1190 427 m 11 Y s 1259 433 m 5 Y s 1327 433 m 5 Y s 1396 433 m 5 Y s 1465 433 m 5 Y s 1534 427 m 11 Y s 1603 433 m 5 Y s 1672 433 m 5 Y s 1741 433 m 5 Y s 1810 433 m 5 Y s 1879 427 m 11 Y s 501 427 m 11 Y s 432 433
 m 5 Y s 363 433 m 5 Y s 1879 427 m 11 Y s 1948 433 m 5 Y s 2017 433 m 5 Y s 2085 433 m 5 Y s 363 74 m 364 Y s 417 74 m -54 X s 390 81 m -27 X s 390 88 m -27 X s 390 96 m -27 X s 390 103 m -27 X s 417 110 m -54 X s 390 118 m -27 X s 390 125 m -27 X s
 390 132 m -27 X s 390 139 m -27 X s 417 147 m -54 X s 390 154 m -27 X s 390 161 m -27 X s 390 169 m -27 X s 390 176 m -27 X s 417 183 m -54 X s 390 190 m -27 X s 390 198 m -27 X s 390 205 m -27 X s 390 212 m -27 X s 417 220 m -54 X s 390 227 m -27 X
 s 390 234 m -27 X s 390 241 m -27 X s 390 249 m -27 X s 417 256 m -54 X s 390 263 m -27 X s 390 271 m -27 X s 390 278 m -27 X s 390 285 m -27 X s 417 293 m -54 X s 390 300 m -27 X s 390 307 m -27 X s 390 314 m -27 X s 390 322 m -27 X s 417 329 m -54
 X s 390 336 m -27 X s 390 344 m -27 X s 390 351 m -27 X s 390 358 m -27 X s 417 365 m -54 X s 390 373 m -27 X s 390 380 m -27 X s 390 387 m -27 X s 390 395 m -27 X s 417 402 m -54 X s 390 409 m -27 X s 390 416 m -27 X s 390 424 m -27 X s 390 431 m
 -27 X s 417 438 m -54 X s
 gsave  2268 461 0 0 C 329.08 65.1643 t 0 r /Helvetica findfont 22.9045 sf 0 0 m (\2555) show NC gr 
 gsave  2268 461 0 0 C 329.08 101.005 t 0 r /Helvetica findfont 22.9045 sf 0 0 m (\2554) show NC gr 
 gsave  2268 461 0 0 C 329.08 140.103 t 0 r /Helvetica findfont 22.9045 sf 0 0 m (\2553) show NC gr 
 gsave  2268 461 0 0 C 329.08 175.944 t 0 r /Helvetica findfont 22.9045 sf 0 0 m (\2552) show NC gr 
 gsave  2268 461 0 0 C 332.338 211.784 t 0 r /Helvetica findfont 22.9045 sf 0 0 m (\2551) show NC gr 
 gsave  2268 461 0 0 C 335.596 247.624 t 0 r /Helvetica findfont 22.9045 sf 0 0 m (0) show NC gr 
 gsave  2268 461 0 0 C 338.854 283.465 t 0 r /Helvetica findfont 22.9045 sf 0 0 m (1) show NC gr 
 gsave  2268 461 0 0 C 335.596 319.305 t 0 r /Helvetica findfont 22.9045 sf 0 0 m (2) show NC gr 
 gsave  2268 461 0 0 C 335.596 358.403 t 0 r /Helvetica findfont 22.9045 sf 0 0 m (3) show NC gr 
 gsave  2268 461 0 0 C 335.596 394.244 t 0 r /Helvetica findfont 22.9045 sf 0 0 m (4) show NC gr 
 gsave  2268 461 0 0 C 335.596 430.084 t 0 r /Helvetica findfont 22.9045 sf 0 0 m (5) show NC gr  2154 74 m 364 Y s 2101 74 m 53 X s 2127 81 m 27 X s 2127 88 m 27 X s 2127 96 m 27 X s 2127 103 m 27 X s 2101 110 m 53 X s 2127 118 m 27 X s 2127 125 m
 27 X s 2127 132 m 27 X s 2127 139 m 27 X s 2101 147 m 53 X s 2127 154 m 27 X s 2127 161 m 27 X s 2127 169 m 27 X s 2127 176 m 27 X s 2101 183 m 53 X s 2127 190 m 27 X s 2127 198 m 27 X s 2127 205 m 27 X s 2127 212 m 27 X s 2101 220 m 53 X s 2127 227
 m 27 X s 2127 234 m 27 X s 2127 241 m 27 X s 2127 249 m 27 X s 2101 256 m 53 X s 2127 263 m 27 X s 2127 271 m 27 X s 2127 278 m 27 X s 2127 285 m 27 X s 2101 293 m 53 X s 2127 300 m 27 X s 2127 307 m 27 X s 2127 314 m 27 X s 2127 322 m 27 X s 2101
 329 m 53 X s 2127 336 m 27 X s 2127 344 m 27 X s 2127 351 m 27 X s 2127 358 m 27 X s 2101 365 m 53 X s 2127 373 m 27 X s 2127 380 m 27 X s 2127 387 m 27 X s 2127 395 m 27 X s 2101 402 m 53 X s 2127 409 m 27 X s 2127 416 m 27 X s 2127 424 m 27 X s
 2127 431 m 27 X s 2101 438 m 53 X s 6 lw 0.2 0.8 0.2 c black 3 lw 0.2 0.8 0.2 c 363 256 m -82 Y 36 X 71 Y 35 X -10 Y 36 X 20 Y 36 X -36 Y 36 X 49 Y 36 X 10 Y 36 X -21 Y 35 X 53 Y 36 X -72 Y 36 X 34 Y 36 X -4 Y 36 X -33 Y 36 X 56 Y 35 X -164 Y 36 X
 147 Y 36 X -10 Y 36 X 51 Y 36 X -51 Y 36 X -8 Y 35 X 34 Y 36 X -25 Y 36 X 6 Y 36 X 45 Y 36 X -38 Y 36 X -30 Y 35 X 21 Y 36 X -48 Y 36 X 17 Y 36 X -15 Y 36 X 7 Y 36 X -10 Y 35 X 83 Y 36 X -31 Y 36 X 44 Y 36 X -60 Y 36 X -22 Y 36 X 19 Y 35 X 61 Y 36 X
 -73 Y 36 X -7 Y 36 X -31 Y 36 X -10 Y 36 X 65 Y 35 X -82 Y 36 X 89 Y 36 X -32 Y 36 X 42 Y 36 X -13 Y 36 X 69 Y 35 X -75 Y f 6 lw black 0.2 0.8 0.2 c black 363 174 m 36 X 71 Y 35 X -10 Y 36 X 20 Y 36 X -36 Y 36 X 49 Y 36 X 10 Y 36 X -21 Y 35 X 53 Y
 36 X -72 Y 36 X 34 Y 36 X -4 Y 36 X -33 Y 36 X 56 Y 35 X -164 Y 36 X 147 Y 36 X -10 Y 36 X 51 Y 36 X -51 Y 36 X -8 Y 35 X 34 Y 36 X -25 Y 36 X 6 Y 36 X 45 Y 36 X -38 Y 36 X -30 Y 35 X 21 Y 36 X -48 Y 36 X 17 Y 36 X -15 Y 36 X 7 Y 36 X -10 Y 35 X 83
 Y 36 X -31 Y 36 X 44 Y 36 X -60 Y 36 X -22 Y 36 X 19 Y 35 X 61 Y 36 X -73 Y 36 X -7 Y 36 X -31 Y 36 X -10 Y 36 X 65 Y 35 X -82 Y 36 X 89 Y 36 X -32 Y 36 X 42 Y 36 X -13 Y 36 X 69 Y 35 X s 3 lw 363 74 m 1791 X s 501 85 m -11 Y s 570 79 m -5 Y s 638
 79 m -5 Y s 707 79 m -5 Y s 776 79 m -5 Y s 845 85 m -11 Y s 914 79 m -5 Y s 983 79 m -5 Y s 1052 79 m -5 Y s 1121 79 m -5 Y s 1190 85 m -11 Y s 1259 79 m -5 Y s 1327 79 m -5 Y s 1396 79 m -5 Y s 1465 79 m -5 Y s 1534 85 m -11 Y s 1603 79 m -5 Y s
 1672 79 m -5 Y s 1741 79 m -5 Y s 1810 79 m -5 Y s 1879 85 m -11 Y s 501 85 m -11 Y s 432 79 m -5 Y s 363 79 m -5 Y s 1879 85 m -11 Y s 1948 79 m -5 Y s 2017 79 m -5 Y s 2085 79 m -5 Y s 363 438 m 1791 X s 501 427 m 11 Y s 570 433 m 5 Y s 638 433 m
 5 Y s 707 433 m 5 Y s 776 433 m 5 Y s 845 427 m 11 Y s 914 433 m 5 Y s 983 433 m 5 Y s 1052 433 m 5 Y s 1121 433 m 5 Y s 1190 427 m 11 Y s 1259 433 m 5 Y s 1327 433 m 5 Y s 1396 433 m 5 Y s 1465 433 m 5 Y s 1534 427 m 11 Y s 1603 433 m 5 Y s 1672
 433 m 5 Y s 1741 433 m 5 Y s 1810 433 m 5 Y s 1879 427 m 11 Y s 501 427 m 11 Y s 432 433 m 5 Y s 363 433 m 5 Y s 1879 427 m 11 Y s 1948 433 m 5 Y s 2017 433 m 5 Y s 2085 433 m 5 Y s 363 74 m 364 Y s 417 74 m -54 X s 390 81 m -27 X s 390 88 m -27 X s
 390 96 m -27 X s 390 103 m -27 X s 417 110 m -54 X s 390 118 m -27 X s 390 125 m -27 X s 390 132 m -27 X s 390 139 m -27 X s 417 147 m -54 X s 390 154 m -27 X s 390 161 m -27 X s 390 169 m -27 X s 390 176 m -27 X s 417 183 m -54 X s 390 190 m -27 X
 s 390 198 m -27 X s 390 205 m -27 X s 390 212 m -27 X s 417 220 m -54 X s 390 227 m -27 X s 390 234 m -27 X s 390 241 m -27 X s 390 249 m -27 X s 417 256 m -54 X s 390 263 m -27 X s 390 271 m -27 X s 390 278 m -27 X s 390 285 m -27 X s 417 293 m -54
 X s 390 300 m -27 X s 390 307 m -27 X s 390 314 m -27 X s 390 322 m -27 X s 417 329 m -54 X s 390 336 m -27 X s 390 344 m -27 X s 390 351 m -27 X s 390 358 m -27 X s 417 365 m -54 X s 390 373 m -27 X s 390 380 m -27 X s 390 387 m -27 X s 390 395 m
 -27 X s 417 402 m -54 X s 390 409 m -27 X s 390 416 m -27 X s 390 424 m -27 X s 390 431 m -27 X s 417 438 m -54 X s 2154 74 m 364 Y s 2101 74 m 53 X s 2127 81 m 27 X s 2127 88 m 27 X s 2127 96 m 27 X s 2127 103 m 27 X s 2101 110 m 53 X s 2127 118 m
 27 X s 2127 125 m 27 X s 2127 132 m 27 X s 2127 139 m 27 X s 2101 147 m 53 X s 2127 154 m 27 X s 2127 161 m 27 X s 2127 169 m 27 X s 2127 176 m 27 X s 2101 183 m 53 X s 2127 190 m 27 X s 2127 198 m 27 X s 2127 205 m 27 X s 2127 212 m 27 X s 2101 220
 m 53 X s 2127 227 m 27 X s 2127 234 m 27 X s 2127 241 m 27 X s 2127 249 m 27 X s 2101 256 m 53 X s 2127 263 m 27 X s 2127 271 m 27 X s 2127 278 m 27 X s 2127 285 m 27 X s 2101 293 m 53 X s 2127 300 m 27 X s 2127 307 m 27 X s 2127 314 m 27 X s 2127
 322 m 27 X s 2101 329 m 53 X s 2127 336 m 27 X s 2127 344 m 27 X s 2127 351 m 27 X s 2127 358 m 27 X s 2101 365 m 53 X s 2127 373 m 27 X s 2127 380 m 27 X s 2127 387 m 27 X s 2127 395 m 27 X s 2101 402 m 53 X s 2127 409 m 27 X s 2127 416 m 27 X s
 2127 424 m 27 X s 2127 431 m 27 X s 2101 438 m 53 X s
 gr  gr showpage
end
%%EOF
