%!PS-Adobe-2.0 EPSF-2.0
%%BoundingBox:  0 0 567 384
%%Title: H4l2015_plotfit/gg_mass_signal_600_H4l_4mu.eps: 
%%Creator: ROOT Version 5.34/10
%%CreationDate: Thu Feb 16 12:42:19 2017
%%EndComments
%%BeginProlog
80 dict begin
/s {stroke} def /l {lineto} def /m {moveto} def /t {translate} def
/r {rotate} def /rl {roll}  def /R {repeat} def
/d {rlineto} def /rm {rmoveto} def /gr {grestore} def /f {eofill} def
/c {setrgbcolor} def /black {0 setgray} def /sd {setdash} def
/cl {closepath} def /sf {scalefont setfont} def /lw {setlinewidth} def
/box {m dup 0 exch d exch 0 d 0 exch neg d cl} def
/NC{systemdict begin initclip end}def/C{NC box clip newpath}def
/bl {box s} def /bf {box f} def /Y { 0 exch d} def /X { 0 d} def 
/K {{pop pop 0 moveto} exch kshow} bind def
/ita {/ang 15 def gsave [1 0 ang dup sin exch cos div 1 0 0] concat} def 
/mp {newpath /y exch def /x exch def} def
/side {[w .77 mul w .23 mul] .385 w mul sd w 0 l currentpoint t -144 r} def
/mr {mp x y w2 0 360 arc} def /m24 {mr s} def /m20 {mr f} def
/mb {mp x y w2 add m w2 neg 0 d 0 w neg d w 0 d 0 w d cl} def
/mt {mp x y w2 add m w2 neg w neg d w 0 d cl} def
/m21 {mb f} def /m25 {mb s} def /m22 {mt f} def /m26{mt s} def
/m23 {mp x y w2 sub m w2 w d w neg 0 d cl f} def
/m27 {mp x y w2 add m w3 neg w2 neg d w3 w2 neg d w3 w2 d cl s} def
/m28 {mp x w2 sub y w2 sub w3 add m w3 0 d  0 w3 neg d w3 0 d 0 w3 d w3 0 d  0 w3 d w3 neg 0 d 0 w3 d w3 neg 0 d 0 w3 neg d w3 neg 0 d cl s } def
/m29 {mp gsave x w2 sub y w2 add w3 sub m currentpoint t 4 {side} repeat cl fill gr} def
/m30 {mp gsave x w2 sub y w2 add w3 sub m currentpoint t 4 {side} repeat cl s gr} def
/m31 {mp x y w2 sub m 0 w d x w2 sub y m w 0 d x w2 sub y w2 add m w w neg d x w2 sub y w2 sub m w w d s} def
/m32 {mp x y w2 sub m w2 w d w neg 0 d cl s} def
/m33 {mp x y w2 add m w3 neg w2 neg d w3 w2 neg d w3 w2 d cl f} def
/m34 {mp x w2 sub y w2 sub w3 add m w3 0 d  0 w3 neg d w3 0 d 0 w3 d w3 0 d  0 w3 d w3 neg 0 d 0 w3 d w3 neg 0 d 0 w3 neg d w3 neg 0 d cl f } def
/m2 {mp x y w2 sub m 0 w d x w2 sub y m w 0 d s} def
/m5 {mp x w2 sub y w2 sub m w w d x w2 sub y w2 add m w w neg d s} def
/reEncode {exch findfont dup length dict begin {1 index /FID eq  {pop pop} {def} ifelse } forall /Encoding exch def currentdict end dup /FontName get exch definefont pop } def [/Times-Bold /Times-Italic /Times-BoldItalic /Helvetica /Helvetica-Oblique
 /Helvetica-Bold /Helvetica-BoldOblique /Courier /Courier-Oblique /Courier-Bold /Courier-BoldOblique /Times-Roman /AvantGarde-Book /AvantGarde-BookOblique /AvantGarde-Demi /AvantGarde-DemiOblique /Bookman-Demi /Bookman-DemiItalic /Bookman-Light
 /Bookman-LightItalic /Helvetica-Narrow /Helvetica-Narrow-Bold /Helvetica-Narrow-BoldOblique /Helvetica-Narrow-Oblique /NewCenturySchlbk-Roman /NewCenturySchlbk-Bold /NewCenturySchlbk-BoldItalic /NewCenturySchlbk-Italic /Palatino-Bold
 /Palatino-BoldItalic /Palatino-Italic /Palatino-Roman ] {ISOLatin1Encoding reEncode } forall
%%EndProlog
%%BeginSetup
%%EndSetup
newpath  gsave  .25 .25 scale  gsave  0 0 t black[  ] 0 sd 3 lw 1 1 1 c 2268 1538 0 0 bf black 1 1 1 c 2222 738 23 784 bf black 1 1 1 c 2222 739 23 15 bf black 1 1 1 c 2268 1077 0 461 bf black 1 1 1 c 1791 850 363 634 bf black 1791 850 363 634 bl 363
 634 m 1791 X s
 gsave  2268 1077 0 461 C 1642.14 498.507 t 0 r /Helvetica findfont 48.9324 sf 0 0 m (4l Invariant Mass \(GeV\)) show NC gr  434 659 m -25 Y s 506 646 m -12 Y s 578 646 m -12 Y s 649 646 m -12 Y s 721 659 m -25 Y s 793 646 m -12 Y s 864 646 m -12 Y s
 936 646 m -12 Y s 1008 659 m -25 Y s 1079 646 m -12 Y s 1151 646 m -12 Y s 1223 646 m -12 Y s 1294 659 m -25 Y s 1366 646 m -12 Y s 1438 646 m -12 Y s 1509 646 m -12 Y s 1581 659 m -25 Y s 1653 646 m -12 Y s 1724 646 m -12 Y s 1796 646 m -12 Y s
 1868 659 m -25 Y s 1939 646 m -12 Y s 2011 646 m -12 Y s 2083 646 m -12 Y s 2154 659 m -25 Y s 434 659 m -25 Y s 363 646 m -12 Y s
 gsave  2268 1077 0 461 C 390.986 586.478 t 0 r /Helvetica findfont 48.9324 sf 0 0 m (520) show NC gr 
 gsave  2268 1077 0 461 C 677.708 586.478 t 0 r /Helvetica findfont 48.9324 sf 0 0 m (540) show NC gr 
 gsave  2268 1077 0 461 C 964.431 586.478 t 0 r /Helvetica findfont 48.9324 sf 0 0 m (560) show NC gr 
 gsave  2268 1077 0 461 C 1251.15 586.478 t 0 r /Helvetica findfont 48.9324 sf 0 0 m (580) show NC gr 
 gsave  2268 1077 0 461 C 1537.88 586.478 t 0 r /Helvetica findfont 48.9324 sf 0 0 m (600) show NC gr 
 gsave  2268 1077 0 461 C 1824.6 586.478 t 0 r /Helvetica findfont 48.9324 sf 0 0 m (620) show NC gr 
 gsave  2268 1077 0 461 C 2111.32 586.478 t 0 r /Helvetica findfont 48.9324 sf 0 0 m (640) show NC gr  363 1484 m 1791 X s 434 1459 m 25 Y s 506 1471 m 13 Y s 578 1471 m 13 Y s 649 1471 m 13 Y s 721 1459 m 25 Y s 793 1471 m 13 Y s 864 1471 m 13 Y s
 936 1471 m 13 Y s 1008 1459 m 25 Y s 1079 1471 m 13 Y s 1151 1471 m 13 Y s 1223 1471 m 13 Y s 1294 1459 m 25 Y s 1366 1471 m 13 Y s 1438 1471 m 13 Y s 1509 1471 m 13 Y s 1581 1459 m 25 Y s 1653 1471 m 13 Y s 1724 1471 m 13 Y s 1796 1471 m 13 Y s
 1868 1459 m 25 Y s 1939 1471 m 13 Y s 2011 1471 m 13 Y s 2083 1471 m 13 Y s 2154 1459 m 25 Y s 434 1459 m 25 Y s 363 1471 m 13 Y s 363 634 m 850 Y s
 gsave  2268 1077 0 461 C 120.554 1058.92 t 90 r /Helvetica findfont 48.9324 sf 0 0 m (Events / \( 2.5 GeV \)) show NC gr  390 654 m -27 X s 390 694 m -27 X s 390 725 m -27 X s 390 751 m -27 X s 390 772 m -27 X s 390 791 m -27 X s 390 807 m -27 X s
 417 822 m -54 X s
 gsave  2268 1077 0 461 C 342.425 801.134 t 0 r  -55 0 t /Helvetica findfont 48.9324 sf 0 0 m (10) show NC gr  390 918 m -27 X s 390 975 m -27 X s 390 1015 m -27 X s 390 1046 m -27 X s 390 1071 m -27 X s 390 1093 m -27 X s 390 1111 m -27 X s 390 1128
 m -27 X s 417 1143 m -54 X s
 gsave  2268 1077 0 461 C 322.563 1140.37 t 0 r /Helvetica findfont 32.6216 sf 0 0 m (2) show NC gr 
 gsave  2268 1077 0 461 C 270.432 1120.83 t 0 r /Helvetica findfont 48.9324 sf 0 0 m (10) show NC gr  390 1239 m -27 X s 390 1295 m -27 X s 390 1336 m -27 X s 390 1367 m -27 X s 390 1392 m -27 X s 390 1413 m -27 X s 390 1432 m -27 X s 390 1448 m -27
 X s 417 1463 m -54 X s
 gsave  2268 1077 0 461 C 322.563 1466.2 t 0 r /Helvetica findfont 32.6216 sf 0 0 m (3) show NC gr 
 gsave  2268 1077 0 461 C 270.432 1443.39 t 0 r /Helvetica findfont 48.9324 sf 0 0 m (10) show NC gr  2154 634 m 850 Y s 2127 654 m 27 X s 2127 694 m 27 X s 2127 725 m 27 X s 2127 751 m 27 X s 2127 772 m 27 X s 2127 791 m 27 X s 2127 807 m 27 X s
 2101 822 m 53 X s 2127 918 m 27 X s 2127 975 m 27 X s 2127 1015 m 27 X s 2127 1046 m 27 X s 2127 1071 m 27 X s 2127 1093 m 27 X s 2127 1111 m 27 X s 2127 1128 m 27 X s 2101 1143 m 53 X s 2127 1239 m 27 X s 2127 1295 m 27 X s 2127 1336 m 27 X s 2127
 1367 m 27 X s 2127 1392 m 27 X s 2127 1413 m 27 X s 2127 1432 m 27 X s 2127 1448 m 27 X s 2101 1463 m 53 X s 381 847 m -18 X s 363 847 m cl s 381 847 m 18 X s 399 847 m cl s 381 847 m 45 Y s 381 892 m cl s 381 847 m -46 Y s 381 801 m cl s 417 807 m
 -18 X s 399 807 m cl s 417 807 m 17 X s 434 807 m cl s 417 807 m 53 Y s 417 860 m cl s 417 807 m -55 Y s 417 752 m cl s 452 694 m -18 X s 434 694 m cl s 452 694 m 18 X s 470 694 m cl s 452 694 m 82 Y s 452 776 m cl s 452 694 m -60 Y s 452 634 m cl s
 488 835 m -18 X s 470 835 m cl s 488 835 m 18 X s 506 835 m cl s 488 835 m 47 Y s 488 882 m cl s 488 835 m -49 Y s 488 786 m cl s 524 807 m -18 X s 506 807 m cl s 524 807 m 18 X s 542 807 m cl s 524 807 m 53 Y s 524 860 m cl s 524 807 m -55 Y s 524
 752 m cl s 560 791 m -18 X s 542 791 m cl s 560 791 m 18 X s 578 791 m cl s 560 791 m 56 Y s 560 847 m cl s 560 791 m -59 Y s 560 732 m cl s 596 694 m -18 X s 578 694 m cl s 596 694 m 18 X s 614 694 m cl s 596 694 m 82 Y s 596 776 m cl s 596 694 m
 -60 Y s 596 634 m cl s 632 925 m -18 X s 614 925 m cl s 632 925 m 17 X s 649 925 m cl s 632 925 m 33 Y s 632 958 m cl s 632 925 m -34 Y s 632 891 m cl s 667 859 m -18 X s 649 859 m cl s 667 859 m 18 X s 685 859 m cl s 667 859 m 42 Y s 667 901 m cl s
 667 859 m -45 Y s 667 814 m cl s 703 896 m -18 X s 685 896 m cl s 703 896 m 18 X s 721 896 m cl s 703 896 m 37 Y s 703 933 m cl s 703 896 m -38 Y s 703 858 m cl s 739 911 m -18 X s 721 911 m cl s 739 911 m 18 X s 757 911 m cl s 739 911 m 35 Y s 739
 946 m cl s 739 911 m -36 Y s 739 875 m cl s 775 955 m -18 X s 757 955 m cl s 775 955 m 18 X s 793 955 m cl s 775 955 m 30 Y s 775 985 m cl s 775 955 m -30 Y s 775 925 m cl s 811 925 m -18 X s 793 925 m cl s 811 925 m 18 X s 829 925 m cl s 811 925 m
 33 Y s 811 958 m cl s 811 925 m -34 Y s 811 891 m cl s 847 944 m -18 X s 829 944 m cl s 847 944 m 17 X s 864 944 m cl s 847 944 m 31 Y s 847 975 m cl s 847 944 m -32 Y s 847 912 m cl s 882 1004 m -18 X s 864 1004 m cl s 882 1004 m 18 X s 900 1004 m
 cl s 882 1004 m 25 Y s 882 1029 m cl s 882 1004 m -25 Y s 882 979 m cl s 918 988 m -18 X s 900 988 m cl s 918 988 m 18 X s 936 988 m cl s 918 988 m 26 Y s 918 1014 m cl s 918 988 m -26 Y s 918 962 m cl s 954 1015 m -18 X s 936 1015 m cl s 954 1015 m
 18 X s 972 1015 m cl s 954 1015 m 24 Y s 954 1039 m cl s 954 1015 m -24 Y s 954 991 m cl s 990 1000 m -18 X s 972 1000 m cl s 990 1000 m 18 X s 1008 1000 m cl s 990 1000 m 25 Y s 990 1025 m cl s 990 1000 m -25 Y s 990 975 m cl s 1026 1018 m -18 X s
 1008 1018 m cl s 1026 1018 m 18 X s 1044 1018 m cl s 1026 1018 m 24 Y s 1026 1042 m cl s 1026 1018 m -23 Y s 1026 995 m cl s 1062 1028 m -18 X s 1044 1028 m cl s 1062 1028 m 17 X s 1079 1028 m cl s 1062 1028 m 23 Y s 1062 1051 m cl s 1062 1028 m -22
 Y s 1062 1006 m cl s 1097 1093 m -18 X s 1079 1093 m cl s 1097 1093 m 18 X s 1115 1093 m cl s 1097 1093 m 17 Y s 1097 1110 m cl s 1097 1093 m -18 Y s 1097 1075 m cl s 1133 1099 m -18 X s 1115 1099 m cl s 1133 1099 m 18 X s 1151 1099 m cl s 1133 1099
 m 17 Y s 1133 1116 m cl s 1133 1099 m -18 Y s 1133 1081 m cl s 1169 1129 m -18 X s 1151 1129 m cl s 1169 1129 m 18 X s 1187 1129 m cl s 1169 1129 m 16 Y s 1169 1145 m cl s 1169 1129 m -15 Y s 1169 1114 m cl s 1205 1147 m -18 X s 1187 1147 m cl s
 1205 1147 m 18 X s 1223 1147 m cl s 1205 1147 m 13 Y s 1205 1160 m cl s 1205 1147 m -14 Y s 1205 1133 m cl s 1241 1194 m -18 X s 1223 1194 m cl s 1241 1194 m 18 X s 1259 1194 m cl s 1241 1194 m 12 Y s 1241 1206 m cl s 1241 1194 m -11 Y s 1241 1183 m
 cl s 1276 1211 m -17 X s 1259 1211 m cl s 1276 1211 m 18 X s 1294 1211 m cl s 1276 1211 m 10 Y s 1276 1221 m cl s 1276 1211 m -11 Y s 1276 1200 m cl s 1312 1263 m -18 X s 1294 1263 m cl s 1312 1263 m 18 X s 1330 1263 m cl s 1312 1263 m 9 Y s 1312
 1272 m cl s 1312 1263 m -9 Y s 1312 1254 m cl s 1348 1276 m -18 X s 1330 1276 m cl s 1348 1276 m 18 X s 1366 1276 m cl s 1348 1276 m 8 Y s 1348 1284 m cl s 1348 1276 m -9 Y s 1348 1267 m cl s 1384 1293 m -18 X s 1366 1293 m cl s 1384 1293 m 18 X s
 1402 1293 m cl s 1384 1293 m 8 Y s 1384 1301 m cl s 1384 1293 m -8 Y s 1384 1285 m cl s 1420 1335 m -18 X s 1402 1335 m cl s 1420 1335 m 18 X s 1438 1335 m cl s 1420 1335 m 7 Y s 1420 1342 m cl s 1420 1335 m -7 Y s 1420 1328 m cl s 1456 1351 m -18 X
 s 1438 1351 m cl s 1456 1351 m 18 X s 1474 1351 m cl s 1456 1351 m 6 Y s 1456 1357 m cl s 1456 1351 m -7 Y s 1456 1344 m cl s 1491 1371 m -17 X s 1474 1371 m cl s 1491 1371 m 18 X s 1509 1371 m cl s 1491 1371 m 6 Y s 1491 1377 m cl s 1491 1371 m -6
 Y s 1491 1365 m cl s 1527 1395 m -18 X s 1509 1395 m cl s 1527 1395 m 18 X s 1545 1395 m cl s 1527 1395 m 6 Y s 1527 1401 m cl s 1527 1395 m -5 Y s 1527 1390 m cl s 1563 1405 m -18 X s 1545 1405 m cl s 1563 1405 m 18 X s 1581 1405 m cl s 1563 1405 m
 5 Y s 1563 1410 m cl s 1563 1405 m -5 Y s 1563 1400 m cl s 1599 1388 m -18 X s 1581 1388 m cl s 1599 1388 m 18 X s 1617 1388 m cl s 1599 1388 m 6 Y s 1599 1394 m cl s 1599 1388 m -5 Y s 1599 1383 m cl s 1635 1373 m -18 X s 1617 1373 m cl s 1635 1373
 m 18 X s 1653 1373 m cl s 1635 1373 m 6 Y s 1635 1379 m cl s 1635 1373 m -6 Y s 1635 1367 m cl s 1671 1346 m -18 X s 1653 1346 m cl s 1671 1346 m 18 X s 1689 1346 m cl s 1671 1346 m 6 Y s 1671 1352 m cl s 1671 1346 m -7 Y s 1671 1339 m cl s 1706
 1308 m -17 X s 1689 1308 m cl s 1706 1308 m 18 X s 1724 1308 m cl s 1706 1308 m 8 Y s 1706 1316 m cl s 1706 1308 m -8 Y s 1706 1300 m cl s 1742 1289 m -18 X s 1724 1289 m cl s 1742 1289 m 18 X s 1760 1289 m cl s 1742 1289 m 9 Y s 1742 1298 m cl s
 1742 1289 m -8 Y s 1742 1281 m cl s 1778 1227 m -18 X s 1760 1227 m cl s 1778 1227 m 18 X s 1796 1227 m cl s 1778 1227 m 10 Y s 1778 1237 m cl s 1778 1227 m -11 Y s 1778 1216 m cl s 1814 1204 m -18 X s 1796 1204 m cl s 1814 1204 m 18 X s 1832 1204 m
 cl s 1814 1204 m 12 Y s 1814 1216 m cl s 1814 1204 m -11 Y s 1814 1193 m cl s 1850 1172 m -18 X s 1832 1172 m cl s 1850 1172 m 18 X s 1868 1172 m cl s 1850 1172 m 13 Y s 1850 1185 m cl s 1850 1172 m -12 Y s 1850 1160 m cl s 1886 1087 m -18 X s 1868
 1087 m cl s 1886 1087 m 18 X s 1904 1087 m cl s 1886 1087 m 18 Y s 1886 1105 m cl s 1886 1087 m -18 Y s 1886 1069 m cl s 1921 1069 m -17 X s 1904 1069 m cl s 1921 1069 m 18 X s 1939 1069 m cl s 1921 1069 m 19 Y s 1921 1088 m cl s 1921 1069 m -19 Y s
 1921 1050 m cl s 1957 1004 m -18 X s 1939 1004 m cl s 1957 1004 m 18 X s 1975 1004 m cl s 1957 1004 m 25 Y s 1957 1029 m cl s 1957 1004 m -25 Y s 1957 979 m cl s 1993 1004 m -18 X s 1975 1004 m cl s 1993 1004 m 18 X s 2011 1004 m cl s 1993 1004 m 25
 Y s 1993 1029 m cl s 1993 1004 m -25 Y s 1993 979 m cl s 2029 925 m -18 X s 2011 925 m cl s 2029 925 m 18 X s 2047 925 m cl s 2029 925 m 33 Y s 2029 958 m cl s 2029 925 m -34 Y s 2029 891 m cl s 2065 869 m -18 X s 2047 869 m cl s 2065 869 m 18 X s
 2083 869 m cl s 2065 869 m 41 Y s 2065 910 m cl s 2065 869 m -43 Y s 2065 826 m cl s 2101 847 m -18 X s 2083 847 m cl s 2101 847 m 18 X s 2119 847 m cl s 2101 847 m 45 Y s 2101 892 m cl s 2101 847 m -46 Y s 2101 801 m cl s 2136 772 m -17 X s 2119
 772 m cl s 2136 772 m 18 X s 2154 772 m cl s 2136 772 m 60 Y s 2136 832 m cl s 2136 772 m -64 Y s 2136 708 m cl s /w 31 def /w2 {w 2 div} def /w3 {w 3 div} def 381 847 417 807 452 694 488 835 524 807 560 791 596 694 632 925 667 859 703 896 739 911
 775 955 811 925 847 944 882 1004 918 988 954 1015 990 1000 1026 1018 1062 1028 1097 1093 1133 1099 1169 1129 1205 1147 1241 1194 1276 1211 1312 1263 1348 1276 1384 1293 1420 1335 1456 1351 1491 1371 1527 1395 1563 1405 1599 1388 1635 1373 1671 1346
 1706 1308 1742 1289 1778 1227 1814 1204 1850 1172 1886 1087 1921 1069 1957 1004 1993 1004 2029 925 2065 869 2101 847 2136 772 50 { m20} R 0 1 1 c 1 1 0 c black 1 1 0 c 363 791 m 36 11 d 35 11 d 36 12 d 36 11 d 36 12 d 36 12 d 36 13 d 35 13 d 36 13 d
 36 14 d 36 14 d 36 14 d 36 15 d 35 16 d 36 16 d 36 17 d 36 17 d 36 18 d 36 19 d 35 21 d 36 21 d 36 23 d 36 23 d 36 26 d 18 13 d 18 13 d 17 14 d 18 15 d 18 16 d 18 17 d 18 16 d 18 18 d 18 17 d 18 17 d 18 16 d 18 14 d 18 12 d 18 8 d 9 4 d 8 4 d 9 4 d
 9 4 d 9 4 d 9 3 d 9 2 d 9 1 d 9 X 9 -1 d 9 -2 d 9 -3 d 9 -4 d 9 -4 d 9 -4 d 9 -5 d 18 -9 d 18 -10 d 36 -28 d 17 -17 d 18 -17 d 18 -16 d 18 -16 d 18 -16 d 18 -17 d 18 -17 d 18 -19 d 18 -19 d 18 -20 d 18 -21 d 18 -23 d 17 -22 d 18 -23 d 36 -49 d 36
 -51 d 36 -55 d 36 -59 d 36 -62 d 35 -67 d -95 Y -12 X -23 61 d -36 84 d -36 76 d -36 70 d -36 64 d -36 56 d -18 26 d -17 24 d -18 22 d -18 22 d -18 20 d -18 19 d -18 19 d -18 19 d -18 19 d -18 19 d -18 18 d -18 17 d -18 15 d -17 15 d -36 29 d -18 14
 d -18 12 d -9 5 d -9 3 d -9 2 d -9 1 d -9 1 d -9 1 d -9 1 d -18 X -9 -1 d -9 -1 d -9 -1 d -9 -2 d -9 -4 d -8 -5 d -9 -6 d -18 -14 d -18 -15 d -18 -15 d -18 -15 d -18 -14 d -18 -15 d -18 -17 d -18 -17 d -18 -18 d -18 -17 d -18 -16 d -17 -15 d -18 -14
 d -18 -13 d -36 -25 d -36 -23 d -36 -22 d -36 -21 d -35 -20 d -36 -20 d -36 -20 d -36 -19 d -36 -18 d -36 -18 d -35 -17 d -36 -17 d -36 -16 d -36 -15 d -36 -16 d -36 -14 d -35 -15 d -36 -14 d -36 -13 d -36 -14 d -36 -13 d -36 -12 d -35 -12 d -36 -12
 d f 0 1 1 c 0 1 0 c black 0 1 0 c 363 781 m 36 11 d 35 12 d 36 11 d 36 12 d 36 12 d 36 13 d 36 13 d 35 13 d 36 14 d 36 14 d 36 14 d 36 15 d 36 15 d 35 16 d 36 17 d 36 17 d 36 17 d 36 19 d 36 19 d 35 20 d 36 22 d 36 22 d 36 24 d 36 25 d 18 13 d 18 14
 d 17 14 d 18 15 d 18 16 d 18 17 d 18 17 d 18 18 d 18 17 d 18 16 d 18 15 d 18 14 d 18 12 d 18 10 d 9 5 d 8 4 d 9 4 d 9 3 d 9 3 d 9 3 d 9 1 d 9 1 d 9 X 9 -1 d 9 -1 d 9 -2 d 9 -3 d 9 -4 d 9 -4 d 9 -5 d 18 -10 d 18 -11 d 36 -28 d 17 -16 d 18 -17 d 18
 -16 d 18 -17 d 18 -17 d 18 -17 d 18 -18 d 18 -18 d 18 -19 d 18 -20 d 18 -21 d 18 -23 d 17 -23 d 18 -23 d 36 -50 d 36 -54 d 36 -58 d 36 -61 d 36 -67 d 35 -70 d -60 Y -35 81 d -36 76 d -36 70 d -36 66 d -36 59 d -36 54 d -18 25 d -17 24 d -18 22 d -18
 21 d -18 21 d -18 19 d -18 19 d -18 19 d -18 18 d -18 18 d -18 17 d -18 17 d -18 15 d -17 16 d -36 30 d -18 13 d -18 10 d -9 5 d -9 3 d -9 3 d -9 2 d -9 2 d -9 1 d -9 1 d -9 X -9 -1 d -9 -1 d -9 -1 d -9 -2 d -9 -3 d -9 -4 d -8 -4 d -9 -6 d -18 -12 d
 -18 -14 d -18 -15 d -18 -15 d -18 -16 d -18 -16 d -18 -16 d -18 -17 d -18 -18 d -18 -16 d -18 -16 d -17 -15 d -18 -14 d -18 -13 d -36 -25 d -36 -23 d -36 -22 d -36 -21 d -35 -21 d -36 -19 d -36 -19 d -36 -19 d -36 -18 d -36 -17 d -35 -17 d -36 -16 d
 -36 -16 d -36 -15 d -36 -15 d -36 -14 d -35 -14 d -36 -14 d -36 -13 d -36 -13 d -36 -12 d -36 -12 d -35 -12 d -36 -12 d f 0 0 1 c 9 lw black 0 0 1 c 363 771 m 36 11 d 35 12 d 36 11 d 36 13 d 36 12 d 36 13 d 36 13 d 35 14 d 36 14 d 36 14 d 36 15 d 36
 15 d 36 16 d 35 16 d 36 17 d 36 17 d 36 19 d 36 18 d 36 20 d 35 20 d 36 21 d 36 23 d 36 23 d 36 25 d 18 13 d 18 14 d 17 14 d 18 16 d 18 16 d 18 17 d 18 18 d 18 16 d 18 17 d 18 16 d 18 15 d 18 14 d 18 13 d 18 12 d 9 5 d 8 4 d 9 4 d 9 3 d 9 3 d 9 2 d
 9 1 d 9 1 d 9 X 9 -1 d 9 -1 d 9 -3 d 9 -2 d 9 -3 d 9 -4 d 9 -5 d 18 -10 d 18 -12 d 36 -29 d 17 -16 d 18 -16 d 18 -17 d 18 -17 d 18 -17 d 18 -17 d 18 -19 d 18 -18 d 18 -20 d 18 -20 d 18 -21 d 18 -22 d 17 -24 d 18 -24 d 36 -52 d 36 -56 d 36 -61 d 36
 -66 d 36 -70 d 35 -75 d s black 3 lw 381 847 m -18 X s 363 847 m cl s 381 847 m 18 X s 399 847 m cl s 381 847 m 45 Y s 381 892 m cl s 381 847 m -46 Y s 381 801 m cl s 417 807 m -18 X s 399 807 m cl s 417 807 m 17 X s 434 807 m cl s 417 807 m 53 Y s
 417 860 m cl s 417 807 m -55 Y s 417 752 m cl s 452 694 m -18 X s 434 694 m cl s 452 694 m 18 X s 470 694 m cl s 452 694 m 82 Y s 452 776 m cl s 452 694 m -60 Y s 452 634 m cl s 488 835 m -18 X s 470 835 m cl s 488 835 m 18 X s 506 835 m cl s 488
 835 m 47 Y s 488 882 m cl s 488 835 m -49 Y s 488 786 m cl s 524 807 m -18 X s 506 807 m cl s 524 807 m 18 X s 542 807 m cl s 524 807 m 53 Y s 524 860 m cl s 524 807 m -55 Y s 524 752 m cl s 560 791 m -18 X s 542 791 m cl s 560 791 m 18 X s 578 791
 m cl s 560 791 m 56 Y s 560 847 m cl s 560 791 m -59 Y s 560 732 m cl s 596 694 m -18 X s 578 694 m cl s 596 694 m 18 X s 614 694 m cl s 596 694 m 82 Y s 596 776 m cl s 596 694 m -60 Y s 596 634 m cl s 632 925 m -18 X s 614 925 m cl s 632 925 m 17 X
 s 649 925 m cl s 632 925 m 33 Y s 632 958 m cl s 632 925 m -34 Y s 632 891 m cl s 667 859 m -18 X s 649 859 m cl s 667 859 m 18 X s 685 859 m cl s 667 859 m 42 Y s 667 901 m cl s 667 859 m -45 Y s 667 814 m cl s 703 896 m -18 X s 685 896 m cl s 703
 896 m 18 X s 721 896 m cl s 703 896 m 37 Y s 703 933 m cl s 703 896 m -38 Y s 703 858 m cl s 739 911 m -18 X s 721 911 m cl s 739 911 m 18 X s 757 911 m cl s 739 911 m 35 Y s 739 946 m cl s 739 911 m -36 Y s 739 875 m cl s 775 955 m -18 X s 757 955
 m cl s 775 955 m 18 X s 793 955 m cl s 775 955 m 30 Y s 775 985 m cl s 775 955 m -30 Y s 775 925 m cl s 811 925 m -18 X s 793 925 m cl s 811 925 m 18 X s 829 925 m cl s 811 925 m 33 Y s 811 958 m cl s 811 925 m -34 Y s 811 891 m cl s 847 944 m -18 X
 s 829 944 m cl s 847 944 m 17 X s 864 944 m cl s 847 944 m 31 Y s 847 975 m cl s 847 944 m -32 Y s 847 912 m cl s 882 1004 m -18 X s 864 1004 m cl s 882 1004 m 18 X s 900 1004 m cl s 882 1004 m 25 Y s 882 1029 m cl s 882 1004 m -25 Y s 882 979 m cl
 s 918 988 m -18 X s 900 988 m cl s 918 988 m 18 X s 936 988 m cl s 918 988 m 26 Y s 918 1014 m cl s 918 988 m -26 Y s 918 962 m cl s 954 1015 m -18 X s 936 1015 m cl s 954 1015 m 18 X s 972 1015 m cl s 954 1015 m 24 Y s 954 1039 m cl s 954 1015 m
 -24 Y s 954 991 m cl s 990 1000 m -18 X s 972 1000 m cl s 990 1000 m 18 X s 1008 1000 m cl s 990 1000 m 25 Y s 990 1025 m cl s 990 1000 m -25 Y s 990 975 m cl s 1026 1018 m -18 X s 1008 1018 m cl s 1026 1018 m 18 X s 1044 1018 m cl s 1026 1018 m 24
 Y s 1026 1042 m cl s 1026 1018 m -23 Y s 1026 995 m cl s 1062 1028 m -18 X s 1044 1028 m cl s 1062 1028 m 17 X s 1079 1028 m cl s 1062 1028 m 23 Y s 1062 1051 m cl s 1062 1028 m -22 Y s 1062 1006 m cl s 1097 1093 m -18 X s 1079 1093 m cl s 1097 1093
 m 18 X s 1115 1093 m cl s 1097 1093 m 17 Y s 1097 1110 m cl s 1097 1093 m -18 Y s 1097 1075 m cl s 1133 1099 m -18 X s 1115 1099 m cl s 1133 1099 m 18 X s 1151 1099 m cl s 1133 1099 m 17 Y s 1133 1116 m cl s 1133 1099 m -18 Y s 1133 1081 m cl s 1169
 1129 m -18 X s 1151 1129 m cl s 1169 1129 m 18 X s 1187 1129 m cl s 1169 1129 m 16 Y s 1169 1145 m cl s 1169 1129 m -15 Y s 1169 1114 m cl s 1205 1147 m -18 X s 1187 1147 m cl s 1205 1147 m 18 X s 1223 1147 m cl s 1205 1147 m 13 Y s 1205 1160 m cl s
 1205 1147 m -14 Y s 1205 1133 m cl s 1241 1194 m -18 X s 1223 1194 m cl s 1241 1194 m 18 X s 1259 1194 m cl s 1241 1194 m 12 Y s 1241 1206 m cl s 1241 1194 m -11 Y s 1241 1183 m cl s 1276 1211 m -17 X s 1259 1211 m cl s 1276 1211 m 18 X s 1294 1211
 m cl s 1276 1211 m 10 Y s 1276 1221 m cl s 1276 1211 m -11 Y s 1276 1200 m cl s 1312 1263 m -18 X s 1294 1263 m cl s 1312 1263 m 18 X s 1330 1263 m cl s 1312 1263 m 9 Y s 1312 1272 m cl s 1312 1263 m -9 Y s 1312 1254 m cl s 1348 1276 m -18 X s 1330
 1276 m cl s 1348 1276 m 18 X s 1366 1276 m cl s 1348 1276 m 8 Y s 1348 1284 m cl s 1348 1276 m -9 Y s 1348 1267 m cl s 1384 1293 m -18 X s 1366 1293 m cl s 1384 1293 m 18 X s 1402 1293 m cl s 1384 1293 m 8 Y s 1384 1301 m cl s 1384 1293 m -8 Y s
 1384 1285 m cl s 1420 1335 m -18 X s 1402 1335 m cl s 1420 1335 m 18 X s 1438 1335 m cl s 1420 1335 m 7 Y s 1420 1342 m cl s 1420 1335 m -7 Y s 1420 1328 m cl s 1456 1351 m -18 X s 1438 1351 m cl s 1456 1351 m 18 X s 1474 1351 m cl s 1456 1351 m 6 Y
 s 1456 1357 m cl s 1456 1351 m -7 Y s 1456 1344 m cl s 1491 1371 m -17 X s 1474 1371 m cl s 1491 1371 m 18 X s 1509 1371 m cl s 1491 1371 m 6 Y s 1491 1377 m cl s 1491 1371 m -6 Y s 1491 1365 m cl s 1527 1395 m -18 X s 1509 1395 m cl s 1527 1395 m
 18 X s 1545 1395 m cl s 1527 1395 m 6 Y s 1527 1401 m cl s 1527 1395 m -5 Y s 1527 1390 m cl s 1563 1405 m -18 X s 1545 1405 m cl s 1563 1405 m 18 X s 1581 1405 m cl s 1563 1405 m 5 Y s 1563 1410 m cl s 1563 1405 m -5 Y s 1563 1400 m cl s 1599 1388
 m -18 X s 1581 1388 m cl s 1599 1388 m 18 X s 1617 1388 m cl s 1599 1388 m 6 Y s 1599 1394 m cl s 1599 1388 m -5 Y s 1599 1383 m cl s 1635 1373 m -18 X s 1617 1373 m cl s 1635 1373 m 18 X s 1653 1373 m cl s 1635 1373 m 6 Y s 1635 1379 m cl s 1635
 1373 m -6 Y s 1635 1367 m cl s 1671 1346 m -18 X s 1653 1346 m cl s 1671 1346 m 18 X s 1689 1346 m cl s 1671 1346 m 6 Y s 1671 1352 m cl s 1671 1346 m -7 Y s 1671 1339 m cl s 1706 1308 m -17 X s 1689 1308 m cl s 1706 1308 m 18 X s 1724 1308 m cl s
 1706 1308 m 8 Y s 1706 1316 m cl s 1706 1308 m -8 Y s 1706 1300 m cl s 1742 1289 m -18 X s 1724 1289 m cl s 1742 1289 m 18 X s 1760 1289 m cl s 1742 1289 m 9 Y s 1742 1298 m cl s 1742 1289 m -8 Y s 1742 1281 m cl s 1778 1227 m -18 X s 1760 1227 m cl
 s 1778 1227 m 18 X s 1796 1227 m cl s 1778 1227 m 10 Y s 1778 1237 m cl s 1778 1227 m -11 Y s 1778 1216 m cl s 1814 1204 m -18 X s 1796 1204 m cl s 1814 1204 m 18 X s 1832 1204 m cl s 1814 1204 m 12 Y s 1814 1216 m cl s 1814 1204 m -11 Y s 1814 1193
 m cl s 1850 1172 m -18 X s 1832 1172 m cl s 1850 1172 m 18 X s 1868 1172 m cl s 1850 1172 m 13 Y s 1850 1185 m cl s 1850 1172 m -12 Y s 1850 1160 m cl s 1886 1087 m -18 X s 1868 1087 m cl s 1886 1087 m 18 X s 1904 1087 m cl s 1886 1087 m 18 Y s 1886
 1105 m cl s 1886 1087 m -18 Y s 1886 1069 m cl s 1921 1069 m -17 X s 1904 1069 m cl s 1921 1069 m 18 X s 1939 1069 m cl s 1921 1069 m 19 Y s 1921 1088 m cl s 1921 1069 m -19 Y s 1921 1050 m cl s 1957 1004 m -18 X s 1939 1004 m cl s 1957 1004 m 18 X
 s 1975 1004 m cl s 1957 1004 m 25 Y s 1957 1029 m cl s 1957 1004 m -25 Y s 1957 979 m cl s 1993 1004 m -18 X s 1975 1004 m cl s 1993 1004 m 18 X s 2011 1004 m cl s 1993 1004 m 25 Y s 1993 1029 m cl s 1993 1004 m -25 Y s 1993 979 m cl s 2029 925 m
 -18 X s 2011 925 m cl s 2029 925 m 18 X s 2047 925 m cl s 2029 925 m 33 Y s 2029 958 m cl s 2029 925 m -34 Y s 2029 891 m cl s 2065 869 m -18 X s 2047 869 m cl s 2065 869 m 18 X s 2083 869 m cl s 2065 869 m 41 Y s 2065 910 m cl s 2065 869 m -43 Y s
 2065 826 m cl s 2101 847 m -18 X s 2083 847 m cl s 2101 847 m 18 X s 2119 847 m cl s 2101 847 m 45 Y s 2101 892 m cl s 2101 847 m -46 Y s 2101 801 m cl s 2136 772 m -17 X s 2119 772 m cl s 2136 772 m 18 X s 2154 772 m cl s 2136 772 m 60 Y s 2136 832
 m cl s 2136 772 m -64 Y s 2136 708 m cl s 381 847 417 807 452 694 488 835 524 807 560 791 596 694 632 925 667 859 703 896 739 911 775 955 811 925 847 944 882 1004 918 988 954 1015 990 1000 1026 1018 1062 1028 1097 1093 1133 1099 1169 1129 1205 1147
 1241 1194 1276 1211 1312 1263 1348 1276 1384 1293 1420 1335 1456 1351 1491 1371 1527 1395 1563 1405 1599 1388 1635 1373 1671 1346 1706 1308 1742 1289 1778 1227 1814 1204 1850 1172 1886 1087 1921 1069 1957 1004 1993 1004 2029 925 2065 869 2101 847
 2136 772 50 { m20} R 0.52 0.76 0.64 c[ 4 8] 0 sd 9 lw black 0.52 0.76 0.64 c 363 771 m 36 11 d 35 12 d 36 11 d 36 13 d 36 12 d 36 13 d 36 13 d 35 14 d 36 14 d 36 14 d 36 15 d 36 15 d 36 16 d 35 16 d 36 17 d 36 17 d 36 19 d 36 18 d 36 20 d 35 20 d 36
 21 d 36 23 d 18 11 d 18 12 d 18 12 d 18 12 d 18 13 d 18 13 d 17 13 d 18 14 d 18 14 d 18 15 d 36 25 d 36 21 d 18 9 d 18 8 d 18 6 d 18 6 d 17 4 d 18 3 d 18 2 d 9 1 d 27 X 9 -1 d 9 -1 d 18 -2 d 18 -4 d 18 -5 d 18 -6 d 18 -7 d 18 -8 d 17 -10 d 18 -10 d
 36 -25 d 36 -29 d 18 -16 d 18 -18 d 18 -18 d 18 -20 d 18 -21 d 18 -22 d 17 -23 d 18 -24 d 18 -25 d 18 -27 d 18 -27 d 18 -29 d 18 -30 d 18 -31 d 36 -66 d 36 -70 d 35 -75 d s 0.54 0.66 0.63 c black 0.54 0.66 0.63 c 1270 634 m 6 31 d s 1276 665 m 18 76
 d 18 71 d 9 33 d 9 33 d 9 31 d 9 29 d 9 29 d 9 27 d 9 25 d 9 25 d 9 23 d 9 22 d 9 20 d 9 20 d 9 18 d 9 16 d 36 54 d 9 11 d 8 9 d 9 7 d 9 7 d 9 5 d 5 2 d 4 2 d 5 1 d 4 1 d 5 1 d 4 1 d 9 X 5 -1 d 4 -1 d 5 -1 d 4 -1 d 5 -2 d 4 -2 d 9 -6 d 9 -6 d 9 -8 d
 9 -9 d 9 -10 d 9 -12 d 18 -27 d 9 -16 d 9 -16 d 9 -19 d 9 -19 d 8 -21 d 9 -22 d 9 -23 d 9 -24 d 9 -26 d 9 -27 d 9 -29 d 9 -29 d 9 -31 d 9 -33 d 18 -68 d 18 -74 d 15 -67 d s black[  ] 0 sd 3 lw 363 634 m 1791 X s 434 659 m -25 Y s 506 646 m -12 Y s
 578 646 m -12 Y s 649 646 m -12 Y s 721 659 m -25 Y s 793 646 m -12 Y s 864 646 m -12 Y s 936 646 m -12 Y s 1008 659 m -25 Y s 1079 646 m -12 Y s 1151 646 m -12 Y s 1223 646 m -12 Y s 1294 659 m -25 Y s 1366 646 m -12 Y s 1438 646 m -12 Y s 1509 646
 m -12 Y s 1581 659 m -25 Y s 1653 646 m -12 Y s 1724 646 m -12 Y s 1796 646 m -12 Y s 1868 659 m -25 Y s 1939 646 m -12 Y s 2011 646 m -12 Y s 2083 646 m -12 Y s 2154 659 m -25 Y s 434 659 m -25 Y s 363 646 m -12 Y s 363 1484 m 1791 X s 434 1459 m
 25 Y s 506 1471 m 13 Y s 578 1471 m 13 Y s 649 1471 m 13 Y s 721 1459 m 25 Y s 793 1471 m 13 Y s 864 1471 m 13 Y s 936 1471 m 13 Y s 1008 1459 m 25 Y s 1079 1471 m 13 Y s 1151 1471 m 13 Y s 1223 1471 m 13 Y s 1294 1459 m 25 Y s 1366 1471 m 13 Y s
 1438 1471 m 13 Y s 1509 1471 m 13 Y s 1581 1459 m 25 Y s 1653 1471 m 13 Y s 1724 1471 m 13 Y s 1796 1471 m 13 Y s 1868 1459 m 25 Y s 1939 1471 m 13 Y s 2011 1471 m 13 Y s 2083 1471 m 13 Y s 2154 1459 m 25 Y s 434 1459 m 25 Y s 363 1471 m 13 Y s 363
 634 m 850 Y s 390 654 m -27 X s 390 694 m -27 X s 390 725 m -27 X s 390 751 m -27 X s 390 772 m -27 X s 390 791 m -27 X s 390 807 m -27 X s 417 822 m -54 X s 390 918 m -27 X s 390 975 m -27 X s 390 1015 m -27 X s 390 1046 m -27 X s 390 1071 m -27 X
 s 390 1093 m -27 X s 390 1111 m -27 X s 390 1128 m -27 X s 417 1143 m -54 X s 390 1239 m -27 X s 390 1295 m -27 X s 390 1336 m -27 X s 390 1367 m -27 X s 390 1392 m -27 X s 390 1413 m -27 X s 390 1432 m -27 X s 390 1448 m -27 X s 417 1463 m -54 X s
 2154 634 m 850 Y s 2127 654 m 27 X s 2127 694 m 27 X s 2127 725 m 27 X s 2127 751 m 27 X s 2127 772 m 27 X s 2127 791 m 27 X s 2127 807 m 27 X s 2101 822 m 53 X s 2127 918 m 27 X s 2127 975 m 27 X s 2127 1015 m 27 X s 2127 1046 m 27 X s 2127 1071 m
 27 X s 2127 1093 m 27 X s 2127 1111 m 27 X s 2127 1128 m 27 X s 2101 1143 m 53 X s 2127 1239 m 27 X s 2127 1295 m 27 X s 2127 1336 m 27 X s 2127 1367 m 27 X s 2127 1392 m 27 X s 2127 1413 m 27 X s 2127 1432 m 27 X s 2127 1448 m 27 X s 2101 1463 m 53
 X s
 gsave  2268 1077 0 461 C 677.708 1215.31 t 0 r /Helvetica findfont 58.7189 sf 0 0 m (4mu) show NC gr  1 1 1 c 453 161 454 1269 bf black
 gsave  2268 1077 0 461 C 566.929 1371.71 t 0 r /Helvetica-Bold findfont 48.9324 sf 0 0 m (MC15) show NC gr  510 1390 m20
 gsave  2268 1077 0 461 C 566.929 1293.51 t 0 r /Helvetica-Bold findfont 48.9324 sf 0 0 m (Projection of Signal pdf) show NC gr  0 0 1 c 9 lw 471 1309 m 79 X s black 3 lw 1 1 1 c 2268 461 0 0 bf black 1 1 1 c 1791 364 363 74 bf black 1791 364 363 74
 bl 363 74 m 1791 X s
 gsave  2268 461 0 0 C 1915.83 13.0329 t 0 r /Helvetica findfont 22.9045 sf 0 0 m (4l Invariant Mass \(GeV\)) show NC gr  434 85 m -11 Y s 506 79 m -5 Y s 578 79 m -5 Y s 649 79 m -5 Y s 721 85 m -11 Y s 793 79 m -5 Y s 864 79 m -5 Y s 936 79 m -5 Y
 s 1008 85 m -11 Y s 1079 79 m -5 Y s 1151 79 m -5 Y s 1223 79 m -5 Y s 1294 85 m -11 Y s 1366 79 m -5 Y s 1438 79 m -5 Y s 1509 79 m -5 Y s 1581 85 m -11 Y s 1653 79 m -5 Y s 1724 79 m -5 Y s 1796 79 m -5 Y s 1868 85 m -11 Y s 1939 79 m -5 Y s 2011
 79 m -5 Y s 2083 79 m -5 Y s 2154 85 m -11 Y s 434 85 m -11 Y s 363 79 m -5 Y s
 gsave  2268 461 0 0 C 413.793 55.3896 t 0 r /Helvetica findfont 22.9045 sf 0 0 m (520) show NC gr 
 gsave  2268 461 0 0 C 700.516 55.3896 t 0 r /Helvetica findfont 22.9045 sf 0 0 m (540) show NC gr 
 gsave  2268 461 0 0 C 987.239 55.3896 t 0 r /Helvetica findfont 22.9045 sf 0 0 m (560) show NC gr 
 gsave  2268 461 0 0 C 1273.96 55.3896 t 0 r /Helvetica findfont 22.9045 sf 0 0 m (580) show NC gr 
 gsave  2268 461 0 0 C 1560.68 55.3896 t 0 r /Helvetica findfont 22.9045 sf 0 0 m (600) show NC gr 
 gsave  2268 461 0 0 C 1847.41 55.3896 t 0 r /Helvetica findfont 22.9045 sf 0 0 m (620) show NC gr 
 gsave  2268 461 0 0 C 2134.13 55.3896 t 0 r /Helvetica findfont 22.9045 sf 0 0 m (640) show NC gr  363 438 m 1791 X s 434 427 m 11 Y s 506 433 m 5 Y s 578 433 m 5 Y s 649 433 m 5 Y s 721 427 m 11 Y s 793 433 m 5 Y s 864 433 m 5 Y s 936 433 m 5 Y s
 1008 427 m 11 Y s 1079 433 m 5 Y s 1151 433 m 5 Y s 1223 433 m 5 Y s 1294 427 m 11 Y s 1366 433 m 5 Y s 1438 433 m 5 Y s 1509 433 m 5 Y s 1581 427 m 11 Y s 1653 433 m 5 Y s 1724 433 m 5 Y s 1796 433 m 5 Y s 1868 427 m 11 Y s 1939 433 m 5 Y s 2011
 433 m 5 Y s 2083 433 m 5 Y s 2154 427 m 11 Y s 434 427 m 11 Y s 363 433 m 5 Y s 363 74 m 364 Y s 417 74 m -54 X s 390 81 m -27 X s 390 88 m -27 X s 390 96 m -27 X s 390 103 m -27 X s 417 110 m -54 X s 390 118 m -27 X s 390 125 m -27 X s 390 132 m
 -27 X s 390 139 m -27 X s 417 147 m -54 X s 390 154 m -27 X s 390 161 m -27 X s 390 169 m -27 X s 390 176 m -27 X s 417 183 m -54 X s 390 190 m -27 X s 390 198 m -27 X s 390 205 m -27 X s 390 212 m -27 X s 417 220 m -54 X s 390 227 m -27 X s 390 234
 m -27 X s 390 241 m -27 X s 390 249 m -27 X s 417 256 m -54 X s 390 263 m -27 X s 390 271 m -27 X s 390 278 m -27 X s 390 285 m -27 X s 417 293 m -54 X s 390 300 m -27 X s 390 307 m -27 X s 390 314 m -27 X s 390 322 m -27 X s 417 329 m -54 X s 390
 336 m -27 X s 390 344 m -27 X s 390 351 m -27 X s 390 358 m -27 X s 417 365 m -54 X s 390 373 m -27 X s 390 380 m -27 X s 390 387 m -27 X s 390 395 m -27 X s 417 402 m -54 X s 390 409 m -27 X s 390 416 m -27 X s 390 424 m -27 X s 390 431 m -27 X s
 417 438 m -54 X s
 gsave  2268 461 0 0 C 329.08 65.1643 t 0 r /Helvetica findfont 22.9045 sf 0 0 m (\2555) show NC gr 
 gsave  2268 461 0 0 C 329.08 101.005 t 0 r /Helvetica findfont 22.9045 sf 0 0 m (\2554) show NC gr 
 gsave  2268 461 0 0 C 329.08 140.103 t 0 r /Helvetica findfont 22.9045 sf 0 0 m (\2553) show NC gr 
 gsave  2268 461 0 0 C 329.08 175.944 t 0 r /Helvetica findfont 22.9045 sf 0 0 m (\2552) show NC gr 
 gsave  2268 461 0 0 C 332.338 211.784 t 0 r /Helvetica findfont 22.9045 sf 0 0 m (\2551) show NC gr 
 gsave  2268 461 0 0 C 335.596 247.624 t 0 r /Helvetica findfont 22.9045 sf 0 0 m (0) show NC gr 
 gsave  2268 461 0 0 C 338.854 283.465 t 0 r /Helvetica findfont 22.9045 sf 0 0 m (1) show NC gr 
 gsave  2268 461 0 0 C 335.596 319.305 t 0 r /Helvetica findfont 22.9045 sf 0 0 m (2) show NC gr 
 gsave  2268 461 0 0 C 335.596 358.403 t 0 r /Helvetica findfont 22.9045 sf 0 0 m (3) show NC gr 
 gsave  2268 461 0 0 C 335.596 394.244 t 0 r /Helvetica findfont 22.9045 sf 0 0 m (4) show NC gr 
 gsave  2268 461 0 0 C 335.596 430.084 t 0 r /Helvetica findfont 22.9045 sf 0 0 m (5) show NC gr  2154 74 m 364 Y s 2101 74 m 53 X s 2127 81 m 27 X s 2127 88 m 27 X s 2127 96 m 27 X s 2127 103 m 27 X s 2101 110 m 53 X s 2127 118 m 27 X s 2127 125 m
 27 X s 2127 132 m 27 X s 2127 139 m 27 X s 2101 147 m 53 X s 2127 154 m 27 X s 2127 161 m 27 X s 2127 169 m 27 X s 2127 176 m 27 X s 2101 183 m 53 X s 2127 190 m 27 X s 2127 198 m 27 X s 2127 205 m 27 X s 2127 212 m 27 X s 2101 220 m 53 X s 2127 227
 m 27 X s 2127 234 m 27 X s 2127 241 m 27 X s 2127 249 m 27 X s 2101 256 m 53 X s 2127 263 m 27 X s 2127 271 m 27 X s 2127 278 m 27 X s 2127 285 m 27 X s 2101 293 m 53 X s 2127 300 m 27 X s 2127 307 m 27 X s 2127 314 m 27 X s 2127 322 m 27 X s 2101
 329 m 53 X s 2127 336 m 27 X s 2127 344 m 27 X s 2127 351 m 27 X s 2127 358 m 27 X s 2101 365 m 53 X s 2127 373 m 27 X s 2127 380 m 27 X s 2127 387 m 27 X s 2127 395 m 27 X s 2101 402 m 53 X s 2127 409 m 27 X s 2127 416 m 27 X s 2127 424 m 27 X s
 2127 431 m 27 X s 2101 438 m 53 X s 6 lw 0.2 0.8 0.2 c black 3 lw 0.2 0.8 0.2 c 363 256 m 51 Y 36 X -36 Y 35 X -67 Y 36 X 71 Y 36 X -29 Y 36 X -19 Y 36 X -66 Y 36 X 156 Y 35 X -75 Y 36 X 19 Y 36 X 1 Y 36 X 35 Y 36 X -52 Y 36 X 2 Y 35 X 59 Y 36 X -47
 Y 36 X 15 Y 36 X -50 Y 36 X -4 Y 36 X -20 Y 35 X 79 Y 36 X -34 Y 36 X 17 Y 36 X -17 Y 36 X 67 Y 36 X -35 Y 35 X 79 Y 36 X -79 Y 36 X -69 Y 36 X 49 Y 36 X -67 Y 36 X -7 Y 35 X 77 Y 36 X 57 Y 36 X -49 Y 36 X 20 Y 36 X -13 Y 36 X -35 Y 35 X 64 Y 36 X
 -112 Y 36 X 51 Y 36 X 19 Y 36 X -99 Y 36 X 66 Y 35 X -21 Y 36 X 81 Y 36 X -31 Y 36 X 6 Y 36 X 33 Y 36 X -11 Y 35 X -30 Y f 6 lw black 0.2 0.8 0.2 c black 363 307 m 36 X -36 Y 35 X -67 Y 36 X 71 Y 36 X -29 Y 36 X -19 Y 36 X -66 Y 36 X 156 Y 35 X -75
 Y 36 X 19 Y 36 X 1 Y 36 X 35 Y 36 X -52 Y 36 X 2 Y 35 X 59 Y 36 X -47 Y 36 X 15 Y 36 X -50 Y 36 X -4 Y 36 X -20 Y 35 X 79 Y 36 X -34 Y 36 X 17 Y 36 X -17 Y 36 X 67 Y 36 X -35 Y 35 X 79 Y 36 X -79 Y 36 X -69 Y 36 X 49 Y 36 X -67 Y 36 X -7 Y 35 X 77 Y
 36 X 57 Y 36 X -49 Y 36 X 20 Y 36 X -13 Y 36 X -35 Y 35 X 64 Y 36 X -112 Y 36 X 51 Y 36 X 19 Y 36 X -99 Y 36 X 66 Y 35 X -21 Y 36 X 81 Y 36 X -31 Y 36 X 6 Y 36 X 33 Y 36 X -11 Y 35 X s 3 lw 363 74 m 1791 X s 434 85 m -11 Y s 506 79 m -5 Y s 578 79 m
 -5 Y s 649 79 m -5 Y s 721 85 m -11 Y s 793 79 m -5 Y s 864 79 m -5 Y s 936 79 m -5 Y s 1008 85 m -11 Y s 1079 79 m -5 Y s 1151 79 m -5 Y s 1223 79 m -5 Y s 1294 85 m -11 Y s 1366 79 m -5 Y s 1438 79 m -5 Y s 1509 79 m -5 Y s 1581 85 m -11 Y s 1653
 79 m -5 Y s 1724 79 m -5 Y s 1796 79 m -5 Y s 1868 85 m -11 Y s 1939 79 m -5 Y s 2011 79 m -5 Y s 2083 79 m -5 Y s 2154 85 m -11 Y s 434 85 m -11 Y s 363 79 m -5 Y s 363 438 m 1791 X s 434 427 m 11 Y s 506 433 m 5 Y s 578 433 m 5 Y s 649 433 m 5 Y s
 721 427 m 11 Y s 793 433 m 5 Y s 864 433 m 5 Y s 936 433 m 5 Y s 1008 427 m 11 Y s 1079 433 m 5 Y s 1151 433 m 5 Y s 1223 433 m 5 Y s 1294 427 m 11 Y s 1366 433 m 5 Y s 1438 433 m 5 Y s 1509 433 m 5 Y s 1581 427 m 11 Y s 1653 433 m 5 Y s 1724 433 m
 5 Y s 1796 433 m 5 Y s 1868 427 m 11 Y s 1939 433 m 5 Y s 2011 433 m 5 Y s 2083 433 m 5 Y s 2154 427 m 11 Y s 434 427 m 11 Y s 363 433 m 5 Y s 363 74 m 364 Y s 417 74 m -54 X s 390 81 m -27 X s 390 88 m -27 X s 390 96 m -27 X s 390 103 m -27 X s 417
 110 m -54 X s 390 118 m -27 X s 390 125 m -27 X s 390 132 m -27 X s 390 139 m -27 X s 417 147 m -54 X s 390 154 m -27 X s 390 161 m -27 X s 390 169 m -27 X s 390 176 m -27 X s 417 183 m -54 X s 390 190 m -27 X s 390 198 m -27 X s 390 205 m -27 X s
 390 212 m -27 X s 417 220 m -54 X s 390 227 m -27 X s 390 234 m -27 X s 390 241 m -27 X s 390 249 m -27 X s 417 256 m -54 X s 390 263 m -27 X s 390 271 m -27 X s 390 278 m -27 X s 390 285 m -27 X s 417 293 m -54 X s 390 300 m -27 X s 390 307 m -27 X
 s 390 314 m -27 X s 390 322 m -27 X s 417 329 m -54 X s 390 336 m -27 X s 390 344 m -27 X s 390 351 m -27 X s 390 358 m -27 X s 417 365 m -54 X s 390 373 m -27 X s 390 380 m -27 X s 390 387 m -27 X s 390 395 m -27 X s 417 402 m -54 X s 390 409 m -27
 X s 390 416 m -27 X s 390 424 m -27 X s 390 431 m -27 X s 417 438 m -54 X s 2154 74 m 364 Y s 2101 74 m 53 X s 2127 81 m 27 X s 2127 88 m 27 X s 2127 96 m 27 X s 2127 103 m 27 X s 2101 110 m 53 X s 2127 118 m 27 X s 2127 125 m 27 X s 2127 132 m 27 X
 s 2127 139 m 27 X s 2101 147 m 53 X s 2127 154 m 27 X s 2127 161 m 27 X s 2127 169 m 27 X s 2127 176 m 27 X s 2101 183 m 53 X s 2127 190 m 27 X s 2127 198 m 27 X s 2127 205 m 27 X s 2127 212 m 27 X s 2101 220 m 53 X s 2127 227 m 27 X s 2127 234 m 27
 X s 2127 241 m 27 X s 2127 249 m 27 X s 2101 256 m 53 X s 2127 263 m 27 X s 2127 271 m 27 X s 2127 278 m 27 X s 2127 285 m 27 X s 2101 293 m 53 X s 2127 300 m 27 X s 2127 307 m 27 X s 2127 314 m 27 X s 2127 322 m 27 X s 2101 329 m 53 X s 2127 336 m
 27 X s 2127 344 m 27 X s 2127 351 m 27 X s 2127 358 m 27 X s 2101 365 m 53 X s 2127 373 m 27 X s 2127 380 m 27 X s 2127 387 m 27 X s 2127 395 m 27 X s 2101 402 m 53 X s 2127 409 m 27 X s 2127 416 m 27 X s 2127 424 m 27 X s 2127 431 m 27 X s 2101 438
 m 53 X s
 gr  gr showpage
end
%%EOF
