%!PS-Adobe-2.0 EPSF-2.0
%%BoundingBox:  0 0 567 384
%%Title: H4l2015_plotfit/gg_mass_signal_500_fixed_H4l_2mu2e.eps: 
%%Creator: ROOT Version 5.34/10
%%CreationDate: Thu Feb 16 15:43:03 2017
%%EndComments
%%BeginProlog
80 dict begin
/s {stroke} def /l {lineto} def /m {moveto} def /t {translate} def
/r {rotate} def /rl {roll}  def /R {repeat} def
/d {rlineto} def /rm {rmoveto} def /gr {grestore} def /f {eofill} def
/c {setrgbcolor} def /black {0 setgray} def /sd {setdash} def
/cl {closepath} def /sf {scalefont setfont} def /lw {setlinewidth} def
/box {m dup 0 exch d exch 0 d 0 exch neg d cl} def
/NC{systemdict begin initclip end}def/C{NC box clip newpath}def
/bl {box s} def /bf {box f} def /Y { 0 exch d} def /X { 0 d} def 
/K {{pop pop 0 moveto} exch kshow} bind def
/ita {/ang 15 def gsave [1 0 ang dup sin exch cos div 1 0 0] concat} def 
/mp {newpath /y exch def /x exch def} def
/side {[w .77 mul w .23 mul] .385 w mul sd w 0 l currentpoint t -144 r} def
/mr {mp x y w2 0 360 arc} def /m24 {mr s} def /m20 {mr f} def
/mb {mp x y w2 add m w2 neg 0 d 0 w neg d w 0 d 0 w d cl} def
/mt {mp x y w2 add m w2 neg w neg d w 0 d cl} def
/m21 {mb f} def /m25 {mb s} def /m22 {mt f} def /m26{mt s} def
/m23 {mp x y w2 sub m w2 w d w neg 0 d cl f} def
/m27 {mp x y w2 add m w3 neg w2 neg d w3 w2 neg d w3 w2 d cl s} def
/m28 {mp x w2 sub y w2 sub w3 add m w3 0 d  0 w3 neg d w3 0 d 0 w3 d w3 0 d  0 w3 d w3 neg 0 d 0 w3 d w3 neg 0 d 0 w3 neg d w3 neg 0 d cl s } def
/m29 {mp gsave x w2 sub y w2 add w3 sub m currentpoint t 4 {side} repeat cl fill gr} def
/m30 {mp gsave x w2 sub y w2 add w3 sub m currentpoint t 4 {side} repeat cl s gr} def
/m31 {mp x y w2 sub m 0 w d x w2 sub y m w 0 d x w2 sub y w2 add m w w neg d x w2 sub y w2 sub m w w d s} def
/m32 {mp x y w2 sub m w2 w d w neg 0 d cl s} def
/m33 {mp x y w2 add m w3 neg w2 neg d w3 w2 neg d w3 w2 d cl f} def
/m34 {mp x w2 sub y w2 sub w3 add m w3 0 d  0 w3 neg d w3 0 d 0 w3 d w3 0 d  0 w3 d w3 neg 0 d 0 w3 d w3 neg 0 d 0 w3 neg d w3 neg 0 d cl f } def
/m2 {mp x y w2 sub m 0 w d x w2 sub y m w 0 d s} def
/m5 {mp x w2 sub y w2 sub m w w d x w2 sub y w2 add m w w neg d s} def
/reEncode {exch findfont dup length dict begin {1 index /FID eq  {pop pop} {def} ifelse } forall /Encoding exch def currentdict end dup /FontName get exch definefont pop } def [/Times-Bold /Times-Italic /Times-BoldItalic /Helvetica /Helvetica-Oblique
 /Helvetica-Bold /Helvetica-BoldOblique /Courier /Courier-Oblique /Courier-Bold /Courier-BoldOblique /Times-Roman /AvantGarde-Book /AvantGarde-BookOblique /AvantGarde-Demi /AvantGarde-DemiOblique /Bookman-Demi /Bookman-DemiItalic /Bookman-Light
 /Bookman-LightItalic /Helvetica-Narrow /Helvetica-Narrow-Bold /Helvetica-Narrow-BoldOblique /Helvetica-Narrow-Oblique /NewCenturySchlbk-Roman /NewCenturySchlbk-Bold /NewCenturySchlbk-BoldItalic /NewCenturySchlbk-Italic /Palatino-Bold
 /Palatino-BoldItalic /Palatino-Italic /Palatino-Roman ] {ISOLatin1Encoding reEncode } forall
%%EndProlog
%%BeginSetup
%%EndSetup
newpath  gsave  .25 .25 scale  gsave  0 0 t black[  ] 0 sd 3 lw 1 1 1 c 2268 1538 0 0 bf black 1 1 1 c 2222 738 23 784 bf black 1 1 1 c 2222 739 23 15 bf black 1 1 1 c 2268 1077 0 461 bf black 1 1 1 c 1791 850 363 634 bf black 1791 850 363 634 bl 363
 634 m 1791 X s
 gsave  2268 1077 0 461 C 1642.14 498.507 t 0 r /Helvetica findfont 48.9324 sf 0 0 m (4l Invariant Mass \(GeV\)) show NC gr  363 659 m -25 Y s 403 646 m -12 Y s 442 646 m -12 Y s 482 646 m -12 Y s 522 646 m -12 Y s 562 659 m -25 Y s 602 646 m -12 Y s
 642 646 m -12 Y s 681 646 m -12 Y s 721 646 m -12 Y s 761 659 m -25 Y s 801 646 m -12 Y s 841 646 m -12 Y s 880 646 m -12 Y s 920 646 m -12 Y s 960 659 m -25 Y s 1000 646 m -12 Y s 1040 646 m -12 Y s 1079 646 m -12 Y s 1119 646 m -12 Y s 1159 659 m
 -25 Y s 1199 646 m -12 Y s 1239 646 m -12 Y s 1278 646 m -12 Y s 1318 646 m -12 Y s 1358 659 m -25 Y s 1398 646 m -12 Y s 1438 646 m -12 Y s 1478 646 m -12 Y s 1517 646 m -12 Y s 1557 659 m -25 Y s 1597 646 m -12 Y s 1637 646 m -12 Y s 1677 646 m
 -12 Y s 1716 646 m -12 Y s 1756 659 m -25 Y s 1796 646 m -12 Y s 1836 646 m -12 Y s 1876 646 m -12 Y s 1915 646 m -12 Y s 1955 659 m -25 Y s 1995 646 m -12 Y s 2035 646 m -12 Y s 2075 646 m -12 Y s 2115 646 m -12 Y s 2154 659 m -25 Y s
 gsave  2268 1077 0 461 C 319.305 586.478 t 0 r /Helvetica findfont 48.9324 sf 0 0 m (440) show NC gr 
 gsave  2268 1077 0 461 C 518.056 586.478 t 0 r /Helvetica findfont 48.9324 sf 0 0 m (450) show NC gr 
 gsave  2268 1077 0 461 C 716.807 586.478 t 0 r /Helvetica findfont 48.9324 sf 0 0 m (460) show NC gr 
 gsave  2268 1077 0 461 C 915.558 586.478 t 0 r /Helvetica findfont 48.9324 sf 0 0 m (470) show NC gr 
 gsave  2268 1077 0 461 C 1114.31 586.478 t 0 r /Helvetica findfont 48.9324 sf 0 0 m (480) show NC gr 
 gsave  2268 1077 0 461 C 1313.06 586.478 t 0 r /Helvetica findfont 48.9324 sf 0 0 m (490) show NC gr 
 gsave  2268 1077 0 461 C 1511.81 586.478 t 0 r /Helvetica findfont 48.9324 sf 0 0 m (500) show NC gr 
 gsave  2268 1077 0 461 C 1713.82 586.478 t 0 r /Helvetica findfont 48.9324 sf 0 0 m (510) show NC gr 
 gsave  2268 1077 0 461 C 1912.57 586.478 t 0 r /Helvetica findfont 48.9324 sf 0 0 m (520) show NC gr 
 gsave  2268 1077 0 461 C 2111.32 586.478 t 0 r /Helvetica findfont 48.9324 sf 0 0 m (530) show NC gr  363 1484 m 1791 X s 363 1459 m 25 Y s 403 1471 m 13 Y s 442 1471 m 13 Y s 482 1471 m 13 Y s 522 1471 m 13 Y s 562 1459 m 25 Y s 602 1471 m 13 Y s
 642 1471 m 13 Y s 681 1471 m 13 Y s 721 1471 m 13 Y s 761 1459 m 25 Y s 801 1471 m 13 Y s 841 1471 m 13 Y s 880 1471 m 13 Y s 920 1471 m 13 Y s 960 1459 m 25 Y s 1000 1471 m 13 Y s 1040 1471 m 13 Y s 1079 1471 m 13 Y s 1119 1471 m 13 Y s 1159 1459 m
 25 Y s 1199 1471 m 13 Y s 1239 1471 m 13 Y s 1278 1471 m 13 Y s 1318 1471 m 13 Y s 1358 1459 m 25 Y s 1398 1471 m 13 Y s 1438 1471 m 13 Y s 1478 1471 m 13 Y s 1517 1471 m 13 Y s 1557 1459 m 25 Y s 1597 1471 m 13 Y s 1637 1471 m 13 Y s 1677 1471 m 13
 Y s 1716 1471 m 13 Y s 1756 1459 m 25 Y s 1796 1471 m 13 Y s 1836 1471 m 13 Y s 1876 1471 m 13 Y s 1915 1471 m 13 Y s 1955 1459 m 25 Y s 1995 1471 m 13 Y s 2035 1471 m 13 Y s 2075 1471 m 13 Y s 2115 1471 m 13 Y s 2154 1459 m 25 Y s 363 634 m 850 Y s
 gsave  2268 1077 0 461 C 120.554 1058.92 t 90 r /Helvetica findfont 48.9324 sf 0 0 m (Events / \( 1.8 GeV \)) show NC gr  390 660 m -27 X s 390 690 m -27 X s 390 714 m -27 X s 390 735 m -27 X s 390 753 m -27 X s 390 768 m -27 X s 417 782 m -54 X s
 gsave  2268 1077 0 461 C 342.425 761.404 t 0 r  -55 0 t /Helvetica findfont 48.9324 sf 0 0 m (10) show NC gr  390 874 m -27 X s 390 928 m -27 X s 390 967 m -27 X s 390 996 m -27 X s 390 1020 m -27 X s 390 1041 m -27 X s 390 1059 m -27 X s 390 1074 m
 -27 X s 417 1088 m -54 X s
 gsave  2268 1077 0 461 C 322.563 1088.24 t 0 r /Helvetica findfont 32.6216 sf 0 0 m (2) show NC gr 
 gsave  2268 1077 0 461 C 270.432 1068.69 t 0 r /Helvetica findfont 48.9324 sf 0 0 m (10) show NC gr  390 1181 m -27 X s 390 1234 m -27 X s 390 1273 m -27 X s 390 1302 m -27 X s 390 1327 m -27 X s 390 1347 m -27 X s 390 1365 m -27 X s 390 1380 m -27
 X s 417 1394 m -54 X s
 gsave  2268 1077 0 461 C 322.563 1394.52 t 0 r /Helvetica findfont 32.6216 sf 0 0 m (3) show NC gr 
 gsave  2268 1077 0 461 C 270.432 1371.71 t 0 r /Helvetica findfont 48.9324 sf 0 0 m (10) show NC gr  2154 634 m 850 Y s 2127 660 m 27 X s 2127 690 m 27 X s 2127 714 m 27 X s 2127 735 m 27 X s 2127 753 m 27 X s 2127 768 m 27 X s 2101 782 m 53 X s
 2127 874 m 27 X s 2127 928 m 27 X s 2127 967 m 27 X s 2127 996 m 27 X s 2127 1020 m 27 X s 2127 1041 m 27 X s 2127 1059 m 27 X s 2127 1074 m 27 X s 2101 1088 m 53 X s 2127 1181 m 27 X s 2127 1234 m 27 X s 2127 1273 m 27 X s 2127 1302 m 27 X s 2127
 1327 m 27 X s 2127 1347 m 27 X s 2127 1365 m 27 X s 2127 1380 m 27 X s 2101 1394 m 53 X s 381 782 m -18 X s 363 782 m cl s 381 782 m 18 X s 399 782 m cl s 381 782 m 48 Y s 381 830 m cl s 381 782 m -49 Y s 381 733 m cl s 417 782 m -18 X s 399 782 m
 cl s 417 782 m 17 X s 434 782 m cl s 417 782 m 48 Y s 417 830 m cl s 417 782 m -49 Y s 417 733 m cl s 452 768 m -18 X s 434 768 m cl s 452 768 m 18 X s 470 768 m cl s 452 768 m 50 Y s 452 818 m cl s 452 768 m -52 Y s 452 716 m cl s 488 868 m -18 X s
 470 868 m cl s 488 868 m 18 X s 506 868 m cl s 488 868 m 33 Y s 488 901 m cl s 488 868 m -35 Y s 488 833 m cl s 524 817 m -18 X s 506 817 m cl s 524 817 m 18 X s 542 817 m cl s 524 817 m 41 Y s 524 858 m cl s 524 817 m -42 Y s 524 775 m cl s 560 881
 m -18 X s 542 881 m cl s 560 881 m 18 X s 578 881 m cl s 560 881 m 32 Y s 560 913 m cl s 560 881 m -33 Y s 560 848 m cl s 596 853 m -18 X s 578 853 m cl s 596 853 m 18 X s 614 853 m cl s 596 853 m 35 Y s 596 888 m cl s 596 853 m -37 Y s 596 816 m cl
 s 632 827 m -18 X s 614 827 m cl s 632 827 m 17 X s 649 827 m cl s 632 827 m 39 Y s 632 866 m cl s 632 827 m -41 Y s 632 786 m cl s 667 874 m -18 X s 649 874 m cl s 667 874 m 18 X s 685 874 m cl s 667 874 m 33 Y s 667 907 m cl s 667 874 m -33 Y s
 667 841 m cl s 703 909 m -18 X s 685 909 m cl s 703 909 m 18 X s 721 909 m cl s 703 909 m 29 Y s 703 938 m cl s 703 909 m -29 Y s 703 880 m cl s 739 795 m -18 X s 721 795 m cl s 739 795 m 18 X s 757 795 m cl s 739 795 m 45 Y s 739 840 m cl s 739 795
 m -47 Y s 739 748 m cl s 775 937 m -18 X s 757 937 m cl s 775 937 m 18 X s 793 937 m cl s 775 937 m 25 Y s 775 962 m cl s 775 937 m -26 Y s 775 911 m cl s 811 937 m -18 X s 793 937 m cl s 811 937 m 18 X s 829 937 m cl s 811 937 m 25 Y s 811 962 m cl
 s 811 937 m -26 Y s 811 911 m cl s 847 933 m -18 X s 829 933 m cl s 847 933 m 17 X s 864 933 m cl s 847 933 m 25 Y s 847 958 m cl s 847 933 m -26 Y s 847 907 m cl s 882 985 m -18 X s 864 985 m cl s 882 985 m 18 X s 900 985 m cl s 882 985 m 21 Y s
 882 1006 m cl s 882 985 m -21 Y s 882 964 m cl s 918 937 m -18 X s 900 937 m cl s 918 937 m 18 X s 936 937 m cl s 918 937 m 25 Y s 918 962 m cl s 918 937 m -26 Y s 918 911 m cl s 954 1004 m -18 X s 936 1004 m cl s 954 1004 m 18 X s 972 1004 m cl s
 954 1004 m 19 Y s 954 1023 m cl s 954 1004 m -20 Y s 954 984 m cl s 990 1027 m -18 X s 972 1027 m cl s 990 1027 m 18 X s 1008 1027 m cl s 990 1027 m 18 Y s 990 1045 m cl s 990 1027 m -18 Y s 990 1009 m cl s 1026 1035 m -18 X s 1008 1035 m cl s 1026
 1035 m 18 X s 1044 1035 m cl s 1026 1035 m 17 Y s 1026 1052 m cl s 1026 1035 m -17 Y s 1026 1018 m cl s 1062 1068 m -18 X s 1044 1068 m cl s 1062 1068 m 17 X s 1079 1068 m cl s 1062 1068 m 15 Y s 1062 1083 m cl s 1062 1068 m -15 Y s 1062 1053 m cl s
 1097 1076 m -18 X s 1079 1076 m cl s 1097 1076 m 18 X s 1115 1076 m cl s 1097 1076 m 14 Y s 1097 1090 m cl s 1097 1076 m -15 Y s 1097 1061 m cl s 1133 1142 m -18 X s 1115 1142 m cl s 1133 1142 m 18 X s 1151 1142 m cl s 1133 1142 m 11 Y s 1133 1153 m
 cl s 1133 1142 m -11 Y s 1133 1131 m cl s 1169 1151 m -18 X s 1151 1151 m cl s 1169 1151 m 18 X s 1187 1151 m cl s 1169 1151 m 10 Y s 1169 1161 m cl s 1169 1151 m -11 Y s 1169 1140 m cl s 1205 1169 m -18 X s 1187 1169 m cl s 1205 1169 m 18 X s 1223
 1169 m cl s 1205 1169 m 10 Y s 1205 1179 m cl s 1205 1169 m -9 Y s 1205 1160 m cl s 1241 1209 m -18 X s 1223 1209 m cl s 1241 1209 m 18 X s 1259 1209 m cl s 1241 1209 m 9 Y s 1241 1218 m cl s 1241 1209 m -8 Y s 1241 1201 m cl s 1276 1238 m -17 X s
 1259 1238 m cl s 1276 1238 m 18 X s 1294 1238 m cl s 1276 1238 m 8 Y s 1276 1246 m cl s 1276 1238 m -7 Y s 1276 1231 m cl s 1312 1268 m -18 X s 1294 1268 m cl s 1312 1268 m 18 X s 1330 1268 m cl s 1312 1268 m 7 Y s 1312 1275 m cl s 1312 1268 m -6 Y
 s 1312 1262 m cl s 1348 1311 m -18 X s 1330 1311 m cl s 1348 1311 m 18 X s 1366 1311 m cl s 1348 1311 m 6 Y s 1348 1317 m cl s 1348 1311 m -5 Y s 1348 1306 m cl s 1384 1337 m -18 X s 1366 1337 m cl s 1384 1337 m 18 X s 1402 1337 m cl s 1384 1337 m 5
 Y s 1384 1342 m cl s 1384 1337 m -5 Y s 1384 1332 m cl s 1420 1373 m -18 X s 1402 1373 m cl s 1420 1373 m 18 X s 1438 1373 m cl s 1420 1373 m 4 Y s 1420 1377 m cl s 1420 1373 m -5 Y s 1420 1368 m cl s 1456 1402 m -18 X s 1438 1402 m cl s 1456 1402 m
 18 X s 1474 1402 m cl s 1456 1402 m 5 Y s 1456 1407 m cl s 1456 1402 m -4 Y s 1456 1398 m cl s 1491 1420 m -17 X s 1474 1420 m cl s 1491 1420 m 18 X s 1509 1420 m cl s 1491 1420 m 4 Y s 1491 1424 m cl s 1491 1420 m -4 Y s 1491 1416 m cl s 1527 1420
 m -18 X s 1509 1420 m cl s 1527 1420 m 18 X s 1545 1420 m cl s 1527 1420 m 4 Y s 1527 1424 m cl s 1527 1420 m -4 Y s 1527 1416 m cl s 1563 1418 m -18 X s 1545 1418 m cl s 1563 1418 m 18 X s 1581 1418 m cl s 1563 1418 m 4 Y s 1563 1422 m cl s 1563
 1418 m -4 Y s 1563 1414 m cl s 1599 1399 m -18 X s 1581 1399 m cl s 1599 1399 m 18 X s 1617 1399 m cl s 1599 1399 m 4 Y s 1599 1403 m cl s 1599 1399 m -5 Y s 1599 1394 m cl s 1635 1374 m -18 X s 1617 1374 m cl s 1635 1374 m 18 X s 1653 1374 m cl s
 1635 1374 m 4 Y s 1635 1378 m cl s 1635 1374 m -5 Y s 1635 1369 m cl s 1671 1331 m -18 X s 1653 1331 m cl s 1671 1331 m 18 X s 1689 1331 m cl s 1671 1331 m 5 Y s 1671 1336 m cl s 1671 1331 m -6 Y s 1671 1325 m cl s 1706 1272 m -17 X s 1689 1272 m cl
 s 1706 1272 m 18 X s 1724 1272 m cl s 1706 1272 m 7 Y s 1706 1279 m cl s 1706 1272 m -6 Y s 1706 1266 m cl s 1742 1219 m -18 X s 1724 1219 m cl s 1742 1219 m 18 X s 1760 1219 m cl s 1742 1219 m 9 Y s 1742 1228 m cl s 1742 1219 m -8 Y s 1742 1211 m
 cl s 1778 1184 m -18 X s 1760 1184 m cl s 1778 1184 m 18 X s 1796 1184 m cl s 1778 1184 m 9 Y s 1778 1193 m cl s 1778 1184 m -9 Y s 1778 1175 m cl s 1814 1122 m -18 X s 1796 1122 m cl s 1814 1122 m 18 X s 1832 1122 m cl s 1814 1122 m 12 Y s 1814
 1134 m cl s 1814 1122 m -11 Y s 1814 1111 m cl s 1850 1062 m -18 X s 1832 1062 m cl s 1850 1062 m 18 X s 1868 1062 m cl s 1850 1062 m 15 Y s 1850 1077 m cl s 1850 1062 m -16 Y s 1850 1046 m cl s 1886 999 m -18 X s 1868 999 m cl s 1886 999 m 18 X s
 1904 999 m cl s 1886 999 m 20 Y s 1886 1019 m cl s 1886 999 m -20 Y s 1886 979 m cl s 1921 1018 m -17 X s 1904 1018 m cl s 1921 1018 m 18 X s 1939 1018 m cl s 1921 1018 m 19 Y s 1921 1037 m cl s 1921 1018 m -18 Y s 1921 1000 m cl s 1957 953 m -18 X
 s 1939 953 m cl s 1957 953 m 18 X s 1975 953 m cl s 1957 953 m 23 Y s 1957 976 m cl s 1957 953 m -25 Y s 1957 928 m cl s 1993 937 m -18 X s 1975 937 m cl s 1993 937 m 18 X s 2011 937 m cl s 1993 937 m 25 Y s 1993 962 m cl s 1993 937 m -26 Y s 1993
 911 m cl s 2029 827 m -18 X s 2011 827 m cl s 2029 827 m 18 X s 2047 827 m cl s 2029 827 m 39 Y s 2029 866 m cl s 2029 827 m -41 Y s 2029 786 m cl s 2065 690 m -18 X s 2047 690 m cl s 2065 690 m 18 X s 2083 690 m cl s 2065 690 m 69 Y s 2065 759 m cl
 s 2065 690 m -56 Y s 2065 634 m cl s 2101 806 m -18 X s 2083 806 m cl s 2101 806 m 18 X s 2119 806 m cl s 2101 806 m 43 Y s 2101 849 m cl s 2101 806 m -44 Y s 2101 762 m cl s 2136 660 m -17 X s 2119 660 m cl s 2136 660 m 18 X s 2154 660 m cl s 2136
 660 m 78 Y s 2136 738 m cl s 2136 660 m -26 Y s 2136 634 m cl s /w 31 def /w2 {w 2 div} def /w3 {w 3 div} def 381 782 417 782 452 768 488 868 524 817 560 881 596 853 632 827 667 874 703 909 739 795 775 937 811 937 847 933 882 985 918 937 954 1004
 990 1027 1026 1035 1062 1068 1097 1076 1133 1142 1169 1151 1205 1169 1241 1209 1276 1238 1312 1268 1348 1311 1384 1337 1420 1373 1456 1402 1491 1420 1527 1420 1563 1418 1599 1399 1635 1374 1671 1331 1706 1272 1742 1219 1778 1184 1814 1122 1850 1062
 1886 999 1921 1018 1957 953 1993 937 2029 827 2065 690 2101 806 2136 660 50 { m20} R 0 1 1 c 1 1 0 c black 1 1 0 c 363 821 m 36 6 d 35 7 d 36 7 d 36 7 d 36 7 d 36 8 d 36 8 d 35 9 d 36 9 d 36 10 d 36 11 d 36 12 d 36 13 d 35 15 d 36 16 d 36 19 d 36 20
 d 36 23 d 36 24 d 35 26 d 36 26 d 36 27 d 36 28 d 36 28 d 18 14 d 18 14 d 17 14 d 18 16 d 18 15 d 9 9 d 9 8 d 9 9 d 9 10 d 9 10 d 9 11 d 18 21 d 18 20 d 18 17 d 18 15 d 9 6 d 9 6 d 9 5 d 9 5 d 9 3 d 8 3 d 9 3 d 9 1 d 9 1 d 18 X 9 -2 d 9 -2 d 9 -2 d
 9 -4 d 9 -4 d 9 -5 d 9 -5 d 9 -6 d 9 -7 d 36 -34 d 18 -20 d 18 -22 d 8 -12 d 9 -12 d 9 -13 d 9 -12 d 9 -13 d 9 -13 d 9 -13 d 9 -14 d 18 -26 d 18 -26 d 18 -26 d 18 -24 d 18 -24 d 18 -22 d 36 -44 d 35 -43 d 36 -44 d 36 -46 d 36 -49 d 36 -52 d 36 -56 d
 35 -59 d -35 59 d -36 56 d -36 52 d -36 49 d -36 46 d -36 44 d -35 43 d -36 44 d -18 22 d -18 24 d -18 24 d -18 26 d -18 26 d -18 26 d -9 14 d -9 13 d -9 13 d -9 13 d -9 12 d -9 13 d -9 12 d -8 12 d -18 22 d -18 20 d -36 34 d -9 7 d -9 6 d -9 5 d -9
 5 d -9 4 d -9 4 d -9 2 d -9 2 d -9 2 d -18 X -9 -1 d -9 -1 d -9 -3 d -8 -3 d -9 -3 d -9 -5 d -9 -5 d -9 -6 d -9 -6 d -18 -15 d -18 -17 d -18 -20 d -18 -21 d -9 -11 d -9 -10 d -9 -10 d -9 -9 d -9 -8 d -9 -9 d -18 -15 d -18 -16 d -17 -14 d -18 -14 d
 -18 -14 d -36 -28 d -36 -28 d -36 -27 d -36 -26 d -35 -26 d -36 -24 d -36 -23 d -36 -20 d -36 -19 d -36 -16 d -35 -15 d -36 -13 d -36 -12 d -36 -11 d -36 -10 d -36 -9 d -35 -9 d -36 -8 d -36 -8 d -36 -7 d -36 -7 d -36 -7 d -35 -7 d -36 -6 d f 0 1 1
 c 0 1 0 c black 0 1 0 c 363 821 m 36 6 d 35 7 d 36 7 d 36 7 d 36 7 d 36 8 d 36 8 d 35 9 d 36 9 d 36 10 d 36 11 d 36 12 d 36 13 d 35 15 d 36 16 d 36 19 d 36 20 d 36 23 d 36 24 d 35 26 d 36 26 d 36 27 d 36 28 d 36 28 d 18 14 d 18 14 d 17 14 d 18 16 d
 18 15 d 9 9 d 9 8 d 9 9 d 9 10 d 9 10 d 9 11 d 18 21 d 18 20 d 18 17 d 18 15 d 9 6 d 9 6 d 9 5 d 9 5 d 9 3 d 8 3 d 9 3 d 9 1 d 9 1 d 18 X 9 -2 d 9 -2 d 9 -2 d 9 -4 d 9 -4 d 9 -5 d 9 -5 d 9 -6 d 9 -7 d 36 -34 d 18 -20 d 18 -22 d 8 -12 d 9 -12 d 9 -13
 d 9 -12 d 9 -13 d 9 -13 d 9 -13 d 9 -14 d 18 -26 d 18 -26 d 18 -26 d 18 -24 d 18 -24 d 18 -22 d 36 -44 d 35 -43 d 36 -44 d 36 -46 d 36 -49 d 36 -52 d 36 -56 d 35 -59 d -35 59 d -36 56 d -36 52 d -36 49 d -36 46 d -36 44 d -35 43 d -36 44 d -18 22 d
 -18 24 d -18 24 d -18 26 d -18 26 d -18 26 d -9 14 d -9 13 d -9 13 d -9 13 d -9 12 d -9 13 d -9 12 d -8 12 d -18 22 d -18 20 d -36 34 d -9 7 d -9 6 d -9 5 d -9 5 d -9 4 d -9 4 d -9 2 d -9 2 d -9 2 d -18 X -9 -1 d -9 -1 d -9 -3 d -8 -3 d -9 -3 d -9
 -5 d -9 -5 d -9 -6 d -9 -6 d -18 -15 d -18 -17 d -18 -20 d -18 -21 d -9 -11 d -9 -10 d -9 -10 d -9 -9 d -9 -8 d -9 -9 d -18 -15 d -18 -16 d -17 -14 d -18 -14 d -18 -14 d -36 -28 d -36 -28 d -36 -27 d -36 -26 d -35 -26 d -36 -24 d -36 -23 d -36 -20 d
 -36 -19 d -36 -16 d -35 -15 d -36 -13 d -36 -12 d -36 -11 d -36 -10 d -36 -9 d -35 -9 d -36 -8 d -36 -8 d -36 -7 d -36 -7 d -36 -7 d -35 -7 d -36 -6 d f 0 0 1 c 9 lw black 0 0 1 c 363 821 m 36 6 d 35 7 d 36 7 d 36 7 d 36 7 d 36 8 d 36 8 d 35 9 d 36
 9 d 36 10 d 36 11 d 36 12 d 36 13 d 35 15 d 36 16 d 36 19 d 36 20 d 36 23 d 36 24 d 35 26 d 36 26 d 36 27 d 36 28 d 36 28 d 18 14 d 18 14 d 17 14 d 18 16 d 18 15 d 9 9 d 9 8 d 9 9 d 9 10 d 9 10 d 9 11 d 18 21 d 18 20 d 18 17 d 18 15 d 9 6 d 9 6 d 9
 5 d 9 5 d 9 3 d 8 3 d 9 3 d 9 1 d 9 1 d 18 X 9 -2 d 9 -2 d 9 -2 d 9 -4 d 9 -4 d 9 -5 d 9 -5 d 9 -6 d 9 -7 d 36 -34 d 18 -20 d 18 -22 d 8 -12 d 9 -12 d 9 -13 d 9 -12 d 9 -13 d 9 -13 d 9 -13 d 9 -14 d 18 -26 d 18 -26 d 18 -26 d 18 -24 d 18 -24 d 18
 -22 d 36 -44 d 35 -43 d 36 -44 d 36 -46 d 36 -49 d 36 -52 d 36 -56 d 35 -59 d s black 3 lw 381 782 m -18 X s 363 782 m cl s 381 782 m 18 X s 399 782 m cl s 381 782 m 48 Y s 381 830 m cl s 381 782 m -49 Y s 381 733 m cl s 417 782 m -18 X s 399 782 m
 cl s 417 782 m 17 X s 434 782 m cl s 417 782 m 48 Y s 417 830 m cl s 417 782 m -49 Y s 417 733 m cl s 452 768 m -18 X s 434 768 m cl s 452 768 m 18 X s 470 768 m cl s 452 768 m 50 Y s 452 818 m cl s 452 768 m -52 Y s 452 716 m cl s 488 868 m -18 X s
 470 868 m cl s 488 868 m 18 X s 506 868 m cl s 488 868 m 33 Y s 488 901 m cl s 488 868 m -35 Y s 488 833 m cl s 524 817 m -18 X s 506 817 m cl s 524 817 m 18 X s 542 817 m cl s 524 817 m 41 Y s 524 858 m cl s 524 817 m -42 Y s 524 775 m cl s 560 881
 m -18 X s 542 881 m cl s 560 881 m 18 X s 578 881 m cl s 560 881 m 32 Y s 560 913 m cl s 560 881 m -33 Y s 560 848 m cl s 596 853 m -18 X s 578 853 m cl s 596 853 m 18 X s 614 853 m cl s 596 853 m 35 Y s 596 888 m cl s 596 853 m -37 Y s 596 816 m cl
 s 632 827 m -18 X s 614 827 m cl s 632 827 m 17 X s 649 827 m cl s 632 827 m 39 Y s 632 866 m cl s 632 827 m -41 Y s 632 786 m cl s 667 874 m -18 X s 649 874 m cl s 667 874 m 18 X s 685 874 m cl s 667 874 m 33 Y s 667 907 m cl s 667 874 m -33 Y s
 667 841 m cl s 703 909 m -18 X s 685 909 m cl s 703 909 m 18 X s 721 909 m cl s 703 909 m 29 Y s 703 938 m cl s 703 909 m -29 Y s 703 880 m cl s 739 795 m -18 X s 721 795 m cl s 739 795 m 18 X s 757 795 m cl s 739 795 m 45 Y s 739 840 m cl s 739 795
 m -47 Y s 739 748 m cl s 775 937 m -18 X s 757 937 m cl s 775 937 m 18 X s 793 937 m cl s 775 937 m 25 Y s 775 962 m cl s 775 937 m -26 Y s 775 911 m cl s 811 937 m -18 X s 793 937 m cl s 811 937 m 18 X s 829 937 m cl s 811 937 m 25 Y s 811 962 m cl
 s 811 937 m -26 Y s 811 911 m cl s 847 933 m -18 X s 829 933 m cl s 847 933 m 17 X s 864 933 m cl s 847 933 m 25 Y s 847 958 m cl s 847 933 m -26 Y s 847 907 m cl s 882 985 m -18 X s 864 985 m cl s 882 985 m 18 X s 900 985 m cl s 882 985 m 21 Y s
 882 1006 m cl s 882 985 m -21 Y s 882 964 m cl s 918 937 m -18 X s 900 937 m cl s 918 937 m 18 X s 936 937 m cl s 918 937 m 25 Y s 918 962 m cl s 918 937 m -26 Y s 918 911 m cl s 954 1004 m -18 X s 936 1004 m cl s 954 1004 m 18 X s 972 1004 m cl s
 954 1004 m 19 Y s 954 1023 m cl s 954 1004 m -20 Y s 954 984 m cl s 990 1027 m -18 X s 972 1027 m cl s 990 1027 m 18 X s 1008 1027 m cl s 990 1027 m 18 Y s 990 1045 m cl s 990 1027 m -18 Y s 990 1009 m cl s 1026 1035 m -18 X s 1008 1035 m cl s 1026
 1035 m 18 X s 1044 1035 m cl s 1026 1035 m 17 Y s 1026 1052 m cl s 1026 1035 m -17 Y s 1026 1018 m cl s 1062 1068 m -18 X s 1044 1068 m cl s 1062 1068 m 17 X s 1079 1068 m cl s 1062 1068 m 15 Y s 1062 1083 m cl s 1062 1068 m -15 Y s 1062 1053 m cl s
 1097 1076 m -18 X s 1079 1076 m cl s 1097 1076 m 18 X s 1115 1076 m cl s 1097 1076 m 14 Y s 1097 1090 m cl s 1097 1076 m -15 Y s 1097 1061 m cl s 1133 1142 m -18 X s 1115 1142 m cl s 1133 1142 m 18 X s 1151 1142 m cl s 1133 1142 m 11 Y s 1133 1153 m
 cl s 1133 1142 m -11 Y s 1133 1131 m cl s 1169 1151 m -18 X s 1151 1151 m cl s 1169 1151 m 18 X s 1187 1151 m cl s 1169 1151 m 10 Y s 1169 1161 m cl s 1169 1151 m -11 Y s 1169 1140 m cl s 1205 1169 m -18 X s 1187 1169 m cl s 1205 1169 m 18 X s 1223
 1169 m cl s 1205 1169 m 10 Y s 1205 1179 m cl s 1205 1169 m -9 Y s 1205 1160 m cl s 1241 1209 m -18 X s 1223 1209 m cl s 1241 1209 m 18 X s 1259 1209 m cl s 1241 1209 m 9 Y s 1241 1218 m cl s 1241 1209 m -8 Y s 1241 1201 m cl s 1276 1238 m -17 X s
 1259 1238 m cl s 1276 1238 m 18 X s 1294 1238 m cl s 1276 1238 m 8 Y s 1276 1246 m cl s 1276 1238 m -7 Y s 1276 1231 m cl s 1312 1268 m -18 X s 1294 1268 m cl s 1312 1268 m 18 X s 1330 1268 m cl s 1312 1268 m 7 Y s 1312 1275 m cl s 1312 1268 m -6 Y
 s 1312 1262 m cl s 1348 1311 m -18 X s 1330 1311 m cl s 1348 1311 m 18 X s 1366 1311 m cl s 1348 1311 m 6 Y s 1348 1317 m cl s 1348 1311 m -5 Y s 1348 1306 m cl s 1384 1337 m -18 X s 1366 1337 m cl s 1384 1337 m 18 X s 1402 1337 m cl s 1384 1337 m 5
 Y s 1384 1342 m cl s 1384 1337 m -5 Y s 1384 1332 m cl s 1420 1373 m -18 X s 1402 1373 m cl s 1420 1373 m 18 X s 1438 1373 m cl s 1420 1373 m 4 Y s 1420 1377 m cl s 1420 1373 m -5 Y s 1420 1368 m cl s 1456 1402 m -18 X s 1438 1402 m cl s 1456 1402 m
 18 X s 1474 1402 m cl s 1456 1402 m 5 Y s 1456 1407 m cl s 1456 1402 m -4 Y s 1456 1398 m cl s 1491 1420 m -17 X s 1474 1420 m cl s 1491 1420 m 18 X s 1509 1420 m cl s 1491 1420 m 4 Y s 1491 1424 m cl s 1491 1420 m -4 Y s 1491 1416 m cl s 1527 1420
 m -18 X s 1509 1420 m cl s 1527 1420 m 18 X s 1545 1420 m cl s 1527 1420 m 4 Y s 1527 1424 m cl s 1527 1420 m -4 Y s 1527 1416 m cl s 1563 1418 m -18 X s 1545 1418 m cl s 1563 1418 m 18 X s 1581 1418 m cl s 1563 1418 m 4 Y s 1563 1422 m cl s 1563
 1418 m -4 Y s 1563 1414 m cl s 1599 1399 m -18 X s 1581 1399 m cl s 1599 1399 m 18 X s 1617 1399 m cl s 1599 1399 m 4 Y s 1599 1403 m cl s 1599 1399 m -5 Y s 1599 1394 m cl s 1635 1374 m -18 X s 1617 1374 m cl s 1635 1374 m 18 X s 1653 1374 m cl s
 1635 1374 m 4 Y s 1635 1378 m cl s 1635 1374 m -5 Y s 1635 1369 m cl s 1671 1331 m -18 X s 1653 1331 m cl s 1671 1331 m 18 X s 1689 1331 m cl s 1671 1331 m 5 Y s 1671 1336 m cl s 1671 1331 m -6 Y s 1671 1325 m cl s 1706 1272 m -17 X s 1689 1272 m cl
 s 1706 1272 m 18 X s 1724 1272 m cl s 1706 1272 m 7 Y s 1706 1279 m cl s 1706 1272 m -6 Y s 1706 1266 m cl s 1742 1219 m -18 X s 1724 1219 m cl s 1742 1219 m 18 X s 1760 1219 m cl s 1742 1219 m 9 Y s 1742 1228 m cl s 1742 1219 m -8 Y s 1742 1211 m
 cl s 1778 1184 m -18 X s 1760 1184 m cl s 1778 1184 m 18 X s 1796 1184 m cl s 1778 1184 m 9 Y s 1778 1193 m cl s 1778 1184 m -9 Y s 1778 1175 m cl s 1814 1122 m -18 X s 1796 1122 m cl s 1814 1122 m 18 X s 1832 1122 m cl s 1814 1122 m 12 Y s 1814
 1134 m cl s 1814 1122 m -11 Y s 1814 1111 m cl s 1850 1062 m -18 X s 1832 1062 m cl s 1850 1062 m 18 X s 1868 1062 m cl s 1850 1062 m 15 Y s 1850 1077 m cl s 1850 1062 m -16 Y s 1850 1046 m cl s 1886 999 m -18 X s 1868 999 m cl s 1886 999 m 18 X s
 1904 999 m cl s 1886 999 m 20 Y s 1886 1019 m cl s 1886 999 m -20 Y s 1886 979 m cl s 1921 1018 m -17 X s 1904 1018 m cl s 1921 1018 m 18 X s 1939 1018 m cl s 1921 1018 m 19 Y s 1921 1037 m cl s 1921 1018 m -18 Y s 1921 1000 m cl s 1957 953 m -18 X
 s 1939 953 m cl s 1957 953 m 18 X s 1975 953 m cl s 1957 953 m 23 Y s 1957 976 m cl s 1957 953 m -25 Y s 1957 928 m cl s 1993 937 m -18 X s 1975 937 m cl s 1993 937 m 18 X s 2011 937 m cl s 1993 937 m 25 Y s 1993 962 m cl s 1993 937 m -26 Y s 1993
 911 m cl s 2029 827 m -18 X s 2011 827 m cl s 2029 827 m 18 X s 2047 827 m cl s 2029 827 m 39 Y s 2029 866 m cl s 2029 827 m -41 Y s 2029 786 m cl s 2065 690 m -18 X s 2047 690 m cl s 2065 690 m 18 X s 2083 690 m cl s 2065 690 m 69 Y s 2065 759 m cl
 s 2065 690 m -56 Y s 2065 634 m cl s 2101 806 m -18 X s 2083 806 m cl s 2101 806 m 18 X s 2119 806 m cl s 2101 806 m 43 Y s 2101 849 m cl s 2101 806 m -44 Y s 2101 762 m cl s 2136 660 m -17 X s 2119 660 m cl s 2136 660 m 18 X s 2154 660 m cl s 2136
 660 m 78 Y s 2136 738 m cl s 2136 660 m -26 Y s 2136 634 m cl s 381 782 417 782 452 768 488 868 524 817 560 881 596 853 632 827 667 874 703 909 739 795 775 937 811 937 847 933 882 985 918 937 954 1004 990 1027 1026 1035 1062 1068 1097 1076 1133 1142
 1169 1151 1205 1169 1241 1209 1276 1238 1312 1268 1348 1311 1384 1337 1420 1373 1456 1402 1491 1420 1527 1420 1563 1418 1599 1399 1635 1374 1671 1331 1706 1272 1742 1219 1778 1184 1814 1122 1850 1062 1886 999 1921 1018 1957 953 1993 937 2029 827
 2065 690 2101 806 2136 660 50 { m20} R 0.52 0.76 0.64 c[ 4 8] 0 sd 9 lw black 0.52 0.76 0.64 c 363 821 m 36 6 d 35 7 d 36 7 d 36 7 d 36 7 d 36 8 d 36 8 d 35 8 d 36 9 d 36 9 d 36 10 d 36 10 d 36 10 d 35 11 d 36 12 d 36 13 d 36 13 d 36 15 d 36 15 d 35
 17 d 36 18 d 36 20 d 36 23 d 36 25 d 18 14 d 18 15 d 17 16 d 18 18 d 18 20 d 9 10 d 9 11 d 9 12 d 9 12 d 9 14 d 9 14 d 18 28 d 18 24 d 18 22 d 18 18 d 9 7 d 9 7 d 9 6 d 9 5 d 9 5 d 8 3 d 9 3 d 9 2 d 9 1 d 9 X 9 -1 d 9 -1 d 9 -3 d 9 -3 d 9 -4 d 9 -5
 d 9 -6 d 9 -6 d 9 -7 d 9 -9 d 36 -41 d 18 -26 d 9 -14 d 9 -15 d 8 -15 d 9 -17 d 9 -17 d 9 -19 d 9 -19 d 9 -20 d 9 -20 d 9 -22 d 9 -23 d 9 -23 d 18 -49 d 18 -52 d 18 -56 d 18 -59 d 18 -63 d 36 -135 d 2 -12 d s 0.54 0.66 0.63 c black 0.54 0.66 0.63 c
 876 634 m 24 42 d s 900 676 m 36 59 d 36 55 d 36 51 d 18 25 d 18 23 d 18 23 d 17 22 d 18 21 d 18 20 d 18 19 d 18 19 d 18 17 d 18 17 d 18 16 d 18 15 d 36 27 d 35 24 d 36 21 d 36 17 d 18 7 d 18 6 d 18 6 d 18 4 d 18 4 d 18 3 d 17 2 d 18 1 d 36 X 18 -2
 d 18 -2 d 18 -3 d 18 -4 d 18 -5 d 18 -6 d 18 -6 d 18 -8 d 35 -17 d 36 -21 d 36 -25 d 36 -28 d 18 -15 d 18 -16 d 18 -17 d 18 -18 d 17 -18 d 18 -20 d 18 -20 d 18 -22 d 18 -22 d 18 -23 d 18 -24 d 18 -24 d 36 -53 d 36 -55 d 35 -59 d s black[  ] 0 sd 3
 lw 363 634 m 1791 X s 363 659 m -25 Y s 403 646 m -12 Y s 442 646 m -12 Y s 482 646 m -12 Y s 522 646 m -12 Y s 562 659 m -25 Y s 602 646 m -12 Y s 642 646 m -12 Y s 681 646 m -12 Y s 721 646 m -12 Y s 761 659 m -25 Y s 801 646 m -12 Y s 841 646 m
 -12 Y s 880 646 m -12 Y s 920 646 m -12 Y s 960 659 m -25 Y s 1000 646 m -12 Y s 1040 646 m -12 Y s 1079 646 m -12 Y s 1119 646 m -12 Y s 1159 659 m -25 Y s 1199 646 m -12 Y s 1239 646 m -12 Y s 1278 646 m -12 Y s 1318 646 m -12 Y s 1358 659 m -25 Y
 s 1398 646 m -12 Y s 1438 646 m -12 Y s 1478 646 m -12 Y s 1517 646 m -12 Y s 1557 659 m -25 Y s 1597 646 m -12 Y s 1637 646 m -12 Y s 1677 646 m -12 Y s 1716 646 m -12 Y s 1756 659 m -25 Y s 1796 646 m -12 Y s 1836 646 m -12 Y s 1876 646 m -12 Y s
 1915 646 m -12 Y s 1955 659 m -25 Y s 1995 646 m -12 Y s 2035 646 m -12 Y s 2075 646 m -12 Y s 2115 646 m -12 Y s 2154 659 m -25 Y s 363 1484 m 1791 X s 363 1459 m 25 Y s 403 1471 m 13 Y s 442 1471 m 13 Y s 482 1471 m 13 Y s 522 1471 m 13 Y s 562
 1459 m 25 Y s 602 1471 m 13 Y s 642 1471 m 13 Y s 681 1471 m 13 Y s 721 1471 m 13 Y s 761 1459 m 25 Y s 801 1471 m 13 Y s 841 1471 m 13 Y s 880 1471 m 13 Y s 920 1471 m 13 Y s 960 1459 m 25 Y s 1000 1471 m 13 Y s 1040 1471 m 13 Y s 1079 1471 m 13 Y
 s 1119 1471 m 13 Y s 1159 1459 m 25 Y s 1199 1471 m 13 Y s 1239 1471 m 13 Y s 1278 1471 m 13 Y s 1318 1471 m 13 Y s 1358 1459 m 25 Y s 1398 1471 m 13 Y s 1438 1471 m 13 Y s 1478 1471 m 13 Y s 1517 1471 m 13 Y s 1557 1459 m 25 Y s 1597 1471 m 13 Y s
 1637 1471 m 13 Y s 1677 1471 m 13 Y s 1716 1471 m 13 Y s 1756 1459 m 25 Y s 1796 1471 m 13 Y s 1836 1471 m 13 Y s 1876 1471 m 13 Y s 1915 1471 m 13 Y s 1955 1459 m 25 Y s 1995 1471 m 13 Y s 2035 1471 m 13 Y s 2075 1471 m 13 Y s 2115 1471 m 13 Y s
 2154 1459 m 25 Y s 363 634 m 850 Y s 390 660 m -27 X s 390 690 m -27 X s 390 714 m -27 X s 390 735 m -27 X s 390 753 m -27 X s 390 768 m -27 X s 417 782 m -54 X s 390 874 m -27 X s 390 928 m -27 X s 390 967 m -27 X s 390 996 m -27 X s 390 1020 m -27
 X s 390 1041 m -27 X s 390 1059 m -27 X s 390 1074 m -27 X s 417 1088 m -54 X s 390 1181 m -27 X s 390 1234 m -27 X s 390 1273 m -27 X s 390 1302 m -27 X s 390 1327 m -27 X s 390 1347 m -27 X s 390 1365 m -27 X s 390 1380 m -27 X s 417 1394 m -54 X
 s 2154 634 m 850 Y s 2127 660 m 27 X s 2127 690 m 27 X s 2127 714 m 27 X s 2127 735 m 27 X s 2127 753 m 27 X s 2127 768 m 27 X s 2101 782 m 53 X s 2127 874 m 27 X s 2127 928 m 27 X s 2127 967 m 27 X s 2127 996 m 27 X s 2127 1020 m 27 X s 2127 1041 m
 27 X s 2127 1059 m 27 X s 2127 1074 m 27 X s 2101 1088 m 53 X s 2127 1181 m 27 X s 2127 1234 m 27 X s 2127 1273 m 27 X s 2127 1302 m 27 X s 2127 1327 m 27 X s 2127 1347 m 27 X s 2127 1365 m 27 X s 2127 1380 m 27 X s 2101 1394 m 53 X s
 gsave  2268 1077 0 461 C 677.708 1215.31 t 0 r /Helvetica findfont 58.7189 sf 0 0 m (2mu2e) show NC gr  1 1 1 c 453 161 454 1269 bf black
 gsave  2268 1077 0 461 C 566.929 1371.71 t 0 r /Helvetica-Bold findfont 48.9324 sf 0 0 m (MC15) show NC gr  510 1390 m20
 gsave  2268 1077 0 461 C 566.929 1293.51 t 0 r /Helvetica-Bold findfont 48.9324 sf 0 0 m (Projection of Signal pdf) show NC gr  0 0 1 c 9 lw 471 1309 m 79 X s black 3 lw 1 1 1 c 2268 461 0 0 bf black 1 1 1 c 1791 364 363 74 bf black 1791 364 363 74
 bl 363 74 m 1791 X s
 gsave  2268 461 0 0 C 1915.83 13.0329 t 0 r /Helvetica findfont 22.9045 sf 0 0 m (4l Invariant Mass \(GeV\)) show NC gr  363 85 m -11 Y s 403 79 m -5 Y s 442 79 m -5 Y s 482 79 m -5 Y s 522 79 m -5 Y s 562 85 m -11 Y s 602 79 m -5 Y s 642 79 m -5 Y
 s 681 79 m -5 Y s 721 79 m -5 Y s 761 85 m -11 Y s 801 79 m -5 Y s 841 79 m -5 Y s 880 79 m -5 Y s 920 79 m -5 Y s 960 85 m -11 Y s 1000 79 m -5 Y s 1040 79 m -5 Y s 1079 79 m -5 Y s 1119 79 m -5 Y s 1159 85 m -11 Y s 1199 79 m -5 Y s 1239 79 m -5 Y
 s 1278 79 m -5 Y s 1318 79 m -5 Y s 1358 85 m -11 Y s 1398 79 m -5 Y s 1438 79 m -5 Y s 1478 79 m -5 Y s 1517 79 m -5 Y s 1557 85 m -11 Y s 1597 79 m -5 Y s 1637 79 m -5 Y s 1677 79 m -5 Y s 1716 79 m -5 Y s 1756 85 m -11 Y s 1796 79 m -5 Y s 1836
 79 m -5 Y s 1876 79 m -5 Y s 1915 79 m -5 Y s 1955 85 m -11 Y s 1995 79 m -5 Y s 2035 79 m -5 Y s 2075 79 m -5 Y s 2115 79 m -5 Y s 2154 85 m -11 Y s
 gsave  2268 461 0 0 C 342.112 55.3896 t 0 r /Helvetica findfont 22.9045 sf 0 0 m (440) show NC gr 
 gsave  2268 461 0 0 C 540.863 55.3896 t 0 r /Helvetica findfont 22.9045 sf 0 0 m (450) show NC gr 
 gsave  2268 461 0 0 C 739.614 55.3896 t 0 r /Helvetica findfont 22.9045 sf 0 0 m (460) show NC gr 
 gsave  2268 461 0 0 C 938.365 55.3896 t 0 r /Helvetica findfont 22.9045 sf 0 0 m (470) show NC gr 
 gsave  2268 461 0 0 C 1137.12 55.3896 t 0 r /Helvetica findfont 22.9045 sf 0 0 m (480) show NC gr 
 gsave  2268 461 0 0 C 1335.87 55.3896 t 0 r /Helvetica findfont 22.9045 sf 0 0 m (490) show NC gr 
 gsave  2268 461 0 0 C 1534.62 55.3896 t 0 r /Helvetica findfont 22.9045 sf 0 0 m (500) show NC gr 
 gsave  2268 461 0 0 C 1736.63 55.3896 t 0 r /Helvetica findfont 22.9045 sf 0 0 m (510) show NC gr 
 gsave  2268 461 0 0 C 1935.38 55.3896 t 0 r /Helvetica findfont 22.9045 sf 0 0 m (520) show NC gr 
 gsave  2268 461 0 0 C 2134.13 55.3896 t 0 r /Helvetica findfont 22.9045 sf 0 0 m (530) show NC gr  363 438 m 1791 X s 363 427 m 11 Y s 403 433 m 5 Y s 442 433 m 5 Y s 482 433 m 5 Y s 522 433 m 5 Y s 562 427 m 11 Y s 602 433 m 5 Y s 642 433 m 5 Y s
 681 433 m 5 Y s 721 433 m 5 Y s 761 427 m 11 Y s 801 433 m 5 Y s 841 433 m 5 Y s 880 433 m 5 Y s 920 433 m 5 Y s 960 427 m 11 Y s 1000 433 m 5 Y s 1040 433 m 5 Y s 1079 433 m 5 Y s 1119 433 m 5 Y s 1159 427 m 11 Y s 1199 433 m 5 Y s 1239 433 m 5 Y s
 1278 433 m 5 Y s 1318 433 m 5 Y s 1358 427 m 11 Y s 1398 433 m 5 Y s 1438 433 m 5 Y s 1478 433 m 5 Y s 1517 433 m 5 Y s 1557 427 m 11 Y s 1597 433 m 5 Y s 1637 433 m 5 Y s 1677 433 m 5 Y s 1716 433 m 5 Y s 1756 427 m 11 Y s 1796 433 m 5 Y s 1836 433
 m 5 Y s 1876 433 m 5 Y s 1915 433 m 5 Y s 1955 427 m 11 Y s 1995 433 m 5 Y s 2035 433 m 5 Y s 2075 433 m 5 Y s 2115 433 m 5 Y s 2154 427 m 11 Y s 363 74 m 364 Y s 417 74 m -54 X s 390 81 m -27 X s 390 88 m -27 X s 390 96 m -27 X s 390 103 m -27 X s
 417 110 m -54 X s 390 118 m -27 X s 390 125 m -27 X s 390 132 m -27 X s 390 139 m -27 X s 417 147 m -54 X s 390 154 m -27 X s 390 161 m -27 X s 390 169 m -27 X s 390 176 m -27 X s 417 183 m -54 X s 390 190 m -27 X s 390 198 m -27 X s 390 205 m -27 X
 s 390 212 m -27 X s 417 220 m -54 X s 390 227 m -27 X s 390 234 m -27 X s 390 241 m -27 X s 390 249 m -27 X s 417 256 m -54 X s 390 263 m -27 X s 390 271 m -27 X s 390 278 m -27 X s 390 285 m -27 X s 417 293 m -54 X s 390 300 m -27 X s 390 307 m -27
 X s 390 314 m -27 X s 390 322 m -27 X s 417 329 m -54 X s 390 336 m -27 X s 390 344 m -27 X s 390 351 m -27 X s 390 358 m -27 X s 417 365 m -54 X s 390 373 m -27 X s 390 380 m -27 X s 390 387 m -27 X s 390 395 m -27 X s 417 402 m -54 X s 390 409 m
 -27 X s 390 416 m -27 X s 390 424 m -27 X s 390 431 m -27 X s 417 438 m -54 X s
 gsave  2268 461 0 0 C 329.08 65.1643 t 0 r /Helvetica findfont 22.9045 sf 0 0 m (\2555) show NC gr 
 gsave  2268 461 0 0 C 329.08 101.005 t 0 r /Helvetica findfont 22.9045 sf 0 0 m (\2554) show NC gr 
 gsave  2268 461 0 0 C 329.08 140.103 t 0 r /Helvetica findfont 22.9045 sf 0 0 m (\2553) show NC gr 
 gsave  2268 461 0 0 C 329.08 175.944 t 0 r /Helvetica findfont 22.9045 sf 0 0 m (\2552) show NC gr 
 gsave  2268 461 0 0 C 332.338 211.784 t 0 r /Helvetica findfont 22.9045 sf 0 0 m (\2551) show NC gr 
 gsave  2268 461 0 0 C 335.596 247.624 t 0 r /Helvetica findfont 22.9045 sf 0 0 m (0) show NC gr 
 gsave  2268 461 0 0 C 338.854 283.465 t 0 r /Helvetica findfont 22.9045 sf 0 0 m (1) show NC gr 
 gsave  2268 461 0 0 C 335.596 319.305 t 0 r /Helvetica findfont 22.9045 sf 0 0 m (2) show NC gr 
 gsave  2268 461 0 0 C 335.596 358.403 t 0 r /Helvetica findfont 22.9045 sf 0 0 m (3) show NC gr 
 gsave  2268 461 0 0 C 335.596 394.244 t 0 r /Helvetica findfont 22.9045 sf 0 0 m (4) show NC gr 
 gsave  2268 461 0 0 C 335.596 430.084 t 0 r /Helvetica findfont 22.9045 sf 0 0 m (5) show NC gr  2154 74 m 364 Y s 2101 74 m 53 X s 2127 81 m 27 X s 2127 88 m 27 X s 2127 96 m 27 X s 2127 103 m 27 X s 2101 110 m 53 X s 2127 118 m 27 X s 2127 125 m
 27 X s 2127 132 m 27 X s 2127 139 m 27 X s 2101 147 m 53 X s 2127 154 m 27 X s 2127 161 m 27 X s 2127 169 m 27 X s 2127 176 m 27 X s 2101 183 m 53 X s 2127 190 m 27 X s 2127 198 m 27 X s 2127 205 m 27 X s 2127 212 m 27 X s 2101 220 m 53 X s 2127 227
 m 27 X s 2127 234 m 27 X s 2127 241 m 27 X s 2127 249 m 27 X s 2101 256 m 53 X s 2127 263 m 27 X s 2127 271 m 27 X s 2127 278 m 27 X s 2127 285 m 27 X s 2101 293 m 53 X s 2127 300 m 27 X s 2127 307 m 27 X s 2127 314 m 27 X s 2127 322 m 27 X s 2101
 329 m 53 X s 2127 336 m 27 X s 2127 344 m 27 X s 2127 351 m 27 X s 2127 358 m 27 X s 2101 365 m 53 X s 2127 373 m 27 X s 2127 380 m 27 X s 2127 387 m 27 X s 2127 395 m 27 X s 2101 402 m 53 X s 2127 409 m 27 X s 2127 416 m 27 X s 2127 424 m 27 X s
 2127 431 m 27 X s 2101 438 m 53 X s 6 lw 0.2 0.8 0.2 c black 3 lw 0.2 0.8 0.2 c 363 256 m -31 Y 36 X -6 Y 35 X -17 Y 36 X 80 Y 36 X -56 Y 36 X 55 Y 36 X -39 Y 36 X -33 Y 35 X 37 Y 36 X 30 Y 36 X -136 Y 36 X 147 Y 36 X -18 Y 36 X -26 Y 35 X 59 Y 36 X
 -105 Y 36 X 76 Y 36 X 4 Y 36 X -32 Y 36 X 18 Y 35 X -47 Y 36 X 116 Y 36 X -58 Y 36 X -33 Y 36 X 52 Y 36 X 6 Y 71 X 52 Y 36 X -102 Y 36 X -11 Y 36 X 20 Y 36 X 11 Y 35 X -46 Y 36 X 46 Y 36 X -15 Y 36 X 33 Y 36 X -38 Y 36 X -69 Y 35 X 5 Y 36 X 79 Y 36
 X -33 Y 36 X -24 Y 36 X -32 Y 36 X 124 Y 35 X -43 Y 36 X 41 Y 36 X -71 Y 36 X -49 Y 36 X 119 Y 36 X -56 Y 35 X 16 Y f 6 lw black 0.2 0.8 0.2 c black 363 225 m 36 X -6 Y 35 X -17 Y 36 X 80 Y 36 X -56 Y 36 X 55 Y 36 X -39 Y 36 X -33 Y 35 X 37 Y 36 X
 30 Y 36 X -136 Y 36 X 147 Y 36 X -18 Y 36 X -26 Y 35 X 59 Y 36 X -105 Y 36 X 76 Y 36 X 4 Y 36 X -32 Y 36 X 18 Y 35 X -47 Y 36 X 116 Y 36 X -58 Y 36 X -33 Y 36 X 52 Y 36 X 6 Y 71 X 52 Y 36 X -102 Y 36 X -11 Y 36 X 20 Y 36 X 11 Y 35 X -46 Y 36 X 46 Y
 36 X -15 Y 36 X 33 Y 36 X -38 Y 36 X -69 Y 35 X 5 Y 36 X 79 Y 36 X -33 Y 36 X -24 Y 36 X -32 Y 36 X 124 Y 35 X -43 Y 36 X 41 Y 36 X -71 Y 36 X -49 Y 36 X 119 Y 36 X -56 Y 35 X s 3 lw 363 74 m 1791 X s 363 85 m -11 Y s 403 79 m -5 Y s 442 79 m -5 Y s
 482 79 m -5 Y s 522 79 m -5 Y s 562 85 m -11 Y s 602 79 m -5 Y s 642 79 m -5 Y s 681 79 m -5 Y s 721 79 m -5 Y s 761 85 m -11 Y s 801 79 m -5 Y s 841 79 m -5 Y s 880 79 m -5 Y s 920 79 m -5 Y s 960 85 m -11 Y s 1000 79 m -5 Y s 1040 79 m -5 Y s 1079
 79 m -5 Y s 1119 79 m -5 Y s 1159 85 m -11 Y s 1199 79 m -5 Y s 1239 79 m -5 Y s 1278 79 m -5 Y s 1318 79 m -5 Y s 1358 85 m -11 Y s 1398 79 m -5 Y s 1438 79 m -5 Y s 1478 79 m -5 Y s 1517 79 m -5 Y s 1557 85 m -11 Y s 1597 79 m -5 Y s 1637 79 m -5
 Y s 1677 79 m -5 Y s 1716 79 m -5 Y s 1756 85 m -11 Y s 1796 79 m -5 Y s 1836 79 m -5 Y s 1876 79 m -5 Y s 1915 79 m -5 Y s 1955 85 m -11 Y s 1995 79 m -5 Y s 2035 79 m -5 Y s 2075 79 m -5 Y s 2115 79 m -5 Y s 2154 85 m -11 Y s 363 438 m 1791 X s
 363 427 m 11 Y s 403 433 m 5 Y s 442 433 m 5 Y s 482 433 m 5 Y s 522 433 m 5 Y s 562 427 m 11 Y s 602 433 m 5 Y s 642 433 m 5 Y s 681 433 m 5 Y s 721 433 m 5 Y s 761 427 m 11 Y s 801 433 m 5 Y s 841 433 m 5 Y s 880 433 m 5 Y s 920 433 m 5 Y s 960
 427 m 11 Y s 1000 433 m 5 Y s 1040 433 m 5 Y s 1079 433 m 5 Y s 1119 433 m 5 Y s 1159 427 m 11 Y s 1199 433 m 5 Y s 1239 433 m 5 Y s 1278 433 m 5 Y s 1318 433 m 5 Y s 1358 427 m 11 Y s 1398 433 m 5 Y s 1438 433 m 5 Y s 1478 433 m 5 Y s 1517 433 m 5
 Y s 1557 427 m 11 Y s 1597 433 m 5 Y s 1637 433 m 5 Y s 1677 433 m 5 Y s 1716 433 m 5 Y s 1756 427 m 11 Y s 1796 433 m 5 Y s 1836 433 m 5 Y s 1876 433 m 5 Y s 1915 433 m 5 Y s 1955 427 m 11 Y s 1995 433 m 5 Y s 2035 433 m 5 Y s 2075 433 m 5 Y s 2115
 433 m 5 Y s 2154 427 m 11 Y s 363 74 m 364 Y s 417 74 m -54 X s 390 81 m -27 X s 390 88 m -27 X s 390 96 m -27 X s 390 103 m -27 X s 417 110 m -54 X s 390 118 m -27 X s 390 125 m -27 X s 390 132 m -27 X s 390 139 m -27 X s 417 147 m -54 X s 390 154
 m -27 X s 390 161 m -27 X s 390 169 m -27 X s 390 176 m -27 X s 417 183 m -54 X s 390 190 m -27 X s 390 198 m -27 X s 390 205 m -27 X s 390 212 m -27 X s 417 220 m -54 X s 390 227 m -27 X s 390 234 m -27 X s 390 241 m -27 X s 390 249 m -27 X s 417
 256 m -54 X s 390 263 m -27 X s 390 271 m -27 X s 390 278 m -27 X s 390 285 m -27 X s 417 293 m -54 X s 390 300 m -27 X s 390 307 m -27 X s 390 314 m -27 X s 390 322 m -27 X s 417 329 m -54 X s 390 336 m -27 X s 390 344 m -27 X s 390 351 m -27 X s
 390 358 m -27 X s 417 365 m -54 X s 390 373 m -27 X s 390 380 m -27 X s 390 387 m -27 X s 390 395 m -27 X s 417 402 m -54 X s 390 409 m -27 X s 390 416 m -27 X s 390 424 m -27 X s 390 431 m -27 X s 417 438 m -54 X s 2154 74 m 364 Y s 2101 74 m 53 X
 s 2127 81 m 27 X s 2127 88 m 27 X s 2127 96 m 27 X s 2127 103 m 27 X s 2101 110 m 53 X s 2127 118 m 27 X s 2127 125 m 27 X s 2127 132 m 27 X s 2127 139 m 27 X s 2101 147 m 53 X s 2127 154 m 27 X s 2127 161 m 27 X s 2127 169 m 27 X s 2127 176 m 27 X
 s 2101 183 m 53 X s 2127 190 m 27 X s 2127 198 m 27 X s 2127 205 m 27 X s 2127 212 m 27 X s 2101 220 m 53 X s 2127 227 m 27 X s 2127 234 m 27 X s 2127 241 m 27 X s 2127 249 m 27 X s 2101 256 m 53 X s 2127 263 m 27 X s 2127 271 m 27 X s 2127 278 m 27
 X s 2127 285 m 27 X s 2101 293 m 53 X s 2127 300 m 27 X s 2127 307 m 27 X s 2127 314 m 27 X s 2127 322 m 27 X s 2101 329 m 53 X s 2127 336 m 27 X s 2127 344 m 27 X s 2127 351 m 27 X s 2127 358 m 27 X s 2101 365 m 53 X s 2127 373 m 27 X s 2127 380 m
 27 X s 2127 387 m 27 X s 2127 395 m 27 X s 2101 402 m 53 X s 2127 409 m 27 X s 2127 416 m 27 X s 2127 424 m 27 X s 2127 431 m 27 X s 2101 438 m 53 X s
 gr  gr showpage
end
%%EOF
