%!PS-Adobe-2.0 EPSF-2.0
%%BoundingBox:  0 0 567 384
%%Title: H4l2015_plotfit/gg_mass_signal_200_H4l_2mu2e.eps: 
%%Creator: ROOT Version 5.34/10
%%CreationDate: Thu Feb 16 15:47:02 2017
%%EndComments
%%BeginProlog
80 dict begin
/s {stroke} def /l {lineto} def /m {moveto} def /t {translate} def
/r {rotate} def /rl {roll}  def /R {repeat} def
/d {rlineto} def /rm {rmoveto} def /gr {grestore} def /f {eofill} def
/c {setrgbcolor} def /black {0 setgray} def /sd {setdash} def
/cl {closepath} def /sf {scalefont setfont} def /lw {setlinewidth} def
/box {m dup 0 exch d exch 0 d 0 exch neg d cl} def
/NC{systemdict begin initclip end}def/C{NC box clip newpath}def
/bl {box s} def /bf {box f} def /Y { 0 exch d} def /X { 0 d} def 
/K {{pop pop 0 moveto} exch kshow} bind def
/ita {/ang 15 def gsave [1 0 ang dup sin exch cos div 1 0 0] concat} def 
/mp {newpath /y exch def /x exch def} def
/side {[w .77 mul w .23 mul] .385 w mul sd w 0 l currentpoint t -144 r} def
/mr {mp x y w2 0 360 arc} def /m24 {mr s} def /m20 {mr f} def
/mb {mp x y w2 add m w2 neg 0 d 0 w neg d w 0 d 0 w d cl} def
/mt {mp x y w2 add m w2 neg w neg d w 0 d cl} def
/m21 {mb f} def /m25 {mb s} def /m22 {mt f} def /m26{mt s} def
/m23 {mp x y w2 sub m w2 w d w neg 0 d cl f} def
/m27 {mp x y w2 add m w3 neg w2 neg d w3 w2 neg d w3 w2 d cl s} def
/m28 {mp x w2 sub y w2 sub w3 add m w3 0 d  0 w3 neg d w3 0 d 0 w3 d w3 0 d  0 w3 d w3 neg 0 d 0 w3 d w3 neg 0 d 0 w3 neg d w3 neg 0 d cl s } def
/m29 {mp gsave x w2 sub y w2 add w3 sub m currentpoint t 4 {side} repeat cl fill gr} def
/m30 {mp gsave x w2 sub y w2 add w3 sub m currentpoint t 4 {side} repeat cl s gr} def
/m31 {mp x y w2 sub m 0 w d x w2 sub y m w 0 d x w2 sub y w2 add m w w neg d x w2 sub y w2 sub m w w d s} def
/m32 {mp x y w2 sub m w2 w d w neg 0 d cl s} def
/m33 {mp x y w2 add m w3 neg w2 neg d w3 w2 neg d w3 w2 d cl f} def
/m34 {mp x w2 sub y w2 sub w3 add m w3 0 d  0 w3 neg d w3 0 d 0 w3 d w3 0 d  0 w3 d w3 neg 0 d 0 w3 d w3 neg 0 d 0 w3 neg d w3 neg 0 d cl f } def
/m2 {mp x y w2 sub m 0 w d x w2 sub y m w 0 d s} def
/m5 {mp x w2 sub y w2 sub m w w d x w2 sub y w2 add m w w neg d s} def
/reEncode {exch findfont dup length dict begin {1 index /FID eq  {pop pop} {def} ifelse } forall /Encoding exch def currentdict end dup /FontName get exch definefont pop } def [/Times-Bold /Times-Italic /Times-BoldItalic /Helvetica /Helvetica-Oblique
 /Helvetica-Bold /Helvetica-BoldOblique /Courier /Courier-Oblique /Courier-Bold /Courier-BoldOblique /Times-Roman /AvantGarde-Book /AvantGarde-BookOblique /AvantGarde-Demi /AvantGarde-DemiOblique /Bookman-Demi /Bookman-DemiItalic /Bookman-Light
 /Bookman-LightItalic /Helvetica-Narrow /Helvetica-Narrow-Bold /Helvetica-Narrow-BoldOblique /Helvetica-Narrow-Oblique /NewCenturySchlbk-Roman /NewCenturySchlbk-Bold /NewCenturySchlbk-BoldItalic /NewCenturySchlbk-Italic /Palatino-Bold
 /Palatino-BoldItalic /Palatino-Italic /Palatino-Roman ] {ISOLatin1Encoding reEncode } forall
%%EndProlog
%%BeginSetup
%%EndSetup
newpath  gsave  .25 .25 scale  gsave  0 0 t black[  ] 0 sd 3 lw 1 1 1 c 2268 1538 0 0 bf black 1 1 1 c 2222 738 23 784 bf black 1 1 1 c 2222 739 23 15 bf black 1 1 1 c 2268 1077 0 461 bf black 1 1 1 c 1791 850 363 634 bf black 1791 850 363 634 bl 363
 634 m 1791 X s
 gsave  2268 1077 0 461 C 1642.14 498.507 t 0 r /Helvetica findfont 48.9324 sf 0 0 m (4l Invariant Mass \(GeV\)) show NC gr  363 659 m -25 Y s 416 646 m -12 Y s 468 646 m -12 Y s 521 646 m -12 Y s 574 646 m -12 Y s 626 659 m -25 Y s 679 646 m -12 Y s
 732 646 m -12 Y s 784 646 m -12 Y s 837 646 m -12 Y s 890 659 m -25 Y s 942 646 m -12 Y s 995 646 m -12 Y s 1048 646 m -12 Y s 1101 646 m -12 Y s 1153 659 m -25 Y s 1206 646 m -12 Y s 1259 646 m -12 Y s 1311 646 m -12 Y s 1364 646 m -12 Y s 1417 659
 m -25 Y s 1469 646 m -12 Y s 1522 646 m -12 Y s 1575 646 m -12 Y s 1627 646 m -12 Y s 1680 659 m -25 Y s 1733 646 m -12 Y s 1785 646 m -12 Y s 1838 646 m -12 Y s 1891 646 m -12 Y s 1944 659 m -25 Y s 1944 659 m -25 Y s 1996 646 m -12 Y s 2049 646 m
 -12 Y s 2102 646 m -12 Y s 2154 646 m -12 Y s
 gsave  2268 1077 0 461 C 319.305 586.478 t 0 r /Helvetica findfont 48.9324 sf 0 0 m (175) show NC gr 
 gsave  2268 1077 0 461 C 583.22 586.478 t 0 r /Helvetica findfont 48.9324 sf 0 0 m (180) show NC gr 
 gsave  2268 1077 0 461 C 847.135 586.478 t 0 r /Helvetica findfont 48.9324 sf 0 0 m (185) show NC gr 
 gsave  2268 1077 0 461 C 1107.79 586.478 t 0 r /Helvetica findfont 48.9324 sf 0 0 m (190) show NC gr 
 gsave  2268 1077 0 461 C 1371.71 586.478 t 0 r /Helvetica findfont 48.9324 sf 0 0 m (195) show NC gr 
 gsave  2268 1077 0 461 C 1635.62 586.478 t 0 r /Helvetica findfont 48.9324 sf 0 0 m (200) show NC gr 
 gsave  2268 1077 0 461 C 1899.54 586.478 t 0 r /Helvetica findfont 48.9324 sf 0 0 m (205) show NC gr  363 1484 m 1791 X s 363 1459 m 25 Y s 416 1471 m 13 Y s 468 1471 m 13 Y s 521 1471 m 13 Y s 574 1471 m 13 Y s 626 1459 m 25 Y s 679 1471 m 13 Y s
 732 1471 m 13 Y s 784 1471 m 13 Y s 837 1471 m 13 Y s 890 1459 m 25 Y s 942 1471 m 13 Y s 995 1471 m 13 Y s 1048 1471 m 13 Y s 1101 1471 m 13 Y s 1153 1459 m 25 Y s 1206 1471 m 13 Y s 1259 1471 m 13 Y s 1311 1471 m 13 Y s 1364 1471 m 13 Y s 1417
 1459 m 25 Y s 1469 1471 m 13 Y s 1522 1471 m 13 Y s 1575 1471 m 13 Y s 1627 1471 m 13 Y s 1680 1459 m 25 Y s 1733 1471 m 13 Y s 1785 1471 m 13 Y s 1838 1471 m 13 Y s 1891 1471 m 13 Y s 1944 1459 m 25 Y s 1944 1459 m 25 Y s 1996 1471 m 13 Y s 2049
 1471 m 13 Y s 2102 1471 m 13 Y s 2154 1471 m 13 Y s 363 634 m 850 Y s
 gsave  2268 1077 0 461 C 120.554 1032.85 t 90 r /Helvetica findfont 48.9324 sf 0 0 m (Events / \( 0.68 GeV \)) show NC gr  390 641 m -27 X s 390 679 m -27 X s 390 709 m -27 X s 390 733 m -27 X s 390 754 m -27 X s 390 771 m -27 X s 390 787 m -27 X s
 417 801 m -54 X s
 gsave  2268 1077 0 461 C 342.425 780.143 t 0 r  -55 0 t /Helvetica findfont 48.9324 sf 0 0 m (10) show NC gr  390 893 m -27 X s 390 947 m -27 X s 390 985 m -27 X s 390 1015 m -27 X s 390 1039 m -27 X s 390 1060 m -27 X s 390 1077 m -27 X s 390 1093
 m -27 X s 417 1107 m -54 X s
 gsave  2268 1077 0 461 C 322.563 1104.53 t 0 r /Helvetica findfont 32.6216 sf 0 0 m (2) show NC gr 
 gsave  2268 1077 0 461 C 270.432 1084.98 t 0 r /Helvetica findfont 48.9324 sf 0 0 m (10) show NC gr  390 1199 m -27 X s 390 1253 m -27 X s 390 1291 m -27 X s 390 1321 m -27 X s 390 1345 m -27 X s 390 1366 m -27 X s 390 1384 m -27 X s 390 1399 m -27
 X s 417 1413 m -54 X s
 gsave  2268 1077 0 461 C 322.563 1414.06 t 0 r /Helvetica findfont 32.6216 sf 0 0 m (3) show NC gr 
 gsave  2268 1077 0 461 C 270.432 1391.26 t 0 r /Helvetica findfont 48.9324 sf 0 0 m (10) show NC gr  2154 634 m 850 Y s 2127 641 m 27 X s 2127 679 m 27 X s 2127 709 m 27 X s 2127 733 m 27 X s 2127 754 m 27 X s 2127 771 m 27 X s 2127 787 m 27 X s
 2101 801 m 53 X s 2127 893 m 27 X s 2127 947 m 27 X s 2127 985 m 27 X s 2127 1015 m 27 X s 2127 1039 m 27 X s 2127 1060 m 27 X s 2127 1077 m 27 X s 2127 1093 m 27 X s 2101 1107 m 53 X s 2127 1199 m 27 X s 2127 1253 m 27 X s 2127 1291 m 27 X s 2127
 1321 m 27 X s 2127 1345 m 27 X s 2127 1366 m 27 X s 2127 1384 m 27 X s 2127 1399 m 27 X s 2101 1413 m 53 X s 381 801 m -18 X s 363 801 m cl s 381 801 m 18 X s 399 801 m cl s 381 801 m 47 Y s 381 848 m cl s 381 801 m -50 Y s 381 751 m cl s 417 846 m
 -18 X s 399 846 m cl s 417 846 m 17 X s 434 846 m cl s 417 846 m 39 Y s 417 885 m cl s 417 846 m -41 Y s 417 805 m cl s 452 906 m -18 X s 434 906 m cl s 452 906 m 18 X s 470 906 m cl s 452 906 m 31 Y s 452 937 m cl s 452 906 m -32 Y s 452 874 m cl s
 488 814 m -18 X s 470 814 m cl s 488 814 m 18 X s 506 814 m cl s 488 814 m 45 Y s 488 859 m cl s 488 814 m -47 Y s 488 767 m cl s 524 912 m -18 X s 506 912 m cl s 524 912 m 18 X s 542 912 m cl s 524 912 m 30 Y s 524 942 m cl s 524 912 m -31 Y s 524
 881 m cl s 560 886 m -18 X s 542 886 m cl s 560 886 m 18 X s 578 886 m cl s 560 886 m 34 Y s 560 920 m cl s 560 886 m -34 Y s 560 852 m cl s 596 900 m -18 X s 578 900 m cl s 596 900 m 18 X s 614 900 m cl s 596 900 m 31 Y s 596 931 m cl s 596 900 m
 -33 Y s 596 867 m cl s 632 900 m -18 X s 614 900 m cl s 632 900 m 17 X s 649 900 m cl s 632 900 m 31 Y s 632 931 m cl s 632 900 m -33 Y s 632 867 m cl s 667 846 m -18 X s 649 846 m cl s 667 846 m 18 X s 685 846 m cl s 667 846 m 39 Y s 667 885 m cl s
 667 846 m -41 Y s 667 805 m cl s 703 893 m -18 X s 685 893 m cl s 703 893 m 18 X s 721 893 m cl s 703 893 m 33 Y s 703 926 m cl s 703 893 m -33 Y s 703 860 m cl s 739 917 m -18 X s 721 917 m cl s 739 917 m 18 X s 757 917 m cl s 739 917 m 30 Y s 739
 947 m cl s 739 917 m -30 Y s 739 887 m cl s 775 917 m -18 X s 757 917 m cl s 775 917 m 18 X s 793 917 m cl s 775 917 m 30 Y s 775 947 m cl s 775 917 m -30 Y s 775 887 m cl s 811 951 m -18 X s 793 951 m cl s 811 951 m 18 X s 829 951 m cl s 811 951 m
 26 Y s 811 977 m cl s 811 951 m -26 Y s 811 925 m cl s 847 951 m -18 X s 829 951 m cl s 847 951 m 17 X s 864 951 m cl s 847 951 m 26 Y s 847 977 m cl s 847 951 m -26 Y s 847 925 m cl s 882 964 m -18 X s 864 964 m cl s 882 964 m 18 X s 900 964 m cl s
 882 964 m 24 Y s 882 988 m cl s 882 964 m -25 Y s 882 939 m cl s 918 968 m -18 X s 900 968 m cl s 918 968 m 18 X s 936 968 m cl s 918 968 m 24 Y s 918 992 m cl s 918 968 m -25 Y s 918 943 m cl s 954 960 m -18 X s 936 960 m cl s 954 960 m 18 X s 972
 960 m cl s 954 960 m 25 Y s 954 985 m cl s 954 960 m -26 Y s 954 934 m cl s 990 964 m -18 X s 972 964 m cl s 990 964 m 18 X s 1008 964 m cl s 990 964 m 24 Y s 990 988 m cl s 990 964 m -25 Y s 990 939 m cl s 1026 1052 m -18 X s 1008 1052 m cl s 1026
 1052 m 18 X s 1044 1052 m cl s 1026 1052 m 17 Y s 1026 1069 m cl s 1026 1052 m -18 Y s 1026 1034 m cl s 1062 1004 m -18 X s 1044 1004 m cl s 1062 1004 m 17 X s 1079 1004 m cl s 1062 1004 m 21 Y s 1062 1025 m cl s 1062 1004 m -21 Y s 1062 983 m cl s
 1097 1044 m -18 X s 1079 1044 m cl s 1097 1044 m 18 X s 1115 1044 m cl s 1097 1044 m 17 Y s 1097 1061 m cl s 1097 1044 m -18 Y s 1097 1026 m cl s 1133 1072 m -18 X s 1115 1072 m cl s 1133 1072 m 18 X s 1151 1072 m cl s 1133 1072 m 16 Y s 1133 1088 m
 cl s 1133 1072 m -16 Y s 1133 1056 m cl s 1169 1084 m -18 X s 1151 1084 m cl s 1169 1084 m 18 X s 1187 1084 m cl s 1169 1084 m 15 Y s 1169 1099 m cl s 1169 1084 m -15 Y s 1169 1069 m cl s 1205 1100 m -18 X s 1187 1100 m cl s 1205 1100 m 18 X s 1223
 1100 m cl s 1205 1100 m 15 Y s 1205 1115 m cl s 1205 1100 m -14 Y s 1205 1086 m cl s 1241 1108 m -18 X s 1223 1108 m cl s 1241 1108 m 18 X s 1259 1108 m cl s 1241 1108 m 14 Y s 1241 1122 m cl s 1241 1108 m -13 Y s 1241 1095 m cl s 1276 1155 m -17 X
 s 1259 1155 m cl s 1276 1155 m 18 X s 1294 1155 m cl s 1276 1155 m 11 Y s 1276 1166 m cl s 1276 1155 m -11 Y s 1276 1144 m cl s 1312 1164 m -18 X s 1294 1164 m cl s 1312 1164 m 18 X s 1330 1164 m cl s 1312 1164 m 10 Y s 1312 1174 m cl s 1312 1164 m
 -11 Y s 1312 1153 m cl s 1348 1198 m -18 X s 1330 1198 m cl s 1348 1198 m 18 X s 1366 1198 m cl s 1348 1198 m 9 Y s 1348 1207 m cl s 1348 1198 m -10 Y s 1348 1188 m cl s 1384 1228 m -18 X s 1366 1228 m cl s 1384 1228 m 18 X s 1402 1228 m cl s 1384
 1228 m 8 Y s 1384 1236 m cl s 1384 1228 m -9 Y s 1384 1219 m cl s 1420 1256 m -18 X s 1402 1256 m cl s 1420 1256 m 18 X s 1438 1256 m cl s 1420 1256 m 8 Y s 1420 1264 m cl s 1420 1256 m -7 Y s 1420 1249 m cl s 1456 1289 m -18 X s 1438 1289 m cl s
 1456 1289 m 18 X s 1474 1289 m cl s 1456 1289 m 7 Y s 1456 1296 m cl s 1456 1289 m -7 Y s 1456 1282 m cl s 1491 1313 m -17 X s 1474 1313 m cl s 1491 1313 m 18 X s 1509 1313 m cl s 1491 1313 m 6 Y s 1491 1319 m cl s 1491 1313 m -7 Y s 1491 1306 m cl
 s 1527 1351 m -18 X s 1509 1351 m cl s 1527 1351 m 18 X s 1545 1351 m cl s 1527 1351 m 5 Y s 1527 1356 m cl s 1527 1351 m -6 Y s 1527 1345 m cl s 1563 1372 m -18 X s 1545 1372 m cl s 1563 1372 m 18 X s 1581 1372 m cl s 1563 1372 m 5 Y s 1563 1377 m
 cl s 1563 1372 m -5 Y s 1563 1367 m cl s 1599 1397 m -18 X s 1581 1397 m cl s 1599 1397 m 18 X s 1617 1397 m cl s 1599 1397 m 5 Y s 1599 1402 m cl s 1599 1397 m -4 Y s 1599 1393 m cl s 1635 1416 m -18 X s 1617 1416 m cl s 1635 1416 m 18 X s 1653
 1416 m cl s 1635 1416 m 5 Y s 1635 1421 m cl s 1635 1416 m -4 Y s 1635 1412 m cl s 1671 1415 m -18 X s 1653 1415 m cl s 1671 1415 m 18 X s 1689 1415 m cl s 1671 1415 m 4 Y s 1671 1419 m cl s 1671 1415 m -4 Y s 1671 1411 m cl s 1706 1393 m -17 X s
 1689 1393 m cl s 1706 1393 m 18 X s 1724 1393 m cl s 1706 1393 m 5 Y s 1706 1398 m cl s 1706 1393 m -5 Y s 1706 1388 m cl s 1742 1372 m -18 X s 1724 1372 m cl s 1742 1372 m 18 X s 1760 1372 m cl s 1742 1372 m 5 Y s 1742 1377 m cl s 1742 1372 m -5 Y
 s 1742 1367 m cl s 1778 1336 m -18 X s 1760 1336 m cl s 1778 1336 m 18 X s 1796 1336 m cl s 1778 1336 m 5 Y s 1778 1341 m cl s 1778 1336 m -6 Y s 1778 1330 m cl s 1814 1273 m -18 X s 1796 1273 m cl s 1814 1273 m 18 X s 1832 1273 m cl s 1814 1273 m 7
 Y s 1814 1280 m cl s 1814 1273 m -7 Y s 1814 1266 m cl s 1850 1238 m -18 X s 1832 1238 m cl s 1850 1238 m 18 X s 1868 1238 m cl s 1850 1238 m 8 Y s 1850 1246 m cl s 1850 1238 m -8 Y s 1850 1230 m cl s 1886 1155 m -18 X s 1868 1155 m cl s 1886 1155 m
 18 X s 1904 1155 m cl s 1886 1155 m 11 Y s 1886 1166 m cl s 1886 1155 m -11 Y s 1886 1144 m cl s 1921 1117 m -17 X s 1904 1117 m cl s 1921 1117 m 18 X s 1939 1117 m cl s 1921 1117 m 13 Y s 1921 1130 m cl s 1921 1117 m -12 Y s 1921 1105 m cl s 1957
 1071 m -18 X s 1939 1071 m cl s 1957 1071 m 18 X s 1975 1071 m cl s 1957 1071 m 16 Y s 1957 1087 m cl s 1957 1071 m -17 Y s 1957 1054 m cl s 1993 1020 m -18 X s 1975 1020 m cl s 1993 1020 m 18 X s 2011 1020 m cl s 1993 1020 m 20 Y s 1993 1040 m cl s
 1993 1020 m -20 Y s 1993 1000 m cl s 2029 971 m -18 X s 2011 971 m cl s 2029 971 m 18 X s 2047 971 m cl s 2029 971 m 24 Y s 2029 995 m cl s 2029 971 m -24 Y s 2029 947 m cl s 2065 923 m -18 X s 2047 923 m cl s 2065 923 m 18 X s 2083 923 m cl s 2065
 923 m 29 Y s 2065 952 m cl s 2065 923 m -30 Y s 2065 893 m cl s 2101 846 m -18 X s 2083 846 m cl s 2101 846 m 18 X s 2119 846 m cl s 2101 846 m 39 Y s 2101 885 m cl s 2101 846 m -41 Y s 2101 805 m cl s 2136 771 m -17 X s 2119 771 m cl s 2136 771 m
 18 X s 2154 771 m cl s 2136 771 m 54 Y s 2136 825 m cl s 2136 771 m -56 Y s 2136 715 m cl s /w 31 def /w2 {w 2 div} def /w3 {w 3 div} def 381 801 417 846 452 906 488 814 524 912 560 886 596 900 632 900 667 846 703 893 739 917 775 917 811 951 847 951
 882 964 918 968 954 960 990 964 1026 1052 1062 1004 1097 1044 1133 1072 1169 1084 1205 1100 1241 1108 1276 1155 1312 1164 1348 1198 1384 1228 1420 1256 1456 1289 1491 1313 1527 1351 1563 1372 1599 1397 1635 1416 1671 1415 1706 1393 1742 1372 1778
 1336 1814 1273 1850 1238 1886 1155 1921 1117 1957 1071 1993 1020 2029 971 2065 923 2101 846 2136 771 50 { m20} R 0 1 1 c 1 1 0 c black 1 1 0 c 363 871 m 36 6 d 35 5 d 36 6 d 36 6 d 36 6 d 36 6 d 36 7 d 35 6 d 36 7 d 36 8 d 36 7 d 36 8 d 36 8 d 35 8
 d 36 9 d 36 10 d 36 10 d 36 12 d 36 13 d 35 14 d 36 17 d 36 19 d 36 21 d 36 23 d 36 24 d 35 25 d 36 27 d 18 14 d 18 14 d 18 14 d 18 14 d 18 15 d 18 14 d 18 14 d 18 14 d 17 15 d 9 7 d 9 8 d 9 9 d 9 10 d 9 10 d 9 9 d 18 15 d 9 6 d 9 6 d 9 5 d 9 4 d 9
 4 d 9 3 d 9 3 d 9 2 d 9 1 d 9 X 9 -1 d 9 -2 d 9 -3 d 9 -3 d 8 -5 d 9 -5 d 9 -6 d 9 -7 d 18 -15 d 18 -18 d 18 -20 d 18 -22 d 9 -12 d 9 -12 d 9 -13 d 9 -13 d 9 -13 d 9 -13 d 9 -14 d 9 -13 d 18 -27 d 18 -27 d 17 -25 d 18 -25 d 18 -24 d 18 -24 d 36 -48
 d 36 -48 d 36 -50 d 36 -52 d 35 -56 d -90 Y -35 77 d -36 69 d -36 62 d -36 56 d -36 54 d -18 26 d -18 27 d -18 27 d -17 27 d -18 28 d -18 27 d -9 14 d -9 14 d -9 14 d -9 13 d -9 13 d -9 14 d -9 13 d -9 12 d -18 24 d -18 22 d -18 19 d -18 15 d -9 7 d
 -9 6 d -9 5 d -8 4 d -9 3 d -9 3 d -9 2 d -9 1 d -18 X -9 -2 d -9 -2 d -9 -3 d -9 -4 d -9 -5 d -9 -6 d -9 -7 d -9 -8 d -18 -18 d -9 -9 d -9 -8 d -9 -8 d -9 -8 d -9 -8 d -9 -8 d -17 -15 d -18 -15 d -18 -15 d -18 -14 d -18 -13 d -18 -14 d -18 -14 d
 -18 -13 d -18 -14 d -36 -29 d -35 -27 d -36 -27 d -36 -24 d -36 -21 d -36 -19 d -36 -16 d -35 -15 d -36 -13 d -36 -12 d -36 -11 d -36 -10 d -36 -9 d -35 -9 d -36 -9 d -36 -8 d -36 -7 d -36 -8 d -36 -7 d -35 -7 d -36 -7 d -36 -6 d -36 -6 d -36 -7 d
 -36 -5 d -35 -6 d -36 -6 d f 0 1 1 c 0 1 0 c black 0 1 0 c 363 866 m 36 6 d 35 5 d 36 6 d 36 6 d 36 6 d 36 6 d 36 7 d 35 7 d 36 7 d 36 7 d 36 7 d 36 8 d 36 8 d 35 9 d 36 9 d 36 10 d 36 10 d 36 12 d 36 13 d 35 14 d 36 17 d 36 19 d 36 21 d 36 23 d 36
 25 d 35 26 d 36 27 d 18 13 d 18 14 d 18 15 d 18 14 d 18 14 d 18 14 d 18 14 d 18 15 d 17 14 d 9 8 d 9 8 d 9 9 d 9 9 d 9 10 d 9 9 d 18 15 d 9 7 d 9 6 d 9 5 d 9 5 d 9 4 d 9 3 d 9 2 d 9 2 d 9 1 d 9 X 9 -1 d 9 -2 d 9 -3 d 9 -3 d 8 -5 d 9 -5 d 9 -6 d 9 -7
 d 18 -15 d 18 -18 d 18 -20 d 18 -23 d 9 -12 d 9 -12 d 9 -13 d 9 -13 d 9 -13 d 9 -14 d 9 -13 d 9 -14 d 18 -27 d 18 -27 d 17 -26 d 18 -25 d 18 -25 d 18 -24 d 36 -49 d 36 -50 d 36 -52 d 36 -55 d 35 -59 d -45 Y -35 69 d -36 64 d -36 58 d -36 54 d -36 52
 d -18 25 d -18 26 d -18 27 d -17 27 d -18 27 d -18 27 d -9 14 d -9 14 d -9 13 d -9 14 d -9 13 d -9 13 d -9 13 d -9 12 d -18 24 d -18 21 d -18 18 d -18 16 d -9 7 d -9 5 d -9 6 d -8 4 d -9 3 d -9 3 d -9 2 d -9 1 d -18 X -9 -2 d -9 -2 d -9 -3 d -9 -4 d
 -9 -5 d -9 -6 d -9 -6 d -9 -8 d -18 -17 d -9 -10 d -9 -8 d -9 -8 d -9 -8 d -9 -8 d -9 -8 d -17 -16 d -18 -15 d -18 -14 d -18 -14 d -18 -14 d -18 -13 d -18 -14 d -18 -14 d -18 -14 d -36 -28 d -35 -27 d -36 -26 d -36 -23 d -36 -22 d -36 -18 d -36 -17
 d -35 -14 d -36 -13 d -36 -12 d -36 -11 d -36 -10 d -36 -9 d -35 -9 d -36 -8 d -36 -8 d -36 -8 d -36 -8 d -36 -7 d -35 -6 d -36 -7 d -36 -7 d -36 -6 d -36 -6 d -36 -6 d -35 -5 d -36 -6 d f 0 0 1 c 9 lw black 0 0 1 c 363 861 m 36 5 d 35 6 d 36 6 d 36
 6 d 36 6 d 36 6 d 36 7 d 35 7 d 36 7 d 36 7 d 36 8 d 36 7 d 36 9 d 35 8 d 36 10 d 36 9 d 36 11 d 36 12 d 36 13 d 35 14 d 36 17 d 36 19 d 36 21 d 36 23 d 36 25 d 35 27 d 36 27 d 18 14 d 18 14 d 18 14 d 18 14 d 18 14 d 18 14 d 18 14 d 18 15 d 17 15 d
 9 8 d 9 8 d 9 8 d 9 9 d 9 9 d 9 9 d 18 17 d 9 7 d 9 6 d 9 6 d 9 4 d 9 4 d 9 3 d 9 3 d 9 1 d 9 1 d 9 X 9 -1 d 9 -2 d 9 -3 d 9 -3 d 8 -5 d 9 -5 d 9 -6 d 9 -6 d 18 -16 d 18 -18 d 18 -21 d 18 -23 d 9 -12 d 9 -12 d 9 -13 d 9 -14 d 9 -13 d 9 -13 d 9 -14 d
 9 -14 d 18 -27 d 18 -27 d 17 -26 d 18 -26 d 18 -26 d 18 -25 d 36 -50 d 36 -52 d 36 -54 d 36 -59 d 35 -63 d s black 3 lw 381 801 m -18 X s 363 801 m cl s 381 801 m 18 X s 399 801 m cl s 381 801 m 47 Y s 381 848 m cl s 381 801 m -50 Y s 381 751 m cl s
 417 846 m -18 X s 399 846 m cl s 417 846 m 17 X s 434 846 m cl s 417 846 m 39 Y s 417 885 m cl s 417 846 m -41 Y s 417 805 m cl s 452 906 m -18 X s 434 906 m cl s 452 906 m 18 X s 470 906 m cl s 452 906 m 31 Y s 452 937 m cl s 452 906 m -32 Y s 452
 874 m cl s 488 814 m -18 X s 470 814 m cl s 488 814 m 18 X s 506 814 m cl s 488 814 m 45 Y s 488 859 m cl s 488 814 m -47 Y s 488 767 m cl s 524 912 m -18 X s 506 912 m cl s 524 912 m 18 X s 542 912 m cl s 524 912 m 30 Y s 524 942 m cl s 524 912 m
 -31 Y s 524 881 m cl s 560 886 m -18 X s 542 886 m cl s 560 886 m 18 X s 578 886 m cl s 560 886 m 34 Y s 560 920 m cl s 560 886 m -34 Y s 560 852 m cl s 596 900 m -18 X s 578 900 m cl s 596 900 m 18 X s 614 900 m cl s 596 900 m 31 Y s 596 931 m cl s
 596 900 m -33 Y s 596 867 m cl s 632 900 m -18 X s 614 900 m cl s 632 900 m 17 X s 649 900 m cl s 632 900 m 31 Y s 632 931 m cl s 632 900 m -33 Y s 632 867 m cl s 667 846 m -18 X s 649 846 m cl s 667 846 m 18 X s 685 846 m cl s 667 846 m 39 Y s 667
 885 m cl s 667 846 m -41 Y s 667 805 m cl s 703 893 m -18 X s 685 893 m cl s 703 893 m 18 X s 721 893 m cl s 703 893 m 33 Y s 703 926 m cl s 703 893 m -33 Y s 703 860 m cl s 739 917 m -18 X s 721 917 m cl s 739 917 m 18 X s 757 917 m cl s 739 917 m
 30 Y s 739 947 m cl s 739 917 m -30 Y s 739 887 m cl s 775 917 m -18 X s 757 917 m cl s 775 917 m 18 X s 793 917 m cl s 775 917 m 30 Y s 775 947 m cl s 775 917 m -30 Y s 775 887 m cl s 811 951 m -18 X s 793 951 m cl s 811 951 m 18 X s 829 951 m cl s
 811 951 m 26 Y s 811 977 m cl s 811 951 m -26 Y s 811 925 m cl s 847 951 m -18 X s 829 951 m cl s 847 951 m 17 X s 864 951 m cl s 847 951 m 26 Y s 847 977 m cl s 847 951 m -26 Y s 847 925 m cl s 882 964 m -18 X s 864 964 m cl s 882 964 m 18 X s 900
 964 m cl s 882 964 m 24 Y s 882 988 m cl s 882 964 m -25 Y s 882 939 m cl s 918 968 m -18 X s 900 968 m cl s 918 968 m 18 X s 936 968 m cl s 918 968 m 24 Y s 918 992 m cl s 918 968 m -25 Y s 918 943 m cl s 954 960 m -18 X s 936 960 m cl s 954 960 m
 18 X s 972 960 m cl s 954 960 m 25 Y s 954 985 m cl s 954 960 m -26 Y s 954 934 m cl s 990 964 m -18 X s 972 964 m cl s 990 964 m 18 X s 1008 964 m cl s 990 964 m 24 Y s 990 988 m cl s 990 964 m -25 Y s 990 939 m cl s 1026 1052 m -18 X s 1008 1052 m
 cl s 1026 1052 m 18 X s 1044 1052 m cl s 1026 1052 m 17 Y s 1026 1069 m cl s 1026 1052 m -18 Y s 1026 1034 m cl s 1062 1004 m -18 X s 1044 1004 m cl s 1062 1004 m 17 X s 1079 1004 m cl s 1062 1004 m 21 Y s 1062 1025 m cl s 1062 1004 m -21 Y s 1062
 983 m cl s 1097 1044 m -18 X s 1079 1044 m cl s 1097 1044 m 18 X s 1115 1044 m cl s 1097 1044 m 17 Y s 1097 1061 m cl s 1097 1044 m -18 Y s 1097 1026 m cl s 1133 1072 m -18 X s 1115 1072 m cl s 1133 1072 m 18 X s 1151 1072 m cl s 1133 1072 m 16 Y s
 1133 1088 m cl s 1133 1072 m -16 Y s 1133 1056 m cl s 1169 1084 m -18 X s 1151 1084 m cl s 1169 1084 m 18 X s 1187 1084 m cl s 1169 1084 m 15 Y s 1169 1099 m cl s 1169 1084 m -15 Y s 1169 1069 m cl s 1205 1100 m -18 X s 1187 1100 m cl s 1205 1100 m
 18 X s 1223 1100 m cl s 1205 1100 m 15 Y s 1205 1115 m cl s 1205 1100 m -14 Y s 1205 1086 m cl s 1241 1108 m -18 X s 1223 1108 m cl s 1241 1108 m 18 X s 1259 1108 m cl s 1241 1108 m 14 Y s 1241 1122 m cl s 1241 1108 m -13 Y s 1241 1095 m cl s 1276
 1155 m -17 X s 1259 1155 m cl s 1276 1155 m 18 X s 1294 1155 m cl s 1276 1155 m 11 Y s 1276 1166 m cl s 1276 1155 m -11 Y s 1276 1144 m cl s 1312 1164 m -18 X s 1294 1164 m cl s 1312 1164 m 18 X s 1330 1164 m cl s 1312 1164 m 10 Y s 1312 1174 m cl s
 1312 1164 m -11 Y s 1312 1153 m cl s 1348 1198 m -18 X s 1330 1198 m cl s 1348 1198 m 18 X s 1366 1198 m cl s 1348 1198 m 9 Y s 1348 1207 m cl s 1348 1198 m -10 Y s 1348 1188 m cl s 1384 1228 m -18 X s 1366 1228 m cl s 1384 1228 m 18 X s 1402 1228 m
 cl s 1384 1228 m 8 Y s 1384 1236 m cl s 1384 1228 m -9 Y s 1384 1219 m cl s 1420 1256 m -18 X s 1402 1256 m cl s 1420 1256 m 18 X s 1438 1256 m cl s 1420 1256 m 8 Y s 1420 1264 m cl s 1420 1256 m -7 Y s 1420 1249 m cl s 1456 1289 m -18 X s 1438 1289
 m cl s 1456 1289 m 18 X s 1474 1289 m cl s 1456 1289 m 7 Y s 1456 1296 m cl s 1456 1289 m -7 Y s 1456 1282 m cl s 1491 1313 m -17 X s 1474 1313 m cl s 1491 1313 m 18 X s 1509 1313 m cl s 1491 1313 m 6 Y s 1491 1319 m cl s 1491 1313 m -7 Y s 1491
 1306 m cl s 1527 1351 m -18 X s 1509 1351 m cl s 1527 1351 m 18 X s 1545 1351 m cl s 1527 1351 m 5 Y s 1527 1356 m cl s 1527 1351 m -6 Y s 1527 1345 m cl s 1563 1372 m -18 X s 1545 1372 m cl s 1563 1372 m 18 X s 1581 1372 m cl s 1563 1372 m 5 Y s
 1563 1377 m cl s 1563 1372 m -5 Y s 1563 1367 m cl s 1599 1397 m -18 X s 1581 1397 m cl s 1599 1397 m 18 X s 1617 1397 m cl s 1599 1397 m 5 Y s 1599 1402 m cl s 1599 1397 m -4 Y s 1599 1393 m cl s 1635 1416 m -18 X s 1617 1416 m cl s 1635 1416 m 18
 X s 1653 1416 m cl s 1635 1416 m 5 Y s 1635 1421 m cl s 1635 1416 m -4 Y s 1635 1412 m cl s 1671 1415 m -18 X s 1653 1415 m cl s 1671 1415 m 18 X s 1689 1415 m cl s 1671 1415 m 4 Y s 1671 1419 m cl s 1671 1415 m -4 Y s 1671 1411 m cl s 1706 1393 m
 -17 X s 1689 1393 m cl s 1706 1393 m 18 X s 1724 1393 m cl s 1706 1393 m 5 Y s 1706 1398 m cl s 1706 1393 m -5 Y s 1706 1388 m cl s 1742 1372 m -18 X s 1724 1372 m cl s 1742 1372 m 18 X s 1760 1372 m cl s 1742 1372 m 5 Y s 1742 1377 m cl s 1742 1372
 m -5 Y s 1742 1367 m cl s 1778 1336 m -18 X s 1760 1336 m cl s 1778 1336 m 18 X s 1796 1336 m cl s 1778 1336 m 5 Y s 1778 1341 m cl s 1778 1336 m -6 Y s 1778 1330 m cl s 1814 1273 m -18 X s 1796 1273 m cl s 1814 1273 m 18 X s 1832 1273 m cl s 1814
 1273 m 7 Y s 1814 1280 m cl s 1814 1273 m -7 Y s 1814 1266 m cl s 1850 1238 m -18 X s 1832 1238 m cl s 1850 1238 m 18 X s 1868 1238 m cl s 1850 1238 m 8 Y s 1850 1246 m cl s 1850 1238 m -8 Y s 1850 1230 m cl s 1886 1155 m -18 X s 1868 1155 m cl s
 1886 1155 m 18 X s 1904 1155 m cl s 1886 1155 m 11 Y s 1886 1166 m cl s 1886 1155 m -11 Y s 1886 1144 m cl s 1921 1117 m -17 X s 1904 1117 m cl s 1921 1117 m 18 X s 1939 1117 m cl s 1921 1117 m 13 Y s 1921 1130 m cl s 1921 1117 m -12 Y s 1921 1105 m
 cl s 1957 1071 m -18 X s 1939 1071 m cl s 1957 1071 m 18 X s 1975 1071 m cl s 1957 1071 m 16 Y s 1957 1087 m cl s 1957 1071 m -17 Y s 1957 1054 m cl s 1993 1020 m -18 X s 1975 1020 m cl s 1993 1020 m 18 X s 2011 1020 m cl s 1993 1020 m 20 Y s 1993
 1040 m cl s 1993 1020 m -20 Y s 1993 1000 m cl s 2029 971 m -18 X s 2011 971 m cl s 2029 971 m 18 X s 2047 971 m cl s 2029 971 m 24 Y s 2029 995 m cl s 2029 971 m -24 Y s 2029 947 m cl s 2065 923 m -18 X s 2047 923 m cl s 2065 923 m 18 X s 2083 923
 m cl s 2065 923 m 29 Y s 2065 952 m cl s 2065 923 m -30 Y s 2065 893 m cl s 2101 846 m -18 X s 2083 846 m cl s 2101 846 m 18 X s 2119 846 m cl s 2101 846 m 39 Y s 2101 885 m cl s 2101 846 m -41 Y s 2101 805 m cl s 2136 771 m -17 X s 2119 771 m cl s
 2136 771 m 18 X s 2154 771 m cl s 2136 771 m 54 Y s 2136 825 m cl s 2136 771 m -56 Y s 2136 715 m cl s 381 801 417 846 452 906 488 814 524 912 560 886 596 900 632 900 667 846 703 893 739 917 775 917 811 951 847 951 882 964 918 968 954 960 990 964
 1026 1052 1062 1004 1097 1044 1133 1072 1169 1084 1205 1100 1241 1108 1276 1155 1312 1164 1348 1198 1384 1228 1420 1256 1456 1289 1491 1313 1527 1351 1563 1372 1599 1397 1635 1416 1671 1415 1706 1393 1742 1372 1778 1336 1814 1273 1850 1238 1886 1155
 1921 1117 1957 1071 1993 1020 2029 971 2065 923 2101 846 2136 771 50 { m20} R 0.52 0.76 0.64 c[ 4 8] 0 sd 9 lw black 0.52 0.76 0.64 c 363 861 m 36 5 d 35 6 d 36 6 d 36 6 d 36 6 d 36 6 d 36 7 d 35 7 d 36 7 d 36 7 d 36 8 d 36 7 d 36 9 d 35 8 d 36 9 d
 36 9 d 36 10 d 36 11 d 36 11 d 35 11 d 36 12 d 36 13 d 36 14 d 36 15 d 36 17 d 35 17 d 36 20 d 36 21 d 18 12 d 18 12 d 18 13 d 18 14 d 18 16 d 18 16 d 9 9 d 8 9 d 9 10 d 9 10 d 9 11 d 9 11 d 9 12 d 9 12 d 18 21 d 9 9 d 9 7 d 9 7 d 9 6 d 9 5 d 9 4 d
 9 3 d 9 2 d 18 X 9 -1 d 9 -2 d 9 -4 d 9 -4 d 8 -5 d 9 -6 d 9 -8 d 9 -8 d 18 -20 d 18 -24 d 18 -27 d 9 -16 d 9 -16 d 9 -18 d 9 -18 d 9 -20 d 9 -20 d 9 -22 d 9 -22 d 9 -24 d 9 -24 d 9 -26 d 9 -26 d 18 -57 d 17 -60 d 18 -64 d 18 -69 d 18 -72 d 14 -60 d
 s 0.54 0.66 0.63 c black 0.54 0.66 0.63 c 1071 634 m 8 18 d s 1079 652 m 36 71 d 36 65 d 18 32 d 18 30 d 18 29 d 18 28 d 18 26 d 18 26 d 17 24 d 18 23 d 18 22 d 18 21 d 18 20 d 18 19 d 18 17 d 18 16 d 36 29 d 36 25 d 17 10 d 18 10 d 18 8 d 18 7 d 18
 6 d 18 5 d 18 3 d 9 2 d 9 1 d 9 1 d 36 X 9 -1 d 9 -1 d 9 -1 d 17 -3 d 18 -4 d 18 -6 d 18 -7 d 18 -8 d 18 -9 d 36 -21 d 36 -26 d 18 -15 d 18 -16 d 17 -17 d 18 -19 d 18 -19 d 18 -21 d 18 -21 d 18 -23 d 18 -24 d 18 -25 d 18 -27 d 18 -27 d 18 -29 d 18
 -30 d 35 -63 d s black[  ] 0 sd 3 lw 363 634 m 1791 X s 363 659 m -25 Y s 416 646 m -12 Y s 468 646 m -12 Y s 521 646 m -12 Y s 574 646 m -12 Y s 626 659 m -25 Y s 679 646 m -12 Y s 732 646 m -12 Y s 784 646 m -12 Y s 837 646 m -12 Y s 890 659 m -25
 Y s 942 646 m -12 Y s 995 646 m -12 Y s 1048 646 m -12 Y s 1101 646 m -12 Y s 1153 659 m -25 Y s 1206 646 m -12 Y s 1259 646 m -12 Y s 1311 646 m -12 Y s 1364 646 m -12 Y s 1417 659 m -25 Y s 1469 646 m -12 Y s 1522 646 m -12 Y s 1575 646 m -12 Y s
 1627 646 m -12 Y s 1680 659 m -25 Y s 1733 646 m -12 Y s 1785 646 m -12 Y s 1838 646 m -12 Y s 1891 646 m -12 Y s 1944 659 m -25 Y s 1944 659 m -25 Y s 1996 646 m -12 Y s 2049 646 m -12 Y s 2102 646 m -12 Y s 2154 646 m -12 Y s 363 1484 m 1791 X s
 363 1459 m 25 Y s 416 1471 m 13 Y s 468 1471 m 13 Y s 521 1471 m 13 Y s 574 1471 m 13 Y s 626 1459 m 25 Y s 679 1471 m 13 Y s 732 1471 m 13 Y s 784 1471 m 13 Y s 837 1471 m 13 Y s 890 1459 m 25 Y s 942 1471 m 13 Y s 995 1471 m 13 Y s 1048 1471 m 13
 Y s 1101 1471 m 13 Y s 1153 1459 m 25 Y s 1206 1471 m 13 Y s 1259 1471 m 13 Y s 1311 1471 m 13 Y s 1364 1471 m 13 Y s 1417 1459 m 25 Y s 1469 1471 m 13 Y s 1522 1471 m 13 Y s 1575 1471 m 13 Y s 1627 1471 m 13 Y s 1680 1459 m 25 Y s 1733 1471 m 13 Y
 s 1785 1471 m 13 Y s 1838 1471 m 13 Y s 1891 1471 m 13 Y s 1944 1459 m 25 Y s 1944 1459 m 25 Y s 1996 1471 m 13 Y s 2049 1471 m 13 Y s 2102 1471 m 13 Y s 2154 1471 m 13 Y s 363 634 m 850 Y s 390 641 m -27 X s 390 679 m -27 X s 390 709 m -27 X s 390
 733 m -27 X s 390 754 m -27 X s 390 771 m -27 X s 390 787 m -27 X s 417 801 m -54 X s 390 893 m -27 X s 390 947 m -27 X s 390 985 m -27 X s 390 1015 m -27 X s 390 1039 m -27 X s 390 1060 m -27 X s 390 1077 m -27 X s 390 1093 m -27 X s 417 1107 m -54
 X s 390 1199 m -27 X s 390 1253 m -27 X s 390 1291 m -27 X s 390 1321 m -27 X s 390 1345 m -27 X s 390 1366 m -27 X s 390 1384 m -27 X s 390 1399 m -27 X s 417 1413 m -54 X s 2154 634 m 850 Y s 2127 641 m 27 X s 2127 679 m 27 X s 2127 709 m 27 X s
 2127 733 m 27 X s 2127 754 m 27 X s 2127 771 m 27 X s 2127 787 m 27 X s 2101 801 m 53 X s 2127 893 m 27 X s 2127 947 m 27 X s 2127 985 m 27 X s 2127 1015 m 27 X s 2127 1039 m 27 X s 2127 1060 m 27 X s 2127 1077 m 27 X s 2127 1093 m 27 X s 2101 1107
 m 53 X s 2127 1199 m 27 X s 2127 1253 m 27 X s 2127 1291 m 27 X s 2127 1321 m 27 X s 2127 1345 m 27 X s 2127 1366 m 27 X s 2127 1384 m 27 X s 2127 1399 m 27 X s 2101 1413 m 53 X s
 gsave  2268 1077 0 461 C 677.708 1215.31 t 0 r /Helvetica findfont 58.7189 sf 0 0 m (2mu2e) show NC gr  1 1 1 c 453 161 454 1269 bf black
 gsave  2268 1077 0 461 C 566.929 1371.71 t 0 r /Helvetica-Bold findfont 48.9324 sf 0 0 m (MC15) show NC gr  510 1390 m20
 gsave  2268 1077 0 461 C 566.929 1293.51 t 0 r /Helvetica-Bold findfont 48.9324 sf 0 0 m (Projection of Signal pdf) show NC gr  0 0 1 c 9 lw 471 1309 m 79 X s black 3 lw 1 1 1 c 2268 461 0 0 bf black 1 1 1 c 1791 364 363 74 bf black 1791 364 363 74
 bl 363 74 m 1791 X s
 gsave  2268 461 0 0 C 1915.83 13.0329 t 0 r /Helvetica findfont 22.9045 sf 0 0 m (4l Invariant Mass \(GeV\)) show NC gr  363 85 m -11 Y s 416 79 m -5 Y s 468 79 m -5 Y s 521 79 m -5 Y s 574 79 m -5 Y s 626 85 m -11 Y s 679 79 m -5 Y s 732 79 m -5 Y
 s 784 79 m -5 Y s 837 79 m -5 Y s 890 85 m -11 Y s 942 79 m -5 Y s 995 79 m -5 Y s 1048 79 m -5 Y s 1101 79 m -5 Y s 1153 85 m -11 Y s 1206 79 m -5 Y s 1259 79 m -5 Y s 1311 79 m -5 Y s 1364 79 m -5 Y s 1417 85 m -11 Y s 1469 79 m -5 Y s 1522 79 m
 -5 Y s 1575 79 m -5 Y s 1627 79 m -5 Y s 1680 85 m -11 Y s 1733 79 m -5 Y s 1785 79 m -5 Y s 1838 79 m -5 Y s 1891 79 m -5 Y s 1944 85 m -11 Y s 1944 85 m -11 Y s 1996 79 m -5 Y s 2049 79 m -5 Y s 2102 79 m -5 Y s 2154 79 m -5 Y s
 gsave  2268 461 0 0 C 342.112 55.3896 t 0 r /Helvetica findfont 22.9045 sf 0 0 m (175) show NC gr 
 gsave  2268 461 0 0 C 606.028 55.3896 t 0 r /Helvetica findfont 22.9045 sf 0 0 m (180) show NC gr 
 gsave  2268 461 0 0 C 869.943 55.3896 t 0 r /Helvetica findfont 22.9045 sf 0 0 m (185) show NC gr 
 gsave  2268 461 0 0 C 1130.6 55.3896 t 0 r /Helvetica findfont 22.9045 sf 0 0 m (190) show NC gr 
 gsave  2268 461 0 0 C 1394.52 55.3896 t 0 r /Helvetica findfont 22.9045 sf 0 0 m (195) show NC gr 
 gsave  2268 461 0 0 C 1658.43 55.3896 t 0 r /Helvetica findfont 22.9045 sf 0 0 m (200) show NC gr 
 gsave  2268 461 0 0 C 1922.35 55.3896 t 0 r /Helvetica findfont 22.9045 sf 0 0 m (205) show NC gr  363 438 m 1791 X s 363 427 m 11 Y s 416 433 m 5 Y s 468 433 m 5 Y s 521 433 m 5 Y s 574 433 m 5 Y s 626 427 m 11 Y s 679 433 m 5 Y s 732 433 m 5 Y s
 784 433 m 5 Y s 837 433 m 5 Y s 890 427 m 11 Y s 942 433 m 5 Y s 995 433 m 5 Y s 1048 433 m 5 Y s 1101 433 m 5 Y s 1153 427 m 11 Y s 1206 433 m 5 Y s 1259 433 m 5 Y s 1311 433 m 5 Y s 1364 433 m 5 Y s 1417 427 m 11 Y s 1469 433 m 5 Y s 1522 433 m 5
 Y s 1575 433 m 5 Y s 1627 433 m 5 Y s 1680 427 m 11 Y s 1733 433 m 5 Y s 1785 433 m 5 Y s 1838 433 m 5 Y s 1891 433 m 5 Y s 1944 427 m 11 Y s 1944 427 m 11 Y s 1996 433 m 5 Y s 2049 433 m 5 Y s 2102 433 m 5 Y s 2154 433 m 5 Y s 363 74 m 364 Y s 417
 74 m -54 X s 390 81 m -27 X s 390 88 m -27 X s 390 96 m -27 X s 390 103 m -27 X s 417 110 m -54 X s 390 118 m -27 X s 390 125 m -27 X s 390 132 m -27 X s 390 139 m -27 X s 417 147 m -54 X s 390 154 m -27 X s 390 161 m -27 X s 390 169 m -27 X s 390
 176 m -27 X s 417 183 m -54 X s 390 190 m -27 X s 390 198 m -27 X s 390 205 m -27 X s 390 212 m -27 X s 417 220 m -54 X s 390 227 m -27 X s 390 234 m -27 X s 390 241 m -27 X s 390 249 m -27 X s 417 256 m -54 X s 390 263 m -27 X s 390 271 m -27 X s
 390 278 m -27 X s 390 285 m -27 X s 417 293 m -54 X s 390 300 m -27 X s 390 307 m -27 X s 390 314 m -27 X s 390 322 m -27 X s 417 329 m -54 X s 390 336 m -27 X s 390 344 m -27 X s 390 351 m -27 X s 390 358 m -27 X s 417 365 m -54 X s 390 373 m -27 X
 s 390 380 m -27 X s 390 387 m -27 X s 390 395 m -27 X s 417 402 m -54 X s 390 409 m -27 X s 390 416 m -27 X s 390 424 m -27 X s 390 431 m -27 X s 417 438 m -54 X s
 gsave  2268 461 0 0 C 329.08 65.1643 t 0 r /Helvetica findfont 22.9045 sf 0 0 m (\2555) show NC gr 
 gsave  2268 461 0 0 C 329.08 101.005 t 0 r /Helvetica findfont 22.9045 sf 0 0 m (\2554) show NC gr 
 gsave  2268 461 0 0 C 329.08 140.103 t 0 r /Helvetica findfont 22.9045 sf 0 0 m (\2553) show NC gr 
 gsave  2268 461 0 0 C 329.08 175.944 t 0 r /Helvetica findfont 22.9045 sf 0 0 m (\2552) show NC gr 
 gsave  2268 461 0 0 C 332.338 211.784 t 0 r /Helvetica findfont 22.9045 sf 0 0 m (\2551) show NC gr 
 gsave  2268 461 0 0 C 335.596 247.624 t 0 r /Helvetica findfont 22.9045 sf 0 0 m (0) show NC gr 
 gsave  2268 461 0 0 C 338.854 283.465 t 0 r /Helvetica findfont 22.9045 sf 0 0 m (1) show NC gr 
 gsave  2268 461 0 0 C 335.596 319.305 t 0 r /Helvetica findfont 22.9045 sf 0 0 m (2) show NC gr 
 gsave  2268 461 0 0 C 335.596 358.403 t 0 r /Helvetica findfont 22.9045 sf 0 0 m (3) show NC gr 
 gsave  2268 461 0 0 C 335.596 394.244 t 0 r /Helvetica findfont 22.9045 sf 0 0 m (4) show NC gr 
 gsave  2268 461 0 0 C 335.596 430.084 t 0 r /Helvetica findfont 22.9045 sf 0 0 m (5) show NC gr  2154 74 m 364 Y s 2101 74 m 53 X s 2127 81 m 27 X s 2127 88 m 27 X s 2127 96 m 27 X s 2127 103 m 27 X s 2101 110 m 53 X s 2127 118 m 27 X s 2127 125 m
 27 X s 2127 132 m 27 X s 2127 139 m 27 X s 2101 147 m 53 X s 2127 154 m 27 X s 2127 161 m 27 X s 2127 169 m 27 X s 2127 176 m 27 X s 2101 183 m 53 X s 2127 190 m 27 X s 2127 198 m 27 X s 2127 205 m 27 X s 2127 212 m 27 X s 2101 220 m 53 X s 2127 227
 m 27 X s 2127 234 m 27 X s 2127 241 m 27 X s 2127 249 m 27 X s 2101 256 m 53 X s 2127 263 m 27 X s 2127 271 m 27 X s 2127 278 m 27 X s 2127 285 m 27 X s 2101 293 m 53 X s 2127 300 m 27 X s 2127 307 m 27 X s 2127 314 m 27 X s 2127 322 m 27 X s 2101
 329 m 53 X s 2127 336 m 27 X s 2127 344 m 27 X s 2127 351 m 27 X s 2127 358 m 27 X s 2101 365 m 53 X s 2127 373 m 27 X s 2127 380 m 27 X s 2127 387 m 27 X s 2127 395 m 27 X s 2101 402 m 53 X s 2127 409 m 27 X s 2127 416 m 27 X s 2127 424 m 27 X s
 2127 431 m 27 X s 2101 438 m 53 X s 6 lw 0.2 0.8 0.2 c black 3 lw 0.2 0.8 0.2 c 363 256 m -51 Y 36 X 31 Y 35 X 56 Y 36 X -95 Y 36 X 89 Y 36 X -37 Y 36 X 7 Y 36 X -7 Y 35 X -63 Y 36 X 40 Y 36 X 18 Y 36 X -9 Y 36 X 33 Y 36 X -13 Y 35 X 5 Y 36 X -8 Y
 36 X -26 Y 36 X -13 Y 36 X 132 Y 36 X -113 Y 35 X 44 Y 36 X 26 Y 36 X -17 Y 36 X -13 Y 36 X -43 Y 36 X 61 Y 35 X -60 Y 36 X 25 Y 36 X 9 Y 36 X 3 Y 36 X 25 Y 36 X -33 Y 35 X 35 Y 36 X -96 Y 36 X 7 Y 36 X 70 Y 36 X 6 Y 36 X -51 Y 35 X 55 Y 36 X 13 Y
 36 X -86 Y 36 X 85 Y 36 X -106 Y 36 X 56 Y 35 X 12 Y 36 X -5 Y 36 X 3 Y 36 X 6 Y 36 X -20 Y 36 X -5 Y 35 X 18 Y f 6 lw black 0.2 0.8 0.2 c black 363 205 m 36 X 31 Y 35 X 56 Y 36 X -95 Y 36 X 89 Y 36 X -37 Y 36 X 7 Y 36 X -7 Y 35 X -63 Y 36 X 40 Y 36
 X 18 Y 36 X -9 Y 36 X 33 Y 36 X -13 Y 35 X 5 Y 36 X -8 Y 36 X -26 Y 36 X -13 Y 36 X 132 Y 36 X -113 Y 35 X 44 Y 36 X 26 Y 36 X -17 Y 36 X -13 Y 36 X -43 Y 36 X 61 Y 35 X -60 Y 36 X 25 Y 36 X 9 Y 36 X 3 Y 36 X 25 Y 36 X -33 Y 35 X 35 Y 36 X -96 Y 36
 X 7 Y 36 X 70 Y 36 X 6 Y 36 X -51 Y 35 X 55 Y 36 X 13 Y 36 X -86 Y 36 X 85 Y 36 X -106 Y 36 X 56 Y 35 X 12 Y 36 X -5 Y 36 X 3 Y 36 X 6 Y 36 X -20 Y 36 X -5 Y 35 X s 3 lw 363 74 m 1791 X s 363 85 m -11 Y s 416 79 m -5 Y s 468 79 m -5 Y s 521 79 m -5
 Y s 574 79 m -5 Y s 626 85 m -11 Y s 679 79 m -5 Y s 732 79 m -5 Y s 784 79 m -5 Y s 837 79 m -5 Y s 890 85 m -11 Y s 942 79 m -5 Y s 995 79 m -5 Y s 1048 79 m -5 Y s 1101 79 m -5 Y s 1153 85 m -11 Y s 1206 79 m -5 Y s 1259 79 m -5 Y s 1311 79 m -5
 Y s 1364 79 m -5 Y s 1417 85 m -11 Y s 1469 79 m -5 Y s 1522 79 m -5 Y s 1575 79 m -5 Y s 1627 79 m -5 Y s 1680 85 m -11 Y s 1733 79 m -5 Y s 1785 79 m -5 Y s 1838 79 m -5 Y s 1891 79 m -5 Y s 1944 85 m -11 Y s 1944 85 m -11 Y s 1996 79 m -5 Y s
 2049 79 m -5 Y s 2102 79 m -5 Y s 2154 79 m -5 Y s 363 438 m 1791 X s 363 427 m 11 Y s 416 433 m 5 Y s 468 433 m 5 Y s 521 433 m 5 Y s 574 433 m 5 Y s 626 427 m 11 Y s 679 433 m 5 Y s 732 433 m 5 Y s 784 433 m 5 Y s 837 433 m 5 Y s 890 427 m 11 Y s
 942 433 m 5 Y s 995 433 m 5 Y s 1048 433 m 5 Y s 1101 433 m 5 Y s 1153 427 m 11 Y s 1206 433 m 5 Y s 1259 433 m 5 Y s 1311 433 m 5 Y s 1364 433 m 5 Y s 1417 427 m 11 Y s 1469 433 m 5 Y s 1522 433 m 5 Y s 1575 433 m 5 Y s 1627 433 m 5 Y s 1680 427 m
 11 Y s 1733 433 m 5 Y s 1785 433 m 5 Y s 1838 433 m 5 Y s 1891 433 m 5 Y s 1944 427 m 11 Y s 1944 427 m 11 Y s 1996 433 m 5 Y s 2049 433 m 5 Y s 2102 433 m 5 Y s 2154 433 m 5 Y s 363 74 m 364 Y s 417 74 m -54 X s 390 81 m -27 X s 390 88 m -27 X s
 390 96 m -27 X s 390 103 m -27 X s 417 110 m -54 X s 390 118 m -27 X s 390 125 m -27 X s 390 132 m -27 X s 390 139 m -27 X s 417 147 m -54 X s 390 154 m -27 X s 390 161 m -27 X s 390 169 m -27 X s 390 176 m -27 X s 417 183 m -54 X s 390 190 m -27 X
 s 390 198 m -27 X s 390 205 m -27 X s 390 212 m -27 X s 417 220 m -54 X s 390 227 m -27 X s 390 234 m -27 X s 390 241 m -27 X s 390 249 m -27 X s 417 256 m -54 X s 390 263 m -27 X s 390 271 m -27 X s 390 278 m -27 X s 390 285 m -27 X s 417 293 m -54
 X s 390 300 m -27 X s 390 307 m -27 X s 390 314 m -27 X s 390 322 m -27 X s 417 329 m -54 X s 390 336 m -27 X s 390 344 m -27 X s 390 351 m -27 X s 390 358 m -27 X s 417 365 m -54 X s 390 373 m -27 X s 390 380 m -27 X s 390 387 m -27 X s 390 395 m
 -27 X s 417 402 m -54 X s 390 409 m -27 X s 390 416 m -27 X s 390 424 m -27 X s 390 431 m -27 X s 417 438 m -54 X s 2154 74 m 364 Y s 2101 74 m 53 X s 2127 81 m 27 X s 2127 88 m 27 X s 2127 96 m 27 X s 2127 103 m 27 X s 2101 110 m 53 X s 2127 118 m
 27 X s 2127 125 m 27 X s 2127 132 m 27 X s 2127 139 m 27 X s 2101 147 m 53 X s 2127 154 m 27 X s 2127 161 m 27 X s 2127 169 m 27 X s 2127 176 m 27 X s 2101 183 m 53 X s 2127 190 m 27 X s 2127 198 m 27 X s 2127 205 m 27 X s 2127 212 m 27 X s 2101 220
 m 53 X s 2127 227 m 27 X s 2127 234 m 27 X s 2127 241 m 27 X s 2127 249 m 27 X s 2101 256 m 53 X s 2127 263 m 27 X s 2127 271 m 27 X s 2127 278 m 27 X s 2127 285 m 27 X s 2101 293 m 53 X s 2127 300 m 27 X s 2127 307 m 27 X s 2127 314 m 27 X s 2127
 322 m 27 X s 2101 329 m 53 X s 2127 336 m 27 X s 2127 344 m 27 X s 2127 351 m 27 X s 2127 358 m 27 X s 2101 365 m 53 X s 2127 373 m 27 X s 2127 380 m 27 X s 2127 387 m 27 X s 2127 395 m 27 X s 2101 402 m 53 X s 2127 409 m 27 X s 2127 416 m 27 X s
 2127 424 m 27 X s 2127 431 m 27 X s 2101 438 m 53 X s
 gr  gr showpage
end
%%EOF
