%!PS-Adobe-2.0 EPSF-2.0
%%BoundingBox:  0 0 567 384
%%Title: H4l2015_plotfit/gg_mass_signal_300_H4l_2mu2e.eps: 
%%Creator: ROOT Version 5.34/10
%%CreationDate: Thu Feb 16 15:47:06 2017
%%EndComments
%%BeginProlog
80 dict begin
/s {stroke} def /l {lineto} def /m {moveto} def /t {translate} def
/r {rotate} def /rl {roll}  def /R {repeat} def
/d {rlineto} def /rm {rmoveto} def /gr {grestore} def /f {eofill} def
/c {setrgbcolor} def /black {0 setgray} def /sd {setdash} def
/cl {closepath} def /sf {scalefont setfont} def /lw {setlinewidth} def
/box {m dup 0 exch d exch 0 d 0 exch neg d cl} def
/NC{systemdict begin initclip end}def/C{NC box clip newpath}def
/bl {box s} def /bf {box f} def /Y { 0 exch d} def /X { 0 d} def 
/K {{pop pop 0 moveto} exch kshow} bind def
/ita {/ang 15 def gsave [1 0 ang dup sin exch cos div 1 0 0] concat} def 
/mp {newpath /y exch def /x exch def} def
/side {[w .77 mul w .23 mul] .385 w mul sd w 0 l currentpoint t -144 r} def
/mr {mp x y w2 0 360 arc} def /m24 {mr s} def /m20 {mr f} def
/mb {mp x y w2 add m w2 neg 0 d 0 w neg d w 0 d 0 w d cl} def
/mt {mp x y w2 add m w2 neg w neg d w 0 d cl} def
/m21 {mb f} def /m25 {mb s} def /m22 {mt f} def /m26{mt s} def
/m23 {mp x y w2 sub m w2 w d w neg 0 d cl f} def
/m27 {mp x y w2 add m w3 neg w2 neg d w3 w2 neg d w3 w2 d cl s} def
/m28 {mp x w2 sub y w2 sub w3 add m w3 0 d  0 w3 neg d w3 0 d 0 w3 d w3 0 d  0 w3 d w3 neg 0 d 0 w3 d w3 neg 0 d 0 w3 neg d w3 neg 0 d cl s } def
/m29 {mp gsave x w2 sub y w2 add w3 sub m currentpoint t 4 {side} repeat cl fill gr} def
/m30 {mp gsave x w2 sub y w2 add w3 sub m currentpoint t 4 {side} repeat cl s gr} def
/m31 {mp x y w2 sub m 0 w d x w2 sub y m w 0 d x w2 sub y w2 add m w w neg d x w2 sub y w2 sub m w w d s} def
/m32 {mp x y w2 sub m w2 w d w neg 0 d cl s} def
/m33 {mp x y w2 add m w3 neg w2 neg d w3 w2 neg d w3 w2 d cl f} def
/m34 {mp x w2 sub y w2 sub w3 add m w3 0 d  0 w3 neg d w3 0 d 0 w3 d w3 0 d  0 w3 d w3 neg 0 d 0 w3 d w3 neg 0 d 0 w3 neg d w3 neg 0 d cl f } def
/m2 {mp x y w2 sub m 0 w d x w2 sub y m w 0 d s} def
/m5 {mp x w2 sub y w2 sub m w w d x w2 sub y w2 add m w w neg d s} def
/reEncode {exch findfont dup length dict begin {1 index /FID eq  {pop pop} {def} ifelse } forall /Encoding exch def currentdict end dup /FontName get exch definefont pop } def [/Times-Bold /Times-Italic /Times-BoldItalic /Helvetica /Helvetica-Oblique
 /Helvetica-Bold /Helvetica-BoldOblique /Courier /Courier-Oblique /Courier-Bold /Courier-BoldOblique /Times-Roman /AvantGarde-Book /AvantGarde-BookOblique /AvantGarde-Demi /AvantGarde-DemiOblique /Bookman-Demi /Bookman-DemiItalic /Bookman-Light
 /Bookman-LightItalic /Helvetica-Narrow /Helvetica-Narrow-Bold /Helvetica-Narrow-BoldOblique /Helvetica-Narrow-Oblique /NewCenturySchlbk-Roman /NewCenturySchlbk-Bold /NewCenturySchlbk-BoldItalic /NewCenturySchlbk-Italic /Palatino-Bold
 /Palatino-BoldItalic /Palatino-Italic /Palatino-Roman ] {ISOLatin1Encoding reEncode } forall
%%EndProlog
%%BeginSetup
%%EndSetup
newpath  gsave  .25 .25 scale  gsave  0 0 t black[  ] 0 sd 3 lw 1 1 1 c 2268 1538 0 0 bf black 1 1 1 c 2222 738 23 784 bf black 1 1 1 c 2222 739 23 15 bf black 1 1 1 c 2268 1077 0 461 bf black 1 1 1 c 1791 850 363 634 bf black 1791 850 363 634 bl 363
 634 m 1791 X s
 gsave  2268 1077 0 461 C 1642.14 498.507 t 0 r /Helvetica findfont 48.9324 sf 0 0 m (4l Invariant Mass \(GeV\)) show NC gr  475 659 m -25 Y s 512 646 m -12 Y s 549 646 m -12 Y s 587 646 m -12 Y s 624 646 m -12 Y s 661 659 m -25 Y s 699 646 m -12 Y s
 736 646 m -12 Y s 773 646 m -12 Y s 811 646 m -12 Y s 848 659 m -25 Y s 885 646 m -12 Y s 923 646 m -12 Y s 960 646 m -12 Y s 997 646 m -12 Y s 1035 659 m -25 Y s 1072 646 m -12 Y s 1109 646 m -12 Y s 1147 646 m -12 Y s 1184 646 m -12 Y s 1221 659 m
 -25 Y s 1259 646 m -12 Y s 1296 646 m -12 Y s 1333 646 m -12 Y s 1371 646 m -12 Y s 1408 659 m -25 Y s 1445 646 m -12 Y s 1483 646 m -12 Y s 1520 646 m -12 Y s 1557 646 m -12 Y s 1594 659 m -25 Y s 1632 646 m -12 Y s 1669 646 m -12 Y s 1706 646 m
 -12 Y s 1744 646 m -12 Y s 1781 659 m -25 Y s 1818 646 m -12 Y s 1856 646 m -12 Y s 1893 646 m -12 Y s 1930 646 m -12 Y s 1968 659 m -25 Y s 2005 646 m -12 Y s 2042 646 m -12 Y s 2080 646 m -12 Y s 2117 646 m -12 Y s 2154 659 m -25 Y s 475 659 m -25
 Y s 437 646 m -12 Y s 400 646 m -12 Y s 363 646 m -12 Y s
 gsave  2268 1077 0 461 C 430.084 586.478 t 0 r /Helvetica findfont 48.9324 sf 0 0 m (270) show NC gr 
 gsave  2268 1077 0 461 C 619.061 586.478 t 0 r /Helvetica findfont 48.9324 sf 0 0 m (275) show NC gr 
 gsave  2268 1077 0 461 C 804.779 586.478 t 0 r /Helvetica findfont 48.9324 sf 0 0 m (280) show NC gr 
 gsave  2268 1077 0 461 C 990.497 586.478 t 0 r /Helvetica findfont 48.9324 sf 0 0 m (285) show NC gr 
 gsave  2268 1077 0 461 C 1176.22 586.478 t 0 r /Helvetica findfont 48.9324 sf 0 0 m (290) show NC gr 
 gsave  2268 1077 0 461 C 1365.19 586.478 t 0 r /Helvetica findfont 48.9324 sf 0 0 m (295) show NC gr 
 gsave  2268 1077 0 461 C 1550.91 586.478 t 0 r /Helvetica findfont 48.9324 sf 0 0 m (300) show NC gr 
 gsave  2268 1077 0 461 C 1736.63 586.478 t 0 r /Helvetica findfont 48.9324 sf 0 0 m (305) show NC gr 
 gsave  2268 1077 0 461 C 1922.35 586.478 t 0 r /Helvetica findfont 48.9324 sf 0 0 m (310) show NC gr 
 gsave  2268 1077 0 461 C 2111.32 586.478 t 0 r /Helvetica findfont 48.9324 sf 0 0 m (315) show NC gr  363 1484 m 1791 X s 475 1459 m 25 Y s 512 1471 m 13 Y s 549 1471 m 13 Y s 587 1471 m 13 Y s 624 1471 m 13 Y s 661 1459 m 25 Y s 699 1471 m 13 Y s
 736 1471 m 13 Y s 773 1471 m 13 Y s 811 1471 m 13 Y s 848 1459 m 25 Y s 885 1471 m 13 Y s 923 1471 m 13 Y s 960 1471 m 13 Y s 997 1471 m 13 Y s 1035 1459 m 25 Y s 1072 1471 m 13 Y s 1109 1471 m 13 Y s 1147 1471 m 13 Y s 1184 1471 m 13 Y s 1221 1459
 m 25 Y s 1259 1471 m 13 Y s 1296 1471 m 13 Y s 1333 1471 m 13 Y s 1371 1471 m 13 Y s 1408 1459 m 25 Y s 1445 1471 m 13 Y s 1483 1471 m 13 Y s 1520 1471 m 13 Y s 1557 1471 m 13 Y s 1594 1459 m 25 Y s 1632 1471 m 13 Y s 1669 1471 m 13 Y s 1706 1471 m
 13 Y s 1744 1471 m 13 Y s 1781 1459 m 25 Y s 1818 1471 m 13 Y s 1856 1471 m 13 Y s 1893 1471 m 13 Y s 1930 1471 m 13 Y s 1968 1459 m 25 Y s 2005 1471 m 13 Y s 2042 1471 m 13 Y s 2080 1471 m 13 Y s 2117 1471 m 13 Y s 2154 1459 m 25 Y s 475 1459 m 25
 Y s 437 1471 m 13 Y s 400 1471 m 13 Y s 363 1471 m 13 Y s 363 634 m 850 Y s
 gsave  2268 1077 0 461 C 120.554 1032.85 t 90 r /Helvetica findfont 48.9324 sf 0 0 m (Events / \( 0.96 GeV \)) show NC gr  390 643 m -27 X s 390 682 m -27 X s 390 711 m -27 X s 390 735 m -27 X s 390 756 m -27 X s 390 774 m -27 X s 390 789 m -27 X s
 417 803 m -54 X s
 gsave  2268 1077 0 461 C 342.425 782.539 t 0 r  -55 0 t /Helvetica findfont 48.9324 sf 0 0 m (10) show NC gr  390 896 m -27 X s 390 949 m -27 X s 390 988 m -27 X s 390 1017 m -27 X s 390 1042 m -27 X s 390 1062 m -27 X s 390 1080 m -27 X s 390 1096
 m -27 X s 417 1110 m -54 X s
 gsave  2268 1077 0 461 C 322.563 1107.79 t 0 r /Helvetica findfont 32.6216 sf 0 0 m (2) show NC gr 
 gsave  2268 1077 0 461 C 270.432 1088.24 t 0 r /Helvetica findfont 48.9324 sf 0 0 m (10) show NC gr  390 1202 m -27 X s 390 1256 m -27 X s 390 1294 m -27 X s 390 1323 m -27 X s 390 1348 m -27 X s 390 1368 m -27 X s 390 1386 m -27 X s 390 1402 m -27
 X s 417 1416 m -54 X s
 gsave  2268 1077 0 461 C 322.563 1417.32 t 0 r /Helvetica findfont 32.6216 sf 0 0 m (3) show NC gr 
 gsave  2268 1077 0 461 C 270.432 1394.52 t 0 r /Helvetica findfont 48.9324 sf 0 0 m (10) show NC gr  2154 634 m 850 Y s 2127 643 m 27 X s 2127 682 m 27 X s 2127 711 m 27 X s 2127 735 m 27 X s 2127 756 m 27 X s 2127 774 m 27 X s 2127 789 m 27 X s
 2101 803 m 53 X s 2127 896 m 27 X s 2127 949 m 27 X s 2127 988 m 27 X s 2127 1017 m 27 X s 2127 1042 m 27 X s 2127 1062 m 27 X s 2127 1080 m 27 X s 2127 1096 m 27 X s 2101 1110 m 53 X s 2127 1202 m 27 X s 2127 1256 m 27 X s 2127 1294 m 27 X s 2127
 1323 m 27 X s 2127 1348 m 27 X s 2127 1368 m 27 X s 2127 1386 m 27 X s 2127 1402 m 27 X s 2101 1416 m 53 X s 381 789 m -18 X s 363 789 m cl s 381 789 m 18 X s 399 789 m cl s 381 789 m 50 Y s 381 839 m cl s 381 789 m -52 Y s 381 737 m cl s 417 874 m
 -18 X s 399 874 m cl s 417 874 m 17 X s 434 874 m cl s 417 874 m 35 Y s 417 909 m cl s 417 874 m -37 Y s 417 837 m cl s 452 803 m -18 X s 434 803 m cl s 452 803 m 18 X s 470 803 m cl s 452 803 m 48 Y s 452 851 m cl s 452 803 m -49 Y s 452 754 m cl s
 488 828 m -18 X s 470 828 m cl s 488 828 m 18 X s 506 828 m cl s 488 828 m 42 Y s 488 870 m cl s 488 828 m -45 Y s 488 783 m cl s 524 866 m -18 X s 506 866 m cl s 524 866 m 18 X s 542 866 m cl s 524 866 m 37 Y s 524 903 m cl s 524 866 m -38 Y s 524
 828 m cl s 560 848 m -18 X s 542 848 m cl s 560 848 m 18 X s 578 848 m cl s 560 848 m 40 Y s 560 888 m cl s 560 848 m -41 Y s 560 807 m cl s 596 874 m -18 X s 578 874 m cl s 596 874 m 18 X s 614 874 m cl s 596 874 m 35 Y s 596 909 m cl s 596 874 m
 -37 Y s 596 837 m cl s 632 866 m -18 X s 614 866 m cl s 632 866 m 17 X s 649 866 m cl s 632 866 m 37 Y s 632 903 m cl s 632 866 m -38 Y s 632 828 m cl s 667 908 m -18 X s 649 908 m cl s 667 908 m 18 X s 685 908 m cl s 667 908 m 31 Y s 667 939 m cl s
 667 908 m -31 Y s 667 877 m cl s 703 974 m -18 X s 685 974 m cl s 703 974 m 18 X s 721 974 m cl s 703 974 m 23 Y s 703 997 m cl s 703 974 m -24 Y s 703 950 m cl s 739 954 m -18 X s 721 954 m cl s 739 954 m 18 X s 757 954 m cl s 739 954 m 26 Y s 739
 980 m cl s 739 954 m -26 Y s 739 928 m cl s 775 940 m -18 X s 757 940 m cl s 775 940 m 18 X s 793 940 m cl s 775 940 m 27 Y s 775 967 m cl s 775 940 m -27 Y s 775 913 m cl s 811 966 m -18 X s 793 966 m cl s 811 966 m 18 X s 829 966 m cl s 811 966 m
 25 Y s 811 991 m cl s 811 966 m -25 Y s 811 941 m cl s 847 991 m -18 X s 829 991 m cl s 847 991 m 17 X s 864 991 m cl s 847 991 m 22 Y s 847 1013 m cl s 847 991 m -22 Y s 847 969 m cl s 882 966 m -18 X s 864 966 m cl s 882 966 m 18 X s 900 966 m cl
 s 882 966 m 25 Y s 882 991 m cl s 882 966 m -25 Y s 882 941 m cl s 918 1009 m -18 X s 900 1009 m cl s 918 1009 m 18 X s 936 1009 m cl s 918 1009 m 21 Y s 918 1030 m cl s 918 1009 m -21 Y s 918 988 m cl s 954 1012 m -18 X s 936 1012 m cl s 954 1012 m
 18 X s 972 1012 m cl s 954 1012 m 20 Y s 954 1032 m cl s 954 1012 m -21 Y s 954 991 m cl s 990 974 m -18 X s 972 974 m cl s 990 974 m 18 X s 1008 974 m cl s 990 974 m 23 Y s 990 997 m cl s 990 974 m -24 Y s 990 950 m cl s 1026 1042 m -18 X s 1008
 1042 m cl s 1026 1042 m 18 X s 1044 1042 m cl s 1026 1042 m 18 Y s 1026 1060 m cl s 1026 1042 m -19 Y s 1026 1023 m cl s 1062 1071 m -18 X s 1044 1071 m cl s 1062 1071 m 17 X s 1079 1071 m cl s 1062 1071 m 16 Y s 1062 1087 m cl s 1062 1071 m -16 Y s
 1062 1055 m cl s 1097 1127 m -18 X s 1079 1127 m cl s 1097 1127 m 18 X s 1115 1127 m cl s 1097 1127 m 12 Y s 1097 1139 m cl s 1097 1127 m -13 Y s 1097 1114 m cl s 1133 1110 m -18 X s 1115 1110 m cl s 1133 1110 m 18 X s 1151 1110 m cl s 1133 1110 m
 13 Y s 1133 1123 m cl s 1133 1110 m -14 Y s 1133 1096 m cl s 1169 1147 m -18 X s 1151 1147 m cl s 1169 1147 m 18 X s 1187 1147 m cl s 1169 1147 m 12 Y s 1169 1159 m cl s 1169 1147 m -11 Y s 1169 1136 m cl s 1205 1171 m -18 X s 1187 1171 m cl s 1205
 1171 m 18 X s 1223 1171 m cl s 1205 1171 m 11 Y s 1205 1182 m cl s 1205 1171 m -10 Y s 1205 1161 m cl s 1241 1196 m -18 X s 1223 1196 m cl s 1241 1196 m 18 X s 1259 1196 m cl s 1241 1196 m 9 Y s 1241 1205 m cl s 1241 1196 m -10 Y s 1241 1186 m cl s
 1276 1222 m -17 X s 1259 1222 m cl s 1276 1222 m 18 X s 1294 1222 m cl s 1276 1222 m 9 Y s 1276 1231 m cl s 1276 1222 m -9 Y s 1276 1213 m cl s 1312 1259 m -18 X s 1294 1259 m cl s 1312 1259 m 18 X s 1330 1259 m cl s 1312 1259 m 8 Y s 1312 1267 m cl
 s 1312 1259 m -8 Y s 1312 1251 m cl s 1348 1301 m -18 X s 1330 1301 m cl s 1348 1301 m 18 X s 1366 1301 m cl s 1348 1301 m 7 Y s 1348 1308 m cl s 1348 1301 m -6 Y s 1348 1295 m cl s 1384 1325 m -18 X s 1366 1325 m cl s 1384 1325 m 18 X s 1402 1325 m
 cl s 1384 1325 m 6 Y s 1384 1331 m cl s 1384 1325 m -6 Y s 1384 1319 m cl s 1420 1356 m -18 X s 1402 1356 m cl s 1420 1356 m 18 X s 1438 1356 m cl s 1420 1356 m 5 Y s 1420 1361 m cl s 1420 1356 m -6 Y s 1420 1350 m cl s 1456 1377 m -18 X s 1438 1377
 m cl s 1456 1377 m 18 X s 1474 1377 m cl s 1456 1377 m 5 Y s 1456 1382 m cl s 1456 1377 m -5 Y s 1456 1372 m cl s 1491 1400 m -17 X s 1474 1400 m cl s 1491 1400 m 18 X s 1509 1400 m cl s 1491 1400 m 5 Y s 1491 1405 m cl s 1491 1400 m -4 Y s 1491
 1396 m cl s 1527 1405 m -18 X s 1509 1405 m cl s 1527 1405 m 18 X s 1545 1405 m cl s 1527 1405 m 4 Y s 1527 1409 m cl s 1527 1405 m -4 Y s 1527 1401 m cl s 1563 1415 m -18 X s 1545 1415 m cl s 1563 1415 m 18 X s 1581 1415 m cl s 1563 1415 m 4 Y s
 1563 1419 m cl s 1563 1415 m -4 Y s 1563 1411 m cl s 1599 1415 m -18 X s 1581 1415 m cl s 1599 1415 m 18 X s 1617 1415 m cl s 1599 1415 m 4 Y s 1599 1419 m cl s 1599 1415 m -4 Y s 1599 1411 m cl s 1635 1389 m -18 X s 1617 1389 m cl s 1635 1389 m 18
 X s 1653 1389 m cl s 1635 1389 m 5 Y s 1635 1394 m cl s 1635 1389 m -4 Y s 1635 1385 m cl s 1671 1368 m -18 X s 1653 1368 m cl s 1671 1368 m 18 X s 1689 1368 m cl s 1671 1368 m 5 Y s 1671 1373 m cl s 1671 1368 m -5 Y s 1671 1363 m cl s 1706 1330 m
 -17 X s 1689 1330 m cl s 1706 1330 m 18 X s 1724 1330 m cl s 1706 1330 m 6 Y s 1706 1336 m cl s 1706 1330 m -5 Y s 1706 1325 m cl s 1742 1288 m -18 X s 1724 1288 m cl s 1742 1288 m 18 X s 1760 1288 m cl s 1742 1288 m 6 Y s 1742 1294 m cl s 1742 1288
 m -7 Y s 1742 1281 m cl s 1778 1236 m -18 X s 1760 1236 m cl s 1778 1236 m 18 X s 1796 1236 m cl s 1778 1236 m 8 Y s 1778 1244 m cl s 1778 1236 m -9 Y s 1778 1227 m cl s 1814 1198 m -18 X s 1796 1198 m cl s 1814 1198 m 18 X s 1832 1198 m cl s 1814
 1198 m 10 Y s 1814 1208 m cl s 1814 1198 m -9 Y s 1814 1189 m cl s 1850 1119 m -18 X s 1832 1119 m cl s 1850 1119 m 18 X s 1868 1119 m cl s 1850 1119 m 12 Y s 1850 1131 m cl s 1850 1119 m -13 Y s 1850 1106 m cl s 1886 1103 m -18 X s 1868 1103 m cl s
 1886 1103 m 18 X s 1904 1103 m cl s 1886 1103 m 14 Y s 1886 1117 m cl s 1886 1103 m -15 Y s 1886 1088 m cl s 1921 1017 m -17 X s 1904 1017 m cl s 1921 1017 m 18 X s 1939 1017 m cl s 1921 1017 m 20 Y s 1921 1037 m cl s 1921 1017 m -20 Y s 1921 997 m
 cl s 1957 981 m -18 X s 1939 981 m cl s 1957 981 m 18 X s 1975 981 m cl s 1957 981 m 23 Y s 1957 1004 m cl s 1957 981 m -24 Y s 1957 957 m cl s 1993 966 m -18 X s 1975 966 m cl s 1993 966 m 18 X s 2011 966 m cl s 1993 966 m 25 Y s 1993 991 m cl s
 1993 966 m -25 Y s 1993 941 m cl s 2029 889 m -18 X s 2011 889 m cl s 2029 889 m 18 X s 2047 889 m cl s 2029 889 m 33 Y s 2029 922 m cl s 2029 889 m -35 Y s 2029 854 m cl s 2065 803 m -18 X s 2047 803 m cl s 2065 803 m 18 X s 2083 803 m cl s 2065
 803 m 48 Y s 2065 851 m cl s 2065 803 m -49 Y s 2065 754 m cl s 2101 848 m -18 X s 2083 848 m cl s 2101 848 m 18 X s 2119 848 m cl s 2101 848 m 40 Y s 2101 888 m cl s 2101 848 m -41 Y s 2101 807 m cl s 2136 682 m -17 X s 2119 682 m cl s 2136 682 m
 18 X s 2154 682 m cl s 2136 682 m 77 Y s 2136 759 m cl s 2136 682 m -48 Y s 2136 634 m cl s /w 31 def /w2 {w 2 div} def /w3 {w 3 div} def 381 789 417 874 452 803 488 828 524 866 560 848 596 874 632 866 667 908 703 974 739 954 775 940 811 966 847 991
 882 966 918 1009 954 1012 990 974 1026 1042 1062 1071 1097 1127 1133 1110 1169 1147 1205 1171 1241 1196 1276 1222 1312 1259 1348 1301 1384 1325 1420 1356 1456 1377 1491 1400 1527 1405 1563 1415 1599 1415 1635 1389 1671 1368 1706 1330 1742 1288 1778
 1236 1814 1198 1850 1119 1886 1103 1921 1017 1957 981 1993 966 2029 889 2065 803 2101 848 2136 682 50 { m20} R 0 1 1 c 1 1 0 c black 1 1 0 c 363 864 m 36 6 d 35 6 d 36 7 d 36 6 d 36 7 d 36 8 d 36 7 d 35 8 d 36 8 d 36 9 d 36 10 d 36 10 d 36 11 d 35
 12 d 36 14 d 36 16 d 36 18 d 36 19 d 36 21 d 35 22 d 36 23 d 36 25 d 36 27 d 36 28 d 18 14 d 18 14 d 17 14 d 18 14 d 18 14 d 18 14 d 18 15 d 9 8 d 9 9 d 9 10 d 9 11 d 18 18 d 36 29 d 18 12 d 9 5 d 9 5 d 9 4 d 8 4 d 9 3 d 9 3 d 9 3 d 9 1 d 9 2 d 27 X
 9 -1 d 9 -2 d 9 -2 d 9 -3 d 9 -4 d 9 -4 d 9 -5 d 9 -5 d 18 -12 d 36 -29 d 17 -18 d 18 -19 d 18 -20 d 18 -22 d 18 -23 d 18 -24 d 18 -25 d 18 -25 d 18 -25 d 18 -26 d 18 -24 d 18 -24 d 17 -24 d 18 -24 d 36 -47 d 36 -47 d 36 -46 d 36 -48 d 36 -49 d 35
 -52 d -105 Y -4 X -31 69 d -36 70 d -36 64 d -36 58 d -36 54 d -36 52 d -18 26 d -17 27 d -18 26 d -18 27 d -18 26 d -18 26 d -18 26 d -18 26 d -18 25 d -18 24 d -18 23 d -18 22 d -18 20 d -17 18 d -36 31 d -18 12 d -9 5 d -9 4 d -9 4 d -9 4 d -9 3
 d -9 2 d -9 2 d -9 1 d -9 1 d -9 X -9 -1 d -9 X -9 -2 d -9 -2 d -9 -3 d -9 -3 d -8 -4 d -9 -5 d -9 -6 d -9 -5 d -18 -14 d -36 -35 d -18 -19 d -9 -8 d -9 -8 d -9 -8 d -9 -8 d -18 -17 d -18 -16 d -18 -15 d -18 -14 d -17 -14 d -18 -13 d -18 -13 d -36
 -26 d -36 -27 d -36 -27 d -36 -26 d -35 -24 d -36 -23 d -36 -20 d -36 -18 d -36 -15 d -36 -14 d -35 -13 d -36 -12 d -36 -10 d -36 -10 d -36 -10 d -36 -8 d -35 -9 d -36 -8 d -36 -7 d -36 -8 d -36 -7 d -36 -6 d -35 -7 d -36 -6 d f 0 1 1 c 0 1 0 c
 black 0 1 0 c 363 858 m 36 6 d 35 6 d 36 7 d 36 7 d 36 7 d 36 7 d 36 8 d 35 8 d 36 8 d 36 9 d 36 9 d 36 11 d 36 11 d 35 12 d 36 14 d 36 16 d 36 18 d 36 19 d 36 21 d 35 23 d 36 24 d 36 26 d 36 26 d 36 28 d 18 14 d 18 14 d 17 14 d 18 14 d 18 14 d 18
 15 d 18 15 d 9 8 d 9 9 d 9 9 d 9 10 d 18 19 d 36 30 d 18 12 d 9 5 d 9 5 d 9 5 d 8 4 d 9 3 d 9 3 d 9 2 d 9 2 d 9 1 d 9 1 d 9 X 9 -1 d 9 -1 d 9 -2 d 9 -2 d 9 -3 d 9 -4 d 9 -4 d 9 -4 d 9 -6 d 18 -12 d 36 -29 d 17 -18 d 18 -19 d 18 -21 d 18 -22 d 18 -23
 d 18 -24 d 18 -25 d 18 -26 d 18 -25 d 18 -26 d 18 -25 d 18 -25 d 17 -24 d 18 -24 d 36 -48 d 36 -48 d 36 -49 d 36 -50 d 36 -53 d 35 -55 d -56 Y -35 67 d -36 63 d -36 58 d -36 55 d -36 52 d -36 50 d -18 25 d -17 27 d -18 25 d -18 26 d -18 26 d -18 26
 d -18 26 d -18 25 d -18 25 d -18 24 d -18 23 d -18 21 d -18 20 d -17 18 d -36 31 d -18 11 d -9 5 d -9 5 d -9 4 d -9 4 d -9 2 d -9 3 d -9 2 d -9 1 d -9 X -9 1 d -9 -1 d -9 -1 d -9 -2 d -9 -2 d -9 -3 d -9 -3 d -8 -4 d -9 -5 d -9 -5 d -9 -6 d -18 -13 d
 -36 -33 d -18 -19 d -9 -8 d -9 -9 d -9 -8 d -9 -8 d -18 -17 d -18 -15 d -18 -15 d -18 -14 d -17 -14 d -18 -14 d -18 -13 d -36 -26 d -36 -27 d -36 -26 d -36 -26 d -35 -24 d -36 -22 d -36 -20 d -36 -17 d -36 -16 d -36 -14 d -35 -13 d -36 -11 d -36 -11
 d -36 -9 d -36 -9 d -36 -9 d -35 -8 d -36 -8 d -36 -8 d -36 -7 d -36 -7 d -36 -6 d -35 -7 d -36 -6 d f 0 0 1 c 9 lw black 0 0 1 c 363 851 m 36 7 d 35 6 d 36 7 d 36 7 d 36 7 d 36 7 d 36 8 d 35 8 d 36 8 d 36 9 d 36 10 d 36 10 d 36 12 d 35 12 d 36 14 d
 36 16 d 36 18 d 36 19 d 36 22 d 35 23 d 36 25 d 36 26 d 36 26 d 36 27 d 18 14 d 18 14 d 17 14 d 18 14 d 18 15 d 18 14 d 18 16 d 9 8 d 9 9 d 9 9 d 9 9 d 18 19 d 36 31 d 18 13 d 9 6 d 9 5 d 9 4 d 8 4 d 9 4 d 9 3 d 9 2 d 9 2 d 9 1 d 18 X 9 -1 d 9 -1 d
 9 -2 d 9 -2 d 9 -3 d 9 -3 d 9 -4 d 9 -5 d 9 -5 d 18 -12 d 36 -30 d 17 -18 d 18 -19 d 18 -21 d 18 -23 d 18 -24 d 18 -24 d 18 -25 d 18 -26 d 18 -25 d 18 -26 d 18 -26 d 18 -25 d 17 -25 d 18 -25 d 36 -49 d 36 -50 d 36 -51 d 36 -54 d 36 -57 d 35 -60 d s
 black 3 lw 381 789 m -18 X s 363 789 m cl s 381 789 m 18 X s 399 789 m cl s 381 789 m 50 Y s 381 839 m cl s 381 789 m -52 Y s 381 737 m cl s 417 874 m -18 X s 399 874 m cl s 417 874 m 17 X s 434 874 m cl s 417 874 m 35 Y s 417 909 m cl s 417 874 m
 -37 Y s 417 837 m cl s 452 803 m -18 X s 434 803 m cl s 452 803 m 18 X s 470 803 m cl s 452 803 m 48 Y s 452 851 m cl s 452 803 m -49 Y s 452 754 m cl s 488 828 m -18 X s 470 828 m cl s 488 828 m 18 X s 506 828 m cl s 488 828 m 42 Y s 488 870 m cl s
 488 828 m -45 Y s 488 783 m cl s 524 866 m -18 X s 506 866 m cl s 524 866 m 18 X s 542 866 m cl s 524 866 m 37 Y s 524 903 m cl s 524 866 m -38 Y s 524 828 m cl s 560 848 m -18 X s 542 848 m cl s 560 848 m 18 X s 578 848 m cl s 560 848 m 40 Y s 560
 888 m cl s 560 848 m -41 Y s 560 807 m cl s 596 874 m -18 X s 578 874 m cl s 596 874 m 18 X s 614 874 m cl s 596 874 m 35 Y s 596 909 m cl s 596 874 m -37 Y s 596 837 m cl s 632 866 m -18 X s 614 866 m cl s 632 866 m 17 X s 649 866 m cl s 632 866 m
 37 Y s 632 903 m cl s 632 866 m -38 Y s 632 828 m cl s 667 908 m -18 X s 649 908 m cl s 667 908 m 18 X s 685 908 m cl s 667 908 m 31 Y s 667 939 m cl s 667 908 m -31 Y s 667 877 m cl s 703 974 m -18 X s 685 974 m cl s 703 974 m 18 X s 721 974 m cl s
 703 974 m 23 Y s 703 997 m cl s 703 974 m -24 Y s 703 950 m cl s 739 954 m -18 X s 721 954 m cl s 739 954 m 18 X s 757 954 m cl s 739 954 m 26 Y s 739 980 m cl s 739 954 m -26 Y s 739 928 m cl s 775 940 m -18 X s 757 940 m cl s 775 940 m 18 X s 793
 940 m cl s 775 940 m 27 Y s 775 967 m cl s 775 940 m -27 Y s 775 913 m cl s 811 966 m -18 X s 793 966 m cl s 811 966 m 18 X s 829 966 m cl s 811 966 m 25 Y s 811 991 m cl s 811 966 m -25 Y s 811 941 m cl s 847 991 m -18 X s 829 991 m cl s 847 991 m
 17 X s 864 991 m cl s 847 991 m 22 Y s 847 1013 m cl s 847 991 m -22 Y s 847 969 m cl s 882 966 m -18 X s 864 966 m cl s 882 966 m 18 X s 900 966 m cl s 882 966 m 25 Y s 882 991 m cl s 882 966 m -25 Y s 882 941 m cl s 918 1009 m -18 X s 900 1009 m
 cl s 918 1009 m 18 X s 936 1009 m cl s 918 1009 m 21 Y s 918 1030 m cl s 918 1009 m -21 Y s 918 988 m cl s 954 1012 m -18 X s 936 1012 m cl s 954 1012 m 18 X s 972 1012 m cl s 954 1012 m 20 Y s 954 1032 m cl s 954 1012 m -21 Y s 954 991 m cl s 990
 974 m -18 X s 972 974 m cl s 990 974 m 18 X s 1008 974 m cl s 990 974 m 23 Y s 990 997 m cl s 990 974 m -24 Y s 990 950 m cl s 1026 1042 m -18 X s 1008 1042 m cl s 1026 1042 m 18 X s 1044 1042 m cl s 1026 1042 m 18 Y s 1026 1060 m cl s 1026 1042 m
 -19 Y s 1026 1023 m cl s 1062 1071 m -18 X s 1044 1071 m cl s 1062 1071 m 17 X s 1079 1071 m cl s 1062 1071 m 16 Y s 1062 1087 m cl s 1062 1071 m -16 Y s 1062 1055 m cl s 1097 1127 m -18 X s 1079 1127 m cl s 1097 1127 m 18 X s 1115 1127 m cl s 1097
 1127 m 12 Y s 1097 1139 m cl s 1097 1127 m -13 Y s 1097 1114 m cl s 1133 1110 m -18 X s 1115 1110 m cl s 1133 1110 m 18 X s 1151 1110 m cl s 1133 1110 m 13 Y s 1133 1123 m cl s 1133 1110 m -14 Y s 1133 1096 m cl s 1169 1147 m -18 X s 1151 1147 m cl
 s 1169 1147 m 18 X s 1187 1147 m cl s 1169 1147 m 12 Y s 1169 1159 m cl s 1169 1147 m -11 Y s 1169 1136 m cl s 1205 1171 m -18 X s 1187 1171 m cl s 1205 1171 m 18 X s 1223 1171 m cl s 1205 1171 m 11 Y s 1205 1182 m cl s 1205 1171 m -10 Y s 1205 1161
 m cl s 1241 1196 m -18 X s 1223 1196 m cl s 1241 1196 m 18 X s 1259 1196 m cl s 1241 1196 m 9 Y s 1241 1205 m cl s 1241 1196 m -10 Y s 1241 1186 m cl s 1276 1222 m -17 X s 1259 1222 m cl s 1276 1222 m 18 X s 1294 1222 m cl s 1276 1222 m 9 Y s 1276
 1231 m cl s 1276 1222 m -9 Y s 1276 1213 m cl s 1312 1259 m -18 X s 1294 1259 m cl s 1312 1259 m 18 X s 1330 1259 m cl s 1312 1259 m 8 Y s 1312 1267 m cl s 1312 1259 m -8 Y s 1312 1251 m cl s 1348 1301 m -18 X s 1330 1301 m cl s 1348 1301 m 18 X s
 1366 1301 m cl s 1348 1301 m 7 Y s 1348 1308 m cl s 1348 1301 m -6 Y s 1348 1295 m cl s 1384 1325 m -18 X s 1366 1325 m cl s 1384 1325 m 18 X s 1402 1325 m cl s 1384 1325 m 6 Y s 1384 1331 m cl s 1384 1325 m -6 Y s 1384 1319 m cl s 1420 1356 m -18 X
 s 1402 1356 m cl s 1420 1356 m 18 X s 1438 1356 m cl s 1420 1356 m 5 Y s 1420 1361 m cl s 1420 1356 m -6 Y s 1420 1350 m cl s 1456 1377 m -18 X s 1438 1377 m cl s 1456 1377 m 18 X s 1474 1377 m cl s 1456 1377 m 5 Y s 1456 1382 m cl s 1456 1377 m -5
 Y s 1456 1372 m cl s 1491 1400 m -17 X s 1474 1400 m cl s 1491 1400 m 18 X s 1509 1400 m cl s 1491 1400 m 5 Y s 1491 1405 m cl s 1491 1400 m -4 Y s 1491 1396 m cl s 1527 1405 m -18 X s 1509 1405 m cl s 1527 1405 m 18 X s 1545 1405 m cl s 1527 1405 m
 4 Y s 1527 1409 m cl s 1527 1405 m -4 Y s 1527 1401 m cl s 1563 1415 m -18 X s 1545 1415 m cl s 1563 1415 m 18 X s 1581 1415 m cl s 1563 1415 m 4 Y s 1563 1419 m cl s 1563 1415 m -4 Y s 1563 1411 m cl s 1599 1415 m -18 X s 1581 1415 m cl s 1599 1415
 m 18 X s 1617 1415 m cl s 1599 1415 m 4 Y s 1599 1419 m cl s 1599 1415 m -4 Y s 1599 1411 m cl s 1635 1389 m -18 X s 1617 1389 m cl s 1635 1389 m 18 X s 1653 1389 m cl s 1635 1389 m 5 Y s 1635 1394 m cl s 1635 1389 m -4 Y s 1635 1385 m cl s 1671
 1368 m -18 X s 1653 1368 m cl s 1671 1368 m 18 X s 1689 1368 m cl s 1671 1368 m 5 Y s 1671 1373 m cl s 1671 1368 m -5 Y s 1671 1363 m cl s 1706 1330 m -17 X s 1689 1330 m cl s 1706 1330 m 18 X s 1724 1330 m cl s 1706 1330 m 6 Y s 1706 1336 m cl s
 1706 1330 m -5 Y s 1706 1325 m cl s 1742 1288 m -18 X s 1724 1288 m cl s 1742 1288 m 18 X s 1760 1288 m cl s 1742 1288 m 6 Y s 1742 1294 m cl s 1742 1288 m -7 Y s 1742 1281 m cl s 1778 1236 m -18 X s 1760 1236 m cl s 1778 1236 m 18 X s 1796 1236 m
 cl s 1778 1236 m 8 Y s 1778 1244 m cl s 1778 1236 m -9 Y s 1778 1227 m cl s 1814 1198 m -18 X s 1796 1198 m cl s 1814 1198 m 18 X s 1832 1198 m cl s 1814 1198 m 10 Y s 1814 1208 m cl s 1814 1198 m -9 Y s 1814 1189 m cl s 1850 1119 m -18 X s 1832
 1119 m cl s 1850 1119 m 18 X s 1868 1119 m cl s 1850 1119 m 12 Y s 1850 1131 m cl s 1850 1119 m -13 Y s 1850 1106 m cl s 1886 1103 m -18 X s 1868 1103 m cl s 1886 1103 m 18 X s 1904 1103 m cl s 1886 1103 m 14 Y s 1886 1117 m cl s 1886 1103 m -15 Y s
 1886 1088 m cl s 1921 1017 m -17 X s 1904 1017 m cl s 1921 1017 m 18 X s 1939 1017 m cl s 1921 1017 m 20 Y s 1921 1037 m cl s 1921 1017 m -20 Y s 1921 997 m cl s 1957 981 m -18 X s 1939 981 m cl s 1957 981 m 18 X s 1975 981 m cl s 1957 981 m 23 Y s
 1957 1004 m cl s 1957 981 m -24 Y s 1957 957 m cl s 1993 966 m -18 X s 1975 966 m cl s 1993 966 m 18 X s 2011 966 m cl s 1993 966 m 25 Y s 1993 991 m cl s 1993 966 m -25 Y s 1993 941 m cl s 2029 889 m -18 X s 2011 889 m cl s 2029 889 m 18 X s 2047
 889 m cl s 2029 889 m 33 Y s 2029 922 m cl s 2029 889 m -35 Y s 2029 854 m cl s 2065 803 m -18 X s 2047 803 m cl s 2065 803 m 18 X s 2083 803 m cl s 2065 803 m 48 Y s 2065 851 m cl s 2065 803 m -49 Y s 2065 754 m cl s 2101 848 m -18 X s 2083 848 m
 cl s 2101 848 m 18 X s 2119 848 m cl s 2101 848 m 40 Y s 2101 888 m cl s 2101 848 m -41 Y s 2101 807 m cl s 2136 682 m -17 X s 2119 682 m cl s 2136 682 m 18 X s 2154 682 m cl s 2136 682 m 77 Y s 2136 759 m cl s 2136 682 m -48 Y s 2136 634 m cl s 381
 789 417 874 452 803 488 828 524 866 560 848 596 874 632 866 667 908 703 974 739 954 775 940 811 966 847 991 882 966 918 1009 954 1012 990 974 1026 1042 1062 1071 1097 1127 1133 1110 1169 1147 1205 1171 1241 1196 1276 1222 1312 1259 1348 1301 1384
 1325 1420 1356 1456 1377 1491 1400 1527 1405 1563 1415 1599 1415 1635 1389 1671 1368 1706 1330 1742 1288 1778 1236 1814 1198 1850 1119 1886 1103 1921 1017 1957 981 1993 966 2029 889 2065 803 2101 848 2136 682 50 { m20} R 0.52 0.76 0.64 c[ 4 8] 0 sd
 9 lw black 0.52 0.76 0.64 c 363 851 m 36 7 d 35 6 d 36 7 d 36 7 d 36 7 d 36 7 d 36 8 d 35 8 d 36 8 d 36 9 d 36 9 d 36 9 d 36 10 d 35 11 d 36 11 d 36 11 d 36 13 d 36 13 d 36 14 d 35 16 d 36 16 d 36 18 d 36 20 d 36 22 d 18 12 d 18 13 d 17 14 d 18 14 d
 18 16 d 18 17 d 9 10 d 9 9 d 9 11 d 9 10 d 9 12 d 9 11 d 18 24 d 36 39 d 18 16 d 9 6 d 9 6 d 9 6 d 8 4 d 9 4 d 9 4 d 9 2 d 9 2 d 9 2 d 18 X 9 -1 d 9 -1 d 9 -2 d 9 -3 d 9 -3 d 9 -4 d 9 -5 d 9 -6 d 9 -6 d 18 -14 d 36 -37 d 17 -22 d 18 -26 d 9 -13 d 9
 -14 d 9 -15 d 9 -16 d 9 -16 d 9 -17 d 9 -18 d 9 -18 d 9 -19 d 9 -20 d 18 -41 d 18 -45 d 18 -46 d 18 -50 d 18 -52 d 35 -113 d 31 -105 d s 0.54 0.66 0.63 c black 0.54 0.66 0.63 c 910 634 m 26 47 d s 936 681 m 36 60 d 36 57 d 36 53 d 18 26 d 17 24 d 18
 23 d 18 23 d 18 21 d 18 21 d 18 20 d 18 19 d 18 18 d 18 17 d 18 16 d 18 15 d 35 28 d 36 24 d 36 20 d 18 9 d 18 8 d 18 7 d 18 6 d 18 5 d 18 5 d 17 3 d 18 2 d 18 2 d 18 1 d 18 -1 d 18 -1 d 18 -2 d 18 -3 d 18 -4 d 18 -5 d 18 -5 d 18 -7 d 17 -8 d 18 -8
 d 36 -20 d 36 -23 d 36 -27 d 18 -15 d 18 -16 d 18 -16 d 18 -18 d 17 -18 d 18 -20 d 18 -20 d 18 -21 d 18 -22 d 18 -23 d 18 -24 d 18 -25 d 36 -52 d 36 -56 d 35 -60 d s black[  ] 0 sd 3 lw 363 634 m 1791 X s 475 659 m -25 Y s 512 646 m -12 Y s 549 646
 m -12 Y s 587 646 m -12 Y s 624 646 m -12 Y s 661 659 m -25 Y s 699 646 m -12 Y s 736 646 m -12 Y s 773 646 m -12 Y s 811 646 m -12 Y s 848 659 m -25 Y s 885 646 m -12 Y s 923 646 m -12 Y s 960 646 m -12 Y s 997 646 m -12 Y s 1035 659 m -25 Y s 1072
 646 m -12 Y s 1109 646 m -12 Y s 1147 646 m -12 Y s 1184 646 m -12 Y s 1221 659 m -25 Y s 1259 646 m -12 Y s 1296 646 m -12 Y s 1333 646 m -12 Y s 1371 646 m -12 Y s 1408 659 m -25 Y s 1445 646 m -12 Y s 1483 646 m -12 Y s 1520 646 m -12 Y s 1557
 646 m -12 Y s 1594 659 m -25 Y s 1632 646 m -12 Y s 1669 646 m -12 Y s 1706 646 m -12 Y s 1744 646 m -12 Y s 1781 659 m -25 Y s 1818 646 m -12 Y s 1856 646 m -12 Y s 1893 646 m -12 Y s 1930 646 m -12 Y s 1968 659 m -25 Y s 2005 646 m -12 Y s 2042
 646 m -12 Y s 2080 646 m -12 Y s 2117 646 m -12 Y s 2154 659 m -25 Y s 475 659 m -25 Y s 437 646 m -12 Y s 400 646 m -12 Y s 363 646 m -12 Y s 363 1484 m 1791 X s 475 1459 m 25 Y s 512 1471 m 13 Y s 549 1471 m 13 Y s 587 1471 m 13 Y s 624 1471 m 13
 Y s 661 1459 m 25 Y s 699 1471 m 13 Y s 736 1471 m 13 Y s 773 1471 m 13 Y s 811 1471 m 13 Y s 848 1459 m 25 Y s 885 1471 m 13 Y s 923 1471 m 13 Y s 960 1471 m 13 Y s 997 1471 m 13 Y s 1035 1459 m 25 Y s 1072 1471 m 13 Y s 1109 1471 m 13 Y s 1147
 1471 m 13 Y s 1184 1471 m 13 Y s 1221 1459 m 25 Y s 1259 1471 m 13 Y s 1296 1471 m 13 Y s 1333 1471 m 13 Y s 1371 1471 m 13 Y s 1408 1459 m 25 Y s 1445 1471 m 13 Y s 1483 1471 m 13 Y s 1520 1471 m 13 Y s 1557 1471 m 13 Y s 1594 1459 m 25 Y s 1632
 1471 m 13 Y s 1669 1471 m 13 Y s 1706 1471 m 13 Y s 1744 1471 m 13 Y s 1781 1459 m 25 Y s 1818 1471 m 13 Y s 1856 1471 m 13 Y s 1893 1471 m 13 Y s 1930 1471 m 13 Y s 1968 1459 m 25 Y s 2005 1471 m 13 Y s 2042 1471 m 13 Y s 2080 1471 m 13 Y s 2117
 1471 m 13 Y s 2154 1459 m 25 Y s 475 1459 m 25 Y s 437 1471 m 13 Y s 400 1471 m 13 Y s 363 1471 m 13 Y s 363 634 m 850 Y s 390 643 m -27 X s 390 682 m -27 X s 390 711 m -27 X s 390 735 m -27 X s 390 756 m -27 X s 390 774 m -27 X s 390 789 m -27 X s
 417 803 m -54 X s 390 896 m -27 X s 390 949 m -27 X s 390 988 m -27 X s 390 1017 m -27 X s 390 1042 m -27 X s 390 1062 m -27 X s 390 1080 m -27 X s 390 1096 m -27 X s 417 1110 m -54 X s 390 1202 m -27 X s 390 1256 m -27 X s 390 1294 m -27 X s 390
 1323 m -27 X s 390 1348 m -27 X s 390 1368 m -27 X s 390 1386 m -27 X s 390 1402 m -27 X s 417 1416 m -54 X s 2154 634 m 850 Y s 2127 643 m 27 X s 2127 682 m 27 X s 2127 711 m 27 X s 2127 735 m 27 X s 2127 756 m 27 X s 2127 774 m 27 X s 2127 789 m
 27 X s 2101 803 m 53 X s 2127 896 m 27 X s 2127 949 m 27 X s 2127 988 m 27 X s 2127 1017 m 27 X s 2127 1042 m 27 X s 2127 1062 m 27 X s 2127 1080 m 27 X s 2127 1096 m 27 X s 2101 1110 m 53 X s 2127 1202 m 27 X s 2127 1256 m 27 X s 2127 1294 m 27 X s
 2127 1323 m 27 X s 2127 1348 m 27 X s 2127 1368 m 27 X s 2127 1386 m 27 X s 2127 1402 m 27 X s 2101 1416 m 53 X s
 gsave  2268 1077 0 461 C 677.708 1215.31 t 0 r /Helvetica findfont 58.7189 sf 0 0 m (2mu2e) show NC gr  1 1 1 c 453 161 454 1269 bf black
 gsave  2268 1077 0 461 C 566.929 1371.71 t 0 r /Helvetica-Bold findfont 48.9324 sf 0 0 m (MC15) show NC gr  510 1390 m20
 gsave  2268 1077 0 461 C 566.929 1293.51 t 0 r /Helvetica-Bold findfont 48.9324 sf 0 0 m (Projection of Signal pdf) show NC gr  0 0 1 c 9 lw 471 1309 m 79 X s black 3 lw 1 1 1 c 2268 461 0 0 bf black 1 1 1 c 1791 364 363 74 bf black 1791 364 363 74
 bl 363 74 m 1791 X s
 gsave  2268 461 0 0 C 1915.83 13.0329 t 0 r /Helvetica findfont 22.9045 sf 0 0 m (4l Invariant Mass \(GeV\)) show NC gr  475 85 m -11 Y s 512 79 m -5 Y s 549 79 m -5 Y s 587 79 m -5 Y s 624 79 m -5 Y s 661 85 m -11 Y s 699 79 m -5 Y s 736 79 m -5 Y
 s 773 79 m -5 Y s 811 79 m -5 Y s 848 85 m -11 Y s 885 79 m -5 Y s 923 79 m -5 Y s 960 79 m -5 Y s 997 79 m -5 Y s 1035 85 m -11 Y s 1072 79 m -5 Y s 1109 79 m -5 Y s 1147 79 m -5 Y s 1184 79 m -5 Y s 1221 85 m -11 Y s 1259 79 m -5 Y s 1296 79 m -5
 Y s 1333 79 m -5 Y s 1371 79 m -5 Y s 1408 85 m -11 Y s 1445 79 m -5 Y s 1483 79 m -5 Y s 1520 79 m -5 Y s 1557 79 m -5 Y s 1594 85 m -11 Y s 1632 79 m -5 Y s 1669 79 m -5 Y s 1706 79 m -5 Y s 1744 79 m -5 Y s 1781 85 m -11 Y s 1818 79 m -5 Y s 1856
 79 m -5 Y s 1893 79 m -5 Y s 1930 79 m -5 Y s 1968 85 m -11 Y s 2005 79 m -5 Y s 2042 79 m -5 Y s 2080 79 m -5 Y s 2117 79 m -5 Y s 2154 85 m -11 Y s 475 85 m -11 Y s 437 79 m -5 Y s 400 79 m -5 Y s 363 79 m -5 Y s
 gsave  2268 461 0 0 C 452.892 55.3896 t 0 r /Helvetica findfont 22.9045 sf 0 0 m (270) show NC gr 
 gsave  2268 461 0 0 C 641.868 55.3896 t 0 r /Helvetica findfont 22.9045 sf 0 0 m (275) show NC gr 
 gsave  2268 461 0 0 C 827.586 55.3896 t 0 r /Helvetica findfont 22.9045 sf 0 0 m (280) show NC gr 
 gsave  2268 461 0 0 C 1013.3 55.3896 t 0 r /Helvetica findfont 22.9045 sf 0 0 m (285) show NC gr 
 gsave  2268 461 0 0 C 1199.02 55.3896 t 0 r /Helvetica findfont 22.9045 sf 0 0 m (290) show NC gr 
 gsave  2268 461 0 0 C 1388 55.3896 t 0 r /Helvetica findfont 22.9045 sf 0 0 m (295) show NC gr 
 gsave  2268 461 0 0 C 1573.72 55.3896 t 0 r /Helvetica findfont 22.9045 sf 0 0 m (300) show NC gr 
 gsave  2268 461 0 0 C 1759.44 55.3896 t 0 r /Helvetica findfont 22.9045 sf 0 0 m (305) show NC gr 
 gsave  2268 461 0 0 C 1945.15 55.3896 t 0 r /Helvetica findfont 22.9045 sf 0 0 m (310) show NC gr 
 gsave  2268 461 0 0 C 2134.13 55.3896 t 0 r /Helvetica findfont 22.9045 sf 0 0 m (315) show NC gr  363 438 m 1791 X s 475 427 m 11 Y s 512 433 m 5 Y s 549 433 m 5 Y s 587 433 m 5 Y s 624 433 m 5 Y s 661 427 m 11 Y s 699 433 m 5 Y s 736 433 m 5 Y s
 773 433 m 5 Y s 811 433 m 5 Y s 848 427 m 11 Y s 885 433 m 5 Y s 923 433 m 5 Y s 960 433 m 5 Y s 997 433 m 5 Y s 1035 427 m 11 Y s 1072 433 m 5 Y s 1109 433 m 5 Y s 1147 433 m 5 Y s 1184 433 m 5 Y s 1221 427 m 11 Y s 1259 433 m 5 Y s 1296 433 m 5 Y
 s 1333 433 m 5 Y s 1371 433 m 5 Y s 1408 427 m 11 Y s 1445 433 m 5 Y s 1483 433 m 5 Y s 1520 433 m 5 Y s 1557 433 m 5 Y s 1594 427 m 11 Y s 1632 433 m 5 Y s 1669 433 m 5 Y s 1706 433 m 5 Y s 1744 433 m 5 Y s 1781 427 m 11 Y s 1818 433 m 5 Y s 1856
 433 m 5 Y s 1893 433 m 5 Y s 1930 433 m 5 Y s 1968 427 m 11 Y s 2005 433 m 5 Y s 2042 433 m 5 Y s 2080 433 m 5 Y s 2117 433 m 5 Y s 2154 427 m 11 Y s 475 427 m 11 Y s 437 433 m 5 Y s 400 433 m 5 Y s 363 433 m 5 Y s 363 74 m 364 Y s 417 74 m -54 X s
 390 81 m -27 X s 390 88 m -27 X s 390 96 m -27 X s 390 103 m -27 X s 417 110 m -54 X s 390 118 m -27 X s 390 125 m -27 X s 390 132 m -27 X s 390 139 m -27 X s 417 147 m -54 X s 390 154 m -27 X s 390 161 m -27 X s 390 169 m -27 X s 390 176 m -27 X s
 417 183 m -54 X s 390 190 m -27 X s 390 198 m -27 X s 390 205 m -27 X s 390 212 m -27 X s 417 220 m -54 X s 390 227 m -27 X s 390 234 m -27 X s 390 241 m -27 X s 390 249 m -27 X s 417 256 m -54 X s 390 263 m -27 X s 390 271 m -27 X s 390 278 m -27 X
 s 390 285 m -27 X s 417 293 m -54 X s 390 300 m -27 X s 390 307 m -27 X s 390 314 m -27 X s 390 322 m -27 X s 417 329 m -54 X s 390 336 m -27 X s 390 344 m -27 X s 390 351 m -27 X s 390 358 m -27 X s 417 365 m -54 X s 390 373 m -27 X s 390 380 m -27
 X s 390 387 m -27 X s 390 395 m -27 X s 417 402 m -54 X s 390 409 m -27 X s 390 416 m -27 X s 390 424 m -27 X s 390 431 m -27 X s 417 438 m -54 X s
 gsave  2268 461 0 0 C 329.08 65.1643 t 0 r /Helvetica findfont 22.9045 sf 0 0 m (\2555) show NC gr 
 gsave  2268 461 0 0 C 329.08 101.005 t 0 r /Helvetica findfont 22.9045 sf 0 0 m (\2554) show NC gr 
 gsave  2268 461 0 0 C 329.08 140.103 t 0 r /Helvetica findfont 22.9045 sf 0 0 m (\2553) show NC gr 
 gsave  2268 461 0 0 C 329.08 175.944 t 0 r /Helvetica findfont 22.9045 sf 0 0 m (\2552) show NC gr 
 gsave  2268 461 0 0 C 332.338 211.784 t 0 r /Helvetica findfont 22.9045 sf 0 0 m (\2551) show NC gr 
 gsave  2268 461 0 0 C 335.596 247.624 t 0 r /Helvetica findfont 22.9045 sf 0 0 m (0) show NC gr 
 gsave  2268 461 0 0 C 338.854 283.465 t 0 r /Helvetica findfont 22.9045 sf 0 0 m (1) show NC gr 
 gsave  2268 461 0 0 C 335.596 319.305 t 0 r /Helvetica findfont 22.9045 sf 0 0 m (2) show NC gr 
 gsave  2268 461 0 0 C 335.596 358.403 t 0 r /Helvetica findfont 22.9045 sf 0 0 m (3) show NC gr 
 gsave  2268 461 0 0 C 335.596 394.244 t 0 r /Helvetica findfont 22.9045 sf 0 0 m (4) show NC gr 
 gsave  2268 461 0 0 C 335.596 430.084 t 0 r /Helvetica findfont 22.9045 sf 0 0 m (5) show NC gr  2154 74 m 364 Y s 2101 74 m 53 X s 2127 81 m 27 X s 2127 88 m 27 X s 2127 96 m 27 X s 2127 103 m 27 X s 2101 110 m 53 X s 2127 118 m 27 X s 2127 125 m
 27 X s 2127 132 m 27 X s 2127 139 m 27 X s 2101 147 m 53 X s 2127 154 m 27 X s 2127 161 m 27 X s 2127 169 m 27 X s 2127 176 m 27 X s 2101 183 m 53 X s 2127 190 m 27 X s 2127 198 m 27 X s 2127 205 m 27 X s 2127 212 m 27 X s 2101 220 m 53 X s 2127 227
 m 27 X s 2127 234 m 27 X s 2127 241 m 27 X s 2127 249 m 27 X s 2101 256 m 53 X s 2127 263 m 27 X s 2127 271 m 27 X s 2127 278 m 27 X s 2127 285 m 27 X s 2101 293 m 53 X s 2127 300 m 27 X s 2127 307 m 27 X s 2127 314 m 27 X s 2127 322 m 27 X s 2101
 329 m 53 X s 2127 336 m 27 X s 2127 344 m 27 X s 2127 351 m 27 X s 2127 358 m 27 X s 2101 365 m 53 X s 2127 373 m 27 X s 2127 380 m 27 X s 2127 387 m 27 X s 2127 395 m 27 X s 2101 402 m 53 X s 2127 409 m 27 X s 2127 416 m 27 X s 2127 424 m 27 X s
 2127 431 m 27 X s 2101 438 m 53 X s 6 lw 0.2 0.8 0.2 c black 3 lw 0.2 0.8 0.2 c 363 256 m -50 Y 36 X 64 Y 35 X -67 Y 36 X 13 Y 36 X 26 Y 36 X -23 Y 36 X 16 Y 36 X -17 Y 35 X 34 Y 36 X 76 Y 36 X -39 Y 36 X -33 Y 36 X 23 Y 36 X 21 Y 35 X -59 Y 36 X 46
 Y 36 X -24 Y 36 X -98 Y 36 X 80 Y 36 X 14 Y 35 X 86 Y 36 X -115 Y 36 X 31 Y 36 X -10 Y 36 X -8 Y 36 X -7 Y 35 X 37 Y 36 X 65 Y 36 X -58 Y 36 X -30 Y 36 X -50 Y 36 X 31 Y 35 X -47 Y 36 X 76 Y 36 X 69 Y 36 X -70 Y 36 X 34 Y 36 X -29 Y 35 X -12 Y 36 X
 -26 Y 36 X 51 Y 36 X -89 Y 36 X 99 Y 36 X -73 Y 35 X 24 Y 36 X 52 Y 36 X -38 Y 36 X -23 Y 36 X 79 Y 36 X -71 Y 35 X 19 Y f 6 lw black 0.2 0.8 0.2 c black 363 206 m 36 X 64 Y 35 X -67 Y 36 X 13 Y 36 X 26 Y 36 X -23 Y 36 X 16 Y 36 X -17 Y 35 X 34 Y 36
 X 76 Y 36 X -39 Y 36 X -33 Y 36 X 23 Y 36 X 21 Y 35 X -59 Y 36 X 46 Y 36 X -24 Y 36 X -98 Y 36 X 80 Y 36 X 14 Y 35 X 86 Y 36 X -115 Y 36 X 31 Y 36 X -10 Y 36 X -8 Y 36 X -7 Y 35 X 37 Y 36 X 65 Y 36 X -58 Y 36 X -30 Y 36 X -50 Y 36 X 31 Y 35 X -47 Y
 36 X 76 Y 36 X 69 Y 36 X -70 Y 36 X 34 Y 36 X -29 Y 35 X -12 Y 36 X -26 Y 36 X 51 Y 36 X -89 Y 36 X 99 Y 36 X -73 Y 35 X 24 Y 36 X 52 Y 36 X -38 Y 36 X -23 Y 36 X 79 Y 36 X -71 Y 35 X s 3 lw 363 74 m 1791 X s 475 85 m -11 Y s 512 79 m -5 Y s 549 79
 m -5 Y s 587 79 m -5 Y s 624 79 m -5 Y s 661 85 m -11 Y s 699 79 m -5 Y s 736 79 m -5 Y s 773 79 m -5 Y s 811 79 m -5 Y s 848 85 m -11 Y s 885 79 m -5 Y s 923 79 m -5 Y s 960 79 m -5 Y s 997 79 m -5 Y s 1035 85 m -11 Y s 1072 79 m -5 Y s 1109 79 m
 -5 Y s 1147 79 m -5 Y s 1184 79 m -5 Y s 1221 85 m -11 Y s 1259 79 m -5 Y s 1296 79 m -5 Y s 1333 79 m -5 Y s 1371 79 m -5 Y s 1408 85 m -11 Y s 1445 79 m -5 Y s 1483 79 m -5 Y s 1520 79 m -5 Y s 1557 79 m -5 Y s 1594 85 m -11 Y s 1632 79 m -5 Y s
 1669 79 m -5 Y s 1706 79 m -5 Y s 1744 79 m -5 Y s 1781 85 m -11 Y s 1818 79 m -5 Y s 1856 79 m -5 Y s 1893 79 m -5 Y s 1930 79 m -5 Y s 1968 85 m -11 Y s 2005 79 m -5 Y s 2042 79 m -5 Y s 2080 79 m -5 Y s 2117 79 m -5 Y s 2154 85 m -11 Y s 475 85 m
 -11 Y s 437 79 m -5 Y s 400 79 m -5 Y s 363 79 m -5 Y s 363 438 m 1791 X s 475 427 m 11 Y s 512 433 m 5 Y s 549 433 m 5 Y s 587 433 m 5 Y s 624 433 m 5 Y s 661 427 m 11 Y s 699 433 m 5 Y s 736 433 m 5 Y s 773 433 m 5 Y s 811 433 m 5 Y s 848 427 m 11
 Y s 885 433 m 5 Y s 923 433 m 5 Y s 960 433 m 5 Y s 997 433 m 5 Y s 1035 427 m 11 Y s 1072 433 m 5 Y s 1109 433 m 5 Y s 1147 433 m 5 Y s 1184 433 m 5 Y s 1221 427 m 11 Y s 1259 433 m 5 Y s 1296 433 m 5 Y s 1333 433 m 5 Y s 1371 433 m 5 Y s 1408 427
 m 11 Y s 1445 433 m 5 Y s 1483 433 m 5 Y s 1520 433 m 5 Y s 1557 433 m 5 Y s 1594 427 m 11 Y s 1632 433 m 5 Y s 1669 433 m 5 Y s 1706 433 m 5 Y s 1744 433 m 5 Y s 1781 427 m 11 Y s 1818 433 m 5 Y s 1856 433 m 5 Y s 1893 433 m 5 Y s 1930 433 m 5 Y s
 1968 427 m 11 Y s 2005 433 m 5 Y s 2042 433 m 5 Y s 2080 433 m 5 Y s 2117 433 m 5 Y s 2154 427 m 11 Y s 475 427 m 11 Y s 437 433 m 5 Y s 400 433 m 5 Y s 363 433 m 5 Y s 363 74 m 364 Y s 417 74 m -54 X s 390 81 m -27 X s 390 88 m -27 X s 390 96 m -27
 X s 390 103 m -27 X s 417 110 m -54 X s 390 118 m -27 X s 390 125 m -27 X s 390 132 m -27 X s 390 139 m -27 X s 417 147 m -54 X s 390 154 m -27 X s 390 161 m -27 X s 390 169 m -27 X s 390 176 m -27 X s 417 183 m -54 X s 390 190 m -27 X s 390 198 m
 -27 X s 390 205 m -27 X s 390 212 m -27 X s 417 220 m -54 X s 390 227 m -27 X s 390 234 m -27 X s 390 241 m -27 X s 390 249 m -27 X s 417 256 m -54 X s 390 263 m -27 X s 390 271 m -27 X s 390 278 m -27 X s 390 285 m -27 X s 417 293 m -54 X s 390 300
 m -27 X s 390 307 m -27 X s 390 314 m -27 X s 390 322 m -27 X s 417 329 m -54 X s 390 336 m -27 X s 390 344 m -27 X s 390 351 m -27 X s 390 358 m -27 X s 417 365 m -54 X s 390 373 m -27 X s 390 380 m -27 X s 390 387 m -27 X s 390 395 m -27 X s 417
 402 m -54 X s 390 409 m -27 X s 390 416 m -27 X s 390 424 m -27 X s 390 431 m -27 X s 417 438 m -54 X s 2154 74 m 364 Y s 2101 74 m 53 X s 2127 81 m 27 X s 2127 88 m 27 X s 2127 96 m 27 X s 2127 103 m 27 X s 2101 110 m 53 X s 2127 118 m 27 X s 2127
 125 m 27 X s 2127 132 m 27 X s 2127 139 m 27 X s 2101 147 m 53 X s 2127 154 m 27 X s 2127 161 m 27 X s 2127 169 m 27 X s 2127 176 m 27 X s 2101 183 m 53 X s 2127 190 m 27 X s 2127 198 m 27 X s 2127 205 m 27 X s 2127 212 m 27 X s 2101 220 m 53 X s
 2127 227 m 27 X s 2127 234 m 27 X s 2127 241 m 27 X s 2127 249 m 27 X s 2101 256 m 53 X s 2127 263 m 27 X s 2127 271 m 27 X s 2127 278 m 27 X s 2127 285 m 27 X s 2101 293 m 53 X s 2127 300 m 27 X s 2127 307 m 27 X s 2127 314 m 27 X s 2127 322 m 27 X
 s 2101 329 m 53 X s 2127 336 m 27 X s 2127 344 m 27 X s 2127 351 m 27 X s 2127 358 m 27 X s 2101 365 m 53 X s 2127 373 m 27 X s 2127 380 m 27 X s 2127 387 m 27 X s 2127 395 m 27 X s 2101 402 m 53 X s 2127 409 m 27 X s 2127 416 m 27 X s 2127 424 m 27
 X s 2127 431 m 27 X s 2101 438 m 53 X s
 gr  gr showpage
end
%%EOF
