%!PS-Adobe-2.0 EPSF-2.0
%%BoundingBox:  0 0 567 384
%%Title: H4l2015_plotfit/gg_mass_signal_300_H4l_4mu.eps: 
%%Creator: ROOT Version 5.34/10
%%CreationDate: Thu Feb 16 12:42:13 2017
%%EndComments
%%BeginProlog
80 dict begin
/s {stroke} def /l {lineto} def /m {moveto} def /t {translate} def
/r {rotate} def /rl {roll}  def /R {repeat} def
/d {rlineto} def /rm {rmoveto} def /gr {grestore} def /f {eofill} def
/c {setrgbcolor} def /black {0 setgray} def /sd {setdash} def
/cl {closepath} def /sf {scalefont setfont} def /lw {setlinewidth} def
/box {m dup 0 exch d exch 0 d 0 exch neg d cl} def
/NC{systemdict begin initclip end}def/C{NC box clip newpath}def
/bl {box s} def /bf {box f} def /Y { 0 exch d} def /X { 0 d} def 
/K {{pop pop 0 moveto} exch kshow} bind def
/ita {/ang 15 def gsave [1 0 ang dup sin exch cos div 1 0 0] concat} def 
/mp {newpath /y exch def /x exch def} def
/side {[w .77 mul w .23 mul] .385 w mul sd w 0 l currentpoint t -144 r} def
/mr {mp x y w2 0 360 arc} def /m24 {mr s} def /m20 {mr f} def
/mb {mp x y w2 add m w2 neg 0 d 0 w neg d w 0 d 0 w d cl} def
/mt {mp x y w2 add m w2 neg w neg d w 0 d cl} def
/m21 {mb f} def /m25 {mb s} def /m22 {mt f} def /m26{mt s} def
/m23 {mp x y w2 sub m w2 w d w neg 0 d cl f} def
/m27 {mp x y w2 add m w3 neg w2 neg d w3 w2 neg d w3 w2 d cl s} def
/m28 {mp x w2 sub y w2 sub w3 add m w3 0 d  0 w3 neg d w3 0 d 0 w3 d w3 0 d  0 w3 d w3 neg 0 d 0 w3 d w3 neg 0 d 0 w3 neg d w3 neg 0 d cl s } def
/m29 {mp gsave x w2 sub y w2 add w3 sub m currentpoint t 4 {side} repeat cl fill gr} def
/m30 {mp gsave x w2 sub y w2 add w3 sub m currentpoint t 4 {side} repeat cl s gr} def
/m31 {mp x y w2 sub m 0 w d x w2 sub y m w 0 d x w2 sub y w2 add m w w neg d x w2 sub y w2 sub m w w d s} def
/m32 {mp x y w2 sub m w2 w d w neg 0 d cl s} def
/m33 {mp x y w2 add m w3 neg w2 neg d w3 w2 neg d w3 w2 d cl f} def
/m34 {mp x w2 sub y w2 sub w3 add m w3 0 d  0 w3 neg d w3 0 d 0 w3 d w3 0 d  0 w3 d w3 neg 0 d 0 w3 d w3 neg 0 d 0 w3 neg d w3 neg 0 d cl f } def
/m2 {mp x y w2 sub m 0 w d x w2 sub y m w 0 d s} def
/m5 {mp x w2 sub y w2 sub m w w d x w2 sub y w2 add m w w neg d s} def
/reEncode {exch findfont dup length dict begin {1 index /FID eq  {pop pop} {def} ifelse } forall /Encoding exch def currentdict end dup /FontName get exch definefont pop } def [/Times-Bold /Times-Italic /Times-BoldItalic /Helvetica /Helvetica-Oblique
 /Helvetica-Bold /Helvetica-BoldOblique /Courier /Courier-Oblique /Courier-Bold /Courier-BoldOblique /Times-Roman /AvantGarde-Book /AvantGarde-BookOblique /AvantGarde-Demi /AvantGarde-DemiOblique /Bookman-Demi /Bookman-DemiItalic /Bookman-Light
 /Bookman-LightItalic /Helvetica-Narrow /Helvetica-Narrow-Bold /Helvetica-Narrow-BoldOblique /Helvetica-Narrow-Oblique /NewCenturySchlbk-Roman /NewCenturySchlbk-Bold /NewCenturySchlbk-BoldItalic /NewCenturySchlbk-Italic /Palatino-Bold
 /Palatino-BoldItalic /Palatino-Italic /Palatino-Roman ] {ISOLatin1Encoding reEncode } forall
%%EndProlog
%%BeginSetup
%%EndSetup
newpath  gsave  .25 .25 scale  gsave  0 0 t black[  ] 0 sd 3 lw 1 1 1 c 2268 1538 0 0 bf black 1 1 1 c 2222 738 23 784 bf black 1 1 1 c 2222 739 23 15 bf black 1 1 1 c 2268 1077 0 461 bf black 1 1 1 c 1791 850 363 634 bf black 1791 850 363 634 bl 363
 634 m 1791 X s
 gsave  2268 1077 0 461 C 1642.14 498.507 t 0 r /Helvetica findfont 48.9324 sf 0 0 m (4l Invariant Mass \(GeV\)) show NC gr  393 659 m -25 Y s 452 646 m -12 Y s 512 646 m -12 Y s 572 646 m -12 Y s 632 646 m -12 Y s 691 659 m -25 Y s 751 646 m -12 Y s
 811 646 m -12 Y s 870 646 m -12 Y s 930 646 m -12 Y s 990 659 m -25 Y s 1050 646 m -12 Y s 1109 646 m -12 Y s 1169 646 m -12 Y s 1229 646 m -12 Y s 1288 659 m -25 Y s 1348 646 m -12 Y s 1408 646 m -12 Y s 1468 646 m -12 Y s 1527 646 m -12 Y s 1587
 659 m -25 Y s 1647 646 m -12 Y s 1706 646 m -12 Y s 1766 646 m -12 Y s 1826 646 m -12 Y s 1886 659 m -25 Y s 393 659 m -25 Y s 1886 659 m -25 Y s 1945 646 m -12 Y s 2005 646 m -12 Y s 2065 646 m -12 Y s 2124 646 m -12 Y s
 gsave  2268 1077 0 461 C 348.629 586.478 t 0 r /Helvetica findfont 48.9324 sf 0 0 m (260) show NC gr 
 gsave  2268 1077 0 461 C 648.384 586.478 t 0 r /Helvetica findfont 48.9324 sf 0 0 m (270) show NC gr 
 gsave  2268 1077 0 461 C 944.882 586.478 t 0 r /Helvetica findfont 48.9324 sf 0 0 m (280) show NC gr 
 gsave  2268 1077 0 461 C 1244.64 586.478 t 0 r /Helvetica findfont 48.9324 sf 0 0 m (290) show NC gr 
 gsave  2268 1077 0 461 C 1544.39 586.478 t 0 r /Helvetica findfont 48.9324 sf 0 0 m (300) show NC gr 
 gsave  2268 1077 0 461 C 1840.89 586.478 t 0 r /Helvetica findfont 48.9324 sf 0 0 m (310) show NC gr  363 1484 m 1791 X s 393 1459 m 25 Y s 452 1471 m 13 Y s 512 1471 m 13 Y s 572 1471 m 13 Y s 632 1471 m 13 Y s 691 1459 m 25 Y s 751 1471 m 13 Y s
 811 1471 m 13 Y s 870 1471 m 13 Y s 930 1471 m 13 Y s 990 1459 m 25 Y s 1050 1471 m 13 Y s 1109 1471 m 13 Y s 1169 1471 m 13 Y s 1229 1471 m 13 Y s 1288 1459 m 25 Y s 1348 1471 m 13 Y s 1408 1471 m 13 Y s 1468 1471 m 13 Y s 1527 1471 m 13 Y s 1587
 1459 m 25 Y s 1647 1471 m 13 Y s 1706 1471 m 13 Y s 1766 1471 m 13 Y s 1826 1471 m 13 Y s 1886 1459 m 25 Y s 393 1459 m 25 Y s 1886 1459 m 25 Y s 1945 1471 m 13 Y s 2005 1471 m 13 Y s 2065 1471 m 13 Y s 2124 1471 m 13 Y s 363 634 m 850 Y s
 gsave  2268 1077 0 461 C 120.554 1058.92 t 90 r /Helvetica findfont 48.9324 sf 0 0 m (Events / \( 1.2 GeV \)) show NC gr  390 661 m -27 X s 390 701 m -27 X s 390 732 m -27 X s 390 757 m -27 X s 390 779 m -27 X s 390 797 m -27 X s 390 814 m -27 X s
 417 828 m -54 X s
 gsave  2268 1077 0 461 C 342.425 807.321 t 0 r  -55 0 t /Helvetica findfont 48.9324 sf 0 0 m (10) show NC gr  390 925 m -27 X s 390 981 m -27 X s 390 1021 m -27 X s 390 1052 m -27 X s 390 1078 m -27 X s 390 1099 m -27 X s 390 1118 m -27 X s 390 1134
 m -27 X s 417 1149 m -54 X s
 gsave  2268 1077 0 461 C 322.563 1146.89 t 0 r /Helvetica findfont 32.6216 sf 0 0 m (2) show NC gr 
 gsave  2268 1077 0 461 C 270.432 1127.34 t 0 r /Helvetica findfont 48.9324 sf 0 0 m (10) show NC gr  390 1245 m -27 X s 390 1302 m -27 X s 390 1342 m -27 X s 390 1373 m -27 X s 390 1398 m -27 X s 390 1420 m -27 X s 390 1438 m -27 X s 390 1455 m -27
 X s 417 1469 m -54 X s
 gsave  2268 1077 0 461 C 322.563 1469.45 t 0 r /Helvetica findfont 32.6216 sf 0 0 m (3) show NC gr 
 gsave  2268 1077 0 461 C 270.432 1446.65 t 0 r /Helvetica findfont 48.9324 sf 0 0 m (10) show NC gr  2154 634 m 850 Y s 2127 661 m 27 X s 2127 701 m 27 X s 2127 732 m 27 X s 2127 757 m 27 X s 2127 779 m 27 X s 2127 797 m 27 X s 2127 814 m 27 X s
 2101 828 m 53 X s 2127 925 m 27 X s 2127 981 m 27 X s 2127 1021 m 27 X s 2127 1052 m 27 X s 2127 1078 m 27 X s 2127 1099 m 27 X s 2127 1118 m 27 X s 2127 1134 m 27 X s 2101 1149 m 53 X s 2127 1245 m 27 X s 2127 1302 m 27 X s 2127 1342 m 27 X s 2127
 1373 m 27 X s 2127 1398 m 27 X s 2127 1420 m 27 X s 2127 1438 m 27 X s 2127 1455 m 27 X s 2101 1469 m 53 X s 381 779 m -18 X s 363 779 m cl s 381 779 m 18 X s 399 779 m cl s 381 779 m 60 Y s 381 839 m cl s 381 779 m -65 Y s 381 714 m cl s 417 779 m
 -18 X s 399 779 m cl s 417 779 m 17 X s 434 779 m cl s 417 779 m 60 Y s 417 839 m cl s 417 779 m -65 Y s 417 714 m cl s 488 814 m -18 X s 470 814 m cl s 488 814 m 18 X s 506 814 m cl s 488 814 m 52 Y s 488 866 m cl s 488 814 m -56 Y s 488 758 m cl s
 524 757 m -18 X s 506 757 m cl s 524 757 m 18 X s 542 757 m cl s 524 757 m 65 Y s 524 822 m cl s 524 757 m -70 Y s 524 687 m cl s 560 841 m -18 X s 542 841 m cl s 560 841 m 18 X s 578 841 m cl s 560 841 m 47 Y s 560 888 m cl s 560 841 m -49 Y s 560
 792 m cl s 596 732 m -18 X s 578 732 m cl s 596 732 m 18 X s 614 732 m cl s 596 732 m 72 Y s 596 804 m cl s 596 732 m -79 Y s 596 653 m cl s 632 757 m -18 X s 614 757 m cl s 632 757 m 17 X s 649 757 m cl s 632 757 m 65 Y s 632 822 m cl s 632 757 m
 -70 Y s 632 687 m cl s 667 854 m -18 X s 649 854 m cl s 667 854 m 18 X s 685 854 m cl s 667 854 m 44 Y s 667 898 m cl s 667 854 m -47 Y s 667 807 m cl s 703 828 m -18 X s 685 828 m cl s 703 828 m 18 X s 721 828 m cl s 703 828 m 50 Y s 703 878 m cl s
 703 828 m -52 Y s 703 776 m cl s 739 854 m -18 X s 721 854 m cl s 739 854 m 18 X s 757 854 m cl s 739 854 m 44 Y s 739 898 m cl s 739 854 m -47 Y s 739 807 m cl s 775 875 m -18 X s 757 875 m cl s 775 875 m 18 X s 793 875 m cl s 775 875 m 41 Y s 775
 916 m cl s 775 875 m -43 Y s 775 832 m cl s 811 894 m -18 X s 793 894 m cl s 811 894 m 18 X s 829 894 m cl s 811 894 m 38 Y s 811 932 m cl s 811 894 m -40 Y s 811 854 m cl s 847 902 m -18 X s 829 902 m cl s 847 902 m 17 X s 864 902 m cl s 847 902 m
 37 Y s 847 939 m cl s 847 902 m -38 Y s 847 864 m cl s 882 931 m -18 X s 864 931 m cl s 882 931 m 18 X s 900 931 m cl s 882 931 m 34 Y s 882 965 m cl s 882 931 m -34 Y s 882 897 m cl s 918 966 m -18 X s 900 966 m cl s 918 966 m 18 X s 936 966 m cl s
 918 966 m 29 Y s 918 995 m cl s 918 966 m -29 Y s 918 937 m cl s 954 925 m -18 X s 936 925 m cl s 954 925 m 18 X s 972 925 m cl s 954 925 m 34 Y s 954 959 m cl s 954 925 m -35 Y s 954 890 m cl s 990 938 m -18 X s 972 938 m cl s 990 938 m 18 X s 1008
 938 m cl s 990 938 m 32 Y s 990 970 m cl s 990 938 m -33 Y s 990 905 m cl s 1026 990 m -18 X s 1008 990 m cl s 1026 990 m 18 X s 1044 990 m cl s 1026 990 m 27 Y s 1026 1017 m cl s 1026 990 m -27 Y s 1026 963 m cl s 1062 972 m -18 X s 1044 972 m cl s
 1062 972 m 17 X s 1079 972 m cl s 1062 972 m 28 Y s 1062 1000 m cl s 1062 972 m -29 Y s 1062 943 m cl s 1097 1010 m -18 X s 1079 1010 m cl s 1097 1010 m 18 X s 1115 1010 m cl s 1097 1010 m 25 Y s 1097 1035 m cl s 1097 1010 m -25 Y s 1097 985 m cl s
 1133 1055 m -18 X s 1115 1055 m cl s 1133 1055 m 18 X s 1151 1055 m cl s 1133 1055 m 21 Y s 1133 1076 m cl s 1133 1055 m -21 Y s 1133 1034 m cl s 1169 1075 m -18 X s 1151 1075 m cl s 1169 1075 m 18 X s 1187 1075 m cl s 1169 1075 m 19 Y s 1169 1094 m
 cl s 1169 1075 m -19 Y s 1169 1056 m cl s 1205 1128 m -18 X s 1187 1128 m cl s 1205 1128 m 18 X s 1223 1128 m cl s 1205 1128 m 15 Y s 1205 1143 m cl s 1205 1128 m -16 Y s 1205 1112 m cl s 1241 1142 m -18 X s 1223 1142 m cl s 1241 1142 m 18 X s 1259
 1142 m cl s 1241 1142 m 15 Y s 1241 1157 m cl s 1241 1142 m -15 Y s 1241 1127 m cl s 1276 1182 m -17 X s 1259 1182 m cl s 1276 1182 m 18 X s 1294 1182 m cl s 1276 1182 m 12 Y s 1276 1194 m cl s 1276 1182 m -12 Y s 1276 1170 m cl s 1312 1198 m -18 X
 s 1294 1198 m cl s 1312 1198 m 18 X s 1330 1198 m cl s 1312 1198 m 11 Y s 1312 1209 m cl s 1312 1198 m -12 Y s 1312 1186 m cl s 1348 1245 m -18 X s 1330 1245 m cl s 1348 1245 m 18 X s 1366 1245 m cl s 1348 1245 m 9 Y s 1348 1254 m cl s 1348 1245 m
 -10 Y s 1348 1235 m cl s 1384 1268 m -18 X s 1366 1268 m cl s 1384 1268 m 18 X s 1402 1268 m cl s 1384 1268 m 9 Y s 1384 1277 m cl s 1384 1268 m -9 Y s 1384 1259 m cl s 1420 1311 m -18 X s 1402 1311 m cl s 1420 1311 m 18 X s 1438 1311 m cl s 1420
 1311 m 8 Y s 1420 1319 m cl s 1420 1311 m -7 Y s 1420 1304 m cl s 1456 1348 m -18 X s 1438 1348 m cl s 1456 1348 m 18 X s 1474 1348 m cl s 1456 1348 m 7 Y s 1456 1355 m cl s 1456 1348 m -6 Y s 1456 1342 m cl s 1491 1390 m -17 X s 1474 1390 m cl s
 1491 1390 m 18 X s 1509 1390 m cl s 1491 1390 m 6 Y s 1491 1396 m cl s 1491 1390 m -6 Y s 1491 1384 m cl s 1527 1409 m -18 X s 1509 1409 m cl s 1527 1409 m 18 X s 1545 1409 m cl s 1527 1409 m 6 Y s 1527 1415 m cl s 1527 1409 m -5 Y s 1527 1404 m cl
 s 1563 1404 m -18 X s 1545 1404 m cl s 1563 1404 m 18 X s 1581 1404 m cl s 1563 1404 m 6 Y s 1563 1410 m cl s 1563 1404 m -6 Y s 1563 1398 m cl s 1599 1401 m -18 X s 1581 1401 m cl s 1599 1401 m 18 X s 1617 1401 m cl s 1599 1401 m 6 Y s 1599 1407 m
 cl s 1599 1401 m -6 Y s 1599 1395 m cl s 1635 1391 m -18 X s 1617 1391 m cl s 1635 1391 m 18 X s 1653 1391 m cl s 1635 1391 m 6 Y s 1635 1397 m cl s 1635 1391 m -6 Y s 1635 1385 m cl s 1671 1350 m -18 X s 1653 1350 m cl s 1671 1350 m 18 X s 1689
 1350 m cl s 1671 1350 m 7 Y s 1671 1357 m cl s 1671 1350 m -7 Y s 1671 1343 m cl s 1706 1303 m -17 X s 1689 1303 m cl s 1706 1303 m 18 X s 1724 1303 m cl s 1706 1303 m 8 Y s 1706 1311 m cl s 1706 1303 m -8 Y s 1706 1295 m cl s 1742 1253 m -18 X s
 1724 1253 m cl s 1742 1253 m 18 X s 1760 1253 m cl s 1742 1253 m 9 Y s 1742 1262 m cl s 1742 1253 m -10 Y s 1742 1243 m cl s 1778 1205 m -18 X s 1760 1205 m cl s 1778 1205 m 18 X s 1796 1205 m cl s 1778 1205 m 12 Y s 1778 1217 m cl s 1778 1205 m -11
 Y s 1778 1194 m cl s 1814 1119 m -18 X s 1796 1119 m cl s 1814 1119 m 18 X s 1832 1119 m cl s 1814 1119 m 17 Y s 1814 1136 m cl s 1814 1119 m -16 Y s 1814 1103 m cl s 1850 1070 m -18 X s 1832 1070 m cl s 1850 1070 m 18 X s 1868 1070 m cl s 1850 1070
 m 20 Y s 1850 1090 m cl s 1850 1070 m -19 Y s 1850 1051 m cl s 1886 950 m -18 X s 1868 950 m cl s 1886 950 m 18 X s 1904 950 m cl s 1886 950 m 31 Y s 1886 981 m cl s 1886 950 m -31 Y s 1886 919 m cl s 1921 966 m -17 X s 1904 966 m cl s 1921 966 m 18
 X s 1939 966 m cl s 1921 966 m 29 Y s 1921 995 m cl s 1921 966 m -29 Y s 1921 937 m cl s 1957 828 m -18 X s 1939 828 m cl s 1957 828 m 18 X s 1975 828 m cl s 1957 828 m 50 Y s 1957 878 m cl s 1957 828 m -52 Y s 1957 776 m cl s 1993 814 m -18 X s
 1975 814 m cl s 1993 814 m 18 X s 2011 814 m cl s 1993 814 m 52 Y s 1993 866 m cl s 1993 814 m -56 Y s 1993 758 m cl s 2029 841 m -18 X s 2011 841 m cl s 2029 841 m 18 X s 2047 841 m cl s 2029 841 m 47 Y s 2029 888 m cl s 2029 841 m -49 Y s 2029 792
 m cl s 2065 661 m -18 X s 2047 661 m cl s 2065 661 m 18 X s 2083 661 m cl s 2065 661 m 94 Y s 2065 755 m cl s 2065 661 m -27 Y s 2065 634 m cl s 2101 661 m -18 X s 2083 661 m cl s 2101 661 m 18 X s 2119 661 m cl s 2101 661 m 94 Y s 2101 755 m cl s
 2101 661 m -27 Y s 2101 634 m cl s 2136 779 m -17 X s 2119 779 m cl s 2136 779 m 18 X s 2154 779 m cl s 2136 779 m 60 Y s 2136 839 m cl s 2136 779 m -65 Y s 2136 714 m cl s /w 31 def /w2 {w 2 div} def /w3 {w 3 div} def 381 779 417 779 2 { m20} R 488
 814 524 757 560 841 596 732 632 757 667 854 703 828 739 854 775 875 811 894 847 902 882 931 918 966 954 925 990 938 1026 990 1062 972 1097 1010 1133 1055 1169 1075 1205 1128 1241 1142 1276 1182 1312 1198 1348 1245 1384 1268 1420 1311 1456 1348 1491
 1390 1527 1409 1563 1404 1599 1401 1635 1391 1671 1350 1706 1303 1742 1253 1778 1205 1814 1119 1850 1070 1886 950 1921 966 1957 828 1993 814 2029 841 2065 661 2101 661 2136 779 47 { m20} R 0 1 1 c 1 1 0 c black 1 1 0 c 363 757 m 36 10 d 35 11 d 36
 11 d 36 11 d 36 12 d 36 12 d 36 12 d 35 12 d 36 13 d 36 13 d 36 13 d 36 14 d 36 15 d 35 14 d 36 16 d 36 15 d 36 17 d 36 17 d 36 18 d 35 19 d 36 20 d 36 21 d 36 23 d 36 24 d 18 12 d 18 14 d 17 15 d 18 16 d 18 17 d 18 20 d 9 11 d 9 11 d 9 12 d 9 12 d
 9 12 d 9 12 d 9 12 d 9 11 d 18 22 d 18 19 d 18 17 d 18 15 d 9 7 d 8 6 d 9 5 d 9 5 d 9 4 d 9 4 d 9 2 d 9 1 d 9 1 d 9 X 9 -1 d 9 -2 d 9 -3 d 9 -4 d 9 -5 d 9 -5 d 9 -6 d 9 -6 d 18 -15 d 36 -37 d 17 -21 d 9 -12 d 9 -12 d 9 -12 d 9 -12 d 9 -13 d 9 -13 d
 18 -26 d 18 -27 d 18 -27 d 18 -27 d 18 -27 d 18 -29 d 18 -29 d 18 -29 d 35 -63 d 36 -67 d 36 -72 d 36 -78 d 36 -84 d 7 -17 d -44 X -35 97 d -36 91 d -36 82 d -35 74 d -18 34 d -18 33 d -18 32 d -18 30 d -18 30 d -18 28 d -18 28 d -18 27 d -9 13 d -9
 13 d -9 13 d -9 13 d -9 12 d -9 12 d -17 23 d -36 40 d -18 16 d -9 6 d -9 6 d -9 5 d -9 4 d -9 4 d -9 2 d -9 2 d -9 1 d -9 1 d -9 -1 d -9 -1 d -9 -2 d -9 -3 d -9 -4 d -9 -4 d -9 -5 d -8 -7 d -9 -7 d -18 -17 d -18 -20 d -18 -21 d -18 -24 d -9 -12 d
 -9 -12 d -9 -12 d -9 -12 d -9 -11 d -9 -11 d -9 -11 d -9 -11 d -18 -20 d -18 -19 d -18 -17 d -17 -16 d -18 -15 d -18 -14 d -36 -23 d -36 -22 d -36 -21 d -36 -20 d -35 -19 d -36 -19 d -36 -18 d -36 -18 d -36 -18 d -36 -17 d -35 -16 d -36 -16 d -36
 -16 d -36 -15 d -36 -15 d -36 -14 d -35 -14 d -36 -13 d -36 -14 d -36 -12 d -36 -13 d -36 -12 d -35 -12 d -36 -12 d f 0 1 1 c 0 1 0 c black 0 1 0 c 363 746 m 36 11 d 35 11 d 36 11 d 36 12 d 36 11 d 36 12 d 36 13 d 35 12 d 36 14 d 36 13 d 36 14 d 36
 14 d 36 15 d 35 15 d 36 15 d 36 17 d 36 16 d 36 18 d 36 18 d 35 19 d 36 20 d 36 21 d 36 23 d 36 24 d 18 13 d 18 13 d 17 15 d 18 16 d 18 19 d 18 20 d 9 10 d 9 11 d 9 12 d 9 12 d 9 12 d 9 12 d 9 12 d 9 11 d 18 22 d 18 20 d 18 18 d 18 15 d 9 7 d 8 6 d
 9 6 d 9 4 d 9 4 d 9 3 d 9 3 d 9 1 d 9 1 d 9 X 9 -2 d 9 -2 d 9 -2 d 9 -4 d 9 -5 d 9 -5 d 9 -6 d 9 -6 d 18 -16 d 36 -37 d 17 -22 d 9 -11 d 9 -12 d 9 -12 d 9 -13 d 9 -13 d 9 -13 d 18 -26 d 18 -27 d 18 -27 d 18 -28 d 18 -28 d 18 -29 d 18 -30 d 18 -31 d
 35 -65 d 36 -69 d 36 -76 d 36 -81 d 33 -81 d -22 X -11 31 d -36 91 d -36 84 d -36 77 d -35 71 d -18 33 d -18 32 d -18 30 d -18 30 d -18 29 d -18 28 d -18 28 d -18 26 d -9 13 d -9 13 d -9 13 d -9 12 d -9 12 d -9 12 d -17 23 d -36 39 d -18 16 d -9 6 d
 -9 6 d -9 5 d -9 5 d -9 3 d -9 3 d -9 2 d -9 1 d -18 X -9 -2 d -9 -2 d -9 -3 d -9 -4 d -9 -4 d -9 -6 d -8 -6 d -9 -7 d -18 -16 d -18 -19 d -18 -21 d -18 -23 d -9 -12 d -9 -12 d -9 -12 d -9 -12 d -9 -12 d -9 -11 d -9 -11 d -9 -10 d -18 -20 d -18 -19
 d -18 -17 d -17 -16 d -18 -15 d -18 -13 d -36 -24 d -36 -21 d -36 -21 d -36 -20 d -35 -19 d -36 -19 d -36 -18 d -36 -18 d -36 -17 d -36 -16 d -35 -16 d -36 -16 d -36 -15 d -36 -14 d -36 -15 d -36 -13 d -35 -14 d -36 -13 d -36 -13 d -36 -12 d -36 -12
 d -36 -12 d -35 -11 d -36 -12 d f 0 0 1 c 9 lw black 0 0 1 c 363 735 m 36 11 d 35 11 d 36 11 d 36 12 d 36 12 d 36 13 d 36 12 d 35 13 d 36 14 d 36 14 d 36 14 d 36 14 d 36 15 d 35 16 d 36 16 d 36 16 d 36 18 d 36 17 d 36 19 d 35 19 d 36 20 d 36 21 d 36
 22 d 36 24 d 18 13 d 18 14 d 17 16 d 18 16 d 18 19 d 18 20 d 9 10 d 9 11 d 9 12 d 9 11 d 9 12 d 9 12 d 9 12 d 9 12 d 18 22 d 18 21 d 18 18 d 18 16 d 9 7 d 8 6 d 9 6 d 9 4 d 9 4 d 9 3 d 9 3 d 9 1 d 18 X 9 -1 d 9 -2 d 9 -3 d 9 -3 d 9 -5 d 9 -5 d 9 -6
 d 9 -6 d 18 -16 d 36 -38 d 17 -22 d 9 -12 d 9 -12 d 9 -12 d 9 -13 d 9 -13 d 9 -13 d 18 -26 d 18 -27 d 18 -28 d 18 -28 d 18 -29 d 18 -30 d 18 -31 d 18 -32 d 35 -67 d 36 -73 d 36 -79 d 36 -86 d 23 -58 d s black 3 lw 381 779 m -18 X s 363 779 m cl s
 381 779 m 18 X s 399 779 m cl s 381 779 m 60 Y s 381 839 m cl s 381 779 m -65 Y s 381 714 m cl s 417 779 m -18 X s 399 779 m cl s 417 779 m 17 X s 434 779 m cl s 417 779 m 60 Y s 417 839 m cl s 417 779 m -65 Y s 417 714 m cl s 488 814 m -18 X s 470
 814 m cl s 488 814 m 18 X s 506 814 m cl s 488 814 m 52 Y s 488 866 m cl s 488 814 m -56 Y s 488 758 m cl s 524 757 m -18 X s 506 757 m cl s 524 757 m 18 X s 542 757 m cl s 524 757 m 65 Y s 524 822 m cl s 524 757 m -70 Y s 524 687 m cl s 560 841 m
 -18 X s 542 841 m cl s 560 841 m 18 X s 578 841 m cl s 560 841 m 47 Y s 560 888 m cl s 560 841 m -49 Y s 560 792 m cl s 596 732 m -18 X s 578 732 m cl s 596 732 m 18 X s 614 732 m cl s 596 732 m 72 Y s 596 804 m cl s 596 732 m -79 Y s 596 653 m cl s
 632 757 m -18 X s 614 757 m cl s 632 757 m 17 X s 649 757 m cl s 632 757 m 65 Y s 632 822 m cl s 632 757 m -70 Y s 632 687 m cl s 667 854 m -18 X s 649 854 m cl s 667 854 m 18 X s 685 854 m cl s 667 854 m 44 Y s 667 898 m cl s 667 854 m -47 Y s 667
 807 m cl s 703 828 m -18 X s 685 828 m cl s 703 828 m 18 X s 721 828 m cl s 703 828 m 50 Y s 703 878 m cl s 703 828 m -52 Y s 703 776 m cl s 739 854 m -18 X s 721 854 m cl s 739 854 m 18 X s 757 854 m cl s 739 854 m 44 Y s 739 898 m cl s 739 854 m
 -47 Y s 739 807 m cl s 775 875 m -18 X s 757 875 m cl s 775 875 m 18 X s 793 875 m cl s 775 875 m 41 Y s 775 916 m cl s 775 875 m -43 Y s 775 832 m cl s 811 894 m -18 X s 793 894 m cl s 811 894 m 18 X s 829 894 m cl s 811 894 m 38 Y s 811 932 m cl s
 811 894 m -40 Y s 811 854 m cl s 847 902 m -18 X s 829 902 m cl s 847 902 m 17 X s 864 902 m cl s 847 902 m 37 Y s 847 939 m cl s 847 902 m -38 Y s 847 864 m cl s 882 931 m -18 X s 864 931 m cl s 882 931 m 18 X s 900 931 m cl s 882 931 m 34 Y s 882
 965 m cl s 882 931 m -34 Y s 882 897 m cl s 918 966 m -18 X s 900 966 m cl s 918 966 m 18 X s 936 966 m cl s 918 966 m 29 Y s 918 995 m cl s 918 966 m -29 Y s 918 937 m cl s 954 925 m -18 X s 936 925 m cl s 954 925 m 18 X s 972 925 m cl s 954 925 m
 34 Y s 954 959 m cl s 954 925 m -35 Y s 954 890 m cl s 990 938 m -18 X s 972 938 m cl s 990 938 m 18 X s 1008 938 m cl s 990 938 m 32 Y s 990 970 m cl s 990 938 m -33 Y s 990 905 m cl s 1026 990 m -18 X s 1008 990 m cl s 1026 990 m 18 X s 1044 990 m
 cl s 1026 990 m 27 Y s 1026 1017 m cl s 1026 990 m -27 Y s 1026 963 m cl s 1062 972 m -18 X s 1044 972 m cl s 1062 972 m 17 X s 1079 972 m cl s 1062 972 m 28 Y s 1062 1000 m cl s 1062 972 m -29 Y s 1062 943 m cl s 1097 1010 m -18 X s 1079 1010 m cl
 s 1097 1010 m 18 X s 1115 1010 m cl s 1097 1010 m 25 Y s 1097 1035 m cl s 1097 1010 m -25 Y s 1097 985 m cl s 1133 1055 m -18 X s 1115 1055 m cl s 1133 1055 m 18 X s 1151 1055 m cl s 1133 1055 m 21 Y s 1133 1076 m cl s 1133 1055 m -21 Y s 1133 1034
 m cl s 1169 1075 m -18 X s 1151 1075 m cl s 1169 1075 m 18 X s 1187 1075 m cl s 1169 1075 m 19 Y s 1169 1094 m cl s 1169 1075 m -19 Y s 1169 1056 m cl s 1205 1128 m -18 X s 1187 1128 m cl s 1205 1128 m 18 X s 1223 1128 m cl s 1205 1128 m 15 Y s 1205
 1143 m cl s 1205 1128 m -16 Y s 1205 1112 m cl s 1241 1142 m -18 X s 1223 1142 m cl s 1241 1142 m 18 X s 1259 1142 m cl s 1241 1142 m 15 Y s 1241 1157 m cl s 1241 1142 m -15 Y s 1241 1127 m cl s 1276 1182 m -17 X s 1259 1182 m cl s 1276 1182 m 18 X
 s 1294 1182 m cl s 1276 1182 m 12 Y s 1276 1194 m cl s 1276 1182 m -12 Y s 1276 1170 m cl s 1312 1198 m -18 X s 1294 1198 m cl s 1312 1198 m 18 X s 1330 1198 m cl s 1312 1198 m 11 Y s 1312 1209 m cl s 1312 1198 m -12 Y s 1312 1186 m cl s 1348 1245 m
 -18 X s 1330 1245 m cl s 1348 1245 m 18 X s 1366 1245 m cl s 1348 1245 m 9 Y s 1348 1254 m cl s 1348 1245 m -10 Y s 1348 1235 m cl s 1384 1268 m -18 X s 1366 1268 m cl s 1384 1268 m 18 X s 1402 1268 m cl s 1384 1268 m 9 Y s 1384 1277 m cl s 1384
 1268 m -9 Y s 1384 1259 m cl s 1420 1311 m -18 X s 1402 1311 m cl s 1420 1311 m 18 X s 1438 1311 m cl s 1420 1311 m 8 Y s 1420 1319 m cl s 1420 1311 m -7 Y s 1420 1304 m cl s 1456 1348 m -18 X s 1438 1348 m cl s 1456 1348 m 18 X s 1474 1348 m cl s
 1456 1348 m 7 Y s 1456 1355 m cl s 1456 1348 m -6 Y s 1456 1342 m cl s 1491 1390 m -17 X s 1474 1390 m cl s 1491 1390 m 18 X s 1509 1390 m cl s 1491 1390 m 6 Y s 1491 1396 m cl s 1491 1390 m -6 Y s 1491 1384 m cl s 1527 1409 m -18 X s 1509 1409 m cl
 s 1527 1409 m 18 X s 1545 1409 m cl s 1527 1409 m 6 Y s 1527 1415 m cl s 1527 1409 m -5 Y s 1527 1404 m cl s 1563 1404 m -18 X s 1545 1404 m cl s 1563 1404 m 18 X s 1581 1404 m cl s 1563 1404 m 6 Y s 1563 1410 m cl s 1563 1404 m -6 Y s 1563 1398 m
 cl s 1599 1401 m -18 X s 1581 1401 m cl s 1599 1401 m 18 X s 1617 1401 m cl s 1599 1401 m 6 Y s 1599 1407 m cl s 1599 1401 m -6 Y s 1599 1395 m cl s 1635 1391 m -18 X s 1617 1391 m cl s 1635 1391 m 18 X s 1653 1391 m cl s 1635 1391 m 6 Y s 1635 1397
 m cl s 1635 1391 m -6 Y s 1635 1385 m cl s 1671 1350 m -18 X s 1653 1350 m cl s 1671 1350 m 18 X s 1689 1350 m cl s 1671 1350 m 7 Y s 1671 1357 m cl s 1671 1350 m -7 Y s 1671 1343 m cl s 1706 1303 m -17 X s 1689 1303 m cl s 1706 1303 m 18 X s 1724
 1303 m cl s 1706 1303 m 8 Y s 1706 1311 m cl s 1706 1303 m -8 Y s 1706 1295 m cl s 1742 1253 m -18 X s 1724 1253 m cl s 1742 1253 m 18 X s 1760 1253 m cl s 1742 1253 m 9 Y s 1742 1262 m cl s 1742 1253 m -10 Y s 1742 1243 m cl s 1778 1205 m -18 X s
 1760 1205 m cl s 1778 1205 m 18 X s 1796 1205 m cl s 1778 1205 m 12 Y s 1778 1217 m cl s 1778 1205 m -11 Y s 1778 1194 m cl s 1814 1119 m -18 X s 1796 1119 m cl s 1814 1119 m 18 X s 1832 1119 m cl s 1814 1119 m 17 Y s 1814 1136 m cl s 1814 1119 m
 -16 Y s 1814 1103 m cl s 1850 1070 m -18 X s 1832 1070 m cl s 1850 1070 m 18 X s 1868 1070 m cl s 1850 1070 m 20 Y s 1850 1090 m cl s 1850 1070 m -19 Y s 1850 1051 m cl s 1886 950 m -18 X s 1868 950 m cl s 1886 950 m 18 X s 1904 950 m cl s 1886 950
 m 31 Y s 1886 981 m cl s 1886 950 m -31 Y s 1886 919 m cl s 1921 966 m -17 X s 1904 966 m cl s 1921 966 m 18 X s 1939 966 m cl s 1921 966 m 29 Y s 1921 995 m cl s 1921 966 m -29 Y s 1921 937 m cl s 1957 828 m -18 X s 1939 828 m cl s 1957 828 m 18 X
 s 1975 828 m cl s 1957 828 m 50 Y s 1957 878 m cl s 1957 828 m -52 Y s 1957 776 m cl s 1993 814 m -18 X s 1975 814 m cl s 1993 814 m 18 X s 2011 814 m cl s 1993 814 m 52 Y s 1993 866 m cl s 1993 814 m -56 Y s 1993 758 m cl s 2029 841 m -18 X s 2011
 841 m cl s 2029 841 m 18 X s 2047 841 m cl s 2029 841 m 47 Y s 2029 888 m cl s 2029 841 m -49 Y s 2029 792 m cl s 2065 661 m -18 X s 2047 661 m cl s 2065 661 m 18 X s 2083 661 m cl s 2065 661 m 94 Y s 2065 755 m cl s 2065 661 m -27 Y s 2065 634 m cl
 s 2101 661 m -18 X s 2083 661 m cl s 2101 661 m 18 X s 2119 661 m cl s 2101 661 m 94 Y s 2101 755 m cl s 2101 661 m -27 Y s 2101 634 m cl s 2136 779 m -17 X s 2119 779 m cl s 2136 779 m 18 X s 2154 779 m cl s 2136 779 m 60 Y s 2136 839 m cl s 2136
 779 m -65 Y s 2136 714 m cl s 381 779 417 779 2 { m20} R 488 814 524 757 560 841 596 732 632 757 667 854 703 828 739 854 775 875 811 894 847 902 882 931 918 966 954 925 990 938 1026 990 1062 972 1097 1010 1133 1055 1169 1075 1205 1128 1241 1142 1276
 1182 1312 1198 1348 1245 1384 1268 1420 1311 1456 1348 1491 1390 1527 1409 1563 1404 1599 1401 1635 1391 1671 1350 1706 1303 1742 1253 1778 1205 1814 1119 1850 1070 1886 950 1921 966 1957 828 1993 814 2029 841 2065 661 2101 661 2136 779 47 { m20} R
 0.52 0.76 0.64 c[ 4 8] 0 sd 9 lw black 0.52 0.76 0.64 c 363 735 m 36 11 d 35 11 d 36 11 d 36 12 d 36 12 d 36 13 d 36 12 d 35 13 d 36 14 d 36 14 d 36 14 d 36 14 d 36 15 d 35 16 d 36 16 d 36 16 d 36 18 d 36 17 d 36 19 d 35 19 d 36 20 d 36 21 d 36 22 d
 18 11 d 18 11 d 18 12 d 18 12 d 17 13 d 18 13 d 18 13 d 18 13 d 18 14 d 18 14 d 18 15 d 18 14 d 18 13 d 18 12 d 18 10 d 18 8 d 9 3 d 8 3 d 9 3 d 9 2 d 9 2 d 9 2 d 9 1 d 9 1 d 18 X 9 -1 d 9 -1 d 9 -1 d 9 -2 d 9 -2 d 9 -3 d 9 -3 d 9 -3 d 18 -8 d 18 -9
 d 18 -12 d 35 -27 d 36 -34 d 18 -19 d 18 -21 d 18 -22 d 18 -24 d 18 -26 d 18 -27 d 18 -29 d 18 -31 d 17 -32 d 18 -34 d 18 -35 d 18 -38 d 18 -38 d 18 -41 d 36 -85 d 23 -58 d s 0.54 0.66 0.63 c black 0.54 0.66 0.63 c 1251 634 m 8 35 d s 1259 669 m 17
 77 d 18 72 d 18 67 d 9 32 d 9 31 d 9 29 d 9 29 d 9 27 d 9 26 d 9 25 d 9 23 d 9 22 d 9 22 d 9 19 d 9 19 d 9 18 d 9 16 d 36 54 d 9 10 d 8 9 d 9 8 d 9 7 d 9 5 d 9 5 d 9 3 d 5 1 d 4 1 d 5 1 d 9 X 4 -1 d 5 X 4 -1 d 5 -1 d 4 -2 d 9 -4 d 9 -5 d 9 -7 d 9 -7
 d 9 -9 d 9 -10 d 18 -23 d 18 -29 d 9 -16 d 9 -17 d 8 -18 d 9 -20 d 9 -20 d 9 -22 d 9 -24 d 9 -24 d 9 -25 d 9 -27 d 9 -28 d 9 -29 d 9 -30 d 9 -32 d 18 -67 d 18 -71 d 18 -76 d 10 -48 d s black[  ] 0 sd 3 lw 363 634 m 1791 X s 393 659 m -25 Y s 452 646
 m -12 Y s 512 646 m -12 Y s 572 646 m -12 Y s 632 646 m -12 Y s 691 659 m -25 Y s 751 646 m -12 Y s 811 646 m -12 Y s 870 646 m -12 Y s 930 646 m -12 Y s 990 659 m -25 Y s 1050 646 m -12 Y s 1109 646 m -12 Y s 1169 646 m -12 Y s 1229 646 m -12 Y s
 1288 659 m -25 Y s 1348 646 m -12 Y s 1408 646 m -12 Y s 1468 646 m -12 Y s 1527 646 m -12 Y s 1587 659 m -25 Y s 1647 646 m -12 Y s 1706 646 m -12 Y s 1766 646 m -12 Y s 1826 646 m -12 Y s 1886 659 m -25 Y s 393 659 m -25 Y s 1886 659 m -25 Y s
 1945 646 m -12 Y s 2005 646 m -12 Y s 2065 646 m -12 Y s 2124 646 m -12 Y s 363 1484 m 1791 X s 393 1459 m 25 Y s 452 1471 m 13 Y s 512 1471 m 13 Y s 572 1471 m 13 Y s 632 1471 m 13 Y s 691 1459 m 25 Y s 751 1471 m 13 Y s 811 1471 m 13 Y s 870 1471
 m 13 Y s 930 1471 m 13 Y s 990 1459 m 25 Y s 1050 1471 m 13 Y s 1109 1471 m 13 Y s 1169 1471 m 13 Y s 1229 1471 m 13 Y s 1288 1459 m 25 Y s 1348 1471 m 13 Y s 1408 1471 m 13 Y s 1468 1471 m 13 Y s 1527 1471 m 13 Y s 1587 1459 m 25 Y s 1647 1471 m 13
 Y s 1706 1471 m 13 Y s 1766 1471 m 13 Y s 1826 1471 m 13 Y s 1886 1459 m 25 Y s 393 1459 m 25 Y s 1886 1459 m 25 Y s 1945 1471 m 13 Y s 2005 1471 m 13 Y s 2065 1471 m 13 Y s 2124 1471 m 13 Y s 363 634 m 850 Y s 390 661 m -27 X s 390 701 m -27 X s
 390 732 m -27 X s 390 757 m -27 X s 390 779 m -27 X s 390 797 m -27 X s 390 814 m -27 X s 417 828 m -54 X s 390 925 m -27 X s 390 981 m -27 X s 390 1021 m -27 X s 390 1052 m -27 X s 390 1078 m -27 X s 390 1099 m -27 X s 390 1118 m -27 X s 390 1134 m
 -27 X s 417 1149 m -54 X s 390 1245 m -27 X s 390 1302 m -27 X s 390 1342 m -27 X s 390 1373 m -27 X s 390 1398 m -27 X s 390 1420 m -27 X s 390 1438 m -27 X s 390 1455 m -27 X s 417 1469 m -54 X s 2154 634 m 850 Y s 2127 661 m 27 X s 2127 701 m 27
 X s 2127 732 m 27 X s 2127 757 m 27 X s 2127 779 m 27 X s 2127 797 m 27 X s 2127 814 m 27 X s 2101 828 m 53 X s 2127 925 m 27 X s 2127 981 m 27 X s 2127 1021 m 27 X s 2127 1052 m 27 X s 2127 1078 m 27 X s 2127 1099 m 27 X s 2127 1118 m 27 X s 2127
 1134 m 27 X s 2101 1149 m 53 X s 2127 1245 m 27 X s 2127 1302 m 27 X s 2127 1342 m 27 X s 2127 1373 m 27 X s 2127 1398 m 27 X s 2127 1420 m 27 X s 2127 1438 m 27 X s 2127 1455 m 27 X s 2101 1469 m 53 X s
 gsave  2268 1077 0 461 C 677.708 1215.31 t 0 r /Helvetica findfont 58.7189 sf 0 0 m (4mu) show NC gr  1 1 1 c 453 161 454 1269 bf black
 gsave  2268 1077 0 461 C 566.929 1371.71 t 0 r /Helvetica-Bold findfont 48.9324 sf 0 0 m (MC15) show NC gr  510 1390 m20
 gsave  2268 1077 0 461 C 566.929 1293.51 t 0 r /Helvetica-Bold findfont 48.9324 sf 0 0 m (Projection of Signal pdf) show NC gr  0 0 1 c 9 lw 471 1309 m 79 X s black 3 lw 1 1 1 c 2268 461 0 0 bf black 1 1 1 c 1791 364 363 74 bf black 1791 364 363 74
 bl 363 74 m 1791 X s
 gsave  2268 461 0 0 C 1915.83 13.0329 t 0 r /Helvetica findfont 22.9045 sf 0 0 m (4l Invariant Mass \(GeV\)) show NC gr  393 85 m -11 Y s 452 79 m -5 Y s 512 79 m -5 Y s 572 79 m -5 Y s 632 79 m -5 Y s 691 85 m -11 Y s 751 79 m -5 Y s 811 79 m -5 Y
 s 870 79 m -5 Y s 930 79 m -5 Y s 990 85 m -11 Y s 1050 79 m -5 Y s 1109 79 m -5 Y s 1169 79 m -5 Y s 1229 79 m -5 Y s 1288 85 m -11 Y s 1348 79 m -5 Y s 1408 79 m -5 Y s 1468 79 m -5 Y s 1527 79 m -5 Y s 1587 85 m -11 Y s 1647 79 m -5 Y s 1706 79 m
 -5 Y s 1766 79 m -5 Y s 1826 79 m -5 Y s 1886 85 m -11 Y s 393 85 m -11 Y s 1886 85 m -11 Y s 1945 79 m -5 Y s 2005 79 m -5 Y s 2065 79 m -5 Y s 2124 79 m -5 Y s
 gsave  2268 461 0 0 C 371.436 55.3896 t 0 r /Helvetica findfont 22.9045 sf 0 0 m (260) show NC gr 
 gsave  2268 461 0 0 C 671.192 55.3896 t 0 r /Helvetica findfont 22.9045 sf 0 0 m (270) show NC gr 
 gsave  2268 461 0 0 C 967.689 55.3896 t 0 r /Helvetica findfont 22.9045 sf 0 0 m (280) show NC gr 
 gsave  2268 461 0 0 C 1267.45 55.3896 t 0 r /Helvetica findfont 22.9045 sf 0 0 m (290) show NC gr 
 gsave  2268 461 0 0 C 1567.2 55.3896 t 0 r /Helvetica findfont 22.9045 sf 0 0 m (300) show NC gr 
 gsave  2268 461 0 0 C 1863.7 55.3896 t 0 r /Helvetica findfont 22.9045 sf 0 0 m (310) show NC gr  363 438 m 1791 X s 393 427 m 11 Y s 452 433 m 5 Y s 512 433 m 5 Y s 572 433 m 5 Y s 632 433 m 5 Y s 691 427 m 11 Y s 751 433 m 5 Y s 811 433 m 5 Y s
 870 433 m 5 Y s 930 433 m 5 Y s 990 427 m 11 Y s 1050 433 m 5 Y s 1109 433 m 5 Y s 1169 433 m 5 Y s 1229 433 m 5 Y s 1288 427 m 11 Y s 1348 433 m 5 Y s 1408 433 m 5 Y s 1468 433 m 5 Y s 1527 433 m 5 Y s 1587 427 m 11 Y s 1647 433 m 5 Y s 1706 433 m
 5 Y s 1766 433 m 5 Y s 1826 433 m 5 Y s 1886 427 m 11 Y s 393 427 m 11 Y s 1886 427 m 11 Y s 1945 433 m 5 Y s 2005 433 m 5 Y s 2065 433 m 5 Y s 2124 433 m 5 Y s 363 74 m 364 Y s 417 74 m -54 X s 390 81 m -27 X s 390 88 m -27 X s 390 96 m -27 X s 390
 103 m -27 X s 417 110 m -54 X s 390 118 m -27 X s 390 125 m -27 X s 390 132 m -27 X s 390 139 m -27 X s 417 147 m -54 X s 390 154 m -27 X s 390 161 m -27 X s 390 169 m -27 X s 390 176 m -27 X s 417 183 m -54 X s 390 190 m -27 X s 390 198 m -27 X s
 390 205 m -27 X s 390 212 m -27 X s 417 220 m -54 X s 390 227 m -27 X s 390 234 m -27 X s 390 241 m -27 X s 390 249 m -27 X s 417 256 m -54 X s 390 263 m -27 X s 390 271 m -27 X s 390 278 m -27 X s 390 285 m -27 X s 417 293 m -54 X s 390 300 m -27 X
 s 390 307 m -27 X s 390 314 m -27 X s 390 322 m -27 X s 417 329 m -54 X s 390 336 m -27 X s 390 344 m -27 X s 390 351 m -27 X s 390 358 m -27 X s 417 365 m -54 X s 390 373 m -27 X s 390 380 m -27 X s 390 387 m -27 X s 390 395 m -27 X s 417 402 m -54
 X s 390 409 m -27 X s 390 416 m -27 X s 390 424 m -27 X s 390 431 m -27 X s 417 438 m -54 X s
 gsave  2268 461 0 0 C 329.08 65.1643 t 0 r /Helvetica findfont 22.9045 sf 0 0 m (\2555) show NC gr 
 gsave  2268 461 0 0 C 329.08 101.005 t 0 r /Helvetica findfont 22.9045 sf 0 0 m (\2554) show NC gr 
 gsave  2268 461 0 0 C 329.08 140.103 t 0 r /Helvetica findfont 22.9045 sf 0 0 m (\2553) show NC gr 
 gsave  2268 461 0 0 C 329.08 175.944 t 0 r /Helvetica findfont 22.9045 sf 0 0 m (\2552) show NC gr 
 gsave  2268 461 0 0 C 332.338 211.784 t 0 r /Helvetica findfont 22.9045 sf 0 0 m (\2551) show NC gr 
 gsave  2268 461 0 0 C 335.596 247.624 t 0 r /Helvetica findfont 22.9045 sf 0 0 m (0) show NC gr 
 gsave  2268 461 0 0 C 338.854 283.465 t 0 r /Helvetica findfont 22.9045 sf 0 0 m (1) show NC gr 
 gsave  2268 461 0 0 C 335.596 319.305 t 0 r /Helvetica findfont 22.9045 sf 0 0 m (2) show NC gr 
 gsave  2268 461 0 0 C 335.596 358.403 t 0 r /Helvetica findfont 22.9045 sf 0 0 m (3) show NC gr 
 gsave  2268 461 0 0 C 335.596 394.244 t 0 r /Helvetica findfont 22.9045 sf 0 0 m (4) show NC gr 
 gsave  2268 461 0 0 C 335.596 430.084 t 0 r /Helvetica findfont 22.9045 sf 0 0 m (5) show NC gr  2154 74 m 364 Y s 2101 74 m 53 X s 2127 81 m 27 X s 2127 88 m 27 X s 2127 96 m 27 X s 2127 103 m 27 X s 2101 110 m 53 X s 2127 118 m 27 X s 2127 125 m
 27 X s 2127 132 m 27 X s 2127 139 m 27 X s 2101 147 m 53 X s 2127 154 m 27 X s 2127 161 m 27 X s 2127 169 m 27 X s 2127 176 m 27 X s 2101 183 m 53 X s 2127 190 m 27 X s 2127 198 m 27 X s 2127 205 m 27 X s 2127 212 m 27 X s 2101 220 m 53 X s 2127 227
 m 27 X s 2127 234 m 27 X s 2127 241 m 27 X s 2127 249 m 27 X s 2101 256 m 53 X s 2127 263 m 27 X s 2127 271 m 27 X s 2127 278 m 27 X s 2127 285 m 27 X s 2101 293 m 53 X s 2127 300 m 27 X s 2127 307 m 27 X s 2127 314 m 27 X s 2127 322 m 27 X s 2101
 329 m 53 X s 2127 336 m 27 X s 2127 344 m 27 X s 2127 351 m 27 X s 2127 358 m 27 X s 2101 365 m 53 X s 2127 373 m 27 X s 2127 380 m 27 X s 2127 387 m 27 X s 2127 395 m 27 X s 2101 402 m 53 X s 2127 409 m 27 X s 2127 416 m 27 X s 2127 424 m 27 X s
 2127 431 m 27 X s 2101 438 m 53 X s 6 lw 0.2 0.8 0.2 c black 3 lw 0.2 0.8 0.2 c 363 256 m 24 Y 36 X -6 Y 35 X -77 Y 36 X 86 Y 36 X -41 Y 36 X 47 Y 36 X -74 Y 36 X 3 Y 35 X 52 Y 36 X -29 Y 36 X 7 Y 36 X 5 Y 36 X 3 Y 36 X -6 Y 35 X 14 Y 36 X 23 Y 36 X
 -67 Y 36 X -7 Y 36 X 38 Y 36 X -50 Y 35 X 22 Y 36 X 37 Y 36 X -3 Y 36 X 65 Y 36 X -20 Y 36 X 38 Y 35 X -50 Y 36 X 25 Y 36 X -87 Y 36 X -19 Y 36 X -18 Y 36 X 69 Y 35 X 15 Y 36 X -59 Y 36 X 41 Y 36 X 76 Y 36 X -53 Y 36 X -23 Y 35 X -7 Y 36 X 17 Y 36 X
 -75 Y 36 X 28 Y 36 X -76 Y 36 X 111 Y 35 X -55 Y 36 X 51 Y 36 X 68 Y 36 X -60 Y 36 X 32 Y 36 X 54 Y 35 X -89 Y f 6 lw black 0.2 0.8 0.2 c black 363 280 m 36 X -6 Y 35 X -77 Y 36 X 86 Y 36 X -41 Y 36 X 47 Y 36 X -74 Y 36 X 3 Y 35 X 52 Y 36 X -29 Y 36
 X 7 Y 36 X 5 Y 36 X 3 Y 36 X -6 Y 35 X 14 Y 36 X 23 Y 36 X -67 Y 36 X -7 Y 36 X 38 Y 36 X -50 Y 35 X 22 Y 36 X 37 Y 36 X -3 Y 36 X 65 Y 36 X -20 Y 36 X 38 Y 35 X -50 Y 36 X 25 Y 36 X -87 Y 36 X -19 Y 36 X -18 Y 36 X 69 Y 35 X 15 Y 36 X -59 Y 36 X 41
 Y 36 X 76 Y 36 X -53 Y 36 X -23 Y 35 X -7 Y 36 X 17 Y 36 X -75 Y 36 X 28 Y 36 X -76 Y 36 X 111 Y 35 X -55 Y 36 X 51 Y 36 X 68 Y 36 X -60 Y 36 X 32 Y 36 X 54 Y 35 X s 3 lw 363 74 m 1791 X s 393 85 m -11 Y s 452 79 m -5 Y s 512 79 m -5 Y s 572 79 m -5
 Y s 632 79 m -5 Y s 691 85 m -11 Y s 751 79 m -5 Y s 811 79 m -5 Y s 870 79 m -5 Y s 930 79 m -5 Y s 990 85 m -11 Y s 1050 79 m -5 Y s 1109 79 m -5 Y s 1169 79 m -5 Y s 1229 79 m -5 Y s 1288 85 m -11 Y s 1348 79 m -5 Y s 1408 79 m -5 Y s 1468 79 m
 -5 Y s 1527 79 m -5 Y s 1587 85 m -11 Y s 1647 79 m -5 Y s 1706 79 m -5 Y s 1766 79 m -5 Y s 1826 79 m -5 Y s 1886 85 m -11 Y s 393 85 m -11 Y s 1886 85 m -11 Y s 1945 79 m -5 Y s 2005 79 m -5 Y s 2065 79 m -5 Y s 2124 79 m -5 Y s 363 438 m 1791 X s
 393 427 m 11 Y s 452 433 m 5 Y s 512 433 m 5 Y s 572 433 m 5 Y s 632 433 m 5 Y s 691 427 m 11 Y s 751 433 m 5 Y s 811 433 m 5 Y s 870 433 m 5 Y s 930 433 m 5 Y s 990 427 m 11 Y s 1050 433 m 5 Y s 1109 433 m 5 Y s 1169 433 m 5 Y s 1229 433 m 5 Y s
 1288 427 m 11 Y s 1348 433 m 5 Y s 1408 433 m 5 Y s 1468 433 m 5 Y s 1527 433 m 5 Y s 1587 427 m 11 Y s 1647 433 m 5 Y s 1706 433 m 5 Y s 1766 433 m 5 Y s 1826 433 m 5 Y s 1886 427 m 11 Y s 393 427 m 11 Y s 1886 427 m 11 Y s 1945 433 m 5 Y s 2005
 433 m 5 Y s 2065 433 m 5 Y s 2124 433 m 5 Y s 363 74 m 364 Y s 417 74 m -54 X s 390 81 m -27 X s 390 88 m -27 X s 390 96 m -27 X s 390 103 m -27 X s 417 110 m -54 X s 390 118 m -27 X s 390 125 m -27 X s 390 132 m -27 X s 390 139 m -27 X s 417 147 m
 -54 X s 390 154 m -27 X s 390 161 m -27 X s 390 169 m -27 X s 390 176 m -27 X s 417 183 m -54 X s 390 190 m -27 X s 390 198 m -27 X s 390 205 m -27 X s 390 212 m -27 X s 417 220 m -54 X s 390 227 m -27 X s 390 234 m -27 X s 390 241 m -27 X s 390 249
 m -27 X s 417 256 m -54 X s 390 263 m -27 X s 390 271 m -27 X s 390 278 m -27 X s 390 285 m -27 X s 417 293 m -54 X s 390 300 m -27 X s 390 307 m -27 X s 390 314 m -27 X s 390 322 m -27 X s 417 329 m -54 X s 390 336 m -27 X s 390 344 m -27 X s 390
 351 m -27 X s 390 358 m -27 X s 417 365 m -54 X s 390 373 m -27 X s 390 380 m -27 X s 390 387 m -27 X s 390 395 m -27 X s 417 402 m -54 X s 390 409 m -27 X s 390 416 m -27 X s 390 424 m -27 X s 390 431 m -27 X s 417 438 m -54 X s 2154 74 m 364 Y s
 2101 74 m 53 X s 2127 81 m 27 X s 2127 88 m 27 X s 2127 96 m 27 X s 2127 103 m 27 X s 2101 110 m 53 X s 2127 118 m 27 X s 2127 125 m 27 X s 2127 132 m 27 X s 2127 139 m 27 X s 2101 147 m 53 X s 2127 154 m 27 X s 2127 161 m 27 X s 2127 169 m 27 X s
 2127 176 m 27 X s 2101 183 m 53 X s 2127 190 m 27 X s 2127 198 m 27 X s 2127 205 m 27 X s 2127 212 m 27 X s 2101 220 m 53 X s 2127 227 m 27 X s 2127 234 m 27 X s 2127 241 m 27 X s 2127 249 m 27 X s 2101 256 m 53 X s 2127 263 m 27 X s 2127 271 m 27 X
 s 2127 278 m 27 X s 2127 285 m 27 X s 2101 293 m 53 X s 2127 300 m 27 X s 2127 307 m 27 X s 2127 314 m 27 X s 2127 322 m 27 X s 2101 329 m 53 X s 2127 336 m 27 X s 2127 344 m 27 X s 2127 351 m 27 X s 2127 358 m 27 X s 2101 365 m 53 X s 2127 373 m 27
 X s 2127 380 m 27 X s 2127 387 m 27 X s 2127 395 m 27 X s 2101 402 m 53 X s 2127 409 m 27 X s 2127 416 m 27 X s 2127 424 m 27 X s 2127 431 m 27 X s 2101 438 m 53 X s
 gr  gr showpage
end
%%EOF
