%!PS-Adobe-2.0 EPSF-2.0
%%BoundingBox:  0 0 567 384
%%Title: H4l2015_plotfit/gg_mass_signal_500_H4l_2mu2e.eps: 
%%Creator: ROOT Version 5.34/10
%%CreationDate: Thu Feb 16 15:47:11 2017
%%EndComments
%%BeginProlog
80 dict begin
/s {stroke} def /l {lineto} def /m {moveto} def /t {translate} def
/r {rotate} def /rl {roll}  def /R {repeat} def
/d {rlineto} def /rm {rmoveto} def /gr {grestore} def /f {eofill} def
/c {setrgbcolor} def /black {0 setgray} def /sd {setdash} def
/cl {closepath} def /sf {scalefont setfont} def /lw {setlinewidth} def
/box {m dup 0 exch d exch 0 d 0 exch neg d cl} def
/NC{systemdict begin initclip end}def/C{NC box clip newpath}def
/bl {box s} def /bf {box f} def /Y { 0 exch d} def /X { 0 d} def 
/K {{pop pop 0 moveto} exch kshow} bind def
/ita {/ang 15 def gsave [1 0 ang dup sin exch cos div 1 0 0] concat} def 
/mp {newpath /y exch def /x exch def} def
/side {[w .77 mul w .23 mul] .385 w mul sd w 0 l currentpoint t -144 r} def
/mr {mp x y w2 0 360 arc} def /m24 {mr s} def /m20 {mr f} def
/mb {mp x y w2 add m w2 neg 0 d 0 w neg d w 0 d 0 w d cl} def
/mt {mp x y w2 add m w2 neg w neg d w 0 d cl} def
/m21 {mb f} def /m25 {mb s} def /m22 {mt f} def /m26{mt s} def
/m23 {mp x y w2 sub m w2 w d w neg 0 d cl f} def
/m27 {mp x y w2 add m w3 neg w2 neg d w3 w2 neg d w3 w2 d cl s} def
/m28 {mp x w2 sub y w2 sub w3 add m w3 0 d  0 w3 neg d w3 0 d 0 w3 d w3 0 d  0 w3 d w3 neg 0 d 0 w3 d w3 neg 0 d 0 w3 neg d w3 neg 0 d cl s } def
/m29 {mp gsave x w2 sub y w2 add w3 sub m currentpoint t 4 {side} repeat cl fill gr} def
/m30 {mp gsave x w2 sub y w2 add w3 sub m currentpoint t 4 {side} repeat cl s gr} def
/m31 {mp x y w2 sub m 0 w d x w2 sub y m w 0 d x w2 sub y w2 add m w w neg d x w2 sub y w2 sub m w w d s} def
/m32 {mp x y w2 sub m w2 w d w neg 0 d cl s} def
/m33 {mp x y w2 add m w3 neg w2 neg d w3 w2 neg d w3 w2 d cl f} def
/m34 {mp x w2 sub y w2 sub w3 add m w3 0 d  0 w3 neg d w3 0 d 0 w3 d w3 0 d  0 w3 d w3 neg 0 d 0 w3 d w3 neg 0 d 0 w3 neg d w3 neg 0 d cl f } def
/m2 {mp x y w2 sub m 0 w d x w2 sub y m w 0 d s} def
/m5 {mp x w2 sub y w2 sub m w w d x w2 sub y w2 add m w w neg d s} def
/reEncode {exch findfont dup length dict begin {1 index /FID eq  {pop pop} {def} ifelse } forall /Encoding exch def currentdict end dup /FontName get exch definefont pop } def [/Times-Bold /Times-Italic /Times-BoldItalic /Helvetica /Helvetica-Oblique
 /Helvetica-Bold /Helvetica-BoldOblique /Courier /Courier-Oblique /Courier-Bold /Courier-BoldOblique /Times-Roman /AvantGarde-Book /AvantGarde-BookOblique /AvantGarde-Demi /AvantGarde-DemiOblique /Bookman-Demi /Bookman-DemiItalic /Bookman-Light
 /Bookman-LightItalic /Helvetica-Narrow /Helvetica-Narrow-Bold /Helvetica-Narrow-BoldOblique /Helvetica-Narrow-Oblique /NewCenturySchlbk-Roman /NewCenturySchlbk-Bold /NewCenturySchlbk-BoldItalic /NewCenturySchlbk-Italic /Palatino-Bold
 /Palatino-BoldItalic /Palatino-Italic /Palatino-Roman ] {ISOLatin1Encoding reEncode } forall
%%EndProlog
%%BeginSetup
%%EndSetup
newpath  gsave  .25 .25 scale  gsave  0 0 t black[  ] 0 sd 3 lw 1 1 1 c 2268 1538 0 0 bf black 1 1 1 c 2222 738 23 784 bf black 1 1 1 c 2222 739 23 15 bf black 1 1 1 c 2268 1077 0 461 bf black 1 1 1 c 1791 850 363 634 bf black 1791 850 363 634 bl 363
 634 m 1791 X s
 gsave  2268 1077 0 461 C 1642.14 498.507 t 0 r /Helvetica findfont 48.9324 sf 0 0 m (4l Invariant Mass \(GeV\)) show NC gr  363 659 m -25 Y s 403 646 m -12 Y s 442 646 m -12 Y s 482 646 m -12 Y s 522 646 m -12 Y s 562 659 m -25 Y s 602 646 m -12 Y s
 642 646 m -12 Y s 681 646 m -12 Y s 721 646 m -12 Y s 761 659 m -25 Y s 801 646 m -12 Y s 841 646 m -12 Y s 880 646 m -12 Y s 920 646 m -12 Y s 960 659 m -25 Y s 1000 646 m -12 Y s 1040 646 m -12 Y s 1079 646 m -12 Y s 1119 646 m -12 Y s 1159 659 m
 -25 Y s 1199 646 m -12 Y s 1239 646 m -12 Y s 1278 646 m -12 Y s 1318 646 m -12 Y s 1358 659 m -25 Y s 1398 646 m -12 Y s 1438 646 m -12 Y s 1478 646 m -12 Y s 1517 646 m -12 Y s 1557 659 m -25 Y s 1597 646 m -12 Y s 1637 646 m -12 Y s 1677 646 m
 -12 Y s 1716 646 m -12 Y s 1756 659 m -25 Y s 1796 646 m -12 Y s 1836 646 m -12 Y s 1876 646 m -12 Y s 1915 646 m -12 Y s 1955 659 m -25 Y s 1995 646 m -12 Y s 2035 646 m -12 Y s 2075 646 m -12 Y s 2115 646 m -12 Y s 2154 659 m -25 Y s
 gsave  2268 1077 0 461 C 319.305 586.478 t 0 r /Helvetica findfont 48.9324 sf 0 0 m (440) show NC gr 
 gsave  2268 1077 0 461 C 518.056 586.478 t 0 r /Helvetica findfont 48.9324 sf 0 0 m (450) show NC gr 
 gsave  2268 1077 0 461 C 716.807 586.478 t 0 r /Helvetica findfont 48.9324 sf 0 0 m (460) show NC gr 
 gsave  2268 1077 0 461 C 915.558 586.478 t 0 r /Helvetica findfont 48.9324 sf 0 0 m (470) show NC gr 
 gsave  2268 1077 0 461 C 1114.31 586.478 t 0 r /Helvetica findfont 48.9324 sf 0 0 m (480) show NC gr 
 gsave  2268 1077 0 461 C 1313.06 586.478 t 0 r /Helvetica findfont 48.9324 sf 0 0 m (490) show NC gr 
 gsave  2268 1077 0 461 C 1511.81 586.478 t 0 r /Helvetica findfont 48.9324 sf 0 0 m (500) show NC gr 
 gsave  2268 1077 0 461 C 1713.82 586.478 t 0 r /Helvetica findfont 48.9324 sf 0 0 m (510) show NC gr 
 gsave  2268 1077 0 461 C 1912.57 586.478 t 0 r /Helvetica findfont 48.9324 sf 0 0 m (520) show NC gr 
 gsave  2268 1077 0 461 C 2111.32 586.478 t 0 r /Helvetica findfont 48.9324 sf 0 0 m (530) show NC gr  363 1484 m 1791 X s 363 1459 m 25 Y s 403 1471 m 13 Y s 442 1471 m 13 Y s 482 1471 m 13 Y s 522 1471 m 13 Y s 562 1459 m 25 Y s 602 1471 m 13 Y s
 642 1471 m 13 Y s 681 1471 m 13 Y s 721 1471 m 13 Y s 761 1459 m 25 Y s 801 1471 m 13 Y s 841 1471 m 13 Y s 880 1471 m 13 Y s 920 1471 m 13 Y s 960 1459 m 25 Y s 1000 1471 m 13 Y s 1040 1471 m 13 Y s 1079 1471 m 13 Y s 1119 1471 m 13 Y s 1159 1459 m
 25 Y s 1199 1471 m 13 Y s 1239 1471 m 13 Y s 1278 1471 m 13 Y s 1318 1471 m 13 Y s 1358 1459 m 25 Y s 1398 1471 m 13 Y s 1438 1471 m 13 Y s 1478 1471 m 13 Y s 1517 1471 m 13 Y s 1557 1459 m 25 Y s 1597 1471 m 13 Y s 1637 1471 m 13 Y s 1677 1471 m 13
 Y s 1716 1471 m 13 Y s 1756 1459 m 25 Y s 1796 1471 m 13 Y s 1836 1471 m 13 Y s 1876 1471 m 13 Y s 1915 1471 m 13 Y s 1955 1459 m 25 Y s 1995 1471 m 13 Y s 2035 1471 m 13 Y s 2075 1471 m 13 Y s 2115 1471 m 13 Y s 2154 1459 m 25 Y s 363 634 m 850 Y s
 gsave  2268 1077 0 461 C 120.554 1058.92 t 90 r /Helvetica findfont 48.9324 sf 0 0 m (Events / \( 1.8 GeV \)) show NC gr  390 653 m -27 X s 390 683 m -27 X s 390 707 m -27 X s 390 727 m -27 X s 390 745 m -27 X s 390 761 m -27 X s 417 775 m -54 X s
 gsave  2268 1077 0 461 C 342.425 753.966 t 0 r  -55 0 t /Helvetica findfont 48.9324 sf 0 0 m (10) show NC gr  390 867 m -27 X s 390 921 m -27 X s 390 959 m -27 X s 390 989 m -27 X s 390 1013 m -27 X s 390 1034 m -27 X s 390 1051 m -27 X s 390 1067 m
 -27 X s 417 1081 m -54 X s
 gsave  2268 1077 0 461 C 322.563 1078.47 t 0 r /Helvetica findfont 32.6216 sf 0 0 m (2) show NC gr 
 gsave  2268 1077 0 461 C 270.432 1058.92 t 0 r /Helvetica findfont 48.9324 sf 0 0 m (10) show NC gr  390 1173 m -27 X s 390 1227 m -27 X s 390 1265 m -27 X s 390 1295 m -27 X s 390 1319 m -27 X s 390 1340 m -27 X s 390 1357 m -27 X s 390 1373 m -27
 X s 417 1387 m -54 X s
 gsave  2268 1077 0 461 C 322.563 1388 t 0 r /Helvetica findfont 32.6216 sf 0 0 m (3) show NC gr 
 gsave  2268 1077 0 461 C 270.432 1365.19 t 0 r /Helvetica findfont 48.9324 sf 0 0 m (10) show NC gr  390 1479 m -27 X s 2154 634 m 850 Y s 2127 653 m 27 X s 2127 683 m 27 X s 2127 707 m 27 X s 2127 727 m 27 X s 2127 745 m 27 X s 2127 761 m 27 X s
 2101 775 m 53 X s 2127 867 m 27 X s 2127 921 m 27 X s 2127 959 m 27 X s 2127 989 m 27 X s 2127 1013 m 27 X s 2127 1034 m 27 X s 2127 1051 m 27 X s 2127 1067 m 27 X s 2101 1081 m 53 X s 2127 1173 m 27 X s 2127 1227 m 27 X s 2127 1265 m 27 X s 2127
 1295 m 27 X s 2127 1319 m 27 X s 2127 1340 m 27 X s 2127 1357 m 27 X s 2127 1373 m 27 X s 2101 1387 m 53 X s 2127 1479 m 27 X s 381 775 m -18 X s 363 775 m cl s 381 775 m 18 X s 399 775 m cl s 381 775 m 47 Y s 381 822 m cl s 381 775 m -50 Y s 381
 725 m cl s 417 775 m -18 X s 399 775 m cl s 417 775 m 17 X s 434 775 m cl s 417 775 m 47 Y s 417 822 m cl s 417 775 m -50 Y s 417 725 m cl s 452 761 m -18 X s 434 761 m cl s 452 761 m 18 X s 470 761 m cl s 452 761 m 50 Y s 452 811 m cl s 452 761 m
 -53 Y s 452 708 m cl s 488 860 m -18 X s 470 860 m cl s 488 860 m 18 X s 506 860 m cl s 488 860 m 34 Y s 488 894 m cl s 488 860 m -34 Y s 488 826 m cl s 524 810 m -18 X s 506 810 m cl s 524 810 m 18 X s 542 810 m cl s 524 810 m 41 Y s 524 851 m cl s
 524 810 m -43 Y s 524 767 m cl s 560 873 m -18 X s 542 873 m cl s 560 873 m 18 X s 578 873 m cl s 560 873 m 32 Y s 560 905 m cl s 560 873 m -32 Y s 560 841 m cl s 596 845 m -18 X s 578 845 m cl s 596 845 m 18 X s 614 845 m cl s 596 845 m 36 Y s 596
 881 m cl s 596 845 m -36 Y s 596 809 m cl s 632 820 m -18 X s 614 820 m cl s 632 820 m 17 X s 649 820 m cl s 632 820 m 39 Y s 632 859 m cl s 632 820 m -41 Y s 632 779 m cl s 667 867 m -18 X s 649 867 m cl s 667 867 m 18 X s 685 867 m cl s 667 867 m
 33 Y s 667 900 m cl s 667 867 m -33 Y s 667 834 m cl s 703 902 m -18 X s 685 902 m cl s 703 902 m 18 X s 721 902 m cl s 703 902 m 28 Y s 703 930 m cl s 703 902 m -29 Y s 703 873 m cl s 739 787 m -18 X s 721 787 m cl s 739 787 m 18 X s 757 787 m cl s
 739 787 m 45 Y s 739 832 m cl s 739 787 m -46 Y s 739 741 m cl s 775 929 m -18 X s 757 929 m cl s 775 929 m 18 X s 793 929 m cl s 775 929 m 26 Y s 775 955 m cl s 775 929 m -25 Y s 775 904 m cl s 811 929 m -18 X s 793 929 m cl s 811 929 m 18 X s 829
 929 m cl s 811 929 m 26 Y s 811 955 m cl s 811 929 m -25 Y s 811 904 m cl s 847 925 m -18 X s 829 925 m cl s 847 925 m 17 X s 864 925 m cl s 847 925 m 26 Y s 847 951 m cl s 847 925 m -26 Y s 847 899 m cl s 882 978 m -18 X s 864 978 m cl s 882 978 m
 18 X s 900 978 m cl s 882 978 m 21 Y s 882 999 m cl s 882 978 m -21 Y s 882 957 m cl s 918 929 m -18 X s 900 929 m cl s 918 929 m 18 X s 936 929 m cl s 918 929 m 26 Y s 918 955 m cl s 918 929 m -25 Y s 918 904 m cl s 954 997 m -18 X s 936 997 m cl s
 954 997 m 18 X s 972 997 m cl s 954 997 m 19 Y s 954 1016 m cl s 954 997 m -20 Y s 954 977 m cl s 990 1020 m -18 X s 972 1020 m cl s 990 1020 m 18 X s 1008 1020 m cl s 990 1020 m 17 Y s 990 1037 m cl s 990 1020 m -18 Y s 990 1002 m cl s 1026 1028 m
 -18 X s 1008 1028 m cl s 1026 1028 m 18 X s 1044 1028 m cl s 1026 1028 m 17 Y s 1026 1045 m cl s 1026 1028 m -18 Y s 1026 1010 m cl s 1062 1061 m -18 X s 1044 1061 m cl s 1062 1061 m 17 X s 1079 1061 m cl s 1062 1061 m 15 Y s 1062 1076 m cl s 1062
 1061 m -15 Y s 1062 1046 m cl s 1097 1068 m -18 X s 1079 1068 m cl s 1097 1068 m 18 X s 1115 1068 m cl s 1097 1068 m 15 Y s 1097 1083 m cl s 1097 1068 m -14 Y s 1097 1054 m cl s 1133 1135 m -18 X s 1115 1135 m cl s 1133 1135 m 18 X s 1151 1135 m cl
 s 1133 1135 m 11 Y s 1133 1146 m cl s 1133 1135 m -11 Y s 1133 1124 m cl s 1169 1143 m -18 X s 1151 1143 m cl s 1169 1143 m 18 X s 1187 1143 m cl s 1169 1143 m 11 Y s 1169 1154 m cl s 1169 1143 m -10 Y s 1169 1133 m cl s 1205 1162 m -18 X s 1187
 1162 m cl s 1205 1162 m 18 X s 1223 1162 m cl s 1205 1162 m 10 Y s 1205 1172 m cl s 1205 1162 m -10 Y s 1205 1152 m cl s 1241 1202 m -18 X s 1223 1202 m cl s 1241 1202 m 18 X s 1259 1202 m cl s 1241 1202 m 8 Y s 1241 1210 m cl s 1241 1202 m -9 Y s
 1241 1193 m cl s 1276 1231 m -17 X s 1259 1231 m cl s 1276 1231 m 18 X s 1294 1231 m cl s 1276 1231 m 7 Y s 1276 1238 m cl s 1276 1231 m -8 Y s 1276 1223 m cl s 1312 1261 m -18 X s 1294 1261 m cl s 1312 1261 m 18 X s 1330 1261 m cl s 1312 1261 m 7 Y
 s 1312 1268 m cl s 1312 1261 m -7 Y s 1312 1254 m cl s 1348 1304 m -18 X s 1330 1304 m cl s 1348 1304 m 18 X s 1366 1304 m cl s 1348 1304 m 6 Y s 1348 1310 m cl s 1348 1304 m -6 Y s 1348 1298 m cl s 1384 1330 m -18 X s 1366 1330 m cl s 1384 1330 m
 18 X s 1402 1330 m cl s 1384 1330 m 5 Y s 1384 1335 m cl s 1384 1330 m -5 Y s 1384 1325 m cl s 1420 1365 m -18 X s 1402 1365 m cl s 1420 1365 m 18 X s 1438 1365 m cl s 1420 1365 m 5 Y s 1420 1370 m cl s 1420 1365 m -4 Y s 1420 1361 m cl s 1456 1395
 m -18 X s 1438 1395 m cl s 1456 1395 m 18 X s 1474 1395 m cl s 1456 1395 m 4 Y s 1456 1399 m cl s 1456 1395 m -4 Y s 1456 1391 m cl s 1491 1412 m -17 X s 1474 1412 m cl s 1491 1412 m 18 X s 1509 1412 m cl s 1491 1412 m 4 Y s 1491 1416 m cl s 1491
 1412 m -3 Y s 1491 1409 m cl s 1527 1412 m -18 X s 1509 1412 m cl s 1527 1412 m 18 X s 1545 1412 m cl s 1527 1412 m 4 Y s 1527 1416 m cl s 1527 1412 m -3 Y s 1527 1409 m cl s 1563 1411 m -18 X s 1545 1411 m cl s 1563 1411 m 18 X s 1581 1411 m cl s
 1563 1411 m 3 Y s 1563 1414 m cl s 1563 1411 m -4 Y s 1563 1407 m cl s 1599 1391 m -18 X s 1581 1391 m cl s 1599 1391 m 18 X s 1617 1391 m cl s 1599 1391 m 4 Y s 1599 1395 m cl s 1599 1391 m -4 Y s 1599 1387 m cl s 1635 1366 m -18 X s 1617 1366 m cl
 s 1635 1366 m 18 X s 1653 1366 m cl s 1635 1366 m 5 Y s 1635 1371 m cl s 1635 1366 m -4 Y s 1635 1362 m cl s 1671 1323 m -18 X s 1653 1323 m cl s 1671 1323 m 18 X s 1689 1323 m cl s 1671 1323 m 6 Y s 1671 1329 m cl s 1671 1323 m -5 Y s 1671 1318 m
 cl s 1706 1265 m -17 X s 1689 1265 m cl s 1706 1265 m 18 X s 1724 1265 m cl s 1706 1265 m 7 Y s 1706 1272 m cl s 1706 1265 m -7 Y s 1706 1258 m cl s 1742 1212 m -18 X s 1724 1212 m cl s 1742 1212 m 18 X s 1760 1212 m cl s 1742 1212 m 8 Y s 1742 1220
 m cl s 1742 1212 m -8 Y s 1742 1204 m cl s 1778 1176 m -18 X s 1760 1176 m cl s 1778 1176 m 18 X s 1796 1176 m cl s 1778 1176 m 10 Y s 1778 1186 m cl s 1778 1176 m -9 Y s 1778 1167 m cl s 1814 1115 m -18 X s 1796 1115 m cl s 1814 1115 m 18 X s 1832
 1115 m cl s 1814 1115 m 11 Y s 1814 1126 m cl s 1814 1115 m -12 Y s 1814 1103 m cl s 1850 1055 m -18 X s 1832 1055 m cl s 1850 1055 m 18 X s 1868 1055 m cl s 1850 1055 m 15 Y s 1850 1070 m cl s 1850 1055 m -16 Y s 1850 1039 m cl s 1886 991 m -18 X s
 1868 991 m cl s 1886 991 m 18 X s 1904 991 m cl s 1886 991 m 20 Y s 1886 1011 m cl s 1886 991 m -20 Y s 1886 971 m cl s 1921 1011 m -17 X s 1904 1011 m cl s 1921 1011 m 18 X s 1939 1011 m cl s 1921 1011 m 18 Y s 1921 1029 m cl s 1921 1011 m -19 Y s
 1921 992 m cl s 1957 945 m -18 X s 1939 945 m cl s 1957 945 m 18 X s 1975 945 m cl s 1957 945 m 24 Y s 1957 969 m cl s 1957 945 m -24 Y s 1957 921 m cl s 1993 929 m -18 X s 1975 929 m cl s 1993 929 m 18 X s 2011 929 m cl s 1993 929 m 26 Y s 1993 955
 m cl s 1993 929 m -25 Y s 1993 904 m cl s 2029 820 m -18 X s 2011 820 m cl s 2029 820 m 18 X s 2047 820 m cl s 2029 820 m 39 Y s 2029 859 m cl s 2029 820 m -41 Y s 2029 779 m cl s 2065 683 m -18 X s 2047 683 m cl s 2065 683 m 18 X s 2083 683 m cl s
 2065 683 m 68 Y s 2065 751 m cl s 2065 683 m -49 Y s 2065 634 m cl s 2101 799 m -18 X s 2083 799 m cl s 2101 799 m 18 X s 2119 799 m cl s 2101 799 m 43 Y s 2101 842 m cl s 2101 799 m -44 Y s 2101 755 m cl s 2136 653 m -17 X s 2119 653 m cl s 2136
 653 m 18 X s 2154 653 m cl s 2136 653 m 77 Y s 2136 730 m cl s 2136 653 m -19 Y s 2136 634 m cl s /w 31 def /w2 {w 2 div} def /w3 {w 3 div} def 381 775 417 775 452 761 488 860 524 810 560 873 596 845 632 820 667 867 703 902 739 787 775 929 811 929
 847 925 882 978 918 929 954 997 990 1020 1026 1028 1062 1061 1097 1068 1133 1135 1169 1143 1205 1162 1241 1202 1276 1231 1312 1261 1348 1304 1384 1330 1420 1365 1456 1395 1491 1412 1527 1412 1563 1411 1599 1391 1635 1366 1671 1323 1706 1265 1742
 1212 1778 1176 1814 1115 1850 1055 1886 991 1921 1011 1957 945 1993 929 2029 820 2065 683 2101 799 2136 653 50 { m20} R 0 1 1 c 1 1 0 c black 1 1 0 c 363 823 m 36 6 d 35 7 d 36 7 d 36 7 d 36 7 d 36 8 d 36 8 d 35 8 d 36 9 d 36 10 d 36 10 d 36 11 d 36
 13 d 35 15 d 36 16 d 36 19 d 36 21 d 36 22 d 36 25 d 35 25 d 36 27 d 36 28 d 36 28 d 36 29 d 18 15 d 18 14 d 17 15 d 18 14 d 18 15 d 18 16 d 9 9 d 9 9 d 9 10 d 9 12 d 9 11 d 9 11 d 18 18 d 18 16 d 18 14 d 9 6 d 9 6 d 9 5 d 9 4 d 9 4 d 8 3 d 9 2 d 9
 2 d 27 X 9 -2 d 9 -3 d 9 -3 d 9 -4 d 9 -4 d 9 -6 d 9 -6 d 18 -14 d 36 -35 d 18 -20 d 18 -22 d 8 -12 d 9 -12 d 9 -13 d 9 -12 d 9 -13 d 9 -13 d 9 -13 d 9 -13 d 18 -25 d 18 -24 d 18 -24 d 18 -22 d 18 -22 d 18 -21 d 36 -42 d 35 -42 d 36 -43 d 36 -45 d
 36 -47 d 36 -49 d 36 -53 d 35 -57 d -50 Y -24 X -11 24 d -36 69 d -36 63 d -36 59 d -36 53 d -36 48 d -35 46 d -36 44 d -18 23 d -18 24 d -18 24 d -18 25 d -18 25 d -18 26 d -9 13 d -9 13 d -9 13 d -9 13 d -9 13 d -9 13 d -9 13 d -8 12 d -18 24 d
 -18 22 d -36 36 d -18 15 d -9 5 d -9 6 d -9 4 d -9 4 d -9 3 d -9 3 d -9 1 d -9 1 d -18 X -9 -1 d -9 -2 d -8 -3 d -9 -4 d -9 -4 d -9 -5 d -9 -6 d -9 -7 d -18 -16 d -18 -19 d -18 -21 d -9 -11 d -9 -10 d -9 -9 d -9 -9 d -9 -9 d -9 -9 d -18 -17 d -18
 -16 d -18 -16 d -17 -14 d -18 -14 d -18 -14 d -36 -28 d -36 -29 d -36 -28 d -36 -29 d -35 -28 d -36 -26 d -36 -24 d -36 -22 d -36 -19 d -36 -17 d -35 -16 d -36 -13 d -36 -12 d -36 -11 d -36 -10 d -36 -10 d -35 -8 d -36 -9 d -36 -8 d -36 -7 d -36 -7
 d -36 -7 d -35 -7 d -36 -7 d f 0 1 1 c 0 1 0 c black 0 1 0 c 363 817 m 36 6 d 35 7 d 36 7 d 36 7 d 36 7 d 36 8 d 36 8 d 35 8 d 36 9 d 36 10 d 36 11 d 36 11 d 36 13 d 35 15 d 36 16 d 36 19 d 36 21 d 36 23 d 36 25 d 35 26 d 36 27 d 36 28 d 36 29 d 36
 28 d 18 15 d 18 14 d 17 15 d 18 14 d 18 16 d 18 16 d 9 9 d 9 9 d 9 10 d 9 11 d 9 11 d 9 10 d 18 19 d 18 17 d 18 15 d 9 6 d 9 6 d 9 5 d 9 4 d 9 4 d 8 3 d 9 2 d 9 1 d 9 1 d 9 X 9 -1 d 9 -2 d 9 -2 d 9 -3 d 9 -4 d 9 -5 d 9 -5 d 9 -6 d 18 -14 d 36 -36 d
 18 -20 d 18 -23 d 8 -12 d 9 -12 d 9 -13 d 9 -12 d 9 -13 d 9 -13 d 9 -13 d 9 -13 d 18 -25 d 18 -25 d 18 -24 d 18 -23 d 18 -22 d 18 -21 d 36 -42 d 35 -43 d 36 -44 d 36 -47 d 36 -49 d 36 -52 d 36 -56 d 35 -59 d -31 Y -9 X -26 50 d -36 63 d -36 59 d -36
 54 d -36 51 d -36 47 d -35 44 d -36 44 d -18 22 d -18 23 d -18 24 d -18 25 d -18 25 d -18 26 d -9 12 d -9 14 d -9 13 d -9 13 d -9 12 d -9 13 d -9 13 d -8 12 d -18 23 d -18 22 d -36 36 d -18 14 d -9 6 d -9 5 d -9 5 d -9 4 d -9 3 d -9 2 d -9 2 d -9 1
 d -9 X -9 -1 d -9 -1 d -9 -2 d -8 -3 d -9 -3 d -9 -5 d -9 -5 d -9 -6 d -9 -6 d -18 -16 d -18 -18 d -18 -20 d -9 -11 d -9 -11 d -9 -9 d -9 -10 d -9 -9 d -9 -9 d -18 -16 d -18 -16 d -18 -15 d -17 -15 d -18 -14 d -18 -14 d -36 -29 d -36 -28 d -36 -28 d
 -36 -29 d -35 -27 d -36 -26 d -36 -23 d -36 -22 d -36 -19 d -36 -17 d -35 -15 d -36 -13 d -36 -12 d -36 -11 d -36 -10 d -36 -9 d -35 -9 d -36 -8 d -36 -8 d -36 -7 d -36 -7 d -36 -7 d -35 -7 d -36 -7 d f 0 0 1 c 9 lw black 0 0 1 c 363 810 m 36 7 d 35
 6 d 36 7 d 36 7 d 36 8 d 36 8 d 36 8 d 35 8 d 36 9 d 36 10 d 36 11 d 36 12 d 36 13 d 35 15 d 36 16 d 36 19 d 36 22 d 36 23 d 36 25 d 35 27 d 36 28 d 36 28 d 36 28 d 36 28 d 18 15 d 18 14 d 17 15 d 18 15 d 18 15 d 18 17 d 9 8 d 9 10 d 9 9 d 9 11 d 9
 10 d 9 11 d 18 20 d 18 17 d 18 15 d 9 7 d 9 5 d 9 6 d 9 4 d 9 3 d 8 3 d 9 2 d 9 2 d 18 X 9 -1 d 9 -1 d 9 -3 d 9 -3 d 9 -4 d 9 -4 d 9 -6 d 9 -6 d 18 -14 d 36 -35 d 18 -22 d 18 -23 d 8 -12 d 9 -12 d 9 -12 d 9 -13 d 9 -13 d 9 -13 d 9 -13 d 9 -13 d 18
 -26 d 18 -25 d 18 -24 d 18 -23 d 18 -23 d 18 -21 d 36 -43 d 35 -44 d 36 -45 d 36 -49 d 36 -51 d 36 -56 d 36 -58 d 35 -63 d s black 3 lw 381 775 m -18 X s 363 775 m cl s 381 775 m 18 X s 399 775 m cl s 381 775 m 47 Y s 381 822 m cl s 381 775 m -50 Y
 s 381 725 m cl s 417 775 m -18 X s 399 775 m cl s 417 775 m 17 X s 434 775 m cl s 417 775 m 47 Y s 417 822 m cl s 417 775 m -50 Y s 417 725 m cl s 452 761 m -18 X s 434 761 m cl s 452 761 m 18 X s 470 761 m cl s 452 761 m 50 Y s 452 811 m cl s 452
 761 m -53 Y s 452 708 m cl s 488 860 m -18 X s 470 860 m cl s 488 860 m 18 X s 506 860 m cl s 488 860 m 34 Y s 488 894 m cl s 488 860 m -34 Y s 488 826 m cl s 524 810 m -18 X s 506 810 m cl s 524 810 m 18 X s 542 810 m cl s 524 810 m 41 Y s 524 851
 m cl s 524 810 m -43 Y s 524 767 m cl s 560 873 m -18 X s 542 873 m cl s 560 873 m 18 X s 578 873 m cl s 560 873 m 32 Y s 560 905 m cl s 560 873 m -32 Y s 560 841 m cl s 596 845 m -18 X s 578 845 m cl s 596 845 m 18 X s 614 845 m cl s 596 845 m 36 Y
 s 596 881 m cl s 596 845 m -36 Y s 596 809 m cl s 632 820 m -18 X s 614 820 m cl s 632 820 m 17 X s 649 820 m cl s 632 820 m 39 Y s 632 859 m cl s 632 820 m -41 Y s 632 779 m cl s 667 867 m -18 X s 649 867 m cl s 667 867 m 18 X s 685 867 m cl s 667
 867 m 33 Y s 667 900 m cl s 667 867 m -33 Y s 667 834 m cl s 703 902 m -18 X s 685 902 m cl s 703 902 m 18 X s 721 902 m cl s 703 902 m 28 Y s 703 930 m cl s 703 902 m -29 Y s 703 873 m cl s 739 787 m -18 X s 721 787 m cl s 739 787 m 18 X s 757 787
 m cl s 739 787 m 45 Y s 739 832 m cl s 739 787 m -46 Y s 739 741 m cl s 775 929 m -18 X s 757 929 m cl s 775 929 m 18 X s 793 929 m cl s 775 929 m 26 Y s 775 955 m cl s 775 929 m -25 Y s 775 904 m cl s 811 929 m -18 X s 793 929 m cl s 811 929 m 18 X
 s 829 929 m cl s 811 929 m 26 Y s 811 955 m cl s 811 929 m -25 Y s 811 904 m cl s 847 925 m -18 X s 829 925 m cl s 847 925 m 17 X s 864 925 m cl s 847 925 m 26 Y s 847 951 m cl s 847 925 m -26 Y s 847 899 m cl s 882 978 m -18 X s 864 978 m cl s 882
 978 m 18 X s 900 978 m cl s 882 978 m 21 Y s 882 999 m cl s 882 978 m -21 Y s 882 957 m cl s 918 929 m -18 X s 900 929 m cl s 918 929 m 18 X s 936 929 m cl s 918 929 m 26 Y s 918 955 m cl s 918 929 m -25 Y s 918 904 m cl s 954 997 m -18 X s 936 997
 m cl s 954 997 m 18 X s 972 997 m cl s 954 997 m 19 Y s 954 1016 m cl s 954 997 m -20 Y s 954 977 m cl s 990 1020 m -18 X s 972 1020 m cl s 990 1020 m 18 X s 1008 1020 m cl s 990 1020 m 17 Y s 990 1037 m cl s 990 1020 m -18 Y s 990 1002 m cl s 1026
 1028 m -18 X s 1008 1028 m cl s 1026 1028 m 18 X s 1044 1028 m cl s 1026 1028 m 17 Y s 1026 1045 m cl s 1026 1028 m -18 Y s 1026 1010 m cl s 1062 1061 m -18 X s 1044 1061 m cl s 1062 1061 m 17 X s 1079 1061 m cl s 1062 1061 m 15 Y s 1062 1076 m cl s
 1062 1061 m -15 Y s 1062 1046 m cl s 1097 1068 m -18 X s 1079 1068 m cl s 1097 1068 m 18 X s 1115 1068 m cl s 1097 1068 m 15 Y s 1097 1083 m cl s 1097 1068 m -14 Y s 1097 1054 m cl s 1133 1135 m -18 X s 1115 1135 m cl s 1133 1135 m 18 X s 1151 1135
 m cl s 1133 1135 m 11 Y s 1133 1146 m cl s 1133 1135 m -11 Y s 1133 1124 m cl s 1169 1143 m -18 X s 1151 1143 m cl s 1169 1143 m 18 X s 1187 1143 m cl s 1169 1143 m 11 Y s 1169 1154 m cl s 1169 1143 m -10 Y s 1169 1133 m cl s 1205 1162 m -18 X s
 1187 1162 m cl s 1205 1162 m 18 X s 1223 1162 m cl s 1205 1162 m 10 Y s 1205 1172 m cl s 1205 1162 m -10 Y s 1205 1152 m cl s 1241 1202 m -18 X s 1223 1202 m cl s 1241 1202 m 18 X s 1259 1202 m cl s 1241 1202 m 8 Y s 1241 1210 m cl s 1241 1202 m -9
 Y s 1241 1193 m cl s 1276 1231 m -17 X s 1259 1231 m cl s 1276 1231 m 18 X s 1294 1231 m cl s 1276 1231 m 7 Y s 1276 1238 m cl s 1276 1231 m -8 Y s 1276 1223 m cl s 1312 1261 m -18 X s 1294 1261 m cl s 1312 1261 m 18 X s 1330 1261 m cl s 1312 1261 m
 7 Y s 1312 1268 m cl s 1312 1261 m -7 Y s 1312 1254 m cl s 1348 1304 m -18 X s 1330 1304 m cl s 1348 1304 m 18 X s 1366 1304 m cl s 1348 1304 m 6 Y s 1348 1310 m cl s 1348 1304 m -6 Y s 1348 1298 m cl s 1384 1330 m -18 X s 1366 1330 m cl s 1384 1330
 m 18 X s 1402 1330 m cl s 1384 1330 m 5 Y s 1384 1335 m cl s 1384 1330 m -5 Y s 1384 1325 m cl s 1420 1365 m -18 X s 1402 1365 m cl s 1420 1365 m 18 X s 1438 1365 m cl s 1420 1365 m 5 Y s 1420 1370 m cl s 1420 1365 m -4 Y s 1420 1361 m cl s 1456
 1395 m -18 X s 1438 1395 m cl s 1456 1395 m 18 X s 1474 1395 m cl s 1456 1395 m 4 Y s 1456 1399 m cl s 1456 1395 m -4 Y s 1456 1391 m cl s 1491 1412 m -17 X s 1474 1412 m cl s 1491 1412 m 18 X s 1509 1412 m cl s 1491 1412 m 4 Y s 1491 1416 m cl s
 1491 1412 m -3 Y s 1491 1409 m cl s 1527 1412 m -18 X s 1509 1412 m cl s 1527 1412 m 18 X s 1545 1412 m cl s 1527 1412 m 4 Y s 1527 1416 m cl s 1527 1412 m -3 Y s 1527 1409 m cl s 1563 1411 m -18 X s 1545 1411 m cl s 1563 1411 m 18 X s 1581 1411 m
 cl s 1563 1411 m 3 Y s 1563 1414 m cl s 1563 1411 m -4 Y s 1563 1407 m cl s 1599 1391 m -18 X s 1581 1391 m cl s 1599 1391 m 18 X s 1617 1391 m cl s 1599 1391 m 4 Y s 1599 1395 m cl s 1599 1391 m -4 Y s 1599 1387 m cl s 1635 1366 m -18 X s 1617 1366
 m cl s 1635 1366 m 18 X s 1653 1366 m cl s 1635 1366 m 5 Y s 1635 1371 m cl s 1635 1366 m -4 Y s 1635 1362 m cl s 1671 1323 m -18 X s 1653 1323 m cl s 1671 1323 m 18 X s 1689 1323 m cl s 1671 1323 m 6 Y s 1671 1329 m cl s 1671 1323 m -5 Y s 1671
 1318 m cl s 1706 1265 m -17 X s 1689 1265 m cl s 1706 1265 m 18 X s 1724 1265 m cl s 1706 1265 m 7 Y s 1706 1272 m cl s 1706 1265 m -7 Y s 1706 1258 m cl s 1742 1212 m -18 X s 1724 1212 m cl s 1742 1212 m 18 X s 1760 1212 m cl s 1742 1212 m 8 Y s
 1742 1220 m cl s 1742 1212 m -8 Y s 1742 1204 m cl s 1778 1176 m -18 X s 1760 1176 m cl s 1778 1176 m 18 X s 1796 1176 m cl s 1778 1176 m 10 Y s 1778 1186 m cl s 1778 1176 m -9 Y s 1778 1167 m cl s 1814 1115 m -18 X s 1796 1115 m cl s 1814 1115 m 18
 X s 1832 1115 m cl s 1814 1115 m 11 Y s 1814 1126 m cl s 1814 1115 m -12 Y s 1814 1103 m cl s 1850 1055 m -18 X s 1832 1055 m cl s 1850 1055 m 18 X s 1868 1055 m cl s 1850 1055 m 15 Y s 1850 1070 m cl s 1850 1055 m -16 Y s 1850 1039 m cl s 1886 991
 m -18 X s 1868 991 m cl s 1886 991 m 18 X s 1904 991 m cl s 1886 991 m 20 Y s 1886 1011 m cl s 1886 991 m -20 Y s 1886 971 m cl s 1921 1011 m -17 X s 1904 1011 m cl s 1921 1011 m 18 X s 1939 1011 m cl s 1921 1011 m 18 Y s 1921 1029 m cl s 1921 1011
 m -19 Y s 1921 992 m cl s 1957 945 m -18 X s 1939 945 m cl s 1957 945 m 18 X s 1975 945 m cl s 1957 945 m 24 Y s 1957 969 m cl s 1957 945 m -24 Y s 1957 921 m cl s 1993 929 m -18 X s 1975 929 m cl s 1993 929 m 18 X s 2011 929 m cl s 1993 929 m 26 Y
 s 1993 955 m cl s 1993 929 m -25 Y s 1993 904 m cl s 2029 820 m -18 X s 2011 820 m cl s 2029 820 m 18 X s 2047 820 m cl s 2029 820 m 39 Y s 2029 859 m cl s 2029 820 m -41 Y s 2029 779 m cl s 2065 683 m -18 X s 2047 683 m cl s 2065 683 m 18 X s 2083
 683 m cl s 2065 683 m 68 Y s 2065 751 m cl s 2065 683 m -49 Y s 2065 634 m cl s 2101 799 m -18 X s 2083 799 m cl s 2101 799 m 18 X s 2119 799 m cl s 2101 799 m 43 Y s 2101 842 m cl s 2101 799 m -44 Y s 2101 755 m cl s 2136 653 m -17 X s 2119 653 m
 cl s 2136 653 m 18 X s 2154 653 m cl s 2136 653 m 77 Y s 2136 730 m cl s 2136 653 m -19 Y s 2136 634 m cl s 381 775 417 775 452 761 488 860 524 810 560 873 596 845 632 820 667 867 703 902 739 787 775 929 811 929 847 925 882 978 918 929 954 997 990
 1020 1026 1028 1062 1061 1097 1068 1133 1135 1169 1143 1205 1162 1241 1202 1276 1231 1312 1261 1348 1304 1384 1330 1420 1365 1456 1395 1491 1412 1527 1412 1563 1411 1599 1391 1635 1366 1671 1323 1706 1265 1742 1212 1778 1176 1814 1115 1850 1055 1886
 991 1921 1011 1957 945 1993 929 2029 820 2065 683 2101 799 2136 653 50 { m20} R 0.52 0.76 0.64 c[ 4 8] 0 sd 9 lw black 0.52 0.76 0.64 c 363 810 m 36 7 d 35 6 d 36 7 d 36 7 d 36 8 d 36 7 d 36 8 d 35 9 d 36 9 d 36 9 d 36 9 d 36 10 d 36 11 d 35 11 d 36
 12 d 36 12 d 36 13 d 36 15 d 36 15 d 35 17 d 36 18 d 36 20 d 36 23 d 36 25 d 18 14 d 18 15 d 17 16 d 18 17 d 18 19 d 9 11 d 9 11 d 9 11 d 9 13 d 9 13 d 9 14 d 9 15 d 9 14 d 18 25 d 18 23 d 18 18 d 9 8 d 9 7 d 9 6 d 9 5 d 9 5 d 8 3 d 9 3 d 9 1 d 9 1
 d 9 X 9 -1 d 9 -2 d 9 -3 d 9 -4 d 9 -5 d 9 -5 d 9 -7 d 9 -7 d 18 -17 d 36 -46 d 18 -28 d 9 -15 d 9 -17 d 8 -17 d 9 -18 d 9 -19 d 9 -20 d 9 -21 d 9 -21 d 9 -23 d 9 -24 d 9 -24 d 9 -25 d 18 -53 d 18 -57 d 18 -61 d 18 -64 d 18 -67 d 20 -81 d s 0.54
 0.66 0.63 c black 0.54 0.66 0.63 c 883 634 m 17 31 d s 900 665 m 36 61 d 36 58 d 36 53 d 18 26 d 18 25 d 18 23 d 17 23 d 18 22 d 18 21 d 18 20 d 18 20 d 18 18 d 18 17 d 18 17 d 18 15 d 36 29 d 35 25 d 36 21 d 36 17 d 18 8 d 18 6 d 18 6 d 18 5 d 18 3
 d 18 3 d 17 2 d 18 1 d 36 X 18 -2 d 18 -3 d 18 -3 d 18 -4 d 18 -6 d 18 -6 d 18 -7 d 18 -8 d 35 -19 d 36 -22 d 36 -26 d 18 -15 d 18 -15 d 18 -16 d 18 -17 d 18 -18 d 18 -19 d 17 -20 d 18 -21 d 18 -22 d 18 -22 d 18 -24 d 18 -24 d 36 -52 d 36 -55 d 36
 -58 d 35 -63 d s black[  ] 0 sd 3 lw 363 634 m 1791 X s 363 659 m -25 Y s 403 646 m -12 Y s 442 646 m -12 Y s 482 646 m -12 Y s 522 646 m -12 Y s 562 659 m -25 Y s 602 646 m -12 Y s 642 646 m -12 Y s 681 646 m -12 Y s 721 646 m -12 Y s 761 659 m -25
 Y s 801 646 m -12 Y s 841 646 m -12 Y s 880 646 m -12 Y s 920 646 m -12 Y s 960 659 m -25 Y s 1000 646 m -12 Y s 1040 646 m -12 Y s 1079 646 m -12 Y s 1119 646 m -12 Y s 1159 659 m -25 Y s 1199 646 m -12 Y s 1239 646 m -12 Y s 1278 646 m -12 Y s
 1318 646 m -12 Y s 1358 659 m -25 Y s 1398 646 m -12 Y s 1438 646 m -12 Y s 1478 646 m -12 Y s 1517 646 m -12 Y s 1557 659 m -25 Y s 1597 646 m -12 Y s 1637 646 m -12 Y s 1677 646 m -12 Y s 1716 646 m -12 Y s 1756 659 m -25 Y s 1796 646 m -12 Y s
 1836 646 m -12 Y s 1876 646 m -12 Y s 1915 646 m -12 Y s 1955 659 m -25 Y s 1995 646 m -12 Y s 2035 646 m -12 Y s 2075 646 m -12 Y s 2115 646 m -12 Y s 2154 659 m -25 Y s 363 1484 m 1791 X s 363 1459 m 25 Y s 403 1471 m 13 Y s 442 1471 m 13 Y s 482
 1471 m 13 Y s 522 1471 m 13 Y s 562 1459 m 25 Y s 602 1471 m 13 Y s 642 1471 m 13 Y s 681 1471 m 13 Y s 721 1471 m 13 Y s 761 1459 m 25 Y s 801 1471 m 13 Y s 841 1471 m 13 Y s 880 1471 m 13 Y s 920 1471 m 13 Y s 960 1459 m 25 Y s 1000 1471 m 13 Y s
 1040 1471 m 13 Y s 1079 1471 m 13 Y s 1119 1471 m 13 Y s 1159 1459 m 25 Y s 1199 1471 m 13 Y s 1239 1471 m 13 Y s 1278 1471 m 13 Y s 1318 1471 m 13 Y s 1358 1459 m 25 Y s 1398 1471 m 13 Y s 1438 1471 m 13 Y s 1478 1471 m 13 Y s 1517 1471 m 13 Y s
 1557 1459 m 25 Y s 1597 1471 m 13 Y s 1637 1471 m 13 Y s 1677 1471 m 13 Y s 1716 1471 m 13 Y s 1756 1459 m 25 Y s 1796 1471 m 13 Y s 1836 1471 m 13 Y s 1876 1471 m 13 Y s 1915 1471 m 13 Y s 1955 1459 m 25 Y s 1995 1471 m 13 Y s 2035 1471 m 13 Y s
 2075 1471 m 13 Y s 2115 1471 m 13 Y s 2154 1459 m 25 Y s 363 634 m 850 Y s 390 653 m -27 X s 390 683 m -27 X s 390 707 m -27 X s 390 727 m -27 X s 390 745 m -27 X s 390 761 m -27 X s 417 775 m -54 X s 390 867 m -27 X s 390 921 m -27 X s 390 959 m
 -27 X s 390 989 m -27 X s 390 1013 m -27 X s 390 1034 m -27 X s 390 1051 m -27 X s 390 1067 m -27 X s 417 1081 m -54 X s 390 1173 m -27 X s 390 1227 m -27 X s 390 1265 m -27 X s 390 1295 m -27 X s 390 1319 m -27 X s 390 1340 m -27 X s 390 1357 m -27
 X s 390 1373 m -27 X s 417 1387 m -54 X s 390 1479 m -27 X s 2154 634 m 850 Y s 2127 653 m 27 X s 2127 683 m 27 X s 2127 707 m 27 X s 2127 727 m 27 X s 2127 745 m 27 X s 2127 761 m 27 X s 2101 775 m 53 X s 2127 867 m 27 X s 2127 921 m 27 X s 2127
 959 m 27 X s 2127 989 m 27 X s 2127 1013 m 27 X s 2127 1034 m 27 X s 2127 1051 m 27 X s 2127 1067 m 27 X s 2101 1081 m 53 X s 2127 1173 m 27 X s 2127 1227 m 27 X s 2127 1265 m 27 X s 2127 1295 m 27 X s 2127 1319 m 27 X s 2127 1340 m 27 X s 2127 1357
 m 27 X s 2127 1373 m 27 X s 2101 1387 m 53 X s 2127 1479 m 27 X s
 gsave  2268 1077 0 461 C 677.708 1215.31 t 0 r /Helvetica findfont 58.7189 sf 0 0 m (2mu2e) show NC gr  1 1 1 c 453 161 454 1269 bf black
 gsave  2268 1077 0 461 C 566.929 1371.71 t 0 r /Helvetica-Bold findfont 48.9324 sf 0 0 m (MC15) show NC gr  510 1390 m20
 gsave  2268 1077 0 461 C 566.929 1293.51 t 0 r /Helvetica-Bold findfont 48.9324 sf 0 0 m (Projection of Signal pdf) show NC gr  0 0 1 c 9 lw 471 1309 m 79 X s black 3 lw 1 1 1 c 2268 461 0 0 bf black 1 1 1 c 1791 364 363 74 bf black 1791 364 363 74
 bl 363 74 m 1791 X s
 gsave  2268 461 0 0 C 1915.83 13.0329 t 0 r /Helvetica findfont 22.9045 sf 0 0 m (4l Invariant Mass \(GeV\)) show NC gr  363 85 m -11 Y s 403 79 m -5 Y s 442 79 m -5 Y s 482 79 m -5 Y s 522 79 m -5 Y s 562 85 m -11 Y s 602 79 m -5 Y s 642 79 m -5 Y
 s 681 79 m -5 Y s 721 79 m -5 Y s 761 85 m -11 Y s 801 79 m -5 Y s 841 79 m -5 Y s 880 79 m -5 Y s 920 79 m -5 Y s 960 85 m -11 Y s 1000 79 m -5 Y s 1040 79 m -5 Y s 1079 79 m -5 Y s 1119 79 m -5 Y s 1159 85 m -11 Y s 1199 79 m -5 Y s 1239 79 m -5 Y
 s 1278 79 m -5 Y s 1318 79 m -5 Y s 1358 85 m -11 Y s 1398 79 m -5 Y s 1438 79 m -5 Y s 1478 79 m -5 Y s 1517 79 m -5 Y s 1557 85 m -11 Y s 1597 79 m -5 Y s 1637 79 m -5 Y s 1677 79 m -5 Y s 1716 79 m -5 Y s 1756 85 m -11 Y s 1796 79 m -5 Y s 1836
 79 m -5 Y s 1876 79 m -5 Y s 1915 79 m -5 Y s 1955 85 m -11 Y s 1995 79 m -5 Y s 2035 79 m -5 Y s 2075 79 m -5 Y s 2115 79 m -5 Y s 2154 85 m -11 Y s
 gsave  2268 461 0 0 C 342.112 55.3896 t 0 r /Helvetica findfont 22.9045 sf 0 0 m (440) show NC gr 
 gsave  2268 461 0 0 C 540.863 55.3896 t 0 r /Helvetica findfont 22.9045 sf 0 0 m (450) show NC gr 
 gsave  2268 461 0 0 C 739.614 55.3896 t 0 r /Helvetica findfont 22.9045 sf 0 0 m (460) show NC gr 
 gsave  2268 461 0 0 C 938.365 55.3896 t 0 r /Helvetica findfont 22.9045 sf 0 0 m (470) show NC gr 
 gsave  2268 461 0 0 C 1137.12 55.3896 t 0 r /Helvetica findfont 22.9045 sf 0 0 m (480) show NC gr 
 gsave  2268 461 0 0 C 1335.87 55.3896 t 0 r /Helvetica findfont 22.9045 sf 0 0 m (490) show NC gr 
 gsave  2268 461 0 0 C 1534.62 55.3896 t 0 r /Helvetica findfont 22.9045 sf 0 0 m (500) show NC gr 
 gsave  2268 461 0 0 C 1736.63 55.3896 t 0 r /Helvetica findfont 22.9045 sf 0 0 m (510) show NC gr 
 gsave  2268 461 0 0 C 1935.38 55.3896 t 0 r /Helvetica findfont 22.9045 sf 0 0 m (520) show NC gr 
 gsave  2268 461 0 0 C 2134.13 55.3896 t 0 r /Helvetica findfont 22.9045 sf 0 0 m (530) show NC gr  363 438 m 1791 X s 363 427 m 11 Y s 403 433 m 5 Y s 442 433 m 5 Y s 482 433 m 5 Y s 522 433 m 5 Y s 562 427 m 11 Y s 602 433 m 5 Y s 642 433 m 5 Y s
 681 433 m 5 Y s 721 433 m 5 Y s 761 427 m 11 Y s 801 433 m 5 Y s 841 433 m 5 Y s 880 433 m 5 Y s 920 433 m 5 Y s 960 427 m 11 Y s 1000 433 m 5 Y s 1040 433 m 5 Y s 1079 433 m 5 Y s 1119 433 m 5 Y s 1159 427 m 11 Y s 1199 433 m 5 Y s 1239 433 m 5 Y s
 1278 433 m 5 Y s 1318 433 m 5 Y s 1358 427 m 11 Y s 1398 433 m 5 Y s 1438 433 m 5 Y s 1478 433 m 5 Y s 1517 433 m 5 Y s 1557 427 m 11 Y s 1597 433 m 5 Y s 1637 433 m 5 Y s 1677 433 m 5 Y s 1716 433 m 5 Y s 1756 427 m 11 Y s 1796 433 m 5 Y s 1836 433
 m 5 Y s 1876 433 m 5 Y s 1915 433 m 5 Y s 1955 427 m 11 Y s 1995 433 m 5 Y s 2035 433 m 5 Y s 2075 433 m 5 Y s 2115 433 m 5 Y s 2154 427 m 11 Y s 363 74 m 364 Y s 417 74 m -54 X s 390 81 m -27 X s 390 88 m -27 X s 390 96 m -27 X s 390 103 m -27 X s
 417 110 m -54 X s 390 118 m -27 X s 390 125 m -27 X s 390 132 m -27 X s 390 139 m -27 X s 417 147 m -54 X s 390 154 m -27 X s 390 161 m -27 X s 390 169 m -27 X s 390 176 m -27 X s 417 183 m -54 X s 390 190 m -27 X s 390 198 m -27 X s 390 205 m -27 X
 s 390 212 m -27 X s 417 220 m -54 X s 390 227 m -27 X s 390 234 m -27 X s 390 241 m -27 X s 390 249 m -27 X s 417 256 m -54 X s 390 263 m -27 X s 390 271 m -27 X s 390 278 m -27 X s 390 285 m -27 X s 417 293 m -54 X s 390 300 m -27 X s 390 307 m -27
 X s 390 314 m -27 X s 390 322 m -27 X s 417 329 m -54 X s 390 336 m -27 X s 390 344 m -27 X s 390 351 m -27 X s 390 358 m -27 X s 417 365 m -54 X s 390 373 m -27 X s 390 380 m -27 X s 390 387 m -27 X s 390 395 m -27 X s 417 402 m -54 X s 390 409 m
 -27 X s 390 416 m -27 X s 390 424 m -27 X s 390 431 m -27 X s 417 438 m -54 X s
 gsave  2268 461 0 0 C 329.08 65.1643 t 0 r /Helvetica findfont 22.9045 sf 0 0 m (\2555) show NC gr 
 gsave  2268 461 0 0 C 329.08 101.005 t 0 r /Helvetica findfont 22.9045 sf 0 0 m (\2554) show NC gr 
 gsave  2268 461 0 0 C 329.08 140.103 t 0 r /Helvetica findfont 22.9045 sf 0 0 m (\2553) show NC gr 
 gsave  2268 461 0 0 C 329.08 175.944 t 0 r /Helvetica findfont 22.9045 sf 0 0 m (\2552) show NC gr 
 gsave  2268 461 0 0 C 332.338 211.784 t 0 r /Helvetica findfont 22.9045 sf 0 0 m (\2551) show NC gr 
 gsave  2268 461 0 0 C 335.596 247.624 t 0 r /Helvetica findfont 22.9045 sf 0 0 m (0) show NC gr 
 gsave  2268 461 0 0 C 338.854 283.465 t 0 r /Helvetica findfont 22.9045 sf 0 0 m (1) show NC gr 
 gsave  2268 461 0 0 C 335.596 319.305 t 0 r /Helvetica findfont 22.9045 sf 0 0 m (2) show NC gr 
 gsave  2268 461 0 0 C 335.596 358.403 t 0 r /Helvetica findfont 22.9045 sf 0 0 m (3) show NC gr 
 gsave  2268 461 0 0 C 335.596 394.244 t 0 r /Helvetica findfont 22.9045 sf 0 0 m (4) show NC gr 
 gsave  2268 461 0 0 C 335.596 430.084 t 0 r /Helvetica findfont 22.9045 sf 0 0 m (5) show NC gr  2154 74 m 364 Y s 2101 74 m 53 X s 2127 81 m 27 X s 2127 88 m 27 X s 2127 96 m 27 X s 2127 103 m 27 X s 2101 110 m 53 X s 2127 118 m 27 X s 2127 125 m
 27 X s 2127 132 m 27 X s 2127 139 m 27 X s 2101 147 m 53 X s 2127 154 m 27 X s 2127 161 m 27 X s 2127 169 m 27 X s 2127 176 m 27 X s 2101 183 m 53 X s 2127 190 m 27 X s 2127 198 m 27 X s 2127 205 m 27 X s 2127 212 m 27 X s 2101 220 m 53 X s 2127 227
 m 27 X s 2127 234 m 27 X s 2127 241 m 27 X s 2127 249 m 27 X s 2101 256 m 53 X s 2127 263 m 27 X s 2127 271 m 27 X s 2127 278 m 27 X s 2127 285 m 27 X s 2101 293 m 53 X s 2127 300 m 27 X s 2127 307 m 27 X s 2127 314 m 27 X s 2127 322 m 27 X s 2101
 329 m 53 X s 2127 336 m 27 X s 2127 344 m 27 X s 2127 351 m 27 X s 2127 358 m 27 X s 2101 365 m 53 X s 2127 373 m 27 X s 2127 380 m 27 X s 2127 387 m 27 X s 2127 395 m 27 X s 2101 402 m 53 X s 2127 409 m 27 X s 2127 416 m 27 X s 2127 424 m 27 X s
 2127 431 m 27 X s 2101 438 m 53 X s 6 lw 0.2 0.8 0.2 c black 3 lw 0.2 0.8 0.2 c 363 256 m -29 Y 36 X -6 Y 35 X -16 Y 36 X 80 Y 36 X -56 Y 36 X 56 Y 36 X -40 Y 36 X -32 Y 35 X 36 Y 36 X 31 Y 36 X -135 Y 36 X 146 Y 36 X -17 Y 36 X -26 Y 35 X 59 Y 36 X
 -105 Y 36 X 75 Y 36 X 4 Y 36 X -34 Y 36 X 16 Y 35 X -50 Y 36 X 113 Y 36 X -63 Y 36 X -36 Y 36 X 47 Y 36 X 3 Y 35 X -1 Y 36 X 57 Y 36 X -100 Y 36 X -16 Y 36 X 18 Y 36 X 12 Y 35 X -38 Y 36 X 61 Y 36 X 2 Y 36 X 46 Y 36 X -29 Y 36 X -67 Y 35 X -1 Y 36 X
 67 Y 36 X -45 Y 36 X -32 Y 36 X -36 Y 36 X 124 Y 35 X -42 Y 36 X 43 Y 36 X -69 Y 36 X -46 Y 36 X 118 Y 36 X -56 Y 35 X 9 Y f 6 lw black 0.2 0.8 0.2 c black 363 227 m 36 X -6 Y 35 X -16 Y 36 X 80 Y 36 X -56 Y 36 X 56 Y 36 X -40 Y 36 X -32 Y 35 X 36 Y
 36 X 31 Y 36 X -135 Y 36 X 146 Y 36 X -17 Y 36 X -26 Y 35 X 59 Y 36 X -105 Y 36 X 75 Y 36 X 4 Y 36 X -34 Y 36 X 16 Y 35 X -50 Y 36 X 113 Y 36 X -63 Y 36 X -36 Y 36 X 47 Y 36 X 3 Y 35 X -1 Y 36 X 57 Y 36 X -100 Y 36 X -16 Y 36 X 18 Y 36 X 12 Y 35 X
 -38 Y 36 X 61 Y 36 X 2 Y 36 X 46 Y 36 X -29 Y 36 X -67 Y 35 X -1 Y 36 X 67 Y 36 X -45 Y 36 X -32 Y 36 X -36 Y 36 X 124 Y 35 X -42 Y 36 X 43 Y 36 X -69 Y 36 X -46 Y 36 X 118 Y 36 X -56 Y 35 X s 3 lw 363 74 m 1791 X s 363 85 m -11 Y s 403 79 m -5 Y s
 442 79 m -5 Y s 482 79 m -5 Y s 522 79 m -5 Y s 562 85 m -11 Y s 602 79 m -5 Y s 642 79 m -5 Y s 681 79 m -5 Y s 721 79 m -5 Y s 761 85 m -11 Y s 801 79 m -5 Y s 841 79 m -5 Y s 880 79 m -5 Y s 920 79 m -5 Y s 960 85 m -11 Y s 1000 79 m -5 Y s 1040
 79 m -5 Y s 1079 79 m -5 Y s 1119 79 m -5 Y s 1159 85 m -11 Y s 1199 79 m -5 Y s 1239 79 m -5 Y s 1278 79 m -5 Y s 1318 79 m -5 Y s 1358 85 m -11 Y s 1398 79 m -5 Y s 1438 79 m -5 Y s 1478 79 m -5 Y s 1517 79 m -5 Y s 1557 85 m -11 Y s 1597 79 m -5
 Y s 1637 79 m -5 Y s 1677 79 m -5 Y s 1716 79 m -5 Y s 1756 85 m -11 Y s 1796 79 m -5 Y s 1836 79 m -5 Y s 1876 79 m -5 Y s 1915 79 m -5 Y s 1955 85 m -11 Y s 1995 79 m -5 Y s 2035 79 m -5 Y s 2075 79 m -5 Y s 2115 79 m -5 Y s 2154 85 m -11 Y s 363
 438 m 1791 X s 363 427 m 11 Y s 403 433 m 5 Y s 442 433 m 5 Y s 482 433 m 5 Y s 522 433 m 5 Y s 562 427 m 11 Y s 602 433 m 5 Y s 642 433 m 5 Y s 681 433 m 5 Y s 721 433 m 5 Y s 761 427 m 11 Y s 801 433 m 5 Y s 841 433 m 5 Y s 880 433 m 5 Y s 920 433
 m 5 Y s 960 427 m 11 Y s 1000 433 m 5 Y s 1040 433 m 5 Y s 1079 433 m 5 Y s 1119 433 m 5 Y s 1159 427 m 11 Y s 1199 433 m 5 Y s 1239 433 m 5 Y s 1278 433 m 5 Y s 1318 433 m 5 Y s 1358 427 m 11 Y s 1398 433 m 5 Y s 1438 433 m 5 Y s 1478 433 m 5 Y s
 1517 433 m 5 Y s 1557 427 m 11 Y s 1597 433 m 5 Y s 1637 433 m 5 Y s 1677 433 m 5 Y s 1716 433 m 5 Y s 1756 427 m 11 Y s 1796 433 m 5 Y s 1836 433 m 5 Y s 1876 433 m 5 Y s 1915 433 m 5 Y s 1955 427 m 11 Y s 1995 433 m 5 Y s 2035 433 m 5 Y s 2075 433
 m 5 Y s 2115 433 m 5 Y s 2154 427 m 11 Y s 363 74 m 364 Y s 417 74 m -54 X s 390 81 m -27 X s 390 88 m -27 X s 390 96 m -27 X s 390 103 m -27 X s 417 110 m -54 X s 390 118 m -27 X s 390 125 m -27 X s 390 132 m -27 X s 390 139 m -27 X s 417 147 m -54
 X s 390 154 m -27 X s 390 161 m -27 X s 390 169 m -27 X s 390 176 m -27 X s 417 183 m -54 X s 390 190 m -27 X s 390 198 m -27 X s 390 205 m -27 X s 390 212 m -27 X s 417 220 m -54 X s 390 227 m -27 X s 390 234 m -27 X s 390 241 m -27 X s 390 249 m
 -27 X s 417 256 m -54 X s 390 263 m -27 X s 390 271 m -27 X s 390 278 m -27 X s 390 285 m -27 X s 417 293 m -54 X s 390 300 m -27 X s 390 307 m -27 X s 390 314 m -27 X s 390 322 m -27 X s 417 329 m -54 X s 390 336 m -27 X s 390 344 m -27 X s 390 351
 m -27 X s 390 358 m -27 X s 417 365 m -54 X s 390 373 m -27 X s 390 380 m -27 X s 390 387 m -27 X s 390 395 m -27 X s 417 402 m -54 X s 390 409 m -27 X s 390 416 m -27 X s 390 424 m -27 X s 390 431 m -27 X s 417 438 m -54 X s 2154 74 m 364 Y s 2101
 74 m 53 X s 2127 81 m 27 X s 2127 88 m 27 X s 2127 96 m 27 X s 2127 103 m 27 X s 2101 110 m 53 X s 2127 118 m 27 X s 2127 125 m 27 X s 2127 132 m 27 X s 2127 139 m 27 X s 2101 147 m 53 X s 2127 154 m 27 X s 2127 161 m 27 X s 2127 169 m 27 X s 2127
 176 m 27 X s 2101 183 m 53 X s 2127 190 m 27 X s 2127 198 m 27 X s 2127 205 m 27 X s 2127 212 m 27 X s 2101 220 m 53 X s 2127 227 m 27 X s 2127 234 m 27 X s 2127 241 m 27 X s 2127 249 m 27 X s 2101 256 m 53 X s 2127 263 m 27 X s 2127 271 m 27 X s
 2127 278 m 27 X s 2127 285 m 27 X s 2101 293 m 53 X s 2127 300 m 27 X s 2127 307 m 27 X s 2127 314 m 27 X s 2127 322 m 27 X s 2101 329 m 53 X s 2127 336 m 27 X s 2127 344 m 27 X s 2127 351 m 27 X s 2127 358 m 27 X s 2101 365 m 53 X s 2127 373 m 27 X
 s 2127 380 m 27 X s 2127 387 m 27 X s 2127 395 m 27 X s 2101 402 m 53 X s 2127 409 m 27 X s 2127 416 m 27 X s 2127 424 m 27 X s 2127 431 m 27 X s 2101 438 m 53 X s
 gr  gr showpage
end
%%EOF
