%!PS-Adobe-2.0 EPSF-2.0
%%BoundingBox:  0 0 567 384
%%Title: H4l2015_plotfit/gg_mass_signal_1200_H4l_4mu.eps: 
%%Creator: ROOT Version 5.34/10
%%CreationDate: Thu Feb 16 12:42:29 2017
%%EndComments
%%BeginProlog
80 dict begin
/s {stroke} def /l {lineto} def /m {moveto} def /t {translate} def
/r {rotate} def /rl {roll}  def /R {repeat} def
/d {rlineto} def /rm {rmoveto} def /gr {grestore} def /f {eofill} def
/c {setrgbcolor} def /black {0 setgray} def /sd {setdash} def
/cl {closepath} def /sf {scalefont setfont} def /lw {setlinewidth} def
/box {m dup 0 exch d exch 0 d 0 exch neg d cl} def
/NC{systemdict begin initclip end}def/C{NC box clip newpath}def
/bl {box s} def /bf {box f} def /Y { 0 exch d} def /X { 0 d} def 
/K {{pop pop 0 moveto} exch kshow} bind def
/ita {/ang 15 def gsave [1 0 ang dup sin exch cos div 1 0 0] concat} def 
/mp {newpath /y exch def /x exch def} def
/side {[w .77 mul w .23 mul] .385 w mul sd w 0 l currentpoint t -144 r} def
/mr {mp x y w2 0 360 arc} def /m24 {mr s} def /m20 {mr f} def
/mb {mp x y w2 add m w2 neg 0 d 0 w neg d w 0 d 0 w d cl} def
/mt {mp x y w2 add m w2 neg w neg d w 0 d cl} def
/m21 {mb f} def /m25 {mb s} def /m22 {mt f} def /m26{mt s} def
/m23 {mp x y w2 sub m w2 w d w neg 0 d cl f} def
/m27 {mp x y w2 add m w3 neg w2 neg d w3 w2 neg d w3 w2 d cl s} def
/m28 {mp x w2 sub y w2 sub w3 add m w3 0 d  0 w3 neg d w3 0 d 0 w3 d w3 0 d  0 w3 d w3 neg 0 d 0 w3 d w3 neg 0 d 0 w3 neg d w3 neg 0 d cl s } def
/m29 {mp gsave x w2 sub y w2 add w3 sub m currentpoint t 4 {side} repeat cl fill gr} def
/m30 {mp gsave x w2 sub y w2 add w3 sub m currentpoint t 4 {side} repeat cl s gr} def
/m31 {mp x y w2 sub m 0 w d x w2 sub y m w 0 d x w2 sub y w2 add m w w neg d x w2 sub y w2 sub m w w d s} def
/m32 {mp x y w2 sub m w2 w d w neg 0 d cl s} def
/m33 {mp x y w2 add m w3 neg w2 neg d w3 w2 neg d w3 w2 d cl f} def
/m34 {mp x w2 sub y w2 sub w3 add m w3 0 d  0 w3 neg d w3 0 d 0 w3 d w3 0 d  0 w3 d w3 neg 0 d 0 w3 d w3 neg 0 d 0 w3 neg d w3 neg 0 d cl f } def
/m2 {mp x y w2 sub m 0 w d x w2 sub y m w 0 d s} def
/m5 {mp x w2 sub y w2 sub m w w d x w2 sub y w2 add m w w neg d s} def
/reEncode {exch findfont dup length dict begin {1 index /FID eq  {pop pop} {def} ifelse } forall /Encoding exch def currentdict end dup /FontName get exch definefont pop } def [/Times-Bold /Times-Italic /Times-BoldItalic /Helvetica /Helvetica-Oblique
 /Helvetica-Bold /Helvetica-BoldOblique /Courier /Courier-Oblique /Courier-Bold /Courier-BoldOblique /Times-Roman /AvantGarde-Book /AvantGarde-BookOblique /AvantGarde-Demi /AvantGarde-DemiOblique /Bookman-Demi /Bookman-DemiItalic /Bookman-Light
 /Bookman-LightItalic /Helvetica-Narrow /Helvetica-Narrow-Bold /Helvetica-Narrow-BoldOblique /Helvetica-Narrow-Oblique /NewCenturySchlbk-Roman /NewCenturySchlbk-Bold /NewCenturySchlbk-BoldItalic /NewCenturySchlbk-Italic /Palatino-Bold
 /Palatino-BoldItalic /Palatino-Italic /Palatino-Roman ] {ISOLatin1Encoding reEncode } forall
%%EndProlog
%%BeginSetup
%%EndSetup
newpath  gsave  .25 .25 scale  gsave  0 0 t black[  ] 0 sd 3 lw 1 1 1 c 2268 1538 0 0 bf black 1 1 1 c 2222 738 23 784 bf black 1 1 1 c 2222 739 23 15 bf black 1 1 1 c 2268 1077 0 461 bf black 1 1 1 c 1791 850 363 634 bf black 1791 850 363 634 bl 363
 634 m 1791 X s
 gsave  2268 1077 0 461 C 1642.14 498.507 t 0 r /Helvetica findfont 48.9324 sf 0 0 m (4l Invariant Mass \(GeV\)) show NC gr  473 659 m -25 Y s 546 646 m -12 Y s 619 646 m -12 Y s 692 646 m -12 Y s 765 646 m -12 Y s 838 659 m -25 Y s 911 646 m -12 Y s
 984 646 m -12 Y s 1057 646 m -12 Y s 1131 646 m -12 Y s 1204 659 m -25 Y s 1277 646 m -12 Y s 1350 646 m -12 Y s 1423 646 m -12 Y s 1496 646 m -12 Y s 1569 659 m -25 Y s 1642 646 m -12 Y s 1716 646 m -12 Y s 1789 646 m -12 Y s 1862 646 m -12 Y s
 1935 659 m -25 Y s 473 659 m -25 Y s 399 646 m -12 Y s 1935 659 m -25 Y s 2008 646 m -12 Y s 2081 646 m -12 Y s 2154 646 m -12 Y s
 gsave  2268 1077 0 461 C 417.051 586.478 t 0 r /Helvetica findfont 48.9324 sf 0 0 m (1050) show NC gr 
 gsave  2268 1077 0 461 C 781.971 586.478 t 0 r /Helvetica findfont 48.9324 sf 0 0 m (1100) show NC gr 
 gsave  2268 1077 0 461 C 1146.89 586.478 t 0 r /Helvetica findfont 48.9324 sf 0 0 m (1150) show NC gr 
 gsave  2268 1077 0 461 C 1511.81 586.478 t 0 r /Helvetica findfont 48.9324 sf 0 0 m (1200) show NC gr 
 gsave  2268 1077 0 461 C 1876.73 586.478 t 0 r /Helvetica findfont 48.9324 sf 0 0 m (1250) show NC gr  363 1484 m 1791 X s 473 1459 m 25 Y s 546 1471 m 13 Y s 619 1471 m 13 Y s 692 1471 m 13 Y s 765 1471 m 13 Y s 838 1459 m 25 Y s 911 1471 m 13 Y s
 984 1471 m 13 Y s 1057 1471 m 13 Y s 1131 1471 m 13 Y s 1204 1459 m 25 Y s 1277 1471 m 13 Y s 1350 1471 m 13 Y s 1423 1471 m 13 Y s 1496 1471 m 13 Y s 1569 1459 m 25 Y s 1642 1471 m 13 Y s 1716 1471 m 13 Y s 1789 1471 m 13 Y s 1862 1471 m 13 Y s
 1935 1459 m 25 Y s 473 1459 m 25 Y s 399 1471 m 13 Y s 1935 1459 m 25 Y s 2008 1471 m 13 Y s 2081 1471 m 13 Y s 2154 1471 m 13 Y s 363 634 m 850 Y s
 gsave  2268 1077 0 461 C 120.554 1058.92 t 90 r /Helvetica findfont 48.9324 sf 0 0 m (Events / \( 4.9 GeV \)) show NC gr  390 636 m -27 X s 390 693 m -27 X s 390 733 m -27 X s 390 764 m -27 X s 390 789 m -27 X s 390 810 m -27 X s 390 829 m -27 X s
 390 845 m -27 X s 417 860 m -54 X s
 gsave  2268 1077 0 461 C 342.425 839.25 t 0 r  -55 0 t /Helvetica findfont 48.9324 sf 0 0 m (10) show NC gr  390 957 m -27 X s 390 1013 m -27 X s 390 1053 m -27 X s 390 1084 m -27 X s 390 1110 m -27 X s 390 1131 m -27 X s 390 1150 m -27 X s 390 1166
 m -27 X s 417 1181 m -54 X s
 gsave  2268 1077 0 461 C 322.563 1179.47 t 0 r /Helvetica findfont 32.6216 sf 0 0 m (2) show NC gr 
 gsave  2268 1077 0 461 C 270.432 1159.92 t 0 r /Helvetica findfont 48.9324 sf 0 0 m (10) show NC gr  390 1277 m -27 X s 390 1334 m -27 X s 390 1374 m -27 X s 390 1405 m -27 X s 390 1430 m -27 X s 390 1452 m -27 X s 390 1470 m -27 X s 2154 634 m 850
 Y s 2127 636 m 27 X s 2127 693 m 27 X s 2127 733 m 27 X s 2127 764 m 27 X s 2127 789 m 27 X s 2127 810 m 27 X s 2127 829 m 27 X s 2127 845 m 27 X s 2101 860 m 53 X s 2127 957 m 27 X s 2127 1013 m 27 X s 2127 1053 m 27 X s 2127 1084 m 27 X s 2127
 1110 m 27 X s 2127 1131 m 27 X s 2127 1150 m 27 X s 2127 1166 m 27 X s 2101 1181 m 53 X s 2127 1277 m 27 X s 2127 1334 m 27 X s 2127 1374 m 27 X s 2127 1405 m 27 X s 2127 1430 m 27 X s 2127 1452 m 27 X s 2127 1470 m 27 X s 381 926 m -18 X s 363 926
 m cl s 381 926 m 18 X s 399 926 m cl s 381 926 m 38 Y s 381 964 m cl s 381 926 m -40 Y s 381 886 m cl s 417 860 m -18 X s 399 860 m cl s 417 860 m 17 X s 434 860 m cl s 417 860 m 50 Y s 417 910 m cl s 417 860 m -52 Y s 417 808 m cl s 452 949 m -18 X
 s 434 949 m cl s 452 949 m 18 X s 470 949 m cl s 452 949 m 35 Y s 452 984 m cl s 452 949 m -35 Y s 452 914 m cl s 488 963 m -18 X s 470 963 m cl s 488 963 m 18 X s 506 963 m cl s 488 963 m 34 Y s 488 997 m cl s 488 963 m -34 Y s 488 929 m cl s 524
 949 m -18 X s 506 949 m cl s 524 949 m 18 X s 542 949 m cl s 524 949 m 35 Y s 524 984 m cl s 524 949 m -35 Y s 524 914 m cl s 560 988 m -18 X s 542 988 m cl s 560 988 m 18 X s 578 988 m cl s 560 988 m 30 Y s 560 1018 m cl s 560 988 m -31 Y s 560 957
 m cl s 596 1013 m -18 X s 578 1013 m cl s 596 1013 m 18 X s 614 1013 m cl s 596 1013 m 27 Y s 596 1040 m cl s 596 1013 m -28 Y s 596 985 m cl s 632 1034 m -18 X s 614 1034 m cl s 632 1034 m 17 X s 649 1034 m cl s 632 1034 m 26 Y s 632 1060 m cl s
 632 1034 m -25 Y s 632 1009 m cl s 667 1022 m -18 X s 649 1022 m cl s 667 1022 m 18 X s 685 1022 m cl s 667 1022 m 27 Y s 667 1049 m cl s 667 1022 m -27 Y s 667 995 m cl s 703 998 m -18 X s 685 998 m cl s 703 998 m 18 X s 721 998 m cl s 703 998 m 29
 Y s 703 1027 m cl s 703 998 m -29 Y s 703 969 m cl s 739 1042 m -18 X s 721 1042 m cl s 739 1042 m 18 X s 757 1042 m cl s 739 1042 m 25 Y s 739 1067 m cl s 739 1042 m -25 Y s 739 1017 m cl s 775 1034 m -18 X s 757 1034 m cl s 775 1034 m 18 X s 793
 1034 m cl s 775 1034 m 26 Y s 775 1060 m cl s 775 1034 m -25 Y s 775 1009 m cl s 811 1060 m -18 X s 793 1060 m cl s 811 1060 m 18 X s 829 1060 m cl s 811 1060 m 23 Y s 811 1083 m cl s 811 1060 m -23 Y s 811 1037 m cl s 847 1063 m -18 X s 829 1063 m
 cl s 847 1063 m 17 X s 864 1063 m cl s 847 1063 m 23 Y s 847 1086 m cl s 847 1063 m -23 Y s 847 1040 m cl s 882 1060 m -18 X s 864 1060 m cl s 882 1060 m 18 X s 900 1060 m cl s 882 1060 m 23 Y s 882 1083 m cl s 882 1060 m -23 Y s 882 1037 m cl s 918
 1100 m -18 X s 900 1100 m cl s 918 1100 m 18 X s 936 1100 m cl s 918 1100 m 20 Y s 918 1120 m cl s 918 1100 m -20 Y s 918 1080 m cl s 954 1090 m -18 X s 936 1090 m cl s 954 1090 m 18 X s 972 1090 m cl s 954 1090 m 20 Y s 954 1110 m cl s 954 1090 m
 -21 Y s 954 1069 m cl s 990 1137 m -18 X s 972 1137 m cl s 990 1137 m 18 X s 1008 1137 m cl s 990 1137 m 17 Y s 990 1154 m cl s 990 1137 m -17 Y s 990 1120 m cl s 1026 1125 m -18 X s 1008 1125 m cl s 1026 1125 m 18 X s 1044 1125 m cl s 1026 1125 m
 18 Y s 1026 1143 m cl s 1026 1125 m -18 Y s 1026 1107 m cl s 1062 1139 m -18 X s 1044 1139 m cl s 1062 1139 m 17 X s 1079 1139 m cl s 1062 1139 m 17 Y s 1062 1156 m cl s 1062 1139 m -17 Y s 1062 1122 m cl s 1097 1171 m -18 X s 1079 1171 m cl s 1097
 1171 m 18 X s 1115 1171 m cl s 1097 1171 m 15 Y s 1097 1186 m cl s 1097 1171 m -16 Y s 1097 1155 m cl s 1133 1191 m -18 X s 1115 1191 m cl s 1133 1191 m 18 X s 1151 1191 m cl s 1133 1191 m 14 Y s 1133 1205 m cl s 1133 1191 m -13 Y s 1133 1178 m cl s
 1169 1209 m -18 X s 1151 1209 m cl s 1169 1209 m 18 X s 1187 1209 m cl s 1169 1209 m 13 Y s 1169 1222 m cl s 1169 1209 m -12 Y s 1169 1197 m cl s 1205 1240 m -18 X s 1187 1240 m cl s 1205 1240 m 18 X s 1223 1240 m cl s 1205 1240 m 11 Y s 1205 1251 m
 cl s 1205 1240 m -11 Y s 1205 1229 m cl s 1241 1250 m -18 X s 1223 1250 m cl s 1241 1250 m 18 X s 1259 1250 m cl s 1241 1250 m 10 Y s 1241 1260 m cl s 1241 1250 m -11 Y s 1241 1239 m cl s 1276 1274 m -17 X s 1259 1274 m cl s 1276 1274 m 18 X s 1294
 1274 m cl s 1276 1274 m 10 Y s 1276 1284 m cl s 1276 1274 m -10 Y s 1276 1264 m cl s 1312 1282 m -18 X s 1294 1282 m cl s 1312 1282 m 18 X s 1330 1282 m cl s 1312 1282 m 10 Y s 1312 1292 m cl s 1312 1282 m -10 Y s 1312 1272 m cl s 1348 1316 m -18 X
 s 1330 1316 m cl s 1348 1316 m 18 X s 1366 1316 m cl s 1348 1316 m 8 Y s 1348 1324 m cl s 1348 1316 m -9 Y s 1348 1307 m cl s 1384 1324 m -18 X s 1366 1324 m cl s 1384 1324 m 18 X s 1402 1324 m cl s 1384 1324 m 8 Y s 1384 1332 m cl s 1384 1324 m -8
 Y s 1384 1316 m cl s 1420 1368 m -18 X s 1402 1368 m cl s 1420 1368 m 18 X s 1438 1368 m cl s 1420 1368 m 7 Y s 1420 1375 m cl s 1420 1368 m -8 Y s 1420 1360 m cl s 1456 1370 m -18 X s 1438 1370 m cl s 1456 1370 m 18 X s 1474 1370 m cl s 1456 1370 m
 7 Y s 1456 1377 m cl s 1456 1370 m -7 Y s 1456 1363 m cl s 1491 1405 m -17 X s 1474 1405 m cl s 1491 1405 m 18 X s 1509 1405 m cl s 1491 1405 m 6 Y s 1491 1411 m cl s 1491 1405 m -6 Y s 1491 1399 m cl s 1527 1406 m -18 X s 1509 1406 m cl s 1527 1406
 m 18 X s 1545 1406 m cl s 1527 1406 m 6 Y s 1527 1412 m cl s 1527 1406 m -7 Y s 1527 1399 m cl s 1563 1412 m -18 X s 1545 1412 m cl s 1563 1412 m 18 X s 1581 1412 m cl s 1563 1412 m 6 Y s 1563 1418 m cl s 1563 1412 m -6 Y s 1563 1406 m cl s 1599
 1393 m -18 X s 1581 1393 m cl s 1599 1393 m 18 X s 1617 1393 m cl s 1599 1393 m 7 Y s 1599 1400 m cl s 1599 1393 m -6 Y s 1599 1387 m cl s 1635 1383 m -18 X s 1617 1383 m cl s 1635 1383 m 18 X s 1653 1383 m cl s 1635 1383 m 7 Y s 1635 1390 m cl s
 1635 1383 m -7 Y s 1635 1376 m cl s 1671 1359 m -18 X s 1653 1359 m cl s 1671 1359 m 18 X s 1689 1359 m cl s 1671 1359 m 8 Y s 1671 1367 m cl s 1671 1359 m -7 Y s 1671 1352 m cl s 1706 1339 m -17 X s 1689 1339 m cl s 1706 1339 m 18 X s 1724 1339 m
 cl s 1706 1339 m 7 Y s 1706 1346 m cl s 1706 1339 m -8 Y s 1706 1331 m cl s 1742 1298 m -18 X s 1724 1298 m cl s 1742 1298 m 18 X s 1760 1298 m cl s 1742 1298 m 9 Y s 1742 1307 m cl s 1742 1298 m -9 Y s 1742 1289 m cl s 1778 1279 m -18 X s 1760 1279
 m cl s 1778 1279 m 18 X s 1796 1279 m cl s 1778 1279 m 10 Y s 1778 1289 m cl s 1778 1279 m -10 Y s 1778 1269 m cl s 1814 1240 m -18 X s 1796 1240 m cl s 1814 1240 m 18 X s 1832 1240 m cl s 1814 1240 m 11 Y s 1814 1251 m cl s 1814 1240 m -11 Y s 1814
 1229 m cl s 1850 1211 m -18 X s 1832 1211 m cl s 1850 1211 m 18 X s 1868 1211 m cl s 1850 1211 m 12 Y s 1850 1223 m cl s 1850 1211 m -13 Y s 1850 1198 m cl s 1886 1182 m -18 X s 1868 1182 m cl s 1886 1182 m 18 X s 1904 1182 m cl s 1886 1182 m 14 Y s
 1886 1196 m cl s 1886 1182 m -14 Y s 1886 1168 m cl s 1921 1158 m -17 X s 1904 1158 m cl s 1921 1158 m 18 X s 1939 1158 m cl s 1921 1158 m 16 Y s 1921 1174 m cl s 1921 1158 m -16 Y s 1921 1142 m cl s 1957 1110 m -18 X s 1939 1110 m cl s 1957 1110 m
 18 X s 1975 1110 m cl s 1957 1110 m 19 Y s 1957 1129 m cl s 1957 1110 m -20 Y s 1957 1090 m cl s 1993 1097 m -18 X s 1975 1097 m cl s 1993 1097 m 18 X s 2011 1097 m cl s 1993 1097 m 20 Y s 1993 1117 m cl s 1993 1097 m -20 Y s 1993 1077 m cl s 2029
 1060 m -18 X s 2011 1060 m cl s 2029 1060 m 18 X s 2047 1060 m cl s 2029 1060 m 23 Y s 2029 1083 m cl s 2029 1060 m -23 Y s 2029 1037 m cl s 2065 1038 m -18 X s 2047 1038 m cl s 2065 1038 m 18 X s 2083 1038 m cl s 2065 1038 m 25 Y s 2065 1063 m cl s
 2065 1038 m -25 Y s 2065 1013 m cl s 2101 1030 m -18 X s 2083 1030 m cl s 2101 1030 m 18 X s 2119 1030 m cl s 2101 1030 m 26 Y s 2101 1056 m cl s 2101 1030 m -26 Y s 2101 1004 m cl s 2136 976 m -17 X s 2119 976 m cl s 2136 976 m 18 X s 2154 976 m cl
 s 2136 976 m 32 Y s 2136 1008 m cl s 2136 976 m -32 Y s 2136 944 m cl s /w 31 def /w2 {w 2 div} def /w3 {w 3 div} def 381 926 417 860 452 949 488 963 524 949 560 988 596 1013 632 1034 667 1022 703 998 739 1042 775 1034 811 1060 847 1063 882 1060 918
 1100 954 1090 990 1137 1026 1125 1062 1139 1097 1171 1133 1191 1169 1209 1205 1240 1241 1250 1276 1274 1312 1282 1348 1316 1384 1324 1420 1368 1456 1370 1491 1405 1527 1406 1563 1412 1599 1393 1635 1383 1671 1359 1706 1339 1742 1298 1778 1279 1814
 1240 1850 1211 1886 1182 1921 1158 1957 1110 1993 1097 2029 1060 2065 1038 2101 1030 2136 976 50 { m20} R 0 1 1 c 1 1 0 c black 1 1 0 c 363 940 m 36 9 d 35 9 d 36 10 d 36 9 d 36 10 d 36 10 d 36 10 d 35 10 d 36 11 d 36 10 d 36 11 d 36 12 d 36 11 d 35
 12 d 36 13 d 36 13 d 36 13 d 36 14 d 36 14 d 35 15 d 36 16 d 36 16 d 36 18 d 18 8 d 18 10 d 18 10 d 18 10 d 17 12 d 18 13 d 18 14 d 18 14 d 18 13 d 18 14 d 18 13 d 18 13 d 36 21 d 18 9 d 18 8 d 9 4 d 8 3 d 9 3 d 9 2 d 9 2 d 9 1 d 9 1 d 9 X 9 -1 d 9
 -1 d 9 -2 d 9 -3 d 9 -3 d 9 -3 d 9 -4 d 9 -4 d 18 -10 d 18 -10 d 36 -23 d 17 -13 d 18 -14 d 18 -14 d 18 -14 d 18 -13 d 18 -13 d 18 -12 d 18 -13 d 18 -13 d 18 -13 d 36 -27 d 35 -29 d 36 -30 d 36 -31 d 36 -34 d 36 -36 d 36 -38 d 35 -41 d -69 Y -35 53
 d -36 49 d -36 45 d -36 41 d -36 38 d -36 34 d -35 30 d -36 29 d -18 13 d -18 14 d -18 13 d -18 14 d -18 13 d -18 13 d -18 14 d -18 13 d -18 13 d -17 14 d -36 26 d -18 12 d -18 10 d -9 4 d -9 3 d -9 3 d -9 3 d -9 2 d -9 1 d -9 1 d -9 1 d -18 X -9 -1
 d -9 -1 d -9 -2 d -9 -2 d -8 -3 d -9 -3 d -18 -9 d -18 -11 d -36 -25 d -18 -14 d -18 -13 d -18 -14 d -18 -13 d -18 -13 d -18 -13 d -18 -13 d -17 -11 d -18 -12 d -18 -10 d -18 -10 d -18 -9 d -36 -17 d -36 -16 d -36 -15 d -35 -15 d -36 -14 d -36 -14 d
 -36 -14 d -36 -14 d -36 -14 d -35 -13 d -36 -13 d -36 -12 d -36 -13 d -36 -12 d -36 -12 d -35 -11 d -36 -11 d -36 -12 d -36 -10 d -36 -11 d -36 -10 d -35 -11 d -36 -10 d f 0 1 1 c 0 1 0 c black 0 1 0 c 363 933 m 36 9 d 35 9 d 36 10 d 36 9 d 36 10 d
 36 10 d 36 11 d 35 10 d 36 11 d 36 11 d 36 12 d 36 11 d 36 12 d 35 12 d 36 13 d 36 13 d 36 13 d 36 14 d 36 15 d 35 15 d 36 15 d 36 17 d 36 17 d 18 9 d 18 9 d 18 10 d 18 11 d 17 12 d 18 13 d 18 13 d 18 14 d 18 14 d 18 13 d 18 14 d 18 12 d 36 22 d 18
 10 d 18 8 d 9 4 d 8 3 d 9 3 d 9 2 d 9 1 d 9 1 d 9 1 d 9 X 9 -1 d 9 -1 d 9 -2 d 9 -2 d 9 -3 d 9 -4 d 9 -3 d 9 -5 d 18 -9 d 18 -11 d 36 -24 d 17 -13 d 18 -13 d 18 -14 d 18 -14 d 18 -13 d 18 -13 d 18 -13 d 18 -13 d 18 -12 d 18 -14 d 36 -27 d 35 -29 d
 36 -31 d 36 -33 d 36 -36 d 36 -37 d 36 -40 d 35 -43 d -34 Y -35 48 d -36 46 d -36 42 d -36 39 d -36 36 d -36 33 d -35 30 d -36 28 d -18 13 d -18 14 d -18 13 d -18 13 d -18 13 d -18 14 d -18 13 d -18 14 d -18 13 d -17 14 d -36 25 d -18 11 d -18 10 d
 -9 4 d -9 4 d -9 3 d -9 2 d -9 2 d -9 2 d -9 1 d -9 1 d -18 X -9 -1 d -9 -2 d -9 -1 d -9 -3 d -8 -3 d -9 -3 d -18 -9 d -18 -10 d -36 -24 d -18 -14 d -18 -13 d -18 -14 d -18 -13 d -18 -13 d -18 -13 d -18 -13 d -17 -12 d -18 -11 d -18 -10 d -18 -10 d
 -18 -9 d -36 -17 d -36 -16 d -36 -15 d -35 -15 d -36 -15 d -36 -14 d -36 -14 d -36 -13 d -36 -13 d -35 -13 d -36 -13 d -36 -12 d -36 -12 d -36 -12 d -36 -11 d -35 -11 d -36 -11 d -36 -11 d -36 -10 d -36 -11 d -36 -10 d -35 -10 d -36 -9 d f 0 0 1 c 9
 lw black 0 0 1 c 363 924 m 36 10 d 35 9 d 36 10 d 36 10 d 36 10 d 36 11 d 36 10 d 35 11 d 36 11 d 36 12 d 36 11 d 36 12 d 36 13 d 35 12 d 36 13 d 36 13 d 36 14 d 36 14 d 36 14 d 35 15 d 36 16 d 36 16 d 36 17 d 18 9 d 18 10 d 18 10 d 18 11 d 17 12 d
 18 12 d 18 14 d 18 13 d 18 14 d 18 13 d 18 14 d 18 12 d 36 24 d 18 10 d 18 8 d 9 4 d 8 3 d 9 2 d 9 2 d 9 2 d 9 1 d 18 X 9 -1 d 9 -1 d 9 -2 d 9 -2 d 9 -3 d 9 -3 d 9 -4 d 9 -4 d 18 -9 d 18 -11 d 36 -25 d 17 -13 d 18 -14 d 18 -13 d 18 -14 d 18 -13 d 18
 -13 d 18 -13 d 18 -13 d 18 -13 d 18 -14 d 36 -27 d 35 -30 d 36 -32 d 36 -34 d 36 -37 d 36 -40 d 36 -43 d 35 -45 d s black 3 lw 381 926 m -18 X s 363 926 m cl s 381 926 m 18 X s 399 926 m cl s 381 926 m 38 Y s 381 964 m cl s 381 926 m -40 Y s 381 886
 m cl s 417 860 m -18 X s 399 860 m cl s 417 860 m 17 X s 434 860 m cl s 417 860 m 50 Y s 417 910 m cl s 417 860 m -52 Y s 417 808 m cl s 452 949 m -18 X s 434 949 m cl s 452 949 m 18 X s 470 949 m cl s 452 949 m 35 Y s 452 984 m cl s 452 949 m -35 Y
 s 452 914 m cl s 488 963 m -18 X s 470 963 m cl s 488 963 m 18 X s 506 963 m cl s 488 963 m 34 Y s 488 997 m cl s 488 963 m -34 Y s 488 929 m cl s 524 949 m -18 X s 506 949 m cl s 524 949 m 18 X s 542 949 m cl s 524 949 m 35 Y s 524 984 m cl s 524
 949 m -35 Y s 524 914 m cl s 560 988 m -18 X s 542 988 m cl s 560 988 m 18 X s 578 988 m cl s 560 988 m 30 Y s 560 1018 m cl s 560 988 m -31 Y s 560 957 m cl s 596 1013 m -18 X s 578 1013 m cl s 596 1013 m 18 X s 614 1013 m cl s 596 1013 m 27 Y s
 596 1040 m cl s 596 1013 m -28 Y s 596 985 m cl s 632 1034 m -18 X s 614 1034 m cl s 632 1034 m 17 X s 649 1034 m cl s 632 1034 m 26 Y s 632 1060 m cl s 632 1034 m -25 Y s 632 1009 m cl s 667 1022 m -18 X s 649 1022 m cl s 667 1022 m 18 X s 685 1022
 m cl s 667 1022 m 27 Y s 667 1049 m cl s 667 1022 m -27 Y s 667 995 m cl s 703 998 m -18 X s 685 998 m cl s 703 998 m 18 X s 721 998 m cl s 703 998 m 29 Y s 703 1027 m cl s 703 998 m -29 Y s 703 969 m cl s 739 1042 m -18 X s 721 1042 m cl s 739 1042
 m 18 X s 757 1042 m cl s 739 1042 m 25 Y s 739 1067 m cl s 739 1042 m -25 Y s 739 1017 m cl s 775 1034 m -18 X s 757 1034 m cl s 775 1034 m 18 X s 793 1034 m cl s 775 1034 m 26 Y s 775 1060 m cl s 775 1034 m -25 Y s 775 1009 m cl s 811 1060 m -18 X
 s 793 1060 m cl s 811 1060 m 18 X s 829 1060 m cl s 811 1060 m 23 Y s 811 1083 m cl s 811 1060 m -23 Y s 811 1037 m cl s 847 1063 m -18 X s 829 1063 m cl s 847 1063 m 17 X s 864 1063 m cl s 847 1063 m 23 Y s 847 1086 m cl s 847 1063 m -23 Y s 847
 1040 m cl s 882 1060 m -18 X s 864 1060 m cl s 882 1060 m 18 X s 900 1060 m cl s 882 1060 m 23 Y s 882 1083 m cl s 882 1060 m -23 Y s 882 1037 m cl s 918 1100 m -18 X s 900 1100 m cl s 918 1100 m 18 X s 936 1100 m cl s 918 1100 m 20 Y s 918 1120 m
 cl s 918 1100 m -20 Y s 918 1080 m cl s 954 1090 m -18 X s 936 1090 m cl s 954 1090 m 18 X s 972 1090 m cl s 954 1090 m 20 Y s 954 1110 m cl s 954 1090 m -21 Y s 954 1069 m cl s 990 1137 m -18 X s 972 1137 m cl s 990 1137 m 18 X s 1008 1137 m cl s
 990 1137 m 17 Y s 990 1154 m cl s 990 1137 m -17 Y s 990 1120 m cl s 1026 1125 m -18 X s 1008 1125 m cl s 1026 1125 m 18 X s 1044 1125 m cl s 1026 1125 m 18 Y s 1026 1143 m cl s 1026 1125 m -18 Y s 1026 1107 m cl s 1062 1139 m -18 X s 1044 1139 m cl
 s 1062 1139 m 17 X s 1079 1139 m cl s 1062 1139 m 17 Y s 1062 1156 m cl s 1062 1139 m -17 Y s 1062 1122 m cl s 1097 1171 m -18 X s 1079 1171 m cl s 1097 1171 m 18 X s 1115 1171 m cl s 1097 1171 m 15 Y s 1097 1186 m cl s 1097 1171 m -16 Y s 1097 1155
 m cl s 1133 1191 m -18 X s 1115 1191 m cl s 1133 1191 m 18 X s 1151 1191 m cl s 1133 1191 m 14 Y s 1133 1205 m cl s 1133 1191 m -13 Y s 1133 1178 m cl s 1169 1209 m -18 X s 1151 1209 m cl s 1169 1209 m 18 X s 1187 1209 m cl s 1169 1209 m 13 Y s 1169
 1222 m cl s 1169 1209 m -12 Y s 1169 1197 m cl s 1205 1240 m -18 X s 1187 1240 m cl s 1205 1240 m 18 X s 1223 1240 m cl s 1205 1240 m 11 Y s 1205 1251 m cl s 1205 1240 m -11 Y s 1205 1229 m cl s 1241 1250 m -18 X s 1223 1250 m cl s 1241 1250 m 18 X
 s 1259 1250 m cl s 1241 1250 m 10 Y s 1241 1260 m cl s 1241 1250 m -11 Y s 1241 1239 m cl s 1276 1274 m -17 X s 1259 1274 m cl s 1276 1274 m 18 X s 1294 1274 m cl s 1276 1274 m 10 Y s 1276 1284 m cl s 1276 1274 m -10 Y s 1276 1264 m cl s 1312 1282 m
 -18 X s 1294 1282 m cl s 1312 1282 m 18 X s 1330 1282 m cl s 1312 1282 m 10 Y s 1312 1292 m cl s 1312 1282 m -10 Y s 1312 1272 m cl s 1348 1316 m -18 X s 1330 1316 m cl s 1348 1316 m 18 X s 1366 1316 m cl s 1348 1316 m 8 Y s 1348 1324 m cl s 1348
 1316 m -9 Y s 1348 1307 m cl s 1384 1324 m -18 X s 1366 1324 m cl s 1384 1324 m 18 X s 1402 1324 m cl s 1384 1324 m 8 Y s 1384 1332 m cl s 1384 1324 m -8 Y s 1384 1316 m cl s 1420 1368 m -18 X s 1402 1368 m cl s 1420 1368 m 18 X s 1438 1368 m cl s
 1420 1368 m 7 Y s 1420 1375 m cl s 1420 1368 m -8 Y s 1420 1360 m cl s 1456 1370 m -18 X s 1438 1370 m cl s 1456 1370 m 18 X s 1474 1370 m cl s 1456 1370 m 7 Y s 1456 1377 m cl s 1456 1370 m -7 Y s 1456 1363 m cl s 1491 1405 m -17 X s 1474 1405 m cl
 s 1491 1405 m 18 X s 1509 1405 m cl s 1491 1405 m 6 Y s 1491 1411 m cl s 1491 1405 m -6 Y s 1491 1399 m cl s 1527 1406 m -18 X s 1509 1406 m cl s 1527 1406 m 18 X s 1545 1406 m cl s 1527 1406 m 6 Y s 1527 1412 m cl s 1527 1406 m -7 Y s 1527 1399 m
 cl s 1563 1412 m -18 X s 1545 1412 m cl s 1563 1412 m 18 X s 1581 1412 m cl s 1563 1412 m 6 Y s 1563 1418 m cl s 1563 1412 m -6 Y s 1563 1406 m cl s 1599 1393 m -18 X s 1581 1393 m cl s 1599 1393 m 18 X s 1617 1393 m cl s 1599 1393 m 7 Y s 1599 1400
 m cl s 1599 1393 m -6 Y s 1599 1387 m cl s 1635 1383 m -18 X s 1617 1383 m cl s 1635 1383 m 18 X s 1653 1383 m cl s 1635 1383 m 7 Y s 1635 1390 m cl s 1635 1383 m -7 Y s 1635 1376 m cl s 1671 1359 m -18 X s 1653 1359 m cl s 1671 1359 m 18 X s 1689
 1359 m cl s 1671 1359 m 8 Y s 1671 1367 m cl s 1671 1359 m -7 Y s 1671 1352 m cl s 1706 1339 m -17 X s 1689 1339 m cl s 1706 1339 m 18 X s 1724 1339 m cl s 1706 1339 m 7 Y s 1706 1346 m cl s 1706 1339 m -8 Y s 1706 1331 m cl s 1742 1298 m -18 X s
 1724 1298 m cl s 1742 1298 m 18 X s 1760 1298 m cl s 1742 1298 m 9 Y s 1742 1307 m cl s 1742 1298 m -9 Y s 1742 1289 m cl s 1778 1279 m -18 X s 1760 1279 m cl s 1778 1279 m 18 X s 1796 1279 m cl s 1778 1279 m 10 Y s 1778 1289 m cl s 1778 1279 m -10
 Y s 1778 1269 m cl s 1814 1240 m -18 X s 1796 1240 m cl s 1814 1240 m 18 X s 1832 1240 m cl s 1814 1240 m 11 Y s 1814 1251 m cl s 1814 1240 m -11 Y s 1814 1229 m cl s 1850 1211 m -18 X s 1832 1211 m cl s 1850 1211 m 18 X s 1868 1211 m cl s 1850 1211
 m 12 Y s 1850 1223 m cl s 1850 1211 m -13 Y s 1850 1198 m cl s 1886 1182 m -18 X s 1868 1182 m cl s 1886 1182 m 18 X s 1904 1182 m cl s 1886 1182 m 14 Y s 1886 1196 m cl s 1886 1182 m -14 Y s 1886 1168 m cl s 1921 1158 m -17 X s 1904 1158 m cl s
 1921 1158 m 18 X s 1939 1158 m cl s 1921 1158 m 16 Y s 1921 1174 m cl s 1921 1158 m -16 Y s 1921 1142 m cl s 1957 1110 m -18 X s 1939 1110 m cl s 1957 1110 m 18 X s 1975 1110 m cl s 1957 1110 m 19 Y s 1957 1129 m cl s 1957 1110 m -20 Y s 1957 1090 m
 cl s 1993 1097 m -18 X s 1975 1097 m cl s 1993 1097 m 18 X s 2011 1097 m cl s 1993 1097 m 20 Y s 1993 1117 m cl s 1993 1097 m -20 Y s 1993 1077 m cl s 2029 1060 m -18 X s 2011 1060 m cl s 2029 1060 m 18 X s 2047 1060 m cl s 2029 1060 m 23 Y s 2029
 1083 m cl s 2029 1060 m -23 Y s 2029 1037 m cl s 2065 1038 m -18 X s 2047 1038 m cl s 2065 1038 m 18 X s 2083 1038 m cl s 2065 1038 m 25 Y s 2065 1063 m cl s 2065 1038 m -25 Y s 2065 1013 m cl s 2101 1030 m -18 X s 2083 1030 m cl s 2101 1030 m 18 X
 s 2119 1030 m cl s 2101 1030 m 26 Y s 2101 1056 m cl s 2101 1030 m -26 Y s 2101 1004 m cl s 2136 976 m -17 X s 2119 976 m cl s 2136 976 m 18 X s 2154 976 m cl s 2136 976 m 32 Y s 2136 1008 m cl s 2136 976 m -32 Y s 2136 944 m cl s 381 926 417 860
 452 949 488 963 524 949 560 988 596 1013 632 1034 667 1022 703 998 739 1042 775 1034 811 1060 847 1063 882 1060 918 1100 954 1090 990 1137 1026 1125 1062 1139 1097 1171 1133 1191 1169 1209 1205 1240 1241 1250 1276 1274 1312 1282 1348 1316 1384 1324
 1420 1368 1456 1370 1491 1405 1527 1406 1563 1412 1599 1393 1635 1383 1671 1359 1706 1339 1742 1298 1778 1279 1814 1240 1850 1211 1886 1182 1921 1158 1957 1110 1993 1097 2029 1060 2065 1038 2101 1030 2136 976 50 { m20} R 0.52 0.76 0.64 c[ 4 8] 0 sd
 9 lw black 0.52 0.76 0.64 c 363 924 m 36 10 d 35 9 d 36 10 d 36 10 d 36 10 d 36 11 d 36 10 d 35 11 d 36 11 d 36 12 d 36 11 d 36 12 d 36 13 d 35 12 d 36 13 d 36 13 d 36 14 d 36 14 d 36 14 d 35 15 d 36 15 d 36 16 d 36 17 d 18 8 d 18 9 d 18 8 d 18 9 d
 17 9 d 18 9 d 36 17 d 36 15 d 18 6 d 18 5 d 18 5 d 18 4 d 18 4 d 18 3 d 17 2 d 18 1 d 18 1 d 36 X 18 -2 d 18 -2 d 18 -2 d 18 -4 d 18 -4 d 18 -4 d 18 -6 d 17 -6 d 18 -6 d 36 -16 d 36 -18 d 36 -21 d 36 -23 d 36 -26 d 17 -14 d 18 -15 d 18 -16 d 18 -16
 d 18 -17 d 18 -17 d 18 -19 d 18 -18 d 18 -20 d 18 -20 d 36 -43 d 35 -45 d s 0.54 0.66 0.63 c black 0.54 0.66 0.63 c 1209 634 m 14 57 d s 1223 691 m 18 67 d 18 63 d 17 59 d 18 56 d 9 26 d 9 25 d 9 24 d 9 24 d 9 22 d 9 21 d 9 21 d 9 19 d 9 18 d 9 18 d
 9 16 d 9 16 d 18 28 d 18 24 d 18 20 d 9 8 d 9 8 d 9 7 d 8 5 d 9 5 d 9 4 d 9 2 d 9 2 d 9 1 d 9 -1 d 9 -1 d 9 -2 d 9 -3 d 9 -4 d 9 -5 d 9 -6 d 9 -8 d 9 -8 d 18 -19 d 18 -23 d 18 -27 d 9 -14 d 9 -16 d 8 -17 d 9 -18 d 9 -19 d 9 -20 d 9 -21 d 9 -21 d 9
 -23 d 9 -24 d 9 -25 d 9 -25 d 9 -27 d 9 -28 d 18 -58 d 18 -62 d 18 -66 d 18 -70 d 1 -5 d s black[  ] 0 sd 3 lw 363 634 m 1791 X s 473 659 m -25 Y s 546 646 m -12 Y s 619 646 m -12 Y s 692 646 m -12 Y s 765 646 m -12 Y s 838 659 m -25 Y s 911 646 m
 -12 Y s 984 646 m -12 Y s 1057 646 m -12 Y s 1131 646 m -12 Y s 1204 659 m -25 Y s 1277 646 m -12 Y s 1350 646 m -12 Y s 1423 646 m -12 Y s 1496 646 m -12 Y s 1569 659 m -25 Y s 1642 646 m -12 Y s 1716 646 m -12 Y s 1789 646 m -12 Y s 1862 646 m -12
 Y s 1935 659 m -25 Y s 473 659 m -25 Y s 399 646 m -12 Y s 1935 659 m -25 Y s 2008 646 m -12 Y s 2081 646 m -12 Y s 2154 646 m -12 Y s 363 1484 m 1791 X s 473 1459 m 25 Y s 546 1471 m 13 Y s 619 1471 m 13 Y s 692 1471 m 13 Y s 765 1471 m 13 Y s 838
 1459 m 25 Y s 911 1471 m 13 Y s 984 1471 m 13 Y s 1057 1471 m 13 Y s 1131 1471 m 13 Y s 1204 1459 m 25 Y s 1277 1471 m 13 Y s 1350 1471 m 13 Y s 1423 1471 m 13 Y s 1496 1471 m 13 Y s 1569 1459 m 25 Y s 1642 1471 m 13 Y s 1716 1471 m 13 Y s 1789 1471
 m 13 Y s 1862 1471 m 13 Y s 1935 1459 m 25 Y s 473 1459 m 25 Y s 399 1471 m 13 Y s 1935 1459 m 25 Y s 2008 1471 m 13 Y s 2081 1471 m 13 Y s 2154 1471 m 13 Y s 363 634 m 850 Y s 390 636 m -27 X s 390 693 m -27 X s 390 733 m -27 X s 390 764 m -27 X s
 390 789 m -27 X s 390 810 m -27 X s 390 829 m -27 X s 390 845 m -27 X s 417 860 m -54 X s 390 957 m -27 X s 390 1013 m -27 X s 390 1053 m -27 X s 390 1084 m -27 X s 390 1110 m -27 X s 390 1131 m -27 X s 390 1150 m -27 X s 390 1166 m -27 X s 417 1181
 m -54 X s 390 1277 m -27 X s 390 1334 m -27 X s 390 1374 m -27 X s 390 1405 m -27 X s 390 1430 m -27 X s 390 1452 m -27 X s 390 1470 m -27 X s 2154 634 m 850 Y s 2127 636 m 27 X s 2127 693 m 27 X s 2127 733 m 27 X s 2127 764 m 27 X s 2127 789 m 27 X
 s 2127 810 m 27 X s 2127 829 m 27 X s 2127 845 m 27 X s 2101 860 m 53 X s 2127 957 m 27 X s 2127 1013 m 27 X s 2127 1053 m 27 X s 2127 1084 m 27 X s 2127 1110 m 27 X s 2127 1131 m 27 X s 2127 1150 m 27 X s 2127 1166 m 27 X s 2101 1181 m 53 X s 2127
 1277 m 27 X s 2127 1334 m 27 X s 2127 1374 m 27 X s 2127 1405 m 27 X s 2127 1430 m 27 X s 2127 1452 m 27 X s 2127 1470 m 27 X s
 gsave  2268 1077 0 461 C 677.708 1215.31 t 0 r /Helvetica findfont 58.7189 sf 0 0 m (4mu) show NC gr  1 1 1 c 453 161 454 1269 bf black
 gsave  2268 1077 0 461 C 566.929 1371.71 t 0 r /Helvetica-Bold findfont 48.9324 sf 0 0 m (MC15) show NC gr  510 1390 m20
 gsave  2268 1077 0 461 C 566.929 1293.51 t 0 r /Helvetica-Bold findfont 48.9324 sf 0 0 m (Projection of Signal pdf) show NC gr  0 0 1 c 9 lw 471 1309 m 79 X s black 3 lw 1 1 1 c 2268 461 0 0 bf black 1 1 1 c 1791 364 363 74 bf black 1791 364 363 74
 bl 363 74 m 1791 X s
 gsave  2268 461 0 0 C 1915.83 13.0329 t 0 r /Helvetica findfont 22.9045 sf 0 0 m (4l Invariant Mass \(GeV\)) show NC gr  473 85 m -11 Y s 546 79 m -5 Y s 619 79 m -5 Y s 692 79 m -5 Y s 765 79 m -5 Y s 838 85 m -11 Y s 911 79 m -5 Y s 984 79 m -5 Y
 s 1057 79 m -5 Y s 1131 79 m -5 Y s 1204 85 m -11 Y s 1277 79 m -5 Y s 1350 79 m -5 Y s 1423 79 m -5 Y s 1496 79 m -5 Y s 1569 85 m -11 Y s 1642 79 m -5 Y s 1716 79 m -5 Y s 1789 79 m -5 Y s 1862 79 m -5 Y s 1935 85 m -11 Y s 473 85 m -11 Y s 399 79
 m -5 Y s 1935 85 m -11 Y s 2008 79 m -5 Y s 2081 79 m -5 Y s 2154 79 m -5 Y s
 gsave  2268 461 0 0 C 446.375 55.3896 t 0 r /Helvetica findfont 22.9045 sf 0 0 m (1050) show NC gr 
 gsave  2268 461 0 0 C 811.295 55.3896 t 0 r /Helvetica findfont 22.9045 sf 0 0 m (1100) show NC gr 
 gsave  2268 461 0 0 C 1176.22 55.3896 t 0 r /Helvetica findfont 22.9045 sf 0 0 m (1150) show NC gr 
 gsave  2268 461 0 0 C 1541.13 55.3896 t 0 r /Helvetica findfont 22.9045 sf 0 0 m (1200) show NC gr 
 gsave  2268 461 0 0 C 1906.05 55.3896 t 0 r /Helvetica findfont 22.9045 sf 0 0 m (1250) show NC gr  363 438 m 1791 X s 473 427 m 11 Y s 546 433 m 5 Y s 619 433 m 5 Y s 692 433 m 5 Y s 765 433 m 5 Y s 838 427 m 11 Y s 911 433 m 5 Y s 984 433 m 5 Y s
 1057 433 m 5 Y s 1131 433 m 5 Y s 1204 427 m 11 Y s 1277 433 m 5 Y s 1350 433 m 5 Y s 1423 433 m 5 Y s 1496 433 m 5 Y s 1569 427 m 11 Y s 1642 433 m 5 Y s 1716 433 m 5 Y s 1789 433 m 5 Y s 1862 433 m 5 Y s 1935 427 m 11 Y s 473 427 m 11 Y s 399 433
 m 5 Y s 1935 427 m 11 Y s 2008 433 m 5 Y s 2081 433 m 5 Y s 2154 433 m 5 Y s 363 74 m 364 Y s 417 74 m -54 X s 390 81 m -27 X s 390 88 m -27 X s 390 96 m -27 X s 390 103 m -27 X s 417 110 m -54 X s 390 118 m -27 X s 390 125 m -27 X s 390 132 m -27 X
 s 390 139 m -27 X s 417 147 m -54 X s 390 154 m -27 X s 390 161 m -27 X s 390 169 m -27 X s 390 176 m -27 X s 417 183 m -54 X s 390 190 m -27 X s 390 198 m -27 X s 390 205 m -27 X s 390 212 m -27 X s 417 220 m -54 X s 390 227 m -27 X s 390 234 m -27
 X s 390 241 m -27 X s 390 249 m -27 X s 417 256 m -54 X s 390 263 m -27 X s 390 271 m -27 X s 390 278 m -27 X s 390 285 m -27 X s 417 293 m -54 X s 390 300 m -27 X s 390 307 m -27 X s 390 314 m -27 X s 390 322 m -27 X s 417 329 m -54 X s 390 336 m
 -27 X s 390 344 m -27 X s 390 351 m -27 X s 390 358 m -27 X s 417 365 m -54 X s 390 373 m -27 X s 390 380 m -27 X s 390 387 m -27 X s 390 395 m -27 X s 417 402 m -54 X s 390 409 m -27 X s 390 416 m -27 X s 390 424 m -27 X s 390 431 m -27 X s 417 438
 m -54 X s
 gsave  2268 461 0 0 C 329.08 65.1643 t 0 r /Helvetica findfont 22.9045 sf 0 0 m (\2555) show NC gr 
 gsave  2268 461 0 0 C 329.08 101.005 t 0 r /Helvetica findfont 22.9045 sf 0 0 m (\2554) show NC gr 
 gsave  2268 461 0 0 C 329.08 140.103 t 0 r /Helvetica findfont 22.9045 sf 0 0 m (\2553) show NC gr 
 gsave  2268 461 0 0 C 329.08 175.944 t 0 r /Helvetica findfont 22.9045 sf 0 0 m (\2552) show NC gr 
 gsave  2268 461 0 0 C 332.338 211.784 t 0 r /Helvetica findfont 22.9045 sf 0 0 m (\2551) show NC gr 
 gsave  2268 461 0 0 C 335.596 247.624 t 0 r /Helvetica findfont 22.9045 sf 0 0 m (0) show NC gr 
 gsave  2268 461 0 0 C 338.854 283.465 t 0 r /Helvetica findfont 22.9045 sf 0 0 m (1) show NC gr 
 gsave  2268 461 0 0 C 335.596 319.305 t 0 r /Helvetica findfont 22.9045 sf 0 0 m (2) show NC gr 
 gsave  2268 461 0 0 C 335.596 358.403 t 0 r /Helvetica findfont 22.9045 sf 0 0 m (3) show NC gr 
 gsave  2268 461 0 0 C 335.596 394.244 t 0 r /Helvetica findfont 22.9045 sf 0 0 m (4) show NC gr 
 gsave  2268 461 0 0 C 335.596 430.084 t 0 r /Helvetica findfont 22.9045 sf 0 0 m (5) show NC gr  2154 74 m 364 Y s 2101 74 m 53 X s 2127 81 m 27 X s 2127 88 m 27 X s 2127 96 m 27 X s 2127 103 m 27 X s 2101 110 m 53 X s 2127 118 m 27 X s 2127 125 m
 27 X s 2127 132 m 27 X s 2127 139 m 27 X s 2101 147 m 53 X s 2127 154 m 27 X s 2127 161 m 27 X s 2127 169 m 27 X s 2127 176 m 27 X s 2101 183 m 53 X s 2127 190 m 27 X s 2127 198 m 27 X s 2127 205 m 27 X s 2127 212 m 27 X s 2101 220 m 53 X s 2127 227
 m 27 X s 2127 234 m 27 X s 2127 241 m 27 X s 2127 249 m 27 X s 2101 256 m 53 X s 2127 263 m 27 X s 2127 271 m 27 X s 2127 278 m 27 X s 2127 285 m 27 X s 2101 293 m 53 X s 2127 300 m 27 X s 2127 307 m 27 X s 2127 314 m 27 X s 2127 322 m 27 X s 2101
 329 m 53 X s 2127 336 m 27 X s 2127 344 m 27 X s 2127 351 m 27 X s 2127 358 m 27 X s 2101 365 m 53 X s 2127 373 m 27 X s 2127 380 m 27 X s 2127 387 m 27 X s 2127 395 m 27 X s 2101 402 m 53 X s 2127 409 m 27 X s 2127 416 m 27 X s 2127 424 m 27 X s
 2127 431 m 27 X s 2101 438 m 53 X s 6 lw 0.2 0.8 0.2 c black 3 lw 0.2 0.8 0.2 c 363 256 m -3 Y 36 X -62 Y 35 X 66 Y 36 X 5 Y 36 X -24 Y 36 X 30 Y 36 X 20 Y 36 X 16 Y 35 X -32 Y 36 X -45 Y 36 X 42 Y 36 X -28 Y 36 X 19 Y 36 X -14 Y 35 X -26 Y 36 X 44
 Y 36 X -43 Y 36 X 64 Y 36 X -54 Y 36 X -3 Y 35 X 37 Y 36 X 14 Y 36 X 6 Y 36 X 42 Y 36 X -29 Y 36 X 9 Y 35 X -64 Y 36 X 27 Y 36 X -84 Y 36 X 85 Y 36 X -98 Y 36 X 111 Y 35 X -39 Y 36 X 46 Y 36 X -49 Y 36 X 38 Y 36 X -7 Y 36 X 24 Y 35 X -60 Y 36 X 32 Y
 36 X -44 Y 36 X -7 Y 36 X -2 Y 36 X 16 Y 35 X -32 Y 36 X 43 Y 36 X -1 Y 36 X 25 Y 36 X 43 Y 36 X -20 Y 35 X -34 Y f 6 lw black 0.2 0.8 0.2 c black 363 253 m 36 X -62 Y 35 X 66 Y 36 X 5 Y 36 X -24 Y 36 X 30 Y 36 X 20 Y 36 X 16 Y 35 X -32 Y 36 X -45 Y
 36 X 42 Y 36 X -28 Y 36 X 19 Y 36 X -14 Y 35 X -26 Y 36 X 44 Y 36 X -43 Y 36 X 64 Y 36 X -54 Y 36 X -3 Y 35 X 37 Y 36 X 14 Y 36 X 6 Y 36 X 42 Y 36 X -29 Y 36 X 9 Y 35 X -64 Y 36 X 27 Y 36 X -84 Y 36 X 85 Y 36 X -98 Y 36 X 111 Y 35 X -39 Y 36 X 46 Y
 36 X -49 Y 36 X 38 Y 36 X -7 Y 36 X 24 Y 35 X -60 Y 36 X 32 Y 36 X -44 Y 36 X -7 Y 36 X -2 Y 36 X 16 Y 35 X -32 Y 36 X 43 Y 36 X -1 Y 36 X 25 Y 36 X 43 Y 36 X -20 Y 35 X s 3 lw 363 74 m 1791 X s 473 85 m -11 Y s 546 79 m -5 Y s 619 79 m -5 Y s 692
 79 m -5 Y s 765 79 m -5 Y s 838 85 m -11 Y s 911 79 m -5 Y s 984 79 m -5 Y s 1057 79 m -5 Y s 1131 79 m -5 Y s 1204 85 m -11 Y s 1277 79 m -5 Y s 1350 79 m -5 Y s 1423 79 m -5 Y s 1496 79 m -5 Y s 1569 85 m -11 Y s 1642 79 m -5 Y s 1716 79 m -5 Y s
 1789 79 m -5 Y s 1862 79 m -5 Y s 1935 85 m -11 Y s 473 85 m -11 Y s 399 79 m -5 Y s 1935 85 m -11 Y s 2008 79 m -5 Y s 2081 79 m -5 Y s 2154 79 m -5 Y s 363 438 m 1791 X s 473 427 m 11 Y s 546 433 m 5 Y s 619 433 m 5 Y s 692 433 m 5 Y s 765 433 m 5
 Y s 838 427 m 11 Y s 911 433 m 5 Y s 984 433 m 5 Y s 1057 433 m 5 Y s 1131 433 m 5 Y s 1204 427 m 11 Y s 1277 433 m 5 Y s 1350 433 m 5 Y s 1423 433 m 5 Y s 1496 433 m 5 Y s 1569 427 m 11 Y s 1642 433 m 5 Y s 1716 433 m 5 Y s 1789 433 m 5 Y s 1862
 433 m 5 Y s 1935 427 m 11 Y s 473 427 m 11 Y s 399 433 m 5 Y s 1935 427 m 11 Y s 2008 433 m 5 Y s 2081 433 m 5 Y s 2154 433 m 5 Y s 363 74 m 364 Y s 417 74 m -54 X s 390 81 m -27 X s 390 88 m -27 X s 390 96 m -27 X s 390 103 m -27 X s 417 110 m -54
 X s 390 118 m -27 X s 390 125 m -27 X s 390 132 m -27 X s 390 139 m -27 X s 417 147 m -54 X s 390 154 m -27 X s 390 161 m -27 X s 390 169 m -27 X s 390 176 m -27 X s 417 183 m -54 X s 390 190 m -27 X s 390 198 m -27 X s 390 205 m -27 X s 390 212 m
 -27 X s 417 220 m -54 X s 390 227 m -27 X s 390 234 m -27 X s 390 241 m -27 X s 390 249 m -27 X s 417 256 m -54 X s 390 263 m -27 X s 390 271 m -27 X s 390 278 m -27 X s 390 285 m -27 X s 417 293 m -54 X s 390 300 m -27 X s 390 307 m -27 X s 390 314
 m -27 X s 390 322 m -27 X s 417 329 m -54 X s 390 336 m -27 X s 390 344 m -27 X s 390 351 m -27 X s 390 358 m -27 X s 417 365 m -54 X s 390 373 m -27 X s 390 380 m -27 X s 390 387 m -27 X s 390 395 m -27 X s 417 402 m -54 X s 390 409 m -27 X s 390
 416 m -27 X s 390 424 m -27 X s 390 431 m -27 X s 417 438 m -54 X s 2154 74 m 364 Y s 2101 74 m 53 X s 2127 81 m 27 X s 2127 88 m 27 X s 2127 96 m 27 X s 2127 103 m 27 X s 2101 110 m 53 X s 2127 118 m 27 X s 2127 125 m 27 X s 2127 132 m 27 X s 2127
 139 m 27 X s 2101 147 m 53 X s 2127 154 m 27 X s 2127 161 m 27 X s 2127 169 m 27 X s 2127 176 m 27 X s 2101 183 m 53 X s 2127 190 m 27 X s 2127 198 m 27 X s 2127 205 m 27 X s 2127 212 m 27 X s 2101 220 m 53 X s 2127 227 m 27 X s 2127 234 m 27 X s
 2127 241 m 27 X s 2127 249 m 27 X s 2101 256 m 53 X s 2127 263 m 27 X s 2127 271 m 27 X s 2127 278 m 27 X s 2127 285 m 27 X s 2101 293 m 53 X s 2127 300 m 27 X s 2127 307 m 27 X s 2127 314 m 27 X s 2127 322 m 27 X s 2101 329 m 53 X s 2127 336 m 27 X
 s 2127 344 m 27 X s 2127 351 m 27 X s 2127 358 m 27 X s 2101 365 m 53 X s 2127 373 m 27 X s 2127 380 m 27 X s 2127 387 m 27 X s 2127 395 m 27 X s 2101 402 m 53 X s 2127 409 m 27 X s 2127 416 m 27 X s 2127 424 m 27 X s 2127 431 m 27 X s 2101 438 m 53
 X s
 gr  gr showpage
end
%%EOF
