%!PS-Adobe-2.0 EPSF-2.0
%%BoundingBox:  0 0 567 384
%%Title: H4l2015_plotfit/gg_mass_signal_1000_H4l_4e.eps: 
%%Creator: ROOT Version 5.34/10
%%CreationDate: Thu Feb 16 13:49:35 2017
%%EndComments
%%BeginProlog
80 dict begin
/s {stroke} def /l {lineto} def /m {moveto} def /t {translate} def
/r {rotate} def /rl {roll}  def /R {repeat} def
/d {rlineto} def /rm {rmoveto} def /gr {grestore} def /f {eofill} def
/c {setrgbcolor} def /black {0 setgray} def /sd {setdash} def
/cl {closepath} def /sf {scalefont setfont} def /lw {setlinewidth} def
/box {m dup 0 exch d exch 0 d 0 exch neg d cl} def
/NC{systemdict begin initclip end}def/C{NC box clip newpath}def
/bl {box s} def /bf {box f} def /Y { 0 exch d} def /X { 0 d} def 
/K {{pop pop 0 moveto} exch kshow} bind def
/ita {/ang 15 def gsave [1 0 ang dup sin exch cos div 1 0 0] concat} def 
/mp {newpath /y exch def /x exch def} def
/side {[w .77 mul w .23 mul] .385 w mul sd w 0 l currentpoint t -144 r} def
/mr {mp x y w2 0 360 arc} def /m24 {mr s} def /m20 {mr f} def
/mb {mp x y w2 add m w2 neg 0 d 0 w neg d w 0 d 0 w d cl} def
/mt {mp x y w2 add m w2 neg w neg d w 0 d cl} def
/m21 {mb f} def /m25 {mb s} def /m22 {mt f} def /m26{mt s} def
/m23 {mp x y w2 sub m w2 w d w neg 0 d cl f} def
/m27 {mp x y w2 add m w3 neg w2 neg d w3 w2 neg d w3 w2 d cl s} def
/m28 {mp x w2 sub y w2 sub w3 add m w3 0 d  0 w3 neg d w3 0 d 0 w3 d w3 0 d  0 w3 d w3 neg 0 d 0 w3 d w3 neg 0 d 0 w3 neg d w3 neg 0 d cl s } def
/m29 {mp gsave x w2 sub y w2 add w3 sub m currentpoint t 4 {side} repeat cl fill gr} def
/m30 {mp gsave x w2 sub y w2 add w3 sub m currentpoint t 4 {side} repeat cl s gr} def
/m31 {mp x y w2 sub m 0 w d x w2 sub y m w 0 d x w2 sub y w2 add m w w neg d x w2 sub y w2 sub m w w d s} def
/m32 {mp x y w2 sub m w2 w d w neg 0 d cl s} def
/m33 {mp x y w2 add m w3 neg w2 neg d w3 w2 neg d w3 w2 d cl f} def
/m34 {mp x w2 sub y w2 sub w3 add m w3 0 d  0 w3 neg d w3 0 d 0 w3 d w3 0 d  0 w3 d w3 neg 0 d 0 w3 d w3 neg 0 d 0 w3 neg d w3 neg 0 d cl f } def
/m2 {mp x y w2 sub m 0 w d x w2 sub y m w 0 d s} def
/m5 {mp x w2 sub y w2 sub m w w d x w2 sub y w2 add m w w neg d s} def
/reEncode {exch findfont dup length dict begin {1 index /FID eq  {pop pop} {def} ifelse } forall /Encoding exch def currentdict end dup /FontName get exch definefont pop } def [/Times-Bold /Times-Italic /Times-BoldItalic /Helvetica /Helvetica-Oblique
 /Helvetica-Bold /Helvetica-BoldOblique /Courier /Courier-Oblique /Courier-Bold /Courier-BoldOblique /Times-Roman /AvantGarde-Book /AvantGarde-BookOblique /AvantGarde-Demi /AvantGarde-DemiOblique /Bookman-Demi /Bookman-DemiItalic /Bookman-Light
 /Bookman-LightItalic /Helvetica-Narrow /Helvetica-Narrow-Bold /Helvetica-Narrow-BoldOblique /Helvetica-Narrow-Oblique /NewCenturySchlbk-Roman /NewCenturySchlbk-Bold /NewCenturySchlbk-BoldItalic /NewCenturySchlbk-Italic /Palatino-Bold
 /Palatino-BoldItalic /Palatino-Italic /Palatino-Roman ] {ISOLatin1Encoding reEncode } forall
%%EndProlog
%%BeginSetup
%%EndSetup
newpath  gsave  .25 .25 scale  gsave  0 0 t black[  ] 0 sd 3 lw 1 1 1 c 2268 1538 0 0 bf black 1 1 1 c 2222 738 23 784 bf black 1 1 1 c 2222 739 23 15 bf black 1 1 1 c 2268 1077 0 461 bf black 1 1 1 c 1791 850 363 634 bf black 1791 850 363 634 bl 363
 634 m 1791 X s
 gsave  2268 1077 0 461 C 1642.14 498.507 t 0 r /Helvetica findfont 48.9324 sf 0 0 m (4l Invariant Mass \(GeV\)) show NC gr  363 659 m -25 Y s 404 646 m -12 Y s 445 646 m -12 Y s 486 646 m -12 Y s 528 646 m -12 Y s 569 659 m -25 Y s 610 646 m -12 Y s
 651 646 m -12 Y s 692 646 m -12 Y s 733 646 m -12 Y s 775 659 m -25 Y s 816 646 m -12 Y s 857 646 m -12 Y s 898 646 m -12 Y s 939 646 m -12 Y s 981 659 m -25 Y s 1022 646 m -12 Y s 1063 646 m -12 Y s 1104 646 m -12 Y s 1145 646 m -12 Y s 1187 659 m
 -25 Y s 1228 646 m -12 Y s 1269 646 m -12 Y s 1310 646 m -12 Y s 1351 646 m -12 Y s 1392 659 m -25 Y s 1434 646 m -12 Y s 1475 646 m -12 Y s 1516 646 m -12 Y s 1557 646 m -12 Y s 1598 659 m -25 Y s 1640 646 m -12 Y s 1681 646 m -12 Y s 1722 646 m
 -12 Y s 1763 646 m -12 Y s 1804 659 m -25 Y s 1845 646 m -12 Y s 1887 646 m -12 Y s 1928 646 m -12 Y s 1969 646 m -12 Y s 2010 659 m -25 Y s 2010 659 m -25 Y s 2051 646 m -12 Y s 2093 646 m -12 Y s 2134 646 m -12 Y s
 gsave  2268 1077 0 461 C 319.305 586.478 t 0 r /Helvetica findfont 48.9324 sf 0 0 m (940) show NC gr 
 gsave  2268 1077 0 461 C 524.572 586.478 t 0 r /Helvetica findfont 48.9324 sf 0 0 m (950) show NC gr 
 gsave  2268 1077 0 461 C 729.84 586.478 t 0 r /Helvetica findfont 48.9324 sf 0 0 m (960) show NC gr 
 gsave  2268 1077 0 461 C 935.107 586.478 t 0 r /Helvetica findfont 48.9324 sf 0 0 m (970) show NC gr 
 gsave  2268 1077 0 461 C 1143.63 586.478 t 0 r /Helvetica findfont 48.9324 sf 0 0 m (980) show NC gr 
 gsave  2268 1077 0 461 C 1348.9 586.478 t 0 r /Helvetica findfont 48.9324 sf 0 0 m (990) show NC gr 
 gsave  2268 1077 0 461 C 1541.13 586.478 t 0 r /Helvetica findfont 48.9324 sf 0 0 m (1000) show NC gr 
 gsave  2268 1077 0 461 C 1746.4 586.478 t 0 r /Helvetica findfont 48.9324 sf 0 0 m (1010) show NC gr 
 gsave  2268 1077 0 461 C 1951.67 586.478 t 0 r /Helvetica findfont 48.9324 sf 0 0 m (1020) show NC gr  363 1484 m 1791 X s 363 1459 m 25 Y s 404 1471 m 13 Y s 445 1471 m 13 Y s 486 1471 m 13 Y s 528 1471 m 13 Y s 569 1459 m 25 Y s 610 1471 m 13 Y s
 651 1471 m 13 Y s 692 1471 m 13 Y s 733 1471 m 13 Y s 775 1459 m 25 Y s 816 1471 m 13 Y s 857 1471 m 13 Y s 898 1471 m 13 Y s 939 1471 m 13 Y s 981 1459 m 25 Y s 1022 1471 m 13 Y s 1063 1471 m 13 Y s 1104 1471 m 13 Y s 1145 1471 m 13 Y s 1187 1459 m
 25 Y s 1228 1471 m 13 Y s 1269 1471 m 13 Y s 1310 1471 m 13 Y s 1351 1471 m 13 Y s 1392 1459 m 25 Y s 1434 1471 m 13 Y s 1475 1471 m 13 Y s 1516 1471 m 13 Y s 1557 1471 m 13 Y s 1598 1459 m 25 Y s 1640 1471 m 13 Y s 1681 1471 m 13 Y s 1722 1471 m 13
 Y s 1763 1471 m 13 Y s 1804 1459 m 25 Y s 1845 1471 m 13 Y s 1887 1471 m 13 Y s 1928 1471 m 13 Y s 1969 1471 m 13 Y s 2010 1459 m 25 Y s 2010 1459 m 25 Y s 2051 1471 m 13 Y s 2093 1471 m 13 Y s 2134 1471 m 13 Y s 363 634 m 850 Y s
 gsave  2268 1077 0 461 C 120.554 1032.85 t 90 r /Helvetica findfont 48.9324 sf 0 0 m (Events / \( 1.74 GeV \)) show NC gr  390 661 m -27 X s 390 715 m -27 X s 390 753 m -27 X s 390 783 m -27 X s 390 807 m -27 X s 390 827 m -27 X s 390 845 m -27 X s
 390 861 m -27 X s 417 875 m -54 X s
 gsave  2268 1077 0 461 C 342.425 853.892 t 0 r  -55 0 t /Helvetica findfont 48.9324 sf 0 0 m (10) show NC gr  390 967 m -27 X s 390 1021 m -27 X s 390 1059 m -27 X s 390 1089 m -27 X s 390 1113 m -27 X s 390 1133 m -27 X s 390 1151 m -27 X s 390
 1167 m -27 X s 417 1181 m -54 X s
 gsave  2268 1077 0 461 C 322.563 1179.47 t 0 r /Helvetica findfont 32.6216 sf 0 0 m (2) show NC gr 
 gsave  2268 1077 0 461 C 270.432 1159.92 t 0 r /Helvetica findfont 48.9324 sf 0 0 m (10) show NC gr  390 1273 m -27 X s 390 1327 m -27 X s 390 1365 m -27 X s 390 1395 m -27 X s 390 1419 m -27 X s 390 1440 m -27 X s 390 1457 m -27 X s 390 1473 m -27
 X s 2154 634 m 850 Y s 2127 661 m 27 X s 2127 715 m 27 X s 2127 753 m 27 X s 2127 783 m 27 X s 2127 807 m 27 X s 2127 827 m 27 X s 2127 845 m 27 X s 2127 861 m 27 X s 2101 875 m 53 X s 2127 967 m 27 X s 2127 1021 m 27 X s 2127 1059 m 27 X s 2127
 1089 m 27 X s 2127 1113 m 27 X s 2127 1133 m 27 X s 2127 1151 m 27 X s 2127 1167 m 27 X s 2101 1181 m 53 X s 2127 1273 m 27 X s 2127 1327 m 27 X s 2127 1365 m 27 X s 2127 1395 m 27 X s 2127 1419 m 27 X s 2127 1440 m 27 X s 2127 1457 m 27 X s 2127
 1473 m 27 X s 381 715 m -18 X s 363 715 m cl s 381 715 m 18 X s 399 715 m cl s 381 715 m 90 Y s 381 805 m cl s 381 715 m -81 Y s 381 634 m cl s 417 753 m -18 X s 399 753 m cl s 417 753 m 17 X s 434 753 m cl s 417 753 m 77 Y s 417 830 m cl s 417 753
 m -87 Y s 417 666 m cl s 452 827 m -18 X s 434 827 m cl s 452 827 m 18 X s 470 827 m cl s 452 827 m 58 Y s 452 885 m cl s 452 827 m -61 Y s 452 766 m cl s 524 861 m -18 X s 506 861 m cl s 524 861 m 18 X s 542 861 m cl s 524 861 m 50 Y s 524 911 m cl
 s 524 861 m -53 Y s 524 808 m cl s 560 845 m -18 X s 542 845 m cl s 560 845 m 18 X s 578 845 m cl s 560 845 m 53 Y s 560 898 m cl s 560 845 m -56 Y s 560 789 m cl s 596 887 m -18 X s 578 887 m cl s 596 887 m 18 X s 614 887 m cl s 596 887 m 45 Y s
 596 932 m cl s 596 887 m -46 Y s 596 841 m cl s 632 845 m -18 X s 614 845 m cl s 632 845 m 17 X s 649 845 m cl s 632 845 m 53 Y s 632 898 m cl s 632 845 m -56 Y s 632 789 m cl s 667 827 m -18 X s 649 827 m cl s 667 827 m 18 X s 685 827 m cl s 667
 827 m 58 Y s 667 885 m cl s 667 827 m -61 Y s 667 766 m cl s 703 919 m -18 X s 685 919 m cl s 703 919 m 18 X s 721 919 m cl s 703 919 m 40 Y s 703 959 m cl s 703 919 m -40 Y s 703 879 m cl s 739 807 m -18 X s 721 807 m cl s 739 807 m 18 X s 757 807
 m cl s 739 807 m 62 Y s 739 869 m cl s 739 807 m -67 Y s 739 740 m cl s 775 899 m -18 X s 757 899 m cl s 775 899 m 18 X s 793 899 m cl s 775 899 m 43 Y s 775 942 m cl s 775 899 m -45 Y s 775 854 m cl s 811 929 m -18 X s 793 929 m cl s 811 929 m 18 X
 s 829 929 m cl s 811 929 m 38 Y s 811 967 m cl s 811 929 m -40 Y s 811 889 m cl s 847 887 m -18 X s 829 887 m cl s 847 887 m 17 X s 864 887 m cl s 847 887 m 45 Y s 847 932 m cl s 847 887 m -46 Y s 847 841 m cl s 882 960 m -18 X s 864 960 m cl s 882
 960 m 18 X s 900 960 m cl s 882 960 m 34 Y s 882 994 m cl s 882 960 m -34 Y s 882 926 m cl s 918 945 m -18 X s 900 945 m cl s 918 945 m 18 X s 936 945 m cl s 918 945 m 36 Y s 918 981 m cl s 918 945 m -36 Y s 918 909 m cl s 954 985 m -18 X s 936 985
 m cl s 954 985 m 18 X s 972 985 m cl s 954 985 m 31 Y s 954 1016 m cl s 954 985 m -30 Y s 954 955 m cl s 990 991 m -18 X s 972 991 m cl s 990 991 m 18 X s 1008 991 m cl s 990 991 m 30 Y s 990 1021 m cl s 990 991 m -30 Y s 990 961 m cl s 1026 1052 m
 -18 X s 1008 1052 m cl s 1026 1052 m 18 X s 1044 1052 m cl s 1026 1052 m 23 Y s 1026 1075 m cl s 1026 1052 m -23 Y s 1026 1029 m cl s 1062 1033 m -18 X s 1044 1033 m cl s 1062 1033 m 17 X s 1079 1033 m cl s 1062 1033 m 25 Y s 1062 1058 m cl s 1062
 1033 m -25 Y s 1062 1008 m cl s 1097 1086 m -18 X s 1079 1086 m cl s 1097 1086 m 18 X s 1115 1086 m cl s 1097 1086 m 20 Y s 1097 1106 m cl s 1097 1086 m -20 Y s 1097 1066 m cl s 1133 1075 m -18 X s 1115 1075 m cl s 1133 1075 m 18 X s 1151 1075 m cl
 s 1133 1075 m 21 Y s 1133 1096 m cl s 1133 1075 m -22 Y s 1133 1053 m cl s 1169 1148 m -18 X s 1151 1148 m cl s 1169 1148 m 18 X s 1187 1148 m cl s 1169 1148 m 16 Y s 1169 1164 m cl s 1169 1148 m -16 Y s 1169 1132 m cl s 1205 1191 m -18 X s 1187
 1191 m cl s 1205 1191 m 18 X s 1223 1191 m cl s 1205 1191 m 13 Y s 1205 1204 m cl s 1205 1191 m -13 Y s 1205 1178 m cl s 1241 1191 m -18 X s 1223 1191 m cl s 1241 1191 m 18 X s 1259 1191 m cl s 1241 1191 m 13 Y s 1241 1204 m cl s 1241 1191 m -13 Y s
 1241 1178 m cl s 1276 1229 m -17 X s 1259 1229 m cl s 1276 1229 m 18 X s 1294 1229 m cl s 1276 1229 m 11 Y s 1276 1240 m cl s 1276 1229 m -11 Y s 1276 1218 m cl s 1312 1259 m -18 X s 1294 1259 m cl s 1312 1259 m 18 X s 1330 1259 m cl s 1312 1259 m
 10 Y s 1312 1269 m cl s 1312 1259 m -10 Y s 1312 1249 m cl s 1348 1293 m -18 X s 1330 1293 m cl s 1348 1293 m 18 X s 1366 1293 m cl s 1348 1293 m 8 Y s 1348 1301 m cl s 1348 1293 m -9 Y s 1348 1284 m cl s 1384 1332 m -18 X s 1366 1332 m cl s 1384
 1332 m 18 X s 1402 1332 m cl s 1384 1332 m 8 Y s 1384 1340 m cl s 1384 1332 m -7 Y s 1384 1325 m cl s 1420 1347 m -18 X s 1402 1347 m cl s 1420 1347 m 18 X s 1438 1347 m cl s 1420 1347 m 7 Y s 1420 1354 m cl s 1420 1347 m -7 Y s 1420 1340 m cl s
 1456 1381 m -18 X s 1438 1381 m cl s 1456 1381 m 18 X s 1474 1381 m cl s 1456 1381 m 6 Y s 1456 1387 m cl s 1456 1381 m -6 Y s 1456 1375 m cl s 1491 1397 m -17 X s 1474 1397 m cl s 1491 1397 m 18 X s 1509 1397 m cl s 1491 1397 m 6 Y s 1491 1403 m cl
 s 1491 1397 m -6 Y s 1491 1391 m cl s 1527 1413 m -18 X s 1509 1413 m cl s 1527 1413 m 18 X s 1545 1413 m cl s 1527 1413 m 6 Y s 1527 1419 m cl s 1527 1413 m -5 Y s 1527 1408 m cl s 1563 1407 m -18 X s 1545 1407 m cl s 1563 1407 m 18 X s 1581 1407 m
 cl s 1563 1407 m 5 Y s 1563 1412 m cl s 1563 1407 m -6 Y s 1563 1401 m cl s 1599 1409 m -18 X s 1581 1409 m cl s 1599 1409 m 18 X s 1617 1409 m cl s 1599 1409 m 6 Y s 1599 1415 m cl s 1599 1409 m -5 Y s 1599 1404 m cl s 1635 1389 m -18 X s 1617 1389
 m cl s 1635 1389 m 18 X s 1653 1389 m cl s 1635 1389 m 6 Y s 1635 1395 m cl s 1635 1389 m -6 Y s 1635 1383 m cl s 1671 1362 m -18 X s 1653 1362 m cl s 1671 1362 m 18 X s 1689 1362 m cl s 1671 1362 m 7 Y s 1671 1369 m cl s 1671 1362 m -6 Y s 1671
 1356 m cl s 1706 1338 m -17 X s 1689 1338 m cl s 1706 1338 m 18 X s 1724 1338 m cl s 1706 1338 m 7 Y s 1706 1345 m cl s 1706 1338 m -7 Y s 1706 1331 m cl s 1742 1289 m -18 X s 1724 1289 m cl s 1742 1289 m 18 X s 1760 1289 m cl s 1742 1289 m 9 Y s
 1742 1298 m cl s 1742 1289 m -9 Y s 1742 1280 m cl s 1778 1253 m -18 X s 1760 1253 m cl s 1778 1253 m 18 X s 1796 1253 m cl s 1778 1253 m 10 Y s 1778 1263 m cl s 1778 1253 m -10 Y s 1778 1243 m cl s 1814 1167 m -18 X s 1796 1167 m cl s 1814 1167 m
 18 X s 1832 1167 m cl s 1814 1167 m 15 Y s 1814 1182 m cl s 1814 1167 m -15 Y s 1814 1152 m cl s 1850 1139 m -18 X s 1832 1139 m cl s 1850 1139 m 18 X s 1868 1139 m cl s 1850 1139 m 16 Y s 1850 1155 m cl s 1850 1139 m -16 Y s 1850 1123 m cl s 1886
 1072 m -18 X s 1868 1072 m cl s 1886 1072 m 18 X s 1904 1072 m cl s 1886 1072 m 21 Y s 1886 1093 m cl s 1886 1072 m -22 Y s 1886 1050 m cl s 1921 1007 m -17 X s 1904 1007 m cl s 1921 1007 m 18 X s 1939 1007 m cl s 1921 1007 m 28 Y s 1921 1035 m cl s
 1921 1007 m -28 Y s 1921 979 m cl s 1957 1021 m -18 X s 1939 1021 m cl s 1957 1021 m 18 X s 1975 1021 m cl s 1957 1021 m 26 Y s 1957 1047 m cl s 1957 1021 m -27 Y s 1957 994 m cl s 1993 937 m -18 X s 1975 937 m cl s 1993 937 m 18 X s 2011 937 m cl s
 1993 937 m 37 Y s 1993 974 m cl s 1993 937 m -38 Y s 1993 899 m cl s 2029 945 m -18 X s 2011 945 m cl s 2029 945 m 18 X s 2047 945 m cl s 2029 945 m 36 Y s 2029 981 m cl s 2029 945 m -36 Y s 2029 909 m cl s 2065 875 m -18 X s 2047 875 m cl s 2065
 875 m 18 X s 2083 875 m cl s 2065 875 m 47 Y s 2065 922 m cl s 2065 875 m -50 Y s 2065 825 m cl s 2101 753 m -18 X s 2083 753 m cl s 2101 753 m 18 X s 2119 753 m cl s 2101 753 m 77 Y s 2101 830 m cl s 2101 753 m -87 Y s 2101 666 m cl s 2136 807 m
 -17 X s 2119 807 m cl s 2136 807 m 18 X s 2154 807 m cl s 2136 807 m 62 Y s 2136 869 m cl s 2136 807 m -67 Y s 2136 740 m cl s /w 31 def /w2 {w 2 div} def /w3 {w 3 div} def 381 715 417 753 452 827 3 { m20} R 524 861 560 845 596 887 632 845 667 827
 703 919 739 807 775 899 811 929 847 887 882 960 918 945 954 985 990 991 1026 1052 1062 1033 1097 1086 1133 1075 1169 1148 1205 1191 1241 1191 1276 1229 1312 1259 1348 1293 1384 1332 1420 1347 1456 1381 1491 1397 1527 1413 1563 1407 1599 1409 1635
 1389 1671 1362 1706 1338 1742 1289 1778 1253 1814 1167 1850 1139 1886 1072 1921 1007 1957 1021 1993 937 2029 945 2065 875 2101 753 2136 807 46 { m20} R 0 1 1 c 1 1 0 c black 1 1 0 c 363 805 m 36 8 d 35 7 d 36 8 d 36 9 d 36 8 d 36 9 d 36 9 d 35 10 d
 36 10 d 36 11 d 36 12 d 36 12 d 36 14 d 35 16 d 36 18 d 36 19 d 36 21 d 36 23 d 36 24 d 35 25 d 36 26 d 36 27 d 36 28 d 36 30 d 18 15 d 18 14 d 17 15 d 18 14 d 18 15 d 18 14 d 18 16 d 9 9 d 9 10 d 9 10 d 9 10 d 18 18 d 36 28 d 18 11 d 9 5 d 9 5 d 9
 4 d 8 4 d 9 3 d 9 3 d 9 2 d 9 2 d 9 1 d 9 1 d 9 X 9 -1 d 9 -1 d 9 -2 d 9 -2 d 9 -3 d 9 -4 d 9 -4 d 9 -5 d 9 -5 d 18 -12 d 36 -29 d 17 -17 d 18 -18 d 18 -20 d 18 -22 d 18 -23 d 18 -23 d 18 -24 d 18 -25 d 18 -24 d 18 -24 d 18 -24 d 18 -23 d 17 -23 d
 18 -22 d 36 -44 d 36 -44 d 36 -43 d 36 -44 d 36 -46 d 35 -47 d -133 Y -35 78 d -36 69 d -36 62 d -36 56 d -36 52 d -36 51 d -18 25 d -17 25 d -18 26 d -18 26 d -18 26 d -18 25 d -18 26 d -18 25 d -18 25 d -18 23 d -18 23 d -18 22 d -18 20 d -17 19 d
 -36 31 d -18 11 d -9 6 d -9 4 d -9 4 d -9 3 d -9 3 d -9 3 d -9 2 d -9 1 d -9 1 d -18 X -9 -1 d -9 -2 d -9 -2 d -9 -2 d -9 -4 d -8 -4 d -9 -4 d -9 -5 d -9 -6 d -18 -14 d -36 -34 d -18 -19 d -9 -9 d -9 -9 d -9 -7 d -9 -9 d -18 -17 d -18 -17 d -18 -16
 d -18 -15 d -17 -15 d -18 -14 d -18 -14 d -36 -27 d -36 -29 d -36 -29 d -36 -29 d -35 -29 d -36 -27 d -36 -25 d -36 -22 d -36 -20 d -36 -18 d -35 -17 d -36 -15 d -36 -14 d -36 -12 d -36 -12 d -36 -11 d -35 -11 d -36 -10 d -36 -9 d -36 -9 d -36 -9 d
 -36 -9 d -35 -8 d -36 -8 d f 0 1 1 c 0 1 0 c black 0 1 0 c 363 796 m 36 7 d 35 8 d 36 8 d 36 8 d 36 9 d 36 9 d 36 10 d 35 9 d 36 11 d 36 11 d 36 12 d 36 13 d 36 14 d 35 16 d 36 17 d 36 20 d 36 21 d 36 24 d 36 24 d 35 26 d 36 26 d 36 28 d 36 29 d 36
 29 d 18 14 d 18 15 d 17 14 d 18 15 d 18 15 d 18 15 d 18 16 d 9 9 d 9 9 d 9 10 d 9 10 d 18 18 d 36 29 d 18 12 d 9 5 d 9 5 d 9 5 d 8 3 d 9 4 d 9 2 d 9 3 d 9 1 d 9 1 d 9 1 d 9 X 9 -1 d 9 -1 d 9 -2 d 9 -2 d 9 -3 d 9 -4 d 9 -4 d 9 -4 d 9 -6 d 18 -12 d 36
 -29 d 17 -17 d 18 -19 d 18 -21 d 18 -22 d 18 -23 d 18 -23 d 18 -25 d 18 -24 d 18 -25 d 18 -25 d 18 -24 d 18 -23 d 17 -23 d 18 -24 d 36 -45 d 36 -45 d 36 -46 d 36 -46 d 36 -49 d 35 -51 d -65 Y -35 65 d -36 60 d -36 56 d -36 52 d -36 49 d -36 49 d -18
 24 d -17 25 d -18 25 d -18 25 d -18 25 d -18 26 d -18 25 d -18 25 d -18 24 d -18 24 d -18 22 d -18 21 d -18 20 d -17 18 d -36 31 d -18 11 d -9 6 d -9 4 d -9 4 d -9 4 d -9 3 d -9 2 d -9 2 d -9 1 d -9 1 d -18 X -9 -1 d -9 -2 d -9 -2 d -9 -3 d -9 -3 d
 -8 -4 d -9 -4 d -9 -5 d -9 -6 d -18 -13 d -36 -33 d -18 -19 d -9 -9 d -9 -8 d -9 -9 d -9 -8 d -18 -17 d -18 -16 d -18 -16 d -18 -15 d -17 -15 d -18 -14 d -18 -14 d -36 -28 d -36 -29 d -36 -28 d -36 -29 d -35 -27 d -36 -26 d -36 -25 d -36 -22 d -36
 -20 d -36 -17 d -35 -17 d -36 -14 d -36 -14 d -36 -12 d -36 -12 d -36 -11 d -35 -10 d -36 -10 d -36 -9 d -36 -9 d -36 -8 d -36 -9 d -35 -8 d -36 -8 d f 0 0 1 c 9 lw black 0 0 1 c 363 785 m 36 8 d 35 8 d 36 8 d 36 9 d 36 9 d 36 9 d 36 9 d 35 10 d 36
 11 d 36 11 d 36 12 d 36 13 d 36 15 d 35 16 d 36 18 d 36 19 d 36 22 d 36 24 d 36 25 d 35 27 d 36 27 d 36 28 d 36 29 d 36 28 d 18 15 d 18 14 d 17 15 d 18 15 d 18 15 d 18 15 d 18 17 d 9 8 d 9 9 d 9 10 d 9 9 d 18 19 d 36 31 d 18 12 d 9 6 d 9 4 d 9 5 d 8
 4 d 9 3 d 9 3 d 9 2 d 9 1 d 9 2 d 18 X 9 -1 d 9 -1 d 9 -2 d 9 -2 d 9 -3 d 9 -4 d 9 -4 d 9 -4 d 9 -6 d 18 -12 d 36 -29 d 17 -18 d 18 -19 d 18 -21 d 18 -23 d 18 -23 d 18 -24 d 18 -24 d 18 -25 d 18 -25 d 18 -25 d 18 -25 d 18 -24 d 17 -24 d 18 -24 d 36
 -47 d 36 -47 d 36 -48 d 36 -51 d 36 -53 d 35 -57 d s black 3 lw 381 715 m -18 X s 363 715 m cl s 381 715 m 18 X s 399 715 m cl s 381 715 m 90 Y s 381 805 m cl s 381 715 m -81 Y s 381 634 m cl s 417 753 m -18 X s 399 753 m cl s 417 753 m 17 X s 434
 753 m cl s 417 753 m 77 Y s 417 830 m cl s 417 753 m -87 Y s 417 666 m cl s 452 827 m -18 X s 434 827 m cl s 452 827 m 18 X s 470 827 m cl s 452 827 m 58 Y s 452 885 m cl s 452 827 m -61 Y s 452 766 m cl s 524 861 m -18 X s 506 861 m cl s 524 861 m
 18 X s 542 861 m cl s 524 861 m 50 Y s 524 911 m cl s 524 861 m -53 Y s 524 808 m cl s 560 845 m -18 X s 542 845 m cl s 560 845 m 18 X s 578 845 m cl s 560 845 m 53 Y s 560 898 m cl s 560 845 m -56 Y s 560 789 m cl s 596 887 m -18 X s 578 887 m cl s
 596 887 m 18 X s 614 887 m cl s 596 887 m 45 Y s 596 932 m cl s 596 887 m -46 Y s 596 841 m cl s 632 845 m -18 X s 614 845 m cl s 632 845 m 17 X s 649 845 m cl s 632 845 m 53 Y s 632 898 m cl s 632 845 m -56 Y s 632 789 m cl s 667 827 m -18 X s 649
 827 m cl s 667 827 m 18 X s 685 827 m cl s 667 827 m 58 Y s 667 885 m cl s 667 827 m -61 Y s 667 766 m cl s 703 919 m -18 X s 685 919 m cl s 703 919 m 18 X s 721 919 m cl s 703 919 m 40 Y s 703 959 m cl s 703 919 m -40 Y s 703 879 m cl s 739 807 m
 -18 X s 721 807 m cl s 739 807 m 18 X s 757 807 m cl s 739 807 m 62 Y s 739 869 m cl s 739 807 m -67 Y s 739 740 m cl s 775 899 m -18 X s 757 899 m cl s 775 899 m 18 X s 793 899 m cl s 775 899 m 43 Y s 775 942 m cl s 775 899 m -45 Y s 775 854 m cl s
 811 929 m -18 X s 793 929 m cl s 811 929 m 18 X s 829 929 m cl s 811 929 m 38 Y s 811 967 m cl s 811 929 m -40 Y s 811 889 m cl s 847 887 m -18 X s 829 887 m cl s 847 887 m 17 X s 864 887 m cl s 847 887 m 45 Y s 847 932 m cl s 847 887 m -46 Y s 847
 841 m cl s 882 960 m -18 X s 864 960 m cl s 882 960 m 18 X s 900 960 m cl s 882 960 m 34 Y s 882 994 m cl s 882 960 m -34 Y s 882 926 m cl s 918 945 m -18 X s 900 945 m cl s 918 945 m 18 X s 936 945 m cl s 918 945 m 36 Y s 918 981 m cl s 918 945 m
 -36 Y s 918 909 m cl s 954 985 m -18 X s 936 985 m cl s 954 985 m 18 X s 972 985 m cl s 954 985 m 31 Y s 954 1016 m cl s 954 985 m -30 Y s 954 955 m cl s 990 991 m -18 X s 972 991 m cl s 990 991 m 18 X s 1008 991 m cl s 990 991 m 30 Y s 990 1021 m
 cl s 990 991 m -30 Y s 990 961 m cl s 1026 1052 m -18 X s 1008 1052 m cl s 1026 1052 m 18 X s 1044 1052 m cl s 1026 1052 m 23 Y s 1026 1075 m cl s 1026 1052 m -23 Y s 1026 1029 m cl s 1062 1033 m -18 X s 1044 1033 m cl s 1062 1033 m 17 X s 1079 1033
 m cl s 1062 1033 m 25 Y s 1062 1058 m cl s 1062 1033 m -25 Y s 1062 1008 m cl s 1097 1086 m -18 X s 1079 1086 m cl s 1097 1086 m 18 X s 1115 1086 m cl s 1097 1086 m 20 Y s 1097 1106 m cl s 1097 1086 m -20 Y s 1097 1066 m cl s 1133 1075 m -18 X s
 1115 1075 m cl s 1133 1075 m 18 X s 1151 1075 m cl s 1133 1075 m 21 Y s 1133 1096 m cl s 1133 1075 m -22 Y s 1133 1053 m cl s 1169 1148 m -18 X s 1151 1148 m cl s 1169 1148 m 18 X s 1187 1148 m cl s 1169 1148 m 16 Y s 1169 1164 m cl s 1169 1148 m
 -16 Y s 1169 1132 m cl s 1205 1191 m -18 X s 1187 1191 m cl s 1205 1191 m 18 X s 1223 1191 m cl s 1205 1191 m 13 Y s 1205 1204 m cl s 1205 1191 m -13 Y s 1205 1178 m cl s 1241 1191 m -18 X s 1223 1191 m cl s 1241 1191 m 18 X s 1259 1191 m cl s 1241
 1191 m 13 Y s 1241 1204 m cl s 1241 1191 m -13 Y s 1241 1178 m cl s 1276 1229 m -17 X s 1259 1229 m cl s 1276 1229 m 18 X s 1294 1229 m cl s 1276 1229 m 11 Y s 1276 1240 m cl s 1276 1229 m -11 Y s 1276 1218 m cl s 1312 1259 m -18 X s 1294 1259 m cl
 s 1312 1259 m 18 X s 1330 1259 m cl s 1312 1259 m 10 Y s 1312 1269 m cl s 1312 1259 m -10 Y s 1312 1249 m cl s 1348 1293 m -18 X s 1330 1293 m cl s 1348 1293 m 18 X s 1366 1293 m cl s 1348 1293 m 8 Y s 1348 1301 m cl s 1348 1293 m -9 Y s 1348 1284 m
 cl s 1384 1332 m -18 X s 1366 1332 m cl s 1384 1332 m 18 X s 1402 1332 m cl s 1384 1332 m 8 Y s 1384 1340 m cl s 1384 1332 m -7 Y s 1384 1325 m cl s 1420 1347 m -18 X s 1402 1347 m cl s 1420 1347 m 18 X s 1438 1347 m cl s 1420 1347 m 7 Y s 1420 1354
 m cl s 1420 1347 m -7 Y s 1420 1340 m cl s 1456 1381 m -18 X s 1438 1381 m cl s 1456 1381 m 18 X s 1474 1381 m cl s 1456 1381 m 6 Y s 1456 1387 m cl s 1456 1381 m -6 Y s 1456 1375 m cl s 1491 1397 m -17 X s 1474 1397 m cl s 1491 1397 m 18 X s 1509
 1397 m cl s 1491 1397 m 6 Y s 1491 1403 m cl s 1491 1397 m -6 Y s 1491 1391 m cl s 1527 1413 m -18 X s 1509 1413 m cl s 1527 1413 m 18 X s 1545 1413 m cl s 1527 1413 m 6 Y s 1527 1419 m cl s 1527 1413 m -5 Y s 1527 1408 m cl s 1563 1407 m -18 X s
 1545 1407 m cl s 1563 1407 m 18 X s 1581 1407 m cl s 1563 1407 m 5 Y s 1563 1412 m cl s 1563 1407 m -6 Y s 1563 1401 m cl s 1599 1409 m -18 X s 1581 1409 m cl s 1599 1409 m 18 X s 1617 1409 m cl s 1599 1409 m 6 Y s 1599 1415 m cl s 1599 1409 m -5 Y
 s 1599 1404 m cl s 1635 1389 m -18 X s 1617 1389 m cl s 1635 1389 m 18 X s 1653 1389 m cl s 1635 1389 m 6 Y s 1635 1395 m cl s 1635 1389 m -6 Y s 1635 1383 m cl s 1671 1362 m -18 X s 1653 1362 m cl s 1671 1362 m 18 X s 1689 1362 m cl s 1671 1362 m 7
 Y s 1671 1369 m cl s 1671 1362 m -6 Y s 1671 1356 m cl s 1706 1338 m -17 X s 1689 1338 m cl s 1706 1338 m 18 X s 1724 1338 m cl s 1706 1338 m 7 Y s 1706 1345 m cl s 1706 1338 m -7 Y s 1706 1331 m cl s 1742 1289 m -18 X s 1724 1289 m cl s 1742 1289 m
 18 X s 1760 1289 m cl s 1742 1289 m 9 Y s 1742 1298 m cl s 1742 1289 m -9 Y s 1742 1280 m cl s 1778 1253 m -18 X s 1760 1253 m cl s 1778 1253 m 18 X s 1796 1253 m cl s 1778 1253 m 10 Y s 1778 1263 m cl s 1778 1253 m -10 Y s 1778 1243 m cl s 1814
 1167 m -18 X s 1796 1167 m cl s 1814 1167 m 18 X s 1832 1167 m cl s 1814 1167 m 15 Y s 1814 1182 m cl s 1814 1167 m -15 Y s 1814 1152 m cl s 1850 1139 m -18 X s 1832 1139 m cl s 1850 1139 m 18 X s 1868 1139 m cl s 1850 1139 m 16 Y s 1850 1155 m cl s
 1850 1139 m -16 Y s 1850 1123 m cl s 1886 1072 m -18 X s 1868 1072 m cl s 1886 1072 m 18 X s 1904 1072 m cl s 1886 1072 m 21 Y s 1886 1093 m cl s 1886 1072 m -22 Y s 1886 1050 m cl s 1921 1007 m -17 X s 1904 1007 m cl s 1921 1007 m 18 X s 1939 1007
 m cl s 1921 1007 m 28 Y s 1921 1035 m cl s 1921 1007 m -28 Y s 1921 979 m cl s 1957 1021 m -18 X s 1939 1021 m cl s 1957 1021 m 18 X s 1975 1021 m cl s 1957 1021 m 26 Y s 1957 1047 m cl s 1957 1021 m -27 Y s 1957 994 m cl s 1993 937 m -18 X s 1975
 937 m cl s 1993 937 m 18 X s 2011 937 m cl s 1993 937 m 37 Y s 1993 974 m cl s 1993 937 m -38 Y s 1993 899 m cl s 2029 945 m -18 X s 2011 945 m cl s 2029 945 m 18 X s 2047 945 m cl s 2029 945 m 36 Y s 2029 981 m cl s 2029 945 m -36 Y s 2029 909 m cl
 s 2065 875 m -18 X s 2047 875 m cl s 2065 875 m 18 X s 2083 875 m cl s 2065 875 m 47 Y s 2065 922 m cl s 2065 875 m -50 Y s 2065 825 m cl s 2101 753 m -18 X s 2083 753 m cl s 2101 753 m 18 X s 2119 753 m cl s 2101 753 m 77 Y s 2101 830 m cl s 2101
 753 m -87 Y s 2101 666 m cl s 2136 807 m -17 X s 2119 807 m cl s 2136 807 m 18 X s 2154 807 m cl s 2136 807 m 62 Y s 2136 869 m cl s 2136 807 m -67 Y s 2136 740 m cl s 381 715 417 753 452 827 3 { m20} R 524 861 560 845 596 887 632 845 667 827 703
 919 739 807 775 899 811 929 847 887 882 960 918 945 954 985 990 991 1026 1052 1062 1033 1097 1086 1133 1075 1169 1148 1205 1191 1241 1191 1276 1229 1312 1259 1348 1293 1384 1332 1420 1347 1456 1381 1491 1397 1527 1413 1563 1407 1599 1409 1635 1389
 1671 1362 1706 1338 1742 1289 1778 1253 1814 1167 1850 1139 1886 1072 1921 1007 1957 1021 1993 937 2029 945 2065 875 2101 753 2136 807 46 { m20} R 0.52 0.76 0.64 c[ 4 8] 0 sd 9 lw black 0.52 0.76 0.64 c 363 785 m 36 8 d 35 8 d 36 8 d 36 9 d 36 8 d
 36 9 d 36 10 d 35 10 d 36 10 d 36 10 d 36 11 d 36 12 d 36 12 d 35 13 d 36 13 d 36 14 d 36 15 d 36 16 d 36 17 d 35 18 d 36 20 d 36 21 d 36 23 d 36 26 d 18 13 d 18 15 d 17 15 d 18 17 d 18 18 d 18 19 d 9 10 d 9 10 d 9 11 d 9 11 d 9 12 d 9 13 d 18 23 d
 36 38 d 18 15 d 9 7 d 9 6 d 9 5 d 8 5 d 9 4 d 9 3 d 9 2 d 9 2 d 9 1 d 9 1 d 9 X 9 -1 d 9 -1 d 9 -3 d 9 -2 d 9 -4 d 9 -4 d 9 -5 d 9 -5 d 9 -7 d 18 -14 d 36 -37 d 17 -22 d 18 -25 d 18 -28 d 9 -15 d 9 -15 d 9 -16 d 9 -17 d 9 -18 d 9 -18 d 18 -38 d 18
 -42 d 18 -43 d 18 -47 d 18 -49 d 18 -52 d 35 -112 d 32 -108 d s 0.54 0.66 0.63 c black 0.54 0.66 0.63 c 891 634 m 9 16 d s 900 650 m 36 61 d 36 56 d 36 53 d 36 50 d 18 24 d 17 23 d 18 22 d 18 21 d 18 20 d 18 19 d 18 19 d 18 17 d 18 17 d 18 16 d 18
 15 d 18 15 d 35 25 d 36 23 d 36 19 d 18 8 d 18 8 d 18 6 d 18 6 d 18 5 d 18 4 d 17 3 d 18 2 d 18 1 d 18 1 d 18 X 18 -1 d 18 -2 d 18 -3 d 18 -4 d 18 -5 d 18 -5 d 18 -6 d 17 -7 d 18 -8 d 36 -19 d 36 -22 d 36 -25 d 18 -14 d 18 -15 d 18 -16 d 18 -16 d 17
 -18 d 18 -18 d 18 -19 d 18 -20 d 18 -21 d 18 -22 d 18 -22 d 18 -24 d 36 -49 d 36 -53 d 35 -56 d s black[  ] 0 sd 3 lw 363 634 m 1791 X s 363 659 m -25 Y s 404 646 m -12 Y s 445 646 m -12 Y s 486 646 m -12 Y s 528 646 m -12 Y s 569 659 m -25 Y s 610
 646 m -12 Y s 651 646 m -12 Y s 692 646 m -12 Y s 733 646 m -12 Y s 775 659 m -25 Y s 816 646 m -12 Y s 857 646 m -12 Y s 898 646 m -12 Y s 939 646 m -12 Y s 981 659 m -25 Y s 1022 646 m -12 Y s 1063 646 m -12 Y s 1104 646 m -12 Y s 1145 646 m -12 Y
 s 1187 659 m -25 Y s 1228 646 m -12 Y s 1269 646 m -12 Y s 1310 646 m -12 Y s 1351 646 m -12 Y s 1392 659 m -25 Y s 1434 646 m -12 Y s 1475 646 m -12 Y s 1516 646 m -12 Y s 1557 646 m -12 Y s 1598 659 m -25 Y s 1640 646 m -12 Y s 1681 646 m -12 Y s
 1722 646 m -12 Y s 1763 646 m -12 Y s 1804 659 m -25 Y s 1845 646 m -12 Y s 1887 646 m -12 Y s 1928 646 m -12 Y s 1969 646 m -12 Y s 2010 659 m -25 Y s 2010 659 m -25 Y s 2051 646 m -12 Y s 2093 646 m -12 Y s 2134 646 m -12 Y s 363 1484 m 1791 X s
 363 1459 m 25 Y s 404 1471 m 13 Y s 445 1471 m 13 Y s 486 1471 m 13 Y s 528 1471 m 13 Y s 569 1459 m 25 Y s 610 1471 m 13 Y s 651 1471 m 13 Y s 692 1471 m 13 Y s 733 1471 m 13 Y s 775 1459 m 25 Y s 816 1471 m 13 Y s 857 1471 m 13 Y s 898 1471 m 13 Y
 s 939 1471 m 13 Y s 981 1459 m 25 Y s 1022 1471 m 13 Y s 1063 1471 m 13 Y s 1104 1471 m 13 Y s 1145 1471 m 13 Y s 1187 1459 m 25 Y s 1228 1471 m 13 Y s 1269 1471 m 13 Y s 1310 1471 m 13 Y s 1351 1471 m 13 Y s 1392 1459 m 25 Y s 1434 1471 m 13 Y s
 1475 1471 m 13 Y s 1516 1471 m 13 Y s 1557 1471 m 13 Y s 1598 1459 m 25 Y s 1640 1471 m 13 Y s 1681 1471 m 13 Y s 1722 1471 m 13 Y s 1763 1471 m 13 Y s 1804 1459 m 25 Y s 1845 1471 m 13 Y s 1887 1471 m 13 Y s 1928 1471 m 13 Y s 1969 1471 m 13 Y s
 2010 1459 m 25 Y s 2010 1459 m 25 Y s 2051 1471 m 13 Y s 2093 1471 m 13 Y s 2134 1471 m 13 Y s 363 634 m 850 Y s 390 661 m -27 X s 390 715 m -27 X s 390 753 m -27 X s 390 783 m -27 X s 390 807 m -27 X s 390 827 m -27 X s 390 845 m -27 X s 390 861 m
 -27 X s 417 875 m -54 X s 390 967 m -27 X s 390 1021 m -27 X s 390 1059 m -27 X s 390 1089 m -27 X s 390 1113 m -27 X s 390 1133 m -27 X s 390 1151 m -27 X s 390 1167 m -27 X s 417 1181 m -54 X s 390 1273 m -27 X s 390 1327 m -27 X s 390 1365 m -27
 X s 390 1395 m -27 X s 390 1419 m -27 X s 390 1440 m -27 X s 390 1457 m -27 X s 390 1473 m -27 X s 2154 634 m 850 Y s 2127 661 m 27 X s 2127 715 m 27 X s 2127 753 m 27 X s 2127 783 m 27 X s 2127 807 m 27 X s 2127 827 m 27 X s 2127 845 m 27 X s 2127
 861 m 27 X s 2101 875 m 53 X s 2127 967 m 27 X s 2127 1021 m 27 X s 2127 1059 m 27 X s 2127 1089 m 27 X s 2127 1113 m 27 X s 2127 1133 m 27 X s 2127 1151 m 27 X s 2127 1167 m 27 X s 2101 1181 m 53 X s 2127 1273 m 27 X s 2127 1327 m 27 X s 2127 1365
 m 27 X s 2127 1395 m 27 X s 2127 1419 m 27 X s 2127 1440 m 27 X s 2127 1457 m 27 X s 2127 1473 m 27 X s
 gsave  2268 1077 0 461 C 677.708 1215.31 t 0 r /Helvetica findfont 58.7189 sf 0 0 m (4e) show NC gr  1 1 1 c 453 161 454 1269 bf black
 gsave  2268 1077 0 461 C 566.929 1371.71 t 0 r /Helvetica-Bold findfont 48.9324 sf 0 0 m (MC15) show NC gr  510 1390 m20
 gsave  2268 1077 0 461 C 566.929 1293.51 t 0 r /Helvetica-Bold findfont 48.9324 sf 0 0 m (Projection of Signal pdf) show NC gr  0 0 1 c 9 lw 471 1309 m 79 X s black 3 lw 1 1 1 c 2268 461 0 0 bf black 1 1 1 c 1791 364 363 74 bf black 1791 364 363 74
 bl 363 74 m 1791 X s
 gsave  2268 461 0 0 C 1915.83 13.0329 t 0 r /Helvetica findfont 22.9045 sf 0 0 m (4l Invariant Mass \(GeV\)) show NC gr  363 85 m -11 Y s 404 79 m -5 Y s 445 79 m -5 Y s 486 79 m -5 Y s 528 79 m -5 Y s 569 85 m -11 Y s 610 79 m -5 Y s 651 79 m -5 Y
 s 692 79 m -5 Y s 733 79 m -5 Y s 775 85 m -11 Y s 816 79 m -5 Y s 857 79 m -5 Y s 898 79 m -5 Y s 939 79 m -5 Y s 981 85 m -11 Y s 1022 79 m -5 Y s 1063 79 m -5 Y s 1104 79 m -5 Y s 1145 79 m -5 Y s 1187 85 m -11 Y s 1228 79 m -5 Y s 1269 79 m -5 Y
 s 1310 79 m -5 Y s 1351 79 m -5 Y s 1392 85 m -11 Y s 1434 79 m -5 Y s 1475 79 m -5 Y s 1516 79 m -5 Y s 1557 79 m -5 Y s 1598 85 m -11 Y s 1640 79 m -5 Y s 1681 79 m -5 Y s 1722 79 m -5 Y s 1763 79 m -5 Y s 1804 85 m -11 Y s 1845 79 m -5 Y s 1887
 79 m -5 Y s 1928 79 m -5 Y s 1969 79 m -5 Y s 2010 85 m -11 Y s 2010 85 m -11 Y s 2051 79 m -5 Y s 2093 79 m -5 Y s 2134 79 m -5 Y s
 gsave  2268 461 0 0 C 342.112 55.3896 t 0 r /Helvetica findfont 22.9045 sf 0 0 m (940) show NC gr 
 gsave  2268 461 0 0 C 547.38 55.3896 t 0 r /Helvetica findfont 22.9045 sf 0 0 m (950) show NC gr 
 gsave  2268 461 0 0 C 752.647 55.3896 t 0 r /Helvetica findfont 22.9045 sf 0 0 m (960) show NC gr 
 gsave  2268 461 0 0 C 957.915 55.3896 t 0 r /Helvetica findfont 22.9045 sf 0 0 m (970) show NC gr 
 gsave  2268 461 0 0 C 1166.44 55.3896 t 0 r /Helvetica findfont 22.9045 sf 0 0 m (980) show NC gr 
 gsave  2268 461 0 0 C 1371.71 55.3896 t 0 r /Helvetica findfont 22.9045 sf 0 0 m (990) show NC gr 
 gsave  2268 461 0 0 C 1570.46 55.3896 t 0 r /Helvetica findfont 22.9045 sf 0 0 m (1000) show NC gr 
 gsave  2268 461 0 0 C 1775.73 55.3896 t 0 r /Helvetica findfont 22.9045 sf 0 0 m (1010) show NC gr 
 gsave  2268 461 0 0 C 1980.99 55.3896 t 0 r /Helvetica findfont 22.9045 sf 0 0 m (1020) show NC gr  363 438 m 1791 X s 363 427 m 11 Y s 404 433 m 5 Y s 445 433 m 5 Y s 486 433 m 5 Y s 528 433 m 5 Y s 569 427 m 11 Y s 610 433 m 5 Y s 651 433 m 5 Y s
 692 433 m 5 Y s 733 433 m 5 Y s 775 427 m 11 Y s 816 433 m 5 Y s 857 433 m 5 Y s 898 433 m 5 Y s 939 433 m 5 Y s 981 427 m 11 Y s 1022 433 m 5 Y s 1063 433 m 5 Y s 1104 433 m 5 Y s 1145 433 m 5 Y s 1187 427 m 11 Y s 1228 433 m 5 Y s 1269 433 m 5 Y s
 1310 433 m 5 Y s 1351 433 m 5 Y s 1392 427 m 11 Y s 1434 433 m 5 Y s 1475 433 m 5 Y s 1516 433 m 5 Y s 1557 433 m 5 Y s 1598 427 m 11 Y s 1640 433 m 5 Y s 1681 433 m 5 Y s 1722 433 m 5 Y s 1763 433 m 5 Y s 1804 427 m 11 Y s 1845 433 m 5 Y s 1887 433
 m 5 Y s 1928 433 m 5 Y s 1969 433 m 5 Y s 2010 427 m 11 Y s 2010 427 m 11 Y s 2051 433 m 5 Y s 2093 433 m 5 Y s 2134 433 m 5 Y s 363 74 m 364 Y s 417 74 m -54 X s 390 81 m -27 X s 390 88 m -27 X s 390 96 m -27 X s 390 103 m -27 X s 417 110 m -54 X s
 390 118 m -27 X s 390 125 m -27 X s 390 132 m -27 X s 390 139 m -27 X s 417 147 m -54 X s 390 154 m -27 X s 390 161 m -27 X s 390 169 m -27 X s 390 176 m -27 X s 417 183 m -54 X s 390 190 m -27 X s 390 198 m -27 X s 390 205 m -27 X s 390 212 m -27 X
 s 417 220 m -54 X s 390 227 m -27 X s 390 234 m -27 X s 390 241 m -27 X s 390 249 m -27 X s 417 256 m -54 X s 390 263 m -27 X s 390 271 m -27 X s 390 278 m -27 X s 390 285 m -27 X s 417 293 m -54 X s 390 300 m -27 X s 390 307 m -27 X s 390 314 m -27
 X s 390 322 m -27 X s 417 329 m -54 X s 390 336 m -27 X s 390 344 m -27 X s 390 351 m -27 X s 390 358 m -27 X s 417 365 m -54 X s 390 373 m -27 X s 390 380 m -27 X s 390 387 m -27 X s 390 395 m -27 X s 417 402 m -54 X s 390 409 m -27 X s 390 416 m
 -27 X s 390 424 m -27 X s 390 431 m -27 X s 417 438 m -54 X s
 gsave  2268 461 0 0 C 329.08 65.1643 t 0 r /Helvetica findfont 22.9045 sf 0 0 m (\2555) show NC gr 
 gsave  2268 461 0 0 C 329.08 101.005 t 0 r /Helvetica findfont 22.9045 sf 0 0 m (\2554) show NC gr 
 gsave  2268 461 0 0 C 329.08 140.103 t 0 r /Helvetica findfont 22.9045 sf 0 0 m (\2553) show NC gr 
 gsave  2268 461 0 0 C 329.08 175.944 t 0 r /Helvetica findfont 22.9045 sf 0 0 m (\2552) show NC gr 
 gsave  2268 461 0 0 C 332.338 211.784 t 0 r /Helvetica findfont 22.9045 sf 0 0 m (\2551) show NC gr 
 gsave  2268 461 0 0 C 335.596 247.624 t 0 r /Helvetica findfont 22.9045 sf 0 0 m (0) show NC gr 
 gsave  2268 461 0 0 C 338.854 283.465 t 0 r /Helvetica findfont 22.9045 sf 0 0 m (1) show NC gr 
 gsave  2268 461 0 0 C 335.596 319.305 t 0 r /Helvetica findfont 22.9045 sf 0 0 m (2) show NC gr 
 gsave  2268 461 0 0 C 335.596 358.403 t 0 r /Helvetica findfont 22.9045 sf 0 0 m (3) show NC gr 
 gsave  2268 461 0 0 C 335.596 394.244 t 0 r /Helvetica findfont 22.9045 sf 0 0 m (4) show NC gr 
 gsave  2268 461 0 0 C 335.596 430.084 t 0 r /Helvetica findfont 22.9045 sf 0 0 m (5) show NC gr  2154 74 m 364 Y s 2101 74 m 53 X s 2127 81 m 27 X s 2127 88 m 27 X s 2127 96 m 27 X s 2127 103 m 27 X s 2101 110 m 53 X s 2127 118 m 27 X s 2127 125 m
 27 X s 2127 132 m 27 X s 2127 139 m 27 X s 2101 147 m 53 X s 2127 154 m 27 X s 2127 161 m 27 X s 2127 169 m 27 X s 2127 176 m 27 X s 2101 183 m 53 X s 2127 190 m 27 X s 2127 198 m 27 X s 2127 205 m 27 X s 2127 212 m 27 X s 2101 220 m 53 X s 2127 227
 m 27 X s 2127 234 m 27 X s 2127 241 m 27 X s 2127 249 m 27 X s 2101 256 m 53 X s 2127 263 m 27 X s 2127 271 m 27 X s 2127 278 m 27 X s 2127 285 m 27 X s 2101 293 m 53 X s 2127 300 m 27 X s 2127 307 m 27 X s 2127 314 m 27 X s 2127 322 m 27 X s 2101
 329 m 53 X s 2127 336 m 27 X s 2127 344 m 27 X s 2127 351 m 27 X s 2127 358 m 27 X s 2101 365 m 53 X s 2127 373 m 27 X s 2127 380 m 27 X s 2127 387 m 27 X s 2127 395 m 27 X s 2101 402 m 53 X s 2127 409 m 27 X s 2127 416 m 27 X s 2127 424 m 27 X s
 2127 431 m 27 X s 2101 438 m 53 X s 6 lw 0.2 0.8 0.2 c black 3 lw 0.2 0.8 0.2 c 363 256 m -28 Y 36 X 10 Y 35 X 33 Y 36 X -99 Y 36 X 112 Y 36 X -17 Y 36 X 26 Y 36 X -40 Y 35 X -16 Y 36 X 61 Y 36 X -89 Y 36 X 50 Y 36 X 16 Y 36 X -49 Y 35 X 50 Y 36 X
 -35 Y 36 X 20 Y 36 X -20 Y 36 X 51 Y 36 X -67 Y 35 X 38 Y 36 X -71 Y 36 X 86 Y 36 X 44 Y 36 X -76 Y 36 X 29 Y 35 X 1 Y 36 X 9 Y 36 X 18 Y 36 X -100 Y 36 X 36 Y 36 X -20 Y 35 X 42 Y 36 X -46 Y 36 X 70 Y 36 X -20 Y 36 X -3 Y 36 X 43 Y 35 X -42 Y 36 X
 32 Y 36 X -108 Y 36 X 59 Y 36 X -28 Y 36 X -16 Y 35 X 82 Y 36 X -43 Y 36 X 54 Y 36 X -24 Y 36 X -37 Y 36 X 54 Y 35 X -32 Y f 6 lw black 0.2 0.8 0.2 c black 363 228 m 36 X 10 Y 35 X 33 Y 36 X -99 Y 36 X 112 Y 36 X -17 Y 36 X 26 Y 36 X -40 Y 35 X -16
 Y 36 X 61 Y 36 X -89 Y 36 X 50 Y 36 X 16 Y 36 X -49 Y 35 X 50 Y 36 X -35 Y 36 X 20 Y 36 X -20 Y 36 X 51 Y 36 X -67 Y 35 X 38 Y 36 X -71 Y 36 X 86 Y 36 X 44 Y 36 X -76 Y 36 X 29 Y 35 X 1 Y 36 X 9 Y 36 X 18 Y 36 X -100 Y 36 X 36 Y 36 X -20 Y 35 X 42 Y
 36 X -46 Y 36 X 70 Y 36 X -20 Y 36 X -3 Y 36 X 43 Y 35 X -42 Y 36 X 32 Y 36 X -108 Y 36 X 59 Y 36 X -28 Y 36 X -16 Y 35 X 82 Y 36 X -43 Y 36 X 54 Y 36 X -24 Y 36 X -37 Y 36 X 54 Y 35 X s 3 lw 363 74 m 1791 X s 363 85 m -11 Y s 404 79 m -5 Y s 445 79
 m -5 Y s 486 79 m -5 Y s 528 79 m -5 Y s 569 85 m -11 Y s 610 79 m -5 Y s 651 79 m -5 Y s 692 79 m -5 Y s 733 79 m -5 Y s 775 85 m -11 Y s 816 79 m -5 Y s 857 79 m -5 Y s 898 79 m -5 Y s 939 79 m -5 Y s 981 85 m -11 Y s 1022 79 m -5 Y s 1063 79 m -5
 Y s 1104 79 m -5 Y s 1145 79 m -5 Y s 1187 85 m -11 Y s 1228 79 m -5 Y s 1269 79 m -5 Y s 1310 79 m -5 Y s 1351 79 m -5 Y s 1392 85 m -11 Y s 1434 79 m -5 Y s 1475 79 m -5 Y s 1516 79 m -5 Y s 1557 79 m -5 Y s 1598 85 m -11 Y s 1640 79 m -5 Y s 1681
 79 m -5 Y s 1722 79 m -5 Y s 1763 79 m -5 Y s 1804 85 m -11 Y s 1845 79 m -5 Y s 1887 79 m -5 Y s 1928 79 m -5 Y s 1969 79 m -5 Y s 2010 85 m -11 Y s 2010 85 m -11 Y s 2051 79 m -5 Y s 2093 79 m -5 Y s 2134 79 m -5 Y s 363 438 m 1791 X s 363 427 m
 11 Y s 404 433 m 5 Y s 445 433 m 5 Y s 486 433 m 5 Y s 528 433 m 5 Y s 569 427 m 11 Y s 610 433 m 5 Y s 651 433 m 5 Y s 692 433 m 5 Y s 733 433 m 5 Y s 775 427 m 11 Y s 816 433 m 5 Y s 857 433 m 5 Y s 898 433 m 5 Y s 939 433 m 5 Y s 981 427 m 11 Y s
 1022 433 m 5 Y s 1063 433 m 5 Y s 1104 433 m 5 Y s 1145 433 m 5 Y s 1187 427 m 11 Y s 1228 433 m 5 Y s 1269 433 m 5 Y s 1310 433 m 5 Y s 1351 433 m 5 Y s 1392 427 m 11 Y s 1434 433 m 5 Y s 1475 433 m 5 Y s 1516 433 m 5 Y s 1557 433 m 5 Y s 1598 427
 m 11 Y s 1640 433 m 5 Y s 1681 433 m 5 Y s 1722 433 m 5 Y s 1763 433 m 5 Y s 1804 427 m 11 Y s 1845 433 m 5 Y s 1887 433 m 5 Y s 1928 433 m 5 Y s 1969 433 m 5 Y s 2010 427 m 11 Y s 2010 427 m 11 Y s 2051 433 m 5 Y s 2093 433 m 5 Y s 2134 433 m 5 Y s
 363 74 m 364 Y s 417 74 m -54 X s 390 81 m -27 X s 390 88 m -27 X s 390 96 m -27 X s 390 103 m -27 X s 417 110 m -54 X s 390 118 m -27 X s 390 125 m -27 X s 390 132 m -27 X s 390 139 m -27 X s 417 147 m -54 X s 390 154 m -27 X s 390 161 m -27 X s
 390 169 m -27 X s 390 176 m -27 X s 417 183 m -54 X s 390 190 m -27 X s 390 198 m -27 X s 390 205 m -27 X s 390 212 m -27 X s 417 220 m -54 X s 390 227 m -27 X s 390 234 m -27 X s 390 241 m -27 X s 390 249 m -27 X s 417 256 m -54 X s 390 263 m -27 X
 s 390 271 m -27 X s 390 278 m -27 X s 390 285 m -27 X s 417 293 m -54 X s 390 300 m -27 X s 390 307 m -27 X s 390 314 m -27 X s 390 322 m -27 X s 417 329 m -54 X s 390 336 m -27 X s 390 344 m -27 X s 390 351 m -27 X s 390 358 m -27 X s 417 365 m -54
 X s 390 373 m -27 X s 390 380 m -27 X s 390 387 m -27 X s 390 395 m -27 X s 417 402 m -54 X s 390 409 m -27 X s 390 416 m -27 X s 390 424 m -27 X s 390 431 m -27 X s 417 438 m -54 X s 2154 74 m 364 Y s 2101 74 m 53 X s 2127 81 m 27 X s 2127 88 m 27
 X s 2127 96 m 27 X s 2127 103 m 27 X s 2101 110 m 53 X s 2127 118 m 27 X s 2127 125 m 27 X s 2127 132 m 27 X s 2127 139 m 27 X s 2101 147 m 53 X s 2127 154 m 27 X s 2127 161 m 27 X s 2127 169 m 27 X s 2127 176 m 27 X s 2101 183 m 53 X s 2127 190 m
 27 X s 2127 198 m 27 X s 2127 205 m 27 X s 2127 212 m 27 X s 2101 220 m 53 X s 2127 227 m 27 X s 2127 234 m 27 X s 2127 241 m 27 X s 2127 249 m 27 X s 2101 256 m 53 X s 2127 263 m 27 X s 2127 271 m 27 X s 2127 278 m 27 X s 2127 285 m 27 X s 2101 293
 m 53 X s 2127 300 m 27 X s 2127 307 m 27 X s 2127 314 m 27 X s 2127 322 m 27 X s 2101 329 m 53 X s 2127 336 m 27 X s 2127 344 m 27 X s 2127 351 m 27 X s 2127 358 m 27 X s 2101 365 m 53 X s 2127 373 m 27 X s 2127 380 m 27 X s 2127 387 m 27 X s 2127
 395 m 27 X s 2101 402 m 53 X s 2127 409 m 27 X s 2127 416 m 27 X s 2127 424 m 27 X s 2127 431 m 27 X s 2101 438 m 53 X s
 gr  gr showpage
end
%%EOF
