%!PS-Adobe-2.0 EPSF-2.0
%%BoundingBox:  0 0 567 384
%%Title: H4l2015_plotfit/gg_mass_signal_500_fixed_H4l_4e.eps: 
%%Creator: ROOT Version 5.34/10
%%CreationDate: Thu Feb 16 13:48:31 2017
%%EndComments
%%BeginProlog
80 dict begin
/s {stroke} def /l {lineto} def /m {moveto} def /t {translate} def
/r {rotate} def /rl {roll}  def /R {repeat} def
/d {rlineto} def /rm {rmoveto} def /gr {grestore} def /f {eofill} def
/c {setrgbcolor} def /black {0 setgray} def /sd {setdash} def
/cl {closepath} def /sf {scalefont setfont} def /lw {setlinewidth} def
/box {m dup 0 exch d exch 0 d 0 exch neg d cl} def
/NC{systemdict begin initclip end}def/C{NC box clip newpath}def
/bl {box s} def /bf {box f} def /Y { 0 exch d} def /X { 0 d} def 
/K {{pop pop 0 moveto} exch kshow} bind def
/ita {/ang 15 def gsave [1 0 ang dup sin exch cos div 1 0 0] concat} def 
/mp {newpath /y exch def /x exch def} def
/side {[w .77 mul w .23 mul] .385 w mul sd w 0 l currentpoint t -144 r} def
/mr {mp x y w2 0 360 arc} def /m24 {mr s} def /m20 {mr f} def
/mb {mp x y w2 add m w2 neg 0 d 0 w neg d w 0 d 0 w d cl} def
/mt {mp x y w2 add m w2 neg w neg d w 0 d cl} def
/m21 {mb f} def /m25 {mb s} def /m22 {mt f} def /m26{mt s} def
/m23 {mp x y w2 sub m w2 w d w neg 0 d cl f} def
/m27 {mp x y w2 add m w3 neg w2 neg d w3 w2 neg d w3 w2 d cl s} def
/m28 {mp x w2 sub y w2 sub w3 add m w3 0 d  0 w3 neg d w3 0 d 0 w3 d w3 0 d  0 w3 d w3 neg 0 d 0 w3 d w3 neg 0 d 0 w3 neg d w3 neg 0 d cl s } def
/m29 {mp gsave x w2 sub y w2 add w3 sub m currentpoint t 4 {side} repeat cl fill gr} def
/m30 {mp gsave x w2 sub y w2 add w3 sub m currentpoint t 4 {side} repeat cl s gr} def
/m31 {mp x y w2 sub m 0 w d x w2 sub y m w 0 d x w2 sub y w2 add m w w neg d x w2 sub y w2 sub m w w d s} def
/m32 {mp x y w2 sub m w2 w d w neg 0 d cl s} def
/m33 {mp x y w2 add m w3 neg w2 neg d w3 w2 neg d w3 w2 d cl f} def
/m34 {mp x w2 sub y w2 sub w3 add m w3 0 d  0 w3 neg d w3 0 d 0 w3 d w3 0 d  0 w3 d w3 neg 0 d 0 w3 d w3 neg 0 d 0 w3 neg d w3 neg 0 d cl f } def
/m2 {mp x y w2 sub m 0 w d x w2 sub y m w 0 d s} def
/m5 {mp x w2 sub y w2 sub m w w d x w2 sub y w2 add m w w neg d s} def
/reEncode {exch findfont dup length dict begin {1 index /FID eq  {pop pop} {def} ifelse } forall /Encoding exch def currentdict end dup /FontName get exch definefont pop } def [/Times-Bold /Times-Italic /Times-BoldItalic /Helvetica /Helvetica-Oblique
 /Helvetica-Bold /Helvetica-BoldOblique /Courier /Courier-Oblique /Courier-Bold /Courier-BoldOblique /Times-Roman /AvantGarde-Book /AvantGarde-BookOblique /AvantGarde-Demi /AvantGarde-DemiOblique /Bookman-Demi /Bookman-DemiItalic /Bookman-Light
 /Bookman-LightItalic /Helvetica-Narrow /Helvetica-Narrow-Bold /Helvetica-Narrow-BoldOblique /Helvetica-Narrow-Oblique /NewCenturySchlbk-Roman /NewCenturySchlbk-Bold /NewCenturySchlbk-BoldItalic /NewCenturySchlbk-Italic /Palatino-Bold
 /Palatino-BoldItalic /Palatino-Italic /Palatino-Roman ] {ISOLatin1Encoding reEncode } forall
%%EndProlog
%%BeginSetup
%%EndSetup
newpath  gsave  .25 .25 scale  gsave  0 0 t black[  ] 0 sd 3 lw 1 1 1 c 2268 1538 0 0 bf black 1 1 1 c 2222 738 23 784 bf black 1 1 1 c 2222 739 23 15 bf black 1 1 1 c 2268 1077 0 461 bf black 1 1 1 c 1791 850 363 634 bf black 1791 850 363 634 bl 363
 634 m 1791 X s
 gsave  2268 1077 0 461 C 1642.14 498.507 t 0 r /Helvetica findfont 48.9324 sf 0 0 m (4l Invariant Mass \(GeV\)) show NC gr  363 659 m -25 Y s 416 646 m -12 Y s 468 646 m -12 Y s 521 646 m -12 Y s 574 646 m -12 Y s 626 659 m -25 Y s 679 646 m -12 Y s
 732 646 m -12 Y s 784 646 m -12 Y s 837 646 m -12 Y s 890 659 m -25 Y s 942 646 m -12 Y s 995 646 m -12 Y s 1048 646 m -12 Y s 1101 646 m -12 Y s 1153 659 m -25 Y s 1206 646 m -12 Y s 1259 646 m -12 Y s 1311 646 m -12 Y s 1364 646 m -12 Y s 1417 659
 m -25 Y s 1469 646 m -12 Y s 1522 646 m -12 Y s 1575 646 m -12 Y s 1627 646 m -12 Y s 1680 659 m -25 Y s 1733 646 m -12 Y s 1785 646 m -12 Y s 1838 646 m -12 Y s 1891 646 m -12 Y s 1944 659 m -25 Y s 1944 659 m -25 Y s 1996 646 m -12 Y s 2049 646 m
 -12 Y s 2102 646 m -12 Y s 2154 646 m -12 Y s
 gsave  2268 1077 0 461 C 319.305 586.478 t 0 r /Helvetica findfont 48.9324 sf 0 0 m (450) show NC gr 
 gsave  2268 1077 0 461 C 583.22 586.478 t 0 r /Helvetica findfont 48.9324 sf 0 0 m (460) show NC gr 
 gsave  2268 1077 0 461 C 847.135 586.478 t 0 r /Helvetica findfont 48.9324 sf 0 0 m (470) show NC gr 
 gsave  2268 1077 0 461 C 1107.79 586.478 t 0 r /Helvetica findfont 48.9324 sf 0 0 m (480) show NC gr 
 gsave  2268 1077 0 461 C 1371.71 586.478 t 0 r /Helvetica findfont 48.9324 sf 0 0 m (490) show NC gr 
 gsave  2268 1077 0 461 C 1635.62 586.478 t 0 r /Helvetica findfont 48.9324 sf 0 0 m (500) show NC gr 
 gsave  2268 1077 0 461 C 1899.54 586.478 t 0 r /Helvetica findfont 48.9324 sf 0 0 m (510) show NC gr  363 1484 m 1791 X s 363 1459 m 25 Y s 416 1471 m 13 Y s 468 1471 m 13 Y s 521 1471 m 13 Y s 574 1471 m 13 Y s 626 1459 m 25 Y s 679 1471 m 13 Y s
 732 1471 m 13 Y s 784 1471 m 13 Y s 837 1471 m 13 Y s 890 1459 m 25 Y s 942 1471 m 13 Y s 995 1471 m 13 Y s 1048 1471 m 13 Y s 1101 1471 m 13 Y s 1153 1459 m 25 Y s 1206 1471 m 13 Y s 1259 1471 m 13 Y s 1311 1471 m 13 Y s 1364 1471 m 13 Y s 1417
 1459 m 25 Y s 1469 1471 m 13 Y s 1522 1471 m 13 Y s 1575 1471 m 13 Y s 1627 1471 m 13 Y s 1680 1459 m 25 Y s 1733 1471 m 13 Y s 1785 1471 m 13 Y s 1838 1471 m 13 Y s 1891 1471 m 13 Y s 1944 1459 m 25 Y s 1944 1459 m 25 Y s 1996 1471 m 13 Y s 2049
 1471 m 13 Y s 2102 1471 m 13 Y s 2154 1471 m 13 Y s 363 634 m 850 Y s
 gsave  2268 1077 0 461 C 120.554 1032.85 t 90 r /Helvetica findfont 48.9324 sf 0 0 m (Events / \( 1.36 GeV \)) show NC gr  390 664 m -27 X s 390 718 m -27 X s 390 757 m -27 X s 390 786 m -27 X s 390 810 m -27 X s 390 831 m -27 X s 390 849 m -27 X s
 390 864 m -27 X s 417 878 m -54 X s
 gsave  2268 1077 0 461 C 342.425 857.468 t 0 r  -55 0 t /Helvetica findfont 48.9324 sf 0 0 m (10) show NC gr  390 970 m -27 X s 390 1024 m -27 X s 390 1063 m -27 X s 390 1092 m -27 X s 390 1117 m -27 X s 390 1137 m -27 X s 390 1155 m -27 X s 390
 1170 m -27 X s 417 1184 m -54 X s
 gsave  2268 1077 0 461 C 322.563 1182.73 t 0 r /Helvetica findfont 32.6216 sf 0 0 m (2) show NC gr 
 gsave  2268 1077 0 461 C 270.432 1163.18 t 0 r /Helvetica findfont 48.9324 sf 0 0 m (10) show NC gr  390 1277 m -27 X s 390 1330 m -27 X s 390 1369 m -27 X s 390 1398 m -27 X s 390 1423 m -27 X s 390 1443 m -27 X s 390 1461 m -27 X s 390 1477 m -27
 X s 2154 634 m 850 Y s 2127 664 m 27 X s 2127 718 m 27 X s 2127 757 m 27 X s 2127 786 m 27 X s 2127 810 m 27 X s 2127 831 m 27 X s 2127 849 m 27 X s 2127 864 m 27 X s 2101 878 m 53 X s 2127 970 m 27 X s 2127 1024 m 27 X s 2127 1063 m 27 X s 2127
 1092 m 27 X s 2127 1117 m 27 X s 2127 1137 m 27 X s 2127 1155 m 27 X s 2127 1170 m 27 X s 2101 1184 m 53 X s 2127 1277 m 27 X s 2127 1330 m 27 X s 2127 1369 m 27 X s 2127 1398 m 27 X s 2127 1423 m 27 X s 2127 1443 m 27 X s 2127 1461 m 27 X s 2127
 1477 m 27 X s 381 664 m -18 X s 363 664 m cl s 381 664 m 18 X s 399 664 m cl s 381 664 m 112 Y s 381 776 m cl s 381 664 m -30 Y s 381 634 m cl s 452 786 m -18 X s 434 786 m cl s 452 786 m 18 X s 470 786 m cl s 452 786 m 69 Y s 452 855 m cl s 452 786
 m -75 Y s 452 711 m cl s 488 810 m -18 X s 470 810 m cl s 488 810 m 18 X s 506 810 m cl s 488 810 m 63 Y s 488 873 m cl s 488 810 m -67 Y s 488 743 m cl s 524 718 m -18 X s 506 718 m cl s 524 718 m 18 X s 542 718 m cl s 524 718 m 91 Y s 524 809 m cl
 s 524 718 m -84 Y s 524 634 m cl s 560 757 m -18 X s 542 757 m cl s 560 757 m 18 X s 578 757 m cl s 560 757 m 77 Y s 560 834 m cl s 560 757 m -87 Y s 560 670 m cl s 596 664 m -18 X s 578 664 m cl s 596 664 m 18 X s 614 664 m cl s 596 664 m 112 Y s
 596 776 m cl s 596 664 m -30 Y s 596 634 m cl s 632 664 m -18 X s 614 664 m cl s 632 664 m 17 X s 649 664 m cl s 632 664 m 112 Y s 632 776 m cl s 632 664 m -30 Y s 632 634 m cl s 667 664 m -18 X s 649 664 m cl s 667 664 m 18 X s 685 664 m cl s 667
 664 m 112 Y s 667 776 m cl s 667 664 m -30 Y s 667 634 m cl s 703 810 m -18 X s 685 810 m cl s 703 810 m 18 X s 721 810 m cl s 703 810 m 63 Y s 703 873 m cl s 703 810 m -67 Y s 703 743 m cl s 775 786 m -18 X s 757 786 m cl s 775 786 m 18 X s 793 786
 m cl s 775 786 m 69 Y s 775 855 m cl s 775 786 m -75 Y s 775 711 m cl s 811 891 m -18 X s 793 891 m cl s 811 891 m 18 X s 829 891 m cl s 811 891 m 45 Y s 811 936 m cl s 811 891 m -47 Y s 811 844 m cl s 847 831 m -18 X s 829 831 m cl s 847 831 m 17 X
 s 864 831 m cl s 847 831 m 57 Y s 847 888 m cl s 847 831 m -61 Y s 847 770 m cl s 882 913 m -18 X s 864 913 m cl s 882 913 m 18 X s 900 913 m cl s 882 913 m 41 Y s 882 954 m cl s 882 913 m -42 Y s 882 871 m cl s 918 810 m -18 X s 900 810 m cl s 918
 810 m 18 X s 936 810 m cl s 918 810 m 63 Y s 918 873 m cl s 918 810 m -67 Y s 918 743 m cl s 954 864 m -18 X s 936 864 m cl s 954 864 m 18 X s 972 864 m cl s 954 864 m 50 Y s 954 914 m cl s 954 864 m -52 Y s 954 812 m cl s 990 923 m -18 X s 972 923
 m cl s 990 923 m 18 X s 1008 923 m cl s 990 923 m 39 Y s 990 962 m cl s 990 923 m -41 Y s 990 882 m cl s 1026 932 m -18 X s 1008 932 m cl s 1026 932 m 18 X s 1044 932 m cl s 1026 932 m 38 Y s 1026 970 m cl s 1026 932 m -39 Y s 1026 893 m cl s 1062
 941 m -18 X s 1044 941 m cl s 1062 941 m 17 X s 1079 941 m cl s 1062 941 m 36 Y s 1062 977 m cl s 1062 941 m -38 Y s 1062 903 m cl s 1097 964 m -18 X s 1079 964 m cl s 1097 964 m 18 X s 1115 964 m cl s 1097 964 m 33 Y s 1097 997 m cl s 1097 964 m
 -35 Y s 1097 929 m cl s 1133 1024 m -18 X s 1115 1024 m cl s 1133 1024 m 18 X s 1151 1024 m cl s 1133 1024 m 27 Y s 1133 1051 m cl s 1133 1024 m -26 Y s 1133 998 m cl s 1169 1052 m -18 X s 1151 1052 m cl s 1169 1052 m 18 X s 1187 1052 m cl s 1169
 1052 m 24 Y s 1169 1076 m cl s 1169 1052 m -24 Y s 1169 1028 m cl s 1205 1066 m -18 X s 1187 1066 m cl s 1205 1066 m 18 X s 1223 1066 m cl s 1205 1066 m 22 Y s 1205 1088 m cl s 1205 1066 m -23 Y s 1205 1043 m cl s 1241 1110 m -18 X s 1223 1110 m cl
 s 1241 1110 m 18 X s 1259 1110 m cl s 1241 1110 m 18 Y s 1241 1128 m cl s 1241 1110 m -19 Y s 1241 1091 m cl s 1276 1135 m -17 X s 1259 1135 m cl s 1276 1135 m 18 X s 1294 1135 m cl s 1276 1135 m 17 Y s 1276 1152 m cl s 1276 1135 m -17 Y s 1276 1118
 m cl s 1312 1169 m -18 X s 1294 1169 m cl s 1312 1169 m 18 X s 1330 1169 m cl s 1312 1169 m 15 Y s 1312 1184 m cl s 1312 1169 m -15 Y s 1312 1154 m cl s 1348 1179 m -18 X s 1330 1179 m cl s 1348 1179 m 18 X s 1366 1179 m cl s 1348 1179 m 14 Y s 1348
 1193 m cl s 1348 1179 m -14 Y s 1348 1165 m cl s 1384 1217 m -18 X s 1366 1217 m cl s 1384 1217 m 18 X s 1402 1217 m cl s 1384 1217 m 12 Y s 1384 1229 m cl s 1384 1217 m -11 Y s 1384 1206 m cl s 1420 1263 m -18 X s 1402 1263 m cl s 1420 1263 m 18 X
 s 1438 1263 m cl s 1420 1263 m 10 Y s 1420 1273 m cl s 1420 1263 m -10 Y s 1420 1253 m cl s 1456 1284 m -18 X s 1438 1284 m cl s 1456 1284 m 18 X s 1474 1284 m cl s 1456 1284 m 9 Y s 1456 1293 m cl s 1456 1284 m -9 Y s 1456 1275 m cl s 1491 1318 m
 -17 X s 1474 1318 m cl s 1491 1318 m 18 X s 1509 1318 m cl s 1491 1318 m 8 Y s 1491 1326 m cl s 1491 1318 m -8 Y s 1491 1310 m cl s 1527 1349 m -18 X s 1509 1349 m cl s 1527 1349 m 18 X s 1545 1349 m cl s 1527 1349 m 8 Y s 1527 1357 m cl s 1527 1349
 m -7 Y s 1527 1342 m cl s 1563 1392 m -18 X s 1545 1392 m cl s 1563 1392 m 18 X s 1581 1392 m cl s 1563 1392 m 6 Y s 1563 1398 m cl s 1563 1392 m -6 Y s 1563 1386 m cl s 1599 1418 m -18 X s 1581 1418 m cl s 1599 1418 m 18 X s 1617 1418 m cl s 1599
 1418 m 6 Y s 1599 1424 m cl s 1599 1418 m -5 Y s 1599 1413 m cl s 1635 1409 m -18 X s 1617 1409 m cl s 1635 1409 m 18 X s 1653 1409 m cl s 1635 1409 m 5 Y s 1635 1414 m cl s 1635 1409 m -6 Y s 1635 1403 m cl s 1671 1411 m -18 X s 1653 1411 m cl s
 1671 1411 m 18 X s 1689 1411 m cl s 1671 1411 m 5 Y s 1671 1416 m cl s 1671 1411 m -6 Y s 1671 1405 m cl s 1706 1405 m -17 X s 1689 1405 m cl s 1706 1405 m 18 X s 1724 1405 m cl s 1706 1405 m 5 Y s 1706 1410 m cl s 1706 1405 m -6 Y s 1706 1399 m cl
 s 1742 1389 m -18 X s 1724 1389 m cl s 1742 1389 m 18 X s 1760 1389 m cl s 1742 1389 m 6 Y s 1742 1395 m cl s 1742 1389 m -6 Y s 1742 1383 m cl s 1778 1329 m -18 X s 1760 1329 m cl s 1778 1329 m 18 X s 1796 1329 m cl s 1778 1329 m 8 Y s 1778 1337 m
 cl s 1778 1329 m -8 Y s 1778 1321 m cl s 1814 1263 m -18 X s 1796 1263 m cl s 1814 1263 m 18 X s 1832 1263 m cl s 1814 1263 m 9 Y s 1814 1272 m cl s 1814 1263 m -10 Y s 1814 1253 m cl s 1850 1203 m -18 X s 1832 1203 m cl s 1850 1203 m 18 X s 1868
 1203 m cl s 1850 1203 m 12 Y s 1850 1215 m cl s 1850 1203 m -12 Y s 1850 1191 m cl s 1886 1137 m -18 X s 1868 1137 m cl s 1886 1137 m 18 X s 1904 1137 m cl s 1886 1137 m 17 Y s 1886 1154 m cl s 1886 1137 m -17 Y s 1886 1120 m cl s 1921 1105 m -17 X
 s 1904 1105 m cl s 1921 1105 m 18 X s 1939 1105 m cl s 1921 1105 m 19 Y s 1921 1124 m cl s 1921 1105 m -19 Y s 1921 1086 m cl s 1957 1052 m -18 X s 1939 1052 m cl s 1957 1052 m 18 X s 1975 1052 m cl s 1957 1052 m 24 Y s 1957 1076 m cl s 1957 1052 m
 -24 Y s 1957 1028 m cl s 1993 977 m -18 X s 1975 977 m cl s 1993 977 m 18 X s 2011 977 m cl s 1993 977 m 32 Y s 1993 1009 m cl s 1993 977 m -32 Y s 1993 945 m cl s 2029 864 m -18 X s 2011 864 m cl s 2029 864 m 18 X s 2047 864 m cl s 2029 864 m 50 Y
 s 2029 914 m cl s 2029 864 m -52 Y s 2029 812 m cl s 2065 923 m -18 X s 2047 923 m cl s 2065 923 m 18 X s 2083 923 m cl s 2065 923 m 39 Y s 2065 962 m cl s 2065 923 m -41 Y s 2065 882 m cl s 2101 831 m -18 X s 2083 831 m cl s 2101 831 m 18 X s 2119
 831 m cl s 2101 831 m 57 Y s 2101 888 m cl s 2101 831 m -61 Y s 2101 770 m cl s /w 31 def /w2 {w 2 div} def /w3 {w 3 div} def 381 664 m20 452 786 488 810 524 718 560 757 596 664 632 664 667 664 703 810 8 { m20} R 775 786 811 891 847 831 882 913 918
 810 954 864 990 923 1026 932 1062 941 1097 964 1133 1024 1169 1052 1205 1066 1241 1110 1276 1135 1312 1169 1348 1179 1384 1217 1420 1263 1456 1284 1491 1318 1527 1349 1563 1392 1599 1418 1635 1409 1671 1411 1706 1405 1742 1389 1778 1329 1814 1263
 1850 1203 1886 1137 1921 1105 1957 1052 1993 977 2029 864 2065 923 2101 831 38 { m20} R 0 1 1 c 1 1 0 c black 1 1 0 c 363 749 m 36 7 d 35 8 d 36 7 d 36 8 d 36 8 d 36 8 d 36 9 d 35 8 d 36 10 d 36 9 d 36 10 d 36 10 d 36 11 d 35 12 d 36 12 d 36 14 d 36
 15 d 36 16 d 36 19 d 35 20 d 36 23 d 36 25 d 36 27 d 36 29 d 36 29 d 35 31 d 36 30 d 18 16 d 18 15 d 18 16 d 18 16 d 18 16 d 18 17 d 18 17 d 9 9 d 9 10 d 9 10 d 8 10 d 9 11 d 9 11 d 36 40 d 18 15 d 9 7 d 9 6 d 9 5 d 9 4 d 9 3 d 9 2 d 9 2 d 9 1 d 9 X
 9 -1 d 9 -2 d 9 -3 d 9 -3 d 9 -5 d 8 -5 d 9 -6 d 9 -6 d 9 -8 d 36 -37 d 18 -23 d 9 -12 d 9 -13 d 9 -13 d 9 -14 d 9 -14 d 9 -14 d 9 -14 d 9 -15 d 9 -15 d 9 -14 d 18 -29 d 18 -28 d 17 -28 d 18 -26 d 18 -25 d 18 -25 d 36 -48 d 36 -48 d 36 -51 d 36 -54
 d 35 -58 d -35 58 d -36 54 d -36 51 d -36 48 d -36 48 d -18 25 d -18 25 d -18 26 d -17 28 d -18 28 d -18 29 d -9 14 d -9 15 d -9 15 d -9 14 d -9 14 d -9 14 d -9 14 d -9 13 d -9 13 d -9 12 d -18 23 d -36 37 d -9 8 d -9 6 d -9 6 d -8 5 d -9 5 d -9 3 d
 -9 3 d -9 2 d -9 1 d -9 X -9 -1 d -9 -2 d -9 -2 d -9 -3 d -9 -4 d -9 -5 d -9 -6 d -9 -7 d -18 -15 d -36 -40 d -9 -11 d -9 -11 d -8 -10 d -9 -10 d -9 -10 d -9 -9 d -18 -17 d -18 -17 d -18 -16 d -18 -16 d -18 -16 d -18 -15 d -18 -16 d -36 -30 d -35
 -31 d -36 -29 d -36 -29 d -36 -27 d -36 -25 d -36 -23 d -35 -20 d -36 -19 d -36 -16 d -36 -15 d -36 -14 d -36 -12 d -35 -12 d -36 -11 d -36 -10 d -36 -10 d -36 -9 d -36 -10 d -35 -8 d -36 -9 d -36 -8 d -36 -8 d -36 -8 d -36 -7 d -35 -8 d -36 -7 d f
 0 1 1 c 0 1 0 c black 0 1 0 c 363 749 m 36 7 d 35 8 d 36 7 d 36 8 d 36 8 d 36 8 d 36 9 d 35 8 d 36 10 d 36 9 d 36 10 d 36 10 d 36 11 d 35 12 d 36 12 d 36 14 d 36 15 d 36 16 d 36 19 d 35 20 d 36 23 d 36 25 d 36 27 d 36 29 d 36 29 d 35 31 d 36 30 d 18
 16 d 18 15 d 18 16 d 18 16 d 18 16 d 18 17 d 18 17 d 9 9 d 9 10 d 9 10 d 8 10 d 9 11 d 9 11 d 36 40 d 18 15 d 9 7 d 9 6 d 9 5 d 9 4 d 9 3 d 9 2 d 9 2 d 9 1 d 9 X 9 -1 d 9 -2 d 9 -3 d 9 -3 d 9 -5 d 8 -5 d 9 -6 d 9 -6 d 9 -8 d 36 -37 d 18 -23 d 9 -12
 d 9 -13 d 9 -13 d 9 -14 d 9 -14 d 9 -14 d 9 -14 d 9 -15 d 9 -15 d 9 -14 d 18 -29 d 18 -28 d 17 -28 d 18 -26 d 18 -25 d 18 -25 d 36 -48 d 36 -48 d 36 -51 d 36 -54 d 35 -58 d -35 58 d -36 54 d -36 51 d -36 48 d -36 48 d -18 25 d -18 25 d -18 26 d -17
 28 d -18 28 d -18 29 d -9 14 d -9 15 d -9 15 d -9 14 d -9 14 d -9 14 d -9 14 d -9 13 d -9 13 d -9 12 d -18 23 d -36 37 d -9 8 d -9 6 d -9 6 d -8 5 d -9 5 d -9 3 d -9 3 d -9 2 d -9 1 d -9 X -9 -1 d -9 -2 d -9 -2 d -9 -3 d -9 -4 d -9 -5 d -9 -6 d -9
 -7 d -18 -15 d -36 -40 d -9 -11 d -9 -11 d -8 -10 d -9 -10 d -9 -10 d -9 -9 d -18 -17 d -18 -17 d -18 -16 d -18 -16 d -18 -16 d -18 -15 d -18 -16 d -36 -30 d -35 -31 d -36 -29 d -36 -29 d -36 -27 d -36 -25 d -36 -23 d -35 -20 d -36 -19 d -36 -16 d
 -36 -15 d -36 -14 d -36 -12 d -35 -12 d -36 -11 d -36 -10 d -36 -10 d -36 -9 d -36 -10 d -35 -8 d -36 -9 d -36 -8 d -36 -8 d -36 -8 d -36 -7 d -35 -8 d -36 -7 d f 0 0 1 c 9 lw black 0 0 1 c 363 749 m 36 7 d 35 8 d 36 7 d 36 8 d 36 8 d 36 8 d 36 9 d
 35 8 d 36 10 d 36 9 d 36 10 d 36 10 d 36 11 d 35 12 d 36 12 d 36 14 d 36 15 d 36 16 d 36 19 d 35 20 d 36 23 d 36 25 d 36 27 d 36 29 d 36 29 d 35 31 d 36 30 d 18 16 d 18 15 d 18 16 d 18 16 d 18 16 d 18 17 d 18 17 d 9 9 d 9 10 d 9 10 d 8 10 d 9 11 d 9
 11 d 36 40 d 18 15 d 9 7 d 9 6 d 9 5 d 9 4 d 9 3 d 9 2 d 9 2 d 9 1 d 9 X 9 -1 d 9 -2 d 9 -3 d 9 -3 d 9 -5 d 8 -5 d 9 -6 d 9 -6 d 9 -8 d 36 -37 d 18 -23 d 9 -12 d 9 -13 d 9 -13 d 9 -14 d 9 -14 d 9 -14 d 9 -14 d 9 -15 d 9 -15 d 9 -14 d 18 -29 d 18 -28
 d 17 -28 d 18 -26 d 18 -25 d 18 -25 d 36 -48 d 36 -48 d 36 -51 d 36 -54 d 35 -58 d s black 3 lw 381 664 m -18 X s 363 664 m cl s 381 664 m 18 X s 399 664 m cl s 381 664 m 112 Y s 381 776 m cl s 381 664 m -30 Y s 381 634 m cl s 452 786 m -18 X s 434
 786 m cl s 452 786 m 18 X s 470 786 m cl s 452 786 m 69 Y s 452 855 m cl s 452 786 m -75 Y s 452 711 m cl s 488 810 m -18 X s 470 810 m cl s 488 810 m 18 X s 506 810 m cl s 488 810 m 63 Y s 488 873 m cl s 488 810 m -67 Y s 488 743 m cl s 524 718 m
 -18 X s 506 718 m cl s 524 718 m 18 X s 542 718 m cl s 524 718 m 91 Y s 524 809 m cl s 524 718 m -84 Y s 524 634 m cl s 560 757 m -18 X s 542 757 m cl s 560 757 m 18 X s 578 757 m cl s 560 757 m 77 Y s 560 834 m cl s 560 757 m -87 Y s 560 670 m cl s
 596 664 m -18 X s 578 664 m cl s 596 664 m 18 X s 614 664 m cl s 596 664 m 112 Y s 596 776 m cl s 596 664 m -30 Y s 596 634 m cl s 632 664 m -18 X s 614 664 m cl s 632 664 m 17 X s 649 664 m cl s 632 664 m 112 Y s 632 776 m cl s 632 664 m -30 Y s
 632 634 m cl s 667 664 m -18 X s 649 664 m cl s 667 664 m 18 X s 685 664 m cl s 667 664 m 112 Y s 667 776 m cl s 667 664 m -30 Y s 667 634 m cl s 703 810 m -18 X s 685 810 m cl s 703 810 m 18 X s 721 810 m cl s 703 810 m 63 Y s 703 873 m cl s 703
 810 m -67 Y s 703 743 m cl s 775 786 m -18 X s 757 786 m cl s 775 786 m 18 X s 793 786 m cl s 775 786 m 69 Y s 775 855 m cl s 775 786 m -75 Y s 775 711 m cl s 811 891 m -18 X s 793 891 m cl s 811 891 m 18 X s 829 891 m cl s 811 891 m 45 Y s 811 936
 m cl s 811 891 m -47 Y s 811 844 m cl s 847 831 m -18 X s 829 831 m cl s 847 831 m 17 X s 864 831 m cl s 847 831 m 57 Y s 847 888 m cl s 847 831 m -61 Y s 847 770 m cl s 882 913 m -18 X s 864 913 m cl s 882 913 m 18 X s 900 913 m cl s 882 913 m 41 Y
 s 882 954 m cl s 882 913 m -42 Y s 882 871 m cl s 918 810 m -18 X s 900 810 m cl s 918 810 m 18 X s 936 810 m cl s 918 810 m 63 Y s 918 873 m cl s 918 810 m -67 Y s 918 743 m cl s 954 864 m -18 X s 936 864 m cl s 954 864 m 18 X s 972 864 m cl s 954
 864 m 50 Y s 954 914 m cl s 954 864 m -52 Y s 954 812 m cl s 990 923 m -18 X s 972 923 m cl s 990 923 m 18 X s 1008 923 m cl s 990 923 m 39 Y s 990 962 m cl s 990 923 m -41 Y s 990 882 m cl s 1026 932 m -18 X s 1008 932 m cl s 1026 932 m 18 X s 1044
 932 m cl s 1026 932 m 38 Y s 1026 970 m cl s 1026 932 m -39 Y s 1026 893 m cl s 1062 941 m -18 X s 1044 941 m cl s 1062 941 m 17 X s 1079 941 m cl s 1062 941 m 36 Y s 1062 977 m cl s 1062 941 m -38 Y s 1062 903 m cl s 1097 964 m -18 X s 1079 964 m
 cl s 1097 964 m 18 X s 1115 964 m cl s 1097 964 m 33 Y s 1097 997 m cl s 1097 964 m -35 Y s 1097 929 m cl s 1133 1024 m -18 X s 1115 1024 m cl s 1133 1024 m 18 X s 1151 1024 m cl s 1133 1024 m 27 Y s 1133 1051 m cl s 1133 1024 m -26 Y s 1133 998 m
 cl s 1169 1052 m -18 X s 1151 1052 m cl s 1169 1052 m 18 X s 1187 1052 m cl s 1169 1052 m 24 Y s 1169 1076 m cl s 1169 1052 m -24 Y s 1169 1028 m cl s 1205 1066 m -18 X s 1187 1066 m cl s 1205 1066 m 18 X s 1223 1066 m cl s 1205 1066 m 22 Y s 1205
 1088 m cl s 1205 1066 m -23 Y s 1205 1043 m cl s 1241 1110 m -18 X s 1223 1110 m cl s 1241 1110 m 18 X s 1259 1110 m cl s 1241 1110 m 18 Y s 1241 1128 m cl s 1241 1110 m -19 Y s 1241 1091 m cl s 1276 1135 m -17 X s 1259 1135 m cl s 1276 1135 m 18 X
 s 1294 1135 m cl s 1276 1135 m 17 Y s 1276 1152 m cl s 1276 1135 m -17 Y s 1276 1118 m cl s 1312 1169 m -18 X s 1294 1169 m cl s 1312 1169 m 18 X s 1330 1169 m cl s 1312 1169 m 15 Y s 1312 1184 m cl s 1312 1169 m -15 Y s 1312 1154 m cl s 1348 1179 m
 -18 X s 1330 1179 m cl s 1348 1179 m 18 X s 1366 1179 m cl s 1348 1179 m 14 Y s 1348 1193 m cl s 1348 1179 m -14 Y s 1348 1165 m cl s 1384 1217 m -18 X s 1366 1217 m cl s 1384 1217 m 18 X s 1402 1217 m cl s 1384 1217 m 12 Y s 1384 1229 m cl s 1384
 1217 m -11 Y s 1384 1206 m cl s 1420 1263 m -18 X s 1402 1263 m cl s 1420 1263 m 18 X s 1438 1263 m cl s 1420 1263 m 10 Y s 1420 1273 m cl s 1420 1263 m -10 Y s 1420 1253 m cl s 1456 1284 m -18 X s 1438 1284 m cl s 1456 1284 m 18 X s 1474 1284 m cl
 s 1456 1284 m 9 Y s 1456 1293 m cl s 1456 1284 m -9 Y s 1456 1275 m cl s 1491 1318 m -17 X s 1474 1318 m cl s 1491 1318 m 18 X s 1509 1318 m cl s 1491 1318 m 8 Y s 1491 1326 m cl s 1491 1318 m -8 Y s 1491 1310 m cl s 1527 1349 m -18 X s 1509 1349 m
 cl s 1527 1349 m 18 X s 1545 1349 m cl s 1527 1349 m 8 Y s 1527 1357 m cl s 1527 1349 m -7 Y s 1527 1342 m cl s 1563 1392 m -18 X s 1545 1392 m cl s 1563 1392 m 18 X s 1581 1392 m cl s 1563 1392 m 6 Y s 1563 1398 m cl s 1563 1392 m -6 Y s 1563 1386
 m cl s 1599 1418 m -18 X s 1581 1418 m cl s 1599 1418 m 18 X s 1617 1418 m cl s 1599 1418 m 6 Y s 1599 1424 m cl s 1599 1418 m -5 Y s 1599 1413 m cl s 1635 1409 m -18 X s 1617 1409 m cl s 1635 1409 m 18 X s 1653 1409 m cl s 1635 1409 m 5 Y s 1635
 1414 m cl s 1635 1409 m -6 Y s 1635 1403 m cl s 1671 1411 m -18 X s 1653 1411 m cl s 1671 1411 m 18 X s 1689 1411 m cl s 1671 1411 m 5 Y s 1671 1416 m cl s 1671 1411 m -6 Y s 1671 1405 m cl s 1706 1405 m -17 X s 1689 1405 m cl s 1706 1405 m 18 X s
 1724 1405 m cl s 1706 1405 m 5 Y s 1706 1410 m cl s 1706 1405 m -6 Y s 1706 1399 m cl s 1742 1389 m -18 X s 1724 1389 m cl s 1742 1389 m 18 X s 1760 1389 m cl s 1742 1389 m 6 Y s 1742 1395 m cl s 1742 1389 m -6 Y s 1742 1383 m cl s 1778 1329 m -18 X
 s 1760 1329 m cl s 1778 1329 m 18 X s 1796 1329 m cl s 1778 1329 m 8 Y s 1778 1337 m cl s 1778 1329 m -8 Y s 1778 1321 m cl s 1814 1263 m -18 X s 1796 1263 m cl s 1814 1263 m 18 X s 1832 1263 m cl s 1814 1263 m 9 Y s 1814 1272 m cl s 1814 1263 m -10
 Y s 1814 1253 m cl s 1850 1203 m -18 X s 1832 1203 m cl s 1850 1203 m 18 X s 1868 1203 m cl s 1850 1203 m 12 Y s 1850 1215 m cl s 1850 1203 m -12 Y s 1850 1191 m cl s 1886 1137 m -18 X s 1868 1137 m cl s 1886 1137 m 18 X s 1904 1137 m cl s 1886 1137
 m 17 Y s 1886 1154 m cl s 1886 1137 m -17 Y s 1886 1120 m cl s 1921 1105 m -17 X s 1904 1105 m cl s 1921 1105 m 18 X s 1939 1105 m cl s 1921 1105 m 19 Y s 1921 1124 m cl s 1921 1105 m -19 Y s 1921 1086 m cl s 1957 1052 m -18 X s 1939 1052 m cl s
 1957 1052 m 18 X s 1975 1052 m cl s 1957 1052 m 24 Y s 1957 1076 m cl s 1957 1052 m -24 Y s 1957 1028 m cl s 1993 977 m -18 X s 1975 977 m cl s 1993 977 m 18 X s 2011 977 m cl s 1993 977 m 32 Y s 1993 1009 m cl s 1993 977 m -32 Y s 1993 945 m cl s
 2029 864 m -18 X s 2011 864 m cl s 2029 864 m 18 X s 2047 864 m cl s 2029 864 m 50 Y s 2029 914 m cl s 2029 864 m -52 Y s 2029 812 m cl s 2065 923 m -18 X s 2047 923 m cl s 2065 923 m 18 X s 2083 923 m cl s 2065 923 m 39 Y s 2065 962 m cl s 2065 923
 m -41 Y s 2065 882 m cl s 2101 831 m -18 X s 2083 831 m cl s 2101 831 m 18 X s 2119 831 m cl s 2101 831 m 57 Y s 2101 888 m cl s 2101 831 m -61 Y s 2101 770 m cl s 381 664 m20 452 786 488 810 524 718 560 757 596 664 632 664 667 664 703 810 8 { m20}
 R 775 786 811 891 847 831 882 913 918 810 954 864 990 923 1026 932 1062 941 1097 964 1133 1024 1169 1052 1205 1066 1241 1110 1276 1135 1312 1169 1348 1179 1384 1217 1420 1263 1456 1284 1491 1318 1527 1349 1563 1392 1599 1418 1635 1409 1671 1411 1706
 1405 1742 1389 1778 1329 1814 1263 1850 1203 1886 1137 1921 1105 1957 1052 1993 977 2029 864 2065 923 2101 831 38 { m20} R 0.52 0.76 0.64 c[ 4 8] 0 sd 9 lw black 0.52 0.76 0.64 c 363 749 m 36 7 d 35 8 d 36 7 d 36 8 d 36 8 d 36 8 d 36 9 d 35 8 d 36
 10 d 36 9 d 36 10 d 36 10 d 36 11 d 35 11 d 36 12 d 36 12 d 36 13 d 36 13 d 36 14 d 35 16 d 36 16 d 36 17 d 36 18 d 36 20 d 36 22 d 35 24 d 36 26 d 18 14 d 18 15 d 18 16 d 18 17 d 18 18 d 18 20 d 9 10 d 9 11 d 9 11 d 9 12 d 9 13 d 8 13 d 9 14 d 9 14
 d 18 27 d 18 22 d 18 18 d 9 8 d 9 7 d 9 6 d 9 5 d 9 3 d 9 3 d 9 2 d 9 1 d 9 X 9 -1 d 9 -2 d 9 -4 d 9 -4 d 9 -5 d 8 -6 d 9 -7 d 9 -8 d 9 -9 d 36 -46 d 18 -28 d 9 -16 d 9 -17 d 9 -18 d 9 -19 d 9 -20 d 9 -20 d 9 -22 d 9 -23 d 9 -24 d 9 -24 d 9 -26 d 9
 -27 d 18 -56 d 17 -61 d 18 -64 d 18 -68 d 18 -72 d 15 -65 d s 0.54 0.66 0.63 c black 0.54 0.66 0.63 c 1048 634 m 31 58 d s 1079 692 m 36 63 d 36 59 d 18 27 d 18 27 d 18 26 d 18 24 d 18 24 d 18 22 d 17 22 d 18 20 d 18 19 d 18 19 d 18 17 d 18 16 d 18
 16 d 18 14 d 36 25 d 36 21 d 17 9 d 18 8 d 18 7 d 18 6 d 18 5 d 18 4 d 18 3 d 18 1 d 18 1 d 18 X 18 -2 d 18 -2 d 17 -3 d 18 -5 d 18 -5 d 18 -7 d 18 -8 d 18 -8 d 36 -21 d 36 -24 d 36 -29 d 17 -16 d 18 -17 d 18 -18 d 18 -19 d 18 -20 d 18 -21 d 18 -22
 d 18 -23 d 18 -24 d 18 -25 d 18 -27 d 18 -27 d 35 -58 d s black[  ] 0 sd 3 lw 363 634 m 1791 X s 363 659 m -25 Y s 416 646 m -12 Y s 468 646 m -12 Y s 521 646 m -12 Y s 574 646 m -12 Y s 626 659 m -25 Y s 679 646 m -12 Y s 732 646 m -12 Y s 784 646
 m -12 Y s 837 646 m -12 Y s 890 659 m -25 Y s 942 646 m -12 Y s 995 646 m -12 Y s 1048 646 m -12 Y s 1101 646 m -12 Y s 1153 659 m -25 Y s 1206 646 m -12 Y s 1259 646 m -12 Y s 1311 646 m -12 Y s 1364 646 m -12 Y s 1417 659 m -25 Y s 1469 646 m -12
 Y s 1522 646 m -12 Y s 1575 646 m -12 Y s 1627 646 m -12 Y s 1680 659 m -25 Y s 1733 646 m -12 Y s 1785 646 m -12 Y s 1838 646 m -12 Y s 1891 646 m -12 Y s 1944 659 m -25 Y s 1944 659 m -25 Y s 1996 646 m -12 Y s 2049 646 m -12 Y s 2102 646 m -12 Y
 s 2154 646 m -12 Y s 363 1484 m 1791 X s 363 1459 m 25 Y s 416 1471 m 13 Y s 468 1471 m 13 Y s 521 1471 m 13 Y s 574 1471 m 13 Y s 626 1459 m 25 Y s 679 1471 m 13 Y s 732 1471 m 13 Y s 784 1471 m 13 Y s 837 1471 m 13 Y s 890 1459 m 25 Y s 942 1471 m
 13 Y s 995 1471 m 13 Y s 1048 1471 m 13 Y s 1101 1471 m 13 Y s 1153 1459 m 25 Y s 1206 1471 m 13 Y s 1259 1471 m 13 Y s 1311 1471 m 13 Y s 1364 1471 m 13 Y s 1417 1459 m 25 Y s 1469 1471 m 13 Y s 1522 1471 m 13 Y s 1575 1471 m 13 Y s 1627 1471 m 13
 Y s 1680 1459 m 25 Y s 1733 1471 m 13 Y s 1785 1471 m 13 Y s 1838 1471 m 13 Y s 1891 1471 m 13 Y s 1944 1459 m 25 Y s 1944 1459 m 25 Y s 1996 1471 m 13 Y s 2049 1471 m 13 Y s 2102 1471 m 13 Y s 2154 1471 m 13 Y s 363 634 m 850 Y s 390 664 m -27 X s
 390 718 m -27 X s 390 757 m -27 X s 390 786 m -27 X s 390 810 m -27 X s 390 831 m -27 X s 390 849 m -27 X s 390 864 m -27 X s 417 878 m -54 X s 390 970 m -27 X s 390 1024 m -27 X s 390 1063 m -27 X s 390 1092 m -27 X s 390 1117 m -27 X s 390 1137 m
 -27 X s 390 1155 m -27 X s 390 1170 m -27 X s 417 1184 m -54 X s 390 1277 m -27 X s 390 1330 m -27 X s 390 1369 m -27 X s 390 1398 m -27 X s 390 1423 m -27 X s 390 1443 m -27 X s 390 1461 m -27 X s 390 1477 m -27 X s 2154 634 m 850 Y s 2127 664 m 27
 X s 2127 718 m 27 X s 2127 757 m 27 X s 2127 786 m 27 X s 2127 810 m 27 X s 2127 831 m 27 X s 2127 849 m 27 X s 2127 864 m 27 X s 2101 878 m 53 X s 2127 970 m 27 X s 2127 1024 m 27 X s 2127 1063 m 27 X s 2127 1092 m 27 X s 2127 1117 m 27 X s 2127
 1137 m 27 X s 2127 1155 m 27 X s 2127 1170 m 27 X s 2101 1184 m 53 X s 2127 1277 m 27 X s 2127 1330 m 27 X s 2127 1369 m 27 X s 2127 1398 m 27 X s 2127 1423 m 27 X s 2127 1443 m 27 X s 2127 1461 m 27 X s 2127 1477 m 27 X s
 gsave  2268 1077 0 461 C 677.708 1215.31 t 0 r /Helvetica findfont 58.7189 sf 0 0 m (4e) show NC gr  1 1 1 c 453 161 454 1269 bf black
 gsave  2268 1077 0 461 C 566.929 1371.71 t 0 r /Helvetica-Bold findfont 48.9324 sf 0 0 m (MC15) show NC gr  510 1390 m20
 gsave  2268 1077 0 461 C 566.929 1293.51 t 0 r /Helvetica-Bold findfont 48.9324 sf 0 0 m (Projection of Signal pdf) show NC gr  0 0 1 c 9 lw 471 1309 m 79 X s black 3 lw 1 1 1 c 2268 461 0 0 bf black 1 1 1 c 1791 364 363 74 bf black 1791 364 363 74
 bl 363 74 m 1791 X s
 gsave  2268 461 0 0 C 1915.83 13.0329 t 0 r /Helvetica findfont 22.9045 sf 0 0 m (4l Invariant Mass \(GeV\)) show NC gr  363 85 m -11 Y s 416 79 m -5 Y s 468 79 m -5 Y s 521 79 m -5 Y s 574 79 m -5 Y s 626 85 m -11 Y s 679 79 m -5 Y s 732 79 m -5 Y
 s 784 79 m -5 Y s 837 79 m -5 Y s 890 85 m -11 Y s 942 79 m -5 Y s 995 79 m -5 Y s 1048 79 m -5 Y s 1101 79 m -5 Y s 1153 85 m -11 Y s 1206 79 m -5 Y s 1259 79 m -5 Y s 1311 79 m -5 Y s 1364 79 m -5 Y s 1417 85 m -11 Y s 1469 79 m -5 Y s 1522 79 m
 -5 Y s 1575 79 m -5 Y s 1627 79 m -5 Y s 1680 85 m -11 Y s 1733 79 m -5 Y s 1785 79 m -5 Y s 1838 79 m -5 Y s 1891 79 m -5 Y s 1944 85 m -11 Y s 1944 85 m -11 Y s 1996 79 m -5 Y s 2049 79 m -5 Y s 2102 79 m -5 Y s 2154 79 m -5 Y s
 gsave  2268 461 0 0 C 342.112 55.3896 t 0 r /Helvetica findfont 22.9045 sf 0 0 m (450) show NC gr 
 gsave  2268 461 0 0 C 606.028 55.3896 t 0 r /Helvetica findfont 22.9045 sf 0 0 m (460) show NC gr 
 gsave  2268 461 0 0 C 869.943 55.3896 t 0 r /Helvetica findfont 22.9045 sf 0 0 m (470) show NC gr 
 gsave  2268 461 0 0 C 1130.6 55.3896 t 0 r /Helvetica findfont 22.9045 sf 0 0 m (480) show NC gr 
 gsave  2268 461 0 0 C 1394.52 55.3896 t 0 r /Helvetica findfont 22.9045 sf 0 0 m (490) show NC gr 
 gsave  2268 461 0 0 C 1658.43 55.3896 t 0 r /Helvetica findfont 22.9045 sf 0 0 m (500) show NC gr 
 gsave  2268 461 0 0 C 1922.35 55.3896 t 0 r /Helvetica findfont 22.9045 sf 0 0 m (510) show NC gr  363 438 m 1791 X s 363 427 m 11 Y s 416 433 m 5 Y s 468 433 m 5 Y s 521 433 m 5 Y s 574 433 m 5 Y s 626 427 m 11 Y s 679 433 m 5 Y s 732 433 m 5 Y s
 784 433 m 5 Y s 837 433 m 5 Y s 890 427 m 11 Y s 942 433 m 5 Y s 995 433 m 5 Y s 1048 433 m 5 Y s 1101 433 m 5 Y s 1153 427 m 11 Y s 1206 433 m 5 Y s 1259 433 m 5 Y s 1311 433 m 5 Y s 1364 433 m 5 Y s 1417 427 m 11 Y s 1469 433 m 5 Y s 1522 433 m 5
 Y s 1575 433 m 5 Y s 1627 433 m 5 Y s 1680 427 m 11 Y s 1733 433 m 5 Y s 1785 433 m 5 Y s 1838 433 m 5 Y s 1891 433 m 5 Y s 1944 427 m 11 Y s 1944 427 m 11 Y s 1996 433 m 5 Y s 2049 433 m 5 Y s 2102 433 m 5 Y s 2154 433 m 5 Y s 363 74 m 364 Y s 417
 74 m -54 X s 390 81 m -27 X s 390 88 m -27 X s 390 96 m -27 X s 390 103 m -27 X s 417 110 m -54 X s 390 118 m -27 X s 390 125 m -27 X s 390 132 m -27 X s 390 139 m -27 X s 417 147 m -54 X s 390 154 m -27 X s 390 161 m -27 X s 390 169 m -27 X s 390
 176 m -27 X s 417 183 m -54 X s 390 190 m -27 X s 390 198 m -27 X s 390 205 m -27 X s 390 212 m -27 X s 417 220 m -54 X s 390 227 m -27 X s 390 234 m -27 X s 390 241 m -27 X s 390 249 m -27 X s 417 256 m -54 X s 390 263 m -27 X s 390 271 m -27 X s
 390 278 m -27 X s 390 285 m -27 X s 417 293 m -54 X s 390 300 m -27 X s 390 307 m -27 X s 390 314 m -27 X s 390 322 m -27 X s 417 329 m -54 X s 390 336 m -27 X s 390 344 m -27 X s 390 351 m -27 X s 390 358 m -27 X s 417 365 m -54 X s 390 373 m -27 X
 s 390 380 m -27 X s 390 387 m -27 X s 390 395 m -27 X s 417 402 m -54 X s 390 409 m -27 X s 390 416 m -27 X s 390 424 m -27 X s 390 431 m -27 X s 417 438 m -54 X s
 gsave  2268 461 0 0 C 329.08 65.1643 t 0 r /Helvetica findfont 22.9045 sf 0 0 m (\2555) show NC gr 
 gsave  2268 461 0 0 C 329.08 101.005 t 0 r /Helvetica findfont 22.9045 sf 0 0 m (\2554) show NC gr 
 gsave  2268 461 0 0 C 329.08 140.103 t 0 r /Helvetica findfont 22.9045 sf 0 0 m (\2553) show NC gr 
 gsave  2268 461 0 0 C 329.08 175.944 t 0 r /Helvetica findfont 22.9045 sf 0 0 m (\2552) show NC gr 
 gsave  2268 461 0 0 C 332.338 211.784 t 0 r /Helvetica findfont 22.9045 sf 0 0 m (\2551) show NC gr 
 gsave  2268 461 0 0 C 335.596 247.624 t 0 r /Helvetica findfont 22.9045 sf 0 0 m (0) show NC gr 
 gsave  2268 461 0 0 C 338.854 283.465 t 0 r /Helvetica findfont 22.9045 sf 0 0 m (1) show NC gr 
 gsave  2268 461 0 0 C 335.596 319.305 t 0 r /Helvetica findfont 22.9045 sf 0 0 m (2) show NC gr 
 gsave  2268 461 0 0 C 335.596 358.403 t 0 r /Helvetica findfont 22.9045 sf 0 0 m (3) show NC gr 
 gsave  2268 461 0 0 C 335.596 394.244 t 0 r /Helvetica findfont 22.9045 sf 0 0 m (4) show NC gr 
 gsave  2268 461 0 0 C 335.596 430.084 t 0 r /Helvetica findfont 22.9045 sf 0 0 m (5) show NC gr  2154 74 m 364 Y s 2101 74 m 53 X s 2127 81 m 27 X s 2127 88 m 27 X s 2127 96 m 27 X s 2127 103 m 27 X s 2101 110 m 53 X s 2127 118 m 27 X s 2127 125 m
 27 X s 2127 132 m 27 X s 2127 139 m 27 X s 2101 147 m 53 X s 2127 154 m 27 X s 2127 161 m 27 X s 2127 169 m 27 X s 2127 176 m 27 X s 2101 183 m 53 X s 2127 190 m 27 X s 2127 198 m 27 X s 2127 205 m 27 X s 2127 212 m 27 X s 2101 220 m 53 X s 2127 227
 m 27 X s 2127 234 m 27 X s 2127 241 m 27 X s 2127 249 m 27 X s 2101 256 m 53 X s 2127 263 m 27 X s 2127 271 m 27 X s 2127 278 m 27 X s 2127 285 m 27 X s 2101 293 m 53 X s 2127 300 m 27 X s 2127 307 m 27 X s 2127 314 m 27 X s 2127 322 m 27 X s 2101
 329 m 53 X s 2127 336 m 27 X s 2127 344 m 27 X s 2127 351 m 27 X s 2127 358 m 27 X s 2101 365 m 53 X s 2127 373 m 27 X s 2127 380 m 27 X s 2127 387 m 27 X s 2127 395 m 27 X s 2101 402 m 53 X s 2127 409 m 27 X s 2127 416 m 27 X s 2127 424 m 27 X s
 2127 431 m 27 X s 2101 438 m 53 X s 6 lw 0.2 0.8 0.2 c black 3 lw 0.2 0.8 0.2 c 363 256 m -26 Y 36 X -23 Y 35 X 60 Y 36 X 11 Y 36 X -45 Y 36 X 9 Y 36 X -35 Y 36 X -5 Y 35 X -5 Y 36 X 51 Y 36 X -91 Y 36 X 68 Y 36 X 59 Y 36 X -50 Y 35 X 51 Y 36 X -82
 Y 36 X 22 Y 36 X 31 Y 36 X -7 Y 36 X -11 Y 35 X -1 Y 36 X 45 Y 36 X 5 Y 36 X -21 Y 36 X 29 Y 36 X -5 Y 35 X 12 Y 36 X -48 Y 36 X 22 Y 36 X 52 Y 36 X -44 Y 36 X -19 Y 35 X -61 Y 36 X 45 Y 36 X 30 Y 36 X -116 Y 36 X 50 Y 36 X 83 Y 35 X 85 Y 36 X -99 Y
 36 X -61 Y 72 X -9 Y 36 X 51 Y 35 X -3 Y 36 X -34 Y 36 X -49 Y 36 X 96 Y 36 X -30 Y 36 X -58 Y 35 X 71 Y f 6 lw black 0.2 0.8 0.2 c black 363 230 m 36 X -23 Y 35 X 60 Y 36 X 11 Y 36 X -45 Y 36 X 9 Y 36 X -35 Y 36 X -5 Y 35 X -5 Y 36 X 51 Y 36 X -91
 Y 36 X 68 Y 36 X 59 Y 36 X -50 Y 35 X 51 Y 36 X -82 Y 36 X 22 Y 36 X 31 Y 36 X -7 Y 36 X -11 Y 35 X -1 Y 36 X 45 Y 36 X 5 Y 36 X -21 Y 36 X 29 Y 36 X -5 Y 35 X 12 Y 36 X -48 Y 36 X 22 Y 36 X 52 Y 36 X -44 Y 36 X -19 Y 35 X -61 Y 36 X 45 Y 36 X 30 Y
 36 X -116 Y 36 X 50 Y 36 X 83 Y 35 X 85 Y 36 X -99 Y 36 X -61 Y 72 X -9 Y 36 X 51 Y 35 X -3 Y 36 X -34 Y 36 X -49 Y 36 X 96 Y 36 X -30 Y 36 X -58 Y 35 X s 3 lw 363 74 m 1791 X s 363 85 m -11 Y s 416 79 m -5 Y s 468 79 m -5 Y s 521 79 m -5 Y s 574 79
 m -5 Y s 626 85 m -11 Y s 679 79 m -5 Y s 732 79 m -5 Y s 784 79 m -5 Y s 837 79 m -5 Y s 890 85 m -11 Y s 942 79 m -5 Y s 995 79 m -5 Y s 1048 79 m -5 Y s 1101 79 m -5 Y s 1153 85 m -11 Y s 1206 79 m -5 Y s 1259 79 m -5 Y s 1311 79 m -5 Y s 1364 79
 m -5 Y s 1417 85 m -11 Y s 1469 79 m -5 Y s 1522 79 m -5 Y s 1575 79 m -5 Y s 1627 79 m -5 Y s 1680 85 m -11 Y s 1733 79 m -5 Y s 1785 79 m -5 Y s 1838 79 m -5 Y s 1891 79 m -5 Y s 1944 85 m -11 Y s 1944 85 m -11 Y s 1996 79 m -5 Y s 2049 79 m -5 Y
 s 2102 79 m -5 Y s 2154 79 m -5 Y s 363 438 m 1791 X s 363 427 m 11 Y s 416 433 m 5 Y s 468 433 m 5 Y s 521 433 m 5 Y s 574 433 m 5 Y s 626 427 m 11 Y s 679 433 m 5 Y s 732 433 m 5 Y s 784 433 m 5 Y s 837 433 m 5 Y s 890 427 m 11 Y s 942 433 m 5 Y s
 995 433 m 5 Y s 1048 433 m 5 Y s 1101 433 m 5 Y s 1153 427 m 11 Y s 1206 433 m 5 Y s 1259 433 m 5 Y s 1311 433 m 5 Y s 1364 433 m 5 Y s 1417 427 m 11 Y s 1469 433 m 5 Y s 1522 433 m 5 Y s 1575 433 m 5 Y s 1627 433 m 5 Y s 1680 427 m 11 Y s 1733 433
 m 5 Y s 1785 433 m 5 Y s 1838 433 m 5 Y s 1891 433 m 5 Y s 1944 427 m 11 Y s 1944 427 m 11 Y s 1996 433 m 5 Y s 2049 433 m 5 Y s 2102 433 m 5 Y s 2154 433 m 5 Y s 363 74 m 364 Y s 417 74 m -54 X s 390 81 m -27 X s 390 88 m -27 X s 390 96 m -27 X s
 390 103 m -27 X s 417 110 m -54 X s 390 118 m -27 X s 390 125 m -27 X s 390 132 m -27 X s 390 139 m -27 X s 417 147 m -54 X s 390 154 m -27 X s 390 161 m -27 X s 390 169 m -27 X s 390 176 m -27 X s 417 183 m -54 X s 390 190 m -27 X s 390 198 m -27 X
 s 390 205 m -27 X s 390 212 m -27 X s 417 220 m -54 X s 390 227 m -27 X s 390 234 m -27 X s 390 241 m -27 X s 390 249 m -27 X s 417 256 m -54 X s 390 263 m -27 X s 390 271 m -27 X s 390 278 m -27 X s 390 285 m -27 X s 417 293 m -54 X s 390 300 m -27
 X s 390 307 m -27 X s 390 314 m -27 X s 390 322 m -27 X s 417 329 m -54 X s 390 336 m -27 X s 390 344 m -27 X s 390 351 m -27 X s 390 358 m -27 X s 417 365 m -54 X s 390 373 m -27 X s 390 380 m -27 X s 390 387 m -27 X s 390 395 m -27 X s 417 402 m
 -54 X s 390 409 m -27 X s 390 416 m -27 X s 390 424 m -27 X s 390 431 m -27 X s 417 438 m -54 X s 2154 74 m 364 Y s 2101 74 m 53 X s 2127 81 m 27 X s 2127 88 m 27 X s 2127 96 m 27 X s 2127 103 m 27 X s 2101 110 m 53 X s 2127 118 m 27 X s 2127 125 m
 27 X s 2127 132 m 27 X s 2127 139 m 27 X s 2101 147 m 53 X s 2127 154 m 27 X s 2127 161 m 27 X s 2127 169 m 27 X s 2127 176 m 27 X s 2101 183 m 53 X s 2127 190 m 27 X s 2127 198 m 27 X s 2127 205 m 27 X s 2127 212 m 27 X s 2101 220 m 53 X s 2127 227
 m 27 X s 2127 234 m 27 X s 2127 241 m 27 X s 2127 249 m 27 X s 2101 256 m 53 X s 2127 263 m 27 X s 2127 271 m 27 X s 2127 278 m 27 X s 2127 285 m 27 X s 2101 293 m 53 X s 2127 300 m 27 X s 2127 307 m 27 X s 2127 314 m 27 X s 2127 322 m 27 X s 2101
 329 m 53 X s 2127 336 m 27 X s 2127 344 m 27 X s 2127 351 m 27 X s 2127 358 m 27 X s 2101 365 m 53 X s 2127 373 m 27 X s 2127 380 m 27 X s 2127 387 m 27 X s 2127 395 m 27 X s 2101 402 m 53 X s 2127 409 m 27 X s 2127 416 m 27 X s 2127 424 m 27 X s
 2127 431 m 27 X s 2101 438 m 53 X s
 gr  gr showpage
end
%%EOF
