%!PS-Adobe-2.0 EPSF-2.0
%%BoundingBox:  0 0 567 384
%%Title: H4l2015_plotfit/gg_mass_signal_400_fixed_H4l_2mu2e.eps: 
%%Creator: ROOT Version 5.34/10
%%CreationDate: Thu Feb 16 15:43:02 2017
%%EndComments
%%BeginProlog
80 dict begin
/s {stroke} def /l {lineto} def /m {moveto} def /t {translate} def
/r {rotate} def /rl {roll}  def /R {repeat} def
/d {rlineto} def /rm {rmoveto} def /gr {grestore} def /f {eofill} def
/c {setrgbcolor} def /black {0 setgray} def /sd {setdash} def
/cl {closepath} def /sf {scalefont setfont} def /lw {setlinewidth} def
/box {m dup 0 exch d exch 0 d 0 exch neg d cl} def
/NC{systemdict begin initclip end}def/C{NC box clip newpath}def
/bl {box s} def /bf {box f} def /Y { 0 exch d} def /X { 0 d} def 
/K {{pop pop 0 moveto} exch kshow} bind def
/ita {/ang 15 def gsave [1 0 ang dup sin exch cos div 1 0 0] concat} def 
/mp {newpath /y exch def /x exch def} def
/side {[w .77 mul w .23 mul] .385 w mul sd w 0 l currentpoint t -144 r} def
/mr {mp x y w2 0 360 arc} def /m24 {mr s} def /m20 {mr f} def
/mb {mp x y w2 add m w2 neg 0 d 0 w neg d w 0 d 0 w d cl} def
/mt {mp x y w2 add m w2 neg w neg d w 0 d cl} def
/m21 {mb f} def /m25 {mb s} def /m22 {mt f} def /m26{mt s} def
/m23 {mp x y w2 sub m w2 w d w neg 0 d cl f} def
/m27 {mp x y w2 add m w3 neg w2 neg d w3 w2 neg d w3 w2 d cl s} def
/m28 {mp x w2 sub y w2 sub w3 add m w3 0 d  0 w3 neg d w3 0 d 0 w3 d w3 0 d  0 w3 d w3 neg 0 d 0 w3 d w3 neg 0 d 0 w3 neg d w3 neg 0 d cl s } def
/m29 {mp gsave x w2 sub y w2 add w3 sub m currentpoint t 4 {side} repeat cl fill gr} def
/m30 {mp gsave x w2 sub y w2 add w3 sub m currentpoint t 4 {side} repeat cl s gr} def
/m31 {mp x y w2 sub m 0 w d x w2 sub y m w 0 d x w2 sub y w2 add m w w neg d x w2 sub y w2 sub m w w d s} def
/m32 {mp x y w2 sub m w2 w d w neg 0 d cl s} def
/m33 {mp x y w2 add m w3 neg w2 neg d w3 w2 neg d w3 w2 d cl f} def
/m34 {mp x w2 sub y w2 sub w3 add m w3 0 d  0 w3 neg d w3 0 d 0 w3 d w3 0 d  0 w3 d w3 neg 0 d 0 w3 d w3 neg 0 d 0 w3 neg d w3 neg 0 d cl f } def
/m2 {mp x y w2 sub m 0 w d x w2 sub y m w 0 d s} def
/m5 {mp x w2 sub y w2 sub m w w d x w2 sub y w2 add m w w neg d s} def
/reEncode {exch findfont dup length dict begin {1 index /FID eq  {pop pop} {def} ifelse } forall /Encoding exch def currentdict end dup /FontName get exch definefont pop } def [/Times-Bold /Times-Italic /Times-BoldItalic /Helvetica /Helvetica-Oblique
 /Helvetica-Bold /Helvetica-BoldOblique /Courier /Courier-Oblique /Courier-Bold /Courier-BoldOblique /Times-Roman /AvantGarde-Book /AvantGarde-BookOblique /AvantGarde-Demi /AvantGarde-DemiOblique /Bookman-Demi /Bookman-DemiItalic /Bookman-Light
 /Bookman-LightItalic /Helvetica-Narrow /Helvetica-Narrow-Bold /Helvetica-Narrow-BoldOblique /Helvetica-Narrow-Oblique /NewCenturySchlbk-Roman /NewCenturySchlbk-Bold /NewCenturySchlbk-BoldItalic /NewCenturySchlbk-Italic /Palatino-Bold
 /Palatino-BoldItalic /Palatino-Italic /Palatino-Roman ] {ISOLatin1Encoding reEncode } forall
%%EndProlog
%%BeginSetup
%%EndSetup
newpath  gsave  .25 .25 scale  gsave  0 0 t black[  ] 0 sd 3 lw 1 1 1 c 2268 1538 0 0 bf black 1 1 1 c 2222 738 23 784 bf black 1 1 1 c 2222 739 23 15 bf black 1 1 1 c 2268 1077 0 461 bf black 1 1 1 c 1791 850 363 634 bf black 1791 850 363 634 bl 363
 634 m 1791 X s
 gsave  2268 1077 0 461 C 1642.14 498.507 t 0 r /Helvetica findfont 48.9324 sf 0 0 m (4l Invariant Mass \(GeV\)) show NC gr  565 659 m -25 Y s 615 646 m -12 Y s 666 646 m -12 Y s 716 646 m -12 Y s 767 646 m -12 Y s 817 659 m -25 Y s 867 646 m -12 Y s
 918 646 m -12 Y s 968 646 m -12 Y s 1019 646 m -12 Y s 1069 659 m -25 Y s 1120 646 m -12 Y s 1170 646 m -12 Y s 1221 646 m -12 Y s 1271 646 m -12 Y s 1322 659 m -25 Y s 1372 646 m -12 Y s 1423 646 m -12 Y s 1473 646 m -12 Y s 1524 646 m -12 Y s 1574
 659 m -25 Y s 1624 646 m -12 Y s 1675 646 m -12 Y s 1725 646 m -12 Y s 1776 646 m -12 Y s 1826 659 m -25 Y s 1877 646 m -12 Y s 1927 646 m -12 Y s 1978 646 m -12 Y s 2028 646 m -12 Y s 2079 659 m -25 Y s 565 659 m -25 Y s 514 646 m -12 Y s 464 646 m
 -12 Y s 413 646 m -12 Y s 363 646 m -12 Y s 2079 659 m -25 Y s 2129 646 m -12 Y s
 gsave  2268 1077 0 461 C 521.314 586.478 t 0 r /Helvetica findfont 48.9324 sf 0 0 m (360) show NC gr 
 gsave  2268 1077 0 461 C 772.197 586.478 t 0 r /Helvetica findfont 48.9324 sf 0 0 m (370) show NC gr 
 gsave  2268 1077 0 461 C 1026.34 586.478 t 0 r /Helvetica findfont 48.9324 sf 0 0 m (380) show NC gr 
 gsave  2268 1077 0 461 C 1277.22 586.478 t 0 r /Helvetica findfont 48.9324 sf 0 0 m (390) show NC gr 
 gsave  2268 1077 0 461 C 1531.36 586.478 t 0 r /Helvetica findfont 48.9324 sf 0 0 m (400) show NC gr 
 gsave  2268 1077 0 461 C 1782.24 586.478 t 0 r /Helvetica findfont 48.9324 sf 0 0 m (410) show NC gr 
 gsave  2268 1077 0 461 C 2033.13 586.478 t 0 r /Helvetica findfont 48.9324 sf 0 0 m (420) show NC gr  363 1484 m 1791 X s 565 1459 m 25 Y s 615 1471 m 13 Y s 666 1471 m 13 Y s 716 1471 m 13 Y s 767 1471 m 13 Y s 817 1459 m 25 Y s 867 1471 m 13 Y s
 918 1471 m 13 Y s 968 1471 m 13 Y s 1019 1471 m 13 Y s 1069 1459 m 25 Y s 1120 1471 m 13 Y s 1170 1471 m 13 Y s 1221 1471 m 13 Y s 1271 1471 m 13 Y s 1322 1459 m 25 Y s 1372 1471 m 13 Y s 1423 1471 m 13 Y s 1473 1471 m 13 Y s 1524 1471 m 13 Y s 1574
 1459 m 25 Y s 1624 1471 m 13 Y s 1675 1471 m 13 Y s 1725 1471 m 13 Y s 1776 1471 m 13 Y s 1826 1459 m 25 Y s 1877 1471 m 13 Y s 1927 1471 m 13 Y s 1978 1471 m 13 Y s 2028 1471 m 13 Y s 2079 1459 m 25 Y s 565 1459 m 25 Y s 514 1471 m 13 Y s 464 1471
 m 13 Y s 413 1471 m 13 Y s 363 1471 m 13 Y s 2079 1459 m 25 Y s 2129 1471 m 13 Y s 363 634 m 850 Y s
 gsave  2268 1077 0 461 C 120.554 1032.85 t 90 r /Helvetica findfont 48.9324 sf 0 0 m (Events / \( 1.42 GeV \)) show NC gr  390 666 m -27 X s 390 696 m -27 X s 390 720 m -27 X s 390 740 m -27 X s 390 758 m -27 X s 390 774 m -27 X s 417 788 m -54 X s
 gsave  2268 1077 0 461 C 342.425 766.82 t 0 r  -55 0 t /Helvetica findfont 48.9324 sf 0 0 m (10) show NC gr  390 880 m -27 X s 390 934 m -27 X s 390 972 m -27 X s 390 1002 m -27 X s 390 1026 m -27 X s 390 1046 m -27 X s 390 1064 m -27 X s 390 1080 m
 -27 X s 417 1094 m -54 X s
 gsave  2268 1077 0 461 C 322.563 1091.5 t 0 r /Helvetica findfont 32.6216 sf 0 0 m (2) show NC gr 
 gsave  2268 1077 0 461 C 270.432 1071.95 t 0 r /Helvetica findfont 48.9324 sf 0 0 m (10) show NC gr  390 1186 m -27 X s 390 1240 m -27 X s 390 1278 m -27 X s 390 1308 m -27 X s 390 1332 m -27 X s 390 1352 m -27 X s 390 1370 m -27 X s 390 1386 m -27
 X s 417 1400 m -54 X s
 gsave  2268 1077 0 461 C 322.563 1401.03 t 0 r /Helvetica findfont 32.6216 sf 0 0 m (3) show NC gr 
 gsave  2268 1077 0 461 C 270.432 1378.22 t 0 r /Helvetica findfont 48.9324 sf 0 0 m (10) show NC gr  2154 634 m 850 Y s 2127 666 m 27 X s 2127 696 m 27 X s 2127 720 m 27 X s 2127 740 m 27 X s 2127 758 m 27 X s 2127 774 m 27 X s 2101 788 m 53 X s
 2127 880 m 27 X s 2127 934 m 27 X s 2127 972 m 27 X s 2127 1002 m 27 X s 2127 1026 m 27 X s 2127 1046 m 27 X s 2127 1064 m 27 X s 2127 1080 m 27 X s 2101 1094 m 53 X s 2127 1186 m 27 X s 2127 1240 m 27 X s 2127 1278 m 27 X s 2127 1308 m 27 X s 2127
 1332 m 27 X s 2127 1352 m 27 X s 2127 1370 m 27 X s 2127 1386 m 27 X s 2101 1400 m 53 X s 381 758 m -18 X s 363 758 m cl s 381 758 m 18 X s 399 758 m cl s 381 758 m 53 Y s 381 811 m cl s 381 758 m -56 Y s 381 702 m cl s 417 858 m -18 X s 399 858 m
 cl s 417 858 m 17 X s 434 858 m cl s 417 858 m 36 Y s 417 894 m cl s 417 858 m -36 Y s 417 822 m cl s 452 842 m -18 X s 434 842 m cl s 452 842 m 18 X s 470 842 m cl s 452 842 m 38 Y s 452 880 m cl s 452 842 m -40 Y s 452 802 m cl s 488 800 m -18 X s
 470 800 m cl s 488 800 m 18 X s 506 800 m cl s 488 800 m 45 Y s 488 845 m cl s 488 800 m -46 Y s 488 754 m cl s 524 842 m -18 X s 506 842 m cl s 524 842 m 18 X s 542 842 m cl s 524 842 m 38 Y s 524 880 m cl s 524 842 m -40 Y s 524 802 m cl s 560 858
 m -18 X s 542 858 m cl s 560 858 m 18 X s 578 858 m cl s 560 858 m 36 Y s 560 894 m cl s 560 858 m -36 Y s 560 822 m cl s 596 858 m -18 X s 578 858 m cl s 596 858 m 18 X s 614 858 m cl s 596 858 m 36 Y s 596 894 m cl s 596 858 m -36 Y s 596 822 m cl
 s 632 873 m -18 X s 614 873 m cl s 632 873 m 17 X s 649 873 m cl s 632 873 m 33 Y s 632 906 m cl s 632 873 m -34 Y s 632 839 m cl s 667 886 m -18 X s 649 886 m cl s 667 886 m 18 X s 685 886 m cl s 667 886 m 32 Y s 667 918 m cl s 667 886 m -32 Y s
 667 854 m cl s 703 873 m -18 X s 685 873 m cl s 703 873 m 18 X s 721 873 m cl s 703 873 m 33 Y s 703 906 m cl s 703 873 m -34 Y s 703 839 m cl s 739 892 m -18 X s 721 892 m cl s 739 892 m 18 X s 757 892 m cl s 739 892 m 31 Y s 739 923 m cl s 739 892
 m -31 Y s 739 861 m cl s 775 850 m -18 X s 757 850 m cl s 775 850 m 18 X s 793 850 m cl s 775 850 m 37 Y s 775 887 m cl s 775 850 m -38 Y s 775 812 m cl s 811 969 m -18 X s 793 969 m cl s 811 969 m 18 X s 829 969 m cl s 811 969 m 22 Y s 811 991 m cl
 s 811 969 m -23 Y s 811 946 m cl s 847 915 m -18 X s 829 915 m cl s 847 915 m 17 X s 864 915 m cl s 847 915 m 28 Y s 847 943 m cl s 847 915 m -29 Y s 847 886 m cl s 882 942 m -18 X s 864 942 m cl s 882 942 m 18 X s 900 942 m cl s 882 942 m 26 Y s
 882 968 m cl s 882 942 m -25 Y s 882 917 m cl s 918 985 m -18 X s 900 985 m cl s 918 985 m 18 X s 936 985 m cl s 918 985 m 21 Y s 918 1006 m cl s 918 985 m -22 Y s 918 963 m cl s 954 975 m -18 X s 936 975 m cl s 954 975 m 18 X s 972 975 m cl s 954
 975 m 22 Y s 954 997 m cl s 954 975 m -22 Y s 954 953 m cl s 990 996 m -18 X s 972 996 m cl s 990 996 m 18 X s 1008 996 m cl s 990 996 m 21 Y s 990 1017 m cl s 990 996 m -20 Y s 990 976 m cl s 1026 1017 m -18 X s 1008 1017 m cl s 1026 1017 m 18 X s
 1044 1017 m cl s 1026 1017 m 19 Y s 1026 1036 m cl s 1026 1017 m -19 Y s 1026 998 m cl s 1062 1041 m -18 X s 1044 1041 m cl s 1062 1041 m 17 X s 1079 1041 m cl s 1062 1041 m 17 Y s 1062 1058 m cl s 1062 1041 m -18 Y s 1062 1023 m cl s 1097 1046 m
 -18 X s 1079 1046 m cl s 1097 1046 m 18 X s 1115 1046 m cl s 1097 1046 m 17 Y s 1097 1063 m cl s 1097 1046 m -17 Y s 1097 1029 m cl s 1133 1114 m -18 X s 1115 1114 m cl s 1133 1114 m 18 X s 1151 1114 m cl s 1133 1114 m 12 Y s 1133 1126 m cl s 1133
 1114 m -13 Y s 1133 1101 m cl s 1169 1134 m -18 X s 1151 1134 m cl s 1169 1134 m 18 X s 1187 1134 m cl s 1169 1134 m 11 Y s 1169 1145 m cl s 1169 1134 m -12 Y s 1169 1122 m cl s 1205 1146 m -18 X s 1187 1146 m cl s 1205 1146 m 18 X s 1223 1146 m cl
 s 1205 1146 m 11 Y s 1205 1157 m cl s 1205 1146 m -11 Y s 1205 1135 m cl s 1241 1194 m -18 X s 1223 1194 m cl s 1241 1194 m 18 X s 1259 1194 m cl s 1241 1194 m 9 Y s 1241 1203 m cl s 1241 1194 m -9 Y s 1241 1185 m cl s 1276 1217 m -17 X s 1259 1217
 m cl s 1276 1217 m 18 X s 1294 1217 m cl s 1276 1217 m 9 Y s 1276 1226 m cl s 1276 1217 m -8 Y s 1276 1209 m cl s 1312 1254 m -18 X s 1294 1254 m cl s 1312 1254 m 18 X s 1330 1254 m cl s 1312 1254 m 7 Y s 1312 1261 m cl s 1312 1254 m -7 Y s 1312
 1247 m cl s 1348 1302 m -18 X s 1330 1302 m cl s 1348 1302 m 18 X s 1366 1302 m cl s 1348 1302 m 6 Y s 1348 1308 m cl s 1348 1302 m -6 Y s 1348 1296 m cl s 1384 1324 m -18 X s 1366 1324 m cl s 1384 1324 m 18 X s 1402 1324 m cl s 1384 1324 m 5 Y s
 1384 1329 m cl s 1384 1324 m -6 Y s 1384 1318 m cl s 1420 1354 m -18 X s 1402 1354 m cl s 1420 1354 m 18 X s 1438 1354 m cl s 1420 1354 m 5 Y s 1420 1359 m cl s 1420 1354 m -5 Y s 1420 1349 m cl s 1456 1383 m -18 X s 1438 1383 m cl s 1456 1383 m 18
 X s 1474 1383 m cl s 1456 1383 m 4 Y s 1456 1387 m cl s 1456 1383 m -5 Y s 1456 1378 m cl s 1491 1407 m -17 X s 1474 1407 m cl s 1491 1407 m 18 X s 1509 1407 m cl s 1491 1407 m 4 Y s 1491 1411 m cl s 1491 1407 m -4 Y s 1491 1403 m cl s 1527 1420 m
 -18 X s 1509 1420 m cl s 1527 1420 m 18 X s 1545 1420 m cl s 1527 1420 m 4 Y s 1527 1424 m cl s 1527 1420 m -4 Y s 1527 1416 m cl s 1563 1419 m -18 X s 1545 1419 m cl s 1563 1419 m 18 X s 1581 1419 m cl s 1563 1419 m 4 Y s 1563 1423 m cl s 1563 1419
 m -4 Y s 1563 1415 m cl s 1599 1417 m -18 X s 1581 1417 m cl s 1599 1417 m 18 X s 1617 1417 m cl s 1599 1417 m 4 Y s 1599 1421 m cl s 1599 1417 m -4 Y s 1599 1413 m cl s 1635 1384 m -18 X s 1617 1384 m cl s 1635 1384 m 18 X s 1653 1384 m cl s 1635
 1384 m 5 Y s 1635 1389 m cl s 1635 1384 m -4 Y s 1635 1380 m cl s 1671 1349 m -18 X s 1653 1349 m cl s 1671 1349 m 18 X s 1689 1349 m cl s 1671 1349 m 6 Y s 1671 1355 m cl s 1671 1349 m -5 Y s 1671 1344 m cl s 1706 1305 m -17 X s 1689 1305 m cl s
 1706 1305 m 18 X s 1724 1305 m cl s 1706 1305 m 6 Y s 1706 1311 m cl s 1706 1305 m -6 Y s 1706 1299 m cl s 1742 1249 m -18 X s 1724 1249 m cl s 1742 1249 m 18 X s 1760 1249 m cl s 1742 1249 m 7 Y s 1742 1256 m cl s 1742 1249 m -8 Y s 1742 1241 m cl
 s 1778 1188 m -18 X s 1760 1188 m cl s 1778 1188 m 18 X s 1796 1188 m cl s 1778 1188 m 9 Y s 1778 1197 m cl s 1778 1188 m -9 Y s 1778 1179 m cl s 1814 1161 m -18 X s 1796 1161 m cl s 1814 1161 m 18 X s 1832 1161 m cl s 1814 1161 m 10 Y s 1814 1171 m
 cl s 1814 1161 m -10 Y s 1814 1151 m cl s 1850 1099 m -18 X s 1832 1099 m cl s 1850 1099 m 18 X s 1868 1099 m cl s 1850 1099 m 13 Y s 1850 1112 m cl s 1850 1099 m -13 Y s 1850 1086 m cl s 1886 1037 m -18 X s 1868 1037 m cl s 1886 1037 m 18 X s 1904
 1037 m cl s 1886 1037 m 17 Y s 1886 1054 m cl s 1886 1037 m -18 Y s 1886 1019 m cl s 1921 972 m -17 X s 1904 972 m cl s 1921 972 m 18 X s 1939 972 m cl s 1921 972 m 22 Y s 1921 994 m cl s 1921 972 m -23 Y s 1921 949 m cl s 1957 925 m -18 X s 1939
 925 m cl s 1957 925 m 18 X s 1975 925 m cl s 1957 925 m 27 Y s 1957 952 m cl s 1957 925 m -28 Y s 1957 897 m cl s 1993 873 m -18 X s 1975 873 m cl s 1993 873 m 18 X s 2011 873 m cl s 1993 873 m 33 Y s 1993 906 m cl s 1993 873 m -34 Y s 1993 839 m cl
 s 2029 758 m -18 X s 2011 758 m cl s 2029 758 m 18 X s 2047 758 m cl s 2029 758 m 53 Y s 2029 811 m cl s 2029 758 m -56 Y s 2029 702 m cl s 2065 823 m -18 X s 2047 823 m cl s 2065 823 m 18 X s 2083 823 m cl s 2065 823 m 41 Y s 2065 864 m cl s 2065
 823 m -43 Y s 2065 780 m cl s 2101 788 m -18 X s 2083 788 m cl s 2101 788 m 18 X s 2119 788 m cl s 2101 788 m 47 Y s 2101 835 m cl s 2101 788 m -50 Y s 2101 738 m cl s 2136 758 m -17 X s 2119 758 m cl s 2136 758 m 18 X s 2154 758 m cl s 2136 758 m
 53 Y s 2136 811 m cl s 2136 758 m -56 Y s 2136 702 m cl s /w 31 def /w2 {w 2 div} def /w3 {w 3 div} def 381 758 417 858 452 842 488 800 524 842 560 858 596 858 632 873 667 886 703 873 739 892 775 850 811 969 847 915 882 942 918 985 954 975 990 996
 1026 1017 1062 1041 1097 1046 1133 1114 1169 1134 1205 1146 1241 1194 1276 1217 1312 1254 1348 1302 1384 1324 1420 1354 1456 1383 1491 1407 1527 1420 1563 1419 1599 1417 1635 1384 1671 1349 1706 1305 1742 1249 1778 1188 1814 1161 1850 1099 1886 1037
 1921 972 1957 925 1993 873 2029 758 2065 823 2101 788 2136 758 50 { m20} R 0 1 1 c 1 1 0 c black 1 1 0 c 363 831 m 36 6 d 35 7 d 36 6 d 36 7 d 36 8 d 36 7 d 36 8 d 35 8 d 36 9 d 36 9 d 36 10 d 36 10 d 36 12 d 35 13 d 36 15 d 36 16 d 36 19 d 36 20 d
 36 23 d 35 24 d 36 26 d 36 28 d 36 27 d 36 28 d 18 14 d 18 15 d 17 14 d 18 15 d 18 15 d 18 15 d 18 17 d 9 8 d 9 9 d 9 10 d 9 10 d 18 21 d 36 35 d 18 14 d 9 6 d 9 6 d 9 5 d 8 4 d 9 3 d 9 3 d 9 2 d 9 1 d 9 1 d 9 X 9 -1 d 9 -1 d 9 -3 d 9 -3 d 9 -3 d 9
 -5 d 9 -4 d 9 -6 d 18 -13 d 18 -16 d 18 -18 d 18 -20 d 17 -22 d 9 -12 d 9 -12 d 9 -13 d 9 -12 d 9 -13 d 9 -13 d 9 -13 d 9 -13 d 18 -27 d 18 -26 d 18 -26 d 18 -25 d 18 -25 d 18 -24 d 18 -24 d 35 -46 d 36 -47 d 36 -49 d 36 -52 d 36 -56 d 36 -59 d 35
 -62 d -35 62 d -36 59 d -36 56 d -36 52 d -36 49 d -36 47 d -35 46 d -18 24 d -18 24 d -18 25 d -18 25 d -18 26 d -18 26 d -18 27 d -9 13 d -9 13 d -9 13 d -9 13 d -9 12 d -9 13 d -9 12 d -9 12 d -17 22 d -18 20 d -18 18 d -18 16 d -18 13 d -9 6 d
 -9 4 d -9 5 d -9 3 d -9 3 d -9 3 d -9 1 d -9 1 d -9 X -9 -1 d -9 -1 d -9 -2 d -9 -3 d -9 -3 d -8 -4 d -9 -5 d -9 -6 d -9 -6 d -18 -14 d -36 -35 d -18 -21 d -9 -10 d -9 -10 d -9 -9 d -9 -8 d -18 -17 d -18 -15 d -18 -15 d -18 -15 d -17 -14 d -18 -15 d
 -18 -14 d -36 -28 d -36 -27 d -36 -28 d -36 -26 d -35 -24 d -36 -23 d -36 -20 d -36 -19 d -36 -16 d -36 -15 d -35 -13 d -36 -12 d -36 -10 d -36 -10 d -36 -9 d -36 -9 d -35 -8 d -36 -8 d -36 -7 d -36 -8 d -36 -7 d -36 -6 d -35 -7 d -36 -6 d f 0 1 1 c
 0 1 0 c black 0 1 0 c 363 831 m 36 6 d 35 7 d 36 6 d 36 7 d 36 8 d 36 7 d 36 8 d 35 8 d 36 9 d 36 9 d 36 10 d 36 10 d 36 12 d 35 13 d 36 15 d 36 16 d 36 19 d 36 20 d 36 23 d 35 24 d 36 26 d 36 28 d 36 27 d 36 28 d 18 14 d 18 15 d 17 14 d 18 15 d 18
 15 d 18 15 d 18 17 d 9 8 d 9 9 d 9 10 d 9 10 d 18 21 d 36 35 d 18 14 d 9 6 d 9 6 d 9 5 d 8 4 d 9 3 d 9 3 d 9 2 d 9 1 d 9 1 d 9 X 9 -1 d 9 -1 d 9 -3 d 9 -3 d 9 -3 d 9 -5 d 9 -4 d 9 -6 d 18 -13 d 18 -16 d 18 -18 d 18 -20 d 17 -22 d 9 -12 d 9 -12 d 9
 -13 d 9 -12 d 9 -13 d 9 -13 d 9 -13 d 9 -13 d 18 -27 d 18 -26 d 18 -26 d 18 -25 d 18 -25 d 18 -24 d 18 -24 d 35 -46 d 36 -47 d 36 -49 d 36 -52 d 36 -56 d 36 -59 d 35 -62 d -35 62 d -36 59 d -36 56 d -36 52 d -36 49 d -36 47 d -35 46 d -18 24 d -18
 24 d -18 25 d -18 25 d -18 26 d -18 26 d -18 27 d -9 13 d -9 13 d -9 13 d -9 13 d -9 12 d -9 13 d -9 12 d -9 12 d -17 22 d -18 20 d -18 18 d -18 16 d -18 13 d -9 6 d -9 4 d -9 5 d -9 3 d -9 3 d -9 3 d -9 1 d -9 1 d -9 X -9 -1 d -9 -1 d -9 -2 d -9 -3
 d -9 -3 d -8 -4 d -9 -5 d -9 -6 d -9 -6 d -18 -14 d -36 -35 d -18 -21 d -9 -10 d -9 -10 d -9 -9 d -9 -8 d -18 -17 d -18 -15 d -18 -15 d -18 -15 d -17 -14 d -18 -15 d -18 -14 d -36 -28 d -36 -27 d -36 -28 d -36 -26 d -35 -24 d -36 -23 d -36 -20 d -36
 -19 d -36 -16 d -36 -15 d -35 -13 d -36 -12 d -36 -10 d -36 -10 d -36 -9 d -36 -9 d -35 -8 d -36 -8 d -36 -7 d -36 -8 d -36 -7 d -36 -6 d -35 -7 d -36 -6 d f 0 0 1 c 9 lw black 0 0 1 c 363 831 m 36 6 d 35 7 d 36 6 d 36 7 d 36 8 d 36 7 d 36 8 d 35 8
 d 36 9 d 36 9 d 36 10 d 36 10 d 36 12 d 35 13 d 36 15 d 36 16 d 36 19 d 36 20 d 36 23 d 35 24 d 36 26 d 36 28 d 36 27 d 36 28 d 18 14 d 18 15 d 17 14 d 18 15 d 18 15 d 18 15 d 18 17 d 9 8 d 9 9 d 9 10 d 9 10 d 18 21 d 36 35 d 18 14 d 9 6 d 9 6 d 9 5
 d 8 4 d 9 3 d 9 3 d 9 2 d 9 1 d 9 1 d 9 X 9 -1 d 9 -1 d 9 -3 d 9 -3 d 9 -3 d 9 -5 d 9 -4 d 9 -6 d 18 -13 d 18 -16 d 18 -18 d 18 -20 d 17 -22 d 9 -12 d 9 -12 d 9 -13 d 9 -12 d 9 -13 d 9 -13 d 9 -13 d 9 -13 d 18 -27 d 18 -26 d 18 -26 d 18 -25 d 18 -25
 d 18 -24 d 18 -24 d 35 -46 d 36 -47 d 36 -49 d 36 -52 d 36 -56 d 36 -59 d 35 -62 d s black 3 lw 381 758 m -18 X s 363 758 m cl s 381 758 m 18 X s 399 758 m cl s 381 758 m 53 Y s 381 811 m cl s 381 758 m -56 Y s 381 702 m cl s 417 858 m -18 X s 399
 858 m cl s 417 858 m 17 X s 434 858 m cl s 417 858 m 36 Y s 417 894 m cl s 417 858 m -36 Y s 417 822 m cl s 452 842 m -18 X s 434 842 m cl s 452 842 m 18 X s 470 842 m cl s 452 842 m 38 Y s 452 880 m cl s 452 842 m -40 Y s 452 802 m cl s 488 800 m
 -18 X s 470 800 m cl s 488 800 m 18 X s 506 800 m cl s 488 800 m 45 Y s 488 845 m cl s 488 800 m -46 Y s 488 754 m cl s 524 842 m -18 X s 506 842 m cl s 524 842 m 18 X s 542 842 m cl s 524 842 m 38 Y s 524 880 m cl s 524 842 m -40 Y s 524 802 m cl s
 560 858 m -18 X s 542 858 m cl s 560 858 m 18 X s 578 858 m cl s 560 858 m 36 Y s 560 894 m cl s 560 858 m -36 Y s 560 822 m cl s 596 858 m -18 X s 578 858 m cl s 596 858 m 18 X s 614 858 m cl s 596 858 m 36 Y s 596 894 m cl s 596 858 m -36 Y s 596
 822 m cl s 632 873 m -18 X s 614 873 m cl s 632 873 m 17 X s 649 873 m cl s 632 873 m 33 Y s 632 906 m cl s 632 873 m -34 Y s 632 839 m cl s 667 886 m -18 X s 649 886 m cl s 667 886 m 18 X s 685 886 m cl s 667 886 m 32 Y s 667 918 m cl s 667 886 m
 -32 Y s 667 854 m cl s 703 873 m -18 X s 685 873 m cl s 703 873 m 18 X s 721 873 m cl s 703 873 m 33 Y s 703 906 m cl s 703 873 m -34 Y s 703 839 m cl s 739 892 m -18 X s 721 892 m cl s 739 892 m 18 X s 757 892 m cl s 739 892 m 31 Y s 739 923 m cl s
 739 892 m -31 Y s 739 861 m cl s 775 850 m -18 X s 757 850 m cl s 775 850 m 18 X s 793 850 m cl s 775 850 m 37 Y s 775 887 m cl s 775 850 m -38 Y s 775 812 m cl s 811 969 m -18 X s 793 969 m cl s 811 969 m 18 X s 829 969 m cl s 811 969 m 22 Y s 811
 991 m cl s 811 969 m -23 Y s 811 946 m cl s 847 915 m -18 X s 829 915 m cl s 847 915 m 17 X s 864 915 m cl s 847 915 m 28 Y s 847 943 m cl s 847 915 m -29 Y s 847 886 m cl s 882 942 m -18 X s 864 942 m cl s 882 942 m 18 X s 900 942 m cl s 882 942 m
 26 Y s 882 968 m cl s 882 942 m -25 Y s 882 917 m cl s 918 985 m -18 X s 900 985 m cl s 918 985 m 18 X s 936 985 m cl s 918 985 m 21 Y s 918 1006 m cl s 918 985 m -22 Y s 918 963 m cl s 954 975 m -18 X s 936 975 m cl s 954 975 m 18 X s 972 975 m cl
 s 954 975 m 22 Y s 954 997 m cl s 954 975 m -22 Y s 954 953 m cl s 990 996 m -18 X s 972 996 m cl s 990 996 m 18 X s 1008 996 m cl s 990 996 m 21 Y s 990 1017 m cl s 990 996 m -20 Y s 990 976 m cl s 1026 1017 m -18 X s 1008 1017 m cl s 1026 1017 m
 18 X s 1044 1017 m cl s 1026 1017 m 19 Y s 1026 1036 m cl s 1026 1017 m -19 Y s 1026 998 m cl s 1062 1041 m -18 X s 1044 1041 m cl s 1062 1041 m 17 X s 1079 1041 m cl s 1062 1041 m 17 Y s 1062 1058 m cl s 1062 1041 m -18 Y s 1062 1023 m cl s 1097
 1046 m -18 X s 1079 1046 m cl s 1097 1046 m 18 X s 1115 1046 m cl s 1097 1046 m 17 Y s 1097 1063 m cl s 1097 1046 m -17 Y s 1097 1029 m cl s 1133 1114 m -18 X s 1115 1114 m cl s 1133 1114 m 18 X s 1151 1114 m cl s 1133 1114 m 12 Y s 1133 1126 m cl s
 1133 1114 m -13 Y s 1133 1101 m cl s 1169 1134 m -18 X s 1151 1134 m cl s 1169 1134 m 18 X s 1187 1134 m cl s 1169 1134 m 11 Y s 1169 1145 m cl s 1169 1134 m -12 Y s 1169 1122 m cl s 1205 1146 m -18 X s 1187 1146 m cl s 1205 1146 m 18 X s 1223 1146
 m cl s 1205 1146 m 11 Y s 1205 1157 m cl s 1205 1146 m -11 Y s 1205 1135 m cl s 1241 1194 m -18 X s 1223 1194 m cl s 1241 1194 m 18 X s 1259 1194 m cl s 1241 1194 m 9 Y s 1241 1203 m cl s 1241 1194 m -9 Y s 1241 1185 m cl s 1276 1217 m -17 X s 1259
 1217 m cl s 1276 1217 m 18 X s 1294 1217 m cl s 1276 1217 m 9 Y s 1276 1226 m cl s 1276 1217 m -8 Y s 1276 1209 m cl s 1312 1254 m -18 X s 1294 1254 m cl s 1312 1254 m 18 X s 1330 1254 m cl s 1312 1254 m 7 Y s 1312 1261 m cl s 1312 1254 m -7 Y s
 1312 1247 m cl s 1348 1302 m -18 X s 1330 1302 m cl s 1348 1302 m 18 X s 1366 1302 m cl s 1348 1302 m 6 Y s 1348 1308 m cl s 1348 1302 m -6 Y s 1348 1296 m cl s 1384 1324 m -18 X s 1366 1324 m cl s 1384 1324 m 18 X s 1402 1324 m cl s 1384 1324 m 5 Y
 s 1384 1329 m cl s 1384 1324 m -6 Y s 1384 1318 m cl s 1420 1354 m -18 X s 1402 1354 m cl s 1420 1354 m 18 X s 1438 1354 m cl s 1420 1354 m 5 Y s 1420 1359 m cl s 1420 1354 m -5 Y s 1420 1349 m cl s 1456 1383 m -18 X s 1438 1383 m cl s 1456 1383 m
 18 X s 1474 1383 m cl s 1456 1383 m 4 Y s 1456 1387 m cl s 1456 1383 m -5 Y s 1456 1378 m cl s 1491 1407 m -17 X s 1474 1407 m cl s 1491 1407 m 18 X s 1509 1407 m cl s 1491 1407 m 4 Y s 1491 1411 m cl s 1491 1407 m -4 Y s 1491 1403 m cl s 1527 1420
 m -18 X s 1509 1420 m cl s 1527 1420 m 18 X s 1545 1420 m cl s 1527 1420 m 4 Y s 1527 1424 m cl s 1527 1420 m -4 Y s 1527 1416 m cl s 1563 1419 m -18 X s 1545 1419 m cl s 1563 1419 m 18 X s 1581 1419 m cl s 1563 1419 m 4 Y s 1563 1423 m cl s 1563
 1419 m -4 Y s 1563 1415 m cl s 1599 1417 m -18 X s 1581 1417 m cl s 1599 1417 m 18 X s 1617 1417 m cl s 1599 1417 m 4 Y s 1599 1421 m cl s 1599 1417 m -4 Y s 1599 1413 m cl s 1635 1384 m -18 X s 1617 1384 m cl s 1635 1384 m 18 X s 1653 1384 m cl s
 1635 1384 m 5 Y s 1635 1389 m cl s 1635 1384 m -4 Y s 1635 1380 m cl s 1671 1349 m -18 X s 1653 1349 m cl s 1671 1349 m 18 X s 1689 1349 m cl s 1671 1349 m 6 Y s 1671 1355 m cl s 1671 1349 m -5 Y s 1671 1344 m cl s 1706 1305 m -17 X s 1689 1305 m cl
 s 1706 1305 m 18 X s 1724 1305 m cl s 1706 1305 m 6 Y s 1706 1311 m cl s 1706 1305 m -6 Y s 1706 1299 m cl s 1742 1249 m -18 X s 1724 1249 m cl s 1742 1249 m 18 X s 1760 1249 m cl s 1742 1249 m 7 Y s 1742 1256 m cl s 1742 1249 m -8 Y s 1742 1241 m
 cl s 1778 1188 m -18 X s 1760 1188 m cl s 1778 1188 m 18 X s 1796 1188 m cl s 1778 1188 m 9 Y s 1778 1197 m cl s 1778 1188 m -9 Y s 1778 1179 m cl s 1814 1161 m -18 X s 1796 1161 m cl s 1814 1161 m 18 X s 1832 1161 m cl s 1814 1161 m 10 Y s 1814
 1171 m cl s 1814 1161 m -10 Y s 1814 1151 m cl s 1850 1099 m -18 X s 1832 1099 m cl s 1850 1099 m 18 X s 1868 1099 m cl s 1850 1099 m 13 Y s 1850 1112 m cl s 1850 1099 m -13 Y s 1850 1086 m cl s 1886 1037 m -18 X s 1868 1037 m cl s 1886 1037 m 18 X
 s 1904 1037 m cl s 1886 1037 m 17 Y s 1886 1054 m cl s 1886 1037 m -18 Y s 1886 1019 m cl s 1921 972 m -17 X s 1904 972 m cl s 1921 972 m 18 X s 1939 972 m cl s 1921 972 m 22 Y s 1921 994 m cl s 1921 972 m -23 Y s 1921 949 m cl s 1957 925 m -18 X s
 1939 925 m cl s 1957 925 m 18 X s 1975 925 m cl s 1957 925 m 27 Y s 1957 952 m cl s 1957 925 m -28 Y s 1957 897 m cl s 1993 873 m -18 X s 1975 873 m cl s 1993 873 m 18 X s 2011 873 m cl s 1993 873 m 33 Y s 1993 906 m cl s 1993 873 m -34 Y s 1993 839
 m cl s 2029 758 m -18 X s 2011 758 m cl s 2029 758 m 18 X s 2047 758 m cl s 2029 758 m 53 Y s 2029 811 m cl s 2029 758 m -56 Y s 2029 702 m cl s 2065 823 m -18 X s 2047 823 m cl s 2065 823 m 18 X s 2083 823 m cl s 2065 823 m 41 Y s 2065 864 m cl s
 2065 823 m -43 Y s 2065 780 m cl s 2101 788 m -18 X s 2083 788 m cl s 2101 788 m 18 X s 2119 788 m cl s 2101 788 m 47 Y s 2101 835 m cl s 2101 788 m -50 Y s 2101 738 m cl s 2136 758 m -17 X s 2119 758 m cl s 2136 758 m 18 X s 2154 758 m cl s 2136
 758 m 53 Y s 2136 811 m cl s 2136 758 m -56 Y s 2136 702 m cl s 381 758 417 858 452 842 488 800 524 842 560 858 596 858 632 873 667 886 703 873 739 892 775 850 811 969 847 915 882 942 918 985 954 975 990 996 1026 1017 1062 1041 1097 1046 1133 1114
 1169 1134 1205 1146 1241 1194 1276 1217 1312 1254 1348 1302 1384 1324 1420 1354 1456 1383 1491 1407 1527 1420 1563 1419 1599 1417 1635 1384 1671 1349 1706 1305 1742 1249 1778 1188 1814 1161 1850 1099 1886 1037 1921 972 1957 925 1993 873 2029 758
 2065 823 2101 788 2136 758 50 { m20} R 0.52 0.76 0.64 c[ 4 8] 0 sd 9 lw black 0.52 0.76 0.64 c 363 831 m 36 6 d 35 7 d 36 6 d 36 7 d 36 8 d 36 7 d 36 8 d 35 8 d 36 8 d 36 9 d 36 9 d 36 10 d 36 10 d 35 11 d 36 11 d 36 12 d 36 13 d 36 13 d 36 15 d 35
 16 d 36 17 d 36 19 d 36 20 d 36 23 d 18 13 d 18 13 d 17 15 d 18 15 d 18 17 d 18 19 d 9 10 d 9 10 d 9 11 d 9 12 d 9 12 d 9 13 d 9 14 d 9 13 d 36 45 d 18 17 d 9 7 d 9 7 d 9 6 d 8 4 d 9 5 d 9 3 d 9 2 d 9 2 d 18 X 9 -1 d 9 -1 d 9 -3 d 9 -3 d 9 -5 d 9 -5
 d 9 -6 d 9 -7 d 18 -16 d 18 -19 d 18 -23 d 18 -25 d 8 -15 d 9 -15 d 9 -16 d 9 -16 d 9 -18 d 9 -18 d 9 -20 d 9 -20 d 9 -20 d 9 -22 d 9 -23 d 9 -23 d 18 -49 d 18 -53 d 18 -56 d 18 -59 d 36 -128 d 17 -70 d s 0.54 0.66 0.63 c black 0.54 0.66 0.63 c 913
 634 m 23 42 d s 936 676 m 36 61 d 36 58 d 36 54 d 18 26 d 17 24 d 18 24 d 18 23 d 18 21 d 18 21 d 18 20 d 18 19 d 18 18 d 18 17 d 18 17 d 18 15 d 35 27 d 36 24 d 36 20 d 18 9 d 18 8 d 18 6 d 18 6 d 18 5 d 18 4 d 17 3 d 18 2 d 18 1 d 36 X 18 -2 d 18
 -3 d 18 -3 d 18 -5 d 18 -5 d 18 -7 d 18 -7 d 17 -8 d 18 -10 d 36 -21 d 36 -25 d 18 -14 d 18 -15 d 18 -16 d 18 -16 d 18 -18 d 18 -19 d 17 -19 d 18 -21 d 18 -21 d 18 -23 d 18 -23 d 18 -24 d 18 -26 d 18 -26 d 36 -55 d 36 -59 d 35 -62 d s black[  ] 0 sd
 3 lw 363 634 m 1791 X s 565 659 m -25 Y s 615 646 m -12 Y s 666 646 m -12 Y s 716 646 m -12 Y s 767 646 m -12 Y s 817 659 m -25 Y s 867 646 m -12 Y s 918 646 m -12 Y s 968 646 m -12 Y s 1019 646 m -12 Y s 1069 659 m -25 Y s 1120 646 m -12 Y s 1170
 646 m -12 Y s 1221 646 m -12 Y s 1271 646 m -12 Y s 1322 659 m -25 Y s 1372 646 m -12 Y s 1423 646 m -12 Y s 1473 646 m -12 Y s 1524 646 m -12 Y s 1574 659 m -25 Y s 1624 646 m -12 Y s 1675 646 m -12 Y s 1725 646 m -12 Y s 1776 646 m -12 Y s 1826
 659 m -25 Y s 1877 646 m -12 Y s 1927 646 m -12 Y s 1978 646 m -12 Y s 2028 646 m -12 Y s 2079 659 m -25 Y s 565 659 m -25 Y s 514 646 m -12 Y s 464 646 m -12 Y s 413 646 m -12 Y s 363 646 m -12 Y s 2079 659 m -25 Y s 2129 646 m -12 Y s 363 1484 m
 1791 X s 565 1459 m 25 Y s 615 1471 m 13 Y s 666 1471 m 13 Y s 716 1471 m 13 Y s 767 1471 m 13 Y s 817 1459 m 25 Y s 867 1471 m 13 Y s 918 1471 m 13 Y s 968 1471 m 13 Y s 1019 1471 m 13 Y s 1069 1459 m 25 Y s 1120 1471 m 13 Y s 1170 1471 m 13 Y s
 1221 1471 m 13 Y s 1271 1471 m 13 Y s 1322 1459 m 25 Y s 1372 1471 m 13 Y s 1423 1471 m 13 Y s 1473 1471 m 13 Y s 1524 1471 m 13 Y s 1574 1459 m 25 Y s 1624 1471 m 13 Y s 1675 1471 m 13 Y s 1725 1471 m 13 Y s 1776 1471 m 13 Y s 1826 1459 m 25 Y s
 1877 1471 m 13 Y s 1927 1471 m 13 Y s 1978 1471 m 13 Y s 2028 1471 m 13 Y s 2079 1459 m 25 Y s 565 1459 m 25 Y s 514 1471 m 13 Y s 464 1471 m 13 Y s 413 1471 m 13 Y s 363 1471 m 13 Y s 2079 1459 m 25 Y s 2129 1471 m 13 Y s 363 634 m 850 Y s 390 666
 m -27 X s 390 696 m -27 X s 390 720 m -27 X s 390 740 m -27 X s 390 758 m -27 X s 390 774 m -27 X s 417 788 m -54 X s 390 880 m -27 X s 390 934 m -27 X s 390 972 m -27 X s 390 1002 m -27 X s 390 1026 m -27 X s 390 1046 m -27 X s 390 1064 m -27 X s
 390 1080 m -27 X s 417 1094 m -54 X s 390 1186 m -27 X s 390 1240 m -27 X s 390 1278 m -27 X s 390 1308 m -27 X s 390 1332 m -27 X s 390 1352 m -27 X s 390 1370 m -27 X s 390 1386 m -27 X s 417 1400 m -54 X s 2154 634 m 850 Y s 2127 666 m 27 X s
 2127 696 m 27 X s 2127 720 m 27 X s 2127 740 m 27 X s 2127 758 m 27 X s 2127 774 m 27 X s 2101 788 m 53 X s 2127 880 m 27 X s 2127 934 m 27 X s 2127 972 m 27 X s 2127 1002 m 27 X s 2127 1026 m 27 X s 2127 1046 m 27 X s 2127 1064 m 27 X s 2127 1080 m
 27 X s 2101 1094 m 53 X s 2127 1186 m 27 X s 2127 1240 m 27 X s 2127 1278 m 27 X s 2127 1308 m 27 X s 2127 1332 m 27 X s 2127 1352 m 27 X s 2127 1370 m 27 X s 2127 1386 m 27 X s 2101 1400 m 53 X s
 gsave  2268 1077 0 461 C 677.708 1215.31 t 0 r /Helvetica findfont 58.7189 sf 0 0 m (2mu2e) show NC gr  1 1 1 c 453 161 454 1269 bf black
 gsave  2268 1077 0 461 C 566.929 1371.71 t 0 r /Helvetica-Bold findfont 48.9324 sf 0 0 m (MC15) show NC gr  510 1390 m20
 gsave  2268 1077 0 461 C 566.929 1293.51 t 0 r /Helvetica-Bold findfont 48.9324 sf 0 0 m (Projection of Signal pdf) show NC gr  0 0 1 c 9 lw 471 1309 m 79 X s black 3 lw 1 1 1 c 2268 461 0 0 bf black 1 1 1 c 1791 364 363 74 bf black 1791 364 363 74
 bl 363 74 m 1791 X s
 gsave  2268 461 0 0 C 1915.83 13.0329 t 0 r /Helvetica findfont 22.9045 sf 0 0 m (4l Invariant Mass \(GeV\)) show NC gr  565 85 m -11 Y s 615 79 m -5 Y s 666 79 m -5 Y s 716 79 m -5 Y s 767 79 m -5 Y s 817 85 m -11 Y s 867 79 m -5 Y s 918 79 m -5 Y
 s 968 79 m -5 Y s 1019 79 m -5 Y s 1069 85 m -11 Y s 1120 79 m -5 Y s 1170 79 m -5 Y s 1221 79 m -5 Y s 1271 79 m -5 Y s 1322 85 m -11 Y s 1372 79 m -5 Y s 1423 79 m -5 Y s 1473 79 m -5 Y s 1524 79 m -5 Y s 1574 85 m -11 Y s 1624 79 m -5 Y s 1675 79
 m -5 Y s 1725 79 m -5 Y s 1776 79 m -5 Y s 1826 85 m -11 Y s 1877 79 m -5 Y s 1927 79 m -5 Y s 1978 79 m -5 Y s 2028 79 m -5 Y s 2079 85 m -11 Y s 565 85 m -11 Y s 514 79 m -5 Y s 464 79 m -5 Y s 413 79 m -5 Y s 363 79 m -5 Y s 2079 85 m -11 Y s
 2129 79 m -5 Y s
 gsave  2268 461 0 0 C 544.122 55.3896 t 0 r /Helvetica findfont 22.9045 sf 0 0 m (360) show NC gr 
 gsave  2268 461 0 0 C 795.004 55.3896 t 0 r /Helvetica findfont 22.9045 sf 0 0 m (370) show NC gr 
 gsave  2268 461 0 0 C 1049.14 55.3896 t 0 r /Helvetica findfont 22.9045 sf 0 0 m (380) show NC gr 
 gsave  2268 461 0 0 C 1300.03 55.3896 t 0 r /Helvetica findfont 22.9045 sf 0 0 m (390) show NC gr 
 gsave  2268 461 0 0 C 1554.17 55.3896 t 0 r /Helvetica findfont 22.9045 sf 0 0 m (400) show NC gr 
 gsave  2268 461 0 0 C 1805.05 55.3896 t 0 r /Helvetica findfont 22.9045 sf 0 0 m (410) show NC gr 
 gsave  2268 461 0 0 C 2055.93 55.3896 t 0 r /Helvetica findfont 22.9045 sf 0 0 m (420) show NC gr  363 438 m 1791 X s 565 427 m 11 Y s 615 433 m 5 Y s 666 433 m 5 Y s 716 433 m 5 Y s 767 433 m 5 Y s 817 427 m 11 Y s 867 433 m 5 Y s 918 433 m 5 Y s
 968 433 m 5 Y s 1019 433 m 5 Y s 1069 427 m 11 Y s 1120 433 m 5 Y s 1170 433 m 5 Y s 1221 433 m 5 Y s 1271 433 m 5 Y s 1322 427 m 11 Y s 1372 433 m 5 Y s 1423 433 m 5 Y s 1473 433 m 5 Y s 1524 433 m 5 Y s 1574 427 m 11 Y s 1624 433 m 5 Y s 1675 433
 m 5 Y s 1725 433 m 5 Y s 1776 433 m 5 Y s 1826 427 m 11 Y s 1877 433 m 5 Y s 1927 433 m 5 Y s 1978 433 m 5 Y s 2028 433 m 5 Y s 2079 427 m 11 Y s 565 427 m 11 Y s 514 433 m 5 Y s 464 433 m 5 Y s 413 433 m 5 Y s 363 433 m 5 Y s 2079 427 m 11 Y s 2129
 433 m 5 Y s 363 74 m 364 Y s 417 74 m -54 X s 390 81 m -27 X s 390 88 m -27 X s 390 96 m -27 X s 390 103 m -27 X s 417 110 m -54 X s 390 118 m -27 X s 390 125 m -27 X s 390 132 m -27 X s 390 139 m -27 X s 417 147 m -54 X s 390 154 m -27 X s 390 161
 m -27 X s 390 169 m -27 X s 390 176 m -27 X s 417 183 m -54 X s 390 190 m -27 X s 390 198 m -27 X s 390 205 m -27 X s 390 212 m -27 X s 417 220 m -54 X s 390 227 m -27 X s 390 234 m -27 X s 390 241 m -27 X s 390 249 m -27 X s 417 256 m -54 X s 390
 263 m -27 X s 390 271 m -27 X s 390 278 m -27 X s 390 285 m -27 X s 417 293 m -54 X s 390 300 m -27 X s 390 307 m -27 X s 390 314 m -27 X s 390 322 m -27 X s 417 329 m -54 X s 390 336 m -27 X s 390 344 m -27 X s 390 351 m -27 X s 390 358 m -27 X s
 417 365 m -54 X s 390 373 m -27 X s 390 380 m -27 X s 390 387 m -27 X s 390 395 m -27 X s 417 402 m -54 X s 390 409 m -27 X s 390 416 m -27 X s 390 424 m -27 X s 390 431 m -27 X s 417 438 m -54 X s
 gsave  2268 461 0 0 C 329.08 65.1643 t 0 r /Helvetica findfont 22.9045 sf 0 0 m (\2555) show NC gr 
 gsave  2268 461 0 0 C 329.08 101.005 t 0 r /Helvetica findfont 22.9045 sf 0 0 m (\2554) show NC gr 
 gsave  2268 461 0 0 C 329.08 140.103 t 0 r /Helvetica findfont 22.9045 sf 0 0 m (\2553) show NC gr 
 gsave  2268 461 0 0 C 329.08 175.944 t 0 r /Helvetica findfont 22.9045 sf 0 0 m (\2552) show NC gr 
 gsave  2268 461 0 0 C 332.338 211.784 t 0 r /Helvetica findfont 22.9045 sf 0 0 m (\2551) show NC gr 
 gsave  2268 461 0 0 C 335.596 247.624 t 0 r /Helvetica findfont 22.9045 sf 0 0 m (0) show NC gr 
 gsave  2268 461 0 0 C 338.854 283.465 t 0 r /Helvetica findfont 22.9045 sf 0 0 m (1) show NC gr 
 gsave  2268 461 0 0 C 335.596 319.305 t 0 r /Helvetica findfont 22.9045 sf 0 0 m (2) show NC gr 
 gsave  2268 461 0 0 C 335.596 358.403 t 0 r /Helvetica findfont 22.9045 sf 0 0 m (3) show NC gr 
 gsave  2268 461 0 0 C 335.596 394.244 t 0 r /Helvetica findfont 22.9045 sf 0 0 m (4) show NC gr 
 gsave  2268 461 0 0 C 335.596 430.084 t 0 r /Helvetica findfont 22.9045 sf 0 0 m (5) show NC gr  2154 74 m 364 Y s 2101 74 m 53 X s 2127 81 m 27 X s 2127 88 m 27 X s 2127 96 m 27 X s 2127 103 m 27 X s 2101 110 m 53 X s 2127 118 m 27 X s 2127 125 m
 27 X s 2127 132 m 27 X s 2127 139 m 27 X s 2101 147 m 53 X s 2127 154 m 27 X s 2127 161 m 27 X s 2127 169 m 27 X s 2127 176 m 27 X s 2101 183 m 53 X s 2127 190 m 27 X s 2127 198 m 27 X s 2127 205 m 27 X s 2127 212 m 27 X s 2101 220 m 53 X s 2127 227
 m 27 X s 2127 234 m 27 X s 2127 241 m 27 X s 2127 249 m 27 X s 2101 256 m 53 X s 2127 263 m 27 X s 2127 271 m 27 X s 2127 278 m 27 X s 2127 285 m 27 X s 2101 293 m 53 X s 2127 300 m 27 X s 2127 307 m 27 X s 2127 314 m 27 X s 2127 322 m 27 X s 2101
 329 m 53 X s 2127 336 m 27 X s 2127 344 m 27 X s 2127 351 m 27 X s 2127 358 m 27 X s 2101 365 m 53 X s 2127 373 m 27 X s 2127 380 m 27 X s 2127 387 m 27 X s 2127 395 m 27 X s 2101 402 m 53 X s 2127 409 m 27 X s 2127 416 m 27 X s 2127 424 m 27 X s
 2127 431 m 27 X s 2101 438 m 53 X s 6 lw 0.2 0.8 0.2 c black 3 lw 0.2 0.8 0.2 c 363 256 m -57 Y 36 X 76 Y 35 X -24 Y 36 X -40 Y 36 X 28 Y 36 X 8 Y 36 X -8 Y 36 X 6 Y 35 X 5 Y 36 X -24 Y 36 X 9 Y 36 X -60 Y 36 X 136 Y 36 X -94 Y 35 X 16 Y 36 X 42 Y
 36 X -45 Y 72 X -5 Y 36 X -3 Y 35 X -50 Y 36 X 99 Y 36 X -22 Y 36 X -55 Y 36 X 74 Y 36 X -24 Y 35 X 35 Y 36 X 95 Y 36 X -88 Y 36 X -62 Y 36 X -22 Y 36 X 32 Y 35 X 26 Y 36 X 7 Y 36 X 99 Y 36 X -79 Y 36 X -12 Y 36 X -17 Y 35 X -36 Y 36 X -28 Y 36 X 99
 Y 36 X -38 Y 36 X -29 Y 36 X -28 Y 35 X 10 Y 36 X 5 Y 36 X -44 Y 36 X 101 Y 36 X 14 Y 36 X 14 Y 35 X -42 Y f 6 lw black 0.2 0.8 0.2 c black 363 199 m 36 X 76 Y 35 X -24 Y 36 X -40 Y 36 X 28 Y 36 X 8 Y 36 X -8 Y 36 X 6 Y 35 X 5 Y 36 X -24 Y 36 X 9 Y
 36 X -60 Y 36 X 136 Y 36 X -94 Y 35 X 16 Y 36 X 42 Y 36 X -45 Y 72 X -5 Y 36 X -3 Y 35 X -50 Y 36 X 99 Y 36 X -22 Y 36 X -55 Y 36 X 74 Y 36 X -24 Y 35 X 35 Y 36 X 95 Y 36 X -88 Y 36 X -62 Y 36 X -22 Y 36 X 32 Y 35 X 26 Y 36 X 7 Y 36 X 99 Y 36 X -79
 Y 36 X -12 Y 36 X -17 Y 35 X -36 Y 36 X -28 Y 36 X 99 Y 36 X -38 Y 36 X -29 Y 36 X -28 Y 35 X 10 Y 36 X 5 Y 36 X -44 Y 36 X 101 Y 36 X 14 Y 36 X 14 Y 35 X s 3 lw 363 74 m 1791 X s 565 85 m -11 Y s 615 79 m -5 Y s 666 79 m -5 Y s 716 79 m -5 Y s 767
 79 m -5 Y s 817 85 m -11 Y s 867 79 m -5 Y s 918 79 m -5 Y s 968 79 m -5 Y s 1019 79 m -5 Y s 1069 85 m -11 Y s 1120 79 m -5 Y s 1170 79 m -5 Y s 1221 79 m -5 Y s 1271 79 m -5 Y s 1322 85 m -11 Y s 1372 79 m -5 Y s 1423 79 m -5 Y s 1473 79 m -5 Y s
 1524 79 m -5 Y s 1574 85 m -11 Y s 1624 79 m -5 Y s 1675 79 m -5 Y s 1725 79 m -5 Y s 1776 79 m -5 Y s 1826 85 m -11 Y s 1877 79 m -5 Y s 1927 79 m -5 Y s 1978 79 m -5 Y s 2028 79 m -5 Y s 2079 85 m -11 Y s 565 85 m -11 Y s 514 79 m -5 Y s 464 79 m
 -5 Y s 413 79 m -5 Y s 363 79 m -5 Y s 2079 85 m -11 Y s 2129 79 m -5 Y s 363 438 m 1791 X s 565 427 m 11 Y s 615 433 m 5 Y s 666 433 m 5 Y s 716 433 m 5 Y s 767 433 m 5 Y s 817 427 m 11 Y s 867 433 m 5 Y s 918 433 m 5 Y s 968 433 m 5 Y s 1019 433 m
 5 Y s 1069 427 m 11 Y s 1120 433 m 5 Y s 1170 433 m 5 Y s 1221 433 m 5 Y s 1271 433 m 5 Y s 1322 427 m 11 Y s 1372 433 m 5 Y s 1423 433 m 5 Y s 1473 433 m 5 Y s 1524 433 m 5 Y s 1574 427 m 11 Y s 1624 433 m 5 Y s 1675 433 m 5 Y s 1725 433 m 5 Y s
 1776 433 m 5 Y s 1826 427 m 11 Y s 1877 433 m 5 Y s 1927 433 m 5 Y s 1978 433 m 5 Y s 2028 433 m 5 Y s 2079 427 m 11 Y s 565 427 m 11 Y s 514 433 m 5 Y s 464 433 m 5 Y s 413 433 m 5 Y s 363 433 m 5 Y s 2079 427 m 11 Y s 2129 433 m 5 Y s 363 74 m 364
 Y s 417 74 m -54 X s 390 81 m -27 X s 390 88 m -27 X s 390 96 m -27 X s 390 103 m -27 X s 417 110 m -54 X s 390 118 m -27 X s 390 125 m -27 X s 390 132 m -27 X s 390 139 m -27 X s 417 147 m -54 X s 390 154 m -27 X s 390 161 m -27 X s 390 169 m -27 X
 s 390 176 m -27 X s 417 183 m -54 X s 390 190 m -27 X s 390 198 m -27 X s 390 205 m -27 X s 390 212 m -27 X s 417 220 m -54 X s 390 227 m -27 X s 390 234 m -27 X s 390 241 m -27 X s 390 249 m -27 X s 417 256 m -54 X s 390 263 m -27 X s 390 271 m -27
 X s 390 278 m -27 X s 390 285 m -27 X s 417 293 m -54 X s 390 300 m -27 X s 390 307 m -27 X s 390 314 m -27 X s 390 322 m -27 X s 417 329 m -54 X s 390 336 m -27 X s 390 344 m -27 X s 390 351 m -27 X s 390 358 m -27 X s 417 365 m -54 X s 390 373 m
 -27 X s 390 380 m -27 X s 390 387 m -27 X s 390 395 m -27 X s 417 402 m -54 X s 390 409 m -27 X s 390 416 m -27 X s 390 424 m -27 X s 390 431 m -27 X s 417 438 m -54 X s 2154 74 m 364 Y s 2101 74 m 53 X s 2127 81 m 27 X s 2127 88 m 27 X s 2127 96 m
 27 X s 2127 103 m 27 X s 2101 110 m 53 X s 2127 118 m 27 X s 2127 125 m 27 X s 2127 132 m 27 X s 2127 139 m 27 X s 2101 147 m 53 X s 2127 154 m 27 X s 2127 161 m 27 X s 2127 169 m 27 X s 2127 176 m 27 X s 2101 183 m 53 X s 2127 190 m 27 X s 2127 198
 m 27 X s 2127 205 m 27 X s 2127 212 m 27 X s 2101 220 m 53 X s 2127 227 m 27 X s 2127 234 m 27 X s 2127 241 m 27 X s 2127 249 m 27 X s 2101 256 m 53 X s 2127 263 m 27 X s 2127 271 m 27 X s 2127 278 m 27 X s 2127 285 m 27 X s 2101 293 m 53 X s 2127
 300 m 27 X s 2127 307 m 27 X s 2127 314 m 27 X s 2127 322 m 27 X s 2101 329 m 53 X s 2127 336 m 27 X s 2127 344 m 27 X s 2127 351 m 27 X s 2127 358 m 27 X s 2101 365 m 53 X s 2127 373 m 27 X s 2127 380 m 27 X s 2127 387 m 27 X s 2127 395 m 27 X s
 2101 402 m 53 X s 2127 409 m 27 X s 2127 416 m 27 X s 2127 424 m 27 X s 2127 431 m 27 X s 2101 438 m 53 X s
 gr  gr showpage
end
%%EOF
