%!PS-Adobe-2.0 EPSF-2.0
%%BoundingBox:  0 0 567 384
%%Title: H4l2015_plotfit/gg_mass_signal_600_fixed_H4l_4e.eps: 
%%Creator: ROOT Version 5.34/10
%%CreationDate: Thu Feb 16 13:48:31 2017
%%EndComments
%%BeginProlog
80 dict begin
/s {stroke} def /l {lineto} def /m {moveto} def /t {translate} def
/r {rotate} def /rl {roll}  def /R {repeat} def
/d {rlineto} def /rm {rmoveto} def /gr {grestore} def /f {eofill} def
/c {setrgbcolor} def /black {0 setgray} def /sd {setdash} def
/cl {closepath} def /sf {scalefont setfont} def /lw {setlinewidth} def
/box {m dup 0 exch d exch 0 d 0 exch neg d cl} def
/NC{systemdict begin initclip end}def/C{NC box clip newpath}def
/bl {box s} def /bf {box f} def /Y { 0 exch d} def /X { 0 d} def 
/K {{pop pop 0 moveto} exch kshow} bind def
/ita {/ang 15 def gsave [1 0 ang dup sin exch cos div 1 0 0] concat} def 
/mp {newpath /y exch def /x exch def} def
/side {[w .77 mul w .23 mul] .385 w mul sd w 0 l currentpoint t -144 r} def
/mr {mp x y w2 0 360 arc} def /m24 {mr s} def /m20 {mr f} def
/mb {mp x y w2 add m w2 neg 0 d 0 w neg d w 0 d 0 w d cl} def
/mt {mp x y w2 add m w2 neg w neg d w 0 d cl} def
/m21 {mb f} def /m25 {mb s} def /m22 {mt f} def /m26{mt s} def
/m23 {mp x y w2 sub m w2 w d w neg 0 d cl f} def
/m27 {mp x y w2 add m w3 neg w2 neg d w3 w2 neg d w3 w2 d cl s} def
/m28 {mp x w2 sub y w2 sub w3 add m w3 0 d  0 w3 neg d w3 0 d 0 w3 d w3 0 d  0 w3 d w3 neg 0 d 0 w3 d w3 neg 0 d 0 w3 neg d w3 neg 0 d cl s } def
/m29 {mp gsave x w2 sub y w2 add w3 sub m currentpoint t 4 {side} repeat cl fill gr} def
/m30 {mp gsave x w2 sub y w2 add w3 sub m currentpoint t 4 {side} repeat cl s gr} def
/m31 {mp x y w2 sub m 0 w d x w2 sub y m w 0 d x w2 sub y w2 add m w w neg d x w2 sub y w2 sub m w w d s} def
/m32 {mp x y w2 sub m w2 w d w neg 0 d cl s} def
/m33 {mp x y w2 add m w3 neg w2 neg d w3 w2 neg d w3 w2 d cl f} def
/m34 {mp x w2 sub y w2 sub w3 add m w3 0 d  0 w3 neg d w3 0 d 0 w3 d w3 0 d  0 w3 d w3 neg 0 d 0 w3 d w3 neg 0 d 0 w3 neg d w3 neg 0 d cl f } def
/m2 {mp x y w2 sub m 0 w d x w2 sub y m w 0 d s} def
/m5 {mp x w2 sub y w2 sub m w w d x w2 sub y w2 add m w w neg d s} def
/reEncode {exch findfont dup length dict begin {1 index /FID eq  {pop pop} {def} ifelse } forall /Encoding exch def currentdict end dup /FontName get exch definefont pop } def [/Times-Bold /Times-Italic /Times-BoldItalic /Helvetica /Helvetica-Oblique
 /Helvetica-Bold /Helvetica-BoldOblique /Courier /Courier-Oblique /Courier-Bold /Courier-BoldOblique /Times-Roman /AvantGarde-Book /AvantGarde-BookOblique /AvantGarde-Demi /AvantGarde-DemiOblique /Bookman-Demi /Bookman-DemiItalic /Bookman-Light
 /Bookman-LightItalic /Helvetica-Narrow /Helvetica-Narrow-Bold /Helvetica-Narrow-BoldOblique /Helvetica-Narrow-Oblique /NewCenturySchlbk-Roman /NewCenturySchlbk-Bold /NewCenturySchlbk-BoldItalic /NewCenturySchlbk-Italic /Palatino-Bold
 /Palatino-BoldItalic /Palatino-Italic /Palatino-Roman ] {ISOLatin1Encoding reEncode } forall
%%EndProlog
%%BeginSetup
%%EndSetup
newpath  gsave  .25 .25 scale  gsave  0 0 t black[  ] 0 sd 3 lw 1 1 1 c 2268 1538 0 0 bf black 1 1 1 c 2222 738 23 784 bf black 1 1 1 c 2222 739 23 15 bf black 1 1 1 c 2268 1077 0 461 bf black 1 1 1 c 1791 850 363 634 bf black 1791 850 363 634 bl 363
 634 m 1791 X s
 gsave  2268 1077 0 461 C 1642.14 498.507 t 0 r /Helvetica findfont 48.9324 sf 0 0 m (4l Invariant Mass \(GeV\)) show NC gr  363 659 m -25 Y s 412 646 m -12 Y s 461 646 m -12 Y s 510 646 m -12 Y s 559 646 m -12 Y s 608 659 m -25 Y s 657 646 m -12 Y s
 706 646 m -12 Y s 755 646 m -12 Y s 805 646 m -12 Y s 854 659 m -25 Y s 903 646 m -12 Y s 952 646 m -12 Y s 1001 646 m -12 Y s 1050 646 m -12 Y s 1099 659 m -25 Y s 1148 646 m -12 Y s 1197 646 m -12 Y s 1246 646 m -12 Y s 1295 646 m -12 Y s 1344 659
 m -25 Y s 1394 646 m -12 Y s 1443 646 m -12 Y s 1492 646 m -12 Y s 1541 646 m -12 Y s 1590 659 m -25 Y s 1639 646 m -12 Y s 1688 646 m -12 Y s 1737 646 m -12 Y s 1786 646 m -12 Y s 1835 659 m -25 Y s 1884 646 m -12 Y s 1933 646 m -12 Y s 1983 646 m
 -12 Y s 2032 646 m -12 Y s 2081 659 m -25 Y s 2081 659 m -25 Y s 2130 646 m -12 Y s
 gsave  2268 1077 0 461 C 319.305 586.478 t 0 r /Helvetica findfont 48.9324 sf 0 0 m (550) show NC gr 
 gsave  2268 1077 0 461 C 563.671 586.478 t 0 r /Helvetica findfont 48.9324 sf 0 0 m (560) show NC gr 
 gsave  2268 1077 0 461 C 811.295 586.478 t 0 r /Helvetica findfont 48.9324 sf 0 0 m (570) show NC gr 
 gsave  2268 1077 0 461 C 1055.66 586.478 t 0 r /Helvetica findfont 48.9324 sf 0 0 m (580) show NC gr 
 gsave  2268 1077 0 461 C 1300.03 586.478 t 0 r /Helvetica findfont 48.9324 sf 0 0 m (590) show NC gr 
 gsave  2268 1077 0 461 C 1544.39 586.478 t 0 r /Helvetica findfont 48.9324 sf 0 0 m (600) show NC gr 
 gsave  2268 1077 0 461 C 1792.02 586.478 t 0 r /Helvetica findfont 48.9324 sf 0 0 m (610) show NC gr 
 gsave  2268 1077 0 461 C 2036.38 586.478 t 0 r /Helvetica findfont 48.9324 sf 0 0 m (620) show NC gr  363 1484 m 1791 X s 363 1459 m 25 Y s 412 1471 m 13 Y s 461 1471 m 13 Y s 510 1471 m 13 Y s 559 1471 m 13 Y s 608 1459 m 25 Y s 657 1471 m 13 Y s
 706 1471 m 13 Y s 755 1471 m 13 Y s 805 1471 m 13 Y s 854 1459 m 25 Y s 903 1471 m 13 Y s 952 1471 m 13 Y s 1001 1471 m 13 Y s 1050 1471 m 13 Y s 1099 1459 m 25 Y s 1148 1471 m 13 Y s 1197 1471 m 13 Y s 1246 1471 m 13 Y s 1295 1471 m 13 Y s 1344
 1459 m 25 Y s 1394 1471 m 13 Y s 1443 1471 m 13 Y s 1492 1471 m 13 Y s 1541 1471 m 13 Y s 1590 1459 m 25 Y s 1639 1471 m 13 Y s 1688 1471 m 13 Y s 1737 1471 m 13 Y s 1786 1471 m 13 Y s 1835 1459 m 25 Y s 1884 1471 m 13 Y s 1933 1471 m 13 Y s 1983
 1471 m 13 Y s 2032 1471 m 13 Y s 2081 1459 m 25 Y s 2081 1459 m 25 Y s 2130 1471 m 13 Y s 363 634 m 850 Y s
 gsave  2268 1077 0 461 C 120.554 1032.85 t 90 r /Helvetica findfont 48.9324 sf 0 0 m (Events / \( 1.46 GeV \)) show NC gr  390 660 m -27 X s 390 713 m -27 X s 390 752 m -27 X s 390 781 m -27 X s 390 806 m -27 X s 390 826 m -27 X s 390 844 m -27 X s
 390 859 m -27 X s 417 873 m -54 X s
 gsave  2268 1077 0 461 C 342.425 852.62 t 0 r  -55 0 t /Helvetica findfont 48.9324 sf 0 0 m (10) show NC gr  390 966 m -27 X s 390 1020 m -27 X s 390 1058 m -27 X s 390 1087 m -27 X s 390 1112 m -27 X s 390 1132 m -27 X s 390 1150 m -27 X s 390 1166
 m -27 X s 417 1180 m -54 X s
 gsave  2268 1077 0 461 C 322.563 1179.47 t 0 r /Helvetica findfont 32.6216 sf 0 0 m (2) show NC gr 
 gsave  2268 1077 0 461 C 270.432 1159.92 t 0 r /Helvetica findfont 48.9324 sf 0 0 m (10) show NC gr  390 1272 m -27 X s 390 1326 m -27 X s 390 1364 m -27 X s 390 1394 m -27 X s 390 1418 m -27 X s 390 1438 m -27 X s 390 1456 m -27 X s 390 1472 m -27
 X s 2154 634 m 850 Y s 2127 660 m 27 X s 2127 713 m 27 X s 2127 752 m 27 X s 2127 781 m 27 X s 2127 806 m 27 X s 2127 826 m 27 X s 2127 844 m 27 X s 2127 859 m 27 X s 2101 873 m 53 X s 2127 966 m 27 X s 2127 1020 m 27 X s 2127 1058 m 27 X s 2127
 1087 m 27 X s 2127 1112 m 27 X s 2127 1132 m 27 X s 2127 1150 m 27 X s 2127 1166 m 27 X s 2101 1180 m 53 X s 2127 1272 m 27 X s 2127 1326 m 27 X s 2127 1364 m 27 X s 2127 1394 m 27 X s 2127 1418 m 27 X s 2127 1438 m 27 X s 2127 1456 m 27 X s 2127
 1472 m 27 X s 381 713 m -18 X s 363 713 m cl s 381 713 m 18 X s 399 713 m cl s 381 713 m 91 Y s 381 804 m cl s 381 713 m -79 Y s 381 634 m cl s 417 781 m -18 X s 399 781 m cl s 417 781 m 17 X s 434 781 m cl s 417 781 m 69 Y s 417 850 m cl s 417 781
 m -75 Y s 417 706 m cl s 452 781 m -18 X s 434 781 m cl s 452 781 m 18 X s 470 781 m cl s 452 781 m 69 Y s 452 850 m cl s 452 781 m -75 Y s 452 706 m cl s 488 806 m -18 X s 470 806 m cl s 488 806 m 18 X s 506 806 m cl s 488 806 m 62 Y s 488 868 m cl
 s 488 806 m -68 Y s 488 738 m cl s 524 806 m -18 X s 506 806 m cl s 524 806 m 18 X s 542 806 m cl s 524 806 m 62 Y s 524 868 m cl s 524 806 m -68 Y s 524 738 m cl s 560 752 m -18 X s 542 752 m cl s 560 752 m 18 X s 578 752 m cl s 560 752 m 77 Y s
 560 829 m cl s 560 752 m -87 Y s 560 665 m cl s 596 806 m -18 X s 578 806 m cl s 596 806 m 18 X s 614 806 m cl s 596 806 m 62 Y s 596 868 m cl s 596 806 m -68 Y s 596 738 m cl s 632 844 m -18 X s 614 844 m cl s 632 844 m 17 X s 649 844 m cl s 632
 844 m 53 Y s 632 897 m cl s 632 844 m -57 Y s 632 787 m cl s 667 859 m -18 X s 649 859 m cl s 667 859 m 18 X s 685 859 m cl s 667 859 m 50 Y s 667 909 m cl s 667 859 m -52 Y s 667 807 m cl s 703 826 m -18 X s 685 826 m cl s 703 826 m 18 X s 721 826
 m cl s 703 826 m 57 Y s 703 883 m cl s 703 826 m -61 Y s 703 765 m cl s 739 713 m -18 X s 721 713 m cl s 739 713 m 18 X s 757 713 m cl s 739 713 m 91 Y s 739 804 m cl s 739 713 m -79 Y s 739 634 m cl s 775 908 m -18 X s 757 908 m cl s 775 908 m 18 X
 s 793 908 m cl s 775 908 m 41 Y s 775 949 m cl s 775 908 m -42 Y s 775 866 m cl s 811 927 m -18 X s 793 927 m cl s 811 927 m 18 X s 829 927 m cl s 811 927 m 38 Y s 811 965 m cl s 811 927 m -39 Y s 811 888 m cl s 847 898 m -18 X s 829 898 m cl s 847
 898 m 17 X s 864 898 m cl s 847 898 m 43 Y s 847 941 m cl s 847 898 m -45 Y s 847 853 m cl s 882 908 m -18 X s 864 908 m cl s 882 908 m 18 X s 900 908 m cl s 882 908 m 41 Y s 882 949 m cl s 882 908 m -42 Y s 882 866 m cl s 918 927 m -18 X s 900 927
 m cl s 918 927 m 18 X s 936 927 m cl s 918 927 m 38 Y s 918 965 m cl s 918 927 m -39 Y s 918 888 m cl s 954 978 m -18 X s 936 978 m cl s 954 978 m 18 X s 972 978 m cl s 954 978 m 31 Y s 954 1009 m cl s 954 978 m -31 Y s 954 947 m cl s 990 1006 m -18
 X s 972 1006 m cl s 990 1006 m 18 X s 1008 1006 m cl s 990 1006 m 27 Y s 990 1033 m cl s 990 1006 m -29 Y s 990 977 m cl s 1026 1020 m -18 X s 1008 1020 m cl s 1026 1020 m 18 X s 1044 1020 m cl s 1026 1020 m 26 Y s 1026 1046 m cl s 1026 1020 m -27 Y
 s 1026 993 m cl s 1062 1032 m -18 X s 1044 1032 m cl s 1062 1032 m 17 X s 1079 1032 m cl s 1062 1032 m 25 Y s 1062 1057 m cl s 1062 1032 m -25 Y s 1062 1007 m cl s 1097 1073 m -18 X s 1079 1073 m cl s 1097 1073 m 18 X s 1115 1073 m cl s 1097 1073 m
 22 Y s 1097 1095 m cl s 1097 1073 m -21 Y s 1097 1052 m cl s 1133 1095 m -18 X s 1115 1095 m cl s 1133 1095 m 18 X s 1151 1095 m cl s 1133 1095 m 20 Y s 1133 1115 m cl s 1133 1095 m -19 Y s 1133 1076 m cl s 1169 1105 m -18 X s 1151 1105 m cl s 1169
 1105 m 18 X s 1187 1105 m cl s 1169 1105 m 19 Y s 1169 1124 m cl s 1169 1105 m -19 Y s 1169 1086 m cl s 1205 1148 m -18 X s 1187 1148 m cl s 1205 1148 m 18 X s 1223 1148 m cl s 1205 1148 m 16 Y s 1205 1164 m cl s 1205 1148 m -16 Y s 1205 1132 m cl s
 1241 1180 m -18 X s 1223 1180 m cl s 1241 1180 m 18 X s 1259 1180 m cl s 1241 1180 m 14 Y s 1241 1194 m cl s 1241 1180 m -14 Y s 1241 1166 m cl s 1276 1198 m -17 X s 1259 1198 m cl s 1276 1198 m 18 X s 1294 1198 m cl s 1276 1198 m 13 Y s 1276 1211 m
 cl s 1276 1198 m -12 Y s 1276 1186 m cl s 1312 1227 m -18 X s 1294 1227 m cl s 1312 1227 m 18 X s 1330 1227 m cl s 1312 1227 m 11 Y s 1312 1238 m cl s 1312 1227 m -11 Y s 1312 1216 m cl s 1348 1266 m -18 X s 1330 1266 m cl s 1348 1266 m 18 X s 1366
 1266 m cl s 1348 1266 m 10 Y s 1348 1276 m cl s 1348 1266 m -9 Y s 1348 1257 m cl s 1384 1307 m -18 X s 1366 1307 m cl s 1384 1307 m 18 X s 1402 1307 m cl s 1384 1307 m 8 Y s 1384 1315 m cl s 1384 1307 m -8 Y s 1384 1299 m cl s 1420 1337 m -18 X s
 1402 1337 m cl s 1420 1337 m 18 X s 1438 1337 m cl s 1420 1337 m 7 Y s 1420 1344 m cl s 1420 1337 m -7 Y s 1420 1330 m cl s 1456 1388 m -18 X s 1438 1388 m cl s 1456 1388 m 18 X s 1474 1388 m cl s 1456 1388 m 6 Y s 1456 1394 m cl s 1456 1388 m -6 Y
 s 1456 1382 m cl s 1491 1396 m -17 X s 1474 1396 m cl s 1491 1396 m 18 X s 1509 1396 m cl s 1491 1396 m 6 Y s 1491 1402 m cl s 1491 1396 m -6 Y s 1491 1390 m cl s 1527 1418 m -18 X s 1509 1418 m cl s 1527 1418 m 18 X s 1545 1418 m cl s 1527 1418 m 6
 Y s 1527 1424 m cl s 1527 1418 m -5 Y s 1527 1413 m cl s 1563 1418 m -18 X s 1545 1418 m cl s 1563 1418 m 18 X s 1581 1418 m cl s 1563 1418 m 5 Y s 1563 1423 m cl s 1563 1418 m -5 Y s 1563 1413 m cl s 1599 1414 m -18 X s 1581 1414 m cl s 1599 1414 m
 18 X s 1617 1414 m cl s 1599 1414 m 6 Y s 1599 1420 m cl s 1599 1414 m -5 Y s 1599 1409 m cl s 1635 1403 m -18 X s 1617 1403 m cl s 1635 1403 m 18 X s 1653 1403 m cl s 1635 1403 m 5 Y s 1635 1408 m cl s 1635 1403 m -6 Y s 1635 1397 m cl s 1671 1348
 m -18 X s 1653 1348 m cl s 1671 1348 m 18 X s 1689 1348 m cl s 1671 1348 m 7 Y s 1671 1355 m cl s 1671 1348 m -7 Y s 1671 1341 m cl s 1706 1309 m -17 X s 1689 1309 m cl s 1706 1309 m 18 X s 1724 1309 m cl s 1706 1309 m 8 Y s 1706 1317 m cl s 1706
 1309 m -8 Y s 1706 1301 m cl s 1742 1249 m -18 X s 1724 1249 m cl s 1742 1249 m 18 X s 1760 1249 m cl s 1742 1249 m 10 Y s 1742 1259 m cl s 1742 1249 m -11 Y s 1742 1238 m cl s 1778 1185 m -18 X s 1760 1185 m cl s 1778 1185 m 18 X s 1796 1185 m cl s
 1778 1185 m 13 Y s 1778 1198 m cl s 1778 1185 m -13 Y s 1778 1172 m cl s 1814 1126 m -18 X s 1796 1126 m cl s 1814 1126 m 18 X s 1832 1126 m cl s 1814 1126 m 18 Y s 1814 1144 m cl s 1814 1126 m -17 Y s 1814 1109 m cl s 1850 1067 m -18 X s 1832 1067
 m cl s 1850 1067 m 18 X s 1868 1067 m cl s 1850 1067 m 22 Y s 1850 1089 m cl s 1850 1067 m -22 Y s 1850 1045 m cl s 1886 1036 m -18 X s 1868 1036 m cl s 1886 1036 m 18 X s 1904 1036 m cl s 1886 1036 m 25 Y s 1886 1061 m cl s 1886 1036 m -25 Y s 1886
 1011 m cl s 1921 978 m -17 X s 1904 978 m cl s 1921 978 m 18 X s 1939 978 m cl s 1921 978 m 31 Y s 1921 1009 m cl s 1921 978 m -31 Y s 1921 947 m cl s 1957 966 m -18 X s 1939 966 m cl s 1957 966 m 18 X s 1975 966 m cl s 1957 966 m 32 Y s 1957 998 m
 cl s 1957 966 m -34 Y s 1957 932 m cl s 1993 873 m -18 X s 1975 873 m cl s 1993 873 m 18 X s 2011 873 m cl s 1993 873 m 48 Y s 1993 921 m cl s 1993 873 m -49 Y s 1993 824 m cl s 2029 844 m -18 X s 2011 844 m cl s 2029 844 m 18 X s 2047 844 m cl s
 2029 844 m 53 Y s 2029 897 m cl s 2029 844 m -57 Y s 2029 787 m cl s 2065 844 m -18 X s 2047 844 m cl s 2065 844 m 18 X s 2083 844 m cl s 2065 844 m 53 Y s 2065 897 m cl s 2065 844 m -57 Y s 2065 787 m cl s 2101 752 m -18 X s 2083 752 m cl s 2101
 752 m 18 X s 2119 752 m cl s 2101 752 m 77 Y s 2101 829 m cl s 2101 752 m -87 Y s 2101 665 m cl s 2136 713 m -17 X s 2119 713 m cl s 2136 713 m 18 X s 2154 713 m cl s 2136 713 m 91 Y s 2136 804 m cl s 2136 713 m -79 Y s 2136 634 m cl s /w 31 def /w2
 {w 2 div} def /w3 {w 3 div} def 381 713 417 781 452 781 488 806 524 806 560 752 596 806 632 844 667 859 703 826 739 713 775 908 811 927 847 898 882 908 918 927 954 978 990 1006 1026 1020 1062 1032 1097 1073 1133 1095 1169 1105 1205 1148 1241 1180
 1276 1198 1312 1227 1348 1266 1384 1307 1420 1337 1456 1388 1491 1396 1527 1418 1563 1418 1599 1414 1635 1403 1671 1348 1706 1309 1742 1249 1778 1185 1814 1126 1850 1067 1886 1036 1921 978 1957 966 1993 873 2029 844 2065 844 2101 752 2136 713 50 {
 m20} R 0 1 1 c 1 1 0 c black 1 1 0 c 363 770 m 36 7 d 35 8 d 36 8 d 36 9 d 36 9 d 36 9 d 36 9 d 35 10 d 36 10 d 36 11 d 36 12 d 36 12 d 36 14 d 35 14 d 36 17 d 36 18 d 36 20 d 36 22 d 36 24 d 35 27 d 36 27 d 36 29 d 36 30 d 36 30 d 18 15 d 18 15 d
 17 16 d 18 15 d 18 16 d 18 17 d 18 17 d 9 9 d 9 10 d 9 9 d 9 10 d 9 11 d 9 11 d 18 22 d 18 19 d 18 16 d 9 8 d 9 6 d 9 6 d 8 5 d 9 4 d 9 4 d 9 2 d 9 2 d 9 2 d 18 X 9 -2 d 9 -1 d 9 -3 d 9 -4 d 9 -4 d 9 -5 d 9 -5 d 9 -7 d 9 -7 d 18 -17 d 18 -19 d 18
 -21 d 17 -24 d 9 -12 d 9 -13 d 9 -14 d 9 -14 d 9 -14 d 9 -14 d 9 -14 d 9 -15 d 18 -28 d 18 -29 d 18 -28 d 18 -27 d 18 -26 d 18 -25 d 18 -25 d 35 -48 d 36 -48 d 36 -51 d 36 -53 d 36 -57 d 36 -61 d 30 -54 d -30 54 d -36 61 d -36 57 d -36 53 d -36 51 d
 -36 48 d -35 48 d -18 25 d -18 25 d -18 26 d -18 27 d -18 28 d -18 29 d -18 28 d -9 15 d -9 14 d -9 14 d -9 14 d -9 14 d -9 14 d -9 13 d -9 12 d -17 24 d -18 21 d -18 19 d -18 17 d -9 7 d -9 7 d -9 5 d -9 5 d -9 4 d -9 4 d -9 3 d -9 1 d -9 2 d -18 X
 -9 -2 d -9 -2 d -9 -2 d -9 -4 d -9 -4 d -8 -5 d -9 -6 d -9 -6 d -9 -8 d -18 -16 d -18 -19 d -18 -22 d -9 -11 d -9 -11 d -9 -10 d -9 -9 d -9 -10 d -9 -9 d -18 -17 d -18 -17 d -18 -16 d -18 -15 d -17 -16 d -18 -15 d -18 -15 d -36 -30 d -36 -30 d -36
 -29 d -36 -27 d -35 -27 d -36 -24 d -36 -22 d -36 -20 d -36 -18 d -36 -17 d -35 -14 d -36 -14 d -36 -12 d -36 -12 d -36 -11 d -36 -10 d -35 -10 d -36 -9 d -36 -9 d -36 -9 d -36 -9 d -36 -8 d -35 -8 d -36 -7 d f 0 1 1 c 0 1 0 c black 0 1 0 c 363 770
 m 36 7 d 35 8 d 36 8 d 36 9 d 36 9 d 36 9 d 36 9 d 35 10 d 36 10 d 36 11 d 36 12 d 36 12 d 36 14 d 35 14 d 36 17 d 36 18 d 36 20 d 36 22 d 36 24 d 35 27 d 36 27 d 36 29 d 36 30 d 36 30 d 18 15 d 18 15 d 17 16 d 18 15 d 18 16 d 18 17 d 18 17 d 9 9 d
 9 10 d 9 9 d 9 10 d 9 11 d 9 11 d 18 22 d 18 19 d 18 16 d 9 8 d 9 6 d 9 6 d 8 5 d 9 4 d 9 4 d 9 2 d 9 2 d 9 2 d 18 X 9 -2 d 9 -1 d 9 -3 d 9 -4 d 9 -4 d 9 -5 d 9 -5 d 9 -7 d 9 -7 d 18 -17 d 18 -19 d 18 -21 d 17 -24 d 9 -12 d 9 -13 d 9 -14 d 9 -14 d 9
 -14 d 9 -14 d 9 -14 d 9 -15 d 18 -28 d 18 -29 d 18 -28 d 18 -27 d 18 -26 d 18 -25 d 18 -25 d 35 -48 d 36 -48 d 36 -51 d 36 -53 d 36 -57 d 36 -61 d 30 -54 d -30 54 d -36 61 d -36 57 d -36 53 d -36 51 d -36 48 d -35 48 d -18 25 d -18 25 d -18 26 d -18
 27 d -18 28 d -18 29 d -18 28 d -9 15 d -9 14 d -9 14 d -9 14 d -9 14 d -9 14 d -9 13 d -9 12 d -17 24 d -18 21 d -18 19 d -18 17 d -9 7 d -9 7 d -9 5 d -9 5 d -9 4 d -9 4 d -9 3 d -9 1 d -9 2 d -18 X -9 -2 d -9 -2 d -9 -2 d -9 -4 d -9 -4 d -8 -5 d
 -9 -6 d -9 -6 d -9 -8 d -18 -16 d -18 -19 d -18 -22 d -9 -11 d -9 -11 d -9 -10 d -9 -9 d -9 -10 d -9 -9 d -18 -17 d -18 -17 d -18 -16 d -18 -15 d -17 -16 d -18 -15 d -18 -15 d -36 -30 d -36 -30 d -36 -29 d -36 -27 d -35 -27 d -36 -24 d -36 -22 d -36
 -20 d -36 -18 d -36 -17 d -35 -14 d -36 -14 d -36 -12 d -36 -12 d -36 -11 d -36 -10 d -35 -10 d -36 -9 d -36 -9 d -36 -9 d -36 -9 d -36 -8 d -35 -8 d -36 -7 d f 0 0 1 c 9 lw black 0 0 1 c 363 770 m 36 7 d 35 8 d 36 8 d 36 9 d 36 9 d 36 9 d 36 9 d 35
 10 d 36 10 d 36 11 d 36 12 d 36 12 d 36 14 d 35 14 d 36 17 d 36 18 d 36 20 d 36 22 d 36 24 d 35 27 d 36 27 d 36 29 d 36 30 d 36 30 d 18 15 d 18 15 d 17 16 d 18 15 d 18 16 d 18 17 d 18 17 d 9 9 d 9 10 d 9 9 d 9 10 d 9 11 d 9 11 d 18 22 d 18 19 d 18
 16 d 9 8 d 9 6 d 9 6 d 8 5 d 9 4 d 9 4 d 9 2 d 9 2 d 9 2 d 18 X 9 -2 d 9 -1 d 9 -3 d 9 -4 d 9 -4 d 9 -5 d 9 -5 d 9 -7 d 9 -7 d 18 -17 d 18 -19 d 18 -21 d 17 -24 d 9 -12 d 9 -13 d 9 -14 d 9 -14 d 9 -14 d 9 -14 d 9 -14 d 9 -15 d 18 -28 d 18 -29 d 18
 -28 d 18 -27 d 18 -26 d 18 -25 d 18 -25 d 35 -48 d 36 -48 d 36 -51 d 36 -53 d 36 -57 d 36 -61 d 30 -54 d s black 3 lw 381 713 m -18 X s 363 713 m cl s 381 713 m 18 X s 399 713 m cl s 381 713 m 91 Y s 381 804 m cl s 381 713 m -79 Y s 381 634 m cl s
 417 781 m -18 X s 399 781 m cl s 417 781 m 17 X s 434 781 m cl s 417 781 m 69 Y s 417 850 m cl s 417 781 m -75 Y s 417 706 m cl s 452 781 m -18 X s 434 781 m cl s 452 781 m 18 X s 470 781 m cl s 452 781 m 69 Y s 452 850 m cl s 452 781 m -75 Y s 452
 706 m cl s 488 806 m -18 X s 470 806 m cl s 488 806 m 18 X s 506 806 m cl s 488 806 m 62 Y s 488 868 m cl s 488 806 m -68 Y s 488 738 m cl s 524 806 m -18 X s 506 806 m cl s 524 806 m 18 X s 542 806 m cl s 524 806 m 62 Y s 524 868 m cl s 524 806 m
 -68 Y s 524 738 m cl s 560 752 m -18 X s 542 752 m cl s 560 752 m 18 X s 578 752 m cl s 560 752 m 77 Y s 560 829 m cl s 560 752 m -87 Y s 560 665 m cl s 596 806 m -18 X s 578 806 m cl s 596 806 m 18 X s 614 806 m cl s 596 806 m 62 Y s 596 868 m cl s
 596 806 m -68 Y s 596 738 m cl s 632 844 m -18 X s 614 844 m cl s 632 844 m 17 X s 649 844 m cl s 632 844 m 53 Y s 632 897 m cl s 632 844 m -57 Y s 632 787 m cl s 667 859 m -18 X s 649 859 m cl s 667 859 m 18 X s 685 859 m cl s 667 859 m 50 Y s 667
 909 m cl s 667 859 m -52 Y s 667 807 m cl s 703 826 m -18 X s 685 826 m cl s 703 826 m 18 X s 721 826 m cl s 703 826 m 57 Y s 703 883 m cl s 703 826 m -61 Y s 703 765 m cl s 739 713 m -18 X s 721 713 m cl s 739 713 m 18 X s 757 713 m cl s 739 713 m
 91 Y s 739 804 m cl s 739 713 m -79 Y s 739 634 m cl s 775 908 m -18 X s 757 908 m cl s 775 908 m 18 X s 793 908 m cl s 775 908 m 41 Y s 775 949 m cl s 775 908 m -42 Y s 775 866 m cl s 811 927 m -18 X s 793 927 m cl s 811 927 m 18 X s 829 927 m cl s
 811 927 m 38 Y s 811 965 m cl s 811 927 m -39 Y s 811 888 m cl s 847 898 m -18 X s 829 898 m cl s 847 898 m 17 X s 864 898 m cl s 847 898 m 43 Y s 847 941 m cl s 847 898 m -45 Y s 847 853 m cl s 882 908 m -18 X s 864 908 m cl s 882 908 m 18 X s 900
 908 m cl s 882 908 m 41 Y s 882 949 m cl s 882 908 m -42 Y s 882 866 m cl s 918 927 m -18 X s 900 927 m cl s 918 927 m 18 X s 936 927 m cl s 918 927 m 38 Y s 918 965 m cl s 918 927 m -39 Y s 918 888 m cl s 954 978 m -18 X s 936 978 m cl s 954 978 m
 18 X s 972 978 m cl s 954 978 m 31 Y s 954 1009 m cl s 954 978 m -31 Y s 954 947 m cl s 990 1006 m -18 X s 972 1006 m cl s 990 1006 m 18 X s 1008 1006 m cl s 990 1006 m 27 Y s 990 1033 m cl s 990 1006 m -29 Y s 990 977 m cl s 1026 1020 m -18 X s
 1008 1020 m cl s 1026 1020 m 18 X s 1044 1020 m cl s 1026 1020 m 26 Y s 1026 1046 m cl s 1026 1020 m -27 Y s 1026 993 m cl s 1062 1032 m -18 X s 1044 1032 m cl s 1062 1032 m 17 X s 1079 1032 m cl s 1062 1032 m 25 Y s 1062 1057 m cl s 1062 1032 m -25
 Y s 1062 1007 m cl s 1097 1073 m -18 X s 1079 1073 m cl s 1097 1073 m 18 X s 1115 1073 m cl s 1097 1073 m 22 Y s 1097 1095 m cl s 1097 1073 m -21 Y s 1097 1052 m cl s 1133 1095 m -18 X s 1115 1095 m cl s 1133 1095 m 18 X s 1151 1095 m cl s 1133 1095
 m 20 Y s 1133 1115 m cl s 1133 1095 m -19 Y s 1133 1076 m cl s 1169 1105 m -18 X s 1151 1105 m cl s 1169 1105 m 18 X s 1187 1105 m cl s 1169 1105 m 19 Y s 1169 1124 m cl s 1169 1105 m -19 Y s 1169 1086 m cl s 1205 1148 m -18 X s 1187 1148 m cl s
 1205 1148 m 18 X s 1223 1148 m cl s 1205 1148 m 16 Y s 1205 1164 m cl s 1205 1148 m -16 Y s 1205 1132 m cl s 1241 1180 m -18 X s 1223 1180 m cl s 1241 1180 m 18 X s 1259 1180 m cl s 1241 1180 m 14 Y s 1241 1194 m cl s 1241 1180 m -14 Y s 1241 1166 m
 cl s 1276 1198 m -17 X s 1259 1198 m cl s 1276 1198 m 18 X s 1294 1198 m cl s 1276 1198 m 13 Y s 1276 1211 m cl s 1276 1198 m -12 Y s 1276 1186 m cl s 1312 1227 m -18 X s 1294 1227 m cl s 1312 1227 m 18 X s 1330 1227 m cl s 1312 1227 m 11 Y s 1312
 1238 m cl s 1312 1227 m -11 Y s 1312 1216 m cl s 1348 1266 m -18 X s 1330 1266 m cl s 1348 1266 m 18 X s 1366 1266 m cl s 1348 1266 m 10 Y s 1348 1276 m cl s 1348 1266 m -9 Y s 1348 1257 m cl s 1384 1307 m -18 X s 1366 1307 m cl s 1384 1307 m 18 X s
 1402 1307 m cl s 1384 1307 m 8 Y s 1384 1315 m cl s 1384 1307 m -8 Y s 1384 1299 m cl s 1420 1337 m -18 X s 1402 1337 m cl s 1420 1337 m 18 X s 1438 1337 m cl s 1420 1337 m 7 Y s 1420 1344 m cl s 1420 1337 m -7 Y s 1420 1330 m cl s 1456 1388 m -18 X
 s 1438 1388 m cl s 1456 1388 m 18 X s 1474 1388 m cl s 1456 1388 m 6 Y s 1456 1394 m cl s 1456 1388 m -6 Y s 1456 1382 m cl s 1491 1396 m -17 X s 1474 1396 m cl s 1491 1396 m 18 X s 1509 1396 m cl s 1491 1396 m 6 Y s 1491 1402 m cl s 1491 1396 m -6
 Y s 1491 1390 m cl s 1527 1418 m -18 X s 1509 1418 m cl s 1527 1418 m 18 X s 1545 1418 m cl s 1527 1418 m 6 Y s 1527 1424 m cl s 1527 1418 m -5 Y s 1527 1413 m cl s 1563 1418 m -18 X s 1545 1418 m cl s 1563 1418 m 18 X s 1581 1418 m cl s 1563 1418 m
 5 Y s 1563 1423 m cl s 1563 1418 m -5 Y s 1563 1413 m cl s 1599 1414 m -18 X s 1581 1414 m cl s 1599 1414 m 18 X s 1617 1414 m cl s 1599 1414 m 6 Y s 1599 1420 m cl s 1599 1414 m -5 Y s 1599 1409 m cl s 1635 1403 m -18 X s 1617 1403 m cl s 1635 1403
 m 18 X s 1653 1403 m cl s 1635 1403 m 5 Y s 1635 1408 m cl s 1635 1403 m -6 Y s 1635 1397 m cl s 1671 1348 m -18 X s 1653 1348 m cl s 1671 1348 m 18 X s 1689 1348 m cl s 1671 1348 m 7 Y s 1671 1355 m cl s 1671 1348 m -7 Y s 1671 1341 m cl s 1706
 1309 m -17 X s 1689 1309 m cl s 1706 1309 m 18 X s 1724 1309 m cl s 1706 1309 m 8 Y s 1706 1317 m cl s 1706 1309 m -8 Y s 1706 1301 m cl s 1742 1249 m -18 X s 1724 1249 m cl s 1742 1249 m 18 X s 1760 1249 m cl s 1742 1249 m 10 Y s 1742 1259 m cl s
 1742 1249 m -11 Y s 1742 1238 m cl s 1778 1185 m -18 X s 1760 1185 m cl s 1778 1185 m 18 X s 1796 1185 m cl s 1778 1185 m 13 Y s 1778 1198 m cl s 1778 1185 m -13 Y s 1778 1172 m cl s 1814 1126 m -18 X s 1796 1126 m cl s 1814 1126 m 18 X s 1832 1126
 m cl s 1814 1126 m 18 Y s 1814 1144 m cl s 1814 1126 m -17 Y s 1814 1109 m cl s 1850 1067 m -18 X s 1832 1067 m cl s 1850 1067 m 18 X s 1868 1067 m cl s 1850 1067 m 22 Y s 1850 1089 m cl s 1850 1067 m -22 Y s 1850 1045 m cl s 1886 1036 m -18 X s
 1868 1036 m cl s 1886 1036 m 18 X s 1904 1036 m cl s 1886 1036 m 25 Y s 1886 1061 m cl s 1886 1036 m -25 Y s 1886 1011 m cl s 1921 978 m -17 X s 1904 978 m cl s 1921 978 m 18 X s 1939 978 m cl s 1921 978 m 31 Y s 1921 1009 m cl s 1921 978 m -31 Y s
 1921 947 m cl s 1957 966 m -18 X s 1939 966 m cl s 1957 966 m 18 X s 1975 966 m cl s 1957 966 m 32 Y s 1957 998 m cl s 1957 966 m -34 Y s 1957 932 m cl s 1993 873 m -18 X s 1975 873 m cl s 1993 873 m 18 X s 2011 873 m cl s 1993 873 m 48 Y s 1993 921
 m cl s 1993 873 m -49 Y s 1993 824 m cl s 2029 844 m -18 X s 2011 844 m cl s 2029 844 m 18 X s 2047 844 m cl s 2029 844 m 53 Y s 2029 897 m cl s 2029 844 m -57 Y s 2029 787 m cl s 2065 844 m -18 X s 2047 844 m cl s 2065 844 m 18 X s 2083 844 m cl s
 2065 844 m 53 Y s 2065 897 m cl s 2065 844 m -57 Y s 2065 787 m cl s 2101 752 m -18 X s 2083 752 m cl s 2101 752 m 18 X s 2119 752 m cl s 2101 752 m 77 Y s 2101 829 m cl s 2101 752 m -87 Y s 2101 665 m cl s 2136 713 m -17 X s 2119 713 m cl s 2136
 713 m 18 X s 2154 713 m cl s 2136 713 m 91 Y s 2136 804 m cl s 2136 713 m -79 Y s 2136 634 m cl s 381 713 417 781 452 781 488 806 524 806 560 752 596 806 632 844 667 859 703 826 739 713 775 908 811 927 847 898 882 908 918 927 954 978 990 1006 1026
 1020 1062 1032 1097 1073 1133 1095 1169 1105 1205 1148 1241 1180 1276 1198 1312 1227 1348 1266 1384 1307 1420 1337 1456 1388 1491 1396 1527 1418 1563 1418 1599 1414 1635 1403 1671 1348 1706 1309 1742 1249 1778 1185 1814 1126 1850 1067 1886 1036 1921
 978 1957 966 1993 873 2029 844 2065 844 2101 752 2136 713 50 { m20} R 0.52 0.76 0.64 c[ 4 8] 0 sd 9 lw black 0.52 0.76 0.64 c 363 770 m 36 7 d 35 8 d 36 8 d 36 9 d 36 9 d 36 9 d 36 9 d 35 10 d 36 10 d 36 11 d 36 11 d 36 11 d 36 12 d 35 13 d 36 13 d
 36 15 d 36 15 d 36 16 d 36 17 d 35 18 d 36 19 d 36 22 d 36 23 d 36 26 d 36 28 d 17 16 d 18 16 d 18 18 d 18 19 d 9 10 d 9 11 d 9 11 d 9 11 d 9 12 d 9 13 d 9 13 d 9 15 d 18 26 d 18 23 d 18 20 d 9 9 d 9 7 d 9 7 d 8 6 d 9 5 d 9 4 d 9 3 d 9 2 d 9 1 d 9 1
 d 9 -1 d 9 -1 d 9 -2 d 9 -3 d 9 -4 d 9 -5 d 9 -6 d 9 -6 d 9 -8 d 9 -8 d 18 -20 d 18 -23 d 18 -27 d 8 -14 d 9 -16 d 9 -16 d 9 -17 d 9 -19 d 9 -19 d 9 -20 d 9 -21 d 9 -21 d 9 -23 d 9 -24 d 9 -24 d 18 -52 d 18 -55 d 18 -58 d 18 -63 d 36 -135 d 12 -53 d
 s 0.54 0.66 0.63 c black 0.54 0.66 0.63 c 943 634 m 29 53 d s 972 687 m 36 61 d 36 56 d 18 27 d 17 26 d 18 25 d 18 24 d 18 23 d 18 23 d 18 21 d 18 20 d 18 19 d 18 18 d 18 17 d 18 16 d 17 16 d 18 14 d 36 25 d 36 22 d 18 9 d 18 9 d 18 7 d 18 6 d 18 6
 d 18 4 d 17 4 d 18 2 d 18 2 d 36 X 18 -2 d 18 -2 d 18 -4 d 18 -4 d 18 -5 d 18 -7 d 18 -7 d 17 -8 d 18 -10 d 36 -21 d 36 -26 d 18 -14 d 18 -15 d 18 -16 d 18 -17 d 18 -19 d 18 -19 d 17 -20 d 18 -21 d 18 -22 d 18 -23 d 18 -24 d 18 -25 d 18 -26 d 18 -27
 d 36 -56 d 36 -61 d 30 -54 d s black[  ] 0 sd 3 lw 363 634 m 1791 X s 363 659 m -25 Y s 412 646 m -12 Y s 461 646 m -12 Y s 510 646 m -12 Y s 559 646 m -12 Y s 608 659 m -25 Y s 657 646 m -12 Y s 706 646 m -12 Y s 755 646 m -12 Y s 805 646 m -12 Y s
 854 659 m -25 Y s 903 646 m -12 Y s 952 646 m -12 Y s 1001 646 m -12 Y s 1050 646 m -12 Y s 1099 659 m -25 Y s 1148 646 m -12 Y s 1197 646 m -12 Y s 1246 646 m -12 Y s 1295 646 m -12 Y s 1344 659 m -25 Y s 1394 646 m -12 Y s 1443 646 m -12 Y s 1492
 646 m -12 Y s 1541 646 m -12 Y s 1590 659 m -25 Y s 1639 646 m -12 Y s 1688 646 m -12 Y s 1737 646 m -12 Y s 1786 646 m -12 Y s 1835 659 m -25 Y s 1884 646 m -12 Y s 1933 646 m -12 Y s 1983 646 m -12 Y s 2032 646 m -12 Y s 2081 659 m -25 Y s 2081
 659 m -25 Y s 2130 646 m -12 Y s 363 1484 m 1791 X s 363 1459 m 25 Y s 412 1471 m 13 Y s 461 1471 m 13 Y s 510 1471 m 13 Y s 559 1471 m 13 Y s 608 1459 m 25 Y s 657 1471 m 13 Y s 706 1471 m 13 Y s 755 1471 m 13 Y s 805 1471 m 13 Y s 854 1459 m 25 Y
 s 903 1471 m 13 Y s 952 1471 m 13 Y s 1001 1471 m 13 Y s 1050 1471 m 13 Y s 1099 1459 m 25 Y s 1148 1471 m 13 Y s 1197 1471 m 13 Y s 1246 1471 m 13 Y s 1295 1471 m 13 Y s 1344 1459 m 25 Y s 1394 1471 m 13 Y s 1443 1471 m 13 Y s 1492 1471 m 13 Y s
 1541 1471 m 13 Y s 1590 1459 m 25 Y s 1639 1471 m 13 Y s 1688 1471 m 13 Y s 1737 1471 m 13 Y s 1786 1471 m 13 Y s 1835 1459 m 25 Y s 1884 1471 m 13 Y s 1933 1471 m 13 Y s 1983 1471 m 13 Y s 2032 1471 m 13 Y s 2081 1459 m 25 Y s 2081 1459 m 25 Y s
 2130 1471 m 13 Y s 363 634 m 850 Y s 390 660 m -27 X s 390 713 m -27 X s 390 752 m -27 X s 390 781 m -27 X s 390 806 m -27 X s 390 826 m -27 X s 390 844 m -27 X s 390 859 m -27 X s 417 873 m -54 X s 390 966 m -27 X s 390 1020 m -27 X s 390 1058 m
 -27 X s 390 1087 m -27 X s 390 1112 m -27 X s 390 1132 m -27 X s 390 1150 m -27 X s 390 1166 m -27 X s 417 1180 m -54 X s 390 1272 m -27 X s 390 1326 m -27 X s 390 1364 m -27 X s 390 1394 m -27 X s 390 1418 m -27 X s 390 1438 m -27 X s 390 1456 m
 -27 X s 390 1472 m -27 X s 2154 634 m 850 Y s 2127 660 m 27 X s 2127 713 m 27 X s 2127 752 m 27 X s 2127 781 m 27 X s 2127 806 m 27 X s 2127 826 m 27 X s 2127 844 m 27 X s 2127 859 m 27 X s 2101 873 m 53 X s 2127 966 m 27 X s 2127 1020 m 27 X s 2127
 1058 m 27 X s 2127 1087 m 27 X s 2127 1112 m 27 X s 2127 1132 m 27 X s 2127 1150 m 27 X s 2127 1166 m 27 X s 2101 1180 m 53 X s 2127 1272 m 27 X s 2127 1326 m 27 X s 2127 1364 m 27 X s 2127 1394 m 27 X s 2127 1418 m 27 X s 2127 1438 m 27 X s 2127
 1456 m 27 X s 2127 1472 m 27 X s
 gsave  2268 1077 0 461 C 677.708 1215.31 t 0 r /Helvetica findfont 58.7189 sf 0 0 m (4e) show NC gr  1 1 1 c 453 161 454 1269 bf black
 gsave  2268 1077 0 461 C 566.929 1371.71 t 0 r /Helvetica-Bold findfont 48.9324 sf 0 0 m (MC15) show NC gr  510 1390 m20
 gsave  2268 1077 0 461 C 566.929 1293.51 t 0 r /Helvetica-Bold findfont 48.9324 sf 0 0 m (Projection of Signal pdf) show NC gr  0 0 1 c 9 lw 471 1309 m 79 X s black 3 lw 1 1 1 c 2268 461 0 0 bf black 1 1 1 c 1791 364 363 74 bf black 1791 364 363 74
 bl 363 74 m 1791 X s
 gsave  2268 461 0 0 C 1915.83 13.0329 t 0 r /Helvetica findfont 22.9045 sf 0 0 m (4l Invariant Mass \(GeV\)) show NC gr  363 85 m -11 Y s 412 79 m -5 Y s 461 79 m -5 Y s 510 79 m -5 Y s 559 79 m -5 Y s 608 85 m -11 Y s 657 79 m -5 Y s 706 79 m -5 Y
 s 755 79 m -5 Y s 805 79 m -5 Y s 854 85 m -11 Y s 903 79 m -5 Y s 952 79 m -5 Y s 1001 79 m -5 Y s 1050 79 m -5 Y s 1099 85 m -11 Y s 1148 79 m -5 Y s 1197 79 m -5 Y s 1246 79 m -5 Y s 1295 79 m -5 Y s 1344 85 m -11 Y s 1394 79 m -5 Y s 1443 79 m
 -5 Y s 1492 79 m -5 Y s 1541 79 m -5 Y s 1590 85 m -11 Y s 1639 79 m -5 Y s 1688 79 m -5 Y s 1737 79 m -5 Y s 1786 79 m -5 Y s 1835 85 m -11 Y s 1884 79 m -5 Y s 1933 79 m -5 Y s 1983 79 m -5 Y s 2032 79 m -5 Y s 2081 85 m -11 Y s 2081 85 m -11 Y s
 2130 79 m -5 Y s
 gsave  2268 461 0 0 C 342.112 55.3896 t 0 r /Helvetica findfont 22.9045 sf 0 0 m (550) show NC gr 
 gsave  2268 461 0 0 C 586.478 55.3896 t 0 r /Helvetica findfont 22.9045 sf 0 0 m (560) show NC gr 
 gsave  2268 461 0 0 C 834.103 55.3896 t 0 r /Helvetica findfont 22.9045 sf 0 0 m (570) show NC gr 
 gsave  2268 461 0 0 C 1078.47 55.3896 t 0 r /Helvetica findfont 22.9045 sf 0 0 m (580) show NC gr 
 gsave  2268 461 0 0 C 1322.83 55.3896 t 0 r /Helvetica findfont 22.9045 sf 0 0 m (590) show NC gr 
 gsave  2268 461 0 0 C 1567.2 55.3896 t 0 r /Helvetica findfont 22.9045 sf 0 0 m (600) show NC gr 
 gsave  2268 461 0 0 C 1814.82 55.3896 t 0 r /Helvetica findfont 22.9045 sf 0 0 m (610) show NC gr 
 gsave  2268 461 0 0 C 2059.19 55.3896 t 0 r /Helvetica findfont 22.9045 sf 0 0 m (620) show NC gr  363 438 m 1791 X s 363 427 m 11 Y s 412 433 m 5 Y s 461 433 m 5 Y s 510 433 m 5 Y s 559 433 m 5 Y s 608 427 m 11 Y s 657 433 m 5 Y s 706 433 m 5 Y s
 755 433 m 5 Y s 805 433 m 5 Y s 854 427 m 11 Y s 903 433 m 5 Y s 952 433 m 5 Y s 1001 433 m 5 Y s 1050 433 m 5 Y s 1099 427 m 11 Y s 1148 433 m 5 Y s 1197 433 m 5 Y s 1246 433 m 5 Y s 1295 433 m 5 Y s 1344 427 m 11 Y s 1394 433 m 5 Y s 1443 433 m 5
 Y s 1492 433 m 5 Y s 1541 433 m 5 Y s 1590 427 m 11 Y s 1639 433 m 5 Y s 1688 433 m 5 Y s 1737 433 m 5 Y s 1786 433 m 5 Y s 1835 427 m 11 Y s 1884 433 m 5 Y s 1933 433 m 5 Y s 1983 433 m 5 Y s 2032 433 m 5 Y s 2081 427 m 11 Y s 2081 427 m 11 Y s
 2130 433 m 5 Y s 363 74 m 364 Y s 417 74 m -54 X s 390 81 m -27 X s 390 88 m -27 X s 390 96 m -27 X s 390 103 m -27 X s 417 110 m -54 X s 390 118 m -27 X s 390 125 m -27 X s 390 132 m -27 X s 390 139 m -27 X s 417 147 m -54 X s 390 154 m -27 X s 390
 161 m -27 X s 390 169 m -27 X s 390 176 m -27 X s 417 183 m -54 X s 390 190 m -27 X s 390 198 m -27 X s 390 205 m -27 X s 390 212 m -27 X s 417 220 m -54 X s 390 227 m -27 X s 390 234 m -27 X s 390 241 m -27 X s 390 249 m -27 X s 417 256 m -54 X s
 390 263 m -27 X s 390 271 m -27 X s 390 278 m -27 X s 390 285 m -27 X s 417 293 m -54 X s 390 300 m -27 X s 390 307 m -27 X s 390 314 m -27 X s 390 322 m -27 X s 417 329 m -54 X s 390 336 m -27 X s 390 344 m -27 X s 390 351 m -27 X s 390 358 m -27 X
 s 417 365 m -54 X s 390 373 m -27 X s 390 380 m -27 X s 390 387 m -27 X s 390 395 m -27 X s 417 402 m -54 X s 390 409 m -27 X s 390 416 m -27 X s 390 424 m -27 X s 390 431 m -27 X s 417 438 m -54 X s
 gsave  2268 461 0 0 C 329.08 65.1643 t 0 r /Helvetica findfont 22.9045 sf 0 0 m (\2555) show NC gr 
 gsave  2268 461 0 0 C 329.08 101.005 t 0 r /Helvetica findfont 22.9045 sf 0 0 m (\2554) show NC gr 
 gsave  2268 461 0 0 C 329.08 140.103 t 0 r /Helvetica findfont 22.9045 sf 0 0 m (\2553) show NC gr 
 gsave  2268 461 0 0 C 329.08 175.944 t 0 r /Helvetica findfont 22.9045 sf 0 0 m (\2552) show NC gr 
 gsave  2268 461 0 0 C 332.338 211.784 t 0 r /Helvetica findfont 22.9045 sf 0 0 m (\2551) show NC gr 
 gsave  2268 461 0 0 C 335.596 247.624 t 0 r /Helvetica findfont 22.9045 sf 0 0 m (0) show NC gr 
 gsave  2268 461 0 0 C 338.854 283.465 t 0 r /Helvetica findfont 22.9045 sf 0 0 m (1) show NC gr 
 gsave  2268 461 0 0 C 335.596 319.305 t 0 r /Helvetica findfont 22.9045 sf 0 0 m (2) show NC gr 
 gsave  2268 461 0 0 C 335.596 358.403 t 0 r /Helvetica findfont 22.9045 sf 0 0 m (3) show NC gr 
 gsave  2268 461 0 0 C 335.596 394.244 t 0 r /Helvetica findfont 22.9045 sf 0 0 m (4) show NC gr 
 gsave  2268 461 0 0 C 335.596 430.084 t 0 r /Helvetica findfont 22.9045 sf 0 0 m (5) show NC gr  2154 74 m 364 Y s 2101 74 m 53 X s 2127 81 m 27 X s 2127 88 m 27 X s 2127 96 m 27 X s 2127 103 m 27 X s 2101 110 m 53 X s 2127 118 m 27 X s 2127 125 m
 27 X s 2127 132 m 27 X s 2127 139 m 27 X s 2101 147 m 53 X s 2127 154 m 27 X s 2127 161 m 27 X s 2127 169 m 27 X s 2127 176 m 27 X s 2101 183 m 53 X s 2127 190 m 27 X s 2127 198 m 27 X s 2127 205 m 27 X s 2127 212 m 27 X s 2101 220 m 53 X s 2127 227
 m 27 X s 2127 234 m 27 X s 2127 241 m 27 X s 2127 249 m 27 X s 2101 256 m 53 X s 2127 263 m 27 X s 2127 271 m 27 X s 2127 278 m 27 X s 2127 285 m 27 X s 2101 293 m 53 X s 2127 300 m 27 X s 2127 307 m 27 X s 2127 314 m 27 X s 2127 322 m 27 X s 2101
 329 m 53 X s 2127 336 m 27 X s 2127 344 m 27 X s 2127 351 m 27 X s 2127 358 m 27 X s 2101 365 m 53 X s 2127 373 m 27 X s 2127 380 m 27 X s 2127 387 m 27 X s 2127 395 m 27 X s 2101 402 m 53 X s 2127 409 m 27 X s 2127 416 m 27 X s 2127 424 m 27 X s
 2127 431 m 27 X s 2101 438 m 53 X s 6 lw 0.2 0.8 0.2 c black 3 lw 0.2 0.8 0.2 c 363 256 m -21 Y 36 X 21 Y 35 X -3 Y 36 X 8 Y 36 X -5 Y 36 X -28 Y 36 X 19 Y 36 X 16 Y 35 X 5 Y 36 X -28 Y 36 X -65 Y 36 X 108 Y 36 X 7 Y 36 X -40 Y 35 X -4 Y 36 X 1 Y 36
 X 34 Y 36 X 10 Y 36 X -10 Y 36 X -17 Y 35 X 25 Y 36 X -9 Y 36 X -37 Y 36 X 29 Y 36 X 7 Y 36 X -33 Y 35 X -10 Y 36 X 17 Y 36 X 11 Y 36 X -66 Y 36 X 81 Y 36 X -107 Y 35 X 63 Y 36 X -2 Y 36 X 58 Y 36 X 72 Y 36 X -114 Y 36 X 30 Y 35 X -33 Y 36 X -16 Y
 36 X 4 Y 36 X -2 Y 36 X 33 Y 36 X -15 Y 35 X 39 Y 36 X -42 Y 36 X 16 Y 36 X 33 Y 36 X -25 Y 36 X 7 Y 35 X -22 Y f 6 lw black 0.2 0.8 0.2 c black 363 235 m 36 X 21 Y 35 X -3 Y 36 X 8 Y 36 X -5 Y 36 X -28 Y 36 X 19 Y 36 X 16 Y 35 X 5 Y 36 X -28 Y 36 X
 -65 Y 36 X 108 Y 36 X 7 Y 36 X -40 Y 35 X -4 Y 36 X 1 Y 36 X 34 Y 36 X 10 Y 36 X -10 Y 36 X -17 Y 35 X 25 Y 36 X -9 Y 36 X -37 Y 36 X 29 Y 36 X 7 Y 36 X -33 Y 35 X -10 Y 36 X 17 Y 36 X 11 Y 36 X -66 Y 36 X 81 Y 36 X -107 Y 35 X 63 Y 36 X -2 Y 36 X
 58 Y 36 X 72 Y 36 X -114 Y 36 X 30 Y 35 X -33 Y 36 X -16 Y 36 X 4 Y 36 X -2 Y 36 X 33 Y 36 X -15 Y 35 X 39 Y 36 X -42 Y 36 X 16 Y 36 X 33 Y 36 X -25 Y 36 X 7 Y 35 X s 3 lw 363 74 m 1791 X s 363 85 m -11 Y s 412 79 m -5 Y s 461 79 m -5 Y s 510 79 m
 -5 Y s 559 79 m -5 Y s 608 85 m -11 Y s 657 79 m -5 Y s 706 79 m -5 Y s 755 79 m -5 Y s 805 79 m -5 Y s 854 85 m -11 Y s 903 79 m -5 Y s 952 79 m -5 Y s 1001 79 m -5 Y s 1050 79 m -5 Y s 1099 85 m -11 Y s 1148 79 m -5 Y s 1197 79 m -5 Y s 1246 79 m
 -5 Y s 1295 79 m -5 Y s 1344 85 m -11 Y s 1394 79 m -5 Y s 1443 79 m -5 Y s 1492 79 m -5 Y s 1541 79 m -5 Y s 1590 85 m -11 Y s 1639 79 m -5 Y s 1688 79 m -5 Y s 1737 79 m -5 Y s 1786 79 m -5 Y s 1835 85 m -11 Y s 1884 79 m -5 Y s 1933 79 m -5 Y s
 1983 79 m -5 Y s 2032 79 m -5 Y s 2081 85 m -11 Y s 2081 85 m -11 Y s 2130 79 m -5 Y s 363 438 m 1791 X s 363 427 m 11 Y s 412 433 m 5 Y s 461 433 m 5 Y s 510 433 m 5 Y s 559 433 m 5 Y s 608 427 m 11 Y s 657 433 m 5 Y s 706 433 m 5 Y s 755 433 m 5 Y
 s 805 433 m 5 Y s 854 427 m 11 Y s 903 433 m 5 Y s 952 433 m 5 Y s 1001 433 m 5 Y s 1050 433 m 5 Y s 1099 427 m 11 Y s 1148 433 m 5 Y s 1197 433 m 5 Y s 1246 433 m 5 Y s 1295 433 m 5 Y s 1344 427 m 11 Y s 1394 433 m 5 Y s 1443 433 m 5 Y s 1492 433 m
 5 Y s 1541 433 m 5 Y s 1590 427 m 11 Y s 1639 433 m 5 Y s 1688 433 m 5 Y s 1737 433 m 5 Y s 1786 433 m 5 Y s 1835 427 m 11 Y s 1884 433 m 5 Y s 1933 433 m 5 Y s 1983 433 m 5 Y s 2032 433 m 5 Y s 2081 427 m 11 Y s 2081 427 m 11 Y s 2130 433 m 5 Y s
 363 74 m 364 Y s 417 74 m -54 X s 390 81 m -27 X s 390 88 m -27 X s 390 96 m -27 X s 390 103 m -27 X s 417 110 m -54 X s 390 118 m -27 X s 390 125 m -27 X s 390 132 m -27 X s 390 139 m -27 X s 417 147 m -54 X s 390 154 m -27 X s 390 161 m -27 X s
 390 169 m -27 X s 390 176 m -27 X s 417 183 m -54 X s 390 190 m -27 X s 390 198 m -27 X s 390 205 m -27 X s 390 212 m -27 X s 417 220 m -54 X s 390 227 m -27 X s 390 234 m -27 X s 390 241 m -27 X s 390 249 m -27 X s 417 256 m -54 X s 390 263 m -27 X
 s 390 271 m -27 X s 390 278 m -27 X s 390 285 m -27 X s 417 293 m -54 X s 390 300 m -27 X s 390 307 m -27 X s 390 314 m -27 X s 390 322 m -27 X s 417 329 m -54 X s 390 336 m -27 X s 390 344 m -27 X s 390 351 m -27 X s 390 358 m -27 X s 417 365 m -54
 X s 390 373 m -27 X s 390 380 m -27 X s 390 387 m -27 X s 390 395 m -27 X s 417 402 m -54 X s 390 409 m -27 X s 390 416 m -27 X s 390 424 m -27 X s 390 431 m -27 X s 417 438 m -54 X s 2154 74 m 364 Y s 2101 74 m 53 X s 2127 81 m 27 X s 2127 88 m 27
 X s 2127 96 m 27 X s 2127 103 m 27 X s 2101 110 m 53 X s 2127 118 m 27 X s 2127 125 m 27 X s 2127 132 m 27 X s 2127 139 m 27 X s 2101 147 m 53 X s 2127 154 m 27 X s 2127 161 m 27 X s 2127 169 m 27 X s 2127 176 m 27 X s 2101 183 m 53 X s 2127 190 m
 27 X s 2127 198 m 27 X s 2127 205 m 27 X s 2127 212 m 27 X s 2101 220 m 53 X s 2127 227 m 27 X s 2127 234 m 27 X s 2127 241 m 27 X s 2127 249 m 27 X s 2101 256 m 53 X s 2127 263 m 27 X s 2127 271 m 27 X s 2127 278 m 27 X s 2127 285 m 27 X s 2101 293
 m 53 X s 2127 300 m 27 X s 2127 307 m 27 X s 2127 314 m 27 X s 2127 322 m 27 X s 2101 329 m 53 X s 2127 336 m 27 X s 2127 344 m 27 X s 2127 351 m 27 X s 2127 358 m 27 X s 2101 365 m 53 X s 2127 373 m 27 X s 2127 380 m 27 X s 2127 387 m 27 X s 2127
 395 m 27 X s 2101 402 m 53 X s 2127 409 m 27 X s 2127 416 m 27 X s 2127 424 m 27 X s 2127 431 m 27 X s 2101 438 m 53 X s
 gr  gr showpage
end
%%EOF
