%!PS-Adobe-2.0 EPSF-2.0
%%BoundingBox:  0 0 567 384
%%Title: H4l2015_plotfit/gg_mass_signal_1200_H4l_4e.eps: 
%%Creator: ROOT Version 5.34/10
%%CreationDate: Thu Feb 16 13:49:37 2017
%%EndComments
%%BeginProlog
80 dict begin
/s {stroke} def /l {lineto} def /m {moveto} def /t {translate} def
/r {rotate} def /rl {roll}  def /R {repeat} def
/d {rlineto} def /rm {rmoveto} def /gr {grestore} def /f {eofill} def
/c {setrgbcolor} def /black {0 setgray} def /sd {setdash} def
/cl {closepath} def /sf {scalefont setfont} def /lw {setlinewidth} def
/box {m dup 0 exch d exch 0 d 0 exch neg d cl} def
/NC{systemdict begin initclip end}def/C{NC box clip newpath}def
/bl {box s} def /bf {box f} def /Y { 0 exch d} def /X { 0 d} def 
/K {{pop pop 0 moveto} exch kshow} bind def
/ita {/ang 15 def gsave [1 0 ang dup sin exch cos div 1 0 0] concat} def 
/mp {newpath /y exch def /x exch def} def
/side {[w .77 mul w .23 mul] .385 w mul sd w 0 l currentpoint t -144 r} def
/mr {mp x y w2 0 360 arc} def /m24 {mr s} def /m20 {mr f} def
/mb {mp x y w2 add m w2 neg 0 d 0 w neg d w 0 d 0 w d cl} def
/mt {mp x y w2 add m w2 neg w neg d w 0 d cl} def
/m21 {mb f} def /m25 {mb s} def /m22 {mt f} def /m26{mt s} def
/m23 {mp x y w2 sub m w2 w d w neg 0 d cl f} def
/m27 {mp x y w2 add m w3 neg w2 neg d w3 w2 neg d w3 w2 d cl s} def
/m28 {mp x w2 sub y w2 sub w3 add m w3 0 d  0 w3 neg d w3 0 d 0 w3 d w3 0 d  0 w3 d w3 neg 0 d 0 w3 d w3 neg 0 d 0 w3 neg d w3 neg 0 d cl s } def
/m29 {mp gsave x w2 sub y w2 add w3 sub m currentpoint t 4 {side} repeat cl fill gr} def
/m30 {mp gsave x w2 sub y w2 add w3 sub m currentpoint t 4 {side} repeat cl s gr} def
/m31 {mp x y w2 sub m 0 w d x w2 sub y m w 0 d x w2 sub y w2 add m w w neg d x w2 sub y w2 sub m w w d s} def
/m32 {mp x y w2 sub m w2 w d w neg 0 d cl s} def
/m33 {mp x y w2 add m w3 neg w2 neg d w3 w2 neg d w3 w2 d cl f} def
/m34 {mp x w2 sub y w2 sub w3 add m w3 0 d  0 w3 neg d w3 0 d 0 w3 d w3 0 d  0 w3 d w3 neg 0 d 0 w3 d w3 neg 0 d 0 w3 neg d w3 neg 0 d cl f } def
/m2 {mp x y w2 sub m 0 w d x w2 sub y m w 0 d s} def
/m5 {mp x w2 sub y w2 sub m w w d x w2 sub y w2 add m w w neg d s} def
/reEncode {exch findfont dup length dict begin {1 index /FID eq  {pop pop} {def} ifelse } forall /Encoding exch def currentdict end dup /FontName get exch definefont pop } def [/Times-Bold /Times-Italic /Times-BoldItalic /Helvetica /Helvetica-Oblique
 /Helvetica-Bold /Helvetica-BoldOblique /Courier /Courier-Oblique /Courier-Bold /Courier-BoldOblique /Times-Roman /AvantGarde-Book /AvantGarde-BookOblique /AvantGarde-Demi /AvantGarde-DemiOblique /Bookman-Demi /Bookman-DemiItalic /Bookman-Light
 /Bookman-LightItalic /Helvetica-Narrow /Helvetica-Narrow-Bold /Helvetica-Narrow-BoldOblique /Helvetica-Narrow-Oblique /NewCenturySchlbk-Roman /NewCenturySchlbk-Bold /NewCenturySchlbk-BoldItalic /NewCenturySchlbk-Italic /Palatino-Bold
 /Palatino-BoldItalic /Palatino-Italic /Palatino-Roman ] {ISOLatin1Encoding reEncode } forall
%%EndProlog
%%BeginSetup
%%EndSetup
newpath  gsave  .25 .25 scale  gsave  0 0 t black[  ] 0 sd 3 lw 1 1 1 c 2268 1538 0 0 bf black 1 1 1 c 2222 738 23 784 bf black 1 1 1 c 2222 739 23 15 bf black 1 1 1 c 2268 1077 0 461 bf black 1 1 1 c 1791 850 363 634 bf black 1791 850 363 634 bl 363
 634 m 1791 X s
 gsave  2268 1077 0 461 C 1642.14 498.507 t 0 r /Helvetica findfont 48.9324 sf 0 0 m (4l Invariant Mass \(GeV\)) show NC gr  457 659 m -25 Y s 495 646 m -12 Y s 533 646 m -12 Y s 570 646 m -12 Y s 608 646 m -12 Y s 646 659 m -25 Y s 683 646 m -12 Y s
 721 646 m -12 Y s 759 646 m -12 Y s 797 646 m -12 Y s 834 659 m -25 Y s 872 646 m -12 Y s 910 646 m -12 Y s 947 646 m -12 Y s 985 646 m -12 Y s 1023 659 m -25 Y s 1061 646 m -12 Y s 1098 646 m -12 Y s 1136 646 m -12 Y s 1174 646 m -12 Y s 1211 659 m
 -25 Y s 1249 646 m -12 Y s 1287 646 m -12 Y s 1325 646 m -12 Y s 1362 646 m -12 Y s 1400 659 m -25 Y s 1438 646 m -12 Y s 1475 646 m -12 Y s 1513 646 m -12 Y s 1551 646 m -12 Y s 1589 659 m -25 Y s 1626 646 m -12 Y s 1664 646 m -12 Y s 1702 646 m
 -12 Y s 1739 646 m -12 Y s 1777 659 m -25 Y s 1815 646 m -12 Y s 1853 646 m -12 Y s 1890 646 m -12 Y s 1928 646 m -12 Y s 1966 659 m -25 Y s 2003 646 m -12 Y s 2041 646 m -12 Y s 2079 646 m -12 Y s 2117 646 m -12 Y s 2154 659 m -25 Y s 457 659 m -25
 Y s 419 646 m -12 Y s 382 646 m -12 Y s
 gsave  2268 1077 0 461 C 400.76 586.478 t 0 r /Helvetica findfont 48.9324 sf 0 0 m (1140) show NC gr 
 gsave  2268 1077 0 461 C 589.737 586.478 t 0 r /Helvetica findfont 48.9324 sf 0 0 m (1150) show NC gr 
 gsave  2268 1077 0 461 C 778.713 586.478 t 0 r /Helvetica findfont 48.9324 sf 0 0 m (1160) show NC gr 
 gsave  2268 1077 0 461 C 964.431 586.478 t 0 r /Helvetica findfont 48.9324 sf 0 0 m (1170) show NC gr 
 gsave  2268 1077 0 461 C 1153.41 586.478 t 0 r /Helvetica findfont 48.9324 sf 0 0 m (1180) show NC gr 
 gsave  2268 1077 0 461 C 1342.38 586.478 t 0 r /Helvetica findfont 48.9324 sf 0 0 m (1190) show NC gr 
 gsave  2268 1077 0 461 C 1531.36 586.478 t 0 r /Helvetica findfont 48.9324 sf 0 0 m (1200) show NC gr 
 gsave  2268 1077 0 461 C 1720.34 586.478 t 0 r /Helvetica findfont 48.9324 sf 0 0 m (1210) show NC gr 
 gsave  2268 1077 0 461 C 1909.31 586.478 t 0 r /Helvetica findfont 48.9324 sf 0 0 m (1220) show NC gr 
 gsave  2268 1077 0 461 C 2098.29 586.478 t 0 r /Helvetica findfont 48.9324 sf 0 0 m (1230) show NC gr  363 1484 m 1791 X s 457 1459 m 25 Y s 495 1471 m 13 Y s 533 1471 m 13 Y s 570 1471 m 13 Y s 608 1471 m 13 Y s 646 1459 m 25 Y s 683 1471 m 13 Y s
 721 1471 m 13 Y s 759 1471 m 13 Y s 797 1471 m 13 Y s 834 1459 m 25 Y s 872 1471 m 13 Y s 910 1471 m 13 Y s 947 1471 m 13 Y s 985 1471 m 13 Y s 1023 1459 m 25 Y s 1061 1471 m 13 Y s 1098 1471 m 13 Y s 1136 1471 m 13 Y s 1174 1471 m 13 Y s 1211 1459
 m 25 Y s 1249 1471 m 13 Y s 1287 1471 m 13 Y s 1325 1471 m 13 Y s 1362 1471 m 13 Y s 1400 1459 m 25 Y s 1438 1471 m 13 Y s 1475 1471 m 13 Y s 1513 1471 m 13 Y s 1551 1471 m 13 Y s 1589 1459 m 25 Y s 1626 1471 m 13 Y s 1664 1471 m 13 Y s 1702 1471 m
 13 Y s 1739 1471 m 13 Y s 1777 1459 m 25 Y s 1815 1471 m 13 Y s 1853 1471 m 13 Y s 1890 1471 m 13 Y s 1928 1471 m 13 Y s 1966 1459 m 25 Y s 2003 1471 m 13 Y s 2041 1471 m 13 Y s 2079 1471 m 13 Y s 2117 1471 m 13 Y s 2154 1459 m 25 Y s 457 1459 m 25
 Y s 419 1471 m 13 Y s 382 1471 m 13 Y s 363 634 m 850 Y s
 gsave  2268 1077 0 461 C 120.554 1058.92 t 90 r /Helvetica findfont 48.9324 sf 0 0 m (Events / \( 1.9 GeV \)) show NC gr  390 662 m -27 X s 390 716 m -27 X s 390 754 m -27 X s 390 784 m -27 X s 390 808 m -27 X s 390 828 m -27 X s 390 846 m -27 X s
 390 862 m -27 X s 417 876 m -54 X s
 gsave  2268 1077 0 461 C 342.425 855.021 t 0 r  -55 0 t /Helvetica findfont 48.9324 sf 0 0 m (10) show NC gr  390 968 m -27 X s 390 1022 m -27 X s 390 1060 m -27 X s 390 1090 m -27 X s 390 1114 m -27 X s 390 1135 m -27 X s 390 1152 m -27 X s 390
 1168 m -27 X s 417 1182 m -54 X s
 gsave  2268 1077 0 461 C 322.563 1179.47 t 0 r /Helvetica findfont 32.6216 sf 0 0 m (2) show NC gr 
 gsave  2268 1077 0 461 C 270.432 1159.92 t 0 r /Helvetica findfont 48.9324 sf 0 0 m (10) show NC gr  390 1274 m -27 X s 390 1328 m -27 X s 390 1366 m -27 X s 390 1396 m -27 X s 390 1420 m -27 X s 390 1441 m -27 X s 390 1458 m -27 X s 390 1474 m -27
 X s 2154 634 m 850 Y s 2127 662 m 27 X s 2127 716 m 27 X s 2127 754 m 27 X s 2127 784 m 27 X s 2127 808 m 27 X s 2127 828 m 27 X s 2127 846 m 27 X s 2127 862 m 27 X s 2101 876 m 53 X s 2127 968 m 27 X s 2127 1022 m 27 X s 2127 1060 m 27 X s 2127
 1090 m 27 X s 2127 1114 m 27 X s 2127 1135 m 27 X s 2127 1152 m 27 X s 2127 1168 m 27 X s 2101 1182 m 53 X s 2127 1274 m 27 X s 2127 1328 m 27 X s 2127 1366 m 27 X s 2127 1396 m 27 X s 2127 1420 m 27 X s 2127 1441 m 27 X s 2127 1458 m 27 X s 2127
 1474 m 27 X s 381 846 m -18 X s 363 846 m cl s 381 846 m 18 X s 399 846 m cl s 381 846 m 54 Y s 381 900 m cl s 381 846 m -56 Y s 381 790 m cl s 417 754 m -18 X s 399 754 m cl s 417 754 m 17 X s 434 754 m cl s 417 754 m 78 Y s 417 832 m cl s 417 754
 m -87 Y s 417 667 m cl s 452 846 m -18 X s 434 846 m cl s 452 846 m 18 X s 470 846 m cl s 452 846 m 54 Y s 452 900 m cl s 452 846 m -56 Y s 452 790 m cl s 488 808 m -18 X s 470 808 m cl s 488 808 m 18 X s 506 808 m cl s 488 808 m 62 Y s 488 870 m cl
 s 488 808 m -67 Y s 488 741 m cl s 524 900 m -18 X s 506 900 m cl s 524 900 m 18 X s 542 900 m cl s 524 900 m 43 Y s 524 943 m cl s 524 900 m -44 Y s 524 856 m cl s 560 828 m -18 X s 542 828 m cl s 560 828 m 18 X s 578 828 m cl s 560 828 m 58 Y s
 560 886 m cl s 560 828 m -61 Y s 560 767 m cl s 596 862 m -18 X s 578 862 m cl s 596 862 m 18 X s 614 862 m cl s 596 862 m 50 Y s 596 912 m cl s 596 862 m -53 Y s 596 809 m cl s 632 900 m -18 X s 614 900 m cl s 632 900 m 17 X s 649 900 m cl s 632
 900 m 43 Y s 632 943 m cl s 632 900 m -44 Y s 632 856 m cl s 667 876 m -18 X s 649 876 m cl s 667 876 m 18 X s 685 876 m cl s 667 876 m 47 Y s 667 923 m cl s 667 876 m -50 Y s 667 826 m cl s 703 889 m -18 X s 685 889 m cl s 703 889 m 18 X s 721 889
 m cl s 703 889 m 44 Y s 703 933 m cl s 703 889 m -47 Y s 703 842 m cl s 739 938 m -18 X s 721 938 m cl s 739 938 m 18 X s 757 938 m cl s 739 938 m 37 Y s 739 975 m cl s 739 938 m -37 Y s 739 901 m cl s 775 954 m -18 X s 757 954 m cl s 775 954 m 18 X
 s 793 954 m cl s 775 954 m 34 Y s 775 988 m cl s 775 954 m -35 Y s 775 919 m cl s 811 946 m -18 X s 793 946 m cl s 811 946 m 18 X s 829 946 m cl s 811 946 m 36 Y s 811 982 m cl s 811 946 m -36 Y s 811 910 m cl s 847 954 m -18 X s 829 954 m cl s 847
 954 m 17 X s 864 954 m cl s 847 954 m 34 Y s 847 988 m cl s 847 954 m -35 Y s 847 919 m cl s 882 987 m -18 X s 864 987 m cl s 882 987 m 18 X s 900 987 m cl s 882 987 m 30 Y s 882 1017 m cl s 882 987 m -31 Y s 882 956 m cl s 918 992 m -18 X s 900 992
 m cl s 918 992 m 18 X s 936 992 m cl s 918 992 m 30 Y s 918 1022 m cl s 918 992 m -30 Y s 918 962 m cl s 954 1003 m -18 X s 936 1003 m cl s 954 1003 m 18 X s 972 1003 m cl s 954 1003 m 28 Y s 954 1031 m cl s 954 1003 m -29 Y s 954 974 m cl s 990
 1053 m -18 X s 972 1053 m cl s 990 1053 m 18 X s 1008 1053 m cl s 990 1053 m 23 Y s 990 1076 m cl s 990 1053 m -23 Y s 990 1030 m cl s 1026 1060 m -18 X s 1008 1060 m cl s 1026 1060 m 18 X s 1044 1060 m cl s 1026 1060 m 23 Y s 1026 1083 m cl s 1026
 1060 m -23 Y s 1026 1037 m cl s 1062 1039 m -18 X s 1044 1039 m cl s 1062 1039 m 17 X s 1079 1039 m cl s 1062 1039 m 24 Y s 1062 1063 m cl s 1062 1039 m -25 Y s 1062 1014 m cl s 1097 1070 m -18 X s 1079 1070 m cl s 1097 1070 m 18 X s 1115 1070 m cl
 s 1097 1070 m 21 Y s 1097 1091 m cl s 1097 1070 m -22 Y s 1097 1048 m cl s 1133 1136 m -18 X s 1115 1136 m cl s 1133 1136 m 18 X s 1151 1136 m cl s 1133 1136 m 17 Y s 1133 1153 m cl s 1133 1136 m -16 Y s 1133 1120 m cl s 1169 1152 m -18 X s 1151
 1152 m cl s 1169 1152 m 18 X s 1187 1152 m cl s 1169 1152 m 16 Y s 1169 1168 m cl s 1169 1152 m -15 Y s 1169 1137 m cl s 1205 1185 m -18 X s 1187 1185 m cl s 1205 1185 m 18 X s 1223 1185 m cl s 1205 1185 m 13 Y s 1205 1198 m cl s 1205 1185 m -14 Y s
 1205 1171 m cl s 1241 1182 m -18 X s 1223 1182 m cl s 1241 1182 m 18 X s 1259 1182 m cl s 1241 1182 m 14 Y s 1241 1196 m cl s 1241 1182 m -14 Y s 1241 1168 m cl s 1276 1250 m -17 X s 1259 1250 m cl s 1276 1250 m 18 X s 1294 1250 m cl s 1276 1250 m
 10 Y s 1276 1260 m cl s 1276 1250 m -10 Y s 1276 1240 m cl s 1312 1270 m -18 X s 1294 1270 m cl s 1312 1270 m 18 X s 1330 1270 m cl s 1312 1270 m 10 Y s 1312 1280 m cl s 1312 1270 m -9 Y s 1312 1261 m cl s 1348 1294 m -18 X s 1330 1294 m cl s 1348
 1294 m 18 X s 1366 1294 m cl s 1348 1294 m 9 Y s 1348 1303 m cl s 1348 1294 m -8 Y s 1348 1286 m cl s 1384 1344 m -18 X s 1366 1344 m cl s 1384 1344 m 18 X s 1402 1344 m cl s 1384 1344 m 7 Y s 1384 1351 m cl s 1384 1344 m -7 Y s 1384 1337 m cl s
 1420 1371 m -18 X s 1402 1371 m cl s 1420 1371 m 18 X s 1438 1371 m cl s 1420 1371 m 6 Y s 1420 1377 m cl s 1420 1371 m -7 Y s 1420 1364 m cl s 1456 1373 m -18 X s 1438 1373 m cl s 1456 1373 m 18 X s 1474 1373 m cl s 1456 1373 m 7 Y s 1456 1380 m cl
 s 1456 1373 m -6 Y s 1456 1367 m cl s 1491 1392 m -17 X s 1474 1392 m cl s 1491 1392 m 18 X s 1509 1392 m cl s 1491 1392 m 6 Y s 1491 1398 m cl s 1491 1392 m -6 Y s 1491 1386 m cl s 1527 1407 m -18 X s 1509 1407 m cl s 1527 1407 m 18 X s 1545 1407 m
 cl s 1527 1407 m 5 Y s 1527 1412 m cl s 1527 1407 m -6 Y s 1527 1401 m cl s 1563 1418 m -18 X s 1545 1418 m cl s 1563 1418 m 18 X s 1581 1418 m cl s 1563 1418 m 6 Y s 1563 1424 m cl s 1563 1418 m -5 Y s 1563 1413 m cl s 1599 1393 m -18 X s 1581 1393
 m cl s 1599 1393 m 18 X s 1617 1393 m cl s 1599 1393 m 6 Y s 1599 1399 m cl s 1599 1393 m -6 Y s 1599 1387 m cl s 1635 1382 m -18 X s 1617 1382 m cl s 1635 1382 m 18 X s 1653 1382 m cl s 1635 1382 m 6 Y s 1635 1388 m cl s 1635 1382 m -6 Y s 1635
 1376 m cl s 1671 1363 m -18 X s 1653 1363 m cl s 1671 1363 m 18 X s 1689 1363 m cl s 1671 1363 m 7 Y s 1671 1370 m cl s 1671 1363 m -6 Y s 1671 1357 m cl s 1706 1330 m -17 X s 1689 1330 m cl s 1706 1330 m 18 X s 1724 1330 m cl s 1706 1330 m 7 Y s
 1706 1337 m cl s 1706 1330 m -8 Y s 1706 1322 m cl s 1742 1287 m -18 X s 1724 1287 m cl s 1742 1287 m 18 X s 1760 1287 m cl s 1742 1287 m 9 Y s 1742 1296 m cl s 1742 1287 m -9 Y s 1742 1278 m cl s 1778 1259 m -18 X s 1760 1259 m cl s 1778 1259 m 18
 X s 1796 1259 m cl s 1778 1259 m 10 Y s 1778 1269 m cl s 1778 1259 m -10 Y s 1778 1249 m cl s 1814 1191 m -18 X s 1796 1191 m cl s 1814 1191 m 18 X s 1832 1191 m cl s 1814 1191 m 13 Y s 1814 1204 m cl s 1814 1191 m -13 Y s 1814 1178 m cl s 1850 1138
 m -18 X s 1832 1138 m cl s 1850 1138 m 18 X s 1868 1138 m cl s 1850 1138 m 17 Y s 1850 1155 m cl s 1850 1138 m -16 Y s 1850 1122 m cl s 1886 1103 m -18 X s 1868 1103 m cl s 1886 1103 m 18 X s 1904 1103 m cl s 1886 1103 m 19 Y s 1886 1122 m cl s 1886
 1103 m -20 Y s 1886 1083 m cl s 1921 1022 m -17 X s 1904 1022 m cl s 1921 1022 m 18 X s 1939 1022 m cl s 1921 1022 m 26 Y s 1921 1048 m cl s 1921 1022 m -27 Y s 1921 995 m cl s 1957 1026 m -18 X s 1939 1026 m cl s 1957 1026 m 18 X s 1975 1026 m cl s
 1957 1026 m 26 Y s 1957 1052 m cl s 1957 1026 m -26 Y s 1957 1000 m cl s 1993 946 m -18 X s 1975 946 m cl s 1993 946 m 18 X s 2011 946 m cl s 1993 946 m 36 Y s 1993 982 m cl s 1993 946 m -36 Y s 1993 910 m cl s 2029 946 m -18 X s 2011 946 m cl s
 2029 946 m 18 X s 2047 946 m cl s 2029 946 m 36 Y s 2029 982 m cl s 2029 946 m -36 Y s 2029 910 m cl s 2065 862 m -18 X s 2047 862 m cl s 2065 862 m 18 X s 2083 862 m cl s 2065 862 m 50 Y s 2065 912 m cl s 2065 862 m -53 Y s 2065 809 m cl s 2101 876
 m -18 X s 2083 876 m cl s 2101 876 m 18 X s 2119 876 m cl s 2101 876 m 47 Y s 2101 923 m cl s 2101 876 m -50 Y s 2101 826 m cl s 2136 876 m -17 X s 2119 876 m cl s 2136 876 m 18 X s 2154 876 m cl s 2136 876 m 47 Y s 2136 923 m cl s 2136 876 m -50 Y
 s 2136 826 m cl s /w 31 def /w2 {w 2 div} def /w3 {w 3 div} def 381 846 417 754 452 846 488 808 524 900 560 828 596 862 632 900 667 876 703 889 739 938 775 954 811 946 847 954 882 987 918 992 954 1003 990 1053 1026 1060 1062 1039 1097 1070 1133 1136
 1169 1152 1205 1185 1241 1182 1276 1250 1312 1270 1348 1294 1384 1344 1420 1371 1456 1373 1491 1392 1527 1407 1563 1418 1599 1393 1635 1382 1671 1363 1706 1330 1742 1287 1778 1259 1814 1191 1850 1138 1886 1103 1921 1022 1957 1026 1993 946 2029 946
 2065 862 2101 876 2136 876 50 { m20} R 0 1 1 c 1 1 0 c black 1 1 0 c 363 823 m 36 8 d 35 8 d 36 9 d 36 9 d 36 10 d 36 10 d 36 12 d 35 12 d 36 13 d 36 13 d 36 15 d 36 15 d 36 15 d 35 16 d 36 17 d 36 18 d 36 18 d 36 19 d 36 20 d 35 21 d 36 22 d 36 23
 d 36 24 d 18 12 d 18 12 d 18 13 d 18 13 d 17 14 d 18 16 d 9 10 d 9 10 d 9 11 d 9 11 d 18 20 d 18 17 d 36 29 d 18 12 d 18 11 d 18 9 d 9 4 d 9 4 d 9 3 d 8 3 d 9 3 d 9 2 d 9 2 d 9 1 d 27 X 9 -1 d 9 -1 d 9 -2 d 9 -3 d 9 -3 d 9 -3 d 9 -4 d 9 -4 d 9 -5 d
 18 -11 d 18 -13 d 18 -14 d 17 -15 d 18 -17 d 18 -19 d 18 -19 d 18 -22 d 18 -22 d 18 -24 d 18 -24 d 18 -25 d 18 -26 d 18 -25 d 18 -25 d 17 -23 d 18 -22 d 36 -40 d 36 -35 d 36 -30 d 36 -28 d 36 -26 d 35 -24 d -96 Y -35 42 d -36 39 d -36 37 d -36 39 d
 -36 44 d -36 48 d -18 25 d -17 25 d -18 26 d -18 26 d -18 26 d -18 26 d -18 26 d -18 25 d -18 24 d -18 23 d -18 22 d -18 20 d -18 19 d -17 17 d -18 14 d -18 13 d -18 11 d -9 4 d -9 5 d -9 3 d -9 4 d -9 2 d -9 3 d -9 2 d -9 1 d -9 1 d -9 1 d -18 X -9
 -1 d -9 -1 d -9 -2 d -9 -2 d -8 -3 d -9 -3 d -9 -4 d -9 -4 d -18 -11 d -18 -13 d -18 -15 d -36 -35 d -18 -20 d -18 -21 d -9 -8 d -9 -8 d -9 -8 d -9 -8 d -18 -17 d -17 -16 d -18 -16 d -18 -15 d -18 -14 d -18 -12 d -36 -24 d -36 -21 d -36 -21 d -35
 -20 d -36 -20 d -36 -21 d -36 -20 d -36 -20 d -36 -19 d -35 -18 d -36 -18 d -36 -17 d -36 -15 d -36 -15 d -36 -13 d -35 -13 d -36 -12 d -36 -11 d -36 -11 d -36 -10 d -36 -10 d -35 -9 d -36 -9 d f 0 1 1 c 0 1 0 c black 0 1 0 c 363 814 m 36 8 d 35 8 d
 36 9 d 36 9 d 36 10 d 36 11 d 36 11 d 35 13 d 36 13 d 36 14 d 36 15 d 36 16 d 36 16 d 35 17 d 36 17 d 36 17 d 36 18 d 36 19 d 36 20 d 35 22 d 36 22 d 36 23 d 36 23 d 18 13 d 18 12 d 18 13 d 18 14 d 17 14 d 18 16 d 9 9 d 9 10 d 9 10 d 9 11 d 18 20 d
 18 18 d 36 30 d 18 13 d 18 11 d 18 10 d 9 4 d 9 4 d 9 3 d 8 3 d 9 2 d 9 2 d 9 2 d 9 1 d 27 X 9 -1 d 9 -2 d 9 -2 d 9 -2 d 9 -3 d 9 -3 d 9 -4 d 9 -4 d 9 -5 d 18 -11 d 18 -13 d 18 -14 d 17 -16 d 18 -17 d 18 -19 d 18 -20 d 18 -22 d 18 -23 d 18 -24 d 18
 -24 d 18 -26 d 18 -25 d 18 -26 d 18 -24 d 17 -24 d 18 -23 d 36 -41 d 36 -37 d 36 -32 d 36 -28 d 36 -26 d 35 -25 d -60 Y -35 39 d -36 37 d -36 35 d -36 37 d -36 40 d -36 45 d -18 25 d -17 25 d -18 25 d -18 26 d -18 26 d -18 26 d -18 25 d -18 25 d -18
 24 d -18 22 d -18 22 d -18 19 d -18 18 d -17 17 d -18 14 d -18 13 d -18 11 d -9 5 d -9 4 d -9 4 d -9 3 d -9 3 d -9 2 d -9 2 d -9 2 d -9 1 d -27 X -9 -1 d -9 -1 d -9 -2 d -9 -2 d -8 -3 d -9 -4 d -9 -3 d -9 -5 d -18 -10 d -18 -12 d -18 -14 d -36 -34 d
 -18 -19 d -18 -21 d -9 -9 d -9 -8 d -9 -9 d -9 -9 d -18 -17 d -17 -16 d -18 -15 d -18 -14 d -18 -13 d -18 -13 d -36 -23 d -36 -22 d -36 -21 d -35 -20 d -36 -20 d -36 -21 d -36 -20 d -36 -19 d -36 -19 d -35 -18 d -36 -17 d -36 -16 d -36 -15 d -36 -14
 d -36 -13 d -35 -12 d -36 -11 d -36 -11 d -36 -11 d -36 -10 d -36 -9 d -35 -10 d -36 -8 d f 0 0 1 c 9 lw black 0 0 1 c 363 803 m 36 8 d 35 9 d 36 9 d 36 10 d 36 10 d 36 11 d 36 12 d 35 12 d 36 13 d 36 14 d 36 15 d 36 16 d 36 16 d 35 17 d 36 18 d 36
 19 d 36 19 d 36 20 d 36 20 d 35 21 d 36 21 d 36 22 d 36 24 d 18 12 d 18 13 d 18 14 d 18 14 d 17 15 d 18 17 d 9 9 d 9 9 d 9 9 d 9 10 d 18 20 d 18 19 d 36 32 d 18 14 d 18 11 d 18 10 d 9 4 d 9 4 d 9 3 d 8 3 d 9 2 d 9 2 d 9 2 d 9 1 d 27 X 9 -1 d 9 -2 d
 9 -2 d 9 -2 d 9 -3 d 9 -3 d 9 -4 d 9 -4 d 9 -5 d 18 -11 d 18 -13 d 18 -14 d 17 -16 d 18 -18 d 18 -19 d 18 -21 d 18 -22 d 18 -23 d 18 -25 d 18 -25 d 18 -25 d 18 -26 d 18 -25 d 18 -26 d 17 -24 d 18 -24 d 36 -43 d 36 -38 d 36 -34 d 36 -32 d 36 -30 d 35
 -31 d s black 3 lw 381 846 m -18 X s 363 846 m cl s 381 846 m 18 X s 399 846 m cl s 381 846 m 54 Y s 381 900 m cl s 381 846 m -56 Y s 381 790 m cl s 417 754 m -18 X s 399 754 m cl s 417 754 m 17 X s 434 754 m cl s 417 754 m 78 Y s 417 832 m cl s 417
 754 m -87 Y s 417 667 m cl s 452 846 m -18 X s 434 846 m cl s 452 846 m 18 X s 470 846 m cl s 452 846 m 54 Y s 452 900 m cl s 452 846 m -56 Y s 452 790 m cl s 488 808 m -18 X s 470 808 m cl s 488 808 m 18 X s 506 808 m cl s 488 808 m 62 Y s 488 870
 m cl s 488 808 m -67 Y s 488 741 m cl s 524 900 m -18 X s 506 900 m cl s 524 900 m 18 X s 542 900 m cl s 524 900 m 43 Y s 524 943 m cl s 524 900 m -44 Y s 524 856 m cl s 560 828 m -18 X s 542 828 m cl s 560 828 m 18 X s 578 828 m cl s 560 828 m 58 Y
 s 560 886 m cl s 560 828 m -61 Y s 560 767 m cl s 596 862 m -18 X s 578 862 m cl s 596 862 m 18 X s 614 862 m cl s 596 862 m 50 Y s 596 912 m cl s 596 862 m -53 Y s 596 809 m cl s 632 900 m -18 X s 614 900 m cl s 632 900 m 17 X s 649 900 m cl s 632
 900 m 43 Y s 632 943 m cl s 632 900 m -44 Y s 632 856 m cl s 667 876 m -18 X s 649 876 m cl s 667 876 m 18 X s 685 876 m cl s 667 876 m 47 Y s 667 923 m cl s 667 876 m -50 Y s 667 826 m cl s 703 889 m -18 X s 685 889 m cl s 703 889 m 18 X s 721 889
 m cl s 703 889 m 44 Y s 703 933 m cl s 703 889 m -47 Y s 703 842 m cl s 739 938 m -18 X s 721 938 m cl s 739 938 m 18 X s 757 938 m cl s 739 938 m 37 Y s 739 975 m cl s 739 938 m -37 Y s 739 901 m cl s 775 954 m -18 X s 757 954 m cl s 775 954 m 18 X
 s 793 954 m cl s 775 954 m 34 Y s 775 988 m cl s 775 954 m -35 Y s 775 919 m cl s 811 946 m -18 X s 793 946 m cl s 811 946 m 18 X s 829 946 m cl s 811 946 m 36 Y s 811 982 m cl s 811 946 m -36 Y s 811 910 m cl s 847 954 m -18 X s 829 954 m cl s 847
 954 m 17 X s 864 954 m cl s 847 954 m 34 Y s 847 988 m cl s 847 954 m -35 Y s 847 919 m cl s 882 987 m -18 X s 864 987 m cl s 882 987 m 18 X s 900 987 m cl s 882 987 m 30 Y s 882 1017 m cl s 882 987 m -31 Y s 882 956 m cl s 918 992 m -18 X s 900 992
 m cl s 918 992 m 18 X s 936 992 m cl s 918 992 m 30 Y s 918 1022 m cl s 918 992 m -30 Y s 918 962 m cl s 954 1003 m -18 X s 936 1003 m cl s 954 1003 m 18 X s 972 1003 m cl s 954 1003 m 28 Y s 954 1031 m cl s 954 1003 m -29 Y s 954 974 m cl s 990
 1053 m -18 X s 972 1053 m cl s 990 1053 m 18 X s 1008 1053 m cl s 990 1053 m 23 Y s 990 1076 m cl s 990 1053 m -23 Y s 990 1030 m cl s 1026 1060 m -18 X s 1008 1060 m cl s 1026 1060 m 18 X s 1044 1060 m cl s 1026 1060 m 23 Y s 1026 1083 m cl s 1026
 1060 m -23 Y s 1026 1037 m cl s 1062 1039 m -18 X s 1044 1039 m cl s 1062 1039 m 17 X s 1079 1039 m cl s 1062 1039 m 24 Y s 1062 1063 m cl s 1062 1039 m -25 Y s 1062 1014 m cl s 1097 1070 m -18 X s 1079 1070 m cl s 1097 1070 m 18 X s 1115 1070 m cl
 s 1097 1070 m 21 Y s 1097 1091 m cl s 1097 1070 m -22 Y s 1097 1048 m cl s 1133 1136 m -18 X s 1115 1136 m cl s 1133 1136 m 18 X s 1151 1136 m cl s 1133 1136 m 17 Y s 1133 1153 m cl s 1133 1136 m -16 Y s 1133 1120 m cl s 1169 1152 m -18 X s 1151
 1152 m cl s 1169 1152 m 18 X s 1187 1152 m cl s 1169 1152 m 16 Y s 1169 1168 m cl s 1169 1152 m -15 Y s 1169 1137 m cl s 1205 1185 m -18 X s 1187 1185 m cl s 1205 1185 m 18 X s 1223 1185 m cl s 1205 1185 m 13 Y s 1205 1198 m cl s 1205 1185 m -14 Y s
 1205 1171 m cl s 1241 1182 m -18 X s 1223 1182 m cl s 1241 1182 m 18 X s 1259 1182 m cl s 1241 1182 m 14 Y s 1241 1196 m cl s 1241 1182 m -14 Y s 1241 1168 m cl s 1276 1250 m -17 X s 1259 1250 m cl s 1276 1250 m 18 X s 1294 1250 m cl s 1276 1250 m
 10 Y s 1276 1260 m cl s 1276 1250 m -10 Y s 1276 1240 m cl s 1312 1270 m -18 X s 1294 1270 m cl s 1312 1270 m 18 X s 1330 1270 m cl s 1312 1270 m 10 Y s 1312 1280 m cl s 1312 1270 m -9 Y s 1312 1261 m cl s 1348 1294 m -18 X s 1330 1294 m cl s 1348
 1294 m 18 X s 1366 1294 m cl s 1348 1294 m 9 Y s 1348 1303 m cl s 1348 1294 m -8 Y s 1348 1286 m cl s 1384 1344 m -18 X s 1366 1344 m cl s 1384 1344 m 18 X s 1402 1344 m cl s 1384 1344 m 7 Y s 1384 1351 m cl s 1384 1344 m -7 Y s 1384 1337 m cl s
 1420 1371 m -18 X s 1402 1371 m cl s 1420 1371 m 18 X s 1438 1371 m cl s 1420 1371 m 6 Y s 1420 1377 m cl s 1420 1371 m -7 Y s 1420 1364 m cl s 1456 1373 m -18 X s 1438 1373 m cl s 1456 1373 m 18 X s 1474 1373 m cl s 1456 1373 m 7 Y s 1456 1380 m cl
 s 1456 1373 m -6 Y s 1456 1367 m cl s 1491 1392 m -17 X s 1474 1392 m cl s 1491 1392 m 18 X s 1509 1392 m cl s 1491 1392 m 6 Y s 1491 1398 m cl s 1491 1392 m -6 Y s 1491 1386 m cl s 1527 1407 m -18 X s 1509 1407 m cl s 1527 1407 m 18 X s 1545 1407 m
 cl s 1527 1407 m 5 Y s 1527 1412 m cl s 1527 1407 m -6 Y s 1527 1401 m cl s 1563 1418 m -18 X s 1545 1418 m cl s 1563 1418 m 18 X s 1581 1418 m cl s 1563 1418 m 6 Y s 1563 1424 m cl s 1563 1418 m -5 Y s 1563 1413 m cl s 1599 1393 m -18 X s 1581 1393
 m cl s 1599 1393 m 18 X s 1617 1393 m cl s 1599 1393 m 6 Y s 1599 1399 m cl s 1599 1393 m -6 Y s 1599 1387 m cl s 1635 1382 m -18 X s 1617 1382 m cl s 1635 1382 m 18 X s 1653 1382 m cl s 1635 1382 m 6 Y s 1635 1388 m cl s 1635 1382 m -6 Y s 1635
 1376 m cl s 1671 1363 m -18 X s 1653 1363 m cl s 1671 1363 m 18 X s 1689 1363 m cl s 1671 1363 m 7 Y s 1671 1370 m cl s 1671 1363 m -6 Y s 1671 1357 m cl s 1706 1330 m -17 X s 1689 1330 m cl s 1706 1330 m 18 X s 1724 1330 m cl s 1706 1330 m 7 Y s
 1706 1337 m cl s 1706 1330 m -8 Y s 1706 1322 m cl s 1742 1287 m -18 X s 1724 1287 m cl s 1742 1287 m 18 X s 1760 1287 m cl s 1742 1287 m 9 Y s 1742 1296 m cl s 1742 1287 m -9 Y s 1742 1278 m cl s 1778 1259 m -18 X s 1760 1259 m cl s 1778 1259 m 18
 X s 1796 1259 m cl s 1778 1259 m 10 Y s 1778 1269 m cl s 1778 1259 m -10 Y s 1778 1249 m cl s 1814 1191 m -18 X s 1796 1191 m cl s 1814 1191 m 18 X s 1832 1191 m cl s 1814 1191 m 13 Y s 1814 1204 m cl s 1814 1191 m -13 Y s 1814 1178 m cl s 1850 1138
 m -18 X s 1832 1138 m cl s 1850 1138 m 18 X s 1868 1138 m cl s 1850 1138 m 17 Y s 1850 1155 m cl s 1850 1138 m -16 Y s 1850 1122 m cl s 1886 1103 m -18 X s 1868 1103 m cl s 1886 1103 m 18 X s 1904 1103 m cl s 1886 1103 m 19 Y s 1886 1122 m cl s 1886
 1103 m -20 Y s 1886 1083 m cl s 1921 1022 m -17 X s 1904 1022 m cl s 1921 1022 m 18 X s 1939 1022 m cl s 1921 1022 m 26 Y s 1921 1048 m cl s 1921 1022 m -27 Y s 1921 995 m cl s 1957 1026 m -18 X s 1939 1026 m cl s 1957 1026 m 18 X s 1975 1026 m cl s
 1957 1026 m 26 Y s 1957 1052 m cl s 1957 1026 m -26 Y s 1957 1000 m cl s 1993 946 m -18 X s 1975 946 m cl s 1993 946 m 18 X s 2011 946 m cl s 1993 946 m 36 Y s 1993 982 m cl s 1993 946 m -36 Y s 1993 910 m cl s 2029 946 m -18 X s 2011 946 m cl s
 2029 946 m 18 X s 2047 946 m cl s 2029 946 m 36 Y s 2029 982 m cl s 2029 946 m -36 Y s 2029 910 m cl s 2065 862 m -18 X s 2047 862 m cl s 2065 862 m 18 X s 2083 862 m cl s 2065 862 m 50 Y s 2065 912 m cl s 2065 862 m -53 Y s 2065 809 m cl s 2101 876
 m -18 X s 2083 876 m cl s 2101 876 m 18 X s 2119 876 m cl s 2101 876 m 47 Y s 2101 923 m cl s 2101 876 m -50 Y s 2101 826 m cl s 2136 876 m -17 X s 2119 876 m cl s 2136 876 m 18 X s 2154 876 m cl s 2136 876 m 47 Y s 2136 923 m cl s 2136 876 m -50 Y
 s 2136 826 m cl s 381 846 417 754 452 846 488 808 524 900 560 828 596 862 632 900 667 876 703 889 739 938 775 954 811 946 847 954 882 987 918 992 954 1003 990 1053 1026 1060 1062 1039 1097 1070 1133 1136 1169 1152 1205 1185 1241 1182 1276 1250 1312
 1270 1348 1294 1384 1344 1420 1371 1456 1373 1491 1392 1527 1407 1563 1418 1599 1393 1635 1382 1671 1363 1706 1330 1742 1287 1778 1259 1814 1191 1850 1138 1886 1103 1921 1022 1957 1026 1993 946 2029 946 2065 862 2101 876 2136 876 50 { m20} R 0.52
 0.76 0.64 c[ 4 8] 0 sd 9 lw black 0.52 0.76 0.64 c 363 802 m 36 8 d 35 8 d 36 9 d 36 9 d 36 9 d 36 9 d 36 10 d 35 10 d 36 11 d 36 11 d 36 11 d 36 12 d 36 13 d 35 14 d 36 14 d 36 15 d 36 16 d 36 17 d 36 18 d 35 20 d 36 21 d 36 23 d 36 26 d 18 14 d 18
 15 d 18 15 d 18 17 d 17 18 d 18 19 d 9 10 d 9 11 d 9 11 d 9 12 d 18 22 d 18 21 d 36 36 d 18 14 d 18 13 d 18 11 d 9 4 d 9 4 d 9 4 d 8 3 d 9 2 d 9 2 d 9 2 d 9 1 d 27 X 9 -1 d 9 -2 d 9 -2 d 9 -3 d 9 -3 d 9 -3 d 9 -4 d 9 -5 d 9 -5 d 18 -12 d 36 -29 d 17
 -18 d 18 -20 d 18 -22 d 18 -24 d 18 -25 d 18 -28 d 18 -30 d 18 -32 d 18 -34 d 18 -36 d 18 -39 d 18 -40 d 17 -42 d 18 -44 d 36 -94 d 36 -103 d 21 -63 d s 0.54 0.66 0.63 c black 0.54 0.66 0.63 c 737 634 m 20 22 d s 757 656 m 36 37 d 36 35 d 35 34 d 36
 32 d 36 30 d 36 29 d 36 26 d 36 25 d 35 24 d 36 21 d 36 20 d 36 18 d 36 16 d 36 15 d 35 12 d 36 12 d 36 9 d 18 4 d 18 3 d 18 4 d 18 2 d 18 3 d 18 1 d 17 2 d 18 1 d 54 X 18 -1 d 18 -1 d 18 -1 d 18 -3 d 18 -2 d 18 -3 d 18 -3 d 17 -4 d 18 -4 d 36 -10 d
 36 -12 d 36 -13 d 36 -15 d 36 -17 d 35 -18 d 36 -21 d 36 -22 d 36 -23 d 36 -26 d 36 -27 d 35 -29 d s black[  ] 0 sd 3 lw 363 634 m 1791 X s 457 659 m -25 Y s 495 646 m -12 Y s 533 646 m -12 Y s 570 646 m -12 Y s 608 646 m -12 Y s 646 659 m -25 Y s
 683 646 m -12 Y s 721 646 m -12 Y s 759 646 m -12 Y s 797 646 m -12 Y s 834 659 m -25 Y s 872 646 m -12 Y s 910 646 m -12 Y s 947 646 m -12 Y s 985 646 m -12 Y s 1023 659 m -25 Y s 1061 646 m -12 Y s 1098 646 m -12 Y s 1136 646 m -12 Y s 1174 646 m
 -12 Y s 1211 659 m -25 Y s 1249 646 m -12 Y s 1287 646 m -12 Y s 1325 646 m -12 Y s 1362 646 m -12 Y s 1400 659 m -25 Y s 1438 646 m -12 Y s 1475 646 m -12 Y s 1513 646 m -12 Y s 1551 646 m -12 Y s 1589 659 m -25 Y s 1626 646 m -12 Y s 1664 646 m
 -12 Y s 1702 646 m -12 Y s 1739 646 m -12 Y s 1777 659 m -25 Y s 1815 646 m -12 Y s 1853 646 m -12 Y s 1890 646 m -12 Y s 1928 646 m -12 Y s 1966 659 m -25 Y s 2003 646 m -12 Y s 2041 646 m -12 Y s 2079 646 m -12 Y s 2117 646 m -12 Y s 2154 659 m
 -25 Y s 457 659 m -25 Y s 419 646 m -12 Y s 382 646 m -12 Y s 363 1484 m 1791 X s 457 1459 m 25 Y s 495 1471 m 13 Y s 533 1471 m 13 Y s 570 1471 m 13 Y s 608 1471 m 13 Y s 646 1459 m 25 Y s 683 1471 m 13 Y s 721 1471 m 13 Y s 759 1471 m 13 Y s 797
 1471 m 13 Y s 834 1459 m 25 Y s 872 1471 m 13 Y s 910 1471 m 13 Y s 947 1471 m 13 Y s 985 1471 m 13 Y s 1023 1459 m 25 Y s 1061 1471 m 13 Y s 1098 1471 m 13 Y s 1136 1471 m 13 Y s 1174 1471 m 13 Y s 1211 1459 m 25 Y s 1249 1471 m 13 Y s 1287 1471 m
 13 Y s 1325 1471 m 13 Y s 1362 1471 m 13 Y s 1400 1459 m 25 Y s 1438 1471 m 13 Y s 1475 1471 m 13 Y s 1513 1471 m 13 Y s 1551 1471 m 13 Y s 1589 1459 m 25 Y s 1626 1471 m 13 Y s 1664 1471 m 13 Y s 1702 1471 m 13 Y s 1739 1471 m 13 Y s 1777 1459 m 25
 Y s 1815 1471 m 13 Y s 1853 1471 m 13 Y s 1890 1471 m 13 Y s 1928 1471 m 13 Y s 1966 1459 m 25 Y s 2003 1471 m 13 Y s 2041 1471 m 13 Y s 2079 1471 m 13 Y s 2117 1471 m 13 Y s 2154 1459 m 25 Y s 457 1459 m 25 Y s 419 1471 m 13 Y s 382 1471 m 13 Y s
 363 634 m 850 Y s 390 662 m -27 X s 390 716 m -27 X s 390 754 m -27 X s 390 784 m -27 X s 390 808 m -27 X s 390 828 m -27 X s 390 846 m -27 X s 390 862 m -27 X s 417 876 m -54 X s 390 968 m -27 X s 390 1022 m -27 X s 390 1060 m -27 X s 390 1090 m
 -27 X s 390 1114 m -27 X s 390 1135 m -27 X s 390 1152 m -27 X s 390 1168 m -27 X s 417 1182 m -54 X s 390 1274 m -27 X s 390 1328 m -27 X s 390 1366 m -27 X s 390 1396 m -27 X s 390 1420 m -27 X s 390 1441 m -27 X s 390 1458 m -27 X s 390 1474 m
 -27 X s 2154 634 m 850 Y s 2127 662 m 27 X s 2127 716 m 27 X s 2127 754 m 27 X s 2127 784 m 27 X s 2127 808 m 27 X s 2127 828 m 27 X s 2127 846 m 27 X s 2127 862 m 27 X s 2101 876 m 53 X s 2127 968 m 27 X s 2127 1022 m 27 X s 2127 1060 m 27 X s 2127
 1090 m 27 X s 2127 1114 m 27 X s 2127 1135 m 27 X s 2127 1152 m 27 X s 2127 1168 m 27 X s 2101 1182 m 53 X s 2127 1274 m 27 X s 2127 1328 m 27 X s 2127 1366 m 27 X s 2127 1396 m 27 X s 2127 1420 m 27 X s 2127 1441 m 27 X s 2127 1458 m 27 X s 2127
 1474 m 27 X s
 gsave  2268 1077 0 461 C 677.708 1215.31 t 0 r /Helvetica findfont 58.7189 sf 0 0 m (4e) show NC gr  1 1 1 c 453 161 454 1269 bf black
 gsave  2268 1077 0 461 C 566.929 1371.71 t 0 r /Helvetica-Bold findfont 48.9324 sf 0 0 m (MC15) show NC gr  510 1390 m20
 gsave  2268 1077 0 461 C 566.929 1293.51 t 0 r /Helvetica-Bold findfont 48.9324 sf 0 0 m (Projection of Signal pdf) show NC gr  0 0 1 c 9 lw 471 1309 m 79 X s black 3 lw 1 1 1 c 2268 461 0 0 bf black 1 1 1 c 1791 364 363 74 bf black 1791 364 363 74
 bl 363 74 m 1791 X s
 gsave  2268 461 0 0 C 1915.83 13.0329 t 0 r /Helvetica findfont 22.9045 sf 0 0 m (4l Invariant Mass \(GeV\)) show NC gr  457 85 m -11 Y s 495 79 m -5 Y s 533 79 m -5 Y s 570 79 m -5 Y s 608 79 m -5 Y s 646 85 m -11 Y s 683 79 m -5 Y s 721 79 m -5 Y
 s 759 79 m -5 Y s 797 79 m -5 Y s 834 85 m -11 Y s 872 79 m -5 Y s 910 79 m -5 Y s 947 79 m -5 Y s 985 79 m -5 Y s 1023 85 m -11 Y s 1061 79 m -5 Y s 1098 79 m -5 Y s 1136 79 m -5 Y s 1174 79 m -5 Y s 1211 85 m -11 Y s 1249 79 m -5 Y s 1287 79 m -5
 Y s 1325 79 m -5 Y s 1362 79 m -5 Y s 1400 85 m -11 Y s 1438 79 m -5 Y s 1475 79 m -5 Y s 1513 79 m -5 Y s 1551 79 m -5 Y s 1589 85 m -11 Y s 1626 79 m -5 Y s 1664 79 m -5 Y s 1702 79 m -5 Y s 1739 79 m -5 Y s 1777 85 m -11 Y s 1815 79 m -5 Y s 1853
 79 m -5 Y s 1890 79 m -5 Y s 1928 79 m -5 Y s 1966 85 m -11 Y s 2003 79 m -5 Y s 2041 79 m -5 Y s 2079 79 m -5 Y s 2117 79 m -5 Y s 2154 85 m -11 Y s 457 85 m -11 Y s 419 79 m -5 Y s 382 79 m -5 Y s
 gsave  2268 461 0 0 C 430.084 55.3896 t 0 r /Helvetica findfont 22.9045 sf 0 0 m (1140) show NC gr 
 gsave  2268 461 0 0 C 619.061 55.3896 t 0 r /Helvetica findfont 22.9045 sf 0 0 m (1150) show NC gr 
 gsave  2268 461 0 0 C 808.037 55.3896 t 0 r /Helvetica findfont 22.9045 sf 0 0 m (1160) show NC gr 
 gsave  2268 461 0 0 C 993.755 55.3896 t 0 r /Helvetica findfont 22.9045 sf 0 0 m (1170) show NC gr 
 gsave  2268 461 0 0 C 1182.73 55.3896 t 0 r /Helvetica findfont 22.9045 sf 0 0 m (1180) show NC gr 
 gsave  2268 461 0 0 C 1371.71 55.3896 t 0 r /Helvetica findfont 22.9045 sf 0 0 m (1190) show NC gr 
 gsave  2268 461 0 0 C 1560.68 55.3896 t 0 r /Helvetica findfont 22.9045 sf 0 0 m (1200) show NC gr 
 gsave  2268 461 0 0 C 1749.66 55.3896 t 0 r /Helvetica findfont 22.9045 sf 0 0 m (1210) show NC gr 
 gsave  2268 461 0 0 C 1938.64 55.3896 t 0 r /Helvetica findfont 22.9045 sf 0 0 m (1220) show NC gr 
 gsave  2268 461 0 0 C 2127.61 55.3896 t 0 r /Helvetica findfont 22.9045 sf 0 0 m (1230) show NC gr  363 438 m 1791 X s 457 427 m 11 Y s 495 433 m 5 Y s 533 433 m 5 Y s 570 433 m 5 Y s 608 433 m 5 Y s 646 427 m 11 Y s 683 433 m 5 Y s 721 433 m 5 Y s
 759 433 m 5 Y s 797 433 m 5 Y s 834 427 m 11 Y s 872 433 m 5 Y s 910 433 m 5 Y s 947 433 m 5 Y s 985 433 m 5 Y s 1023 427 m 11 Y s 1061 433 m 5 Y s 1098 433 m 5 Y s 1136 433 m 5 Y s 1174 433 m 5 Y s 1211 427 m 11 Y s 1249 433 m 5 Y s 1287 433 m 5 Y
 s 1325 433 m 5 Y s 1362 433 m 5 Y s 1400 427 m 11 Y s 1438 433 m 5 Y s 1475 433 m 5 Y s 1513 433 m 5 Y s 1551 433 m 5 Y s 1589 427 m 11 Y s 1626 433 m 5 Y s 1664 433 m 5 Y s 1702 433 m 5 Y s 1739 433 m 5 Y s 1777 427 m 11 Y s 1815 433 m 5 Y s 1853
 433 m 5 Y s 1890 433 m 5 Y s 1928 433 m 5 Y s 1966 427 m 11 Y s 2003 433 m 5 Y s 2041 433 m 5 Y s 2079 433 m 5 Y s 2117 433 m 5 Y s 2154 427 m 11 Y s 457 427 m 11 Y s 419 433 m 5 Y s 382 433 m 5 Y s 363 74 m 364 Y s 417 74 m -54 X s 390 81 m -27 X s
 390 88 m -27 X s 390 96 m -27 X s 390 103 m -27 X s 417 110 m -54 X s 390 118 m -27 X s 390 125 m -27 X s 390 132 m -27 X s 390 139 m -27 X s 417 147 m -54 X s 390 154 m -27 X s 390 161 m -27 X s 390 169 m -27 X s 390 176 m -27 X s 417 183 m -54 X s
 390 190 m -27 X s 390 198 m -27 X s 390 205 m -27 X s 390 212 m -27 X s 417 220 m -54 X s 390 227 m -27 X s 390 234 m -27 X s 390 241 m -27 X s 390 249 m -27 X s 417 256 m -54 X s 390 263 m -27 X s 390 271 m -27 X s 390 278 m -27 X s 390 285 m -27 X
 s 417 293 m -54 X s 390 300 m -27 X s 390 307 m -27 X s 390 314 m -27 X s 390 322 m -27 X s 417 329 m -54 X s 390 336 m -27 X s 390 344 m -27 X s 390 351 m -27 X s 390 358 m -27 X s 417 365 m -54 X s 390 373 m -27 X s 390 380 m -27 X s 390 387 m -27
 X s 390 395 m -27 X s 417 402 m -54 X s 390 409 m -27 X s 390 416 m -27 X s 390 424 m -27 X s 390 431 m -27 X s 417 438 m -54 X s
 gsave  2268 461 0 0 C 329.08 65.1643 t 0 r /Helvetica findfont 22.9045 sf 0 0 m (\2555) show NC gr 
 gsave  2268 461 0 0 C 329.08 101.005 t 0 r /Helvetica findfont 22.9045 sf 0 0 m (\2554) show NC gr 
 gsave  2268 461 0 0 C 329.08 140.103 t 0 r /Helvetica findfont 22.9045 sf 0 0 m (\2553) show NC gr 
 gsave  2268 461 0 0 C 329.08 175.944 t 0 r /Helvetica findfont 22.9045 sf 0 0 m (\2552) show NC gr 
 gsave  2268 461 0 0 C 332.338 211.784 t 0 r /Helvetica findfont 22.9045 sf 0 0 m (\2551) show NC gr 
 gsave  2268 461 0 0 C 335.596 247.624 t 0 r /Helvetica findfont 22.9045 sf 0 0 m (0) show NC gr 
 gsave  2268 461 0 0 C 338.854 283.465 t 0 r /Helvetica findfont 22.9045 sf 0 0 m (1) show NC gr 
 gsave  2268 461 0 0 C 335.596 319.305 t 0 r /Helvetica findfont 22.9045 sf 0 0 m (2) show NC gr 
 gsave  2268 461 0 0 C 335.596 358.403 t 0 r /Helvetica findfont 22.9045 sf 0 0 m (3) show NC gr 
 gsave  2268 461 0 0 C 335.596 394.244 t 0 r /Helvetica findfont 22.9045 sf 0 0 m (4) show NC gr 
 gsave  2268 461 0 0 C 335.596 430.084 t 0 r /Helvetica findfont 22.9045 sf 0 0 m (5) show NC gr  2154 74 m 364 Y s 2101 74 m 53 X s 2127 81 m 27 X s 2127 88 m 27 X s 2127 96 m 27 X s 2127 103 m 27 X s 2101 110 m 53 X s 2127 118 m 27 X s 2127 125 m
 27 X s 2127 132 m 27 X s 2127 139 m 27 X s 2101 147 m 53 X s 2127 154 m 27 X s 2127 161 m 27 X s 2127 169 m 27 X s 2127 176 m 27 X s 2101 183 m 53 X s 2127 190 m 27 X s 2127 198 m 27 X s 2127 205 m 27 X s 2127 212 m 27 X s 2101 220 m 53 X s 2127 227
 m 27 X s 2127 234 m 27 X s 2127 241 m 27 X s 2127 249 m 27 X s 2101 256 m 53 X s 2127 263 m 27 X s 2127 271 m 27 X s 2127 278 m 27 X s 2127 285 m 27 X s 2101 293 m 53 X s 2127 300 m 27 X s 2127 307 m 27 X s 2127 314 m 27 X s 2127 322 m 27 X s 2101
 329 m 53 X s 2127 336 m 27 X s 2127 344 m 27 X s 2127 351 m 27 X s 2127 358 m 27 X s 2101 365 m 53 X s 2127 373 m 27 X s 2127 380 m 27 X s 2127 387 m 27 X s 2127 395 m 27 X s 2101 402 m 53 X s 2127 409 m 27 X s 2127 416 m 27 X s 2127 424 m 27 X s
 2127 431 m 27 X s 2101 438 m 53 X s 6 lw 0.2 0.8 0.2 c black 3 lw 0.2 0.8 0.2 c 363 256 m 27 Y 36 X -54 Y 35 X 43 Y 36 X -29 Y 36 X 57 Y 36 X -59 Y 36 X 13 Y 36 X 22 Y 35 X -30 Y 36 X -1 Y 36 X 31 Y 36 X 2 Y 36 X -25 Y 36 X -10 Y 35 X 16 Y 36 X -15
 Y 36 X -11 Y 36 X 43 Y 36 X -21 Y 36 X -68 Y 35 X 11 Y 36 X 84 Y 36 X -14 Y 36 X 25 Y 36 X -79 Y 36 X 119 Y 35 X -45 Y 36 X -61 Y 36 X 64 Y 36 X -5 Y 36 X -109 Y 36 X 23 Y 35 X 50 Y 36 X 81 Y 36 X -107 Y 36 X 32 Y 36 X 26 Y 36 X -17 Y 35 X -25 Y 36
 X 58 Y 36 X -68 Y 36 X 1 Y 36 X 33 Y 36 X -46 Y 35 X 67 Y 36 X -46 Y 36 X 37 Y 36 X -43 Y 36 X 33 Y 36 X 22 Y 35 X -32 Y f 6 lw black 0.2 0.8 0.2 c black 363 283 m 36 X -54 Y 35 X 43 Y 36 X -29 Y 36 X 57 Y 36 X -59 Y 36 X 13 Y 36 X 22 Y 35 X -30 Y
 36 X -1 Y 36 X 31 Y 36 X 2 Y 36 X -25 Y 36 X -10 Y 35 X 16 Y 36 X -15 Y 36 X -11 Y 36 X 43 Y 36 X -21 Y 36 X -68 Y 35 X 11 Y 36 X 84 Y 36 X -14 Y 36 X 25 Y 36 X -79 Y 36 X 119 Y 35 X -45 Y 36 X -61 Y 36 X 64 Y 36 X -5 Y 36 X -109 Y 36 X 23 Y 35 X 50
 Y 36 X 81 Y 36 X -107 Y 36 X 32 Y 36 X 26 Y 36 X -17 Y 35 X -25 Y 36 X 58 Y 36 X -68 Y 36 X 1 Y 36 X 33 Y 36 X -46 Y 35 X 67 Y 36 X -46 Y 36 X 37 Y 36 X -43 Y 36 X 33 Y 36 X 22 Y 35 X s 3 lw 363 74 m 1791 X s 457 85 m -11 Y s 495 79 m -5 Y s 533 79
 m -5 Y s 570 79 m -5 Y s 608 79 m -5 Y s 646 85 m -11 Y s 683 79 m -5 Y s 721 79 m -5 Y s 759 79 m -5 Y s 797 79 m -5 Y s 834 85 m -11 Y s 872 79 m -5 Y s 910 79 m -5 Y s 947 79 m -5 Y s 985 79 m -5 Y s 1023 85 m -11 Y s 1061 79 m -5 Y s 1098 79 m
 -5 Y s 1136 79 m -5 Y s 1174 79 m -5 Y s 1211 85 m -11 Y s 1249 79 m -5 Y s 1287 79 m -5 Y s 1325 79 m -5 Y s 1362 79 m -5 Y s 1400 85 m -11 Y s 1438 79 m -5 Y s 1475 79 m -5 Y s 1513 79 m -5 Y s 1551 79 m -5 Y s 1589 85 m -11 Y s 1626 79 m -5 Y s
 1664 79 m -5 Y s 1702 79 m -5 Y s 1739 79 m -5 Y s 1777 85 m -11 Y s 1815 79 m -5 Y s 1853 79 m -5 Y s 1890 79 m -5 Y s 1928 79 m -5 Y s 1966 85 m -11 Y s 2003 79 m -5 Y s 2041 79 m -5 Y s 2079 79 m -5 Y s 2117 79 m -5 Y s 2154 85 m -11 Y s 457 85 m
 -11 Y s 419 79 m -5 Y s 382 79 m -5 Y s 363 438 m 1791 X s 457 427 m 11 Y s 495 433 m 5 Y s 533 433 m 5 Y s 570 433 m 5 Y s 608 433 m 5 Y s 646 427 m 11 Y s 683 433 m 5 Y s 721 433 m 5 Y s 759 433 m 5 Y s 797 433 m 5 Y s 834 427 m 11 Y s 872 433 m 5
 Y s 910 433 m 5 Y s 947 433 m 5 Y s 985 433 m 5 Y s 1023 427 m 11 Y s 1061 433 m 5 Y s 1098 433 m 5 Y s 1136 433 m 5 Y s 1174 433 m 5 Y s 1211 427 m 11 Y s 1249 433 m 5 Y s 1287 433 m 5 Y s 1325 433 m 5 Y s 1362 433 m 5 Y s 1400 427 m 11 Y s 1438
 433 m 5 Y s 1475 433 m 5 Y s 1513 433 m 5 Y s 1551 433 m 5 Y s 1589 427 m 11 Y s 1626 433 m 5 Y s 1664 433 m 5 Y s 1702 433 m 5 Y s 1739 433 m 5 Y s 1777 427 m 11 Y s 1815 433 m 5 Y s 1853 433 m 5 Y s 1890 433 m 5 Y s 1928 433 m 5 Y s 1966 427 m 11
 Y s 2003 433 m 5 Y s 2041 433 m 5 Y s 2079 433 m 5 Y s 2117 433 m 5 Y s 2154 427 m 11 Y s 457 427 m 11 Y s 419 433 m 5 Y s 382 433 m 5 Y s 363 74 m 364 Y s 417 74 m -54 X s 390 81 m -27 X s 390 88 m -27 X s 390 96 m -27 X s 390 103 m -27 X s 417 110
 m -54 X s 390 118 m -27 X s 390 125 m -27 X s 390 132 m -27 X s 390 139 m -27 X s 417 147 m -54 X s 390 154 m -27 X s 390 161 m -27 X s 390 169 m -27 X s 390 176 m -27 X s 417 183 m -54 X s 390 190 m -27 X s 390 198 m -27 X s 390 205 m -27 X s 390
 212 m -27 X s 417 220 m -54 X s 390 227 m -27 X s 390 234 m -27 X s 390 241 m -27 X s 390 249 m -27 X s 417 256 m -54 X s 390 263 m -27 X s 390 271 m -27 X s 390 278 m -27 X s 390 285 m -27 X s 417 293 m -54 X s 390 300 m -27 X s 390 307 m -27 X s
 390 314 m -27 X s 390 322 m -27 X s 417 329 m -54 X s 390 336 m -27 X s 390 344 m -27 X s 390 351 m -27 X s 390 358 m -27 X s 417 365 m -54 X s 390 373 m -27 X s 390 380 m -27 X s 390 387 m -27 X s 390 395 m -27 X s 417 402 m -54 X s 390 409 m -27 X
 s 390 416 m -27 X s 390 424 m -27 X s 390 431 m -27 X s 417 438 m -54 X s 2154 74 m 364 Y s 2101 74 m 53 X s 2127 81 m 27 X s 2127 88 m 27 X s 2127 96 m 27 X s 2127 103 m 27 X s 2101 110 m 53 X s 2127 118 m 27 X s 2127 125 m 27 X s 2127 132 m 27 X s
 2127 139 m 27 X s 2101 147 m 53 X s 2127 154 m 27 X s 2127 161 m 27 X s 2127 169 m 27 X s 2127 176 m 27 X s 2101 183 m 53 X s 2127 190 m 27 X s 2127 198 m 27 X s 2127 205 m 27 X s 2127 212 m 27 X s 2101 220 m 53 X s 2127 227 m 27 X s 2127 234 m 27 X
 s 2127 241 m 27 X s 2127 249 m 27 X s 2101 256 m 53 X s 2127 263 m 27 X s 2127 271 m 27 X s 2127 278 m 27 X s 2127 285 m 27 X s 2101 293 m 53 X s 2127 300 m 27 X s 2127 307 m 27 X s 2127 314 m 27 X s 2127 322 m 27 X s 2101 329 m 53 X s 2127 336 m 27
 X s 2127 344 m 27 X s 2127 351 m 27 X s 2127 358 m 27 X s 2101 365 m 53 X s 2127 373 m 27 X s 2127 380 m 27 X s 2127 387 m 27 X s 2127 395 m 27 X s 2101 402 m 53 X s 2127 409 m 27 X s 2127 416 m 27 X s 2127 424 m 27 X s 2127 431 m 27 X s 2101 438 m
 53 X s
 gr  gr showpage
end
%%EOF
