%!PS-Adobe-2.0 EPSF-2.0
%%BoundingBox:  0 0 567 384
%%Title: H4l2015_plotfit/gg_mass_signal_1000_fixed_H4l_4mu.eps: 
%%Creator: ROOT Version 5.34/10
%%CreationDate: Thu Feb 16 13:03:01 2017
%%EndComments
%%BeginProlog
80 dict begin
/s {stroke} def /l {lineto} def /m {moveto} def /t {translate} def
/r {rotate} def /rl {roll}  def /R {repeat} def
/d {rlineto} def /rm {rmoveto} def /gr {grestore} def /f {eofill} def
/c {setrgbcolor} def /black {0 setgray} def /sd {setdash} def
/cl {closepath} def /sf {scalefont setfont} def /lw {setlinewidth} def
/box {m dup 0 exch d exch 0 d 0 exch neg d cl} def
/NC{systemdict begin initclip end}def/C{NC box clip newpath}def
/bl {box s} def /bf {box f} def /Y { 0 exch d} def /X { 0 d} def 
/K {{pop pop 0 moveto} exch kshow} bind def
/ita {/ang 15 def gsave [1 0 ang dup sin exch cos div 1 0 0] concat} def 
/mp {newpath /y exch def /x exch def} def
/side {[w .77 mul w .23 mul] .385 w mul sd w 0 l currentpoint t -144 r} def
/mr {mp x y w2 0 360 arc} def /m24 {mr s} def /m20 {mr f} def
/mb {mp x y w2 add m w2 neg 0 d 0 w neg d w 0 d 0 w d cl} def
/mt {mp x y w2 add m w2 neg w neg d w 0 d cl} def
/m21 {mb f} def /m25 {mb s} def /m22 {mt f} def /m26{mt s} def
/m23 {mp x y w2 sub m w2 w d w neg 0 d cl f} def
/m27 {mp x y w2 add m w3 neg w2 neg d w3 w2 neg d w3 w2 d cl s} def
/m28 {mp x w2 sub y w2 sub w3 add m w3 0 d  0 w3 neg d w3 0 d 0 w3 d w3 0 d  0 w3 d w3 neg 0 d 0 w3 d w3 neg 0 d 0 w3 neg d w3 neg 0 d cl s } def
/m29 {mp gsave x w2 sub y w2 add w3 sub m currentpoint t 4 {side} repeat cl fill gr} def
/m30 {mp gsave x w2 sub y w2 add w3 sub m currentpoint t 4 {side} repeat cl s gr} def
/m31 {mp x y w2 sub m 0 w d x w2 sub y m w 0 d x w2 sub y w2 add m w w neg d x w2 sub y w2 sub m w w d s} def
/m32 {mp x y w2 sub m w2 w d w neg 0 d cl s} def
/m33 {mp x y w2 add m w3 neg w2 neg d w3 w2 neg d w3 w2 d cl f} def
/m34 {mp x w2 sub y w2 sub w3 add m w3 0 d  0 w3 neg d w3 0 d 0 w3 d w3 0 d  0 w3 d w3 neg 0 d 0 w3 d w3 neg 0 d 0 w3 neg d w3 neg 0 d cl f } def
/m2 {mp x y w2 sub m 0 w d x w2 sub y m w 0 d s} def
/m5 {mp x w2 sub y w2 sub m w w d x w2 sub y w2 add m w w neg d s} def
/reEncode {exch findfont dup length dict begin {1 index /FID eq  {pop pop} {def} ifelse } forall /Encoding exch def currentdict end dup /FontName get exch definefont pop } def [/Times-Bold /Times-Italic /Times-BoldItalic /Helvetica /Helvetica-Oblique
 /Helvetica-Bold /Helvetica-BoldOblique /Courier /Courier-Oblique /Courier-Bold /Courier-BoldOblique /Times-Roman /AvantGarde-Book /AvantGarde-BookOblique /AvantGarde-Demi /AvantGarde-DemiOblique /Bookman-Demi /Bookman-DemiItalic /Bookman-Light
 /Bookman-LightItalic /Helvetica-Narrow /Helvetica-Narrow-Bold /Helvetica-Narrow-BoldOblique /Helvetica-Narrow-Oblique /NewCenturySchlbk-Roman /NewCenturySchlbk-Bold /NewCenturySchlbk-BoldItalic /NewCenturySchlbk-Italic /Palatino-Bold
 /Palatino-BoldItalic /Palatino-Italic /Palatino-Roman ] {ISOLatin1Encoding reEncode } forall
%%EndProlog
%%BeginSetup
%%EndSetup
newpath  gsave  .25 .25 scale  gsave  0 0 t black[  ] 0 sd 3 lw 1 1 1 c 2268 1538 0 0 bf black 1 1 1 c 2222 738 23 784 bf black 1 1 1 c 2222 739 23 15 bf black 1 1 1 c 2268 1077 0 461 bf black 1 1 1 c 1791 850 363 634 bf black 1791 850 363 634 bl 363
 634 m 1791 X s
 gsave  2268 1077 0 461 C 1642.14 498.507 t 0 r /Helvetica findfont 48.9324 sf 0 0 m (4l Invariant Mass \(GeV\)) show NC gr  406 659 m -25 Y s 449 646 m -12 Y s 492 646 m -12 Y s 535 646 m -12 Y s 578 659 m -25 Y s 621 646 m -12 Y s 664 646 m -12 Y s
 707 646 m -12 Y s 750 659 m -25 Y s 793 646 m -12 Y s 837 646 m -12 Y s 880 646 m -12 Y s 923 659 m -25 Y s 966 646 m -12 Y s 1009 646 m -12 Y s 1052 646 m -12 Y s 1095 659 m -25 Y s 1138 646 m -12 Y s 1181 646 m -12 Y s 1224 646 m -12 Y s 1267 659
 m -25 Y s 1310 646 m -12 Y s 1353 646 m -12 Y s 1396 646 m -12 Y s 1439 659 m -25 Y s 1483 646 m -12 Y s 1526 646 m -12 Y s 1569 646 m -12 Y s 1612 659 m -25 Y s 1655 646 m -12 Y s 1698 646 m -12 Y s 1741 646 m -12 Y s 1784 659 m -25 Y s 1827 646 m
 -12 Y s 1870 646 m -12 Y s 1913 646 m -12 Y s 1956 659 m -25 Y s 1999 646 m -12 Y s 2042 646 m -12 Y s 2085 646 m -12 Y s 2128 659 m -25 Y s 406 659 m -25 Y s 363 646 m -12 Y s 2128 659 m -25 Y s
 gsave  2268 1077 0 461 C 361.662 586.478 t 0 r /Helvetica findfont 48.9324 sf 0 0 m (860) show NC gr 
 gsave  2268 1077 0 461 C 534.347 586.478 t 0 r /Helvetica findfont 48.9324 sf 0 0 m (880) show NC gr 
 gsave  2268 1077 0 461 C 707.032 586.478 t 0 r /Helvetica findfont 48.9324 sf 0 0 m (900) show NC gr 
 gsave  2268 1077 0 461 C 879.718 586.478 t 0 r /Helvetica findfont 48.9324 sf 0 0 m (920) show NC gr 
 gsave  2268 1077 0 461 C 1052.4 586.478 t 0 r /Helvetica findfont 48.9324 sf 0 0 m (940) show NC gr 
 gsave  2268 1077 0 461 C 1221.83 586.478 t 0 r /Helvetica findfont 48.9324 sf 0 0 m (960) show NC gr 
 gsave  2268 1077 0 461 C 1394.52 586.478 t 0 r /Helvetica findfont 48.9324 sf 0 0 m (980) show NC gr 
 gsave  2268 1077 0 461 C 1554.17 586.478 t 0 r /Helvetica findfont 48.9324 sf 0 0 m (1000) show NC gr 
 gsave  2268 1077 0 461 C 1726.85 586.478 t 0 r /Helvetica findfont 48.9324 sf 0 0 m (1020) show NC gr 
 gsave  2268 1077 0 461 C 1899.54 586.478 t 0 r /Helvetica findfont 48.9324 sf 0 0 m (1040) show NC gr 
 gsave  2268 1077 0 461 C 2072.22 586.478 t 0 r /Helvetica findfont 48.9324 sf 0 0 m (1060) show NC gr  363 1484 m 1791 X s 406 1459 m 25 Y s 449 1471 m 13 Y s 492 1471 m 13 Y s 535 1471 m 13 Y s 578 1459 m 25 Y s 621 1471 m 13 Y s 664 1471 m 13 Y s
 707 1471 m 13 Y s 750 1459 m 25 Y s 793 1471 m 13 Y s 837 1471 m 13 Y s 880 1471 m 13 Y s 923 1459 m 25 Y s 966 1471 m 13 Y s 1009 1471 m 13 Y s 1052 1471 m 13 Y s 1095 1459 m 25 Y s 1138 1471 m 13 Y s 1181 1471 m 13 Y s 1224 1471 m 13 Y s 1267 1459
 m 25 Y s 1310 1471 m 13 Y s 1353 1471 m 13 Y s 1396 1471 m 13 Y s 1439 1459 m 25 Y s 1483 1471 m 13 Y s 1526 1471 m 13 Y s 1569 1471 m 13 Y s 1612 1459 m 25 Y s 1655 1471 m 13 Y s 1698 1471 m 13 Y s 1741 1471 m 13 Y s 1784 1459 m 25 Y s 1827 1471 m
 13 Y s 1870 1471 m 13 Y s 1913 1471 m 13 Y s 1956 1459 m 25 Y s 1999 1471 m 13 Y s 2042 1471 m 13 Y s 2085 1471 m 13 Y s 2128 1459 m 25 Y s 406 1459 m 25 Y s 363 1471 m 13 Y s 2128 1459 m 25 Y s 363 634 m 850 Y s
 gsave  2268 1077 0 461 C 120.554 1032.85 t 90 r /Helvetica findfont 48.9324 sf 0 0 m (Events / \( 4.16 GeV \)) show NC gr  390 687 m -27 X s 390 727 m -27 X s 390 758 m -27 X s 390 783 m -27 X s 390 805 m -27 X s 390 823 m -27 X s 390 840 m -27 X s
 417 854 m -54 X s
 gsave  2268 1077 0 461 C 342.425 833.483 t 0 r  -55 0 t /Helvetica findfont 48.9324 sf 0 0 m (10) show NC gr  390 951 m -27 X s 390 1007 m -27 X s 390 1047 m -27 X s 390 1078 m -27 X s 390 1104 m -27 X s 390 1125 m -27 X s 390 1144 m -27 X s 390
 1160 m -27 X s 417 1175 m -54 X s
 gsave  2268 1077 0 461 C 322.563 1172.96 t 0 r /Helvetica findfont 32.6216 sf 0 0 m (2) show NC gr 
 gsave  2268 1077 0 461 C 270.432 1153.41 t 0 r /Helvetica findfont 48.9324 sf 0 0 m (10) show NC gr  390 1271 m -27 X s 390 1328 m -27 X s 390 1368 m -27 X s 390 1399 m -27 X s 390 1424 m -27 X s 390 1446 m -27 X s 390 1464 m -27 X s 390 1481 m -27
 X s 2154 634 m 850 Y s 2127 687 m 27 X s 2127 727 m 27 X s 2127 758 m 27 X s 2127 783 m 27 X s 2127 805 m 27 X s 2127 823 m 27 X s 2127 840 m 27 X s 2101 854 m 53 X s 2127 951 m 27 X s 2127 1007 m 27 X s 2127 1047 m 27 X s 2127 1078 m 27 X s 2127
 1104 m 27 X s 2127 1125 m 27 X s 2127 1144 m 27 X s 2127 1160 m 27 X s 2101 1175 m 53 X s 2127 1271 m 27 X s 2127 1328 m 27 X s 2127 1368 m 27 X s 2127 1399 m 27 X s 2127 1424 m 27 X s 2127 1446 m 27 X s 2127 1464 m 27 X s 2127 1481 m 27 X s 381 944
 m -18 X s 363 944 m cl s 381 944 m 18 X s 399 944 m cl s 381 944 m 35 Y s 381 979 m cl s 381 944 m -36 Y s 381 908 m cl s 417 901 m -18 X s 399 901 m cl s 417 901 m 17 X s 434 901 m cl s 417 901 m 41 Y s 417 942 m cl s 417 901 m -43 Y s 417 858 m cl
 s 452 891 m -18 X s 434 891 m cl s 452 891 m 18 X s 470 891 m cl s 452 891 m 43 Y s 452 934 m cl s 452 891 m -45 Y s 452 846 m cl s 488 901 m -18 X s 470 901 m cl s 488 901 m 18 X s 506 901 m cl s 488 901 m 41 Y s 488 942 m cl s 488 901 m -43 Y s
 488 858 m cl s 524 868 m -18 X s 506 868 m cl s 524 868 m 18 X s 542 868 m cl s 524 868 m 47 Y s 524 915 m cl s 524 868 m -49 Y s 524 819 m cl s 560 944 m -18 X s 542 944 m cl s 560 944 m 18 X s 578 944 m cl s 560 944 m 35 Y s 560 979 m cl s 560 944
 m -36 Y s 560 908 m cl s 596 920 m -18 X s 578 920 m cl s 596 920 m 18 X s 614 920 m cl s 596 920 m 38 Y s 596 958 m cl s 596 920 m -40 Y s 596 880 m cl s 632 901 m -18 X s 614 901 m cl s 632 901 m 17 X s 649 901 m cl s 632 901 m 41 Y s 632 942 m cl
 s 632 901 m -43 Y s 632 858 m cl s 667 891 m -18 X s 649 891 m cl s 667 891 m 18 X s 685 891 m cl s 667 891 m 43 Y s 667 934 m cl s 667 891 m -45 Y s 667 846 m cl s 703 987 m -18 X s 685 987 m cl s 703 987 m 18 X s 721 987 m cl s 703 987 m 30 Y s
 703 1017 m cl s 703 987 m -30 Y s 703 957 m cl s 739 987 m -18 X s 721 987 m cl s 739 987 m 18 X s 757 987 m cl s 739 987 m 30 Y s 739 1017 m cl s 739 987 m -30 Y s 739 957 m cl s 775 951 m -18 X s 757 951 m cl s 775 951 m 18 X s 793 951 m cl s 775
 951 m 34 Y s 775 985 m cl s 775 951 m -35 Y s 775 916 m cl s 811 958 m -18 X s 793 958 m cl s 811 958 m 18 X s 829 958 m cl s 811 958 m 33 Y s 811 991 m cl s 811 958 m -34 Y s 811 924 m cl s 847 1025 m -18 X s 829 1025 m cl s 847 1025 m 17 X s 864
 1025 m cl s 847 1025 m 25 Y s 847 1050 m cl s 847 1025 m -26 Y s 847 999 m cl s 882 970 m -18 X s 864 970 m cl s 882 970 m 18 X s 900 970 m cl s 882 970 m 32 Y s 882 1002 m cl s 882 970 m -32 Y s 882 938 m cl s 918 1044 m -18 X s 900 1044 m cl s 918
 1044 m 18 X s 936 1044 m cl s 918 1044 m 24 Y s 918 1068 m cl s 918 1044 m -24 Y s 918 1020 m cl s 954 1016 m -18 X s 936 1016 m cl s 954 1016 m 18 X s 972 1016 m cl s 954 1016 m 27 Y s 954 1043 m cl s 954 1016 m -27 Y s 954 989 m cl s 990 1078 m
 -18 X s 972 1078 m cl s 990 1078 m 18 X s 1008 1078 m cl s 990 1078 m 21 Y s 990 1099 m cl s 990 1078 m -21 Y s 990 1057 m cl s 1026 1101 m -18 X s 1008 1101 m cl s 1026 1101 m 18 X s 1044 1101 m cl s 1026 1101 m 20 Y s 1026 1121 m cl s 1026 1101 m
 -19 Y s 1026 1082 m cl s 1062 1099 m -18 X s 1044 1099 m cl s 1062 1099 m 17 X s 1079 1099 m cl s 1062 1099 m 19 Y s 1062 1118 m cl s 1062 1099 m -19 Y s 1062 1080 m cl s 1097 1127 m -18 X s 1079 1127 m cl s 1097 1127 m 18 X s 1115 1127 m cl s 1097
 1127 m 18 Y s 1097 1145 m cl s 1097 1127 m -17 Y s 1097 1110 m cl s 1133 1163 m -18 X s 1115 1163 m cl s 1133 1163 m 18 X s 1151 1163 m cl s 1133 1163 m 15 Y s 1133 1178 m cl s 1133 1163 m -15 Y s 1133 1148 m cl s 1169 1178 m -18 X s 1151 1178 m cl
 s 1169 1178 m 18 X s 1187 1178 m cl s 1169 1178 m 13 Y s 1169 1191 m cl s 1169 1178 m -14 Y s 1169 1164 m cl s 1205 1209 m -18 X s 1187 1209 m cl s 1205 1209 m 18 X s 1223 1209 m cl s 1205 1209 m 13 Y s 1205 1222 m cl s 1205 1209 m -12 Y s 1205 1197
 m cl s 1241 1230 m -18 X s 1223 1230 m cl s 1241 1230 m 18 X s 1259 1230 m cl s 1241 1230 m 12 Y s 1241 1242 m cl s 1241 1230 m -11 Y s 1241 1219 m cl s 1276 1243 m -17 X s 1259 1243 m cl s 1276 1243 m 18 X s 1294 1243 m cl s 1276 1243 m 11 Y s 1276
 1254 m cl s 1276 1243 m -11 Y s 1276 1232 m cl s 1312 1262 m -18 X s 1294 1262 m cl s 1312 1262 m 18 X s 1330 1262 m cl s 1312 1262 m 10 Y s 1312 1272 m cl s 1312 1262 m -10 Y s 1312 1252 m cl s 1348 1271 m -18 X s 1330 1271 m cl s 1348 1271 m 18 X
 s 1366 1271 m cl s 1348 1271 m 10 Y s 1348 1281 m cl s 1348 1271 m -9 Y s 1348 1262 m cl s 1384 1300 m -18 X s 1366 1300 m cl s 1384 1300 m 18 X s 1402 1300 m cl s 1384 1300 m 9 Y s 1384 1309 m cl s 1384 1300 m -9 Y s 1384 1291 m cl s 1420 1345 m
 -18 X s 1402 1345 m cl s 1420 1345 m 18 X s 1438 1345 m cl s 1420 1345 m 7 Y s 1420 1352 m cl s 1420 1345 m -8 Y s 1420 1337 m cl s 1456 1366 m -18 X s 1438 1366 m cl s 1456 1366 m 18 X s 1474 1366 m cl s 1456 1366 m 7 Y s 1456 1373 m cl s 1456 1366
 m -7 Y s 1456 1359 m cl s 1491 1386 m -17 X s 1474 1386 m cl s 1491 1386 m 18 X s 1509 1386 m cl s 1491 1386 m 7 Y s 1491 1393 m cl s 1491 1386 m -6 Y s 1491 1380 m cl s 1527 1395 m -18 X s 1509 1395 m cl s 1527 1395 m 18 X s 1545 1395 m cl s 1527
 1395 m 6 Y s 1527 1401 m cl s 1527 1395 m -6 Y s 1527 1389 m cl s 1563 1415 m -18 X s 1545 1415 m cl s 1563 1415 m 18 X s 1581 1415 m cl s 1563 1415 m 6 Y s 1563 1421 m cl s 1563 1415 m -6 Y s 1563 1409 m cl s 1599 1407 m -18 X s 1581 1407 m cl s
 1599 1407 m 18 X s 1617 1407 m cl s 1599 1407 m 6 Y s 1599 1413 m cl s 1599 1407 m -6 Y s 1599 1401 m cl s 1635 1412 m -18 X s 1617 1412 m cl s 1635 1412 m 18 X s 1653 1412 m cl s 1635 1412 m 6 Y s 1635 1418 m cl s 1635 1412 m -6 Y s 1635 1406 m cl
 s 1671 1383 m -18 X s 1653 1383 m cl s 1671 1383 m 18 X s 1689 1383 m cl s 1671 1383 m 7 Y s 1671 1390 m cl s 1671 1383 m -6 Y s 1671 1377 m cl s 1706 1360 m -17 X s 1689 1360 m cl s 1706 1360 m 18 X s 1724 1360 m cl s 1706 1360 m 7 Y s 1706 1367 m
 cl s 1706 1360 m -7 Y s 1706 1353 m cl s 1742 1340 m -18 X s 1724 1340 m cl s 1742 1340 m 18 X s 1760 1340 m cl s 1742 1340 m 8 Y s 1742 1348 m cl s 1742 1340 m -7 Y s 1742 1333 m cl s 1778 1317 m -18 X s 1760 1317 m cl s 1778 1317 m 18 X s 1796
 1317 m cl s 1778 1317 m 8 Y s 1778 1325 m cl s 1778 1317 m -9 Y s 1778 1308 m cl s 1814 1273 m -18 X s 1796 1273 m cl s 1814 1273 m 18 X s 1832 1273 m cl s 1814 1273 m 10 Y s 1814 1283 m cl s 1814 1273 m -10 Y s 1814 1263 m cl s 1850 1234 m -18 X s
 1832 1234 m cl s 1850 1234 m 18 X s 1868 1234 m cl s 1850 1234 m 11 Y s 1850 1245 m cl s 1850 1234 m -11 Y s 1850 1223 m cl s 1886 1212 m -18 X s 1868 1212 m cl s 1886 1212 m 18 X s 1904 1212 m cl s 1886 1212 m 13 Y s 1886 1225 m cl s 1886 1212 m
 -12 Y s 1886 1200 m cl s 1921 1187 m -17 X s 1904 1187 m cl s 1921 1187 m 18 X s 1939 1187 m cl s 1921 1187 m 13 Y s 1921 1200 m cl s 1921 1187 m -13 Y s 1921 1174 m cl s 1957 1115 m -18 X s 1939 1115 m cl s 1957 1115 m 18 X s 1975 1115 m cl s 1957
 1115 m 18 Y s 1957 1133 m cl s 1957 1115 m -18 Y s 1957 1097 m cl s 1993 1092 m -18 X s 1975 1092 m cl s 1993 1092 m 18 X s 2011 1092 m cl s 1993 1092 m 20 Y s 1993 1112 m cl s 1993 1092 m -20 Y s 1993 1072 m cl s 2029 1051 m -18 X s 2011 1051 m cl
 s 2029 1051 m 18 X s 2047 1051 m cl s 2029 1051 m 23 Y s 2029 1074 m cl s 2029 1051 m -24 Y s 2029 1027 m cl s 2065 1033 m -18 X s 2047 1033 m cl s 2065 1033 m 18 X s 2083 1033 m cl s 2065 1033 m 25 Y s 2065 1058 m cl s 2065 1033 m -26 Y s 2065 1007
 m cl s 2101 1003 m -18 X s 2083 1003 m cl s 2101 1003 m 18 X s 2119 1003 m cl s 2101 1003 m 27 Y s 2101 1030 m cl s 2101 1003 m -29 Y s 2101 974 m cl s 2136 993 m -17 X s 2119 993 m cl s 2136 993 m 18 X s 2154 993 m cl s 2136 993 m 29 Y s 2136 1022
 m cl s 2136 993 m -30 Y s 2136 963 m cl s /w 31 def /w2 {w 2 div} def /w3 {w 3 div} def 381 944 417 901 452 891 488 901 524 868 560 944 596 920 632 901 667 891 703 987 739 987 775 951 811 958 847 1025 882 970 918 1044 954 1016 990 1078 1026 1101
 1062 1099 1097 1127 1133 1163 1169 1178 1205 1209 1241 1230 1276 1243 1312 1262 1348 1271 1384 1300 1420 1345 1456 1366 1491 1386 1527 1395 1563 1415 1599 1407 1635 1412 1671 1383 1706 1360 1742 1340 1778 1317 1814 1273 1850 1234 1886 1212 1921 1187
 1957 1115 1993 1092 2029 1051 2065 1033 2101 1003 2136 993 50 { m20} R 0 1 1 c 1 1 0 c black 1 1 0 c 363 862 m 36 10 d 35 10 d 36 11 d 36 11 d 36 11 d 36 11 d 36 12 d 35 11 d 36 13 d 36 12 d 36 13 d 36 13 d 36 14 d 35 14 d 36 14 d 36 15 d 36 15 d 36
 16 d 36 16 d 35 17 d 36 17 d 36 18 d 36 19 d 36 20 d 18 11 d 18 11 d 17 12 d 18 12 d 18 13 d 18 14 d 18 14 d 18 15 d 18 15 d 18 14 d 18 13 d 18 13 d 36 24 d 17 10 d 18 8 d 9 4 d 9 3 d 9 3 d 9 2 d 9 2 d 9 1 d 9 1 d 18 X 9 -1 d 9 -1 d 9 -2 d 9 -2 d 9
 -3 d 9 -4 d 9 -3 d 18 -9 d 18 -10 d 35 -24 d 18 -13 d 18 -14 d 18 -14 d 18 -14 d 18 -15 d 18 -15 d 18 -15 d 18 -15 d 18 -16 d 18 -16 d 17 -17 d 18 -17 d 36 -37 d 36 -40 d 36 -44 d 36 -46 d 36 -50 d 35 -54 d -35 54 d -36 50 d -36 46 d -36 44 d -36 40
 d -36 37 d -18 17 d -17 17 d -18 16 d -18 16 d -18 15 d -18 15 d -18 15 d -18 15 d -18 14 d -18 14 d -18 14 d -18 13 d -35 24 d -18 10 d -18 9 d -9 3 d -9 4 d -9 3 d -9 2 d -9 2 d -9 1 d -9 1 d -18 X -9 -1 d -9 -1 d -9 -2 d -9 -2 d -9 -3 d -9 -3 d
 -9 -4 d -18 -8 d -17 -10 d -36 -24 d -18 -13 d -18 -13 d -18 -14 d -18 -15 d -18 -15 d -18 -14 d -18 -14 d -18 -13 d -18 -12 d -17 -12 d -18 -11 d -18 -11 d -36 -20 d -36 -19 d -36 -18 d -36 -17 d -35 -17 d -36 -16 d -36 -16 d -36 -15 d -36 -15 d
 -36 -14 d -35 -14 d -36 -14 d -36 -13 d -36 -13 d -36 -12 d -36 -13 d -35 -11 d -36 -12 d -36 -11 d -36 -11 d -36 -11 d -36 -11 d -35 -10 d -36 -10 d f 0 1 1 c 0 1 0 c black 0 1 0 c 363 862 m 36 10 d 35 10 d 36 11 d 36 11 d 36 11 d 36 11 d 36 12 d
 35 11 d 36 13 d 36 12 d 36 13 d 36 13 d 36 14 d 35 14 d 36 14 d 36 15 d 36 15 d 36 16 d 36 16 d 35 17 d 36 17 d 36 18 d 36 19 d 36 20 d 18 11 d 18 11 d 17 12 d 18 12 d 18 13 d 18 14 d 18 14 d 18 15 d 18 15 d 18 14 d 18 13 d 18 13 d 36 24 d 17 10 d
 18 8 d 9 4 d 9 3 d 9 3 d 9 2 d 9 2 d 9 1 d 9 1 d 18 X 9 -1 d 9 -1 d 9 -2 d 9 -2 d 9 -3 d 9 -4 d 9 -3 d 18 -9 d 18 -10 d 35 -24 d 18 -13 d 18 -14 d 18 -14 d 18 -14 d 18 -15 d 18 -15 d 18 -15 d 18 -15 d 18 -16 d 18 -16 d 17 -17 d 18 -17 d 36 -37 d 36
 -40 d 36 -44 d 36 -46 d 36 -50 d 35 -54 d -35 54 d -36 50 d -36 46 d -36 44 d -36 40 d -36 37 d -18 17 d -17 17 d -18 16 d -18 16 d -18 15 d -18 15 d -18 15 d -18 15 d -18 14 d -18 14 d -18 14 d -18 13 d -35 24 d -18 10 d -18 9 d -9 3 d -9 4 d -9 3
 d -9 2 d -9 2 d -9 1 d -9 1 d -18 X -9 -1 d -9 -1 d -9 -2 d -9 -2 d -9 -3 d -9 -3 d -9 -4 d -18 -8 d -17 -10 d -36 -24 d -18 -13 d -18 -13 d -18 -14 d -18 -15 d -18 -15 d -18 -14 d -18 -14 d -18 -13 d -18 -12 d -17 -12 d -18 -11 d -18 -11 d -36 -20
 d -36 -19 d -36 -18 d -36 -17 d -35 -17 d -36 -16 d -36 -16 d -36 -15 d -36 -15 d -36 -14 d -35 -14 d -36 -14 d -36 -13 d -36 -13 d -36 -12 d -36 -13 d -35 -11 d -36 -12 d -36 -11 d -36 -11 d -36 -11 d -36 -11 d -35 -10 d -36 -10 d f 0 0 1 c 9 lw
 black 0 0 1 c 363 862 m 36 10 d 35 10 d 36 11 d 36 11 d 36 11 d 36 11 d 36 12 d 35 11 d 36 13 d 36 12 d 36 13 d 36 13 d 36 14 d 35 14 d 36 14 d 36 15 d 36 15 d 36 16 d 36 16 d 35 17 d 36 17 d 36 18 d 36 19 d 36 20 d 18 11 d 18 11 d 17 12 d 18 12 d
 18 13 d 18 14 d 18 14 d 18 15 d 18 15 d 18 14 d 18 13 d 18 13 d 36 24 d 17 10 d 18 8 d 9 4 d 9 3 d 9 3 d 9 2 d 9 2 d 9 1 d 9 1 d 18 X 9 -1 d 9 -1 d 9 -2 d 9 -2 d 9 -3 d 9 -4 d 9 -3 d 18 -9 d 18 -10 d 35 -24 d 18 -13 d 18 -14 d 18 -14 d 18 -14 d 18
 -15 d 18 -15 d 18 -15 d 18 -15 d 18 -16 d 18 -16 d 17 -17 d 18 -17 d 36 -37 d 36 -40 d 36 -44 d 36 -46 d 36 -50 d 35 -54 d s black 3 lw 381 944 m -18 X s 363 944 m cl s 381 944 m 18 X s 399 944 m cl s 381 944 m 35 Y s 381 979 m cl s 381 944 m -36 Y
 s 381 908 m cl s 417 901 m -18 X s 399 901 m cl s 417 901 m 17 X s 434 901 m cl s 417 901 m 41 Y s 417 942 m cl s 417 901 m -43 Y s 417 858 m cl s 452 891 m -18 X s 434 891 m cl s 452 891 m 18 X s 470 891 m cl s 452 891 m 43 Y s 452 934 m cl s 452
 891 m -45 Y s 452 846 m cl s 488 901 m -18 X s 470 901 m cl s 488 901 m 18 X s 506 901 m cl s 488 901 m 41 Y s 488 942 m cl s 488 901 m -43 Y s 488 858 m cl s 524 868 m -18 X s 506 868 m cl s 524 868 m 18 X s 542 868 m cl s 524 868 m 47 Y s 524 915
 m cl s 524 868 m -49 Y s 524 819 m cl s 560 944 m -18 X s 542 944 m cl s 560 944 m 18 X s 578 944 m cl s 560 944 m 35 Y s 560 979 m cl s 560 944 m -36 Y s 560 908 m cl s 596 920 m -18 X s 578 920 m cl s 596 920 m 18 X s 614 920 m cl s 596 920 m 38 Y
 s 596 958 m cl s 596 920 m -40 Y s 596 880 m cl s 632 901 m -18 X s 614 901 m cl s 632 901 m 17 X s 649 901 m cl s 632 901 m 41 Y s 632 942 m cl s 632 901 m -43 Y s 632 858 m cl s 667 891 m -18 X s 649 891 m cl s 667 891 m 18 X s 685 891 m cl s 667
 891 m 43 Y s 667 934 m cl s 667 891 m -45 Y s 667 846 m cl s 703 987 m -18 X s 685 987 m cl s 703 987 m 18 X s 721 987 m cl s 703 987 m 30 Y s 703 1017 m cl s 703 987 m -30 Y s 703 957 m cl s 739 987 m -18 X s 721 987 m cl s 739 987 m 18 X s 757 987
 m cl s 739 987 m 30 Y s 739 1017 m cl s 739 987 m -30 Y s 739 957 m cl s 775 951 m -18 X s 757 951 m cl s 775 951 m 18 X s 793 951 m cl s 775 951 m 34 Y s 775 985 m cl s 775 951 m -35 Y s 775 916 m cl s 811 958 m -18 X s 793 958 m cl s 811 958 m 18
 X s 829 958 m cl s 811 958 m 33 Y s 811 991 m cl s 811 958 m -34 Y s 811 924 m cl s 847 1025 m -18 X s 829 1025 m cl s 847 1025 m 17 X s 864 1025 m cl s 847 1025 m 25 Y s 847 1050 m cl s 847 1025 m -26 Y s 847 999 m cl s 882 970 m -18 X s 864 970 m
 cl s 882 970 m 18 X s 900 970 m cl s 882 970 m 32 Y s 882 1002 m cl s 882 970 m -32 Y s 882 938 m cl s 918 1044 m -18 X s 900 1044 m cl s 918 1044 m 18 X s 936 1044 m cl s 918 1044 m 24 Y s 918 1068 m cl s 918 1044 m -24 Y s 918 1020 m cl s 954 1016
 m -18 X s 936 1016 m cl s 954 1016 m 18 X s 972 1016 m cl s 954 1016 m 27 Y s 954 1043 m cl s 954 1016 m -27 Y s 954 989 m cl s 990 1078 m -18 X s 972 1078 m cl s 990 1078 m 18 X s 1008 1078 m cl s 990 1078 m 21 Y s 990 1099 m cl s 990 1078 m -21 Y
 s 990 1057 m cl s 1026 1101 m -18 X s 1008 1101 m cl s 1026 1101 m 18 X s 1044 1101 m cl s 1026 1101 m 20 Y s 1026 1121 m cl s 1026 1101 m -19 Y s 1026 1082 m cl s 1062 1099 m -18 X s 1044 1099 m cl s 1062 1099 m 17 X s 1079 1099 m cl s 1062 1099 m
 19 Y s 1062 1118 m cl s 1062 1099 m -19 Y s 1062 1080 m cl s 1097 1127 m -18 X s 1079 1127 m cl s 1097 1127 m 18 X s 1115 1127 m cl s 1097 1127 m 18 Y s 1097 1145 m cl s 1097 1127 m -17 Y s 1097 1110 m cl s 1133 1163 m -18 X s 1115 1163 m cl s 1133
 1163 m 18 X s 1151 1163 m cl s 1133 1163 m 15 Y s 1133 1178 m cl s 1133 1163 m -15 Y s 1133 1148 m cl s 1169 1178 m -18 X s 1151 1178 m cl s 1169 1178 m 18 X s 1187 1178 m cl s 1169 1178 m 13 Y s 1169 1191 m cl s 1169 1178 m -14 Y s 1169 1164 m cl s
 1205 1209 m -18 X s 1187 1209 m cl s 1205 1209 m 18 X s 1223 1209 m cl s 1205 1209 m 13 Y s 1205 1222 m cl s 1205 1209 m -12 Y s 1205 1197 m cl s 1241 1230 m -18 X s 1223 1230 m cl s 1241 1230 m 18 X s 1259 1230 m cl s 1241 1230 m 12 Y s 1241 1242 m
 cl s 1241 1230 m -11 Y s 1241 1219 m cl s 1276 1243 m -17 X s 1259 1243 m cl s 1276 1243 m 18 X s 1294 1243 m cl s 1276 1243 m 11 Y s 1276 1254 m cl s 1276 1243 m -11 Y s 1276 1232 m cl s 1312 1262 m -18 X s 1294 1262 m cl s 1312 1262 m 18 X s 1330
 1262 m cl s 1312 1262 m 10 Y s 1312 1272 m cl s 1312 1262 m -10 Y s 1312 1252 m cl s 1348 1271 m -18 X s 1330 1271 m cl s 1348 1271 m 18 X s 1366 1271 m cl s 1348 1271 m 10 Y s 1348 1281 m cl s 1348 1271 m -9 Y s 1348 1262 m cl s 1384 1300 m -18 X s
 1366 1300 m cl s 1384 1300 m 18 X s 1402 1300 m cl s 1384 1300 m 9 Y s 1384 1309 m cl s 1384 1300 m -9 Y s 1384 1291 m cl s 1420 1345 m -18 X s 1402 1345 m cl s 1420 1345 m 18 X s 1438 1345 m cl s 1420 1345 m 7 Y s 1420 1352 m cl s 1420 1345 m -8 Y
 s 1420 1337 m cl s 1456 1366 m -18 X s 1438 1366 m cl s 1456 1366 m 18 X s 1474 1366 m cl s 1456 1366 m 7 Y s 1456 1373 m cl s 1456 1366 m -7 Y s 1456 1359 m cl s 1491 1386 m -17 X s 1474 1386 m cl s 1491 1386 m 18 X s 1509 1386 m cl s 1491 1386 m 7
 Y s 1491 1393 m cl s 1491 1386 m -6 Y s 1491 1380 m cl s 1527 1395 m -18 X s 1509 1395 m cl s 1527 1395 m 18 X s 1545 1395 m cl s 1527 1395 m 6 Y s 1527 1401 m cl s 1527 1395 m -6 Y s 1527 1389 m cl s 1563 1415 m -18 X s 1545 1415 m cl s 1563 1415 m
 18 X s 1581 1415 m cl s 1563 1415 m 6 Y s 1563 1421 m cl s 1563 1415 m -6 Y s 1563 1409 m cl s 1599 1407 m -18 X s 1581 1407 m cl s 1599 1407 m 18 X s 1617 1407 m cl s 1599 1407 m 6 Y s 1599 1413 m cl s 1599 1407 m -6 Y s 1599 1401 m cl s 1635 1412
 m -18 X s 1617 1412 m cl s 1635 1412 m 18 X s 1653 1412 m cl s 1635 1412 m 6 Y s 1635 1418 m cl s 1635 1412 m -6 Y s 1635 1406 m cl s 1671 1383 m -18 X s 1653 1383 m cl s 1671 1383 m 18 X s 1689 1383 m cl s 1671 1383 m 7 Y s 1671 1390 m cl s 1671
 1383 m -6 Y s 1671 1377 m cl s 1706 1360 m -17 X s 1689 1360 m cl s 1706 1360 m 18 X s 1724 1360 m cl s 1706 1360 m 7 Y s 1706 1367 m cl s 1706 1360 m -7 Y s 1706 1353 m cl s 1742 1340 m -18 X s 1724 1340 m cl s 1742 1340 m 18 X s 1760 1340 m cl s
 1742 1340 m 8 Y s 1742 1348 m cl s 1742 1340 m -7 Y s 1742 1333 m cl s 1778 1317 m -18 X s 1760 1317 m cl s 1778 1317 m 18 X s 1796 1317 m cl s 1778 1317 m 8 Y s 1778 1325 m cl s 1778 1317 m -9 Y s 1778 1308 m cl s 1814 1273 m -18 X s 1796 1273 m cl
 s 1814 1273 m 18 X s 1832 1273 m cl s 1814 1273 m 10 Y s 1814 1283 m cl s 1814 1273 m -10 Y s 1814 1263 m cl s 1850 1234 m -18 X s 1832 1234 m cl s 1850 1234 m 18 X s 1868 1234 m cl s 1850 1234 m 11 Y s 1850 1245 m cl s 1850 1234 m -11 Y s 1850 1223
 m cl s 1886 1212 m -18 X s 1868 1212 m cl s 1886 1212 m 18 X s 1904 1212 m cl s 1886 1212 m 13 Y s 1886 1225 m cl s 1886 1212 m -12 Y s 1886 1200 m cl s 1921 1187 m -17 X s 1904 1187 m cl s 1921 1187 m 18 X s 1939 1187 m cl s 1921 1187 m 13 Y s 1921
 1200 m cl s 1921 1187 m -13 Y s 1921 1174 m cl s 1957 1115 m -18 X s 1939 1115 m cl s 1957 1115 m 18 X s 1975 1115 m cl s 1957 1115 m 18 Y s 1957 1133 m cl s 1957 1115 m -18 Y s 1957 1097 m cl s 1993 1092 m -18 X s 1975 1092 m cl s 1993 1092 m 18 X
 s 2011 1092 m cl s 1993 1092 m 20 Y s 1993 1112 m cl s 1993 1092 m -20 Y s 1993 1072 m cl s 2029 1051 m -18 X s 2011 1051 m cl s 2029 1051 m 18 X s 2047 1051 m cl s 2029 1051 m 23 Y s 2029 1074 m cl s 2029 1051 m -24 Y s 2029 1027 m cl s 2065 1033 m
 -18 X s 2047 1033 m cl s 2065 1033 m 18 X s 2083 1033 m cl s 2065 1033 m 25 Y s 2065 1058 m cl s 2065 1033 m -26 Y s 2065 1007 m cl s 2101 1003 m -18 X s 2083 1003 m cl s 2101 1003 m 18 X s 2119 1003 m cl s 2101 1003 m 27 Y s 2101 1030 m cl s 2101
 1003 m -29 Y s 2101 974 m cl s 2136 993 m -17 X s 2119 993 m cl s 2136 993 m 18 X s 2154 993 m cl s 2136 993 m 29 Y s 2136 1022 m cl s 2136 993 m -30 Y s 2136 963 m cl s 381 944 417 901 452 891 488 901 524 868 560 944 596 920 632 901 667 891 703 987
 739 987 775 951 811 958 847 1025 882 970 918 1044 954 1016 990 1078 1026 1101 1062 1099 1097 1127 1133 1163 1169 1178 1205 1209 1241 1230 1276 1243 1312 1262 1348 1271 1384 1300 1420 1345 1456 1366 1491 1386 1527 1395 1563 1415 1599 1407 1635 1412
 1671 1383 1706 1360 1742 1340 1778 1317 1814 1273 1850 1234 1886 1212 1921 1187 1957 1115 1993 1092 2029 1051 2065 1033 2101 1003 2136 993 50 { m20} R 0.52 0.76 0.64 c[ 4 8] 0 sd 9 lw black 0.52 0.76 0.64 c 363 862 m 36 10 d 35 10 d 36 11 d 36 11 d
 36 11 d 36 11 d 36 12 d 35 11 d 36 13 d 36 12 d 36 13 d 36 13 d 36 14 d 35 14 d 36 14 d 36 15 d 36 15 d 36 16 d 36 16 d 35 17 d 36 17 d 36 18 d 36 19 d 18 10 d 18 9 d 18 10 d 18 11 d 17 10 d 18 11 d 18 11 d 18 11 d 36 22 d 36 19 d 18 8 d 18 8 d 18 6
 d 18 6 d 17 4 d 18 4 d 18 3 d 18 2 d 18 1 d 18 1 d 18 -1 d 18 -1 d 18 -2 d 18 -3 d 18 -4 d 18 -5 d 17 -6 d 18 -6 d 18 -7 d 18 -9 d 36 -19 d 36 -22 d 36 -26 d 18 -14 d 18 -16 d 17 -16 d 18 -16 d 18 -18 d 18 -19 d 18 -19 d 18 -20 d 18 -22 d 18 -22 d
 18 -23 d 18 -23 d 36 -50 d 35 -54 d s 0.54 0.66 0.63 c black 0.54 0.66 0.63 c 1257 634 m 2 6 d s 1259 640 m 17 69 d 18 65 d 18 61 d 18 58 d 9 27 d 9 26 d 9 25 d 9 24 d 9 23 d 9 23 d 9 21 d 9 20 d 9 19 d 9 19 d 9 17 d 9 16 d 18 30 d 18 25 d 17 22 d 9
 9 d 9 8 d 9 8 d 9 6 d 9 5 d 9 5 d 9 3 d 9 2 d 9 2 d 18 X 9 -2 d 9 -2 d 9 -4 d 9 -5 d 9 -5 d 9 -7 d 9 -7 d 9 -9 d 9 -9 d 18 -22 d 17 -26 d 18 -30 d 9 -16 d 9 -18 d 9 -18 d 9 -20 d 9 -20 d 9 -21 d 9 -23 d 9 -23 d 9 -25 d 9 -25 d 9 -26 d 9 -28 d 18 -57
 d 18 -62 d 18 -65 d 17 -69 d s black[  ] 0 sd 3 lw 363 634 m 1791 X s 406 659 m -25 Y s 449 646 m -12 Y s 492 646 m -12 Y s 535 646 m -12 Y s 578 659 m -25 Y s 621 646 m -12 Y s 664 646 m -12 Y s 707 646 m -12 Y s 750 659 m -25 Y s 793 646 m -12 Y s
 837 646 m -12 Y s 880 646 m -12 Y s 923 659 m -25 Y s 966 646 m -12 Y s 1009 646 m -12 Y s 1052 646 m -12 Y s 1095 659 m -25 Y s 1138 646 m -12 Y s 1181 646 m -12 Y s 1224 646 m -12 Y s 1267 659 m -25 Y s 1310 646 m -12 Y s 1353 646 m -12 Y s 1396
 646 m -12 Y s 1439 659 m -25 Y s 1483 646 m -12 Y s 1526 646 m -12 Y s 1569 646 m -12 Y s 1612 659 m -25 Y s 1655 646 m -12 Y s 1698 646 m -12 Y s 1741 646 m -12 Y s 1784 659 m -25 Y s 1827 646 m -12 Y s 1870 646 m -12 Y s 1913 646 m -12 Y s 1956
 659 m -25 Y s 1999 646 m -12 Y s 2042 646 m -12 Y s 2085 646 m -12 Y s 2128 659 m -25 Y s 406 659 m -25 Y s 363 646 m -12 Y s 2128 659 m -25 Y s 363 1484 m 1791 X s 406 1459 m 25 Y s 449 1471 m 13 Y s 492 1471 m 13 Y s 535 1471 m 13 Y s 578 1459 m
 25 Y s 621 1471 m 13 Y s 664 1471 m 13 Y s 707 1471 m 13 Y s 750 1459 m 25 Y s 793 1471 m 13 Y s 837 1471 m 13 Y s 880 1471 m 13 Y s 923 1459 m 25 Y s 966 1471 m 13 Y s 1009 1471 m 13 Y s 1052 1471 m 13 Y s 1095 1459 m 25 Y s 1138 1471 m 13 Y s 1181
 1471 m 13 Y s 1224 1471 m 13 Y s 1267 1459 m 25 Y s 1310 1471 m 13 Y s 1353 1471 m 13 Y s 1396 1471 m 13 Y s 1439 1459 m 25 Y s 1483 1471 m 13 Y s 1526 1471 m 13 Y s 1569 1471 m 13 Y s 1612 1459 m 25 Y s 1655 1471 m 13 Y s 1698 1471 m 13 Y s 1741
 1471 m 13 Y s 1784 1459 m 25 Y s 1827 1471 m 13 Y s 1870 1471 m 13 Y s 1913 1471 m 13 Y s 1956 1459 m 25 Y s 1999 1471 m 13 Y s 2042 1471 m 13 Y s 2085 1471 m 13 Y s 2128 1459 m 25 Y s 406 1459 m 25 Y s 363 1471 m 13 Y s 2128 1459 m 25 Y s 363 634 m
 850 Y s 390 687 m -27 X s 390 727 m -27 X s 390 758 m -27 X s 390 783 m -27 X s 390 805 m -27 X s 390 823 m -27 X s 390 840 m -27 X s 417 854 m -54 X s 390 951 m -27 X s 390 1007 m -27 X s 390 1047 m -27 X s 390 1078 m -27 X s 390 1104 m -27 X s 390
 1125 m -27 X s 390 1144 m -27 X s 390 1160 m -27 X s 417 1175 m -54 X s 390 1271 m -27 X s 390 1328 m -27 X s 390 1368 m -27 X s 390 1399 m -27 X s 390 1424 m -27 X s 390 1446 m -27 X s 390 1464 m -27 X s 390 1481 m -27 X s 2154 634 m 850 Y s 2127
 687 m 27 X s 2127 727 m 27 X s 2127 758 m 27 X s 2127 783 m 27 X s 2127 805 m 27 X s 2127 823 m 27 X s 2127 840 m 27 X s 2101 854 m 53 X s 2127 951 m 27 X s 2127 1007 m 27 X s 2127 1047 m 27 X s 2127 1078 m 27 X s 2127 1104 m 27 X s 2127 1125 m 27 X
 s 2127 1144 m 27 X s 2127 1160 m 27 X s 2101 1175 m 53 X s 2127 1271 m 27 X s 2127 1328 m 27 X s 2127 1368 m 27 X s 2127 1399 m 27 X s 2127 1424 m 27 X s 2127 1446 m 27 X s 2127 1464 m 27 X s 2127 1481 m 27 X s
 gsave  2268 1077 0 461 C 677.708 1215.31 t 0 r /Helvetica findfont 58.7189 sf 0 0 m (4mu) show NC gr  1 1 1 c 453 161 454 1269 bf black
 gsave  2268 1077 0 461 C 566.929 1371.71 t 0 r /Helvetica-Bold findfont 48.9324 sf 0 0 m (MC15) show NC gr  510 1390 m20
 gsave  2268 1077 0 461 C 566.929 1293.51 t 0 r /Helvetica-Bold findfont 48.9324 sf 0 0 m (Projection of Signal pdf) show NC gr  0 0 1 c 9 lw 471 1309 m 79 X s black 3 lw 1 1 1 c 2268 461 0 0 bf black 1 1 1 c 1791 364 363 74 bf black 1791 364 363 74
 bl 363 74 m 1791 X s
 gsave  2268 461 0 0 C 1915.83 13.0329 t 0 r /Helvetica findfont 22.9045 sf 0 0 m (4l Invariant Mass \(GeV\)) show NC gr  406 85 m -11 Y s 449 79 m -5 Y s 492 79 m -5 Y s 535 79 m -5 Y s 578 85 m -11 Y s 621 79 m -5 Y s 664 79 m -5 Y s 707 79 m -5 Y
 s 750 85 m -11 Y s 793 79 m -5 Y s 837 79 m -5 Y s 880 79 m -5 Y s 923 85 m -11 Y s 966 79 m -5 Y s 1009 79 m -5 Y s 1052 79 m -5 Y s 1095 85 m -11 Y s 1138 79 m -5 Y s 1181 79 m -5 Y s 1224 79 m -5 Y s 1267 85 m -11 Y s 1310 79 m -5 Y s 1353 79 m
 -5 Y s 1396 79 m -5 Y s 1439 85 m -11 Y s 1483 79 m -5 Y s 1526 79 m -5 Y s 1569 79 m -5 Y s 1612 85 m -11 Y s 1655 79 m -5 Y s 1698 79 m -5 Y s 1741 79 m -5 Y s 1784 85 m -11 Y s 1827 79 m -5 Y s 1870 79 m -5 Y s 1913 79 m -5 Y s 1956 85 m -11 Y s
 1999 79 m -5 Y s 2042 79 m -5 Y s 2085 79 m -5 Y s 2128 85 m -11 Y s 406 85 m -11 Y s 363 79 m -5 Y s 2128 85 m -11 Y s
 gsave  2268 461 0 0 C 384.469 55.3896 t 0 r /Helvetica findfont 22.9045 sf 0 0 m (860) show NC gr 
 gsave  2268 461 0 0 C 557.154 55.3896 t 0 r /Helvetica findfont 22.9045 sf 0 0 m (880) show NC gr 
 gsave  2268 461 0 0 C 729.84 55.3896 t 0 r /Helvetica findfont 22.9045 sf 0 0 m (900) show NC gr 
 gsave  2268 461 0 0 C 902.525 55.3896 t 0 r /Helvetica findfont 22.9045 sf 0 0 m (920) show NC gr 
 gsave  2268 461 0 0 C 1075.21 55.3896 t 0 r /Helvetica findfont 22.9045 sf 0 0 m (940) show NC gr 
 gsave  2268 461 0 0 C 1244.64 55.3896 t 0 r /Helvetica findfont 22.9045 sf 0 0 m (960) show NC gr 
 gsave  2268 461 0 0 C 1417.32 55.3896 t 0 r /Helvetica findfont 22.9045 sf 0 0 m (980) show NC gr 
 gsave  2268 461 0 0 C 1583.49 55.3896 t 0 r /Helvetica findfont 22.9045 sf 0 0 m (1000) show NC gr 
 gsave  2268 461 0 0 C 1756.18 55.3896 t 0 r /Helvetica findfont 22.9045 sf 0 0 m (1020) show NC gr 
 gsave  2268 461 0 0 C 1928.86 55.3896 t 0 r /Helvetica findfont 22.9045 sf 0 0 m (1040) show NC gr 
 gsave  2268 461 0 0 C 2101.55 55.3896 t 0 r /Helvetica findfont 22.9045 sf 0 0 m (1060) show NC gr  363 438 m 1791 X s 406 427 m 11 Y s 449 433 m 5 Y s 492 433 m 5 Y s 535 433 m 5 Y s 578 427 m 11 Y s 621 433 m 5 Y s 664 433 m 5 Y s 707 433 m 5 Y s
 750 427 m 11 Y s 793 433 m 5 Y s 837 433 m 5 Y s 880 433 m 5 Y s 923 427 m 11 Y s 966 433 m 5 Y s 1009 433 m 5 Y s 1052 433 m 5 Y s 1095 427 m 11 Y s 1138 433 m 5 Y s 1181 433 m 5 Y s 1224 433 m 5 Y s 1267 427 m 11 Y s 1310 433 m 5 Y s 1353 433 m 5
 Y s 1396 433 m 5 Y s 1439 427 m 11 Y s 1483 433 m 5 Y s 1526 433 m 5 Y s 1569 433 m 5 Y s 1612 427 m 11 Y s 1655 433 m 5 Y s 1698 433 m 5 Y s 1741 433 m 5 Y s 1784 427 m 11 Y s 1827 433 m 5 Y s 1870 433 m 5 Y s 1913 433 m 5 Y s 1956 427 m 11 Y s
 1999 433 m 5 Y s 2042 433 m 5 Y s 2085 433 m 5 Y s 2128 427 m 11 Y s 406 427 m 11 Y s 363 433 m 5 Y s 2128 427 m 11 Y s 363 74 m 364 Y s 417 74 m -54 X s 390 81 m -27 X s 390 88 m -27 X s 390 96 m -27 X s 390 103 m -27 X s 417 110 m -54 X s 390 118
 m -27 X s 390 125 m -27 X s 390 132 m -27 X s 390 139 m -27 X s 417 147 m -54 X s 390 154 m -27 X s 390 161 m -27 X s 390 169 m -27 X s 390 176 m -27 X s 417 183 m -54 X s 390 190 m -27 X s 390 198 m -27 X s 390 205 m -27 X s 390 212 m -27 X s 417
 220 m -54 X s 390 227 m -27 X s 390 234 m -27 X s 390 241 m -27 X s 390 249 m -27 X s 417 256 m -54 X s 390 263 m -27 X s 390 271 m -27 X s 390 278 m -27 X s 390 285 m -27 X s 417 293 m -54 X s 390 300 m -27 X s 390 307 m -27 X s 390 314 m -27 X s
 390 322 m -27 X s 417 329 m -54 X s 390 336 m -27 X s 390 344 m -27 X s 390 351 m -27 X s 390 358 m -27 X s 417 365 m -54 X s 390 373 m -27 X s 390 380 m -27 X s 390 387 m -27 X s 390 395 m -27 X s 417 402 m -54 X s 390 409 m -27 X s 390 416 m -27 X
 s 390 424 m -27 X s 390 431 m -27 X s 417 438 m -54 X s
 gsave  2268 461 0 0 C 329.08 65.1643 t 0 r /Helvetica findfont 22.9045 sf 0 0 m (\2555) show NC gr 
 gsave  2268 461 0 0 C 329.08 101.005 t 0 r /Helvetica findfont 22.9045 sf 0 0 m (\2554) show NC gr 
 gsave  2268 461 0 0 C 329.08 140.103 t 0 r /Helvetica findfont 22.9045 sf 0 0 m (\2553) show NC gr 
 gsave  2268 461 0 0 C 329.08 175.944 t 0 r /Helvetica findfont 22.9045 sf 0 0 m (\2552) show NC gr 
 gsave  2268 461 0 0 C 332.338 211.784 t 0 r /Helvetica findfont 22.9045 sf 0 0 m (\2551) show NC gr 
 gsave  2268 461 0 0 C 335.596 247.624 t 0 r /Helvetica findfont 22.9045 sf 0 0 m (0) show NC gr 
 gsave  2268 461 0 0 C 338.854 283.465 t 0 r /Helvetica findfont 22.9045 sf 0 0 m (1) show NC gr 
 gsave  2268 461 0 0 C 335.596 319.305 t 0 r /Helvetica findfont 22.9045 sf 0 0 m (2) show NC gr 
 gsave  2268 461 0 0 C 335.596 358.403 t 0 r /Helvetica findfont 22.9045 sf 0 0 m (3) show NC gr 
 gsave  2268 461 0 0 C 335.596 394.244 t 0 r /Helvetica findfont 22.9045 sf 0 0 m (4) show NC gr 
 gsave  2268 461 0 0 C 335.596 430.084 t 0 r /Helvetica findfont 22.9045 sf 0 0 m (5) show NC gr  2154 74 m 364 Y s 2101 74 m 53 X s 2127 81 m 27 X s 2127 88 m 27 X s 2127 96 m 27 X s 2127 103 m 27 X s 2101 110 m 53 X s 2127 118 m 27 X s 2127 125 m
 27 X s 2127 132 m 27 X s 2127 139 m 27 X s 2101 147 m 53 X s 2127 154 m 27 X s 2127 161 m 27 X s 2127 169 m 27 X s 2127 176 m 27 X s 2101 183 m 53 X s 2127 190 m 27 X s 2127 198 m 27 X s 2127 205 m 27 X s 2127 212 m 27 X s 2101 220 m 53 X s 2127 227
 m 27 X s 2127 234 m 27 X s 2127 241 m 27 X s 2127 249 m 27 X s 2101 256 m 53 X s 2127 263 m 27 X s 2127 271 m 27 X s 2127 278 m 27 X s 2127 285 m 27 X s 2101 293 m 53 X s 2127 300 m 27 X s 2127 307 m 27 X s 2127 314 m 27 X s 2127 322 m 27 X s 2101
 329 m 53 X s 2127 336 m 27 X s 2127 344 m 27 X s 2127 351 m 27 X s 2127 358 m 27 X s 2101 365 m 53 X s 2127 373 m 27 X s 2127 380 m 27 X s 2127 387 m 27 X s 2127 395 m 27 X s 2101 402 m 53 X s 2127 409 m 27 X s 2127 416 m 27 X s 2127 424 m 27 X s
 2127 431 m 27 X s 2101 438 m 53 X s 6 lw 0.2 0.8 0.2 c black 3 lw 0.2 0.8 0.2 c 363 256 m 68 Y 36 X -46 Y 35 X -19 Y 72 X -35 Y 36 X 57 Y 36 X -35 Y 36 X -28 Y 35 X -22 Y 36 X 84 Y 36 X -15 Y 36 X -56 Y 36 X -11 Y 36 X 64 Y 35 X -90 Y 36 X 76 Y 36 X
 -64 Y 36 X 69 Y 36 X 14 Y 36 X -36 Y 35 X 20 Y 36 X 43 Y 36 X -7 Y 36 X 36 Y 36 X 8 Y 36 X -28 Y 35 X -18 Y 36 X -70 Y 36 X -8 Y 36 X 76 Y 36 X -22 Y 36 X -4 Y 35 X -37 Y 36 X 72 Y 36 X -46 Y 36 X 79 Y 36 X -79 Y 36 X -8 Y 35 X 28 Y 36 X 19 Y 36 X
 -60 Y 36 X -25 Y 36 X 34 Y 36 X 22 Y 35 X -80 Y 36 X 39 Y 36 X 7 Y 36 X 41 Y 36 X 23 Y 36 X 40 Y 35 X -70 Y f 6 lw black 0.2 0.8 0.2 c black 363 324 m 36 X -46 Y 35 X -19 Y 72 X -35 Y 36 X 57 Y 36 X -35 Y 36 X -28 Y 35 X -22 Y 36 X 84 Y 36 X -15 Y
 36 X -56 Y 36 X -11 Y 36 X 64 Y 35 X -90 Y 36 X 76 Y 36 X -64 Y 36 X 69 Y 36 X 14 Y 36 X -36 Y 35 X 20 Y 36 X 43 Y 36 X -7 Y 36 X 36 Y 36 X 8 Y 36 X -28 Y 35 X -18 Y 36 X -70 Y 36 X -8 Y 36 X 76 Y 36 X -22 Y 36 X -4 Y 35 X -37 Y 36 X 72 Y 36 X -46 Y
 36 X 79 Y 36 X -79 Y 36 X -8 Y 35 X 28 Y 36 X 19 Y 36 X -60 Y 36 X -25 Y 36 X 34 Y 36 X 22 Y 35 X -80 Y 36 X 39 Y 36 X 7 Y 36 X 41 Y 36 X 23 Y 36 X 40 Y 35 X s 3 lw 363 74 m 1791 X s 406 85 m -11 Y s 449 79 m -5 Y s 492 79 m -5 Y s 535 79 m -5 Y s
 578 85 m -11 Y s 621 79 m -5 Y s 664 79 m -5 Y s 707 79 m -5 Y s 750 85 m -11 Y s 793 79 m -5 Y s 837 79 m -5 Y s 880 79 m -5 Y s 923 85 m -11 Y s 966 79 m -5 Y s 1009 79 m -5 Y s 1052 79 m -5 Y s 1095 85 m -11 Y s 1138 79 m -5 Y s 1181 79 m -5 Y s
 1224 79 m -5 Y s 1267 85 m -11 Y s 1310 79 m -5 Y s 1353 79 m -5 Y s 1396 79 m -5 Y s 1439 85 m -11 Y s 1483 79 m -5 Y s 1526 79 m -5 Y s 1569 79 m -5 Y s 1612 85 m -11 Y s 1655 79 m -5 Y s 1698 79 m -5 Y s 1741 79 m -5 Y s 1784 85 m -11 Y s 1827 79
 m -5 Y s 1870 79 m -5 Y s 1913 79 m -5 Y s 1956 85 m -11 Y s 1999 79 m -5 Y s 2042 79 m -5 Y s 2085 79 m -5 Y s 2128 85 m -11 Y s 406 85 m -11 Y s 363 79 m -5 Y s 2128 85 m -11 Y s 363 438 m 1791 X s 406 427 m 11 Y s 449 433 m 5 Y s 492 433 m 5 Y s
 535 433 m 5 Y s 578 427 m 11 Y s 621 433 m 5 Y s 664 433 m 5 Y s 707 433 m 5 Y s 750 427 m 11 Y s 793 433 m 5 Y s 837 433 m 5 Y s 880 433 m 5 Y s 923 427 m 11 Y s 966 433 m 5 Y s 1009 433 m 5 Y s 1052 433 m 5 Y s 1095 427 m 11 Y s 1138 433 m 5 Y s
 1181 433 m 5 Y s 1224 433 m 5 Y s 1267 427 m 11 Y s 1310 433 m 5 Y s 1353 433 m 5 Y s 1396 433 m 5 Y s 1439 427 m 11 Y s 1483 433 m 5 Y s 1526 433 m 5 Y s 1569 433 m 5 Y s 1612 427 m 11 Y s 1655 433 m 5 Y s 1698 433 m 5 Y s 1741 433 m 5 Y s 1784 427
 m 11 Y s 1827 433 m 5 Y s 1870 433 m 5 Y s 1913 433 m 5 Y s 1956 427 m 11 Y s 1999 433 m 5 Y s 2042 433 m 5 Y s 2085 433 m 5 Y s 2128 427 m 11 Y s 406 427 m 11 Y s 363 433 m 5 Y s 2128 427 m 11 Y s 363 74 m 364 Y s 417 74 m -54 X s 390 81 m -27 X s
 390 88 m -27 X s 390 96 m -27 X s 390 103 m -27 X s 417 110 m -54 X s 390 118 m -27 X s 390 125 m -27 X s 390 132 m -27 X s 390 139 m -27 X s 417 147 m -54 X s 390 154 m -27 X s 390 161 m -27 X s 390 169 m -27 X s 390 176 m -27 X s 417 183 m -54 X s
 390 190 m -27 X s 390 198 m -27 X s 390 205 m -27 X s 390 212 m -27 X s 417 220 m -54 X s 390 227 m -27 X s 390 234 m -27 X s 390 241 m -27 X s 390 249 m -27 X s 417 256 m -54 X s 390 263 m -27 X s 390 271 m -27 X s 390 278 m -27 X s 390 285 m -27 X
 s 417 293 m -54 X s 390 300 m -27 X s 390 307 m -27 X s 390 314 m -27 X s 390 322 m -27 X s 417 329 m -54 X s 390 336 m -27 X s 390 344 m -27 X s 390 351 m -27 X s 390 358 m -27 X s 417 365 m -54 X s 390 373 m -27 X s 390 380 m -27 X s 390 387 m -27
 X s 390 395 m -27 X s 417 402 m -54 X s 390 409 m -27 X s 390 416 m -27 X s 390 424 m -27 X s 390 431 m -27 X s 417 438 m -54 X s 2154 74 m 364 Y s 2101 74 m 53 X s 2127 81 m 27 X s 2127 88 m 27 X s 2127 96 m 27 X s 2127 103 m 27 X s 2101 110 m 53 X
 s 2127 118 m 27 X s 2127 125 m 27 X s 2127 132 m 27 X s 2127 139 m 27 X s 2101 147 m 53 X s 2127 154 m 27 X s 2127 161 m 27 X s 2127 169 m 27 X s 2127 176 m 27 X s 2101 183 m 53 X s 2127 190 m 27 X s 2127 198 m 27 X s 2127 205 m 27 X s 2127 212 m 27
 X s 2101 220 m 53 X s 2127 227 m 27 X s 2127 234 m 27 X s 2127 241 m 27 X s 2127 249 m 27 X s 2101 256 m 53 X s 2127 263 m 27 X s 2127 271 m 27 X s 2127 278 m 27 X s 2127 285 m 27 X s 2101 293 m 53 X s 2127 300 m 27 X s 2127 307 m 27 X s 2127 314 m
 27 X s 2127 322 m 27 X s 2101 329 m 53 X s 2127 336 m 27 X s 2127 344 m 27 X s 2127 351 m 27 X s 2127 358 m 27 X s 2101 365 m 53 X s 2127 373 m 27 X s 2127 380 m 27 X s 2127 387 m 27 X s 2127 395 m 27 X s 2101 402 m 53 X s 2127 409 m 27 X s 2127 416
 m 27 X s 2127 424 m 27 X s 2127 431 m 27 X s 2101 438 m 53 X s
 gr  gr showpage
end
%%EOF
