%!PS-Adobe-2.0 EPSF-2.0
%%BoundingBox:  0 0 567 384
%%Title: H4l2015_plotfit/gg_mass_signal_700_fixed_H4l_2mu2e.eps: 
%%Creator: ROOT Version 5.34/10
%%CreationDate: Thu Feb 16 15:43:04 2017
%%EndComments
%%BeginProlog
80 dict begin
/s {stroke} def /l {lineto} def /m {moveto} def /t {translate} def
/r {rotate} def /rl {roll}  def /R {repeat} def
/d {rlineto} def /rm {rmoveto} def /gr {grestore} def /f {eofill} def
/c {setrgbcolor} def /black {0 setgray} def /sd {setdash} def
/cl {closepath} def /sf {scalefont setfont} def /lw {setlinewidth} def
/box {m dup 0 exch d exch 0 d 0 exch neg d cl} def
/NC{systemdict begin initclip end}def/C{NC box clip newpath}def
/bl {box s} def /bf {box f} def /Y { 0 exch d} def /X { 0 d} def 
/K {{pop pop 0 moveto} exch kshow} bind def
/ita {/ang 15 def gsave [1 0 ang dup sin exch cos div 1 0 0] concat} def 
/mp {newpath /y exch def /x exch def} def
/side {[w .77 mul w .23 mul] .385 w mul sd w 0 l currentpoint t -144 r} def
/mr {mp x y w2 0 360 arc} def /m24 {mr s} def /m20 {mr f} def
/mb {mp x y w2 add m w2 neg 0 d 0 w neg d w 0 d 0 w d cl} def
/mt {mp x y w2 add m w2 neg w neg d w 0 d cl} def
/m21 {mb f} def /m25 {mb s} def /m22 {mt f} def /m26{mt s} def
/m23 {mp x y w2 sub m w2 w d w neg 0 d cl f} def
/m27 {mp x y w2 add m w3 neg w2 neg d w3 w2 neg d w3 w2 d cl s} def
/m28 {mp x w2 sub y w2 sub w3 add m w3 0 d  0 w3 neg d w3 0 d 0 w3 d w3 0 d  0 w3 d w3 neg 0 d 0 w3 d w3 neg 0 d 0 w3 neg d w3 neg 0 d cl s } def
/m29 {mp gsave x w2 sub y w2 add w3 sub m currentpoint t 4 {side} repeat cl fill gr} def
/m30 {mp gsave x w2 sub y w2 add w3 sub m currentpoint t 4 {side} repeat cl s gr} def
/m31 {mp x y w2 sub m 0 w d x w2 sub y m w 0 d x w2 sub y w2 add m w w neg d x w2 sub y w2 sub m w w d s} def
/m32 {mp x y w2 sub m w2 w d w neg 0 d cl s} def
/m33 {mp x y w2 add m w3 neg w2 neg d w3 w2 neg d w3 w2 d cl f} def
/m34 {mp x w2 sub y w2 sub w3 add m w3 0 d  0 w3 neg d w3 0 d 0 w3 d w3 0 d  0 w3 d w3 neg 0 d 0 w3 d w3 neg 0 d 0 w3 neg d w3 neg 0 d cl f } def
/m2 {mp x y w2 sub m 0 w d x w2 sub y m w 0 d s} def
/m5 {mp x w2 sub y w2 sub m w w d x w2 sub y w2 add m w w neg d s} def
/reEncode {exch findfont dup length dict begin {1 index /FID eq  {pop pop} {def} ifelse } forall /Encoding exch def currentdict end dup /FontName get exch definefont pop } def [/Times-Bold /Times-Italic /Times-BoldItalic /Helvetica /Helvetica-Oblique
 /Helvetica-Bold /Helvetica-BoldOblique /Courier /Courier-Oblique /Courier-Bold /Courier-BoldOblique /Times-Roman /AvantGarde-Book /AvantGarde-BookOblique /AvantGarde-Demi /AvantGarde-DemiOblique /Bookman-Demi /Bookman-DemiItalic /Bookman-Light
 /Bookman-LightItalic /Helvetica-Narrow /Helvetica-Narrow-Bold /Helvetica-Narrow-BoldOblique /Helvetica-Narrow-Oblique /NewCenturySchlbk-Roman /NewCenturySchlbk-Bold /NewCenturySchlbk-BoldItalic /NewCenturySchlbk-Italic /Palatino-Bold
 /Palatino-BoldItalic /Palatino-Italic /Palatino-Roman ] {ISOLatin1Encoding reEncode } forall
%%EndProlog
%%BeginSetup
%%EndSetup
newpath  gsave  .25 .25 scale  gsave  0 0 t black[  ] 0 sd 3 lw 1 1 1 c 2268 1538 0 0 bf black 1 1 1 c 2222 738 23 784 bf black 1 1 1 c 2222 739 23 15 bf black 1 1 1 c 2268 1077 0 461 bf black 1 1 1 c 1791 850 363 634 bf black 1791 850 363 634 bl 363
 634 m 1791 X s
 gsave  2268 1077 0 461 C 1642.14 498.507 t 0 r /Helvetica findfont 48.9324 sf 0 0 m (4l Invariant Mass \(GeV\)) show NC gr  363 659 m -25 Y s 423 646 m -12 Y s 482 646 m -12 Y s 542 646 m -12 Y s 602 659 m -25 Y s 661 646 m -12 Y s 721 646 m -12 Y s
 781 646 m -12 Y s 841 659 m -25 Y s 900 646 m -12 Y s 960 646 m -12 Y s 1020 646 m -12 Y s 1079 659 m -25 Y s 1139 646 m -12 Y s 1199 646 m -12 Y s 1259 646 m -12 Y s 1318 659 m -25 Y s 1378 646 m -12 Y s 1438 646 m -12 Y s 1497 646 m -12 Y s 1557
 659 m -25 Y s 1617 646 m -12 Y s 1677 646 m -12 Y s 1736 646 m -12 Y s 1796 659 m -25 Y s 1856 646 m -12 Y s 1915 646 m -12 Y s 1975 646 m -12 Y s 2035 659 m -25 Y s 2035 659 m -25 Y s 2095 646 m -12 Y s 2154 646 m -12 Y s
 gsave  2268 1077 0 461 C 319.305 586.478 t 0 r /Helvetica findfont 48.9324 sf 0 0 m (600) show NC gr 
 gsave  2268 1077 0 461 C 557.154 586.478 t 0 r /Helvetica findfont 48.9324 sf 0 0 m (620) show NC gr 
 gsave  2268 1077 0 461 C 795.004 586.478 t 0 r /Helvetica findfont 48.9324 sf 0 0 m (640) show NC gr 
 gsave  2268 1077 0 461 C 1036.11 586.478 t 0 r /Helvetica findfont 48.9324 sf 0 0 m (660) show NC gr 
 gsave  2268 1077 0 461 C 1273.96 586.478 t 0 r /Helvetica findfont 48.9324 sf 0 0 m (680) show NC gr 
 gsave  2268 1077 0 461 C 1511.81 586.478 t 0 r /Helvetica findfont 48.9324 sf 0 0 m (700) show NC gr 
 gsave  2268 1077 0 461 C 1752.92 586.478 t 0 r /Helvetica findfont 48.9324 sf 0 0 m (720) show NC gr 
 gsave  2268 1077 0 461 C 1990.77 586.478 t 0 r /Helvetica findfont 48.9324 sf 0 0 m (740) show NC gr  363 1484 m 1791 X s 363 1459 m 25 Y s 423 1471 m 13 Y s 482 1471 m 13 Y s 542 1471 m 13 Y s 602 1459 m 25 Y s 661 1471 m 13 Y s 721 1471 m 13 Y s
 781 1471 m 13 Y s 841 1459 m 25 Y s 900 1471 m 13 Y s 960 1471 m 13 Y s 1020 1471 m 13 Y s 1079 1459 m 25 Y s 1139 1471 m 13 Y s 1199 1471 m 13 Y s 1259 1471 m 13 Y s 1318 1459 m 25 Y s 1378 1471 m 13 Y s 1438 1471 m 13 Y s 1497 1471 m 13 Y s 1557
 1459 m 25 Y s 1617 1471 m 13 Y s 1677 1471 m 13 Y s 1736 1471 m 13 Y s 1796 1459 m 25 Y s 1856 1471 m 13 Y s 1915 1471 m 13 Y s 1975 1471 m 13 Y s 2035 1459 m 25 Y s 2035 1459 m 25 Y s 2095 1471 m 13 Y s 2154 1471 m 13 Y s 363 634 m 850 Y s
 gsave  2268 1077 0 461 C 120.554 1098.02 t 90 r /Helvetica findfont 48.9324 sf 0 0 m (Events / \( 3 GeV \)) show NC gr  390 658 m -27 X s 390 683 m -27 X s 390 703 m -27 X s 390 721 m -27 X s 390 737 m -27 X s 417 751 m -54 X s
 gsave  2268 1077 0 461 C 342.425 729.756 t 0 r  -55 0 t /Helvetica findfont 48.9324 sf 0 0 m (10) show NC gr  390 843 m -27 X s 390 897 m -27 X s 390 935 m -27 X s 390 965 m -27 X s 390 989 m -27 X s 390 1009 m -27 X s 390 1027 m -27 X s 390 1043 m
 -27 X s 417 1057 m -54 X s
 gsave  2268 1077 0 461 C 322.563 1055.66 t 0 r /Helvetica findfont 32.6216 sf 0 0 m (2) show NC gr 
 gsave  2268 1077 0 461 C 270.432 1036.11 t 0 r /Helvetica findfont 48.9324 sf 0 0 m (10) show NC gr  390 1149 m -27 X s 390 1203 m -27 X s 390 1241 m -27 X s 390 1271 m -27 X s 390 1295 m -27 X s 390 1315 m -27 X s 390 1333 m -27 X s 390 1349 m -27
 X s 417 1363 m -54 X s
 gsave  2268 1077 0 461 C 322.563 1365.19 t 0 r /Helvetica findfont 32.6216 sf 0 0 m (3) show NC gr 
 gsave  2268 1077 0 461 C 270.432 1342.38 t 0 r /Helvetica findfont 48.9324 sf 0 0 m (10) show NC gr  390 1455 m -27 X s 2154 634 m 850 Y s 2127 658 m 27 X s 2127 683 m 27 X s 2127 703 m 27 X s 2127 721 m 27 X s 2127 737 m 27 X s 2101 751 m 53 X s
 2127 843 m 27 X s 2127 897 m 27 X s 2127 935 m 27 X s 2127 965 m 27 X s 2127 989 m 27 X s 2127 1009 m 27 X s 2127 1027 m 27 X s 2127 1043 m 27 X s 2101 1057 m 53 X s 2127 1149 m 27 X s 2127 1203 m 27 X s 2127 1241 m 27 X s 2127 1271 m 27 X s 2127
 1295 m 27 X s 2127 1315 m 27 X s 2127 1333 m 27 X s 2127 1349 m 27 X s 2101 1363 m 53 X s 2127 1455 m 27 X s 381 763 m -18 X s 363 763 m cl s 381 763 m 18 X s 399 763 m cl s 381 763 m 45 Y s 381 808 m cl s 381 763 m -47 Y s 381 716 m cl s 417 751 m
 -18 X s 399 751 m cl s 417 751 m 17 X s 434 751 m cl s 417 751 m 47 Y s 417 798 m cl s 417 751 m -50 Y s 417 701 m cl s 452 751 m -18 X s 434 751 m cl s 452 751 m 18 X s 470 751 m cl s 452 751 m 47 Y s 452 798 m cl s 452 751 m -50 Y s 452 701 m cl s
 488 658 m -18 X s 470 658 m cl s 488 658 m 18 X s 506 658 m cl s 488 658 m 69 Y s 488 727 m cl s 488 658 m -24 Y s 488 634 m cl s 524 795 m -18 X s 506 795 m cl s 524 795 m 18 X s 542 795 m cl s 524 795 m 40 Y s 524 835 m cl s 524 795 m -40 Y s 524
 755 m cl s 560 861 m -18 X s 542 861 m cl s 560 861 m 18 X s 578 861 m cl s 560 861 m 31 Y s 560 892 m cl s 560 861 m -30 Y s 560 831 m cl s 596 763 m -18 X s 578 763 m cl s 596 763 m 18 X s 614 763 m cl s 596 763 m 45 Y s 596 808 m cl s 596 763 m
 -47 Y s 596 716 m cl s 632 763 m -18 X s 614 763 m cl s 632 763 m 17 X s 649 763 m cl s 632 763 m 45 Y s 632 808 m cl s 632 763 m -47 Y s 632 716 m cl s 667 849 m -18 X s 649 849 m cl s 667 849 m 18 X s 685 849 m cl s 667 849 m 32 Y s 667 881 m cl s
 667 849 m -32 Y s 667 817 m cl s 703 836 m -18 X s 685 836 m cl s 703 836 m 18 X s 721 836 m cl s 703 836 m 33 Y s 703 869 m cl s 703 836 m -34 Y s 703 802 m cl s 739 883 m -18 X s 721 883 m cl s 739 883 m 18 X s 757 883 m cl s 739 883 m 27 Y s 739
 910 m cl s 739 883 m -29 Y s 739 854 m cl s 775 861 m -18 X s 757 861 m cl s 775 861 m 18 X s 793 861 m cl s 775 861 m 31 Y s 775 892 m cl s 775 861 m -30 Y s 775 831 m cl s 811 872 m -18 X s 793 872 m cl s 811 872 m 18 X s 829 872 m cl s 811 872 m
 29 Y s 811 901 m cl s 811 872 m -29 Y s 811 843 m cl s 847 913 m -18 X s 829 913 m cl s 847 913 m 17 X s 864 913 m cl s 847 913 m 25 Y s 847 938 m cl s 847 913 m -25 Y s 847 888 m cl s 882 967 m -18 X s 864 967 m cl s 882 967 m 18 X s 900 967 m cl s
 882 967 m 20 Y s 882 987 m cl s 882 967 m -20 Y s 882 947 m cl s 918 962 m -18 X s 900 962 m cl s 918 962 m 18 X s 936 962 m cl s 918 962 m 20 Y s 918 982 m cl s 918 962 m -21 Y s 918 941 m cl s 954 975 m -18 X s 936 975 m cl s 954 975 m 18 X s 972
 975 m cl s 954 975 m 19 Y s 954 994 m cl s 954 975 m -20 Y s 954 955 m cl s 990 959 m -18 X s 972 959 m cl s 990 959 m 18 X s 1008 959 m cl s 990 959 m 21 Y s 990 980 m cl s 990 959 m -20 Y s 990 939 m cl s 1026 997 m -18 X s 1008 997 m cl s 1026
 997 m 18 X s 1044 997 m cl s 1026 997 m 18 Y s 1026 1015 m cl s 1026 997 m -17 Y s 1026 980 m cl s 1062 1013 m -18 X s 1044 1013 m cl s 1062 1013 m 17 X s 1079 1013 m cl s 1062 1013 m 17 Y s 1062 1030 m cl s 1062 1013 m -17 Y s 1062 996 m cl s 1097
 1075 m -18 X s 1079 1075 m cl s 1097 1075 m 18 X s 1115 1075 m cl s 1097 1075 m 13 Y s 1097 1088 m cl s 1097 1075 m -12 Y s 1097 1063 m cl s 1133 1051 m -18 X s 1115 1051 m cl s 1133 1051 m 18 X s 1151 1051 m cl s 1133 1051 m 15 Y s 1133 1066 m cl s
 1133 1051 m -14 Y s 1133 1037 m cl s 1169 1092 m -18 X s 1151 1092 m cl s 1169 1092 m 18 X s 1187 1092 m cl s 1169 1092 m 11 Y s 1169 1103 m cl s 1169 1092 m -12 Y s 1169 1080 m cl s 1205 1121 m -18 X s 1187 1121 m cl s 1205 1121 m 18 X s 1223 1121
 m cl s 1205 1121 m 10 Y s 1205 1131 m cl s 1205 1121 m -11 Y s 1205 1110 m cl s 1241 1162 m -18 X s 1223 1162 m cl s 1241 1162 m 18 X s 1259 1162 m cl s 1241 1162 m 9 Y s 1241 1171 m cl s 1241 1162 m -9 Y s 1241 1153 m cl s 1276 1193 m -17 X s 1259
 1193 m cl s 1276 1193 m 18 X s 1294 1193 m cl s 1276 1193 m 8 Y s 1276 1201 m cl s 1276 1193 m -8 Y s 1276 1185 m cl s 1312 1230 m -18 X s 1294 1230 m cl s 1312 1230 m 18 X s 1330 1230 m cl s 1312 1230 m 7 Y s 1312 1237 m cl s 1312 1230 m -7 Y s
 1312 1223 m cl s 1348 1263 m -18 X s 1330 1263 m cl s 1348 1263 m 18 X s 1366 1263 m cl s 1348 1263 m 6 Y s 1348 1269 m cl s 1348 1263 m -6 Y s 1348 1257 m cl s 1384 1298 m -18 X s 1366 1298 m cl s 1384 1298 m 18 X s 1402 1298 m cl s 1384 1298 m 5 Y
 s 1384 1303 m cl s 1384 1298 m -6 Y s 1384 1292 m cl s 1420 1344 m -18 X s 1402 1344 m cl s 1420 1344 m 18 X s 1438 1344 m cl s 1420 1344 m 5 Y s 1420 1349 m cl s 1420 1344 m -4 Y s 1420 1340 m cl s 1456 1381 m -18 X s 1438 1381 m cl s 1456 1381 m
 18 X s 1474 1381 m cl s 1456 1381 m 4 Y s 1456 1385 m cl s 1456 1381 m -4 Y s 1456 1377 m cl s 1491 1408 m -17 X s 1474 1408 m cl s 1491 1408 m 18 X s 1509 1408 m cl s 1491 1408 m 4 Y s 1491 1412 m cl s 1491 1408 m -3 Y s 1491 1405 m cl s 1527 1417
 m -18 X s 1509 1417 m cl s 1527 1417 m 18 X s 1545 1417 m cl s 1527 1417 m 3 Y s 1527 1420 m cl s 1527 1417 m -4 Y s 1527 1413 m cl s 1563 1416 m -18 X s 1545 1416 m cl s 1563 1416 m 18 X s 1581 1416 m cl s 1563 1416 m 3 Y s 1563 1419 m cl s 1563
 1416 m -4 Y s 1563 1412 m cl s 1599 1398 m -18 X s 1581 1398 m cl s 1599 1398 m 18 X s 1617 1398 m cl s 1599 1398 m 4 Y s 1599 1402 m cl s 1599 1398 m -4 Y s 1599 1394 m cl s 1635 1359 m -18 X s 1617 1359 m cl s 1635 1359 m 18 X s 1653 1359 m cl s
 1635 1359 m 5 Y s 1635 1364 m cl s 1635 1359 m -4 Y s 1635 1355 m cl s 1671 1305 m -18 X s 1653 1305 m cl s 1671 1305 m 18 X s 1689 1305 m cl s 1671 1305 m 5 Y s 1671 1310 m cl s 1671 1305 m -5 Y s 1671 1300 m cl s 1706 1255 m -17 X s 1689 1255 m cl
 s 1706 1255 m 18 X s 1724 1255 m cl s 1706 1255 m 6 Y s 1706 1261 m cl s 1706 1255 m -6 Y s 1706 1249 m cl s 1742 1202 m -18 X s 1724 1202 m cl s 1742 1202 m 18 X s 1760 1202 m cl s 1742 1202 m 8 Y s 1742 1210 m cl s 1742 1202 m -8 Y s 1742 1194 m
 cl s 1778 1139 m -18 X s 1760 1139 m cl s 1778 1139 m 18 X s 1796 1139 m cl s 1778 1139 m 9 Y s 1778 1148 m cl s 1778 1139 m -10 Y s 1778 1129 m cl s 1814 1081 m -18 X s 1796 1081 m cl s 1814 1081 m 18 X s 1832 1081 m cl s 1814 1081 m 12 Y s 1814
 1093 m cl s 1814 1081 m -12 Y s 1814 1069 m cl s 1850 1050 m -18 X s 1832 1050 m cl s 1850 1050 m 18 X s 1868 1050 m cl s 1850 1050 m 14 Y s 1850 1064 m cl s 1850 1050 m -14 Y s 1850 1036 m cl s 1886 965 m -18 X s 1868 965 m cl s 1886 965 m 18 X s
 1904 965 m cl s 1886 965 m 20 Y s 1886 985 m cl s 1886 965 m -21 Y s 1886 944 m cl s 1921 935 m -17 X s 1904 935 m cl s 1921 935 m 18 X s 1939 935 m cl s 1921 935 m 22 Y s 1921 957 m cl s 1921 935 m -23 Y s 1921 912 m cl s 1957 935 m -18 X s 1939
 935 m cl s 1957 935 m 18 X s 1975 935 m cl s 1957 935 m 22 Y s 1957 957 m cl s 1957 935 m -23 Y s 1957 912 m cl s 1993 855 m -18 X s 1975 855 m cl s 1993 855 m 18 X s 2011 855 m cl s 1993 855 m 31 Y s 1993 886 m cl s 1993 855 m -31 Y s 1993 824 m cl
 s 2029 836 m -18 X s 2011 836 m cl s 2029 836 m 18 X s 2047 836 m cl s 2029 836 m 33 Y s 2029 869 m cl s 2029 836 m -34 Y s 2029 802 m cl s 2065 751 m -18 X s 2047 751 m cl s 2065 751 m 18 X s 2083 751 m cl s 2065 751 m 47 Y s 2065 798 m cl s 2065
 751 m -50 Y s 2065 701 m cl s 2101 763 m -18 X s 2083 763 m cl s 2101 763 m 18 X s 2119 763 m cl s 2101 763 m 45 Y s 2101 808 m cl s 2101 763 m -47 Y s 2101 716 m cl s 2136 737 m -17 X s 2119 737 m cl s 2136 737 m 18 X s 2154 737 m cl s 2136 737 m
 50 Y s 2136 787 m cl s 2136 737 m -53 Y s 2136 684 m cl s /w 31 def /w2 {w 2 div} def /w3 {w 3 div} def 381 763 417 751 452 751 488 658 524 795 560 861 596 763 632 763 667 849 703 836 739 883 775 861 811 872 847 913 882 967 918 962 954 975 990 959
 1026 997 1062 1013 1097 1075 1133 1051 1169 1092 1205 1121 1241 1162 1276 1193 1312 1230 1348 1263 1384 1298 1420 1344 1456 1381 1491 1408 1527 1417 1563 1416 1599 1398 1635 1359 1671 1305 1706 1255 1742 1202 1778 1139 1814 1081 1850 1050 1886 965
 1921 935 1957 935 1993 855 2029 836 2065 751 2101 763 2136 737 50 { m20} R 0 1 1 c 1 1 0 c black 1 1 0 c 363 775 m 36 7 d 35 6 d 36 7 d 36 7 d 36 7 d 36 8 d 36 8 d 35 9 d 36 8 d 36 10 d 36 10 d 36 11 d 36 12 d 35 13 d 36 15 d 36 17 d 36 20 d 36 22 d
 36 24 d 35 27 d 36 28 d 36 30 d 36 30 d 36 30 d 36 30 d 17 16 d 18 15 d 18 16 d 18 17 d 18 18 d 9 10 d 9 10 d 9 10 d 9 12 d 9 12 d 9 14 d 18 25 d 18 22 d 18 19 d 9 8 d 9 7 d 9 6 d 8 5 d 9 4 d 9 3 d 9 3 d 9 1 d 9 X 9 -1 d 9 -2 d 9 -3 d 9 -4 d 9 -5 d
 9 -6 d 9 -7 d 9 -8 d 9 -9 d 36 -44 d 9 -13 d 9 -13 d 9 -14 d 9 -15 d 8 -14 d 9 -16 d 9 -15 d 9 -15 d 9 -15 d 9 -15 d 9 -15 d 9 -15 d 18 -28 d 18 -26 d 18 -24 d 18 -23 d 36 -44 d 36 -43 d 35 -45 d 36 -48 d 36 -53 d 36 -56 d 36 -60 d 36 -65 d 6 -11 d
 -6 11 d -36 65 d -36 60 d -36 56 d -36 53 d -36 48 d -35 45 d -36 43 d -36 44 d -18 23 d -18 24 d -18 26 d -18 28 d -9 15 d -9 15 d -9 15 d -9 15 d -9 15 d -9 15 d -9 16 d -8 14 d -9 15 d -9 14 d -9 13 d -9 13 d -36 44 d -9 9 d -9 8 d -9 7 d -9 6 d
 -9 5 d -9 4 d -9 3 d -9 2 d -9 1 d -9 X -9 -1 d -9 -3 d -9 -3 d -9 -4 d -8 -5 d -9 -6 d -9 -7 d -9 -8 d -18 -19 d -18 -22 d -18 -25 d -9 -14 d -9 -12 d -9 -12 d -9 -10 d -9 -10 d -9 -10 d -18 -18 d -18 -17 d -18 -16 d -18 -15 d -17 -16 d -36 -30 d
 -36 -30 d -36 -30 d -36 -30 d -36 -28 d -35 -27 d -36 -24 d -36 -22 d -36 -20 d -36 -17 d -36 -15 d -35 -13 d -36 -12 d -36 -11 d -36 -10 d -36 -10 d -36 -8 d -35 -9 d -36 -8 d -36 -8 d -36 -7 d -36 -7 d -36 -7 d -35 -6 d -36 -7 d f 0 1 1 c 0 1 0 c
 black 0 1 0 c 363 775 m 36 7 d 35 6 d 36 7 d 36 7 d 36 7 d 36 8 d 36 8 d 35 9 d 36 8 d 36 10 d 36 10 d 36 11 d 36 12 d 35 13 d 36 15 d 36 17 d 36 20 d 36 22 d 36 24 d 35 27 d 36 28 d 36 30 d 36 30 d 36 30 d 36 30 d 17 16 d 18 15 d 18 16 d 18 17 d 18
 18 d 9 10 d 9 10 d 9 10 d 9 12 d 9 12 d 9 14 d 18 25 d 18 22 d 18 19 d 9 8 d 9 7 d 9 6 d 8 5 d 9 4 d 9 3 d 9 3 d 9 1 d 9 X 9 -1 d 9 -2 d 9 -3 d 9 -4 d 9 -5 d 9 -6 d 9 -7 d 9 -8 d 9 -9 d 36 -44 d 9 -13 d 9 -13 d 9 -14 d 9 -15 d 8 -14 d 9 -16 d 9 -15
 d 9 -15 d 9 -15 d 9 -15 d 9 -15 d 9 -15 d 18 -28 d 18 -26 d 18 -24 d 18 -23 d 36 -44 d 36 -43 d 35 -45 d 36 -48 d 36 -53 d 36 -56 d 36 -60 d 36 -65 d 6 -11 d -6 11 d -36 65 d -36 60 d -36 56 d -36 53 d -36 48 d -35 45 d -36 43 d -36 44 d -18 23 d
 -18 24 d -18 26 d -18 28 d -9 15 d -9 15 d -9 15 d -9 15 d -9 15 d -9 15 d -9 16 d -8 14 d -9 15 d -9 14 d -9 13 d -9 13 d -36 44 d -9 9 d -9 8 d -9 7 d -9 6 d -9 5 d -9 4 d -9 3 d -9 2 d -9 1 d -9 X -9 -1 d -9 -3 d -9 -3 d -9 -4 d -8 -5 d -9 -6 d
 -9 -7 d -9 -8 d -18 -19 d -18 -22 d -18 -25 d -9 -14 d -9 -12 d -9 -12 d -9 -10 d -9 -10 d -9 -10 d -18 -18 d -18 -17 d -18 -16 d -18 -15 d -17 -16 d -36 -30 d -36 -30 d -36 -30 d -36 -30 d -36 -28 d -35 -27 d -36 -24 d -36 -22 d -36 -20 d -36 -17 d
 -36 -15 d -35 -13 d -36 -12 d -36 -11 d -36 -10 d -36 -10 d -36 -8 d -35 -9 d -36 -8 d -36 -8 d -36 -7 d -36 -7 d -36 -7 d -35 -6 d -36 -7 d f 0 0 1 c 9 lw black 0 0 1 c 363 775 m 36 7 d 35 6 d 36 7 d 36 7 d 36 7 d 36 8 d 36 8 d 35 9 d 36 8 d 36 10
 d 36 10 d 36 11 d 36 12 d 35 13 d 36 15 d 36 17 d 36 20 d 36 22 d 36 24 d 35 27 d 36 28 d 36 30 d 36 30 d 36 30 d 36 30 d 17 16 d 18 15 d 18 16 d 18 17 d 18 18 d 9 10 d 9 10 d 9 10 d 9 12 d 9 12 d 9 14 d 18 25 d 18 22 d 18 19 d 9 8 d 9 7 d 9 6 d 8 5
 d 9 4 d 9 3 d 9 3 d 9 1 d 9 X 9 -1 d 9 -2 d 9 -3 d 9 -4 d 9 -5 d 9 -6 d 9 -7 d 9 -8 d 9 -9 d 36 -44 d 9 -13 d 9 -13 d 9 -14 d 9 -15 d 8 -14 d 9 -16 d 9 -15 d 9 -15 d 9 -15 d 9 -15 d 9 -15 d 9 -15 d 18 -28 d 18 -26 d 18 -24 d 18 -23 d 36 -44 d 36 -43
 d 35 -45 d 36 -48 d 36 -53 d 36 -56 d 36 -60 d 36 -65 d 6 -11 d s black 3 lw 381 763 m -18 X s 363 763 m cl s 381 763 m 18 X s 399 763 m cl s 381 763 m 45 Y s 381 808 m cl s 381 763 m -47 Y s 381 716 m cl s 417 751 m -18 X s 399 751 m cl s 417 751 m
 17 X s 434 751 m cl s 417 751 m 47 Y s 417 798 m cl s 417 751 m -50 Y s 417 701 m cl s 452 751 m -18 X s 434 751 m cl s 452 751 m 18 X s 470 751 m cl s 452 751 m 47 Y s 452 798 m cl s 452 751 m -50 Y s 452 701 m cl s 488 658 m -18 X s 470 658 m cl s
 488 658 m 18 X s 506 658 m cl s 488 658 m 69 Y s 488 727 m cl s 488 658 m -24 Y s 488 634 m cl s 524 795 m -18 X s 506 795 m cl s 524 795 m 18 X s 542 795 m cl s 524 795 m 40 Y s 524 835 m cl s 524 795 m -40 Y s 524 755 m cl s 560 861 m -18 X s 542
 861 m cl s 560 861 m 18 X s 578 861 m cl s 560 861 m 31 Y s 560 892 m cl s 560 861 m -30 Y s 560 831 m cl s 596 763 m -18 X s 578 763 m cl s 596 763 m 18 X s 614 763 m cl s 596 763 m 45 Y s 596 808 m cl s 596 763 m -47 Y s 596 716 m cl s 632 763 m
 -18 X s 614 763 m cl s 632 763 m 17 X s 649 763 m cl s 632 763 m 45 Y s 632 808 m cl s 632 763 m -47 Y s 632 716 m cl s 667 849 m -18 X s 649 849 m cl s 667 849 m 18 X s 685 849 m cl s 667 849 m 32 Y s 667 881 m cl s 667 849 m -32 Y s 667 817 m cl s
 703 836 m -18 X s 685 836 m cl s 703 836 m 18 X s 721 836 m cl s 703 836 m 33 Y s 703 869 m cl s 703 836 m -34 Y s 703 802 m cl s 739 883 m -18 X s 721 883 m cl s 739 883 m 18 X s 757 883 m cl s 739 883 m 27 Y s 739 910 m cl s 739 883 m -29 Y s 739
 854 m cl s 775 861 m -18 X s 757 861 m cl s 775 861 m 18 X s 793 861 m cl s 775 861 m 31 Y s 775 892 m cl s 775 861 m -30 Y s 775 831 m cl s 811 872 m -18 X s 793 872 m cl s 811 872 m 18 X s 829 872 m cl s 811 872 m 29 Y s 811 901 m cl s 811 872 m
 -29 Y s 811 843 m cl s 847 913 m -18 X s 829 913 m cl s 847 913 m 17 X s 864 913 m cl s 847 913 m 25 Y s 847 938 m cl s 847 913 m -25 Y s 847 888 m cl s 882 967 m -18 X s 864 967 m cl s 882 967 m 18 X s 900 967 m cl s 882 967 m 20 Y s 882 987 m cl s
 882 967 m -20 Y s 882 947 m cl s 918 962 m -18 X s 900 962 m cl s 918 962 m 18 X s 936 962 m cl s 918 962 m 20 Y s 918 982 m cl s 918 962 m -21 Y s 918 941 m cl s 954 975 m -18 X s 936 975 m cl s 954 975 m 18 X s 972 975 m cl s 954 975 m 19 Y s 954
 994 m cl s 954 975 m -20 Y s 954 955 m cl s 990 959 m -18 X s 972 959 m cl s 990 959 m 18 X s 1008 959 m cl s 990 959 m 21 Y s 990 980 m cl s 990 959 m -20 Y s 990 939 m cl s 1026 997 m -18 X s 1008 997 m cl s 1026 997 m 18 X s 1044 997 m cl s 1026
 997 m 18 Y s 1026 1015 m cl s 1026 997 m -17 Y s 1026 980 m cl s 1062 1013 m -18 X s 1044 1013 m cl s 1062 1013 m 17 X s 1079 1013 m cl s 1062 1013 m 17 Y s 1062 1030 m cl s 1062 1013 m -17 Y s 1062 996 m cl s 1097 1075 m -18 X s 1079 1075 m cl s
 1097 1075 m 18 X s 1115 1075 m cl s 1097 1075 m 13 Y s 1097 1088 m cl s 1097 1075 m -12 Y s 1097 1063 m cl s 1133 1051 m -18 X s 1115 1051 m cl s 1133 1051 m 18 X s 1151 1051 m cl s 1133 1051 m 15 Y s 1133 1066 m cl s 1133 1051 m -14 Y s 1133 1037 m
 cl s 1169 1092 m -18 X s 1151 1092 m cl s 1169 1092 m 18 X s 1187 1092 m cl s 1169 1092 m 11 Y s 1169 1103 m cl s 1169 1092 m -12 Y s 1169 1080 m cl s 1205 1121 m -18 X s 1187 1121 m cl s 1205 1121 m 18 X s 1223 1121 m cl s 1205 1121 m 10 Y s 1205
 1131 m cl s 1205 1121 m -11 Y s 1205 1110 m cl s 1241 1162 m -18 X s 1223 1162 m cl s 1241 1162 m 18 X s 1259 1162 m cl s 1241 1162 m 9 Y s 1241 1171 m cl s 1241 1162 m -9 Y s 1241 1153 m cl s 1276 1193 m -17 X s 1259 1193 m cl s 1276 1193 m 18 X s
 1294 1193 m cl s 1276 1193 m 8 Y s 1276 1201 m cl s 1276 1193 m -8 Y s 1276 1185 m cl s 1312 1230 m -18 X s 1294 1230 m cl s 1312 1230 m 18 X s 1330 1230 m cl s 1312 1230 m 7 Y s 1312 1237 m cl s 1312 1230 m -7 Y s 1312 1223 m cl s 1348 1263 m -18 X
 s 1330 1263 m cl s 1348 1263 m 18 X s 1366 1263 m cl s 1348 1263 m 6 Y s 1348 1269 m cl s 1348 1263 m -6 Y s 1348 1257 m cl s 1384 1298 m -18 X s 1366 1298 m cl s 1384 1298 m 18 X s 1402 1298 m cl s 1384 1298 m 5 Y s 1384 1303 m cl s 1384 1298 m -6
 Y s 1384 1292 m cl s 1420 1344 m -18 X s 1402 1344 m cl s 1420 1344 m 18 X s 1438 1344 m cl s 1420 1344 m 5 Y s 1420 1349 m cl s 1420 1344 m -4 Y s 1420 1340 m cl s 1456 1381 m -18 X s 1438 1381 m cl s 1456 1381 m 18 X s 1474 1381 m cl s 1456 1381 m
 4 Y s 1456 1385 m cl s 1456 1381 m -4 Y s 1456 1377 m cl s 1491 1408 m -17 X s 1474 1408 m cl s 1491 1408 m 18 X s 1509 1408 m cl s 1491 1408 m 4 Y s 1491 1412 m cl s 1491 1408 m -3 Y s 1491 1405 m cl s 1527 1417 m -18 X s 1509 1417 m cl s 1527 1417
 m 18 X s 1545 1417 m cl s 1527 1417 m 3 Y s 1527 1420 m cl s 1527 1417 m -4 Y s 1527 1413 m cl s 1563 1416 m -18 X s 1545 1416 m cl s 1563 1416 m 18 X s 1581 1416 m cl s 1563 1416 m 3 Y s 1563 1419 m cl s 1563 1416 m -4 Y s 1563 1412 m cl s 1599
 1398 m -18 X s 1581 1398 m cl s 1599 1398 m 18 X s 1617 1398 m cl s 1599 1398 m 4 Y s 1599 1402 m cl s 1599 1398 m -4 Y s 1599 1394 m cl s 1635 1359 m -18 X s 1617 1359 m cl s 1635 1359 m 18 X s 1653 1359 m cl s 1635 1359 m 5 Y s 1635 1364 m cl s
 1635 1359 m -4 Y s 1635 1355 m cl s 1671 1305 m -18 X s 1653 1305 m cl s 1671 1305 m 18 X s 1689 1305 m cl s 1671 1305 m 5 Y s 1671 1310 m cl s 1671 1305 m -5 Y s 1671 1300 m cl s 1706 1255 m -17 X s 1689 1255 m cl s 1706 1255 m 18 X s 1724 1255 m
 cl s 1706 1255 m 6 Y s 1706 1261 m cl s 1706 1255 m -6 Y s 1706 1249 m cl s 1742 1202 m -18 X s 1724 1202 m cl s 1742 1202 m 18 X s 1760 1202 m cl s 1742 1202 m 8 Y s 1742 1210 m cl s 1742 1202 m -8 Y s 1742 1194 m cl s 1778 1139 m -18 X s 1760 1139
 m cl s 1778 1139 m 18 X s 1796 1139 m cl s 1778 1139 m 9 Y s 1778 1148 m cl s 1778 1139 m -10 Y s 1778 1129 m cl s 1814 1081 m -18 X s 1796 1081 m cl s 1814 1081 m 18 X s 1832 1081 m cl s 1814 1081 m 12 Y s 1814 1093 m cl s 1814 1081 m -12 Y s 1814
 1069 m cl s 1850 1050 m -18 X s 1832 1050 m cl s 1850 1050 m 18 X s 1868 1050 m cl s 1850 1050 m 14 Y s 1850 1064 m cl s 1850 1050 m -14 Y s 1850 1036 m cl s 1886 965 m -18 X s 1868 965 m cl s 1886 965 m 18 X s 1904 965 m cl s 1886 965 m 20 Y s 1886
 985 m cl s 1886 965 m -21 Y s 1886 944 m cl s 1921 935 m -17 X s 1904 935 m cl s 1921 935 m 18 X s 1939 935 m cl s 1921 935 m 22 Y s 1921 957 m cl s 1921 935 m -23 Y s 1921 912 m cl s 1957 935 m -18 X s 1939 935 m cl s 1957 935 m 18 X s 1975 935 m
 cl s 1957 935 m 22 Y s 1957 957 m cl s 1957 935 m -23 Y s 1957 912 m cl s 1993 855 m -18 X s 1975 855 m cl s 1993 855 m 18 X s 2011 855 m cl s 1993 855 m 31 Y s 1993 886 m cl s 1993 855 m -31 Y s 1993 824 m cl s 2029 836 m -18 X s 2011 836 m cl s
 2029 836 m 18 X s 2047 836 m cl s 2029 836 m 33 Y s 2029 869 m cl s 2029 836 m -34 Y s 2029 802 m cl s 2065 751 m -18 X s 2047 751 m cl s 2065 751 m 18 X s 2083 751 m cl s 2065 751 m 47 Y s 2065 798 m cl s 2065 751 m -50 Y s 2065 701 m cl s 2101 763
 m -18 X s 2083 763 m cl s 2101 763 m 18 X s 2119 763 m cl s 2101 763 m 45 Y s 2101 808 m cl s 2101 763 m -47 Y s 2101 716 m cl s 2136 737 m -17 X s 2119 737 m cl s 2136 737 m 18 X s 2154 737 m cl s 2136 737 m 50 Y s 2136 787 m cl s 2136 737 m -53 Y
 s 2136 684 m cl s 381 763 417 751 452 751 488 658 524 795 560 861 596 763 632 763 667 849 703 836 739 883 775 861 811 872 847 913 882 967 918 962 954 975 990 959 1026 997 1062 1013 1097 1075 1133 1051 1169 1092 1205 1121 1241 1162 1276 1193 1312
 1230 1348 1263 1384 1298 1420 1344 1456 1381 1491 1408 1527 1417 1563 1416 1599 1398 1635 1359 1671 1305 1706 1255 1742 1202 1778 1139 1814 1081 1850 1050 1886 965 1921 935 1957 935 1993 855 2029 836 2065 751 2101 763 2136 737 50 { m20} R 0.52 0.76
 0.64 c[ 4 8] 0 sd 9 lw black 0.52 0.76 0.64 c 363 775 m 36 7 d 35 6 d 36 7 d 36 7 d 36 7 d 36 8 d 36 8 d 35 8 d 36 9 d 36 9 d 36 9 d 36 10 d 36 11 d 35 11 d 36 12 d 36 12 d 36 13 d 36 14 d 36 16 d 35 16 d 36 18 d 36 20 d 36 22 d 36 24 d 36 29 d 17
 15 d 18 17 d 18 19 d 18 21 d 9 11 d 9 12 d 9 12 d 9 14 d 9 14 d 9 15 d 4 9 d 5 8 d 9 18 d 9 17 d 9 15 d 18 28 d 18 22 d 9 10 d 9 8 d 9 8 d 8 6 d 9 4 d 9 4 d 5 1 d 4 1 d 5 1 d 4 1 d 9 X 5 -1 d 4 X 5 -1 d 4 -2 d 5 -1 d 4 -2 d 9 -5 d 9 -6 d 9 -7 d 9 -8
 d 9 -9 d 9 -11 d 18 -25 d 18 -30 d 9 -16 d 9 -18 d 9 -19 d 9 -20 d 8 -21 d 9 -23 d 9 -24 d 9 -25 d 9 -26 d 9 -27 d 9 -28 d 9 -30 d 9 -31 d 9 -32 d 18 -68 d 18 -72 d 18 -77 d 21 -100 d s 0.54 0.66 0.63 c black 0.54 0.66 0.63 c 940 634 m 32 58 d s 972
 692 m 36 62 d 36 57 d 18 27 d 17 26 d 18 25 d 18 25 d 18 23 d 18 22 d 18 21 d 18 20 d 18 19 d 18 18 d 18 17 d 18 16 d 35 29 d 36 25 d 36 21 d 18 9 d 18 8 d 18 6 d 18 6 d 18 5 d 18 4 d 17 3 d 18 2 d 36 X 18 -1 d 18 -2 d 18 -4 d 18 -4 d 18 -5 d 18 -6
 d 18 -8 d 18 -8 d 35 -20 d 36 -24 d 36 -27 d 18 -16 d 18 -16 d 18 -18 d 18 -18 d 18 -20 d 18 -20 d 17 -22 d 18 -22 d 18 -24 d 18 -25 d 18 -25 d 18 -27 d 36 -56 d 36 -60 d 36 -65 d 6 -11 d s black[  ] 0 sd 3 lw 363 634 m 1791 X s 363 659 m -25 Y s
 423 646 m -12 Y s 482 646 m -12 Y s 542 646 m -12 Y s 602 659 m -25 Y s 661 646 m -12 Y s 721 646 m -12 Y s 781 646 m -12 Y s 841 659 m -25 Y s 900 646 m -12 Y s 960 646 m -12 Y s 1020 646 m -12 Y s 1079 659 m -25 Y s 1139 646 m -12 Y s 1199 646 m
 -12 Y s 1259 646 m -12 Y s 1318 659 m -25 Y s 1378 646 m -12 Y s 1438 646 m -12 Y s 1497 646 m -12 Y s 1557 659 m -25 Y s 1617 646 m -12 Y s 1677 646 m -12 Y s 1736 646 m -12 Y s 1796 659 m -25 Y s 1856 646 m -12 Y s 1915 646 m -12 Y s 1975 646 m
 -12 Y s 2035 659 m -25 Y s 2035 659 m -25 Y s 2095 646 m -12 Y s 2154 646 m -12 Y s 363 1484 m 1791 X s 363 1459 m 25 Y s 423 1471 m 13 Y s 482 1471 m 13 Y s 542 1471 m 13 Y s 602 1459 m 25 Y s 661 1471 m 13 Y s 721 1471 m 13 Y s 781 1471 m 13 Y s
 841 1459 m 25 Y s 900 1471 m 13 Y s 960 1471 m 13 Y s 1020 1471 m 13 Y s 1079 1459 m 25 Y s 1139 1471 m 13 Y s 1199 1471 m 13 Y s 1259 1471 m 13 Y s 1318 1459 m 25 Y s 1378 1471 m 13 Y s 1438 1471 m 13 Y s 1497 1471 m 13 Y s 1557 1459 m 25 Y s 1617
 1471 m 13 Y s 1677 1471 m 13 Y s 1736 1471 m 13 Y s 1796 1459 m 25 Y s 1856 1471 m 13 Y s 1915 1471 m 13 Y s 1975 1471 m 13 Y s 2035 1459 m 25 Y s 2035 1459 m 25 Y s 2095 1471 m 13 Y s 2154 1471 m 13 Y s 363 634 m 850 Y s 390 658 m -27 X s 390 683 m
 -27 X s 390 703 m -27 X s 390 721 m -27 X s 390 737 m -27 X s 417 751 m -54 X s 390 843 m -27 X s 390 897 m -27 X s 390 935 m -27 X s 390 965 m -27 X s 390 989 m -27 X s 390 1009 m -27 X s 390 1027 m -27 X s 390 1043 m -27 X s 417 1057 m -54 X s 390
 1149 m -27 X s 390 1203 m -27 X s 390 1241 m -27 X s 390 1271 m -27 X s 390 1295 m -27 X s 390 1315 m -27 X s 390 1333 m -27 X s 390 1349 m -27 X s 417 1363 m -54 X s 390 1455 m -27 X s 2154 634 m 850 Y s 2127 658 m 27 X s 2127 683 m 27 X s 2127 703
 m 27 X s 2127 721 m 27 X s 2127 737 m 27 X s 2101 751 m 53 X s 2127 843 m 27 X s 2127 897 m 27 X s 2127 935 m 27 X s 2127 965 m 27 X s 2127 989 m 27 X s 2127 1009 m 27 X s 2127 1027 m 27 X s 2127 1043 m 27 X s 2101 1057 m 53 X s 2127 1149 m 27 X s
 2127 1203 m 27 X s 2127 1241 m 27 X s 2127 1271 m 27 X s 2127 1295 m 27 X s 2127 1315 m 27 X s 2127 1333 m 27 X s 2127 1349 m 27 X s 2101 1363 m 53 X s 2127 1455 m 27 X s
 gsave  2268 1077 0 461 C 677.708 1215.31 t 0 r /Helvetica findfont 58.7189 sf 0 0 m (2mu2e) show NC gr  1 1 1 c 453 161 454 1269 bf black
 gsave  2268 1077 0 461 C 566.929 1371.71 t 0 r /Helvetica-Bold findfont 48.9324 sf 0 0 m (MC15) show NC gr  510 1390 m20
 gsave  2268 1077 0 461 C 566.929 1293.51 t 0 r /Helvetica-Bold findfont 48.9324 sf 0 0 m (Projection of Signal pdf) show NC gr  0 0 1 c 9 lw 471 1309 m 79 X s black 3 lw 1 1 1 c 2268 461 0 0 bf black 1 1 1 c 1791 364 363 74 bf black 1791 364 363 74
 bl 363 74 m 1791 X s
 gsave  2268 461 0 0 C 1915.83 13.0329 t 0 r /Helvetica findfont 22.9045 sf 0 0 m (4l Invariant Mass \(GeV\)) show NC gr  363 85 m -11 Y s 423 79 m -5 Y s 482 79 m -5 Y s 542 79 m -5 Y s 602 85 m -11 Y s 661 79 m -5 Y s 721 79 m -5 Y s 781 79 m -5 Y
 s 841 85 m -11 Y s 900 79 m -5 Y s 960 79 m -5 Y s 1020 79 m -5 Y s 1079 85 m -11 Y s 1139 79 m -5 Y s 1199 79 m -5 Y s 1259 79 m -5 Y s 1318 85 m -11 Y s 1378 79 m -5 Y s 1438 79 m -5 Y s 1497 79 m -5 Y s 1557 85 m -11 Y s 1617 79 m -5 Y s 1677 79
 m -5 Y s 1736 79 m -5 Y s 1796 85 m -11 Y s 1856 79 m -5 Y s 1915 79 m -5 Y s 1975 79 m -5 Y s 2035 85 m -11 Y s 2035 85 m -11 Y s 2095 79 m -5 Y s 2154 79 m -5 Y s
 gsave  2268 461 0 0 C 342.112 55.3896 t 0 r /Helvetica findfont 22.9045 sf 0 0 m (600) show NC gr 
 gsave  2268 461 0 0 C 579.962 55.3896 t 0 r /Helvetica findfont 22.9045 sf 0 0 m (620) show NC gr 
 gsave  2268 461 0 0 C 817.812 55.3896 t 0 r /Helvetica findfont 22.9045 sf 0 0 m (640) show NC gr 
 gsave  2268 461 0 0 C 1058.92 55.3896 t 0 r /Helvetica findfont 22.9045 sf 0 0 m (660) show NC gr 
 gsave  2268 461 0 0 C 1296.77 55.3896 t 0 r /Helvetica findfont 22.9045 sf 0 0 m (680) show NC gr 
 gsave  2268 461 0 0 C 1534.62 55.3896 t 0 r /Helvetica findfont 22.9045 sf 0 0 m (700) show NC gr 
 gsave  2268 461 0 0 C 1775.73 55.3896 t 0 r /Helvetica findfont 22.9045 sf 0 0 m (720) show NC gr 
 gsave  2268 461 0 0 C 2013.58 55.3896 t 0 r /Helvetica findfont 22.9045 sf 0 0 m (740) show NC gr  363 438 m 1791 X s 363 427 m 11 Y s 423 433 m 5 Y s 482 433 m 5 Y s 542 433 m 5 Y s 602 427 m 11 Y s 661 433 m 5 Y s 721 433 m 5 Y s 781 433 m 5 Y s
 841 427 m 11 Y s 900 433 m 5 Y s 960 433 m 5 Y s 1020 433 m 5 Y s 1079 427 m 11 Y s 1139 433 m 5 Y s 1199 433 m 5 Y s 1259 433 m 5 Y s 1318 427 m 11 Y s 1378 433 m 5 Y s 1438 433 m 5 Y s 1497 433 m 5 Y s 1557 427 m 11 Y s 1617 433 m 5 Y s 1677 433 m
 5 Y s 1736 433 m 5 Y s 1796 427 m 11 Y s 1856 433 m 5 Y s 1915 433 m 5 Y s 1975 433 m 5 Y s 2035 427 m 11 Y s 2035 427 m 11 Y s 2095 433 m 5 Y s 2154 433 m 5 Y s 363 74 m 364 Y s 417 74 m -54 X s 390 81 m -27 X s 390 88 m -27 X s 390 96 m -27 X s
 390 103 m -27 X s 417 110 m -54 X s 390 118 m -27 X s 390 125 m -27 X s 390 132 m -27 X s 390 139 m -27 X s 417 147 m -54 X s 390 154 m -27 X s 390 161 m -27 X s 390 169 m -27 X s 390 176 m -27 X s 417 183 m -54 X s 390 190 m -27 X s 390 198 m -27 X
 s 390 205 m -27 X s 390 212 m -27 X s 417 220 m -54 X s 390 227 m -27 X s 390 234 m -27 X s 390 241 m -27 X s 390 249 m -27 X s 417 256 m -54 X s 390 263 m -27 X s 390 271 m -27 X s 390 278 m -27 X s 390 285 m -27 X s 417 293 m -54 X s 390 300 m -27
 X s 390 307 m -27 X s 390 314 m -27 X s 390 322 m -27 X s 417 329 m -54 X s 390 336 m -27 X s 390 344 m -27 X s 390 351 m -27 X s 390 358 m -27 X s 417 365 m -54 X s 390 373 m -27 X s 390 380 m -27 X s 390 387 m -27 X s 390 395 m -27 X s 417 402 m
 -54 X s 390 409 m -27 X s 390 416 m -27 X s 390 424 m -27 X s 390 431 m -27 X s 417 438 m -54 X s
 gsave  2268 461 0 0 C 329.08 65.1643 t 0 r /Helvetica findfont 22.9045 sf 0 0 m (\2555) show NC gr 
 gsave  2268 461 0 0 C 329.08 101.005 t 0 r /Helvetica findfont 22.9045 sf 0 0 m (\2554) show NC gr 
 gsave  2268 461 0 0 C 329.08 140.103 t 0 r /Helvetica findfont 22.9045 sf 0 0 m (\2553) show NC gr 
 gsave  2268 461 0 0 C 329.08 175.944 t 0 r /Helvetica findfont 22.9045 sf 0 0 m (\2552) show NC gr 
 gsave  2268 461 0 0 C 332.338 211.784 t 0 r /Helvetica findfont 22.9045 sf 0 0 m (\2551) show NC gr 
 gsave  2268 461 0 0 C 335.596 247.624 t 0 r /Helvetica findfont 22.9045 sf 0 0 m (0) show NC gr 
 gsave  2268 461 0 0 C 338.854 283.465 t 0 r /Helvetica findfont 22.9045 sf 0 0 m (1) show NC gr 
 gsave  2268 461 0 0 C 335.596 319.305 t 0 r /Helvetica findfont 22.9045 sf 0 0 m (2) show NC gr 
 gsave  2268 461 0 0 C 335.596 358.403 t 0 r /Helvetica findfont 22.9045 sf 0 0 m (3) show NC gr 
 gsave  2268 461 0 0 C 335.596 394.244 t 0 r /Helvetica findfont 22.9045 sf 0 0 m (4) show NC gr 
 gsave  2268 461 0 0 C 335.596 430.084 t 0 r /Helvetica findfont 22.9045 sf 0 0 m (5) show NC gr  2154 74 m 364 Y s 2101 74 m 53 X s 2127 81 m 27 X s 2127 88 m 27 X s 2127 96 m 27 X s 2127 103 m 27 X s 2101 110 m 53 X s 2127 118 m 27 X s 2127 125 m
 27 X s 2127 132 m 27 X s 2127 139 m 27 X s 2101 147 m 53 X s 2127 154 m 27 X s 2127 161 m 27 X s 2127 169 m 27 X s 2127 176 m 27 X s 2101 183 m 53 X s 2127 190 m 27 X s 2127 198 m 27 X s 2127 205 m 27 X s 2127 212 m 27 X s 2101 220 m 53 X s 2127 227
 m 27 X s 2127 234 m 27 X s 2127 241 m 27 X s 2127 249 m 27 X s 2101 256 m 53 X s 2127 263 m 27 X s 2127 271 m 27 X s 2127 278 m 27 X s 2127 285 m 27 X s 2101 293 m 53 X s 2127 300 m 27 X s 2127 307 m 27 X s 2127 314 m 27 X s 2127 322 m 27 X s 2101
 329 m 53 X s 2127 336 m 27 X s 2127 344 m 27 X s 2127 351 m 27 X s 2127 358 m 27 X s 2101 365 m 53 X s 2127 373 m 27 X s 2127 380 m 27 X s 2127 387 m 27 X s 2127 395 m 27 X s 2101 402 m 53 X s 2127 409 m 27 X s 2127 416 m 27 X s 2127 424 m 27 X s
 2127 431 m 27 X s 2101 438 m 53 X s 6 lw 0.2 0.8 0.2 c black 3 lw 0.2 0.8 0.2 c 363 256 m -11 Y 36 X -14 Y 35 X -6 Y 36 X -70 Y 36 X 92 Y 36 X 62 Y 36 X -103 Y 36 X -8 Y 35 X 72 Y 36 X -25 Y 36 X 45 Y 36 X -40 Y 36 X -1 Y 36 X 40 Y 35 X 64 Y 36 X
 -30 Y 36 X -6 Y 36 X -65 Y 36 X 31 Y 36 X -21 Y 35 X 94 Y 36 X -140 Y 36 X 25 Y 36 X -5 Y 36 X 42 Y 36 X 8 Y 35 X 28 Y 36 X 1 Y 36 X -40 Y 36 X -30 Y 36 X -44 Y 36 X 5 Y 35 X -25 Y 36 X 52 Y 36 X 46 Y 36 X -17 Y 36 X -34 Y 36 X 54 Y 35 X 31 Y 36 X
 -33 Y 36 X -26 Y 36 X 31 Y 36 X -88 Y 36 X 33 Y 35 X 73 Y 36 X -46 Y 36 X 36 Y 36 X -31 Y 36 X 51 Y 36 X 10 Y 35 X -67 Y f 6 lw black 0.2 0.8 0.2 c black 363 245 m 36 X -14 Y 35 X -6 Y 36 X -70 Y 36 X 92 Y 36 X 62 Y 36 X -103 Y 36 X -8 Y 35 X 72 Y
 36 X -25 Y 36 X 45 Y 36 X -40 Y 36 X -1 Y 36 X 40 Y 35 X 64 Y 36 X -30 Y 36 X -6 Y 36 X -65 Y 36 X 31 Y 36 X -21 Y 35 X 94 Y 36 X -140 Y 36 X 25 Y 36 X -5 Y 36 X 42 Y 36 X 8 Y 35 X 28 Y 36 X 1 Y 36 X -40 Y 36 X -30 Y 36 X -44 Y 36 X 5 Y 35 X -25 Y
 36 X 52 Y 36 X 46 Y 36 X -17 Y 36 X -34 Y 36 X 54 Y 35 X 31 Y 36 X -33 Y 36 X -26 Y 36 X 31 Y 36 X -88 Y 36 X 33 Y 35 X 73 Y 36 X -46 Y 36 X 36 Y 36 X -31 Y 36 X 51 Y 36 X 10 Y 35 X s 3 lw 363 74 m 1791 X s 363 85 m -11 Y s 423 79 m -5 Y s 482 79 m
 -5 Y s 542 79 m -5 Y s 602 85 m -11 Y s 661 79 m -5 Y s 721 79 m -5 Y s 781 79 m -5 Y s 841 85 m -11 Y s 900 79 m -5 Y s 960 79 m -5 Y s 1020 79 m -5 Y s 1079 85 m -11 Y s 1139 79 m -5 Y s 1199 79 m -5 Y s 1259 79 m -5 Y s 1318 85 m -11 Y s 1378 79
 m -5 Y s 1438 79 m -5 Y s 1497 79 m -5 Y s 1557 85 m -11 Y s 1617 79 m -5 Y s 1677 79 m -5 Y s 1736 79 m -5 Y s 1796 85 m -11 Y s 1856 79 m -5 Y s 1915 79 m -5 Y s 1975 79 m -5 Y s 2035 85 m -11 Y s 2035 85 m -11 Y s 2095 79 m -5 Y s 2154 79 m -5 Y
 s 363 438 m 1791 X s 363 427 m 11 Y s 423 433 m 5 Y s 482 433 m 5 Y s 542 433 m 5 Y s 602 427 m 11 Y s 661 433 m 5 Y s 721 433 m 5 Y s 781 433 m 5 Y s 841 427 m 11 Y s 900 433 m 5 Y s 960 433 m 5 Y s 1020 433 m 5 Y s 1079 427 m 11 Y s 1139 433 m 5 Y
 s 1199 433 m 5 Y s 1259 433 m 5 Y s 1318 427 m 11 Y s 1378 433 m 5 Y s 1438 433 m 5 Y s 1497 433 m 5 Y s 1557 427 m 11 Y s 1617 433 m 5 Y s 1677 433 m 5 Y s 1736 433 m 5 Y s 1796 427 m 11 Y s 1856 433 m 5 Y s 1915 433 m 5 Y s 1975 433 m 5 Y s 2035
 427 m 11 Y s 2035 427 m 11 Y s 2095 433 m 5 Y s 2154 433 m 5 Y s 363 74 m 364 Y s 417 74 m -54 X s 390 81 m -27 X s 390 88 m -27 X s 390 96 m -27 X s 390 103 m -27 X s 417 110 m -54 X s 390 118 m -27 X s 390 125 m -27 X s 390 132 m -27 X s 390 139 m
 -27 X s 417 147 m -54 X s 390 154 m -27 X s 390 161 m -27 X s 390 169 m -27 X s 390 176 m -27 X s 417 183 m -54 X s 390 190 m -27 X s 390 198 m -27 X s 390 205 m -27 X s 390 212 m -27 X s 417 220 m -54 X s 390 227 m -27 X s 390 234 m -27 X s 390 241
 m -27 X s 390 249 m -27 X s 417 256 m -54 X s 390 263 m -27 X s 390 271 m -27 X s 390 278 m -27 X s 390 285 m -27 X s 417 293 m -54 X s 390 300 m -27 X s 390 307 m -27 X s 390 314 m -27 X s 390 322 m -27 X s 417 329 m -54 X s 390 336 m -27 X s 390
 344 m -27 X s 390 351 m -27 X s 390 358 m -27 X s 417 365 m -54 X s 390 373 m -27 X s 390 380 m -27 X s 390 387 m -27 X s 390 395 m -27 X s 417 402 m -54 X s 390 409 m -27 X s 390 416 m -27 X s 390 424 m -27 X s 390 431 m -27 X s 417 438 m -54 X s
 2154 74 m 364 Y s 2101 74 m 53 X s 2127 81 m 27 X s 2127 88 m 27 X s 2127 96 m 27 X s 2127 103 m 27 X s 2101 110 m 53 X s 2127 118 m 27 X s 2127 125 m 27 X s 2127 132 m 27 X s 2127 139 m 27 X s 2101 147 m 53 X s 2127 154 m 27 X s 2127 161 m 27 X s
 2127 169 m 27 X s 2127 176 m 27 X s 2101 183 m 53 X s 2127 190 m 27 X s 2127 198 m 27 X s 2127 205 m 27 X s 2127 212 m 27 X s 2101 220 m 53 X s 2127 227 m 27 X s 2127 234 m 27 X s 2127 241 m 27 X s 2127 249 m 27 X s 2101 256 m 53 X s 2127 263 m 27 X
 s 2127 271 m 27 X s 2127 278 m 27 X s 2127 285 m 27 X s 2101 293 m 53 X s 2127 300 m 27 X s 2127 307 m 27 X s 2127 314 m 27 X s 2127 322 m 27 X s 2101 329 m 53 X s 2127 336 m 27 X s 2127 344 m 27 X s 2127 351 m 27 X s 2127 358 m 27 X s 2101 365 m 53
 X s 2127 373 m 27 X s 2127 380 m 27 X s 2127 387 m 27 X s 2127 395 m 27 X s 2101 402 m 53 X s 2127 409 m 27 X s 2127 416 m 27 X s 2127 424 m 27 X s 2127 431 m 27 X s 2101 438 m 53 X s
 gr  gr showpage
end
%%EOF
