%!PS-Adobe-2.0 EPSF-2.0
%%BoundingBox:  0 0 567 384
%%Title: H4l2015_plotfit/gg_mass_signal_800_H4l_4mu.eps: 
%%Creator: ROOT Version 5.34/10
%%CreationDate: Thu Feb 16 12:42:23 2017
%%EndComments
%%BeginProlog
80 dict begin
/s {stroke} def /l {lineto} def /m {moveto} def /t {translate} def
/r {rotate} def /rl {roll}  def /R {repeat} def
/d {rlineto} def /rm {rmoveto} def /gr {grestore} def /f {eofill} def
/c {setrgbcolor} def /black {0 setgray} def /sd {setdash} def
/cl {closepath} def /sf {scalefont setfont} def /lw {setlinewidth} def
/box {m dup 0 exch d exch 0 d 0 exch neg d cl} def
/NC{systemdict begin initclip end}def/C{NC box clip newpath}def
/bl {box s} def /bf {box f} def /Y { 0 exch d} def /X { 0 d} def 
/K {{pop pop 0 moveto} exch kshow} bind def
/ita {/ang 15 def gsave [1 0 ang dup sin exch cos div 1 0 0] concat} def 
/mp {newpath /y exch def /x exch def} def
/side {[w .77 mul w .23 mul] .385 w mul sd w 0 l currentpoint t -144 r} def
/mr {mp x y w2 0 360 arc} def /m24 {mr s} def /m20 {mr f} def
/mb {mp x y w2 add m w2 neg 0 d 0 w neg d w 0 d 0 w d cl} def
/mt {mp x y w2 add m w2 neg w neg d w 0 d cl} def
/m21 {mb f} def /m25 {mb s} def /m22 {mt f} def /m26{mt s} def
/m23 {mp x y w2 sub m w2 w d w neg 0 d cl f} def
/m27 {mp x y w2 add m w3 neg w2 neg d w3 w2 neg d w3 w2 d cl s} def
/m28 {mp x w2 sub y w2 sub w3 add m w3 0 d  0 w3 neg d w3 0 d 0 w3 d w3 0 d  0 w3 d w3 neg 0 d 0 w3 d w3 neg 0 d 0 w3 neg d w3 neg 0 d cl s } def
/m29 {mp gsave x w2 sub y w2 add w3 sub m currentpoint t 4 {side} repeat cl fill gr} def
/m30 {mp gsave x w2 sub y w2 add w3 sub m currentpoint t 4 {side} repeat cl s gr} def
/m31 {mp x y w2 sub m 0 w d x w2 sub y m w 0 d x w2 sub y w2 add m w w neg d x w2 sub y w2 sub m w w d s} def
/m32 {mp x y w2 sub m w2 w d w neg 0 d cl s} def
/m33 {mp x y w2 add m w3 neg w2 neg d w3 w2 neg d w3 w2 d cl f} def
/m34 {mp x w2 sub y w2 sub w3 add m w3 0 d  0 w3 neg d w3 0 d 0 w3 d w3 0 d  0 w3 d w3 neg 0 d 0 w3 d w3 neg 0 d 0 w3 neg d w3 neg 0 d cl f } def
/m2 {mp x y w2 sub m 0 w d x w2 sub y m w 0 d s} def
/m5 {mp x w2 sub y w2 sub m w w d x w2 sub y w2 add m w w neg d s} def
/reEncode {exch findfont dup length dict begin {1 index /FID eq  {pop pop} {def} ifelse } forall /Encoding exch def currentdict end dup /FontName get exch definefont pop } def [/Times-Bold /Times-Italic /Times-BoldItalic /Helvetica /Helvetica-Oblique
 /Helvetica-Bold /Helvetica-BoldOblique /Courier /Courier-Oblique /Courier-Bold /Courier-BoldOblique /Times-Roman /AvantGarde-Book /AvantGarde-BookOblique /AvantGarde-Demi /AvantGarde-DemiOblique /Bookman-Demi /Bookman-DemiItalic /Bookman-Light
 /Bookman-LightItalic /Helvetica-Narrow /Helvetica-Narrow-Bold /Helvetica-Narrow-BoldOblique /Helvetica-Narrow-Oblique /NewCenturySchlbk-Roman /NewCenturySchlbk-Bold /NewCenturySchlbk-BoldItalic /NewCenturySchlbk-Italic /Palatino-Bold
 /Palatino-BoldItalic /Palatino-Italic /Palatino-Roman ] {ISOLatin1Encoding reEncode } forall
%%EndProlog
%%BeginSetup
%%EndSetup
newpath  gsave  .25 .25 scale  gsave  0 0 t black[  ] 0 sd 3 lw 1 1 1 c 2268 1538 0 0 bf black 1 1 1 c 2222 738 23 784 bf black 1 1 1 c 2222 739 23 15 bf black 1 1 1 c 2268 1077 0 461 bf black 1 1 1 c 1791 850 363 634 bf black 1791 850 363 634 bl 363
 634 m 1791 X s
 gsave  2268 1077 0 461 C 1642.14 498.507 t 0 r /Helvetica findfont 48.9324 sf 0 0 m (4l Invariant Mass \(GeV\)) show NC gr  491 659 m -25 Y s 555 646 m -12 Y s 619 646 m -12 Y s 683 646 m -12 Y s 747 659 m -25 Y s 811 646 m -12 Y s 875 646 m -12 Y s
 939 646 m -12 Y s 1003 659 m -25 Y s 1067 646 m -12 Y s 1131 646 m -12 Y s 1195 646 m -12 Y s 1259 659 m -25 Y s 1323 646 m -12 Y s 1387 646 m -12 Y s 1451 646 m -12 Y s 1515 659 m -25 Y s 1578 646 m -12 Y s 1642 646 m -12 Y s 1706 646 m -12 Y s
 1770 659 m -25 Y s 1834 646 m -12 Y s 1898 646 m -12 Y s 1962 646 m -12 Y s 2026 659 m -25 Y s 491 659 m -25 Y s 427 646 m -12 Y s 363 646 m -12 Y s 2026 659 m -25 Y s 2090 646 m -12 Y s 2154 646 m -12 Y s
 gsave  2268 1077 0 461 C 446.375 586.478 t 0 r /Helvetica findfont 48.9324 sf 0 0 m (720) show NC gr 
 gsave  2268 1077 0 461 C 703.774 586.478 t 0 r /Helvetica findfont 48.9324 sf 0 0 m (740) show NC gr 
 gsave  2268 1077 0 461 C 957.915 586.478 t 0 r /Helvetica findfont 48.9324 sf 0 0 m (760) show NC gr 
 gsave  2268 1077 0 461 C 1215.31 586.478 t 0 r /Helvetica findfont 48.9324 sf 0 0 m (780) show NC gr 
 gsave  2268 1077 0 461 C 1469.45 586.478 t 0 r /Helvetica findfont 48.9324 sf 0 0 m (800) show NC gr 
 gsave  2268 1077 0 461 C 1726.85 586.478 t 0 r /Helvetica findfont 48.9324 sf 0 0 m (820) show NC gr 
 gsave  2268 1077 0 461 C 1980.99 586.478 t 0 r /Helvetica findfont 48.9324 sf 0 0 m (840) show NC gr  363 1484 m 1791 X s 491 1459 m 25 Y s 555 1471 m 13 Y s 619 1471 m 13 Y s 683 1471 m 13 Y s 747 1459 m 25 Y s 811 1471 m 13 Y s 875 1471 m 13 Y s
 939 1471 m 13 Y s 1003 1459 m 25 Y s 1067 1471 m 13 Y s 1131 1471 m 13 Y s 1195 1471 m 13 Y s 1259 1459 m 25 Y s 1323 1471 m 13 Y s 1387 1471 m 13 Y s 1451 1471 m 13 Y s 1515 1459 m 25 Y s 1578 1471 m 13 Y s 1642 1471 m 13 Y s 1706 1471 m 13 Y s
 1770 1459 m 25 Y s 1834 1471 m 13 Y s 1898 1471 m 13 Y s 1962 1471 m 13 Y s 2026 1459 m 25 Y s 491 1459 m 25 Y s 427 1471 m 13 Y s 363 1471 m 13 Y s 2026 1459 m 25 Y s 2090 1471 m 13 Y s 2154 1471 m 13 Y s 363 634 m 850 Y s
 gsave  2268 1077 0 461 C 120.554 1058.92 t 90 r /Helvetica findfont 48.9324 sf 0 0 m (Events / \( 2.8 GeV \)) show NC gr  390 645 m -27 X s 390 701 m -27 X s 390 741 m -27 X s 390 772 m -27 X s 390 798 m -27 X s 390 819 m -27 X s 390 838 m -27 X s
 390 854 m -27 X s 417 869 m -54 X s
 gsave  2268 1077 0 461 C 342.425 847.805 t 0 r  -55 0 t /Helvetica findfont 48.9324 sf 0 0 m (10) show NC gr  390 965 m -27 X s 390 1022 m -27 X s 390 1062 m -27 X s 390 1093 m -27 X s 390 1118 m -27 X s 390 1140 m -27 X s 390 1158 m -27 X s 390
 1175 m -27 X s 417 1189 m -54 X s
 gsave  2268 1077 0 461 C 322.563 1185.99 t 0 r /Helvetica findfont 32.6216 sf 0 0 m (2) show NC gr 
 gsave  2268 1077 0 461 C 270.432 1166.44 t 0 r /Helvetica findfont 48.9324 sf 0 0 m (10) show NC gr  390 1286 m -27 X s 390 1342 m -27 X s 390 1382 m -27 X s 390 1413 m -27 X s 390 1439 m -27 X s 390 1460 m -27 X s 390 1479 m -27 X s 2154 634 m 850
 Y s 2127 645 m 27 X s 2127 701 m 27 X s 2127 741 m 27 X s 2127 772 m 27 X s 2127 798 m 27 X s 2127 819 m 27 X s 2127 838 m 27 X s 2127 854 m 27 X s 2101 869 m 53 X s 2127 965 m 27 X s 2127 1022 m 27 X s 2127 1062 m 27 X s 2127 1093 m 27 X s 2127
 1118 m 27 X s 2127 1140 m 27 X s 2127 1158 m 27 X s 2127 1175 m 27 X s 2101 1189 m 53 X s 2127 1286 m 27 X s 2127 1342 m 27 X s 2127 1382 m 27 X s 2127 1413 m 27 X s 2127 1439 m 27 X s 2127 1460 m 27 X s 2127 1479 m 27 X s 381 958 m -18 X s 363 958
 m cl s 381 958 m 18 X s 399 958 m cl s 381 958 m 35 Y s 381 993 m cl s 381 958 m -36 Y s 381 922 m cl s 417 934 m -18 X s 399 934 m cl s 417 934 m 17 X s 434 934 m cl s 417 934 m 38 Y s 417 972 m cl s 417 934 m -39 Y s 417 895 m cl s 452 925 m -18 X
 s 434 925 m cl s 452 925 m 18 X s 470 925 m cl s 452 925 m 40 Y s 452 965 m cl s 452 925 m -41 Y s 452 884 m cl s 488 894 m -18 X s 470 894 m cl s 488 894 m 18 X s 506 894 m cl s 488 894 m 45 Y s 488 939 m cl s 488 894 m -47 Y s 488 847 m cl s 524
 972 m -18 X s 506 972 m cl s 524 972 m 18 X s 542 972 m cl s 524 972 m 33 Y s 524 1005 m cl s 524 972 m -34 Y s 524 938 m cl s 560 978 m -18 X s 542 978 m cl s 560 978 m 18 X s 578 978 m cl s 560 978 m 33 Y s 560 1011 m cl s 560 978 m -33 Y s 560
 945 m cl s 596 950 m -18 X s 578 950 m cl s 596 950 m 18 X s 614 950 m cl s 596 950 m 37 Y s 596 987 m cl s 596 950 m -37 Y s 596 913 m cl s 632 985 m -18 X s 614 985 m cl s 632 985 m 17 X s 649 985 m cl s 632 985 m 31 Y s 632 1016 m cl s 632 985 m
 -33 Y s 632 952 m cl s 667 1026 m -18 X s 649 1026 m cl s 667 1026 m 18 X s 685 1026 m cl s 667 1026 m 27 Y s 667 1053 m cl s 667 1026 m -27 Y s 667 999 m cl s 703 996 m -18 X s 685 996 m cl s 703 996 m 18 X s 721 996 m cl s 703 996 m 30 Y s 703
 1026 m cl s 703 996 m -31 Y s 703 965 m cl s 739 1035 m -18 X s 721 1035 m cl s 739 1035 m 18 X s 757 1035 m cl s 739 1035 m 26 Y s 739 1061 m cl s 739 1035 m -27 Y s 739 1008 m cl s 775 1031 m -18 X s 757 1031 m cl s 775 1031 m 18 X s 793 1031 m cl
 s 775 1031 m 26 Y s 775 1057 m cl s 775 1031 m -27 Y s 775 1004 m cl s 811 1098 m -18 X s 793 1098 m cl s 811 1098 m 18 X s 829 1098 m cl s 811 1098 m 21 Y s 811 1119 m cl s 811 1098 m -21 Y s 811 1077 m cl s 847 1068 m -18 X s 829 1068 m cl s 847
 1068 m 17 X s 864 1068 m cl s 847 1068 m 23 Y s 847 1091 m cl s 847 1068 m -23 Y s 847 1045 m cl s 882 1081 m -18 X s 864 1081 m cl s 882 1081 m 18 X s 900 1081 m cl s 882 1081 m 22 Y s 882 1103 m cl s 882 1081 m -22 Y s 882 1059 m cl s 918 1116 m
 -18 X s 900 1116 m cl s 918 1116 m 18 X s 936 1116 m cl s 918 1116 m 19 Y s 918 1135 m cl s 918 1116 m -20 Y s 918 1096 m cl s 954 1145 m -18 X s 936 1145 m cl s 954 1145 m 18 X s 972 1145 m cl s 954 1145 m 18 Y s 954 1163 m cl s 954 1145 m -17 Y s
 954 1128 m cl s 990 1160 m -18 X s 972 1160 m cl s 990 1160 m 18 X s 1008 1160 m cl s 990 1160 m 16 Y s 990 1176 m cl s 990 1160 m -17 Y s 990 1143 m cl s 1026 1167 m -18 X s 1008 1167 m cl s 1026 1167 m 18 X s 1044 1167 m cl s 1026 1167 m 15 Y s
 1026 1182 m cl s 1026 1167 m -16 Y s 1026 1151 m cl s 1062 1167 m -18 X s 1044 1167 m cl s 1062 1167 m 17 X s 1079 1167 m cl s 1062 1167 m 15 Y s 1062 1182 m cl s 1062 1167 m -16 Y s 1062 1151 m cl s 1097 1217 m -18 X s 1079 1217 m cl s 1097 1217 m
 18 X s 1115 1217 m cl s 1097 1217 m 12 Y s 1097 1229 m cl s 1097 1217 m -13 Y s 1097 1204 m cl s 1133 1226 m -18 X s 1115 1226 m cl s 1133 1226 m 18 X s 1151 1226 m cl s 1133 1226 m 12 Y s 1133 1238 m cl s 1133 1226 m -12 Y s 1133 1214 m cl s 1169
 1255 m -18 X s 1151 1255 m cl s 1169 1255 m 18 X s 1187 1255 m cl s 1169 1255 m 11 Y s 1169 1266 m cl s 1169 1255 m -11 Y s 1169 1244 m cl s 1205 1276 m -18 X s 1187 1276 m cl s 1205 1276 m 18 X s 1223 1276 m cl s 1205 1276 m 11 Y s 1205 1287 m cl s
 1205 1276 m -10 Y s 1205 1266 m cl s 1241 1298 m -18 X s 1223 1298 m cl s 1241 1298 m 18 X s 1259 1298 m cl s 1241 1298 m 10 Y s 1241 1308 m cl s 1241 1298 m -9 Y s 1241 1289 m cl s 1276 1322 m -17 X s 1259 1322 m cl s 1276 1322 m 18 X s 1294 1322 m
 cl s 1276 1322 m 9 Y s 1276 1331 m cl s 1276 1322 m -8 Y s 1276 1314 m cl s 1312 1335 m -18 X s 1294 1335 m cl s 1312 1335 m 18 X s 1330 1335 m cl s 1312 1335 m 8 Y s 1312 1343 m cl s 1312 1335 m -8 Y s 1312 1327 m cl s 1348 1366 m -18 X s 1330 1366
 m cl s 1348 1366 m 18 X s 1366 1366 m cl s 1348 1366 m 7 Y s 1348 1373 m cl s 1348 1366 m -8 Y s 1348 1358 m cl s 1384 1386 m -18 X s 1366 1386 m cl s 1384 1386 m 18 X s 1402 1386 m cl s 1384 1386 m 7 Y s 1384 1393 m cl s 1384 1386 m -7 Y s 1384
 1379 m cl s 1420 1398 m -18 X s 1402 1398 m cl s 1420 1398 m 18 X s 1438 1398 m cl s 1420 1398 m 7 Y s 1420 1405 m cl s 1420 1398 m -7 Y s 1420 1391 m cl s 1456 1415 m -18 X s 1438 1415 m cl s 1456 1415 m 18 X s 1474 1415 m cl s 1456 1415 m 6 Y s
 1456 1421 m cl s 1456 1415 m -7 Y s 1456 1408 m cl s 1491 1393 m -17 X s 1474 1393 m cl s 1491 1393 m 18 X s 1509 1393 m cl s 1491 1393 m 6 Y s 1491 1399 m cl s 1491 1393 m -7 Y s 1491 1386 m cl s 1527 1411 m -18 X s 1509 1411 m cl s 1527 1411 m 18
 X s 1545 1411 m cl s 1527 1411 m 6 Y s 1527 1417 m cl s 1527 1411 m -7 Y s 1527 1404 m cl s 1563 1384 m -18 X s 1545 1384 m cl s 1563 1384 m 18 X s 1581 1384 m cl s 1563 1384 m 6 Y s 1563 1390 m cl s 1563 1384 m -7 Y s 1563 1377 m cl s 1599 1372 m
 -18 X s 1581 1372 m cl s 1599 1372 m 18 X s 1617 1372 m cl s 1599 1372 m 7 Y s 1599 1379 m cl s 1599 1372 m -8 Y s 1599 1364 m cl s 1635 1362 m -18 X s 1617 1362 m cl s 1635 1362 m 18 X s 1653 1362 m cl s 1635 1362 m 7 Y s 1635 1369 m cl s 1635 1362
 m -7 Y s 1635 1355 m cl s 1671 1323 m -18 X s 1653 1323 m cl s 1671 1323 m 18 X s 1689 1323 m cl s 1671 1323 m 9 Y s 1671 1332 m cl s 1671 1323 m -8 Y s 1671 1315 m cl s 1706 1288 m -17 X s 1689 1288 m cl s 1706 1288 m 18 X s 1724 1288 m cl s 1706
 1288 m 10 Y s 1706 1298 m cl s 1706 1288 m -9 Y s 1706 1279 m cl s 1742 1266 m -18 X s 1724 1266 m cl s 1742 1266 m 18 X s 1760 1266 m cl s 1742 1266 m 11 Y s 1742 1277 m cl s 1742 1266 m -10 Y s 1742 1256 m cl s 1778 1244 m -18 X s 1760 1244 m cl s
 1778 1244 m 18 X s 1796 1244 m cl s 1778 1244 m 11 Y s 1778 1255 m cl s 1778 1244 m -12 Y s 1778 1232 m cl s 1814 1195 m -18 X s 1796 1195 m cl s 1814 1195 m 18 X s 1832 1195 m cl s 1814 1195 m 13 Y s 1814 1208 m cl s 1814 1195 m -14 Y s 1814 1181 m
 cl s 1850 1173 m -18 X s 1832 1173 m cl s 1850 1173 m 18 X s 1868 1173 m cl s 1850 1173 m 15 Y s 1850 1188 m cl s 1850 1173 m -16 Y s 1850 1157 m cl s 1886 1147 m -18 X s 1868 1147 m cl s 1886 1147 m 18 X s 1904 1147 m cl s 1886 1147 m 17 Y s 1886
 1164 m cl s 1886 1147 m -17 Y s 1886 1130 m cl s 1921 1116 m -17 X s 1904 1116 m cl s 1921 1116 m 18 X s 1939 1116 m cl s 1921 1116 m 19 Y s 1921 1135 m cl s 1921 1116 m -20 Y s 1921 1096 m cl s 1957 1072 m -18 X s 1939 1072 m cl s 1957 1072 m 18 X
 s 1975 1072 m cl s 1957 1072 m 22 Y s 1957 1094 m cl s 1957 1072 m -23 Y s 1957 1049 m cl s 1993 1054 m -18 X s 1975 1054 m cl s 1993 1054 m 18 X s 2011 1054 m cl s 1993 1054 m 25 Y s 1993 1079 m cl s 1993 1054 m -24 Y s 1993 1030 m cl s 2029 985 m
 -18 X s 2011 985 m cl s 2029 985 m 18 X s 2047 985 m cl s 2029 985 m 31 Y s 2029 1016 m cl s 2029 985 m -33 Y s 2029 952 m cl s 2065 991 m -18 X s 2047 991 m cl s 2065 991 m 18 X s 2083 991 m cl s 2065 991 m 30 Y s 2065 1021 m cl s 2065 991 m -32 Y
 s 2065 959 m cl s 2101 985 m -18 X s 2083 985 m cl s 2101 985 m 18 X s 2119 985 m cl s 2101 985 m 31 Y s 2101 1016 m cl s 2101 985 m -33 Y s 2101 952 m cl s 2136 905 m -17 X s 2119 905 m cl s 2136 905 m 18 X s 2154 905 m cl s 2136 905 m 43 Y s 2136
 948 m cl s 2136 905 m -44 Y s 2136 861 m cl s /w 31 def /w2 {w 2 div} def /w3 {w 3 div} def 381 958 417 934 452 925 488 894 524 972 560 978 596 950 632 985 667 1026 703 996 739 1035 775 1031 811 1098 847 1068 882 1081 918 1116 954 1145 990 1160 1026
 1167 1062 1167 1097 1217 1133 1226 1169 1255 1205 1276 1241 1298 1276 1322 1312 1335 1348 1366 1384 1386 1420 1398 1456 1415 1491 1393 1527 1411 1563 1384 1599 1372 1635 1362 1671 1323 1706 1288 1742 1266 1778 1244 1814 1195 1850 1173 1886 1147 1921
 1116 1957 1072 1993 1054 2029 985 2065 991 2101 985 2136 905 50 { m20} R 0 1 1 c 1 1 0 c black 1 1 0 c 363 933 m 36 10 d 35 10 d 36 10 d 36 11 d 36 11 d 36 11 d 36 11 d 35 12 d 36 12 d 36 12 d 36 12 d 36 13 d 36 14 d 35 14 d 36 14 d 36 16 d 36 16 d
 36 16 d 36 18 d 35 19 d 18 10 d 18 10 d 18 11 d 18 12 d 18 13 d 18 13 d 18 14 d 18 13 d 18 14 d 18 13 d 17 13 d 18 12 d 36 22 d 36 19 d 18 8 d 18 7 d 9 3 d 9 3 d 9 2 d 9 2 d 9 2 d 9 1 d 9 X 9 1 d 9 -1 d 8 X 9 -2 d 9 -1 d 9 -2 d 9 -3 d 9 -3 d 9 -3 d
 18 -7 d 18 -8 d 36 -19 d 36 -23 d 18 -12 d 18 -13 d 17 -14 d 18 -13 d 18 -14 d 18 -13 d 18 -14 d 18 -13 d 18 -14 d 18 -14 d 36 -28 d 36 -29 d 35 -32 d 36 -32 d 36 -34 d 36 -36 d 36 -39 d 36 -40 d 35 -43 d -77 Y -35 55 d -36 51 d -36 48 d -36 45 d
 -36 41 d -36 37 d -35 35 d -36 32 d -36 30 d -18 14 d -18 15 d -18 14 d -18 14 d -18 14 d -18 13 d -18 14 d -17 13 d -18 13 d -18 13 d -36 25 d -36 21 d -18 9 d -18 7 d -9 3 d -9 2 d -9 2 d -9 2 d -9 1 d -9 1 d -8 1 d -18 X -9 -1 d -9 X -9 -2 d -9
 -1 d -9 -2 d -9 -2 d -9 -3 d -18 -7 d -18 -9 d -36 -21 d -36 -25 d -18 -13 d -17 -13 d -18 -13 d -18 -14 d -18 -13 d -18 -14 d -18 -13 d -18 -12 d -18 -12 d -18 -12 d -18 -10 d -18 -11 d -35 -19 d -36 -18 d -36 -16 d -36 -17 d -36 -15 d -36 -16 d
 -35 -15 d -36 -15 d -36 -14 d -36 -15 d -36 -14 d -36 -13 d -35 -13 d -36 -13 d -36 -13 d -36 -12 d -36 -12 d -36 -12 d -35 -11 d -36 -11 d f 0 1 1 c 0 1 0 c black 0 1 0 c 363 924 m 36 11 d 35 10 d 36 11 d 36 10 d 36 12 d 36 11 d 36 12 d 35 11 d 36
 13 d 36 12 d 36 13 d 36 14 d 36 13 d 35 15 d 36 14 d 36 16 d 36 16 d 36 17 d 36 17 d 35 19 d 18 10 d 18 11 d 18 11 d 18 12 d 18 12 d 18 14 d 18 13 d 18 14 d 18 13 d 18 14 d 17 12 d 18 13 d 36 23 d 36 19 d 18 8 d 18 7 d 9 3 d 9 3 d 9 2 d 9 2 d 9 1 d
 9 1 d 9 1 d 18 X 8 -1 d 9 -1 d 9 -2 d 9 -2 d 9 -2 d 9 -3 d 9 -3 d 18 -7 d 18 -8 d 36 -20 d 36 -23 d 18 -12 d 18 -13 d 17 -14 d 18 -13 d 18 -14 d 18 -13 d 18 -14 d 18 -14 d 18 -13 d 18 -14 d 36 -29 d 36 -30 d 35 -32 d 36 -34 d 36 -35 d 36 -38 d 36
 -40 d 36 -43 d 35 -44 d -39 Y -35 51 d -36 48 d -36 45 d -36 42 d -36 39 d -36 36 d -35 33 d -36 32 d -36 29 d -18 15 d -18 14 d -18 14 d -18 14 d -18 13 d -18 14 d -18 13 d -17 14 d -18 13 d -18 13 d -36 24 d -36 21 d -18 8 d -18 7 d -9 3 d -9 2 d
 -9 3 d -9 1 d -9 2 d -9 1 d -8 X -9 1 d -9 X -9 -1 d -9 -1 d -9 -1 d -9 -2 d -9 -2 d -9 -2 d -9 -3 d -18 -7 d -18 -8 d -36 -21 d -36 -24 d -18 -13 d -17 -13 d -18 -13 d -18 -14 d -18 -13 d -18 -14 d -18 -13 d -18 -13 d -18 -12 d -18 -11 d -18 -11 d
 -18 -10 d -35 -19 d -36 -18 d -36 -16 d -36 -16 d -36 -16 d -36 -15 d -35 -15 d -36 -15 d -36 -14 d -36 -13 d -36 -14 d -36 -13 d -35 -13 d -36 -12 d -36 -12 d -36 -12 d -36 -12 d -36 -11 d -35 -11 d -36 -11 d f 0 0 1 c 9 lw black 0 0 1 c 363 915 m
 36 11 d 35 10 d 36 11 d 36 11 d 36 12 d 36 12 d 36 12 d 35 12 d 36 13 d 36 13 d 36 13 d 36 14 d 36 14 d 35 14 d 36 15 d 36 16 d 36 16 d 36 17 d 36 17 d 35 19 d 18 10 d 18 11 d 18 11 d 18 12 d 18 13 d 18 13 d 18 13 d 18 14 d 18 14 d 18 13 d 17 13 d
 18 12 d 36 24 d 36 20 d 18 8 d 18 7 d 9 3 d 9 2 d 9 3 d 9 1 d 9 2 d 9 1 d 27 X 8 -1 d 9 -1 d 9 -1 d 9 -2 d 9 -2 d 9 -3 d 9 -3 d 18 -7 d 18 -8 d 36 -20 d 36 -24 d 18 -13 d 18 -13 d 17 -13 d 18 -14 d 18 -13 d 18 -14 d 18 -14 d 18 -13 d 18 -14 d 18 -15
 d 36 -29 d 36 -30 d 35 -33 d 36 -35 d 36 -37 d 36 -40 d 36 -42 d 36 -45 d 35 -47 d s black 3 lw 381 958 m -18 X s 363 958 m cl s 381 958 m 18 X s 399 958 m cl s 381 958 m 35 Y s 381 993 m cl s 381 958 m -36 Y s 381 922 m cl s 417 934 m -18 X s 399
 934 m cl s 417 934 m 17 X s 434 934 m cl s 417 934 m 38 Y s 417 972 m cl s 417 934 m -39 Y s 417 895 m cl s 452 925 m -18 X s 434 925 m cl s 452 925 m 18 X s 470 925 m cl s 452 925 m 40 Y s 452 965 m cl s 452 925 m -41 Y s 452 884 m cl s 488 894 m
 -18 X s 470 894 m cl s 488 894 m 18 X s 506 894 m cl s 488 894 m 45 Y s 488 939 m cl s 488 894 m -47 Y s 488 847 m cl s 524 972 m -18 X s 506 972 m cl s 524 972 m 18 X s 542 972 m cl s 524 972 m 33 Y s 524 1005 m cl s 524 972 m -34 Y s 524 938 m cl
 s 560 978 m -18 X s 542 978 m cl s 560 978 m 18 X s 578 978 m cl s 560 978 m 33 Y s 560 1011 m cl s 560 978 m -33 Y s 560 945 m cl s 596 950 m -18 X s 578 950 m cl s 596 950 m 18 X s 614 950 m cl s 596 950 m 37 Y s 596 987 m cl s 596 950 m -37 Y s
 596 913 m cl s 632 985 m -18 X s 614 985 m cl s 632 985 m 17 X s 649 985 m cl s 632 985 m 31 Y s 632 1016 m cl s 632 985 m -33 Y s 632 952 m cl s 667 1026 m -18 X s 649 1026 m cl s 667 1026 m 18 X s 685 1026 m cl s 667 1026 m 27 Y s 667 1053 m cl s
 667 1026 m -27 Y s 667 999 m cl s 703 996 m -18 X s 685 996 m cl s 703 996 m 18 X s 721 996 m cl s 703 996 m 30 Y s 703 1026 m cl s 703 996 m -31 Y s 703 965 m cl s 739 1035 m -18 X s 721 1035 m cl s 739 1035 m 18 X s 757 1035 m cl s 739 1035 m 26 Y
 s 739 1061 m cl s 739 1035 m -27 Y s 739 1008 m cl s 775 1031 m -18 X s 757 1031 m cl s 775 1031 m 18 X s 793 1031 m cl s 775 1031 m 26 Y s 775 1057 m cl s 775 1031 m -27 Y s 775 1004 m cl s 811 1098 m -18 X s 793 1098 m cl s 811 1098 m 18 X s 829
 1098 m cl s 811 1098 m 21 Y s 811 1119 m cl s 811 1098 m -21 Y s 811 1077 m cl s 847 1068 m -18 X s 829 1068 m cl s 847 1068 m 17 X s 864 1068 m cl s 847 1068 m 23 Y s 847 1091 m cl s 847 1068 m -23 Y s 847 1045 m cl s 882 1081 m -18 X s 864 1081 m
 cl s 882 1081 m 18 X s 900 1081 m cl s 882 1081 m 22 Y s 882 1103 m cl s 882 1081 m -22 Y s 882 1059 m cl s 918 1116 m -18 X s 900 1116 m cl s 918 1116 m 18 X s 936 1116 m cl s 918 1116 m 19 Y s 918 1135 m cl s 918 1116 m -20 Y s 918 1096 m cl s 954
 1145 m -18 X s 936 1145 m cl s 954 1145 m 18 X s 972 1145 m cl s 954 1145 m 18 Y s 954 1163 m cl s 954 1145 m -17 Y s 954 1128 m cl s 990 1160 m -18 X s 972 1160 m cl s 990 1160 m 18 X s 1008 1160 m cl s 990 1160 m 16 Y s 990 1176 m cl s 990 1160 m
 -17 Y s 990 1143 m cl s 1026 1167 m -18 X s 1008 1167 m cl s 1026 1167 m 18 X s 1044 1167 m cl s 1026 1167 m 15 Y s 1026 1182 m cl s 1026 1167 m -16 Y s 1026 1151 m cl s 1062 1167 m -18 X s 1044 1167 m cl s 1062 1167 m 17 X s 1079 1167 m cl s 1062
 1167 m 15 Y s 1062 1182 m cl s 1062 1167 m -16 Y s 1062 1151 m cl s 1097 1217 m -18 X s 1079 1217 m cl s 1097 1217 m 18 X s 1115 1217 m cl s 1097 1217 m 12 Y s 1097 1229 m cl s 1097 1217 m -13 Y s 1097 1204 m cl s 1133 1226 m -18 X s 1115 1226 m cl
 s 1133 1226 m 18 X s 1151 1226 m cl s 1133 1226 m 12 Y s 1133 1238 m cl s 1133 1226 m -12 Y s 1133 1214 m cl s 1169 1255 m -18 X s 1151 1255 m cl s 1169 1255 m 18 X s 1187 1255 m cl s 1169 1255 m 11 Y s 1169 1266 m cl s 1169 1255 m -11 Y s 1169 1244
 m cl s 1205 1276 m -18 X s 1187 1276 m cl s 1205 1276 m 18 X s 1223 1276 m cl s 1205 1276 m 11 Y s 1205 1287 m cl s 1205 1276 m -10 Y s 1205 1266 m cl s 1241 1298 m -18 X s 1223 1298 m cl s 1241 1298 m 18 X s 1259 1298 m cl s 1241 1298 m 10 Y s 1241
 1308 m cl s 1241 1298 m -9 Y s 1241 1289 m cl s 1276 1322 m -17 X s 1259 1322 m cl s 1276 1322 m 18 X s 1294 1322 m cl s 1276 1322 m 9 Y s 1276 1331 m cl s 1276 1322 m -8 Y s 1276 1314 m cl s 1312 1335 m -18 X s 1294 1335 m cl s 1312 1335 m 18 X s
 1330 1335 m cl s 1312 1335 m 8 Y s 1312 1343 m cl s 1312 1335 m -8 Y s 1312 1327 m cl s 1348 1366 m -18 X s 1330 1366 m cl s 1348 1366 m 18 X s 1366 1366 m cl s 1348 1366 m 7 Y s 1348 1373 m cl s 1348 1366 m -8 Y s 1348 1358 m cl s 1384 1386 m -18 X
 s 1366 1386 m cl s 1384 1386 m 18 X s 1402 1386 m cl s 1384 1386 m 7 Y s 1384 1393 m cl s 1384 1386 m -7 Y s 1384 1379 m cl s 1420 1398 m -18 X s 1402 1398 m cl s 1420 1398 m 18 X s 1438 1398 m cl s 1420 1398 m 7 Y s 1420 1405 m cl s 1420 1398 m -7
 Y s 1420 1391 m cl s 1456 1415 m -18 X s 1438 1415 m cl s 1456 1415 m 18 X s 1474 1415 m cl s 1456 1415 m 6 Y s 1456 1421 m cl s 1456 1415 m -7 Y s 1456 1408 m cl s 1491 1393 m -17 X s 1474 1393 m cl s 1491 1393 m 18 X s 1509 1393 m cl s 1491 1393 m
 6 Y s 1491 1399 m cl s 1491 1393 m -7 Y s 1491 1386 m cl s 1527 1411 m -18 X s 1509 1411 m cl s 1527 1411 m 18 X s 1545 1411 m cl s 1527 1411 m 6 Y s 1527 1417 m cl s 1527 1411 m -7 Y s 1527 1404 m cl s 1563 1384 m -18 X s 1545 1384 m cl s 1563 1384
 m 18 X s 1581 1384 m cl s 1563 1384 m 6 Y s 1563 1390 m cl s 1563 1384 m -7 Y s 1563 1377 m cl s 1599 1372 m -18 X s 1581 1372 m cl s 1599 1372 m 18 X s 1617 1372 m cl s 1599 1372 m 7 Y s 1599 1379 m cl s 1599 1372 m -8 Y s 1599 1364 m cl s 1635
 1362 m -18 X s 1617 1362 m cl s 1635 1362 m 18 X s 1653 1362 m cl s 1635 1362 m 7 Y s 1635 1369 m cl s 1635 1362 m -7 Y s 1635 1355 m cl s 1671 1323 m -18 X s 1653 1323 m cl s 1671 1323 m 18 X s 1689 1323 m cl s 1671 1323 m 9 Y s 1671 1332 m cl s
 1671 1323 m -8 Y s 1671 1315 m cl s 1706 1288 m -17 X s 1689 1288 m cl s 1706 1288 m 18 X s 1724 1288 m cl s 1706 1288 m 10 Y s 1706 1298 m cl s 1706 1288 m -9 Y s 1706 1279 m cl s 1742 1266 m -18 X s 1724 1266 m cl s 1742 1266 m 18 X s 1760 1266 m
 cl s 1742 1266 m 11 Y s 1742 1277 m cl s 1742 1266 m -10 Y s 1742 1256 m cl s 1778 1244 m -18 X s 1760 1244 m cl s 1778 1244 m 18 X s 1796 1244 m cl s 1778 1244 m 11 Y s 1778 1255 m cl s 1778 1244 m -12 Y s 1778 1232 m cl s 1814 1195 m -18 X s 1796
 1195 m cl s 1814 1195 m 18 X s 1832 1195 m cl s 1814 1195 m 13 Y s 1814 1208 m cl s 1814 1195 m -14 Y s 1814 1181 m cl s 1850 1173 m -18 X s 1832 1173 m cl s 1850 1173 m 18 X s 1868 1173 m cl s 1850 1173 m 15 Y s 1850 1188 m cl s 1850 1173 m -16 Y s
 1850 1157 m cl s 1886 1147 m -18 X s 1868 1147 m cl s 1886 1147 m 18 X s 1904 1147 m cl s 1886 1147 m 17 Y s 1886 1164 m cl s 1886 1147 m -17 Y s 1886 1130 m cl s 1921 1116 m -17 X s 1904 1116 m cl s 1921 1116 m 18 X s 1939 1116 m cl s 1921 1116 m
 19 Y s 1921 1135 m cl s 1921 1116 m -20 Y s 1921 1096 m cl s 1957 1072 m -18 X s 1939 1072 m cl s 1957 1072 m 18 X s 1975 1072 m cl s 1957 1072 m 22 Y s 1957 1094 m cl s 1957 1072 m -23 Y s 1957 1049 m cl s 1993 1054 m -18 X s 1975 1054 m cl s 1993
 1054 m 18 X s 2011 1054 m cl s 1993 1054 m 25 Y s 1993 1079 m cl s 1993 1054 m -24 Y s 1993 1030 m cl s 2029 985 m -18 X s 2011 985 m cl s 2029 985 m 18 X s 2047 985 m cl s 2029 985 m 31 Y s 2029 1016 m cl s 2029 985 m -33 Y s 2029 952 m cl s 2065
 991 m -18 X s 2047 991 m cl s 2065 991 m 18 X s 2083 991 m cl s 2065 991 m 30 Y s 2065 1021 m cl s 2065 991 m -32 Y s 2065 959 m cl s 2101 985 m -18 X s 2083 985 m cl s 2101 985 m 18 X s 2119 985 m cl s 2101 985 m 31 Y s 2101 1016 m cl s 2101 985 m
 -33 Y s 2101 952 m cl s 2136 905 m -17 X s 2119 905 m cl s 2136 905 m 18 X s 2154 905 m cl s 2136 905 m 43 Y s 2136 948 m cl s 2136 905 m -44 Y s 2136 861 m cl s 381 958 417 934 452 925 488 894 524 972 560 978 596 950 632 985 667 1026 703 996 739
 1035 775 1031 811 1098 847 1068 882 1081 918 1116 954 1145 990 1160 1026 1167 1062 1167 1097 1217 1133 1226 1169 1255 1205 1276 1241 1298 1276 1322 1312 1335 1348 1366 1384 1386 1420 1398 1456 1415 1491 1393 1527 1411 1563 1384 1599 1372 1635 1362
 1671 1323 1706 1288 1742 1266 1778 1244 1814 1195 1850 1173 1886 1147 1921 1116 1957 1072 1993 1054 2029 985 2065 991 2101 985 2136 905 50 { m20} R 0.52 0.76 0.64 c[ 4 8] 0 sd 9 lw black 0.52 0.76 0.64 c 363 915 m 36 11 d 35 10 d 36 11 d 36 11 d 36
 12 d 36 12 d 36 12 d 35 12 d 36 13 d 36 13 d 36 13 d 36 14 d 36 14 d 35 14 d 36 15 d 36 16 d 36 16 d 36 16 d 36 17 d 35 18 d 18 9 d 18 9 d 18 10 d 18 9 d 18 10 d 18 10 d 36 19 d 36 17 d 35 14 d 18 6 d 18 5 d 18 5 d 18 4 d 18 4 d 18 2 d 18 3 d 18 1 d
 18 1 d 35 X 18 -1 d 18 -2 d 18 -2 d 18 -3 d 18 -3 d 18 -5 d 18 -4 d 18 -6 d 18 -6 d 36 -14 d 35 -17 d 36 -19 d 36 -22 d 36 -24 d 36 -27 d 18 -14 d 18 -16 d 17 -15 d 18 -17 d 18 -16 d 18 -18 d 36 -37 d 36 -40 d 36 -42 d 36 -45 d 35 -47 d s 0.54 0.66
 0.63 c black 0.54 0.66 0.63 c 1086 634 m 29 97 d s 1115 731 m 18 55 d 18 53 d 18 49 d 18 47 d 18 44 d 18 41 d 9 20 d 9 19 d 9 18 d 9 17 d 9 17 d 8 16 d 9 15 d 9 14 d 18 27 d 18 24 d 36 40 d 18 15 d 9 7 d 9 6 d 9 5 d 9 5 d 9 4 d 9 3 d 9 2 d 9 2 d 9 1
 d 18 X 8 -2 d 9 -1 d 9 -3 d 9 -3 d 9 -4 d 9 -5 d 9 -5 d 9 -7 d 9 -6 d 18 -16 d 36 -41 d 18 -24 d 18 -27 d 9 -15 d 9 -15 d 9 -16 d 9 -17 d 8 -18 d 9 -18 d 9 -19 d 9 -20 d 18 -41 d 18 -44 d 18 -48 d 18 -50 d 18 -53 d 18 -55 d 27 -90 d s black[  ] 0 sd
 3 lw 363 634 m 1791 X s 491 659 m -25 Y s 555 646 m -12 Y s 619 646 m -12 Y s 683 646 m -12 Y s 747 659 m -25 Y s 811 646 m -12 Y s 875 646 m -12 Y s 939 646 m -12 Y s 1003 659 m -25 Y s 1067 646 m -12 Y s 1131 646 m -12 Y s 1195 646 m -12 Y s 1259
 659 m -25 Y s 1323 646 m -12 Y s 1387 646 m -12 Y s 1451 646 m -12 Y s 1515 659 m -25 Y s 1578 646 m -12 Y s 1642 646 m -12 Y s 1706 646 m -12 Y s 1770 659 m -25 Y s 1834 646 m -12 Y s 1898 646 m -12 Y s 1962 646 m -12 Y s 2026 659 m -25 Y s 491 659
 m -25 Y s 427 646 m -12 Y s 363 646 m -12 Y s 2026 659 m -25 Y s 2090 646 m -12 Y s 2154 646 m -12 Y s 363 1484 m 1791 X s 491 1459 m 25 Y s 555 1471 m 13 Y s 619 1471 m 13 Y s 683 1471 m 13 Y s 747 1459 m 25 Y s 811 1471 m 13 Y s 875 1471 m 13 Y s
 939 1471 m 13 Y s 1003 1459 m 25 Y s 1067 1471 m 13 Y s 1131 1471 m 13 Y s 1195 1471 m 13 Y s 1259 1459 m 25 Y s 1323 1471 m 13 Y s 1387 1471 m 13 Y s 1451 1471 m 13 Y s 1515 1459 m 25 Y s 1578 1471 m 13 Y s 1642 1471 m 13 Y s 1706 1471 m 13 Y s
 1770 1459 m 25 Y s 1834 1471 m 13 Y s 1898 1471 m 13 Y s 1962 1471 m 13 Y s 2026 1459 m 25 Y s 491 1459 m 25 Y s 427 1471 m 13 Y s 363 1471 m 13 Y s 2026 1459 m 25 Y s 2090 1471 m 13 Y s 2154 1471 m 13 Y s 363 634 m 850 Y s 390 645 m -27 X s 390 701
 m -27 X s 390 741 m -27 X s 390 772 m -27 X s 390 798 m -27 X s 390 819 m -27 X s 390 838 m -27 X s 390 854 m -27 X s 417 869 m -54 X s 390 965 m -27 X s 390 1022 m -27 X s 390 1062 m -27 X s 390 1093 m -27 X s 390 1118 m -27 X s 390 1140 m -27 X s
 390 1158 m -27 X s 390 1175 m -27 X s 417 1189 m -54 X s 390 1286 m -27 X s 390 1342 m -27 X s 390 1382 m -27 X s 390 1413 m -27 X s 390 1439 m -27 X s 390 1460 m -27 X s 390 1479 m -27 X s 2154 634 m 850 Y s 2127 645 m 27 X s 2127 701 m 27 X s 2127
 741 m 27 X s 2127 772 m 27 X s 2127 798 m 27 X s 2127 819 m 27 X s 2127 838 m 27 X s 2127 854 m 27 X s 2101 869 m 53 X s 2127 965 m 27 X s 2127 1022 m 27 X s 2127 1062 m 27 X s 2127 1093 m 27 X s 2127 1118 m 27 X s 2127 1140 m 27 X s 2127 1158 m 27
 X s 2127 1175 m 27 X s 2101 1189 m 53 X s 2127 1286 m 27 X s 2127 1342 m 27 X s 2127 1382 m 27 X s 2127 1413 m 27 X s 2127 1439 m 27 X s 2127 1460 m 27 X s 2127 1479 m 27 X s
 gsave  2268 1077 0 461 C 677.708 1215.31 t 0 r /Helvetica findfont 58.7189 sf 0 0 m (4mu) show NC gr  1 1 1 c 453 161 454 1269 bf black
 gsave  2268 1077 0 461 C 566.929 1371.71 t 0 r /Helvetica-Bold findfont 48.9324 sf 0 0 m (MC15) show NC gr  510 1390 m20
 gsave  2268 1077 0 461 C 566.929 1293.51 t 0 r /Helvetica-Bold findfont 48.9324 sf 0 0 m (Projection of Signal pdf) show NC gr  0 0 1 c 9 lw 471 1309 m 79 X s black 3 lw 1 1 1 c 2268 461 0 0 bf black 1 1 1 c 1791 364 363 74 bf black 1791 364 363 74
 bl 363 74 m 1791 X s
 gsave  2268 461 0 0 C 1915.83 13.0329 t 0 r /Helvetica findfont 22.9045 sf 0 0 m (4l Invariant Mass \(GeV\)) show NC gr  491 85 m -11 Y s 555 79 m -5 Y s 619 79 m -5 Y s 683 79 m -5 Y s 747 85 m -11 Y s 811 79 m -5 Y s 875 79 m -5 Y s 939 79 m -5 Y
 s 1003 85 m -11 Y s 1067 79 m -5 Y s 1131 79 m -5 Y s 1195 79 m -5 Y s 1259 85 m -11 Y s 1323 79 m -5 Y s 1387 79 m -5 Y s 1451 79 m -5 Y s 1515 85 m -11 Y s 1578 79 m -5 Y s 1642 79 m -5 Y s 1706 79 m -5 Y s 1770 85 m -11 Y s 1834 79 m -5 Y s 1898
 79 m -5 Y s 1962 79 m -5 Y s 2026 85 m -11 Y s 491 85 m -11 Y s 427 79 m -5 Y s 363 79 m -5 Y s 2026 85 m -11 Y s 2090 79 m -5 Y s 2154 79 m -5 Y s
 gsave  2268 461 0 0 C 469.183 55.3896 t 0 r /Helvetica findfont 22.9045 sf 0 0 m (720) show NC gr 
 gsave  2268 461 0 0 C 726.582 55.3896 t 0 r /Helvetica findfont 22.9045 sf 0 0 m (740) show NC gr 
 gsave  2268 461 0 0 C 980.722 55.3896 t 0 r /Helvetica findfont 22.9045 sf 0 0 m (760) show NC gr 
 gsave  2268 461 0 0 C 1238.12 55.3896 t 0 r /Helvetica findfont 22.9045 sf 0 0 m (780) show NC gr 
 gsave  2268 461 0 0 C 1492.26 55.3896 t 0 r /Helvetica findfont 22.9045 sf 0 0 m (800) show NC gr 
 gsave  2268 461 0 0 C 1749.66 55.3896 t 0 r /Helvetica findfont 22.9045 sf 0 0 m (820) show NC gr 
 gsave  2268 461 0 0 C 2003.8 55.3896 t 0 r /Helvetica findfont 22.9045 sf 0 0 m (840) show NC gr  363 438 m 1791 X s 491 427 m 11 Y s 555 433 m 5 Y s 619 433 m 5 Y s 683 433 m 5 Y s 747 427 m 11 Y s 811 433 m 5 Y s 875 433 m 5 Y s 939 433 m 5 Y s
 1003 427 m 11 Y s 1067 433 m 5 Y s 1131 433 m 5 Y s 1195 433 m 5 Y s 1259 427 m 11 Y s 1323 433 m 5 Y s 1387 433 m 5 Y s 1451 433 m 5 Y s 1515 427 m 11 Y s 1578 433 m 5 Y s 1642 433 m 5 Y s 1706 433 m 5 Y s 1770 427 m 11 Y s 1834 433 m 5 Y s 1898
 433 m 5 Y s 1962 433 m 5 Y s 2026 427 m 11 Y s 491 427 m 11 Y s 427 433 m 5 Y s 363 433 m 5 Y s 2026 427 m 11 Y s 2090 433 m 5 Y s 2154 433 m 5 Y s 363 74 m 364 Y s 417 74 m -54 X s 390 81 m -27 X s 390 88 m -27 X s 390 96 m -27 X s 390 103 m -27 X
 s 417 110 m -54 X s 390 118 m -27 X s 390 125 m -27 X s 390 132 m -27 X s 390 139 m -27 X s 417 147 m -54 X s 390 154 m -27 X s 390 161 m -27 X s 390 169 m -27 X s 390 176 m -27 X s 417 183 m -54 X s 390 190 m -27 X s 390 198 m -27 X s 390 205 m -27
 X s 390 212 m -27 X s 417 220 m -54 X s 390 227 m -27 X s 390 234 m -27 X s 390 241 m -27 X s 390 249 m -27 X s 417 256 m -54 X s 390 263 m -27 X s 390 271 m -27 X s 390 278 m -27 X s 390 285 m -27 X s 417 293 m -54 X s 390 300 m -27 X s 390 307 m
 -27 X s 390 314 m -27 X s 390 322 m -27 X s 417 329 m -54 X s 390 336 m -27 X s 390 344 m -27 X s 390 351 m -27 X s 390 358 m -27 X s 417 365 m -54 X s 390 373 m -27 X s 390 380 m -27 X s 390 387 m -27 X s 390 395 m -27 X s 417 402 m -54 X s 390 409
 m -27 X s 390 416 m -27 X s 390 424 m -27 X s 390 431 m -27 X s 417 438 m -54 X s
 gsave  2268 461 0 0 C 329.08 65.1643 t 0 r /Helvetica findfont 22.9045 sf 0 0 m (\2555) show NC gr 
 gsave  2268 461 0 0 C 329.08 101.005 t 0 r /Helvetica findfont 22.9045 sf 0 0 m (\2554) show NC gr 
 gsave  2268 461 0 0 C 329.08 140.103 t 0 r /Helvetica findfont 22.9045 sf 0 0 m (\2553) show NC gr 
 gsave  2268 461 0 0 C 329.08 175.944 t 0 r /Helvetica findfont 22.9045 sf 0 0 m (\2552) show NC gr 
 gsave  2268 461 0 0 C 332.338 211.784 t 0 r /Helvetica findfont 22.9045 sf 0 0 m (\2551) show NC gr 
 gsave  2268 461 0 0 C 335.596 247.624 t 0 r /Helvetica findfont 22.9045 sf 0 0 m (0) show NC gr 
 gsave  2268 461 0 0 C 338.854 283.465 t 0 r /Helvetica findfont 22.9045 sf 0 0 m (1) show NC gr 
 gsave  2268 461 0 0 C 335.596 319.305 t 0 r /Helvetica findfont 22.9045 sf 0 0 m (2) show NC gr 
 gsave  2268 461 0 0 C 335.596 358.403 t 0 r /Helvetica findfont 22.9045 sf 0 0 m (3) show NC gr 
 gsave  2268 461 0 0 C 335.596 394.244 t 0 r /Helvetica findfont 22.9045 sf 0 0 m (4) show NC gr 
 gsave  2268 461 0 0 C 335.596 430.084 t 0 r /Helvetica findfont 22.9045 sf 0 0 m (5) show NC gr  2154 74 m 364 Y s 2101 74 m 53 X s 2127 81 m 27 X s 2127 88 m 27 X s 2127 96 m 27 X s 2127 103 m 27 X s 2101 110 m 53 X s 2127 118 m 27 X s 2127 125 m
 27 X s 2127 132 m 27 X s 2127 139 m 27 X s 2101 147 m 53 X s 2127 154 m 27 X s 2127 161 m 27 X s 2127 169 m 27 X s 2127 176 m 27 X s 2101 183 m 53 X s 2127 190 m 27 X s 2127 198 m 27 X s 2127 205 m 27 X s 2127 212 m 27 X s 2101 220 m 53 X s 2127 227
 m 27 X s 2127 234 m 27 X s 2127 241 m 27 X s 2127 249 m 27 X s 2101 256 m 53 X s 2127 263 m 27 X s 2127 271 m 27 X s 2127 278 m 27 X s 2127 285 m 27 X s 2101 293 m 53 X s 2127 300 m 27 X s 2127 307 m 27 X s 2127 314 m 27 X s 2127 322 m 27 X s 2101
 329 m 53 X s 2127 336 m 27 X s 2127 344 m 27 X s 2127 351 m 27 X s 2127 358 m 27 X s 2101 365 m 53 X s 2127 373 m 27 X s 2127 380 m 27 X s 2127 387 m 27 X s 2127 395 m 27 X s 2101 402 m 53 X s 2127 409 m 27 X s 2127 416 m 27 X s 2127 424 m 27 X s
 2127 431 m 27 X s 2101 438 m 53 X s 6 lw 0.2 0.8 0.2 c black 3 lw 0.2 0.8 0.2 c 363 256 m 38 Y 36 X -35 Y 35 X -17 Y 36 X -36 Y 36 X 59 Y 36 X -6 Y 36 X -41 Y 36 X 21 Y 35 X 36 Y 36 X -54 Y 36 X 30 Y 36 X -24 Y 36 X 84 Y 36 X -73 Y 35 X -4 Y 36 X 33
 Y 36 X 30 Y 36 X -2 Y 36 X -23 Y 36 X -42 Y 35 X 81 Y 36 X -35 Y 36 X 17 Y 36 X -16 Y 36 X -18 Y 36 X -10 Y 35 X -55 Y 36 X 39 Y 36 X 14 Y 36 X -4 Y 36 X 60 Y 36 X -124 Y 35 X 140 Y 36 X -81 Y 36 X 32 Y 36 X 56 Y 36 X -65 Y 36 X -32 Y 35 X 19 Y 36 X
 16 Y 36 X -60 Y 36 X 22 Y 36 X 12 Y 36 X 2 Y 35 X -14 Y 36 X 30 Y 36 X -37 Y 36 X 55 Y 36 X 37 Y 36 X -38 Y 35 X -17 Y f 6 lw black 0.2 0.8 0.2 c black 363 294 m 36 X -35 Y 35 X -17 Y 36 X -36 Y 36 X 59 Y 36 X -6 Y 36 X -41 Y 36 X 21 Y 35 X 36 Y 36
 X -54 Y 36 X 30 Y 36 X -24 Y 36 X 84 Y 36 X -73 Y 35 X -4 Y 36 X 33 Y 36 X 30 Y 36 X -2 Y 36 X -23 Y 36 X -42 Y 35 X 81 Y 36 X -35 Y 36 X 17 Y 36 X -16 Y 36 X -18 Y 36 X -10 Y 35 X -55 Y 36 X 39 Y 36 X 14 Y 36 X -4 Y 36 X 60 Y 36 X -124 Y 35 X 140 Y
 36 X -81 Y 36 X 32 Y 36 X 56 Y 36 X -65 Y 36 X -32 Y 35 X 19 Y 36 X 16 Y 36 X -60 Y 36 X 22 Y 36 X 12 Y 36 X 2 Y 35 X -14 Y 36 X 30 Y 36 X -37 Y 36 X 55 Y 36 X 37 Y 36 X -38 Y 35 X s 3 lw 363 74 m 1791 X s 491 85 m -11 Y s 555 79 m -5 Y s 619 79 m
 -5 Y s 683 79 m -5 Y s 747 85 m -11 Y s 811 79 m -5 Y s 875 79 m -5 Y s 939 79 m -5 Y s 1003 85 m -11 Y s 1067 79 m -5 Y s 1131 79 m -5 Y s 1195 79 m -5 Y s 1259 85 m -11 Y s 1323 79 m -5 Y s 1387 79 m -5 Y s 1451 79 m -5 Y s 1515 85 m -11 Y s 1578
 79 m -5 Y s 1642 79 m -5 Y s 1706 79 m -5 Y s 1770 85 m -11 Y s 1834 79 m -5 Y s 1898 79 m -5 Y s 1962 79 m -5 Y s 2026 85 m -11 Y s 491 85 m -11 Y s 427 79 m -5 Y s 363 79 m -5 Y s 2026 85 m -11 Y s 2090 79 m -5 Y s 2154 79 m -5 Y s 363 438 m 1791
 X s 491 427 m 11 Y s 555 433 m 5 Y s 619 433 m 5 Y s 683 433 m 5 Y s 747 427 m 11 Y s 811 433 m 5 Y s 875 433 m 5 Y s 939 433 m 5 Y s 1003 427 m 11 Y s 1067 433 m 5 Y s 1131 433 m 5 Y s 1195 433 m 5 Y s 1259 427 m 11 Y s 1323 433 m 5 Y s 1387 433 m
 5 Y s 1451 433 m 5 Y s 1515 427 m 11 Y s 1578 433 m 5 Y s 1642 433 m 5 Y s 1706 433 m 5 Y s 1770 427 m 11 Y s 1834 433 m 5 Y s 1898 433 m 5 Y s 1962 433 m 5 Y s 2026 427 m 11 Y s 491 427 m 11 Y s 427 433 m 5 Y s 363 433 m 5 Y s 2026 427 m 11 Y s
 2090 433 m 5 Y s 2154 433 m 5 Y s 363 74 m 364 Y s 417 74 m -54 X s 390 81 m -27 X s 390 88 m -27 X s 390 96 m -27 X s 390 103 m -27 X s 417 110 m -54 X s 390 118 m -27 X s 390 125 m -27 X s 390 132 m -27 X s 390 139 m -27 X s 417 147 m -54 X s 390
 154 m -27 X s 390 161 m -27 X s 390 169 m -27 X s 390 176 m -27 X s 417 183 m -54 X s 390 190 m -27 X s 390 198 m -27 X s 390 205 m -27 X s 390 212 m -27 X s 417 220 m -54 X s 390 227 m -27 X s 390 234 m -27 X s 390 241 m -27 X s 390 249 m -27 X s
 417 256 m -54 X s 390 263 m -27 X s 390 271 m -27 X s 390 278 m -27 X s 390 285 m -27 X s 417 293 m -54 X s 390 300 m -27 X s 390 307 m -27 X s 390 314 m -27 X s 390 322 m -27 X s 417 329 m -54 X s 390 336 m -27 X s 390 344 m -27 X s 390 351 m -27 X
 s 390 358 m -27 X s 417 365 m -54 X s 390 373 m -27 X s 390 380 m -27 X s 390 387 m -27 X s 390 395 m -27 X s 417 402 m -54 X s 390 409 m -27 X s 390 416 m -27 X s 390 424 m -27 X s 390 431 m -27 X s 417 438 m -54 X s 2154 74 m 364 Y s 2101 74 m 53
 X s 2127 81 m 27 X s 2127 88 m 27 X s 2127 96 m 27 X s 2127 103 m 27 X s 2101 110 m 53 X s 2127 118 m 27 X s 2127 125 m 27 X s 2127 132 m 27 X s 2127 139 m 27 X s 2101 147 m 53 X s 2127 154 m 27 X s 2127 161 m 27 X s 2127 169 m 27 X s 2127 176 m 27
 X s 2101 183 m 53 X s 2127 190 m 27 X s 2127 198 m 27 X s 2127 205 m 27 X s 2127 212 m 27 X s 2101 220 m 53 X s 2127 227 m 27 X s 2127 234 m 27 X s 2127 241 m 27 X s 2127 249 m 27 X s 2101 256 m 53 X s 2127 263 m 27 X s 2127 271 m 27 X s 2127 278 m
 27 X s 2127 285 m 27 X s 2101 293 m 53 X s 2127 300 m 27 X s 2127 307 m 27 X s 2127 314 m 27 X s 2127 322 m 27 X s 2101 329 m 53 X s 2127 336 m 27 X s 2127 344 m 27 X s 2127 351 m 27 X s 2127 358 m 27 X s 2101 365 m 53 X s 2127 373 m 27 X s 2127 380
 m 27 X s 2127 387 m 27 X s 2127 395 m 27 X s 2101 402 m 53 X s 2127 409 m 27 X s 2127 416 m 27 X s 2127 424 m 27 X s 2127 431 m 27 X s 2101 438 m 53 X s
 gr  gr showpage
end
%%EOF
