%!PS-Adobe-2.0 EPSF-2.0
%%BoundingBox:  0 0 567 384
%%Title: H4l2015_plotfit/gg_mass_signal_700_H4l_4e.eps: 
%%Creator: ROOT Version 5.34/10
%%CreationDate: Thu Feb 16 13:49:30 2017
%%EndComments
%%BeginProlog
80 dict begin
/s {stroke} def /l {lineto} def /m {moveto} def /t {translate} def
/r {rotate} def /rl {roll}  def /R {repeat} def
/d {rlineto} def /rm {rmoveto} def /gr {grestore} def /f {eofill} def
/c {setrgbcolor} def /black {0 setgray} def /sd {setdash} def
/cl {closepath} def /sf {scalefont setfont} def /lw {setlinewidth} def
/box {m dup 0 exch d exch 0 d 0 exch neg d cl} def
/NC{systemdict begin initclip end}def/C{NC box clip newpath}def
/bl {box s} def /bf {box f} def /Y { 0 exch d} def /X { 0 d} def 
/K {{pop pop 0 moveto} exch kshow} bind def
/ita {/ang 15 def gsave [1 0 ang dup sin exch cos div 1 0 0] concat} def 
/mp {newpath /y exch def /x exch def} def
/side {[w .77 mul w .23 mul] .385 w mul sd w 0 l currentpoint t -144 r} def
/mr {mp x y w2 0 360 arc} def /m24 {mr s} def /m20 {mr f} def
/mb {mp x y w2 add m w2 neg 0 d 0 w neg d w 0 d 0 w d cl} def
/mt {mp x y w2 add m w2 neg w neg d w 0 d cl} def
/m21 {mb f} def /m25 {mb s} def /m22 {mt f} def /m26{mt s} def
/m23 {mp x y w2 sub m w2 w d w neg 0 d cl f} def
/m27 {mp x y w2 add m w3 neg w2 neg d w3 w2 neg d w3 w2 d cl s} def
/m28 {mp x w2 sub y w2 sub w3 add m w3 0 d  0 w3 neg d w3 0 d 0 w3 d w3 0 d  0 w3 d w3 neg 0 d 0 w3 d w3 neg 0 d 0 w3 neg d w3 neg 0 d cl s } def
/m29 {mp gsave x w2 sub y w2 add w3 sub m currentpoint t 4 {side} repeat cl fill gr} def
/m30 {mp gsave x w2 sub y w2 add w3 sub m currentpoint t 4 {side} repeat cl s gr} def
/m31 {mp x y w2 sub m 0 w d x w2 sub y m w 0 d x w2 sub y w2 add m w w neg d x w2 sub y w2 sub m w w d s} def
/m32 {mp x y w2 sub m w2 w d w neg 0 d cl s} def
/m33 {mp x y w2 add m w3 neg w2 neg d w3 w2 neg d w3 w2 d cl f} def
/m34 {mp x w2 sub y w2 sub w3 add m w3 0 d  0 w3 neg d w3 0 d 0 w3 d w3 0 d  0 w3 d w3 neg 0 d 0 w3 d w3 neg 0 d 0 w3 neg d w3 neg 0 d cl f } def
/m2 {mp x y w2 sub m 0 w d x w2 sub y m w 0 d s} def
/m5 {mp x w2 sub y w2 sub m w w d x w2 sub y w2 add m w w neg d s} def
/reEncode {exch findfont dup length dict begin {1 index /FID eq  {pop pop} {def} ifelse } forall /Encoding exch def currentdict end dup /FontName get exch definefont pop } def [/Times-Bold /Times-Italic /Times-BoldItalic /Helvetica /Helvetica-Oblique
 /Helvetica-Bold /Helvetica-BoldOblique /Courier /Courier-Oblique /Courier-Bold /Courier-BoldOblique /Times-Roman /AvantGarde-Book /AvantGarde-BookOblique /AvantGarde-Demi /AvantGarde-DemiOblique /Bookman-Demi /Bookman-DemiItalic /Bookman-Light
 /Bookman-LightItalic /Helvetica-Narrow /Helvetica-Narrow-Bold /Helvetica-Narrow-BoldOblique /Helvetica-Narrow-Oblique /NewCenturySchlbk-Roman /NewCenturySchlbk-Bold /NewCenturySchlbk-BoldItalic /NewCenturySchlbk-Italic /Palatino-Bold
 /Palatino-BoldItalic /Palatino-Italic /Palatino-Roman ] {ISOLatin1Encoding reEncode } forall
%%EndProlog
%%BeginSetup
%%EndSetup
newpath  gsave  .25 .25 scale  gsave  0 0 t black[  ] 0 sd 3 lw 1 1 1 c 2268 1538 0 0 bf black 1 1 1 c 2222 738 23 784 bf black 1 1 1 c 2222 739 23 15 bf black 1 1 1 c 2268 1077 0 461 bf black 1 1 1 c 1791 850 363 634 bf black 1791 850 363 634 bl 363
 634 m 1791 X s
 gsave  2268 1077 0 461 C 1642.14 498.507 t 0 r /Helvetica findfont 48.9324 sf 0 0 m (4l Invariant Mass \(GeV\)) show NC gr  499 659 m -25 Y s 544 646 m -12 Y s 590 646 m -12 Y s 635 646 m -12 Y s 680 646 m -12 Y s 726 659 m -25 Y s 771 646 m -12 Y s
 816 646 m -12 Y s 862 646 m -12 Y s 907 646 m -12 Y s 952 659 m -25 Y s 998 646 m -12 Y s 1043 646 m -12 Y s 1089 646 m -12 Y s 1134 646 m -12 Y s 1179 659 m -25 Y s 1225 646 m -12 Y s 1270 646 m -12 Y s 1315 646 m -12 Y s 1361 646 m -12 Y s 1406
 659 m -25 Y s 1451 646 m -12 Y s 1497 646 m -12 Y s 1542 646 m -12 Y s 1587 646 m -12 Y s 1633 659 m -25 Y s 1678 646 m -12 Y s 1723 646 m -12 Y s 1769 646 m -12 Y s 1814 646 m -12 Y s 1860 659 m -25 Y s 1905 646 m -12 Y s 1950 646 m -12 Y s 1996
 646 m -12 Y s 2041 646 m -12 Y s 2086 659 m -25 Y s 499 659 m -25 Y s 454 646 m -12 Y s 408 646 m -12 Y s 363 646 m -12 Y s 2086 659 m -25 Y s 2132 646 m -12 Y s
 gsave  2268 1077 0 461 C 456.15 586.478 t 0 r /Helvetica findfont 48.9324 sf 0 0 m (650) show NC gr 
 gsave  2268 1077 0 461 C 680.967 586.478 t 0 r /Helvetica findfont 48.9324 sf 0 0 m (660) show NC gr 
 gsave  2268 1077 0 461 C 909.042 586.478 t 0 r /Helvetica findfont 48.9324 sf 0 0 m (670) show NC gr 
 gsave  2268 1077 0 461 C 1133.86 586.478 t 0 r /Helvetica findfont 48.9324 sf 0 0 m (680) show NC gr 
 gsave  2268 1077 0 461 C 1361.93 586.478 t 0 r /Helvetica findfont 48.9324 sf 0 0 m (690) show NC gr 
 gsave  2268 1077 0 461 C 1590.01 586.478 t 0 r /Helvetica findfont 48.9324 sf 0 0 m (700) show NC gr 
 gsave  2268 1077 0 461 C 1814.82 586.478 t 0 r /Helvetica findfont 48.9324 sf 0 0 m (710) show NC gr 
 gsave  2268 1077 0 461 C 2042.9 586.478 t 0 r /Helvetica findfont 48.9324 sf 0 0 m (720) show NC gr  363 1484 m 1791 X s 499 1459 m 25 Y s 544 1471 m 13 Y s 590 1471 m 13 Y s 635 1471 m 13 Y s 680 1471 m 13 Y s 726 1459 m 25 Y s 771 1471 m 13 Y s
 816 1471 m 13 Y s 862 1471 m 13 Y s 907 1471 m 13 Y s 952 1459 m 25 Y s 998 1471 m 13 Y s 1043 1471 m 13 Y s 1089 1471 m 13 Y s 1134 1471 m 13 Y s 1179 1459 m 25 Y s 1225 1471 m 13 Y s 1270 1471 m 13 Y s 1315 1471 m 13 Y s 1361 1471 m 13 Y s 1406
 1459 m 25 Y s 1451 1471 m 13 Y s 1497 1471 m 13 Y s 1542 1471 m 13 Y s 1587 1471 m 13 Y s 1633 1459 m 25 Y s 1678 1471 m 13 Y s 1723 1471 m 13 Y s 1769 1471 m 13 Y s 1814 1471 m 13 Y s 1860 1459 m 25 Y s 1905 1471 m 13 Y s 1950 1471 m 13 Y s 1996
 1471 m 13 Y s 2041 1471 m 13 Y s 2086 1459 m 25 Y s 499 1459 m 25 Y s 454 1471 m 13 Y s 408 1471 m 13 Y s 363 1471 m 13 Y s 2086 1459 m 25 Y s 2132 1471 m 13 Y s 363 634 m 850 Y s
 gsave  2268 1077 0 461 C 120.554 1032.85 t 90 r /Helvetica findfont 48.9324 sf 0 0 m (Events / \( 1.58 GeV \)) show NC gr  390 648 m -27 X s 390 702 m -27 X s 390 740 m -27 X s 390 770 m -27 X s 390 794 m -27 X s 390 815 m -27 X s 390 833 m -27 X s
 390 848 m -27 X s 417 862 m -54 X s
 gsave  2268 1077 0 461 C 342.425 841.427 t 0 r  -55 0 t /Helvetica findfont 48.9324 sf 0 0 m (10) show NC gr  390 954 m -27 X s 390 1008 m -27 X s 390 1047 m -27 X s 390 1076 m -27 X s 390 1100 m -27 X s 390 1121 m -27 X s 390 1139 m -27 X s 390
 1154 m -27 X s 417 1168 m -54 X s
 gsave  2268 1077 0 461 C 322.563 1166.44 t 0 r /Helvetica findfont 32.6216 sf 0 0 m (2) show NC gr 
 gsave  2268 1077 0 461 C 270.432 1146.89 t 0 r /Helvetica findfont 48.9324 sf 0 0 m (10) show NC gr  390 1261 m -27 X s 390 1314 m -27 X s 390 1353 m -27 X s 390 1382 m -27 X s 390 1407 m -27 X s 390 1427 m -27 X s 390 1445 m -27 X s 390 1461 m -27
 X s 417 1475 m -54 X s
 gsave  2268 1077 0 461 C 322.563 1475.97 t 0 r /Helvetica findfont 32.6216 sf 0 0 m (3) show NC gr 
 gsave  2268 1077 0 461 C 270.432 1453.16 t 0 r /Helvetica findfont 48.9324 sf 0 0 m (10) show NC gr  2154 634 m 850 Y s 2127 648 m 27 X s 2127 702 m 27 X s 2127 740 m 27 X s 2127 770 m 27 X s 2127 794 m 27 X s 2127 815 m 27 X s 2127 833 m 27 X s
 2127 848 m 27 X s 2101 862 m 53 X s 2127 954 m 27 X s 2127 1008 m 27 X s 2127 1047 m 27 X s 2127 1076 m 27 X s 2127 1100 m 27 X s 2127 1121 m 27 X s 2127 1139 m 27 X s 2127 1154 m 27 X s 2101 1168 m 53 X s 2127 1261 m 27 X s 2127 1314 m 27 X s 2127
 1353 m 27 X s 2127 1382 m 27 X s 2127 1407 m 27 X s 2127 1427 m 27 X s 2127 1445 m 27 X s 2127 1461 m 27 X s 2101 1475 m 53 X s 381 794 m -18 X s 363 794 m cl s 381 794 m 18 X s 399 794 m cl s 381 794 m 63 Y s 381 857 m cl s 381 794 m -67 Y s 381
 727 m cl s 452 702 m -18 X s 434 702 m cl s 452 702 m 18 X s 470 702 m cl s 452 702 m 91 Y s 452 793 m cl s 452 702 m -68 Y s 452 634 m cl s 488 770 m -18 X s 470 770 m cl s 488 770 m 18 X s 506 770 m cl s 488 770 m 69 Y s 488 839 m cl s 488 770 m
 -75 Y s 488 695 m cl s 524 648 m -18 X s 506 648 m cl s 524 648 m 18 X s 542 648 m cl s 524 648 m 112 Y s 524 760 m cl s 524 648 m -14 Y s 524 634 m cl s 560 794 m -18 X s 542 794 m cl s 560 794 m 18 X s 578 794 m cl s 560 794 m 63 Y s 560 857 m cl
 s 560 794 m -67 Y s 560 727 m cl s 596 740 m -18 X s 578 740 m cl s 596 740 m 18 X s 614 740 m cl s 596 740 m 78 Y s 596 818 m cl s 596 740 m -86 Y s 596 654 m cl s 632 770 m -18 X s 614 770 m cl s 632 770 m 17 X s 649 770 m cl s 632 770 m 69 Y s
 632 839 m cl s 632 770 m -75 Y s 632 695 m cl s 667 702 m -18 X s 649 702 m cl s 667 702 m 18 X s 685 702 m cl s 667 702 m 91 Y s 667 793 m cl s 667 702 m -68 Y s 667 634 m cl s 703 875 m -18 X s 685 875 m cl s 703 875 m 18 X s 721 875 m cl s 703
 875 m 45 Y s 703 920 m cl s 703 875 m -47 Y s 703 828 m cl s 739 794 m -18 X s 721 794 m cl s 739 794 m 18 X s 757 794 m cl s 739 794 m 63 Y s 739 857 m cl s 739 794 m -67 Y s 739 727 m cl s 775 862 m -18 X s 757 862 m cl s 775 862 m 18 X s 793 862
 m cl s 775 862 m 48 Y s 775 910 m cl s 775 862 m -49 Y s 775 813 m cl s 811 815 m -18 X s 793 815 m cl s 811 815 m 18 X s 829 815 m cl s 811 815 m 57 Y s 811 872 m cl s 811 815 m -61 Y s 811 754 m cl s 847 862 m -18 X s 829 862 m cl s 847 862 m 17 X
 s 864 862 m cl s 847 862 m 48 Y s 847 910 m cl s 847 862 m -49 Y s 847 813 m cl s 882 897 m -18 X s 864 897 m cl s 882 897 m 18 X s 900 897 m cl s 882 897 m 41 Y s 882 938 m cl s 882 897 m -42 Y s 882 855 m cl s 918 897 m -18 X s 900 897 m cl s 918
 897 m 18 X s 936 897 m cl s 918 897 m 41 Y s 918 938 m cl s 918 897 m -42 Y s 918 855 m cl s 954 948 m -18 X s 936 948 m cl s 954 948 m 18 X s 972 948 m cl s 954 948 m 33 Y s 954 981 m cl s 954 948 m -35 Y s 954 913 m cl s 990 948 m -18 X s 972 948
 m cl s 990 948 m 18 X s 1008 948 m cl s 990 948 m 33 Y s 990 981 m cl s 990 948 m -35 Y s 990 913 m cl s 1026 967 m -18 X s 1008 967 m cl s 1026 967 m 18 X s 1044 967 m cl s 1026 967 m 31 Y s 1026 998 m cl s 1026 967 m -32 Y s 1026 935 m cl s 1062
 948 m -18 X s 1044 948 m cl s 1062 948 m 17 X s 1079 948 m cl s 1062 948 m 33 Y s 1062 981 m cl s 1062 948 m -35 Y s 1062 913 m cl s 1097 1062 m -18 X s 1079 1062 m cl s 1097 1062 m 18 X s 1115 1062 m cl s 1097 1062 m 21 Y s 1097 1083 m cl s 1097
 1062 m -21 Y s 1097 1041 m cl s 1133 1047 m -18 X s 1115 1047 m cl s 1133 1047 m 18 X s 1151 1047 m cl s 1133 1047 m 22 Y s 1133 1069 m cl s 1133 1047 m -23 Y s 1133 1024 m cl s 1169 1053 m -18 X s 1151 1053 m cl s 1169 1053 m 18 X s 1187 1053 m cl
 s 1169 1053 m 22 Y s 1169 1075 m cl s 1169 1053 m -22 Y s 1169 1031 m cl s 1205 1084 m -18 X s 1187 1084 m cl s 1205 1084 m 18 X s 1223 1084 m cl s 1205 1084 m 19 Y s 1205 1103 m cl s 1205 1084 m -20 Y s 1205 1064 m cl s 1241 1121 m -18 X s 1223
 1121 m cl s 1241 1121 m 18 X s 1259 1121 m cl s 1241 1121 m 17 Y s 1241 1138 m cl s 1241 1121 m -17 Y s 1241 1104 m cl s 1276 1128 m -17 X s 1259 1128 m cl s 1276 1128 m 18 X s 1294 1128 m cl s 1276 1128 m 17 Y s 1276 1145 m cl s 1276 1128 m -16 Y s
 1276 1112 m cl s 1312 1199 m -18 X s 1294 1199 m cl s 1312 1199 m 18 X s 1330 1199 m cl s 1312 1199 m 12 Y s 1312 1211 m cl s 1312 1199 m -12 Y s 1312 1187 m cl s 1348 1224 m -18 X s 1330 1224 m cl s 1348 1224 m 18 X s 1366 1224 m cl s 1348 1224 m
 11 Y s 1348 1235 m cl s 1348 1224 m -11 Y s 1348 1213 m cl s 1384 1265 m -18 X s 1366 1265 m cl s 1384 1265 m 18 X s 1402 1265 m cl s 1384 1265 m 9 Y s 1384 1274 m cl s 1384 1265 m -9 Y s 1384 1256 m cl s 1420 1290 m -18 X s 1402 1290 m cl s 1420
 1290 m 18 X s 1438 1290 m cl s 1420 1290 m 9 Y s 1420 1299 m cl s 1420 1290 m -8 Y s 1420 1282 m cl s 1456 1345 m -18 X s 1438 1345 m cl s 1456 1345 m 18 X s 1474 1345 m cl s 1456 1345 m 7 Y s 1456 1352 m cl s 1456 1345 m -7 Y s 1456 1338 m cl s
 1491 1365 m -17 X s 1474 1365 m cl s 1491 1365 m 18 X s 1509 1365 m cl s 1491 1365 m 6 Y s 1491 1371 m cl s 1491 1365 m -7 Y s 1491 1358 m cl s 1527 1388 m -18 X s 1509 1388 m cl s 1527 1388 m 18 X s 1545 1388 m cl s 1527 1388 m 6 Y s 1527 1394 m cl
 s 1527 1388 m -6 Y s 1527 1382 m cl s 1563 1401 m -18 X s 1545 1401 m cl s 1563 1401 m 18 X s 1581 1401 m cl s 1563 1401 m 5 Y s 1563 1406 m cl s 1563 1401 m -6 Y s 1563 1395 m cl s 1599 1418 m -18 X s 1581 1418 m cl s 1599 1418 m 18 X s 1617 1418 m
 cl s 1599 1418 m 6 Y s 1599 1424 m cl s 1599 1418 m -5 Y s 1599 1413 m cl s 1635 1415 m -18 X s 1617 1415 m cl s 1635 1415 m 18 X s 1653 1415 m cl s 1635 1415 m 5 Y s 1635 1420 m cl s 1635 1415 m -6 Y s 1635 1409 m cl s 1671 1376 m -18 X s 1653 1376
 m cl s 1671 1376 m 18 X s 1689 1376 m cl s 1671 1376 m 6 Y s 1671 1382 m cl s 1671 1376 m -6 Y s 1671 1370 m cl s 1706 1346 m -17 X s 1689 1346 m cl s 1706 1346 m 18 X s 1724 1346 m cl s 1706 1346 m 7 Y s 1706 1353 m cl s 1706 1346 m -7 Y s 1706
 1339 m cl s 1742 1293 m -18 X s 1724 1293 m cl s 1742 1293 m 18 X s 1760 1293 m cl s 1742 1293 m 9 Y s 1742 1302 m cl s 1742 1293 m -8 Y s 1742 1285 m cl s 1778 1249 m -18 X s 1760 1249 m cl s 1778 1249 m 18 X s 1796 1249 m cl s 1778 1249 m 10 Y s
 1778 1259 m cl s 1778 1249 m -9 Y s 1778 1240 m cl s 1814 1185 m -18 X s 1796 1185 m cl s 1814 1185 m 18 X s 1832 1185 m cl s 1814 1185 m 12 Y s 1814 1197 m cl s 1814 1185 m -13 Y s 1814 1172 m cl s 1850 1109 m -18 X s 1832 1109 m cl s 1850 1109 m
 18 X s 1868 1109 m cl s 1850 1109 m 18 Y s 1850 1127 m cl s 1850 1109 m -18 Y s 1850 1091 m cl s 1886 1074 m -18 X s 1868 1074 m cl s 1886 1074 m 18 X s 1904 1074 m cl s 1886 1074 m 20 Y s 1886 1094 m cl s 1886 1074 m -21 Y s 1886 1053 m cl s 1921
 1047 m -17 X s 1904 1047 m cl s 1921 1047 m 18 X s 1939 1047 m cl s 1921 1047 m 22 Y s 1921 1069 m cl s 1921 1047 m -23 Y s 1921 1024 m cl s 1957 897 m -18 X s 1939 897 m cl s 1957 897 m 18 X s 1975 897 m cl s 1957 897 m 41 Y s 1957 938 m cl s 1957
 897 m -42 Y s 1957 855 m cl s 1993 862 m -18 X s 1975 862 m cl s 1993 862 m 18 X s 2011 862 m cl s 1993 862 m 48 Y s 1993 910 m cl s 1993 862 m -49 Y s 1993 813 m cl s 2029 862 m -18 X s 2011 862 m cl s 2029 862 m 18 X s 2047 862 m cl s 2029 862 m
 48 Y s 2029 910 m cl s 2029 862 m -49 Y s 2029 813 m cl s 2065 875 m -18 X s 2047 875 m cl s 2065 875 m 18 X s 2083 875 m cl s 2065 875 m 45 Y s 2065 920 m cl s 2065 875 m -47 Y s 2065 828 m cl s 2101 740 m -18 X s 2083 740 m cl s 2101 740 m 18 X s
 2119 740 m cl s 2101 740 m 78 Y s 2101 818 m cl s 2101 740 m -86 Y s 2101 654 m cl s 2136 702 m -17 X s 2119 702 m cl s 2136 702 m 18 X s 2154 702 m cl s 2136 702 m 91 Y s 2136 793 m cl s 2136 702 m -68 Y s 2136 634 m cl s /w 31 def /w2 {w 2 div}
 def /w3 {w 3 div} def 381 794 m20 452 702 488 770 524 648 560 794 596 740 632 770 667 702 703 875 739 794 775 862 811 815 847 862 882 897 918 897 954 948 990 948 1026 967 1062 948 1097 1062 1133 1047 1169 1053 1205 1084 1241 1121 1276 1128 1312 1199
 1348 1224 1384 1265 1420 1290 1456 1345 1491 1365 1527 1388 1563 1401 1599 1418 1635 1415 1671 1376 1706 1346 1742 1293 1778 1249 1814 1185 1850 1109 1886 1074 1921 1047 1957 897 1993 862 2029 862 2065 875 2101 740 2136 702 48 { m20} R 0 1 1 c 1 1 0
 c black 1 1 0 c 363 761 m 36 8 d 35 7 d 36 8 d 36 8 d 36 9 d 36 8 d 36 9 d 35 10 d 36 9 d 36 11 d 36 10 d 36 12 d 36 12 d 35 13 d 36 15 d 36 16 d 36 18 d 36 20 d 36 21 d 35 23 d 36 25 d 36 25 d 36 27 d 36 29 d 36 31 d 17 16 d 18 15 d 18 16 d 18 16 d
 18 16 d 18 17 d 18 17 d 9 9 d 9 10 d 9 11 d 9 13 d 9 13 d 9 11 d 18 21 d 18 17 d 17 15 d 9 7 d 9 6 d 9 6 d 9 5 d 9 4 d 9 4 d 9 3 d 9 2 d 9 2 d 9 1 d 9 X 9 -1 d 9 -2 d 9 -2 d 9 -4 d 9 -4 d 9 -5 d 9 -5 d 9 -6 d 9 -7 d 18 -16 d 35 -38 d 18 -22 d 9 -12
 d 9 -13 d 9 -13 d 9 -13 d 9 -14 d 9 -14 d 9 -15 d 9 -14 d 9 -15 d 9 -15 d 18 -29 d 18 -29 d 18 -27 d 18 -26 d 17 -25 d 18 -24 d 36 -47 d 36 -45 d 36 -44 d 36 -44 d 36 -45 d 35 -48 d -101 Y -27 X -8 22 d -36 78 d -36 67 d -36 59 d -36 54 d -36 53 d
 -18 27 d -17 30 d -18 30 d -18 31 d -18 31 d -18 30 d -9 16 d -9 15 d -9 15 d -9 15 d -9 15 d -9 15 d -9 14 d -9 14 d -9 14 d -9 13 d -18 24 d -35 42 d -18 16 d -9 7 d -9 6 d -9 5 d -9 5 d -9 4 d -9 3 d -9 2 d -9 2 d -9 1 d -18 X -9 -1 d -9 -2 d -9
 -3 d -9 -4 d -9 -4 d -9 -5 d -9 -7 d -9 -7 d -9 -8 d -17 -18 d -18 -22 d -18 -23 d -9 -12 d -9 -10 d -9 -10 d -9 -9 d -9 -10 d -9 -11 d -18 -19 d -18 -18 d -18 -17 d -18 -17 d -18 -15 d -18 -15 d -17 -15 d -36 -29 d -36 -30 d -36 -30 d -36 -30 d -36
 -28 d -35 -25 d -36 -23 d -36 -21 d -36 -18 d -36 -17 d -36 -15 d -35 -14 d -36 -13 d -36 -12 d -36 -12 d -36 -11 d -36 -10 d -35 -10 d -36 -9 d -36 -9 d -36 -9 d -36 -9 d -36 -8 d -35 -8 d -36 -7 d f 0 1 1 c 0 1 0 c black 0 1 0 c 363 752 m 36 7 d
 35 8 d 36 8 d 36 8 d 36 9 d 36 8 d 36 10 d 35 9 d 36 10 d 36 10 d 36 11 d 36 12 d 36 12 d 35 13 d 36 15 d 36 16 d 36 19 d 36 20 d 36 22 d 35 23 d 36 25 d 36 27 d 36 27 d 36 29 d 36 31 d 17 15 d 18 16 d 18 16 d 18 16 d 18 16 d 18 17 d 18 18 d 9 9 d 9
 10 d 9 11 d 9 11 d 9 13 d 9 12 d 18 21 d 18 18 d 17 16 d 9 7 d 9 6 d 9 6 d 9 5 d 9 4 d 9 4 d 9 3 d 9 2 d 9 2 d 9 1 d 9 -1 d 9 X 9 -2 d 9 -3 d 9 -3 d 9 -4 d 9 -5 d 9 -5 d 9 -6 d 9 -7 d 18 -16 d 35 -39 d 18 -23 d 9 -12 d 9 -13 d 9 -13 d 9 -14 d 9 -14
 d 9 -14 d 9 -14 d 9 -15 d 9 -15 d 9 -15 d 18 -30 d 18 -29 d 18 -28 d 18 -27 d 17 -25 d 18 -25 d 36 -48 d 36 -46 d 36 -47 d 36 -47 d 36 -49 d 35 -52 d -76 Y -3 X -32 64 d -36 65 d -36 59 d -36 54 d -36 51 d -36 52 d -18 25 d -17 29 d -18 29 d -18 29
 d -18 31 d -18 30 d -9 15 d -9 15 d -9 16 d -9 14 d -9 15 d -9 14 d -9 15 d -9 13 d -9 13 d -9 13 d -18 24 d -35 41 d -18 16 d -9 7 d -9 6 d -9 5 d -9 5 d -9 4 d -9 3 d -9 2 d -9 2 d -9 1 d -18 X -9 -1 d -9 -3 d -9 -2 d -9 -4 d -9 -4 d -9 -6 d -9 -6
 d -9 -7 d -9 -7 d -17 -18 d -18 -20 d -18 -23 d -9 -12 d -9 -10 d -9 -11 d -9 -10 d -9 -10 d -9 -10 d -18 -19 d -18 -17 d -18 -17 d -18 -16 d -18 -16 d -18 -15 d -17 -15 d -36 -30 d -36 -30 d -36 -29 d -36 -28 d -36 -27 d -35 -25 d -36 -22 d -36 -21
 d -36 -18 d -36 -16 d -36 -16 d -35 -13 d -36 -13 d -36 -12 d -36 -11 d -36 -11 d -36 -10 d -35 -10 d -36 -9 d -36 -9 d -36 -9 d -36 -8 d -36 -8 d -35 -8 d -36 -8 d f 0 0 1 c 9 lw black 0 0 1 c 363 742 m 36 8 d 35 7 d 36 8 d 36 9 d 36 8 d 36 9 d 36
 9 d 35 10 d 36 10 d 36 10 d 36 11 d 36 12 d 36 13 d 35 13 d 36 15 d 36 16 d 36 19 d 36 20 d 36 22 d 35 24 d 36 26 d 36 27 d 36 29 d 36 29 d 36 30 d 17 16 d 18 15 d 18 16 d 18 16 d 18 16 d 18 18 d 18 18 d 9 10 d 9 10 d 9 10 d 9 11 d 9 12 d 9 11 d 18
 22 d 18 20 d 17 16 d 9 8 d 9 6 d 9 6 d 9 5 d 9 5 d 9 3 d 9 3 d 9 2 d 9 2 d 18 X 9 -1 d 9 -1 d 9 -3 d 9 -3 d 9 -4 d 9 -5 d 9 -5 d 9 -6 d 9 -7 d 18 -16 d 35 -40 d 18 -23 d 9 -13 d 9 -13 d 9 -13 d 9 -14 d 9 -14 d 9 -15 d 9 -14 d 9 -15 d 9 -15 d 9 -15 d
 18 -30 d 18 -30 d 18 -29 d 18 -28 d 17 -26 d 18 -26 d 36 -49 d 36 -49 d 36 -50 d 36 -52 d 36 -55 d 35 -59 d s black 3 lw 381 794 m -18 X s 363 794 m cl s 381 794 m 18 X s 399 794 m cl s 381 794 m 63 Y s 381 857 m cl s 381 794 m -67 Y s 381 727 m cl
 s 452 702 m -18 X s 434 702 m cl s 452 702 m 18 X s 470 702 m cl s 452 702 m 91 Y s 452 793 m cl s 452 702 m -68 Y s 452 634 m cl s 488 770 m -18 X s 470 770 m cl s 488 770 m 18 X s 506 770 m cl s 488 770 m 69 Y s 488 839 m cl s 488 770 m -75 Y s
 488 695 m cl s 524 648 m -18 X s 506 648 m cl s 524 648 m 18 X s 542 648 m cl s 524 648 m 112 Y s 524 760 m cl s 524 648 m -14 Y s 524 634 m cl s 560 794 m -18 X s 542 794 m cl s 560 794 m 18 X s 578 794 m cl s 560 794 m 63 Y s 560 857 m cl s 560
 794 m -67 Y s 560 727 m cl s 596 740 m -18 X s 578 740 m cl s 596 740 m 18 X s 614 740 m cl s 596 740 m 78 Y s 596 818 m cl s 596 740 m -86 Y s 596 654 m cl s 632 770 m -18 X s 614 770 m cl s 632 770 m 17 X s 649 770 m cl s 632 770 m 69 Y s 632 839
 m cl s 632 770 m -75 Y s 632 695 m cl s 667 702 m -18 X s 649 702 m cl s 667 702 m 18 X s 685 702 m cl s 667 702 m 91 Y s 667 793 m cl s 667 702 m -68 Y s 667 634 m cl s 703 875 m -18 X s 685 875 m cl s 703 875 m 18 X s 721 875 m cl s 703 875 m 45 Y
 s 703 920 m cl s 703 875 m -47 Y s 703 828 m cl s 739 794 m -18 X s 721 794 m cl s 739 794 m 18 X s 757 794 m cl s 739 794 m 63 Y s 739 857 m cl s 739 794 m -67 Y s 739 727 m cl s 775 862 m -18 X s 757 862 m cl s 775 862 m 18 X s 793 862 m cl s 775
 862 m 48 Y s 775 910 m cl s 775 862 m -49 Y s 775 813 m cl s 811 815 m -18 X s 793 815 m cl s 811 815 m 18 X s 829 815 m cl s 811 815 m 57 Y s 811 872 m cl s 811 815 m -61 Y s 811 754 m cl s 847 862 m -18 X s 829 862 m cl s 847 862 m 17 X s 864 862
 m cl s 847 862 m 48 Y s 847 910 m cl s 847 862 m -49 Y s 847 813 m cl s 882 897 m -18 X s 864 897 m cl s 882 897 m 18 X s 900 897 m cl s 882 897 m 41 Y s 882 938 m cl s 882 897 m -42 Y s 882 855 m cl s 918 897 m -18 X s 900 897 m cl s 918 897 m 18 X
 s 936 897 m cl s 918 897 m 41 Y s 918 938 m cl s 918 897 m -42 Y s 918 855 m cl s 954 948 m -18 X s 936 948 m cl s 954 948 m 18 X s 972 948 m cl s 954 948 m 33 Y s 954 981 m cl s 954 948 m -35 Y s 954 913 m cl s 990 948 m -18 X s 972 948 m cl s 990
 948 m 18 X s 1008 948 m cl s 990 948 m 33 Y s 990 981 m cl s 990 948 m -35 Y s 990 913 m cl s 1026 967 m -18 X s 1008 967 m cl s 1026 967 m 18 X s 1044 967 m cl s 1026 967 m 31 Y s 1026 998 m cl s 1026 967 m -32 Y s 1026 935 m cl s 1062 948 m -18 X
 s 1044 948 m cl s 1062 948 m 17 X s 1079 948 m cl s 1062 948 m 33 Y s 1062 981 m cl s 1062 948 m -35 Y s 1062 913 m cl s 1097 1062 m -18 X s 1079 1062 m cl s 1097 1062 m 18 X s 1115 1062 m cl s 1097 1062 m 21 Y s 1097 1083 m cl s 1097 1062 m -21 Y s
 1097 1041 m cl s 1133 1047 m -18 X s 1115 1047 m cl s 1133 1047 m 18 X s 1151 1047 m cl s 1133 1047 m 22 Y s 1133 1069 m cl s 1133 1047 m -23 Y s 1133 1024 m cl s 1169 1053 m -18 X s 1151 1053 m cl s 1169 1053 m 18 X s 1187 1053 m cl s 1169 1053 m
 22 Y s 1169 1075 m cl s 1169 1053 m -22 Y s 1169 1031 m cl s 1205 1084 m -18 X s 1187 1084 m cl s 1205 1084 m 18 X s 1223 1084 m cl s 1205 1084 m 19 Y s 1205 1103 m cl s 1205 1084 m -20 Y s 1205 1064 m cl s 1241 1121 m -18 X s 1223 1121 m cl s 1241
 1121 m 18 X s 1259 1121 m cl s 1241 1121 m 17 Y s 1241 1138 m cl s 1241 1121 m -17 Y s 1241 1104 m cl s 1276 1128 m -17 X s 1259 1128 m cl s 1276 1128 m 18 X s 1294 1128 m cl s 1276 1128 m 17 Y s 1276 1145 m cl s 1276 1128 m -16 Y s 1276 1112 m cl s
 1312 1199 m -18 X s 1294 1199 m cl s 1312 1199 m 18 X s 1330 1199 m cl s 1312 1199 m 12 Y s 1312 1211 m cl s 1312 1199 m -12 Y s 1312 1187 m cl s 1348 1224 m -18 X s 1330 1224 m cl s 1348 1224 m 18 X s 1366 1224 m cl s 1348 1224 m 11 Y s 1348 1235 m
 cl s 1348 1224 m -11 Y s 1348 1213 m cl s 1384 1265 m -18 X s 1366 1265 m cl s 1384 1265 m 18 X s 1402 1265 m cl s 1384 1265 m 9 Y s 1384 1274 m cl s 1384 1265 m -9 Y s 1384 1256 m cl s 1420 1290 m -18 X s 1402 1290 m cl s 1420 1290 m 18 X s 1438
 1290 m cl s 1420 1290 m 9 Y s 1420 1299 m cl s 1420 1290 m -8 Y s 1420 1282 m cl s 1456 1345 m -18 X s 1438 1345 m cl s 1456 1345 m 18 X s 1474 1345 m cl s 1456 1345 m 7 Y s 1456 1352 m cl s 1456 1345 m -7 Y s 1456 1338 m cl s 1491 1365 m -17 X s
 1474 1365 m cl s 1491 1365 m 18 X s 1509 1365 m cl s 1491 1365 m 6 Y s 1491 1371 m cl s 1491 1365 m -7 Y s 1491 1358 m cl s 1527 1388 m -18 X s 1509 1388 m cl s 1527 1388 m 18 X s 1545 1388 m cl s 1527 1388 m 6 Y s 1527 1394 m cl s 1527 1388 m -6 Y
 s 1527 1382 m cl s 1563 1401 m -18 X s 1545 1401 m cl s 1563 1401 m 18 X s 1581 1401 m cl s 1563 1401 m 5 Y s 1563 1406 m cl s 1563 1401 m -6 Y s 1563 1395 m cl s 1599 1418 m -18 X s 1581 1418 m cl s 1599 1418 m 18 X s 1617 1418 m cl s 1599 1418 m 6
 Y s 1599 1424 m cl s 1599 1418 m -5 Y s 1599 1413 m cl s 1635 1415 m -18 X s 1617 1415 m cl s 1635 1415 m 18 X s 1653 1415 m cl s 1635 1415 m 5 Y s 1635 1420 m cl s 1635 1415 m -6 Y s 1635 1409 m cl s 1671 1376 m -18 X s 1653 1376 m cl s 1671 1376 m
 18 X s 1689 1376 m cl s 1671 1376 m 6 Y s 1671 1382 m cl s 1671 1376 m -6 Y s 1671 1370 m cl s 1706 1346 m -17 X s 1689 1346 m cl s 1706 1346 m 18 X s 1724 1346 m cl s 1706 1346 m 7 Y s 1706 1353 m cl s 1706 1346 m -7 Y s 1706 1339 m cl s 1742 1293
 m -18 X s 1724 1293 m cl s 1742 1293 m 18 X s 1760 1293 m cl s 1742 1293 m 9 Y s 1742 1302 m cl s 1742 1293 m -8 Y s 1742 1285 m cl s 1778 1249 m -18 X s 1760 1249 m cl s 1778 1249 m 18 X s 1796 1249 m cl s 1778 1249 m 10 Y s 1778 1259 m cl s 1778
 1249 m -9 Y s 1778 1240 m cl s 1814 1185 m -18 X s 1796 1185 m cl s 1814 1185 m 18 X s 1832 1185 m cl s 1814 1185 m 12 Y s 1814 1197 m cl s 1814 1185 m -13 Y s 1814 1172 m cl s 1850 1109 m -18 X s 1832 1109 m cl s 1850 1109 m 18 X s 1868 1109 m cl s
 1850 1109 m 18 Y s 1850 1127 m cl s 1850 1109 m -18 Y s 1850 1091 m cl s 1886 1074 m -18 X s 1868 1074 m cl s 1886 1074 m 18 X s 1904 1074 m cl s 1886 1074 m 20 Y s 1886 1094 m cl s 1886 1074 m -21 Y s 1886 1053 m cl s 1921 1047 m -17 X s 1904 1047
 m cl s 1921 1047 m 18 X s 1939 1047 m cl s 1921 1047 m 22 Y s 1921 1069 m cl s 1921 1047 m -23 Y s 1921 1024 m cl s 1957 897 m -18 X s 1939 897 m cl s 1957 897 m 18 X s 1975 897 m cl s 1957 897 m 41 Y s 1957 938 m cl s 1957 897 m -42 Y s 1957 855 m
 cl s 1993 862 m -18 X s 1975 862 m cl s 1993 862 m 18 X s 2011 862 m cl s 1993 862 m 48 Y s 1993 910 m cl s 1993 862 m -49 Y s 1993 813 m cl s 2029 862 m -18 X s 2011 862 m cl s 2029 862 m 18 X s 2047 862 m cl s 2029 862 m 48 Y s 2029 910 m cl s
 2029 862 m -49 Y s 2029 813 m cl s 2065 875 m -18 X s 2047 875 m cl s 2065 875 m 18 X s 2083 875 m cl s 2065 875 m 45 Y s 2065 920 m cl s 2065 875 m -47 Y s 2065 828 m cl s 2101 740 m -18 X s 2083 740 m cl s 2101 740 m 18 X s 2119 740 m cl s 2101
 740 m 78 Y s 2101 818 m cl s 2101 740 m -86 Y s 2101 654 m cl s 2136 702 m -17 X s 2119 702 m cl s 2136 702 m 18 X s 2154 702 m cl s 2136 702 m 91 Y s 2136 793 m cl s 2136 702 m -68 Y s 2136 634 m cl s 381 794 m20 452 702 488 770 524 648 560 794 596
 740 632 770 667 702 703 875 739 794 775 862 811 815 847 862 882 897 918 897 954 948 990 948 1026 967 1062 948 1097 1062 1133 1047 1169 1053 1205 1084 1241 1121 1276 1128 1312 1199 1348 1224 1384 1265 1420 1290 1456 1345 1491 1365 1527 1388 1563 1401
 1599 1418 1635 1415 1671 1376 1706 1346 1742 1293 1778 1249 1814 1185 1850 1109 1886 1074 1921 1047 1957 897 1993 862 2029 862 2065 875 2101 740 2136 702 48 { m20} R 0.52 0.76 0.64 c[ 4 8] 0 sd 9 lw black 0.52 0.76 0.64 c 363 742 m 36 8 d 35 7 d 36
 8 d 36 9 d 36 8 d 36 9 d 36 9 d 35 10 d 36 10 d 36 10 d 36 11 d 36 11 d 36 11 d 35 13 d 36 13 d 36 13 d 36 15 d 36 15 d 36 16 d 35 18 d 36 18 d 36 20 d 36 22 d 36 24 d 36 27 d 35 29 d 18 16 d 18 18 d 18 18 d 18 20 d 9 11 d 9 11 d 9 12 d 9 12 d 9 13
 d 9 13 d 9 14 d 9 15 d 18 26 d 18 23 d 17 19 d 9 8 d 9 8 d 9 7 d 9 5 d 9 5 d 9 5 d 9 3 d 9 2 d 9 2 d 18 X 9 -1 d 9 -2 d 9 -2 d 9 -4 d 9 -4 d 9 -6 d 9 -6 d 9 -7 d 9 -8 d 18 -18 d 17 -22 d 18 -25 d 9 -14 d 9 -14 d 9 -16 d 9 -16 d 9 -18 d 9 -18 d 9 -19
 d 9 -20 d 9 -20 d 9 -22 d 9 -22 d 9 -24 d 18 -49 d 18 -52 d 18 -56 d 18 -60 d 17 -62 d 18 -66 d 22 -85 d s 0.54 0.66 0.63 c black 0.54 0.66 0.63 c 990 634 m 18 32 d s 1008 666 m 36 59 d 35 56 d 18 26 d 18 25 d 18 25 d 18 23 d 18 23 d 18 21 d 18 21 d
 18 20 d 18 18 d 18 18 d 17 17 d 18 16 d 18 15 d 18 14 d 36 25 d 36 21 d 18 9 d 18 8 d 18 8 d 18 6 d 17 5 d 18 5 d 18 3 d 18 3 d 18 1 d 18 1 d 18 X 18 -2 d 18 -2 d 18 -3 d 18 -4 d 18 -5 d 17 -6 d 18 -7 d 18 -8 d 18 -9 d 36 -21 d 36 -24 d 36 -29 d 18
 -15 d 18 -17 d 17 -17 d 18 -19 d 18 -19 d 18 -20 d 18 -22 d 18 -22 d 18 -23 d 18 -24 d 18 -25 d 18 -26 d 36 -55 d 35 -59 d s black[  ] 0 sd 3 lw 363 634 m 1791 X s 499 659 m -25 Y s 544 646 m -12 Y s 590 646 m -12 Y s 635 646 m -12 Y s 680 646 m -12
 Y s 726 659 m -25 Y s 771 646 m -12 Y s 816 646 m -12 Y s 862 646 m -12 Y s 907 646 m -12 Y s 952 659 m -25 Y s 998 646 m -12 Y s 1043 646 m -12 Y s 1089 646 m -12 Y s 1134 646 m -12 Y s 1179 659 m -25 Y s 1225 646 m -12 Y s 1270 646 m -12 Y s 1315
 646 m -12 Y s 1361 646 m -12 Y s 1406 659 m -25 Y s 1451 646 m -12 Y s 1497 646 m -12 Y s 1542 646 m -12 Y s 1587 646 m -12 Y s 1633 659 m -25 Y s 1678 646 m -12 Y s 1723 646 m -12 Y s 1769 646 m -12 Y s 1814 646 m -12 Y s 1860 659 m -25 Y s 1905
 646 m -12 Y s 1950 646 m -12 Y s 1996 646 m -12 Y s 2041 646 m -12 Y s 2086 659 m -25 Y s 499 659 m -25 Y s 454 646 m -12 Y s 408 646 m -12 Y s 363 646 m -12 Y s 2086 659 m -25 Y s 2132 646 m -12 Y s 363 1484 m 1791 X s 499 1459 m 25 Y s 544 1471 m
 13 Y s 590 1471 m 13 Y s 635 1471 m 13 Y s 680 1471 m 13 Y s 726 1459 m 25 Y s 771 1471 m 13 Y s 816 1471 m 13 Y s 862 1471 m 13 Y s 907 1471 m 13 Y s 952 1459 m 25 Y s 998 1471 m 13 Y s 1043 1471 m 13 Y s 1089 1471 m 13 Y s 1134 1471 m 13 Y s 1179
 1459 m 25 Y s 1225 1471 m 13 Y s 1270 1471 m 13 Y s 1315 1471 m 13 Y s 1361 1471 m 13 Y s 1406 1459 m 25 Y s 1451 1471 m 13 Y s 1497 1471 m 13 Y s 1542 1471 m 13 Y s 1587 1471 m 13 Y s 1633 1459 m 25 Y s 1678 1471 m 13 Y s 1723 1471 m 13 Y s 1769
 1471 m 13 Y s 1814 1471 m 13 Y s 1860 1459 m 25 Y s 1905 1471 m 13 Y s 1950 1471 m 13 Y s 1996 1471 m 13 Y s 2041 1471 m 13 Y s 2086 1459 m 25 Y s 499 1459 m 25 Y s 454 1471 m 13 Y s 408 1471 m 13 Y s 363 1471 m 13 Y s 2086 1459 m 25 Y s 2132 1471 m
 13 Y s 363 634 m 850 Y s 390 648 m -27 X s 390 702 m -27 X s 390 740 m -27 X s 390 770 m -27 X s 390 794 m -27 X s 390 815 m -27 X s 390 833 m -27 X s 390 848 m -27 X s 417 862 m -54 X s 390 954 m -27 X s 390 1008 m -27 X s 390 1047 m -27 X s 390
 1076 m -27 X s 390 1100 m -27 X s 390 1121 m -27 X s 390 1139 m -27 X s 390 1154 m -27 X s 417 1168 m -54 X s 390 1261 m -27 X s 390 1314 m -27 X s 390 1353 m -27 X s 390 1382 m -27 X s 390 1407 m -27 X s 390 1427 m -27 X s 390 1445 m -27 X s 390
 1461 m -27 X s 417 1475 m -54 X s 2154 634 m 850 Y s 2127 648 m 27 X s 2127 702 m 27 X s 2127 740 m 27 X s 2127 770 m 27 X s 2127 794 m 27 X s 2127 815 m 27 X s 2127 833 m 27 X s 2127 848 m 27 X s 2101 862 m 53 X s 2127 954 m 27 X s 2127 1008 m 27 X
 s 2127 1047 m 27 X s 2127 1076 m 27 X s 2127 1100 m 27 X s 2127 1121 m 27 X s 2127 1139 m 27 X s 2127 1154 m 27 X s 2101 1168 m 53 X s 2127 1261 m 27 X s 2127 1314 m 27 X s 2127 1353 m 27 X s 2127 1382 m 27 X s 2127 1407 m 27 X s 2127 1427 m 27 X s
 2127 1445 m 27 X s 2127 1461 m 27 X s 2101 1475 m 53 X s
 gsave  2268 1077 0 461 C 677.708 1215.31 t 0 r /Helvetica findfont 58.7189 sf 0 0 m (4e) show NC gr  1 1 1 c 453 161 454 1269 bf black
 gsave  2268 1077 0 461 C 566.929 1371.71 t 0 r /Helvetica-Bold findfont 48.9324 sf 0 0 m (MC15) show NC gr  510 1390 m20
 gsave  2268 1077 0 461 C 566.929 1293.51 t 0 r /Helvetica-Bold findfont 48.9324 sf 0 0 m (Projection of Signal pdf) show NC gr  0 0 1 c 9 lw 471 1309 m 79 X s black 3 lw 1 1 1 c 2268 461 0 0 bf black 1 1 1 c 1791 364 363 74 bf black 1791 364 363 74
 bl 363 74 m 1791 X s
 gsave  2268 461 0 0 C 1915.83 13.0329 t 0 r /Helvetica findfont 22.9045 sf 0 0 m (4l Invariant Mass \(GeV\)) show NC gr  499 85 m -11 Y s 544 79 m -5 Y s 590 79 m -5 Y s 635 79 m -5 Y s 680 79 m -5 Y s 726 85 m -11 Y s 771 79 m -5 Y s 816 79 m -5 Y
 s 862 79 m -5 Y s 907 79 m -5 Y s 952 85 m -11 Y s 998 79 m -5 Y s 1043 79 m -5 Y s 1089 79 m -5 Y s 1134 79 m -5 Y s 1179 85 m -11 Y s 1225 79 m -5 Y s 1270 79 m -5 Y s 1315 79 m -5 Y s 1361 79 m -5 Y s 1406 85 m -11 Y s 1451 79 m -5 Y s 1497 79 m
 -5 Y s 1542 79 m -5 Y s 1587 79 m -5 Y s 1633 85 m -11 Y s 1678 79 m -5 Y s 1723 79 m -5 Y s 1769 79 m -5 Y s 1814 79 m -5 Y s 1860 85 m -11 Y s 1905 79 m -5 Y s 1950 79 m -5 Y s 1996 79 m -5 Y s 2041 79 m -5 Y s 2086 85 m -11 Y s 499 85 m -11 Y s
 454 79 m -5 Y s 408 79 m -5 Y s 363 79 m -5 Y s 2086 85 m -11 Y s 2132 79 m -5 Y s
 gsave  2268 461 0 0 C 478.957 55.3896 t 0 r /Helvetica findfont 22.9045 sf 0 0 m (650) show NC gr 
 gsave  2268 461 0 0 C 703.774 55.3896 t 0 r /Helvetica findfont 22.9045 sf 0 0 m (660) show NC gr 
 gsave  2268 461 0 0 C 931.849 55.3896 t 0 r /Helvetica findfont 22.9045 sf 0 0 m (670) show NC gr 
 gsave  2268 461 0 0 C 1156.67 55.3896 t 0 r /Helvetica findfont 22.9045 sf 0 0 m (680) show NC gr 
 gsave  2268 461 0 0 C 1384.74 55.3896 t 0 r /Helvetica findfont 22.9045 sf 0 0 m (690) show NC gr 
 gsave  2268 461 0 0 C 1612.82 55.3896 t 0 r /Helvetica findfont 22.9045 sf 0 0 m (700) show NC gr 
 gsave  2268 461 0 0 C 1837.63 55.3896 t 0 r /Helvetica findfont 22.9045 sf 0 0 m (710) show NC gr 
 gsave  2268 461 0 0 C 2065.71 55.3896 t 0 r /Helvetica findfont 22.9045 sf 0 0 m (720) show NC gr  363 438 m 1791 X s 499 427 m 11 Y s 544 433 m 5 Y s 590 433 m 5 Y s 635 433 m 5 Y s 680 433 m 5 Y s 726 427 m 11 Y s 771 433 m 5 Y s 816 433 m 5 Y s
 862 433 m 5 Y s 907 433 m 5 Y s 952 427 m 11 Y s 998 433 m 5 Y s 1043 433 m 5 Y s 1089 433 m 5 Y s 1134 433 m 5 Y s 1179 427 m 11 Y s 1225 433 m 5 Y s 1270 433 m 5 Y s 1315 433 m 5 Y s 1361 433 m 5 Y s 1406 427 m 11 Y s 1451 433 m 5 Y s 1497 433 m 5
 Y s 1542 433 m 5 Y s 1587 433 m 5 Y s 1633 427 m 11 Y s 1678 433 m 5 Y s 1723 433 m 5 Y s 1769 433 m 5 Y s 1814 433 m 5 Y s 1860 427 m 11 Y s 1905 433 m 5 Y s 1950 433 m 5 Y s 1996 433 m 5 Y s 2041 433 m 5 Y s 2086 427 m 11 Y s 499 427 m 11 Y s 454
 433 m 5 Y s 408 433 m 5 Y s 363 433 m 5 Y s 2086 427 m 11 Y s 2132 433 m 5 Y s 363 74 m 364 Y s 417 74 m -54 X s 390 81 m -27 X s 390 88 m -27 X s 390 96 m -27 X s 390 103 m -27 X s 417 110 m -54 X s 390 118 m -27 X s 390 125 m -27 X s 390 132 m -27
 X s 390 139 m -27 X s 417 147 m -54 X s 390 154 m -27 X s 390 161 m -27 X s 390 169 m -27 X s 390 176 m -27 X s 417 183 m -54 X s 390 190 m -27 X s 390 198 m -27 X s 390 205 m -27 X s 390 212 m -27 X s 417 220 m -54 X s 390 227 m -27 X s 390 234 m
 -27 X s 390 241 m -27 X s 390 249 m -27 X s 417 256 m -54 X s 390 263 m -27 X s 390 271 m -27 X s 390 278 m -27 X s 390 285 m -27 X s 417 293 m -54 X s 390 300 m -27 X s 390 307 m -27 X s 390 314 m -27 X s 390 322 m -27 X s 417 329 m -54 X s 390 336
 m -27 X s 390 344 m -27 X s 390 351 m -27 X s 390 358 m -27 X s 417 365 m -54 X s 390 373 m -27 X s 390 380 m -27 X s 390 387 m -27 X s 390 395 m -27 X s 417 402 m -54 X s 390 409 m -27 X s 390 416 m -27 X s 390 424 m -27 X s 390 431 m -27 X s 417
 438 m -54 X s
 gsave  2268 461 0 0 C 329.08 65.1643 t 0 r /Helvetica findfont 22.9045 sf 0 0 m (\2555) show NC gr 
 gsave  2268 461 0 0 C 329.08 101.005 t 0 r /Helvetica findfont 22.9045 sf 0 0 m (\2554) show NC gr 
 gsave  2268 461 0 0 C 329.08 140.103 t 0 r /Helvetica findfont 22.9045 sf 0 0 m (\2553) show NC gr 
 gsave  2268 461 0 0 C 329.08 175.944 t 0 r /Helvetica findfont 22.9045 sf 0 0 m (\2552) show NC gr 
 gsave  2268 461 0 0 C 332.338 211.784 t 0 r /Helvetica findfont 22.9045 sf 0 0 m (\2551) show NC gr 
 gsave  2268 461 0 0 C 335.596 247.624 t 0 r /Helvetica findfont 22.9045 sf 0 0 m (0) show NC gr 
 gsave  2268 461 0 0 C 338.854 283.465 t 0 r /Helvetica findfont 22.9045 sf 0 0 m (1) show NC gr 
 gsave  2268 461 0 0 C 335.596 319.305 t 0 r /Helvetica findfont 22.9045 sf 0 0 m (2) show NC gr 
 gsave  2268 461 0 0 C 335.596 358.403 t 0 r /Helvetica findfont 22.9045 sf 0 0 m (3) show NC gr 
 gsave  2268 461 0 0 C 335.596 394.244 t 0 r /Helvetica findfont 22.9045 sf 0 0 m (4) show NC gr 
 gsave  2268 461 0 0 C 335.596 430.084 t 0 r /Helvetica findfont 22.9045 sf 0 0 m (5) show NC gr  2154 74 m 364 Y s 2101 74 m 53 X s 2127 81 m 27 X s 2127 88 m 27 X s 2127 96 m 27 X s 2127 103 m 27 X s 2101 110 m 53 X s 2127 118 m 27 X s 2127 125 m
 27 X s 2127 132 m 27 X s 2127 139 m 27 X s 2101 147 m 53 X s 2127 154 m 27 X s 2127 161 m 27 X s 2127 169 m 27 X s 2127 176 m 27 X s 2101 183 m 53 X s 2127 190 m 27 X s 2127 198 m 27 X s 2127 205 m 27 X s 2127 212 m 27 X s 2101 220 m 53 X s 2127 227
 m 27 X s 2127 234 m 27 X s 2127 241 m 27 X s 2127 249 m 27 X s 2101 256 m 53 X s 2127 263 m 27 X s 2127 271 m 27 X s 2127 278 m 27 X s 2127 285 m 27 X s 2101 293 m 53 X s 2127 300 m 27 X s 2127 307 m 27 X s 2127 314 m 27 X s 2127 322 m 27 X s 2101
 329 m 53 X s 2127 336 m 27 X s 2127 344 m 27 X s 2127 351 m 27 X s 2127 358 m 27 X s 2101 365 m 53 X s 2127 373 m 27 X s 2127 380 m 27 X s 2127 387 m 27 X s 2127 395 m 27 X s 2101 402 m 53 X s 2127 409 m 27 X s 2127 416 m 27 X s 2127 424 m 27 X s
 2127 431 m 27 X s 2101 438 m 53 X s 6 lw 0.2 0.8 0.2 c black 3 lw 0.2 0.8 0.2 c 363 256 m 28 Y 36 X -82 Y 35 X 33 Y 36 X 21 Y 36 X -46 Y 36 X 51 Y 36 X -29 Y 36 X 8 Y 35 X -34 Y 36 X 88 Y 36 X -60 Y 36 X 35 Y 36 X -40 Y 36 X 20 Y 35 X 17 Y 36 X -14
 Y 36 X 34 Y 36 X -20 Y 36 X -1 Y 36 X -49 Y 35 X 121 Y 36 X -62 Y 36 X -35 Y 36 X 1 Y 36 X 13 Y 36 X -51 Y 35 X 103 Y 36 X -20 Y 36 X 25 Y 36 X -63 Y 36 X 48 Y 36 X -90 Y 35 X -15 Y 36 X -7 Y 36 X 115 Y 36 X 47 Y 36 X -99 Y 36 X 21 Y 35 X -36 Y 36 X
 37 Y 36 X -22 Y 36 X -30 Y 36 X 47 Y 36 X 41 Y 35 X -118 Y 36 X 25 Y 36 X 40 Y 36 X 47 Y 36 X -52 Y 36 X 7 Y 35 X 2 Y f 6 lw black 0.2 0.8 0.2 c black 363 284 m 36 X -82 Y 35 X 33 Y 36 X 21 Y 36 X -46 Y 36 X 51 Y 36 X -29 Y 36 X 8 Y 35 X -34 Y 36 X
 88 Y 36 X -60 Y 36 X 35 Y 36 X -40 Y 36 X 20 Y 35 X 17 Y 36 X -14 Y 36 X 34 Y 36 X -20 Y 36 X -1 Y 36 X -49 Y 35 X 121 Y 36 X -62 Y 36 X -35 Y 36 X 1 Y 36 X 13 Y 36 X -51 Y 35 X 103 Y 36 X -20 Y 36 X 25 Y 36 X -63 Y 36 X 48 Y 36 X -90 Y 35 X -15 Y
 36 X -7 Y 36 X 115 Y 36 X 47 Y 36 X -99 Y 36 X 21 Y 35 X -36 Y 36 X 37 Y 36 X -22 Y 36 X -30 Y 36 X 47 Y 36 X 41 Y 35 X -118 Y 36 X 25 Y 36 X 40 Y 36 X 47 Y 36 X -52 Y 36 X 7 Y 35 X s 3 lw 363 74 m 1791 X s 499 85 m -11 Y s 544 79 m -5 Y s 590 79 m
 -5 Y s 635 79 m -5 Y s 680 79 m -5 Y s 726 85 m -11 Y s 771 79 m -5 Y s 816 79 m -5 Y s 862 79 m -5 Y s 907 79 m -5 Y s 952 85 m -11 Y s 998 79 m -5 Y s 1043 79 m -5 Y s 1089 79 m -5 Y s 1134 79 m -5 Y s 1179 85 m -11 Y s 1225 79 m -5 Y s 1270 79 m
 -5 Y s 1315 79 m -5 Y s 1361 79 m -5 Y s 1406 85 m -11 Y s 1451 79 m -5 Y s 1497 79 m -5 Y s 1542 79 m -5 Y s 1587 79 m -5 Y s 1633 85 m -11 Y s 1678 79 m -5 Y s 1723 79 m -5 Y s 1769 79 m -5 Y s 1814 79 m -5 Y s 1860 85 m -11 Y s 1905 79 m -5 Y s
 1950 79 m -5 Y s 1996 79 m -5 Y s 2041 79 m -5 Y s 2086 85 m -11 Y s 499 85 m -11 Y s 454 79 m -5 Y s 408 79 m -5 Y s 363 79 m -5 Y s 2086 85 m -11 Y s 2132 79 m -5 Y s 363 438 m 1791 X s 499 427 m 11 Y s 544 433 m 5 Y s 590 433 m 5 Y s 635 433 m 5
 Y s 680 433 m 5 Y s 726 427 m 11 Y s 771 433 m 5 Y s 816 433 m 5 Y s 862 433 m 5 Y s 907 433 m 5 Y s 952 427 m 11 Y s 998 433 m 5 Y s 1043 433 m 5 Y s 1089 433 m 5 Y s 1134 433 m 5 Y s 1179 427 m 11 Y s 1225 433 m 5 Y s 1270 433 m 5 Y s 1315 433 m 5
 Y s 1361 433 m 5 Y s 1406 427 m 11 Y s 1451 433 m 5 Y s 1497 433 m 5 Y s 1542 433 m 5 Y s 1587 433 m 5 Y s 1633 427 m 11 Y s 1678 433 m 5 Y s 1723 433 m 5 Y s 1769 433 m 5 Y s 1814 433 m 5 Y s 1860 427 m 11 Y s 1905 433 m 5 Y s 1950 433 m 5 Y s 1996
 433 m 5 Y s 2041 433 m 5 Y s 2086 427 m 11 Y s 499 427 m 11 Y s 454 433 m 5 Y s 408 433 m 5 Y s 363 433 m 5 Y s 2086 427 m 11 Y s 2132 433 m 5 Y s 363 74 m 364 Y s 417 74 m -54 X s 390 81 m -27 X s 390 88 m -27 X s 390 96 m -27 X s 390 103 m -27 X s
 417 110 m -54 X s 390 118 m -27 X s 390 125 m -27 X s 390 132 m -27 X s 390 139 m -27 X s 417 147 m -54 X s 390 154 m -27 X s 390 161 m -27 X s 390 169 m -27 X s 390 176 m -27 X s 417 183 m -54 X s 390 190 m -27 X s 390 198 m -27 X s 390 205 m -27 X
 s 390 212 m -27 X s 417 220 m -54 X s 390 227 m -27 X s 390 234 m -27 X s 390 241 m -27 X s 390 249 m -27 X s 417 256 m -54 X s 390 263 m -27 X s 390 271 m -27 X s 390 278 m -27 X s 390 285 m -27 X s 417 293 m -54 X s 390 300 m -27 X s 390 307 m -27
 X s 390 314 m -27 X s 390 322 m -27 X s 417 329 m -54 X s 390 336 m -27 X s 390 344 m -27 X s 390 351 m -27 X s 390 358 m -27 X s 417 365 m -54 X s 390 373 m -27 X s 390 380 m -27 X s 390 387 m -27 X s 390 395 m -27 X s 417 402 m -54 X s 390 409 m
 -27 X s 390 416 m -27 X s 390 424 m -27 X s 390 431 m -27 X s 417 438 m -54 X s 2154 74 m 364 Y s 2101 74 m 53 X s 2127 81 m 27 X s 2127 88 m 27 X s 2127 96 m 27 X s 2127 103 m 27 X s 2101 110 m 53 X s 2127 118 m 27 X s 2127 125 m 27 X s 2127 132 m
 27 X s 2127 139 m 27 X s 2101 147 m 53 X s 2127 154 m 27 X s 2127 161 m 27 X s 2127 169 m 27 X s 2127 176 m 27 X s 2101 183 m 53 X s 2127 190 m 27 X s 2127 198 m 27 X s 2127 205 m 27 X s 2127 212 m 27 X s 2101 220 m 53 X s 2127 227 m 27 X s 2127 234
 m 27 X s 2127 241 m 27 X s 2127 249 m 27 X s 2101 256 m 53 X s 2127 263 m 27 X s 2127 271 m 27 X s 2127 278 m 27 X s 2127 285 m 27 X s 2101 293 m 53 X s 2127 300 m 27 X s 2127 307 m 27 X s 2127 314 m 27 X s 2127 322 m 27 X s 2101 329 m 53 X s 2127
 336 m 27 X s 2127 344 m 27 X s 2127 351 m 27 X s 2127 358 m 27 X s 2101 365 m 53 X s 2127 373 m 27 X s 2127 380 m 27 X s 2127 387 m 27 X s 2127 395 m 27 X s 2101 402 m 53 X s 2127 409 m 27 X s 2127 416 m 27 X s 2127 424 m 27 X s 2127 431 m 27 X s
 2101 438 m 53 X s
 gr  gr showpage
end
%%EOF
