%!PS-Adobe-2.0 EPSF-2.0
%%BoundingBox:  0 0 567 384
%%Title: H4l2015_plotfit/gg_mass_signal_200_H4l_4mu.eps: 
%%Creator: ROOT Version 5.34/10
%%CreationDate: Thu Feb 16 12:42:11 2017
%%EndComments
%%BeginProlog
80 dict begin
/s {stroke} def /l {lineto} def /m {moveto} def /t {translate} def
/r {rotate} def /rl {roll}  def /R {repeat} def
/d {rlineto} def /rm {rmoveto} def /gr {grestore} def /f {eofill} def
/c {setrgbcolor} def /black {0 setgray} def /sd {setdash} def
/cl {closepath} def /sf {scalefont setfont} def /lw {setlinewidth} def
/box {m dup 0 exch d exch 0 d 0 exch neg d cl} def
/NC{systemdict begin initclip end}def/C{NC box clip newpath}def
/bl {box s} def /bf {box f} def /Y { 0 exch d} def /X { 0 d} def 
/K {{pop pop 0 moveto} exch kshow} bind def
/ita {/ang 15 def gsave [1 0 ang dup sin exch cos div 1 0 0] concat} def 
/mp {newpath /y exch def /x exch def} def
/side {[w .77 mul w .23 mul] .385 w mul sd w 0 l currentpoint t -144 r} def
/mr {mp x y w2 0 360 arc} def /m24 {mr s} def /m20 {mr f} def
/mb {mp x y w2 add m w2 neg 0 d 0 w neg d w 0 d 0 w d cl} def
/mt {mp x y w2 add m w2 neg w neg d w 0 d cl} def
/m21 {mb f} def /m25 {mb s} def /m22 {mt f} def /m26{mt s} def
/m23 {mp x y w2 sub m w2 w d w neg 0 d cl f} def
/m27 {mp x y w2 add m w3 neg w2 neg d w3 w2 neg d w3 w2 d cl s} def
/m28 {mp x w2 sub y w2 sub w3 add m w3 0 d  0 w3 neg d w3 0 d 0 w3 d w3 0 d  0 w3 d w3 neg 0 d 0 w3 d w3 neg 0 d 0 w3 neg d w3 neg 0 d cl s } def
/m29 {mp gsave x w2 sub y w2 add w3 sub m currentpoint t 4 {side} repeat cl fill gr} def
/m30 {mp gsave x w2 sub y w2 add w3 sub m currentpoint t 4 {side} repeat cl s gr} def
/m31 {mp x y w2 sub m 0 w d x w2 sub y m w 0 d x w2 sub y w2 add m w w neg d x w2 sub y w2 sub m w w d s} def
/m32 {mp x y w2 sub m w2 w d w neg 0 d cl s} def
/m33 {mp x y w2 add m w3 neg w2 neg d w3 w2 neg d w3 w2 d cl f} def
/m34 {mp x w2 sub y w2 sub w3 add m w3 0 d  0 w3 neg d w3 0 d 0 w3 d w3 0 d  0 w3 d w3 neg 0 d 0 w3 d w3 neg 0 d 0 w3 neg d w3 neg 0 d cl f } def
/m2 {mp x y w2 sub m 0 w d x w2 sub y m w 0 d s} def
/m5 {mp x w2 sub y w2 sub m w w d x w2 sub y w2 add m w w neg d s} def
/reEncode {exch findfont dup length dict begin {1 index /FID eq  {pop pop} {def} ifelse } forall /Encoding exch def currentdict end dup /FontName get exch definefont pop } def [/Times-Bold /Times-Italic /Times-BoldItalic /Helvetica /Helvetica-Oblique
 /Helvetica-Bold /Helvetica-BoldOblique /Courier /Courier-Oblique /Courier-Bold /Courier-BoldOblique /Times-Roman /AvantGarde-Book /AvantGarde-BookOblique /AvantGarde-Demi /AvantGarde-DemiOblique /Bookman-Demi /Bookman-DemiItalic /Bookman-Light
 /Bookman-LightItalic /Helvetica-Narrow /Helvetica-Narrow-Bold /Helvetica-Narrow-BoldOblique /Helvetica-Narrow-Oblique /NewCenturySchlbk-Roman /NewCenturySchlbk-Bold /NewCenturySchlbk-BoldItalic /NewCenturySchlbk-Italic /Palatino-Bold
 /Palatino-BoldItalic /Palatino-Italic /Palatino-Roman ] {ISOLatin1Encoding reEncode } forall
%%EndProlog
%%BeginSetup
%%EndSetup
newpath  gsave  .25 .25 scale  gsave  0 0 t black[  ] 0 sd 3 lw 1 1 1 c 2268 1538 0 0 bf black 1 1 1 c 2222 738 23 784 bf black 1 1 1 c 2222 739 23 15 bf black 1 1 1 c 2268 1077 0 461 bf black 1 1 1 c 1791 850 363 634 bf black 1791 850 363 634 bl 363
 634 m 1791 X s
 gsave  2268 1077 0 461 C 1642.14 498.507 t 0 r /Helvetica findfont 48.9324 sf 0 0 m (4l Invariant Mass \(GeV\)) show NC gr  562 659 m -25 Y s 612 646 m -12 Y s 661 646 m -12 Y s 711 646 m -12 Y s 761 646 m -12 Y s 811 659 m -25 Y s 860 646 m -12 Y s
 910 646 m -12 Y s 960 646 m -12 Y s 1010 646 m -12 Y s 1060 659 m -25 Y s 1109 646 m -12 Y s 1159 646 m -12 Y s 1209 646 m -12 Y s 1259 646 m -12 Y s 1308 659 m -25 Y s 1358 646 m -12 Y s 1408 646 m -12 Y s 1458 646 m -12 Y s 1507 646 m -12 Y s 1557
 659 m -25 Y s 1607 646 m -12 Y s 1657 646 m -12 Y s 1706 646 m -12 Y s 1756 646 m -12 Y s 1806 659 m -25 Y s 1856 646 m -12 Y s 1906 646 m -12 Y s 1955 646 m -12 Y s 2005 646 m -12 Y s 2055 659 m -25 Y s 562 659 m -25 Y s 512 646 m -12 Y s 462 646 m
 -12 Y s 413 646 m -12 Y s 363 646 m -12 Y s 2055 659 m -25 Y s 2105 646 m -12 Y s 2154 646 m -12 Y s
 gsave  2268 1077 0 461 C 518.056 586.478 t 0 r /Helvetica findfont 48.9324 sf 0 0 m (180) show NC gr 
 gsave  2268 1077 0 461 C 765.68 586.478 t 0 r /Helvetica findfont 48.9324 sf 0 0 m (185) show NC gr 
 gsave  2268 1077 0 461 C 1016.56 586.478 t 0 r /Helvetica findfont 48.9324 sf 0 0 m (190) show NC gr 
 gsave  2268 1077 0 461 C 1264.19 586.478 t 0 r /Helvetica findfont 48.9324 sf 0 0 m (195) show NC gr 
 gsave  2268 1077 0 461 C 1511.81 586.478 t 0 r /Helvetica findfont 48.9324 sf 0 0 m (200) show NC gr 
 gsave  2268 1077 0 461 C 1762.69 586.478 t 0 r /Helvetica findfont 48.9324 sf 0 0 m (205) show NC gr 
 gsave  2268 1077 0 461 C 2010.32 586.478 t 0 r /Helvetica findfont 48.9324 sf 0 0 m (210) show NC gr  363 1484 m 1791 X s 562 1459 m 25 Y s 612 1471 m 13 Y s 661 1471 m 13 Y s 711 1471 m 13 Y s 761 1471 m 13 Y s 811 1459 m 25 Y s 860 1471 m 13 Y s
 910 1471 m 13 Y s 960 1471 m 13 Y s 1010 1471 m 13 Y s 1060 1459 m 25 Y s 1109 1471 m 13 Y s 1159 1471 m 13 Y s 1209 1471 m 13 Y s 1259 1471 m 13 Y s 1308 1459 m 25 Y s 1358 1471 m 13 Y s 1408 1471 m 13 Y s 1458 1471 m 13 Y s 1507 1471 m 13 Y s 1557
 1459 m 25 Y s 1607 1471 m 13 Y s 1657 1471 m 13 Y s 1706 1471 m 13 Y s 1756 1471 m 13 Y s 1806 1459 m 25 Y s 1856 1471 m 13 Y s 1906 1471 m 13 Y s 1955 1471 m 13 Y s 2005 1471 m 13 Y s 2055 1459 m 25 Y s 562 1459 m 25 Y s 512 1471 m 13 Y s 462 1471
 m 13 Y s 413 1471 m 13 Y s 363 1471 m 13 Y s 2055 1459 m 25 Y s 2105 1471 m 13 Y s 2154 1471 m 13 Y s 363 634 m 850 Y s
 gsave  2268 1077 0 461 C 120.554 1032.85 t 90 r /Helvetica findfont 48.9324 sf 0 0 m (Events / \( 0.72 GeV \)) show NC gr  390 658 m -27 X s 390 698 m -27 X s 390 729 m -27 X s 390 754 m -27 X s 390 775 m -27 X s 390 794 m -27 X s 390 810 m -27 X s
 417 825 m -54 X s
 gsave  2268 1077 0 461 C 342.425 804.263 t 0 r  -55 0 t /Helvetica findfont 48.9324 sf 0 0 m (10) show NC gr  390 922 m -27 X s 390 978 m -27 X s 390 1018 m -27 X s 390 1049 m -27 X s 390 1075 m -27 X s 390 1096 m -27 X s 390 1115 m -27 X s 390 1131
 m -27 X s 417 1146 m -54 X s
 gsave  2268 1077 0 461 C 322.563 1143.63 t 0 r /Helvetica findfont 32.6216 sf 0 0 m (2) show NC gr 
 gsave  2268 1077 0 461 C 270.432 1124.08 t 0 r /Helvetica findfont 48.9324 sf 0 0 m (10) show NC gr  390 1242 m -27 X s 390 1299 m -27 X s 390 1339 m -27 X s 390 1370 m -27 X s 390 1395 m -27 X s 390 1417 m -27 X s 390 1435 m -27 X s 390 1452 m -27
 X s 417 1466 m -54 X s
 gsave  2268 1077 0 461 C 322.563 1466.2 t 0 r /Helvetica findfont 32.6216 sf 0 0 m (3) show NC gr 
 gsave  2268 1077 0 461 C 270.432 1443.39 t 0 r /Helvetica findfont 48.9324 sf 0 0 m (10) show NC gr  2154 634 m 850 Y s 2127 658 m 27 X s 2127 698 m 27 X s 2127 729 m 27 X s 2127 754 m 27 X s 2127 775 m 27 X s 2127 794 m 27 X s 2127 810 m 27 X s
 2101 825 m 53 X s 2127 922 m 27 X s 2127 978 m 27 X s 2127 1018 m 27 X s 2127 1049 m 27 X s 2127 1075 m 27 X s 2127 1096 m 27 X s 2127 1115 m 27 X s 2127 1131 m 27 X s 2101 1146 m 53 X s 2127 1242 m 27 X s 2127 1299 m 27 X s 2127 1339 m 27 X s 2127
 1370 m 27 X s 2127 1395 m 27 X s 2127 1417 m 27 X s 2127 1435 m 27 X s 2127 1452 m 27 X s 2101 1466 m 53 X s 381 810 m -18 X s 363 810 m cl s 381 810 m 18 X s 399 810 m cl s 381 810 m 53 Y s 381 863 m cl s 381 810 m -55 Y s 381 755 m cl s 417 882 m
 -18 X s 399 882 m cl s 417 882 m 17 X s 434 882 m cl s 417 882 m 39 Y s 417 921 m cl s 417 882 m -41 Y s 417 841 m cl s 452 862 m -18 X s 434 862 m cl s 452 862 m 18 X s 470 862 m cl s 452 862 m 43 Y s 452 905 m cl s 452 862 m -45 Y s 452 817 m cl s
 488 862 m -18 X s 470 862 m cl s 488 862 m 18 X s 506 862 m cl s 488 862 m 43 Y s 488 905 m cl s 488 862 m -45 Y s 488 817 m cl s 524 850 m -18 X s 506 850 m cl s 524 850 m 18 X s 542 850 m cl s 524 850 m 45 Y s 524 895 m cl s 524 850 m -46 Y s 524
 804 m cl s 560 922 m -18 X s 542 922 m cl s 560 922 m 18 X s 578 922 m cl s 560 922 m 34 Y s 560 956 m cl s 560 922 m -35 Y s 560 887 m cl s 596 862 m -18 X s 578 862 m cl s 596 862 m 18 X s 614 862 m cl s 596 862 m 43 Y s 596 905 m cl s 596 862 m
 -45 Y s 596 817 m cl s 632 729 m -18 X s 614 729 m cl s 632 729 m 17 X s 649 729 m cl s 632 729 m 72 Y s 632 801 m cl s 632 729 m -79 Y s 632 650 m cl s 667 882 m -18 X s 649 882 m cl s 667 882 m 18 X s 685 882 m cl s 667 882 m 39 Y s 667 921 m cl s
 667 882 m -41 Y s 667 841 m cl s 703 963 m -18 X s 685 963 m cl s 703 963 m 18 X s 721 963 m cl s 703 963 m 29 Y s 703 992 m cl s 703 963 m -29 Y s 703 934 m cl s 739 899 m -18 X s 721 899 m cl s 739 899 m 18 X s 757 899 m cl s 739 899 m 37 Y s 739
 936 m cl s 739 899 m -38 Y s 739 861 m cl s 775 958 m -18 X s 757 958 m cl s 775 958 m 18 X s 793 958 m cl s 775 958 m 30 Y s 775 988 m cl s 775 958 m -30 Y s 775 928 m cl s 811 907 m -18 X s 793 907 m cl s 811 907 m 18 X s 829 907 m cl s 811 907 m
 36 Y s 811 943 m cl s 811 907 m -37 Y s 811 870 m cl s 847 958 m -18 X s 829 958 m cl s 847 958 m 17 X s 864 958 m cl s 847 958 m 30 Y s 847 988 m cl s 847 958 m -30 Y s 847 928 m cl s 882 983 m -18 X s 864 983 m cl s 882 983 m 18 X s 900 983 m cl s
 882 983 m 27 Y s 882 1010 m cl s 882 983 m -28 Y s 882 955 m cl s 918 973 m -18 X s 900 973 m cl s 918 973 m 18 X s 936 973 m cl s 918 973 m 28 Y s 918 1001 m cl s 918 973 m -28 Y s 918 945 m cl s 954 963 m -18 X s 936 963 m cl s 954 963 m 18 X s
 972 963 m cl s 954 963 m 29 Y s 954 992 m cl s 954 963 m -29 Y s 954 934 m cl s 990 1038 m -18 X s 972 1038 m cl s 990 1038 m 18 X s 1008 1038 m cl s 990 1038 m 21 Y s 990 1059 m cl s 990 1038 m -23 Y s 990 1015 m cl s 1026 1003 m -18 X s 1008 1003
 m cl s 1026 1003 m 18 X s 1044 1003 m cl s 1026 1003 m 25 Y s 1026 1028 m cl s 1026 1003 m -25 Y s 1026 978 m cl s 1062 1055 m -18 X s 1044 1055 m cl s 1062 1055 m 17 X s 1079 1055 m cl s 1062 1055 m 20 Y s 1062 1075 m cl s 1062 1055 m -21 Y s 1062
 1034 m cl s 1097 1060 m -18 X s 1079 1060 m cl s 1097 1060 m 18 X s 1115 1060 m cl s 1097 1060 m 20 Y s 1097 1080 m cl s 1097 1060 m -20 Y s 1097 1040 m cl s 1133 1038 m -18 X s 1115 1038 m cl s 1133 1038 m 18 X s 1151 1038 m cl s 1133 1038 m 21 Y s
 1133 1059 m cl s 1133 1038 m -23 Y s 1133 1015 m cl s 1169 1072 m -18 X s 1151 1072 m cl s 1169 1072 m 18 X s 1187 1072 m cl s 1169 1072 m 19 Y s 1169 1091 m cl s 1169 1072 m -19 Y s 1169 1053 m cl s 1205 1102 m -18 X s 1187 1102 m cl s 1205 1102 m
 18 X s 1223 1102 m cl s 1205 1102 m 17 Y s 1205 1119 m cl s 1205 1102 m -17 Y s 1205 1085 m cl s 1241 1154 m -18 X s 1223 1154 m cl s 1241 1154 m 18 X s 1259 1154 m cl s 1241 1154 m 13 Y s 1241 1167 m cl s 1241 1154 m -14 Y s 1241 1140 m cl s 1276
 1190 m -17 X s 1259 1190 m cl s 1276 1190 m 18 X s 1294 1190 m cl s 1276 1190 m 12 Y s 1276 1202 m cl s 1276 1190 m -11 Y s 1276 1179 m cl s 1312 1192 m -18 X s 1294 1192 m cl s 1312 1192 m 18 X s 1330 1192 m cl s 1312 1192 m 12 Y s 1312 1204 m cl s
 1312 1192 m -11 Y s 1312 1181 m cl s 1348 1250 m -18 X s 1330 1250 m cl s 1348 1250 m 18 X s 1366 1250 m cl s 1348 1250 m 9 Y s 1348 1259 m cl s 1348 1250 m -10 Y s 1348 1240 m cl s 1384 1307 m -18 X s 1366 1307 m cl s 1384 1307 m 18 X s 1402 1307 m
 cl s 1384 1307 m 8 Y s 1384 1315 m cl s 1384 1307 m -8 Y s 1384 1299 m cl s 1420 1353 m -18 X s 1402 1353 m cl s 1420 1353 m 18 X s 1438 1353 m cl s 1420 1353 m 6 Y s 1420 1359 m cl s 1420 1353 m -7 Y s 1420 1346 m cl s 1456 1375 m -18 X s 1438 1375
 m cl s 1456 1375 m 18 X s 1474 1375 m cl s 1456 1375 m 6 Y s 1456 1381 m cl s 1456 1375 m -6 Y s 1456 1369 m cl s 1491 1396 m -17 X s 1474 1396 m cl s 1491 1396 m 18 X s 1509 1396 m cl s 1491 1396 m 6 Y s 1491 1402 m cl s 1491 1396 m -5 Y s 1491
 1391 m cl s 1527 1416 m -18 X s 1509 1416 m cl s 1527 1416 m 18 X s 1545 1416 m cl s 1527 1416 m 5 Y s 1527 1421 m cl s 1527 1416 m -6 Y s 1527 1410 m cl s 1563 1404 m -18 X s 1545 1404 m cl s 1563 1404 m 18 X s 1581 1404 m cl s 1563 1404 m 6 Y s
 1563 1410 m cl s 1563 1404 m -5 Y s 1563 1399 m cl s 1599 1378 m -18 X s 1581 1378 m cl s 1599 1378 m 18 X s 1617 1378 m cl s 1599 1378 m 6 Y s 1599 1384 m cl s 1599 1378 m -7 Y s 1599 1371 m cl s 1635 1344 m -18 X s 1617 1344 m cl s 1635 1344 m 18
 X s 1653 1344 m cl s 1635 1344 m 7 Y s 1635 1351 m cl s 1635 1344 m -7 Y s 1635 1337 m cl s 1671 1287 m -18 X s 1653 1287 m cl s 1671 1287 m 18 X s 1689 1287 m cl s 1671 1287 m 8 Y s 1671 1295 m cl s 1671 1287 m -8 Y s 1671 1279 m cl s 1706 1236 m
 -17 X s 1689 1236 m cl s 1706 1236 m 18 X s 1724 1236 m cl s 1706 1236 m 11 Y s 1706 1247 m cl s 1706 1236 m -10 Y s 1706 1226 m cl s 1742 1185 m -18 X s 1724 1185 m cl s 1742 1185 m 18 X s 1760 1185 m cl s 1742 1185 m 12 Y s 1742 1197 m cl s 1742
 1185 m -12 Y s 1742 1173 m cl s 1778 1081 m -18 X s 1760 1081 m cl s 1778 1081 m 18 X s 1796 1081 m cl s 1778 1081 m 19 Y s 1778 1100 m cl s 1778 1081 m -18 Y s 1778 1063 m cl s 1814 1034 m -18 X s 1796 1034 m cl s 1814 1034 m 18 X s 1832 1034 m cl
 s 1814 1034 m 23 Y s 1814 1057 m cl s 1814 1034 m -22 Y s 1814 1012 m cl s 1850 1003 m -18 X s 1832 1003 m cl s 1850 1003 m 18 X s 1868 1003 m cl s 1850 1003 m 25 Y s 1850 1028 m cl s 1850 1003 m -25 Y s 1850 978 m cl s 1886 891 m -18 X s 1868 891 m
 cl s 1886 891 m 18 X s 1904 891 m cl s 1886 891 m 38 Y s 1886 929 m cl s 1886 891 m -40 Y s 1886 851 m cl s 1921 729 m -17 X s 1904 729 m cl s 1921 729 m 18 X s 1939 729 m cl s 1921 729 m 72 Y s 1921 801 m cl s 1921 729 m -79 Y s 1921 650 m cl s
 1957 794 m -18 X s 1939 794 m cl s 1957 794 m 18 X s 1975 794 m cl s 1957 794 m 56 Y s 1957 850 m cl s 1957 794 m -59 Y s 1957 735 m cl s 1993 729 m -18 X s 1975 729 m cl s 1993 729 m 18 X s 2011 729 m cl s 1993 729 m 72 Y s 1993 801 m cl s 1993 729
 m -79 Y s 1993 650 m cl s 2101 634 m -18 X s 2083 634 m cl s 2101 634 m 18 X s 2119 634 m cl s /w 31 def /w2 {w 2 div} def /w3 {w 3 div} def 381 810 417 882 452 862 488 862 524 850 560 922 596 862 632 729 667 882 703 963 739 899 775 958 811 907 847
 958 882 983 918 973 954 963 990 1038 1026 1003 1062 1055 1097 1060 1133 1038 1169 1072 1205 1102 1241 1154 1276 1190 1312 1192 1348 1250 1384 1307 1420 1353 1456 1375 1491 1396 1527 1416 1563 1404 1599 1378 1635 1344 1671 1287 1706 1236 1742 1185
 1778 1081 1814 1034 1850 1003 1886 891 1921 729 1957 794 1993 729 46 { m20} R 0 1 1 c 1 1 0 c black 1 1 0 c 363 839 m 36 9 d 35 8 d 36 9 d 36 9 d 36 9 d 36 10 d 36 9 d 35 10 d 36 10 d 36 10 d 36 11 d 36 11 d 36 11 d 35 11 d 36 12 d 36 12 d 36 13 d
 36 14 d 36 14 d 35 15 d 36 16 d 36 17 d 36 18 d 36 21 d 18 12 d 18 14 d 17 17 d 18 19 d 9 11 d 9 12 d 9 12 d 9 12 d 9 13 d 9 12 d 9 13 d 9 12 d 9 13 d 9 12 d 9 11 d 9 11 d 36 38 d 9 8 d 9 7 d 9 7 d 9 5 d 9 5 d 8 4 d 9 3 d 9 2 d 9 1 d 9 X 9 -1 d 9 -1
 d 9 -3 d 9 -4 d 9 -4 d 9 -6 d 9 -6 d 9 -7 d 18 -17 d 36 -41 d 18 -24 d 9 -13 d 9 -14 d 8 -14 d 9 -15 d 9 -15 d 9 -16 d 9 -15 d 9 -16 d 9 -16 d 9 -16 d 18 -33 d 18 -32 d 18 -31 d 18 -31 d 18 -31 d 18 -32 d 36 -65 d 35 -69 d 36 -74 d 36 -79 d 17 -39 d
 -45 X -8 23 d -36 94 d -35 85 d -36 79 d -18 37 d -18 37 d -18 37 d -18 35 d -18 35 d -18 34 d -9 16 d -9 17 d -9 16 d -9 16 d -9 16 d -9 15 d -9 16 d -8 15 d -9 14 d -9 14 d -18 27 d -36 44 d -18 18 d -9 7 d -9 6 d -9 5 d -9 5 d -9 3 d -9 3 d -9 2
 d -18 X -9 -1 d -9 -1 d -9 -3 d -8 -4 d -9 -5 d -9 -5 d -9 -7 d -9 -7 d -9 -9 d -36 -43 d -9 -12 d -9 -12 d -9 -13 d -9 -13 d -9 -13 d -9 -13 d -9 -12 d -9 -13 d -9 -12 d -9 -12 d -9 -11 d -9 -11 d -18 -20 d -17 -19 d -18 -16 d -18 -15 d -36 -22 d
 -36 -18 d -36 -15 d -36 -14 d -35 -13 d -36 -14 d -36 -13 d -36 -14 d -36 -13 d -36 -13 d -35 -13 d -36 -13 d -36 -13 d -36 -12 d -36 -12 d -36 -12 d -35 -12 d -36 -11 d -36 -12 d -36 -11 d -36 -10 d -36 -11 d -35 -10 d -36 -10 d f 0 1 1 c 0 1 0 c
 black 0 1 0 c 363 829 m 36 9 d 35 9 d 36 9 d 36 9 d 36 10 d 36 9 d 36 10 d 35 10 d 36 11 d 36 10 d 36 11 d 36 12 d 36 11 d 35 12 d 36 12 d 36 13 d 36 13 d 36 13 d 36 14 d 35 15 d 36 16 d 36 16 d 36 18 d 36 21 d 18 13 d 18 14 d 17 17 d 18 20 d 9 11 d
 9 12 d 9 12 d 9 12 d 9 12 d 9 13 d 9 13 d 9 12 d 9 13 d 9 12 d 9 12 d 9 11 d 36 39 d 9 8 d 9 7 d 9 7 d 9 5 d 9 5 d 8 4 d 9 3 d 9 2 d 9 1 d 9 X 9 -1 d 9 -1 d 9 -3 d 9 -4 d 9 -4 d 9 -6 d 9 -6 d 9 -7 d 18 -17 d 36 -42 d 18 -25 d 9 -13 d 9 -14 d 8 -14 d
 9 -15 d 9 -15 d 9 -16 d 9 -16 d 9 -16 d 9 -16 d 9 -16 d 18 -33 d 18 -32 d 18 -32 d 18 -33 d 18 -32 d 18 -33 d 36 -67 d 35 -72 d 36 -77 d 36 -83 d 7 -17 d -22 X -21 54 d -36 85 d -35 80 d -36 74 d -18 36 d -18 36 d -18 34 d -18 35 d -18 33 d -18 34 d
 -9 16 d -9 17 d -9 16 d -9 16 d -9 15 d -9 16 d -9 15 d -8 15 d -9 14 d -9 14 d -18 26 d -36 44 d -18 17 d -9 7 d -9 6 d -9 6 d -9 4 d -9 4 d -9 2 d -9 2 d -9 1 d -9 X -9 -1 d -9 -2 d -9 -3 d -8 -4 d -9 -5 d -9 -5 d -9 -7 d -9 -7 d -9 -9 d -36 -41 d
 -9 -12 d -9 -12 d -9 -13 d -9 -12 d -9 -13 d -9 -13 d -9 -13 d -9 -12 d -9 -12 d -9 -12 d -9 -11 d -9 -11 d -18 -21 d -17 -18 d -18 -15 d -18 -14 d -36 -22 d -36 -18 d -36 -15 d -36 -15 d -35 -14 d -36 -14 d -36 -13 d -36 -13 d -36 -13 d -36 -13 d
 -35 -13 d -36 -12 d -36 -12 d -36 -12 d -36 -12 d -36 -11 d -35 -11 d -36 -11 d -36 -11 d -36 -10 d -36 -10 d -36 -10 d -35 -10 d -36 -10 d f 0 0 1 c 9 lw black 0 0 1 c 363 817 m 36 10 d 35 9 d 36 10 d 36 9 d 36 10 d 36 10 d 36 11 d 35 10 d 36 11 d
 36 11 d 36 12 d 36 11 d 36 12 d 35 12 d 36 13 d 36 13 d 36 13 d 36 13 d 36 14 d 35 15 d 36 15 d 36 16 d 36 17 d 36 22 d 18 13 d 18 15 d 17 18 d 18 20 d 9 11 d 9 11 d 9 12 d 9 12 d 9 13 d 9 13 d 9 12 d 9 13 d 9 13 d 9 12 d 9 12 d 9 11 d 36 41 d 9 8 d
 9 7 d 9 7 d 9 5 d 9 5 d 8 4 d 9 3 d 9 2 d 9 1 d 9 X 9 -1 d 9 -2 d 9 -2 d 9 -4 d 9 -4 d 9 -6 d 9 -6 d 9 -7 d 18 -17 d 36 -43 d 18 -25 d 9 -14 d 9 -14 d 8 -15 d 9 -15 d 9 -15 d 9 -16 d 9 -15 d 9 -17 d 9 -16 d 9 -16 d 18 -33 d 18 -33 d 18 -33 d 18 -34
 d 18 -33 d 18 -35 d 36 -70 d 35 -76 d 36 -80 d 33 -79 d s black 3 lw 381 810 m -18 X s 363 810 m cl s 381 810 m 18 X s 399 810 m cl s 381 810 m 53 Y s 381 863 m cl s 381 810 m -55 Y s 381 755 m cl s 417 882 m -18 X s 399 882 m cl s 417 882 m 17 X s
 434 882 m cl s 417 882 m 39 Y s 417 921 m cl s 417 882 m -41 Y s 417 841 m cl s 452 862 m -18 X s 434 862 m cl s 452 862 m 18 X s 470 862 m cl s 452 862 m 43 Y s 452 905 m cl s 452 862 m -45 Y s 452 817 m cl s 488 862 m -18 X s 470 862 m cl s 488
 862 m 18 X s 506 862 m cl s 488 862 m 43 Y s 488 905 m cl s 488 862 m -45 Y s 488 817 m cl s 524 850 m -18 X s 506 850 m cl s 524 850 m 18 X s 542 850 m cl s 524 850 m 45 Y s 524 895 m cl s 524 850 m -46 Y s 524 804 m cl s 560 922 m -18 X s 542 922
 m cl s 560 922 m 18 X s 578 922 m cl s 560 922 m 34 Y s 560 956 m cl s 560 922 m -35 Y s 560 887 m cl s 596 862 m -18 X s 578 862 m cl s 596 862 m 18 X s 614 862 m cl s 596 862 m 43 Y s 596 905 m cl s 596 862 m -45 Y s 596 817 m cl s 632 729 m -18 X
 s 614 729 m cl s 632 729 m 17 X s 649 729 m cl s 632 729 m 72 Y s 632 801 m cl s 632 729 m -79 Y s 632 650 m cl s 667 882 m -18 X s 649 882 m cl s 667 882 m 18 X s 685 882 m cl s 667 882 m 39 Y s 667 921 m cl s 667 882 m -41 Y s 667 841 m cl s 703
 963 m -18 X s 685 963 m cl s 703 963 m 18 X s 721 963 m cl s 703 963 m 29 Y s 703 992 m cl s 703 963 m -29 Y s 703 934 m cl s 739 899 m -18 X s 721 899 m cl s 739 899 m 18 X s 757 899 m cl s 739 899 m 37 Y s 739 936 m cl s 739 899 m -38 Y s 739 861
 m cl s 775 958 m -18 X s 757 958 m cl s 775 958 m 18 X s 793 958 m cl s 775 958 m 30 Y s 775 988 m cl s 775 958 m -30 Y s 775 928 m cl s 811 907 m -18 X s 793 907 m cl s 811 907 m 18 X s 829 907 m cl s 811 907 m 36 Y s 811 943 m cl s 811 907 m -37 Y
 s 811 870 m cl s 847 958 m -18 X s 829 958 m cl s 847 958 m 17 X s 864 958 m cl s 847 958 m 30 Y s 847 988 m cl s 847 958 m -30 Y s 847 928 m cl s 882 983 m -18 X s 864 983 m cl s 882 983 m 18 X s 900 983 m cl s 882 983 m 27 Y s 882 1010 m cl s 882
 983 m -28 Y s 882 955 m cl s 918 973 m -18 X s 900 973 m cl s 918 973 m 18 X s 936 973 m cl s 918 973 m 28 Y s 918 1001 m cl s 918 973 m -28 Y s 918 945 m cl s 954 963 m -18 X s 936 963 m cl s 954 963 m 18 X s 972 963 m cl s 954 963 m 29 Y s 954 992
 m cl s 954 963 m -29 Y s 954 934 m cl s 990 1038 m -18 X s 972 1038 m cl s 990 1038 m 18 X s 1008 1038 m cl s 990 1038 m 21 Y s 990 1059 m cl s 990 1038 m -23 Y s 990 1015 m cl s 1026 1003 m -18 X s 1008 1003 m cl s 1026 1003 m 18 X s 1044 1003 m cl
 s 1026 1003 m 25 Y s 1026 1028 m cl s 1026 1003 m -25 Y s 1026 978 m cl s 1062 1055 m -18 X s 1044 1055 m cl s 1062 1055 m 17 X s 1079 1055 m cl s 1062 1055 m 20 Y s 1062 1075 m cl s 1062 1055 m -21 Y s 1062 1034 m cl s 1097 1060 m -18 X s 1079 1060
 m cl s 1097 1060 m 18 X s 1115 1060 m cl s 1097 1060 m 20 Y s 1097 1080 m cl s 1097 1060 m -20 Y s 1097 1040 m cl s 1133 1038 m -18 X s 1115 1038 m cl s 1133 1038 m 18 X s 1151 1038 m cl s 1133 1038 m 21 Y s 1133 1059 m cl s 1133 1038 m -23 Y s 1133
 1015 m cl s 1169 1072 m -18 X s 1151 1072 m cl s 1169 1072 m 18 X s 1187 1072 m cl s 1169 1072 m 19 Y s 1169 1091 m cl s 1169 1072 m -19 Y s 1169 1053 m cl s 1205 1102 m -18 X s 1187 1102 m cl s 1205 1102 m 18 X s 1223 1102 m cl s 1205 1102 m 17 Y s
 1205 1119 m cl s 1205 1102 m -17 Y s 1205 1085 m cl s 1241 1154 m -18 X s 1223 1154 m cl s 1241 1154 m 18 X s 1259 1154 m cl s 1241 1154 m 13 Y s 1241 1167 m cl s 1241 1154 m -14 Y s 1241 1140 m cl s 1276 1190 m -17 X s 1259 1190 m cl s 1276 1190 m
 18 X s 1294 1190 m cl s 1276 1190 m 12 Y s 1276 1202 m cl s 1276 1190 m -11 Y s 1276 1179 m cl s 1312 1192 m -18 X s 1294 1192 m cl s 1312 1192 m 18 X s 1330 1192 m cl s 1312 1192 m 12 Y s 1312 1204 m cl s 1312 1192 m -11 Y s 1312 1181 m cl s 1348
 1250 m -18 X s 1330 1250 m cl s 1348 1250 m 18 X s 1366 1250 m cl s 1348 1250 m 9 Y s 1348 1259 m cl s 1348 1250 m -10 Y s 1348 1240 m cl s 1384 1307 m -18 X s 1366 1307 m cl s 1384 1307 m 18 X s 1402 1307 m cl s 1384 1307 m 8 Y s 1384 1315 m cl s
 1384 1307 m -8 Y s 1384 1299 m cl s 1420 1353 m -18 X s 1402 1353 m cl s 1420 1353 m 18 X s 1438 1353 m cl s 1420 1353 m 6 Y s 1420 1359 m cl s 1420 1353 m -7 Y s 1420 1346 m cl s 1456 1375 m -18 X s 1438 1375 m cl s 1456 1375 m 18 X s 1474 1375 m
 cl s 1456 1375 m 6 Y s 1456 1381 m cl s 1456 1375 m -6 Y s 1456 1369 m cl s 1491 1396 m -17 X s 1474 1396 m cl s 1491 1396 m 18 X s 1509 1396 m cl s 1491 1396 m 6 Y s 1491 1402 m cl s 1491 1396 m -5 Y s 1491 1391 m cl s 1527 1416 m -18 X s 1509 1416
 m cl s 1527 1416 m 18 X s 1545 1416 m cl s 1527 1416 m 5 Y s 1527 1421 m cl s 1527 1416 m -6 Y s 1527 1410 m cl s 1563 1404 m -18 X s 1545 1404 m cl s 1563 1404 m 18 X s 1581 1404 m cl s 1563 1404 m 6 Y s 1563 1410 m cl s 1563 1404 m -5 Y s 1563
 1399 m cl s 1599 1378 m -18 X s 1581 1378 m cl s 1599 1378 m 18 X s 1617 1378 m cl s 1599 1378 m 6 Y s 1599 1384 m cl s 1599 1378 m -7 Y s 1599 1371 m cl s 1635 1344 m -18 X s 1617 1344 m cl s 1635 1344 m 18 X s 1653 1344 m cl s 1635 1344 m 7 Y s
 1635 1351 m cl s 1635 1344 m -7 Y s 1635 1337 m cl s 1671 1287 m -18 X s 1653 1287 m cl s 1671 1287 m 18 X s 1689 1287 m cl s 1671 1287 m 8 Y s 1671 1295 m cl s 1671 1287 m -8 Y s 1671 1279 m cl s 1706 1236 m -17 X s 1689 1236 m cl s 1706 1236 m 18
 X s 1724 1236 m cl s 1706 1236 m 11 Y s 1706 1247 m cl s 1706 1236 m -10 Y s 1706 1226 m cl s 1742 1185 m -18 X s 1724 1185 m cl s 1742 1185 m 18 X s 1760 1185 m cl s 1742 1185 m 12 Y s 1742 1197 m cl s 1742 1185 m -12 Y s 1742 1173 m cl s 1778 1081
 m -18 X s 1760 1081 m cl s 1778 1081 m 18 X s 1796 1081 m cl s 1778 1081 m 19 Y s 1778 1100 m cl s 1778 1081 m -18 Y s 1778 1063 m cl s 1814 1034 m -18 X s 1796 1034 m cl s 1814 1034 m 18 X s 1832 1034 m cl s 1814 1034 m 23 Y s 1814 1057 m cl s 1814
 1034 m -22 Y s 1814 1012 m cl s 1850 1003 m -18 X s 1832 1003 m cl s 1850 1003 m 18 X s 1868 1003 m cl s 1850 1003 m 25 Y s 1850 1028 m cl s 1850 1003 m -25 Y s 1850 978 m cl s 1886 891 m -18 X s 1868 891 m cl s 1886 891 m 18 X s 1904 891 m cl s
 1886 891 m 38 Y s 1886 929 m cl s 1886 891 m -40 Y s 1886 851 m cl s 1921 729 m -17 X s 1904 729 m cl s 1921 729 m 18 X s 1939 729 m cl s 1921 729 m 72 Y s 1921 801 m cl s 1921 729 m -79 Y s 1921 650 m cl s 1957 794 m -18 X s 1939 794 m cl s 1957
 794 m 18 X s 1975 794 m cl s 1957 794 m 56 Y s 1957 850 m cl s 1957 794 m -59 Y s 1957 735 m cl s 1993 729 m -18 X s 1975 729 m cl s 1993 729 m 18 X s 2011 729 m cl s 1993 729 m 72 Y s 1993 801 m cl s 1993 729 m -79 Y s 1993 650 m cl s 2101 634 m
 -18 X s 2083 634 m cl s 2101 634 m 18 X s 2119 634 m cl s 381 810 417 882 452 862 488 862 524 850 560 922 596 862 632 729 667 882 703 963 739 899 775 958 811 907 847 958 882 983 918 973 954 963 990 1038 1026 1003 1062 1055 1097 1060 1133 1038 1169
 1072 1205 1102 1241 1154 1276 1190 1312 1192 1348 1250 1384 1307 1420 1353 1456 1375 1491 1396 1527 1416 1563 1404 1599 1378 1635 1344 1671 1287 1706 1236 1742 1185 1778 1081 1814 1034 1850 1003 1886 891 1921 729 1957 794 1993 729 46 { m20} R 0.52
 0.76 0.64 c[ 4 8] 0 sd 9 lw black 0.52 0.76 0.64 c 363 817 m 36 10 d 35 9 d 36 10 d 36 9 d 36 10 d 36 10 d 36 11 d 35 10 d 36 11 d 36 11 d 36 12 d 36 11 d 36 12 d 35 12 d 36 13 d 36 13 d 36 13 d 36 13 d 36 14 d 35 15 d 36 14 d 36 16 d 36 15 d 36 17
 d 36 17 d 17 8 d 18 9 d 18 9 d 18 9 d 18 9 d 18 10 d 18 9 d 18 10 d 18 10 d 18 9 d 9 4 d 9 3 d 9 3 d 9 3 d 9 2 d 8 1 d 9 2 d 9 1 d 27 X 9 -1 d 9 -1 d 9 -2 d 9 -2 d 9 -2 d 9 -3 d 9 -3 d 18 -8 d 18 -9 d 18 -12 d 36 -27 d 35 -33 d 18 -20 d 18 -20 d 18
 -23 d 18 -24 d 18 -26 d 18 -28 d 18 -29 d 18 -31 d 18 -32 d 18 -35 d 17 -35 d 18 -38 d 18 -39 d 18 -41 d 33 -78 d s 0.54 0.66 0.63 c black 0.54 0.66 0.63 c 1204 634 m 19 85 d s 1223 719 m 18 75 d 18 69 d 17 66 d 9 30 d 9 30 d 9 29 d 9 27 d 9 27 d 9
 25 d 9 24 d 9 23 d 9 22 d 9 20 d 9 20 d 9 18 d 9 17 d 9 16 d 36 53 d 9 11 d 9 9 d 9 8 d 9 7 d 9 6 d 8 4 d 9 4 d 9 2 d 5 1 d 4 1 d 9 X 5 -1 d 4 X 9 -2 d 9 -4 d 9 -4 d 9 -6 d 9 -6 d 9 -8 d 9 -9 d 18 -21 d 18 -26 d 18 -31 d 9 -17 d 9 -18 d 9 -19 d 9
 -20 d 8 -22 d 9 -22 d 9 -24 d 9 -25 d 9 -26 d 9 -27 d 9 -29 d 9 -29 d 18 -63 d 18 -66 d 18 -72 d 18 -76 d 12 -56 d s black[  ] 0 sd 3 lw 363 634 m 1791 X s 562 659 m -25 Y s 612 646 m -12 Y s 661 646 m -12 Y s 711 646 m -12 Y s 761 646 m -12 Y s 811
 659 m -25 Y s 860 646 m -12 Y s 910 646 m -12 Y s 960 646 m -12 Y s 1010 646 m -12 Y s 1060 659 m -25 Y s 1109 646 m -12 Y s 1159 646 m -12 Y s 1209 646 m -12 Y s 1259 646 m -12 Y s 1308 659 m -25 Y s 1358 646 m -12 Y s 1408 646 m -12 Y s 1458 646 m
 -12 Y s 1507 646 m -12 Y s 1557 659 m -25 Y s 1607 646 m -12 Y s 1657 646 m -12 Y s 1706 646 m -12 Y s 1756 646 m -12 Y s 1806 659 m -25 Y s 1856 646 m -12 Y s 1906 646 m -12 Y s 1955 646 m -12 Y s 2005 646 m -12 Y s 2055 659 m -25 Y s 562 659 m -25
 Y s 512 646 m -12 Y s 462 646 m -12 Y s 413 646 m -12 Y s 363 646 m -12 Y s 2055 659 m -25 Y s 2105 646 m -12 Y s 2154 646 m -12 Y s 363 1484 m 1791 X s 562 1459 m 25 Y s 612 1471 m 13 Y s 661 1471 m 13 Y s 711 1471 m 13 Y s 761 1471 m 13 Y s 811
 1459 m 25 Y s 860 1471 m 13 Y s 910 1471 m 13 Y s 960 1471 m 13 Y s 1010 1471 m 13 Y s 1060 1459 m 25 Y s 1109 1471 m 13 Y s 1159 1471 m 13 Y s 1209 1471 m 13 Y s 1259 1471 m 13 Y s 1308 1459 m 25 Y s 1358 1471 m 13 Y s 1408 1471 m 13 Y s 1458 1471
 m 13 Y s 1507 1471 m 13 Y s 1557 1459 m 25 Y s 1607 1471 m 13 Y s 1657 1471 m 13 Y s 1706 1471 m 13 Y s 1756 1471 m 13 Y s 1806 1459 m 25 Y s 1856 1471 m 13 Y s 1906 1471 m 13 Y s 1955 1471 m 13 Y s 2005 1471 m 13 Y s 2055 1459 m 25 Y s 562 1459 m
 25 Y s 512 1471 m 13 Y s 462 1471 m 13 Y s 413 1471 m 13 Y s 363 1471 m 13 Y s 2055 1459 m 25 Y s 2105 1471 m 13 Y s 2154 1471 m 13 Y s 363 634 m 850 Y s 390 658 m -27 X s 390 698 m -27 X s 390 729 m -27 X s 390 754 m -27 X s 390 775 m -27 X s 390
 794 m -27 X s 390 810 m -27 X s 417 825 m -54 X s 390 922 m -27 X s 390 978 m -27 X s 390 1018 m -27 X s 390 1049 m -27 X s 390 1075 m -27 X s 390 1096 m -27 X s 390 1115 m -27 X s 390 1131 m -27 X s 417 1146 m -54 X s 390 1242 m -27 X s 390 1299 m
 -27 X s 390 1339 m -27 X s 390 1370 m -27 X s 390 1395 m -27 X s 390 1417 m -27 X s 390 1435 m -27 X s 390 1452 m -27 X s 417 1466 m -54 X s 2154 634 m 850 Y s 2127 658 m 27 X s 2127 698 m 27 X s 2127 729 m 27 X s 2127 754 m 27 X s 2127 775 m 27 X s
 2127 794 m 27 X s 2127 810 m 27 X s 2101 825 m 53 X s 2127 922 m 27 X s 2127 978 m 27 X s 2127 1018 m 27 X s 2127 1049 m 27 X s 2127 1075 m 27 X s 2127 1096 m 27 X s 2127 1115 m 27 X s 2127 1131 m 27 X s 2101 1146 m 53 X s 2127 1242 m 27 X s 2127
 1299 m 27 X s 2127 1339 m 27 X s 2127 1370 m 27 X s 2127 1395 m 27 X s 2127 1417 m 27 X s 2127 1435 m 27 X s 2127 1452 m 27 X s 2101 1466 m 53 X s
 gsave  2268 1077 0 461 C 677.708 1215.31 t 0 r /Helvetica findfont 58.7189 sf 0 0 m (4mu) show NC gr  1 1 1 c 453 161 454 1269 bf black
 gsave  2268 1077 0 461 C 566.929 1371.71 t 0 r /Helvetica-Bold findfont 48.9324 sf 0 0 m (MC15) show NC gr  510 1390 m20
 gsave  2268 1077 0 461 C 566.929 1293.51 t 0 r /Helvetica-Bold findfont 48.9324 sf 0 0 m (Projection of Signal pdf) show NC gr  0 0 1 c 9 lw 471 1309 m 79 X s black 3 lw 1 1 1 c 2268 461 0 0 bf black 1 1 1 c 1791 364 363 74 bf black 1791 364 363 74
 bl 363 74 m 1791 X s
 gsave  2268 461 0 0 C 1915.83 13.0329 t 0 r /Helvetica findfont 22.9045 sf 0 0 m (4l Invariant Mass \(GeV\)) show NC gr  562 85 m -11 Y s 612 79 m -5 Y s 661 79 m -5 Y s 711 79 m -5 Y s 761 79 m -5 Y s 811 85 m -11 Y s 860 79 m -5 Y s 910 79 m -5 Y
 s 960 79 m -5 Y s 1010 79 m -5 Y s 1060 85 m -11 Y s 1109 79 m -5 Y s 1159 79 m -5 Y s 1209 79 m -5 Y s 1259 79 m -5 Y s 1308 85 m -11 Y s 1358 79 m -5 Y s 1408 79 m -5 Y s 1458 79 m -5 Y s 1507 79 m -5 Y s 1557 85 m -11 Y s 1607 79 m -5 Y s 1657 79
 m -5 Y s 1706 79 m -5 Y s 1756 79 m -5 Y s 1806 85 m -11 Y s 1856 79 m -5 Y s 1906 79 m -5 Y s 1955 79 m -5 Y s 2005 79 m -5 Y s 2055 85 m -11 Y s 562 85 m -11 Y s 512 79 m -5 Y s 462 79 m -5 Y s 413 79 m -5 Y s 363 79 m -5 Y s 2055 85 m -11 Y s
 2105 79 m -5 Y s 2154 79 m -5 Y s
 gsave  2268 461 0 0 C 540.863 55.3896 t 0 r /Helvetica findfont 22.9045 sf 0 0 m (180) show NC gr 
 gsave  2268 461 0 0 C 788.488 55.3896 t 0 r /Helvetica findfont 22.9045 sf 0 0 m (185) show NC gr 
 gsave  2268 461 0 0 C 1039.37 55.3896 t 0 r /Helvetica findfont 22.9045 sf 0 0 m (190) show NC gr 
 gsave  2268 461 0 0 C 1286.99 55.3896 t 0 r /Helvetica findfont 22.9045 sf 0 0 m (195) show NC gr 
 gsave  2268 461 0 0 C 1534.62 55.3896 t 0 r /Helvetica findfont 22.9045 sf 0 0 m (200) show NC gr 
 gsave  2268 461 0 0 C 1785.5 55.3896 t 0 r /Helvetica findfont 22.9045 sf 0 0 m (205) show NC gr 
 gsave  2268 461 0 0 C 2033.13 55.3896 t 0 r /Helvetica findfont 22.9045 sf 0 0 m (210) show NC gr  363 438 m 1791 X s 562 427 m 11 Y s 612 433 m 5 Y s 661 433 m 5 Y s 711 433 m 5 Y s 761 433 m 5 Y s 811 427 m 11 Y s 860 433 m 5 Y s 910 433 m 5 Y s
 960 433 m 5 Y s 1010 433 m 5 Y s 1060 427 m 11 Y s 1109 433 m 5 Y s 1159 433 m 5 Y s 1209 433 m 5 Y s 1259 433 m 5 Y s 1308 427 m 11 Y s 1358 433 m 5 Y s 1408 433 m 5 Y s 1458 433 m 5 Y s 1507 433 m 5 Y s 1557 427 m 11 Y s 1607 433 m 5 Y s 1657 433
 m 5 Y s 1706 433 m 5 Y s 1756 433 m 5 Y s 1806 427 m 11 Y s 1856 433 m 5 Y s 1906 433 m 5 Y s 1955 433 m 5 Y s 2005 433 m 5 Y s 2055 427 m 11 Y s 562 427 m 11 Y s 512 433 m 5 Y s 462 433 m 5 Y s 413 433 m 5 Y s 363 433 m 5 Y s 2055 427 m 11 Y s 2105
 433 m 5 Y s 2154 433 m 5 Y s 363 74 m 364 Y s 417 74 m -54 X s 390 81 m -27 X s 390 88 m -27 X s 390 96 m -27 X s 390 103 m -27 X s 417 110 m -54 X s 390 118 m -27 X s 390 125 m -27 X s 390 132 m -27 X s 390 139 m -27 X s 417 147 m -54 X s 390 154 m
 -27 X s 390 161 m -27 X s 390 169 m -27 X s 390 176 m -27 X s 417 183 m -54 X s 390 190 m -27 X s 390 198 m -27 X s 390 205 m -27 X s 390 212 m -27 X s 417 220 m -54 X s 390 227 m -27 X s 390 234 m -27 X s 390 241 m -27 X s 390 249 m -27 X s 417 256
 m -54 X s 390 263 m -27 X s 390 271 m -27 X s 390 278 m -27 X s 390 285 m -27 X s 417 293 m -54 X s 390 300 m -27 X s 390 307 m -27 X s 390 314 m -27 X s 390 322 m -27 X s 417 329 m -54 X s 390 336 m -27 X s 390 344 m -27 X s 390 351 m -27 X s 390
 358 m -27 X s 417 365 m -54 X s 390 373 m -27 X s 390 380 m -27 X s 390 387 m -27 X s 390 395 m -27 X s 417 402 m -54 X s 390 409 m -27 X s 390 416 m -27 X s 390 424 m -27 X s 390 431 m -27 X s 417 438 m -54 X s
 gsave  2268 461 0 0 C 329.08 65.1643 t 0 r /Helvetica findfont 22.9045 sf 0 0 m (\2555) show NC gr 
 gsave  2268 461 0 0 C 329.08 101.005 t 0 r /Helvetica findfont 22.9045 sf 0 0 m (\2554) show NC gr 
 gsave  2268 461 0 0 C 329.08 140.103 t 0 r /Helvetica findfont 22.9045 sf 0 0 m (\2553) show NC gr 
 gsave  2268 461 0 0 C 329.08 175.944 t 0 r /Helvetica findfont 22.9045 sf 0 0 m (\2552) show NC gr 
 gsave  2268 461 0 0 C 332.338 211.784 t 0 r /Helvetica findfont 22.9045 sf 0 0 m (\2551) show NC gr 
 gsave  2268 461 0 0 C 335.596 247.624 t 0 r /Helvetica findfont 22.9045 sf 0 0 m (0) show NC gr 
 gsave  2268 461 0 0 C 338.854 283.465 t 0 r /Helvetica findfont 22.9045 sf 0 0 m (1) show NC gr 
 gsave  2268 461 0 0 C 335.596 319.305 t 0 r /Helvetica findfont 22.9045 sf 0 0 m (2) show NC gr 
 gsave  2268 461 0 0 C 335.596 358.403 t 0 r /Helvetica findfont 22.9045 sf 0 0 m (3) show NC gr 
 gsave  2268 461 0 0 C 335.596 394.244 t 0 r /Helvetica findfont 22.9045 sf 0 0 m (4) show NC gr 
 gsave  2268 461 0 0 C 335.596 430.084 t 0 r /Helvetica findfont 22.9045 sf 0 0 m (5) show NC gr  2154 74 m 364 Y s 2101 74 m 53 X s 2127 81 m 27 X s 2127 88 m 27 X s 2127 96 m 27 X s 2127 103 m 27 X s 2101 110 m 53 X s 2127 118 m 27 X s 2127 125 m
 27 X s 2127 132 m 27 X s 2127 139 m 27 X s 2101 147 m 53 X s 2127 154 m 27 X s 2127 161 m 27 X s 2127 169 m 27 X s 2127 176 m 27 X s 2101 183 m 53 X s 2127 190 m 27 X s 2127 198 m 27 X s 2127 205 m 27 X s 2127 212 m 27 X s 2101 220 m 53 X s 2127 227
 m 27 X s 2127 234 m 27 X s 2127 241 m 27 X s 2127 249 m 27 X s 2101 256 m 53 X s 2127 263 m 27 X s 2127 271 m 27 X s 2127 278 m 27 X s 2127 285 m 27 X s 2101 293 m 53 X s 2127 300 m 27 X s 2127 307 m 27 X s 2127 314 m 27 X s 2127 322 m 27 X s 2101
 329 m 53 X s 2127 336 m 27 X s 2127 344 m 27 X s 2127 351 m 27 X s 2127 358 m 27 X s 2101 365 m 53 X s 2127 373 m 27 X s 2127 380 m 27 X s 2127 387 m 27 X s 2127 395 m 27 X s 2101 402 m 53 X s 2127 409 m 27 X s 2127 416 m 27 X s 2127 424 m 27 X s
 2127 431 m 27 X s 2101 438 m 53 X s 6 lw 0.2 0.8 0.2 c black 3 lw 0.2 0.8 0.2 c 363 256 m -7 Y 36 X 50 Y 35 X -25 Y 36 X -8 Y 36 X -17 Y 36 X 58 Y 36 X -66 Y 36 X -104 Y 35 X 102 Y 36 X 75 Y 36 X -82 Y 36 X 52 Y 36 X -69 Y 36 X 40 Y 35 X 16 Y 36 X
 -29 Y 36 X -30 Y 36 X 87 Y 36 X -73 Y 36 X 58 Y 35 X -16 Y 36 X -66 Y 36 X 29 Y 36 X 17 Y 36 X 72 Y 36 X 19 Y 35 X -120 Y 36 X 22 Y 36 X 31 Y 36 X 3 Y 36 X -70 Y 36 X 3 Y 35 X 87 Y 36 X -18 Y 36 X -23 Y 36 X 15 Y 36 X -38 Y 36 X 29 Y 35 X 35 Y 36 X
 -91 Y 36 X 43 Y 36 X 52 Y 36 X -59 Y 36 X -47 Y 35 X 87 Y 36 X 3 Y 36 X -40 Y 36 X 44 Y 36 X -45 Y 36 X 49 Y 35 X -35 Y f 6 lw black 0.2 0.8 0.2 c black 363 249 m 36 X 50 Y 35 X -25 Y 36 X -8 Y 36 X -17 Y 36 X 58 Y 36 X -66 Y 36 X -104 Y 35 X 102 Y
 36 X 75 Y 36 X -82 Y 36 X 52 Y 36 X -69 Y 36 X 40 Y 35 X 16 Y 36 X -29 Y 36 X -30 Y 36 X 87 Y 36 X -73 Y 36 X 58 Y 35 X -16 Y 36 X -66 Y 36 X 29 Y 36 X 17 Y 36 X 72 Y 36 X 19 Y 35 X -120 Y 36 X 22 Y 36 X 31 Y 36 X 3 Y 36 X -70 Y 36 X 3 Y 35 X 87 Y
 36 X -18 Y 36 X -23 Y 36 X 15 Y 36 X -38 Y 36 X 29 Y 35 X 35 Y 36 X -91 Y 36 X 43 Y 36 X 52 Y 36 X -59 Y 36 X -47 Y 35 X 87 Y 36 X 3 Y 36 X -40 Y 36 X 44 Y 36 X -45 Y 36 X 49 Y 35 X s 3 lw 363 74 m 1791 X s 562 85 m -11 Y s 612 79 m -5 Y s 661 79 m
 -5 Y s 711 79 m -5 Y s 761 79 m -5 Y s 811 85 m -11 Y s 860 79 m -5 Y s 910 79 m -5 Y s 960 79 m -5 Y s 1010 79 m -5 Y s 1060 85 m -11 Y s 1109 79 m -5 Y s 1159 79 m -5 Y s 1209 79 m -5 Y s 1259 79 m -5 Y s 1308 85 m -11 Y s 1358 79 m -5 Y s 1408 79
 m -5 Y s 1458 79 m -5 Y s 1507 79 m -5 Y s 1557 85 m -11 Y s 1607 79 m -5 Y s 1657 79 m -5 Y s 1706 79 m -5 Y s 1756 79 m -5 Y s 1806 85 m -11 Y s 1856 79 m -5 Y s 1906 79 m -5 Y s 1955 79 m -5 Y s 2005 79 m -5 Y s 2055 85 m -11 Y s 562 85 m -11 Y s
 512 79 m -5 Y s 462 79 m -5 Y s 413 79 m -5 Y s 363 79 m -5 Y s 2055 85 m -11 Y s 2105 79 m -5 Y s 2154 79 m -5 Y s 363 438 m 1791 X s 562 427 m 11 Y s 612 433 m 5 Y s 661 433 m 5 Y s 711 433 m 5 Y s 761 433 m 5 Y s 811 427 m 11 Y s 860 433 m 5 Y s
 910 433 m 5 Y s 960 433 m 5 Y s 1010 433 m 5 Y s 1060 427 m 11 Y s 1109 433 m 5 Y s 1159 433 m 5 Y s 1209 433 m 5 Y s 1259 433 m 5 Y s 1308 427 m 11 Y s 1358 433 m 5 Y s 1408 433 m 5 Y s 1458 433 m 5 Y s 1507 433 m 5 Y s 1557 427 m 11 Y s 1607 433 m
 5 Y s 1657 433 m 5 Y s 1706 433 m 5 Y s 1756 433 m 5 Y s 1806 427 m 11 Y s 1856 433 m 5 Y s 1906 433 m 5 Y s 1955 433 m 5 Y s 2005 433 m 5 Y s 2055 427 m 11 Y s 562 427 m 11 Y s 512 433 m 5 Y s 462 433 m 5 Y s 413 433 m 5 Y s 363 433 m 5 Y s 2055
 427 m 11 Y s 2105 433 m 5 Y s 2154 433 m 5 Y s 363 74 m 364 Y s 417 74 m -54 X s 390 81 m -27 X s 390 88 m -27 X s 390 96 m -27 X s 390 103 m -27 X s 417 110 m -54 X s 390 118 m -27 X s 390 125 m -27 X s 390 132 m -27 X s 390 139 m -27 X s 417 147 m
 -54 X s 390 154 m -27 X s 390 161 m -27 X s 390 169 m -27 X s 390 176 m -27 X s 417 183 m -54 X s 390 190 m -27 X s 390 198 m -27 X s 390 205 m -27 X s 390 212 m -27 X s 417 220 m -54 X s 390 227 m -27 X s 390 234 m -27 X s 390 241 m -27 X s 390 249
 m -27 X s 417 256 m -54 X s 390 263 m -27 X s 390 271 m -27 X s 390 278 m -27 X s 390 285 m -27 X s 417 293 m -54 X s 390 300 m -27 X s 390 307 m -27 X s 390 314 m -27 X s 390 322 m -27 X s 417 329 m -54 X s 390 336 m -27 X s 390 344 m -27 X s 390
 351 m -27 X s 390 358 m -27 X s 417 365 m -54 X s 390 373 m -27 X s 390 380 m -27 X s 390 387 m -27 X s 390 395 m -27 X s 417 402 m -54 X s 390 409 m -27 X s 390 416 m -27 X s 390 424 m -27 X s 390 431 m -27 X s 417 438 m -54 X s 2154 74 m 364 Y s
 2101 74 m 53 X s 2127 81 m 27 X s 2127 88 m 27 X s 2127 96 m 27 X s 2127 103 m 27 X s 2101 110 m 53 X s 2127 118 m 27 X s 2127 125 m 27 X s 2127 132 m 27 X s 2127 139 m 27 X s 2101 147 m 53 X s 2127 154 m 27 X s 2127 161 m 27 X s 2127 169 m 27 X s
 2127 176 m 27 X s 2101 183 m 53 X s 2127 190 m 27 X s 2127 198 m 27 X s 2127 205 m 27 X s 2127 212 m 27 X s 2101 220 m 53 X s 2127 227 m 27 X s 2127 234 m 27 X s 2127 241 m 27 X s 2127 249 m 27 X s 2101 256 m 53 X s 2127 263 m 27 X s 2127 271 m 27 X
 s 2127 278 m 27 X s 2127 285 m 27 X s 2101 293 m 53 X s 2127 300 m 27 X s 2127 307 m 27 X s 2127 314 m 27 X s 2127 322 m 27 X s 2101 329 m 53 X s 2127 336 m 27 X s 2127 344 m 27 X s 2127 351 m 27 X s 2127 358 m 27 X s 2101 365 m 53 X s 2127 373 m 27
 X s 2127 380 m 27 X s 2127 387 m 27 X s 2127 395 m 27 X s 2101 402 m 53 X s 2127 409 m 27 X s 2127 416 m 27 X s 2127 424 m 27 X s 2127 431 m 27 X s 2101 438 m 53 X s
 gr  gr showpage
end
%%EOF
