%!PS-Adobe-2.0 EPSF-2.0
%%BoundingBox:  0 0 567 384
%%Title: H4l2015_plotfit/gg_mass_signal_1600_H4l_4mu.eps: 
%%Creator: ROOT Version 5.34/10
%%CreationDate: Thu Feb 16 12:42:32 2017
%%EndComments
%%BeginProlog
80 dict begin
/s {stroke} def /l {lineto} def /m {moveto} def /t {translate} def
/r {rotate} def /rl {roll}  def /R {repeat} def
/d {rlineto} def /rm {rmoveto} def /gr {grestore} def /f {eofill} def
/c {setrgbcolor} def /black {0 setgray} def /sd {setdash} def
/cl {closepath} def /sf {scalefont setfont} def /lw {setlinewidth} def
/box {m dup 0 exch d exch 0 d 0 exch neg d cl} def
/NC{systemdict begin initclip end}def/C{NC box clip newpath}def
/bl {box s} def /bf {box f} def /Y { 0 exch d} def /X { 0 d} def 
/K {{pop pop 0 moveto} exch kshow} bind def
/ita {/ang 15 def gsave [1 0 ang dup sin exch cos div 1 0 0] concat} def 
/mp {newpath /y exch def /x exch def} def
/side {[w .77 mul w .23 mul] .385 w mul sd w 0 l currentpoint t -144 r} def
/mr {mp x y w2 0 360 arc} def /m24 {mr s} def /m20 {mr f} def
/mb {mp x y w2 add m w2 neg 0 d 0 w neg d w 0 d 0 w d cl} def
/mt {mp x y w2 add m w2 neg w neg d w 0 d cl} def
/m21 {mb f} def /m25 {mb s} def /m22 {mt f} def /m26{mt s} def
/m23 {mp x y w2 sub m w2 w d w neg 0 d cl f} def
/m27 {mp x y w2 add m w3 neg w2 neg d w3 w2 neg d w3 w2 d cl s} def
/m28 {mp x w2 sub y w2 sub w3 add m w3 0 d  0 w3 neg d w3 0 d 0 w3 d w3 0 d  0 w3 d w3 neg 0 d 0 w3 d w3 neg 0 d 0 w3 neg d w3 neg 0 d cl s } def
/m29 {mp gsave x w2 sub y w2 add w3 sub m currentpoint t 4 {side} repeat cl fill gr} def
/m30 {mp gsave x w2 sub y w2 add w3 sub m currentpoint t 4 {side} repeat cl s gr} def
/m31 {mp x y w2 sub m 0 w d x w2 sub y m w 0 d x w2 sub y w2 add m w w neg d x w2 sub y w2 sub m w w d s} def
/m32 {mp x y w2 sub m w2 w d w neg 0 d cl s} def
/m33 {mp x y w2 add m w3 neg w2 neg d w3 w2 neg d w3 w2 d cl f} def
/m34 {mp x w2 sub y w2 sub w3 add m w3 0 d  0 w3 neg d w3 0 d 0 w3 d w3 0 d  0 w3 d w3 neg 0 d 0 w3 d w3 neg 0 d 0 w3 neg d w3 neg 0 d cl f } def
/m2 {mp x y w2 sub m 0 w d x w2 sub y m w 0 d s} def
/m5 {mp x w2 sub y w2 sub m w w d x w2 sub y w2 add m w w neg d s} def
/reEncode {exch findfont dup length dict begin {1 index /FID eq  {pop pop} {def} ifelse } forall /Encoding exch def currentdict end dup /FontName get exch definefont pop } def [/Times-Bold /Times-Italic /Times-BoldItalic /Helvetica /Helvetica-Oblique
 /Helvetica-Bold /Helvetica-BoldOblique /Courier /Courier-Oblique /Courier-Bold /Courier-BoldOblique /Times-Roman /AvantGarde-Book /AvantGarde-BookOblique /AvantGarde-Demi /AvantGarde-DemiOblique /Bookman-Demi /Bookman-DemiItalic /Bookman-Light
 /Bookman-LightItalic /Helvetica-Narrow /Helvetica-Narrow-Bold /Helvetica-Narrow-BoldOblique /Helvetica-Narrow-Oblique /NewCenturySchlbk-Roman /NewCenturySchlbk-Bold /NewCenturySchlbk-BoldItalic /NewCenturySchlbk-Italic /Palatino-Bold
 /Palatino-BoldItalic /Palatino-Italic /Palatino-Roman ] {ISOLatin1Encoding reEncode } forall
%%EndProlog
%%BeginSetup
%%EndSetup
newpath  gsave  .25 .25 scale  gsave  0 0 t black[  ] 0 sd 3 lw 1 1 1 c 2268 1538 0 0 bf black 1 1 1 c 2222 738 23 784 bf black 1 1 1 c 2222 739 23 15 bf black 1 1 1 c 2268 1077 0 461 bf black 1 1 1 c 1791 850 363 634 bf black 1791 850 363 634 bl 363
 634 m 1791 X s
 gsave  2268 1077 0 461 C 1642.14 498.507 t 0 r /Helvetica findfont 48.9324 sf 0 0 m (4l Invariant Mass \(GeV\)) show NC gr  363 659 m -25 Y s 421 646 m -12 Y s 478 646 m -12 Y s 536 646 m -12 Y s 594 646 m -12 Y s 652 659 m -25 Y s 710 646 m -12 Y s
 767 646 m -12 Y s 825 646 m -12 Y s 883 646 m -12 Y s 941 659 m -25 Y s 999 646 m -12 Y s 1056 646 m -12 Y s 1114 646 m -12 Y s 1172 646 m -12 Y s 1230 659 m -25 Y s 1287 646 m -12 Y s 1345 646 m -12 Y s 1403 646 m -12 Y s 1461 646 m -12 Y s 1519
 659 m -25 Y s 1576 646 m -12 Y s 1634 646 m -12 Y s 1692 646 m -12 Y s 1750 646 m -12 Y s 1808 659 m -25 Y s 1865 646 m -12 Y s 1923 646 m -12 Y s 1981 646 m -12 Y s 2039 646 m -12 Y s 2097 659 m -25 Y s 2097 659 m -25 Y s
 gsave  2268 1077 0 461 C 306.272 586.478 t 0 r /Helvetica findfont 48.9324 sf 0 0 m (1400) show NC gr 
 gsave  2268 1077 0 461 C 596.253 586.478 t 0 r /Helvetica findfont 48.9324 sf 0 0 m (1450) show NC gr 
 gsave  2268 1077 0 461 C 882.976 586.478 t 0 r /Helvetica findfont 48.9324 sf 0 0 m (1500) show NC gr 
 gsave  2268 1077 0 461 C 1172.96 586.478 t 0 r /Helvetica findfont 48.9324 sf 0 0 m (1550) show NC gr 
 gsave  2268 1077 0 461 C 1462.94 586.478 t 0 r /Helvetica findfont 48.9324 sf 0 0 m (1600) show NC gr 
 gsave  2268 1077 0 461 C 1749.66 586.478 t 0 r /Helvetica findfont 48.9324 sf 0 0 m (1650) show NC gr 
 gsave  2268 1077 0 461 C 2039.64 586.478 t 0 r /Helvetica findfont 48.9324 sf 0 0 m (1700) show NC gr  363 1484 m 1791 X s 363 1459 m 25 Y s 421 1471 m 13 Y s 478 1471 m 13 Y s 536 1471 m 13 Y s 594 1471 m 13 Y s 652 1459 m 25 Y s 710 1471 m 13 Y s
 767 1471 m 13 Y s 825 1471 m 13 Y s 883 1471 m 13 Y s 941 1459 m 25 Y s 999 1471 m 13 Y s 1056 1471 m 13 Y s 1114 1471 m 13 Y s 1172 1471 m 13 Y s 1230 1459 m 25 Y s 1287 1471 m 13 Y s 1345 1471 m 13 Y s 1403 1471 m 13 Y s 1461 1471 m 13 Y s 1519
 1459 m 25 Y s 1576 1471 m 13 Y s 1634 1471 m 13 Y s 1692 1471 m 13 Y s 1750 1471 m 13 Y s 1808 1459 m 25 Y s 1865 1471 m 13 Y s 1923 1471 m 13 Y s 1981 1471 m 13 Y s 2039 1471 m 13 Y s 2097 1459 m 25 Y s 2097 1459 m 25 Y s 363 634 m 850 Y s
 gsave  2268 1077 0 461 C 120.554 1058.92 t 90 r /Helvetica findfont 48.9324 sf 0 0 m (Events / \( 6.2 GeV \)) show NC gr  390 665 m -27 X s 390 722 m -27 X s 390 762 m -27 X s 390 793 m -27 X s 390 818 m -27 X s 390 840 m -27 X s 390 858 m -27 X s
 390 875 m -27 X s 417 889 m -54 X s
 gsave  2268 1077 0 461 C 342.425 868.593 t 0 r  -55 0 t /Helvetica findfont 48.9324 sf 0 0 m (10) show NC gr  390 986 m -27 X s 390 1042 m -27 X s 390 1082 m -27 X s 390 1113 m -27 X s 390 1139 m -27 X s 390 1160 m -27 X s 390 1179 m -27 X s 390
 1195 m -27 X s 417 1210 m -54 X s
 gsave  2268 1077 0 461 C 322.563 1208.8 t 0 r /Helvetica findfont 32.6216 sf 0 0 m (2) show NC gr 
 gsave  2268 1077 0 461 C 270.432 1189.25 t 0 r /Helvetica findfont 48.9324 sf 0 0 m (10) show NC gr  390 1306 m -27 X s 390 1363 m -27 X s 390 1403 m -27 X s 390 1434 m -27 X s 390 1459 m -27 X s 390 1481 m -27 X s 2154 634 m 850 Y s 2127 665 m 27 X
 s 2127 722 m 27 X s 2127 762 m 27 X s 2127 793 m 27 X s 2127 818 m 27 X s 2127 840 m 27 X s 2127 858 m 27 X s 2127 875 m 27 X s 2101 889 m 53 X s 2127 986 m 27 X s 2127 1042 m 27 X s 2127 1082 m 27 X s 2127 1113 m 27 X s 2127 1139 m 27 X s 2127 1160
 m 27 X s 2127 1179 m 27 X s 2127 1195 m 27 X s 2101 1210 m 53 X s 2127 1306 m 27 X s 2127 1363 m 27 X s 2127 1403 m 27 X s 2127 1434 m 27 X s 2127 1459 m 27 X s 2127 1481 m 27 X s 381 971 m -18 X s 363 971 m cl s 381 971 m 18 X s 399 971 m cl s 381
 971 m 36 Y s 381 1007 m cl s 381 971 m -37 Y s 381 934 m cl s 417 999 m -18 X s 399 999 m cl s 417 999 m 17 X s 434 999 m cl s 417 999 m 33 Y s 417 1032 m cl s 417 999 m -33 Y s 417 966 m cl s 452 1042 m -18 X s 434 1042 m cl s 452 1042 m 18 X s 470
 1042 m cl s 452 1042 m 28 Y s 452 1070 m cl s 452 1042 m -28 Y s 452 1014 m cl s 488 1033 m -18 X s 470 1033 m cl s 488 1033 m 18 X s 506 1033 m cl s 488 1033 m 28 Y s 488 1061 m cl s 488 1033 m -29 Y s 488 1004 m cl s 524 1028 m -18 X s 506 1028 m
 cl s 524 1028 m 18 X s 542 1028 m cl s 524 1028 m 29 Y s 524 1057 m cl s 524 1028 m -30 Y s 524 998 m cl s 560 1022 m -18 X s 542 1022 m cl s 560 1022 m 18 X s 578 1022 m cl s 560 1022 m 30 Y s 560 1052 m cl s 560 1022 m -30 Y s 560 992 m cl s 596
 1051 m -18 X s 578 1051 m cl s 596 1051 m 18 X s 614 1051 m cl s 596 1051 m 27 Y s 596 1078 m cl s 596 1051 m -27 Y s 596 1024 m cl s 632 1064 m -18 X s 614 1064 m cl s 632 1064 m 17 X s 649 1064 m cl s 632 1064 m 25 Y s 632 1089 m cl s 632 1064 m
 -26 Y s 632 1038 m cl s 667 1051 m -18 X s 649 1051 m cl s 667 1051 m 18 X s 685 1051 m cl s 667 1051 m 27 Y s 667 1078 m cl s 667 1051 m -27 Y s 667 1024 m cl s 703 1064 m -18 X s 685 1064 m cl s 703 1064 m 18 X s 721 1064 m cl s 703 1064 m 25 Y s
 703 1089 m cl s 703 1064 m -26 Y s 703 1038 m cl s 739 1148 m -18 X s 721 1148 m cl s 739 1148 m 18 X s 757 1148 m cl s 739 1148 m 18 Y s 739 1166 m cl s 739 1148 m -19 Y s 739 1129 m cl s 775 1113 m -18 X s 757 1113 m cl s 775 1113 m 18 X s 793
 1113 m cl s 775 1113 m 21 Y s 775 1134 m cl s 775 1113 m -21 Y s 775 1092 m cl s 811 1113 m -18 X s 793 1113 m cl s 811 1113 m 18 X s 829 1113 m cl s 811 1113 m 21 Y s 811 1134 m cl s 811 1113 m -21 Y s 811 1092 m cl s 847 1127 m -18 X s 829 1127 m
 cl s 847 1127 m 17 X s 864 1127 m cl s 847 1127 m 20 Y s 847 1147 m cl s 847 1127 m -20 Y s 847 1107 m cl s 882 1181 m -18 X s 864 1181 m cl s 882 1181 m 18 X s 900 1181 m cl s 882 1181 m 16 Y s 882 1197 m cl s 882 1181 m -17 Y s 882 1164 m cl s 918
 1143 m -18 X s 900 1143 m cl s 918 1143 m 18 X s 936 1143 m cl s 918 1143 m 19 Y s 918 1162 m cl s 918 1143 m -18 Y s 918 1125 m cl s 954 1152 m -18 X s 936 1152 m cl s 954 1152 m 18 X s 972 1152 m cl s 954 1152 m 18 Y s 954 1170 m cl s 954 1152 m
 -18 Y s 954 1134 m cl s 990 1197 m -18 X s 972 1197 m cl s 990 1197 m 18 X s 1008 1197 m cl s 990 1197 m 15 Y s 990 1212 m cl s 990 1197 m -16 Y s 990 1181 m cl s 1026 1195 m -18 X s 1008 1195 m cl s 1026 1195 m 18 X s 1044 1195 m cl s 1026 1195 m
 16 Y s 1026 1211 m cl s 1026 1195 m -15 Y s 1026 1180 m cl s 1062 1210 m -18 X s 1044 1210 m cl s 1062 1210 m 17 X s 1079 1210 m cl s 1062 1210 m 15 Y s 1062 1225 m cl s 1062 1210 m -15 Y s 1062 1195 m cl s 1097 1239 m -18 X s 1079 1239 m cl s 1097
 1239 m 18 X s 1115 1239 m cl s 1097 1239 m 12 Y s 1097 1251 m cl s 1097 1239 m -13 Y s 1097 1226 m cl s 1133 1250 m -18 X s 1115 1250 m cl s 1133 1250 m 18 X s 1151 1250 m cl s 1133 1250 m 12 Y s 1133 1262 m cl s 1133 1250 m -12 Y s 1133 1238 m cl s
 1169 1270 m -18 X s 1151 1270 m cl s 1169 1270 m 18 X s 1187 1270 m cl s 1169 1270 m 11 Y s 1169 1281 m cl s 1169 1270 m -11 Y s 1169 1259 m cl s 1205 1274 m -18 X s 1187 1274 m cl s 1205 1274 m 18 X s 1223 1274 m cl s 1205 1274 m 11 Y s 1205 1285 m
 cl s 1205 1274 m -11 Y s 1205 1263 m cl s 1241 1314 m -18 X s 1223 1314 m cl s 1241 1314 m 18 X s 1259 1314 m cl s 1241 1314 m 10 Y s 1241 1324 m cl s 1241 1314 m -10 Y s 1241 1304 m cl s 1276 1330 m -17 X s 1259 1330 m cl s 1276 1330 m 18 X s 1294
 1330 m cl s 1276 1330 m 9 Y s 1276 1339 m cl s 1276 1330 m -10 Y s 1276 1320 m cl s 1312 1335 m -18 X s 1294 1335 m cl s 1312 1335 m 18 X s 1330 1335 m cl s 1312 1335 m 9 Y s 1312 1344 m cl s 1312 1335 m -9 Y s 1312 1326 m cl s 1348 1351 m -18 X s
 1330 1351 m cl s 1348 1351 m 18 X s 1366 1351 m cl s 1348 1351 m 8 Y s 1348 1359 m cl s 1348 1351 m -9 Y s 1348 1342 m cl s 1384 1381 m -18 X s 1366 1381 m cl s 1384 1381 m 18 X s 1402 1381 m cl s 1384 1381 m 8 Y s 1384 1389 m cl s 1384 1381 m -7 Y
 s 1384 1374 m cl s 1420 1388 m -18 X s 1402 1388 m cl s 1420 1388 m 18 X s 1438 1388 m cl s 1420 1388 m 7 Y s 1420 1395 m cl s 1420 1388 m -8 Y s 1420 1380 m cl s 1456 1397 m -18 X s 1438 1397 m cl s 1456 1397 m 18 X s 1474 1397 m cl s 1456 1397 m 7
 Y s 1456 1404 m cl s 1456 1397 m -7 Y s 1456 1390 m cl s 1491 1413 m -17 X s 1474 1413 m cl s 1491 1413 m 18 X s 1509 1413 m cl s 1491 1413 m 6 Y s 1491 1419 m cl s 1491 1413 m -7 Y s 1491 1406 m cl s 1527 1397 m -18 X s 1509 1397 m cl s 1527 1397 m
 18 X s 1545 1397 m cl s 1527 1397 m 7 Y s 1527 1404 m cl s 1527 1397 m -7 Y s 1527 1390 m cl s 1563 1412 m -18 X s 1545 1412 m cl s 1563 1412 m 18 X s 1581 1412 m cl s 1563 1412 m 7 Y s 1563 1419 m cl s 1563 1412 m -7 Y s 1563 1405 m cl s 1599 1390
 m -18 X s 1581 1390 m cl s 1599 1390 m 18 X s 1617 1390 m cl s 1599 1390 m 7 Y s 1599 1397 m cl s 1599 1390 m -7 Y s 1599 1383 m cl s 1635 1371 m -18 X s 1617 1371 m cl s 1635 1371 m 18 X s 1653 1371 m cl s 1635 1371 m 8 Y s 1635 1379 m cl s 1635
 1371 m -8 Y s 1635 1363 m cl s 1671 1339 m -18 X s 1653 1339 m cl s 1671 1339 m 18 X s 1689 1339 m cl s 1671 1339 m 8 Y s 1671 1347 m cl s 1671 1339 m -9 Y s 1671 1330 m cl s 1706 1328 m -17 X s 1689 1328 m cl s 1706 1328 m 18 X s 1724 1328 m cl s
 1706 1328 m 9 Y s 1706 1337 m cl s 1706 1328 m -9 Y s 1706 1319 m cl s 1742 1307 m -18 X s 1724 1307 m cl s 1742 1307 m 18 X s 1760 1307 m cl s 1742 1307 m 10 Y s 1742 1317 m cl s 1742 1307 m -10 Y s 1742 1297 m cl s 1778 1249 m -18 X s 1760 1249 m
 cl s 1778 1249 m 18 X s 1796 1249 m cl s 1778 1249 m 12 Y s 1778 1261 m cl s 1778 1249 m -12 Y s 1778 1237 m cl s 1814 1238 m -18 X s 1796 1238 m cl s 1814 1238 m 18 X s 1832 1238 m cl s 1814 1238 m 12 Y s 1814 1250 m cl s 1814 1238 m -13 Y s 1814
 1225 m cl s 1850 1225 m -18 X s 1832 1225 m cl s 1850 1225 m 18 X s 1868 1225 m cl s 1850 1225 m 13 Y s 1850 1238 m cl s 1850 1225 m -14 Y s 1850 1211 m cl s 1886 1198 m -18 X s 1868 1198 m cl s 1886 1198 m 18 X s 1904 1198 m cl s 1886 1198 m 16 Y s
 1886 1214 m cl s 1886 1198 m -15 Y s 1886 1183 m cl s 1921 1175 m -17 X s 1904 1175 m cl s 1921 1175 m 18 X s 1939 1175 m cl s 1921 1175 m 17 Y s 1921 1192 m cl s 1921 1175 m -16 Y s 1921 1159 m cl s 1957 1154 m -18 X s 1939 1154 m cl s 1957 1154 m
 18 X s 1975 1154 m cl s 1957 1154 m 18 Y s 1957 1172 m cl s 1957 1154 m -18 Y s 1957 1136 m cl s 1993 1132 m -18 X s 1975 1132 m cl s 1993 1132 m 18 X s 2011 1132 m cl s 1993 1132 m 19 Y s 1993 1151 m cl s 1993 1132 m -20 Y s 1993 1112 m cl s 2029
 1099 m -18 X s 2011 1099 m cl s 2029 1099 m 18 X s 2047 1099 m cl s 2029 1099 m 22 Y s 2029 1121 m cl s 2029 1099 m -23 Y s 2029 1076 m cl s 2065 1022 m -18 X s 2047 1022 m cl s 2065 1022 m 18 X s 2083 1022 m cl s 2065 1022 m 30 Y s 2065 1052 m cl s
 2065 1022 m -30 Y s 2065 992 m cl s 2101 1011 m -18 X s 2083 1011 m cl s 2101 1011 m 18 X s 2119 1011 m cl s 2101 1011 m 31 Y s 2101 1042 m cl s 2101 1011 m -31 Y s 2101 980 m cl s 2136 936 m -17 X s 2119 936 m cl s 2136 936 m 18 X s 2154 936 m cl s
 2136 936 m 42 Y s 2136 978 m cl s 2136 936 m -42 Y s 2136 894 m cl s /w 31 def /w2 {w 2 div} def /w3 {w 3 div} def 381 971 417 999 452 1042 488 1033 524 1028 560 1022 596 1051 632 1064 667 1051 703 1064 739 1148 775 1113 811 1113 847 1127 882 1181
 918 1143 954 1152 990 1197 1026 1195 1062 1210 1097 1239 1133 1250 1169 1270 1205 1274 1241 1314 1276 1330 1312 1335 1348 1351 1384 1381 1420 1388 1456 1397 1491 1413 1527 1397 1563 1412 1599 1390 1635 1371 1671 1339 1706 1328 1742 1307 1778 1249
 1814 1238 1850 1225 1886 1198 1921 1175 1957 1154 1993 1132 2029 1099 2065 1022 2101 1011 2136 936 50 { m20} R 0 1 1 c 1 1 0 c black 1 1 0 c 363 1010 m 36 8 d 35 9 d 36 9 d 36 9 d 36 9 d 36 10 d 36 9 d 35 10 d 36 10 d 36 11 d 36 10 d 36 11 d 36 11 d
 35 12 d 36 12 d 36 12 d 36 13 d 36 13 d 36 14 d 35 15 d 36 15 d 36 15 d 18 9 d 18 9 d 18 9 d 18 10 d 18 11 d 18 12 d 17 11 d 18 11 d 18 10 d 18 11 d 36 18 d 18 8 d 18 7 d 18 6 d 18 6 d 9 3 d 9 2 d 9 2 d 9 1 d 9 1 d 26 X 9 -1 d 9 -2 d 9 -2 d 9 -2 d 9
 -2 d 9 -3 d 18 -7 d 18 -7 d 18 -8 d 36 -18 d 18 -10 d 18 -11 d 17 -11 d 18 -11 d 18 -11 d 18 -11 d 18 -11 d 18 -12 d 36 -23 d 36 -25 d 36 -27 d 35 -28 d 36 -30 d 36 -31 d 36 -34 d 36 -35 d 36 -38 d 35 -40 d -66 Y -35 50 d -36 47 d -36 44 d -36 41 d
 -36 37 d -36 34 d -35 31 d -36 28 d -36 26 d -36 25 d -18 11 d -18 12 d -18 12 d -18 11 d -18 11 d -17 11 d -18 10 d -18 11 d -36 20 d -18 9 d -18 8 d -18 6 d -9 2 d -9 2 d -9 2 d -9 1 d -9 2 d -9 X -9 1 d -17 X -9 -1 d -9 -1 d -9 -1 d -9 -1 d -9 -2
 d -18 -6 d -18 -7 d -18 -8 d -18 -10 d -36 -20 d -18 -11 d -18 -11 d -18 -11 d -17 -11 d -18 -11 d -18 -10 d -18 -9 d -18 -10 d -18 -9 d -18 -8 d -36 -16 d -36 -15 d -35 -14 d -36 -13 d -36 -14 d -36 -13 d -36 -13 d -36 -13 d -35 -12 d -36 -12 d -36
 -13 d -36 -11 d -36 -12 d -36 -11 d -35 -11 d -36 -11 d -36 -11 d -36 -10 d -36 -11 d -36 -10 d -35 -10 d -36 -9 d f 0 1 1 c 0 1 0 c black 0 1 0 c 363 1002 m 36 9 d 35 9 d 36 9 d 36 10 d 36 9 d 36 10 d 36 10 d 35 10 d 36 11 d 36 10 d 36 11 d 36 11 d
 36 12 d 35 11 d 36 12 d 36 13 d 36 13 d 36 13 d 36 14 d 35 14 d 36 15 d 36 16 d 18 9 d 18 8 d 18 10 d 18 10 d 18 11 d 18 11 d 17 11 d 18 11 d 18 11 d 18 10 d 36 19 d 18 8 d 18 8 d 18 6 d 18 6 d 9 2 d 9 2 d 9 2 d 9 1 d 9 1 d 26 X 9 -1 d 9 -2 d 9 -1 d
 9 -2 d 9 -3 d 9 -3 d 18 -6 d 18 -7 d 18 -9 d 36 -18 d 18 -11 d 18 -10 d 17 -11 d 18 -11 d 18 -11 d 18 -12 d 18 -11 d 18 -11 d 36 -24 d 36 -25 d 36 -27 d 35 -29 d 36 -31 d 36 -33 d 36 -34 d 36 -38 d 36 -39 d 35 -42 d -32 Y -35 46 d -36 44 d -36 42 d
 -36 38 d -36 36 d -36 33 d -35 30 d -36 28 d -36 25 d -36 25 d -18 11 d -18 12 d -18 11 d -18 11 d -18 11 d -17 11 d -18 11 d -18 10 d -36 20 d -18 9 d -18 7 d -18 6 d -9 3 d -9 2 d -9 2 d -9 2 d -9 1 d -9 1 d -26 X -9 -1 d -9 -1 d -9 -1 d -9 -2 d
 -9 -2 d -18 -5 d -18 -7 d -18 -8 d -18 -9 d -36 -20 d -18 -11 d -18 -11 d -18 -11 d -17 -11 d -18 -11 d -18 -10 d -18 -10 d -18 -9 d -18 -9 d -18 -9 d -36 -16 d -36 -14 d -35 -15 d -36 -13 d -36 -14 d -36 -13 d -36 -12 d -36 -13 d -35 -12 d -36 -12
 d -36 -12 d -36 -11 d -36 -12 d -36 -11 d -35 -10 d -36 -11 d -36 -10 d -36 -10 d -36 -10 d -36 -10 d -35 -10 d -36 -9 d f 0 0 1 c 9 lw black 0 0 1 c 363 995 m 36 9 d 35 9 d 36 10 d 36 9 d 36 10 d 36 10 d 36 10 d 35 11 d 36 11 d 36 11 d 36 11 d 36
 11 d 36 12 d 35 12 d 36 12 d 36 13 d 36 13 d 36 13 d 36 14 d 35 14 d 36 15 d 36 16 d 18 8 d 18 9 d 18 10 d 18 10 d 18 10 d 18 11 d 17 11 d 18 11 d 18 11 d 18 10 d 36 20 d 18 9 d 18 7 d 18 7 d 18 5 d 9 3 d 9 2 d 9 1 d 9 1 d 9 1 d 26 X 9 -1 d 9 -2 d 9
 -1 d 9 -2 d 9 -2 d 9 -3 d 18 -6 d 18 -8 d 18 -8 d 36 -19 d 18 -11 d 18 -10 d 17 -11 d 18 -11 d 18 -12 d 18 -11 d 18 -11 d 18 -12 d 36 -24 d 36 -25 d 36 -28 d 35 -29 d 36 -32 d 36 -34 d 36 -37 d 36 -39 d 36 -41 d 35 -44 d s black 3 lw 381 971 m -18 X
 s 363 971 m cl s 381 971 m 18 X s 399 971 m cl s 381 971 m 36 Y s 381 1007 m cl s 381 971 m -37 Y s 381 934 m cl s 417 999 m -18 X s 399 999 m cl s 417 999 m 17 X s 434 999 m cl s 417 999 m 33 Y s 417 1032 m cl s 417 999 m -33 Y s 417 966 m cl s 452
 1042 m -18 X s 434 1042 m cl s 452 1042 m 18 X s 470 1042 m cl s 452 1042 m 28 Y s 452 1070 m cl s 452 1042 m -28 Y s 452 1014 m cl s 488 1033 m -18 X s 470 1033 m cl s 488 1033 m 18 X s 506 1033 m cl s 488 1033 m 28 Y s 488 1061 m cl s 488 1033 m
 -29 Y s 488 1004 m cl s 524 1028 m -18 X s 506 1028 m cl s 524 1028 m 18 X s 542 1028 m cl s 524 1028 m 29 Y s 524 1057 m cl s 524 1028 m -30 Y s 524 998 m cl s 560 1022 m -18 X s 542 1022 m cl s 560 1022 m 18 X s 578 1022 m cl s 560 1022 m 30 Y s
 560 1052 m cl s 560 1022 m -30 Y s 560 992 m cl s 596 1051 m -18 X s 578 1051 m cl s 596 1051 m 18 X s 614 1051 m cl s 596 1051 m 27 Y s 596 1078 m cl s 596 1051 m -27 Y s 596 1024 m cl s 632 1064 m -18 X s 614 1064 m cl s 632 1064 m 17 X s 649 1064
 m cl s 632 1064 m 25 Y s 632 1089 m cl s 632 1064 m -26 Y s 632 1038 m cl s 667 1051 m -18 X s 649 1051 m cl s 667 1051 m 18 X s 685 1051 m cl s 667 1051 m 27 Y s 667 1078 m cl s 667 1051 m -27 Y s 667 1024 m cl s 703 1064 m -18 X s 685 1064 m cl s
 703 1064 m 18 X s 721 1064 m cl s 703 1064 m 25 Y s 703 1089 m cl s 703 1064 m -26 Y s 703 1038 m cl s 739 1148 m -18 X s 721 1148 m cl s 739 1148 m 18 X s 757 1148 m cl s 739 1148 m 18 Y s 739 1166 m cl s 739 1148 m -19 Y s 739 1129 m cl s 775 1113
 m -18 X s 757 1113 m cl s 775 1113 m 18 X s 793 1113 m cl s 775 1113 m 21 Y s 775 1134 m cl s 775 1113 m -21 Y s 775 1092 m cl s 811 1113 m -18 X s 793 1113 m cl s 811 1113 m 18 X s 829 1113 m cl s 811 1113 m 21 Y s 811 1134 m cl s 811 1113 m -21 Y
 s 811 1092 m cl s 847 1127 m -18 X s 829 1127 m cl s 847 1127 m 17 X s 864 1127 m cl s 847 1127 m 20 Y s 847 1147 m cl s 847 1127 m -20 Y s 847 1107 m cl s 882 1181 m -18 X s 864 1181 m cl s 882 1181 m 18 X s 900 1181 m cl s 882 1181 m 16 Y s 882
 1197 m cl s 882 1181 m -17 Y s 882 1164 m cl s 918 1143 m -18 X s 900 1143 m cl s 918 1143 m 18 X s 936 1143 m cl s 918 1143 m 19 Y s 918 1162 m cl s 918 1143 m -18 Y s 918 1125 m cl s 954 1152 m -18 X s 936 1152 m cl s 954 1152 m 18 X s 972 1152 m
 cl s 954 1152 m 18 Y s 954 1170 m cl s 954 1152 m -18 Y s 954 1134 m cl s 990 1197 m -18 X s 972 1197 m cl s 990 1197 m 18 X s 1008 1197 m cl s 990 1197 m 15 Y s 990 1212 m cl s 990 1197 m -16 Y s 990 1181 m cl s 1026 1195 m -18 X s 1008 1195 m cl s
 1026 1195 m 18 X s 1044 1195 m cl s 1026 1195 m 16 Y s 1026 1211 m cl s 1026 1195 m -15 Y s 1026 1180 m cl s 1062 1210 m -18 X s 1044 1210 m cl s 1062 1210 m 17 X s 1079 1210 m cl s 1062 1210 m 15 Y s 1062 1225 m cl s 1062 1210 m -15 Y s 1062 1195 m
 cl s 1097 1239 m -18 X s 1079 1239 m cl s 1097 1239 m 18 X s 1115 1239 m cl s 1097 1239 m 12 Y s 1097 1251 m cl s 1097 1239 m -13 Y s 1097 1226 m cl s 1133 1250 m -18 X s 1115 1250 m cl s 1133 1250 m 18 X s 1151 1250 m cl s 1133 1250 m 12 Y s 1133
 1262 m cl s 1133 1250 m -12 Y s 1133 1238 m cl s 1169 1270 m -18 X s 1151 1270 m cl s 1169 1270 m 18 X s 1187 1270 m cl s 1169 1270 m 11 Y s 1169 1281 m cl s 1169 1270 m -11 Y s 1169 1259 m cl s 1205 1274 m -18 X s 1187 1274 m cl s 1205 1274 m 18 X
 s 1223 1274 m cl s 1205 1274 m 11 Y s 1205 1285 m cl s 1205 1274 m -11 Y s 1205 1263 m cl s 1241 1314 m -18 X s 1223 1314 m cl s 1241 1314 m 18 X s 1259 1314 m cl s 1241 1314 m 10 Y s 1241 1324 m cl s 1241 1314 m -10 Y s 1241 1304 m cl s 1276 1330 m
 -17 X s 1259 1330 m cl s 1276 1330 m 18 X s 1294 1330 m cl s 1276 1330 m 9 Y s 1276 1339 m cl s 1276 1330 m -10 Y s 1276 1320 m cl s 1312 1335 m -18 X s 1294 1335 m cl s 1312 1335 m 18 X s 1330 1335 m cl s 1312 1335 m 9 Y s 1312 1344 m cl s 1312
 1335 m -9 Y s 1312 1326 m cl s 1348 1351 m -18 X s 1330 1351 m cl s 1348 1351 m 18 X s 1366 1351 m cl s 1348 1351 m 8 Y s 1348 1359 m cl s 1348 1351 m -9 Y s 1348 1342 m cl s 1384 1381 m -18 X s 1366 1381 m cl s 1384 1381 m 18 X s 1402 1381 m cl s
 1384 1381 m 8 Y s 1384 1389 m cl s 1384 1381 m -7 Y s 1384 1374 m cl s 1420 1388 m -18 X s 1402 1388 m cl s 1420 1388 m 18 X s 1438 1388 m cl s 1420 1388 m 7 Y s 1420 1395 m cl s 1420 1388 m -8 Y s 1420 1380 m cl s 1456 1397 m -18 X s 1438 1397 m cl
 s 1456 1397 m 18 X s 1474 1397 m cl s 1456 1397 m 7 Y s 1456 1404 m cl s 1456 1397 m -7 Y s 1456 1390 m cl s 1491 1413 m -17 X s 1474 1413 m cl s 1491 1413 m 18 X s 1509 1413 m cl s 1491 1413 m 6 Y s 1491 1419 m cl s 1491 1413 m -7 Y s 1491 1406 m
 cl s 1527 1397 m -18 X s 1509 1397 m cl s 1527 1397 m 18 X s 1545 1397 m cl s 1527 1397 m 7 Y s 1527 1404 m cl s 1527 1397 m -7 Y s 1527 1390 m cl s 1563 1412 m -18 X s 1545 1412 m cl s 1563 1412 m 18 X s 1581 1412 m cl s 1563 1412 m 7 Y s 1563 1419
 m cl s 1563 1412 m -7 Y s 1563 1405 m cl s 1599 1390 m -18 X s 1581 1390 m cl s 1599 1390 m 18 X s 1617 1390 m cl s 1599 1390 m 7 Y s 1599 1397 m cl s 1599 1390 m -7 Y s 1599 1383 m cl s 1635 1371 m -18 X s 1617 1371 m cl s 1635 1371 m 18 X s 1653
 1371 m cl s 1635 1371 m 8 Y s 1635 1379 m cl s 1635 1371 m -8 Y s 1635 1363 m cl s 1671 1339 m -18 X s 1653 1339 m cl s 1671 1339 m 18 X s 1689 1339 m cl s 1671 1339 m 8 Y s 1671 1347 m cl s 1671 1339 m -9 Y s 1671 1330 m cl s 1706 1328 m -17 X s
 1689 1328 m cl s 1706 1328 m 18 X s 1724 1328 m cl s 1706 1328 m 9 Y s 1706 1337 m cl s 1706 1328 m -9 Y s 1706 1319 m cl s 1742 1307 m -18 X s 1724 1307 m cl s 1742 1307 m 18 X s 1760 1307 m cl s 1742 1307 m 10 Y s 1742 1317 m cl s 1742 1307 m -10
 Y s 1742 1297 m cl s 1778 1249 m -18 X s 1760 1249 m cl s 1778 1249 m 18 X s 1796 1249 m cl s 1778 1249 m 12 Y s 1778 1261 m cl s 1778 1249 m -12 Y s 1778 1237 m cl s 1814 1238 m -18 X s 1796 1238 m cl s 1814 1238 m 18 X s 1832 1238 m cl s 1814 1238
 m 12 Y s 1814 1250 m cl s 1814 1238 m -13 Y s 1814 1225 m cl s 1850 1225 m -18 X s 1832 1225 m cl s 1850 1225 m 18 X s 1868 1225 m cl s 1850 1225 m 13 Y s 1850 1238 m cl s 1850 1225 m -14 Y s 1850 1211 m cl s 1886 1198 m -18 X s 1868 1198 m cl s
 1886 1198 m 18 X s 1904 1198 m cl s 1886 1198 m 16 Y s 1886 1214 m cl s 1886 1198 m -15 Y s 1886 1183 m cl s 1921 1175 m -17 X s 1904 1175 m cl s 1921 1175 m 18 X s 1939 1175 m cl s 1921 1175 m 17 Y s 1921 1192 m cl s 1921 1175 m -16 Y s 1921 1159 m
 cl s 1957 1154 m -18 X s 1939 1154 m cl s 1957 1154 m 18 X s 1975 1154 m cl s 1957 1154 m 18 Y s 1957 1172 m cl s 1957 1154 m -18 Y s 1957 1136 m cl s 1993 1132 m -18 X s 1975 1132 m cl s 1993 1132 m 18 X s 2011 1132 m cl s 1993 1132 m 19 Y s 1993
 1151 m cl s 1993 1132 m -20 Y s 1993 1112 m cl s 2029 1099 m -18 X s 2011 1099 m cl s 2029 1099 m 18 X s 2047 1099 m cl s 2029 1099 m 22 Y s 2029 1121 m cl s 2029 1099 m -23 Y s 2029 1076 m cl s 2065 1022 m -18 X s 2047 1022 m cl s 2065 1022 m 18 X
 s 2083 1022 m cl s 2065 1022 m 30 Y s 2065 1052 m cl s 2065 1022 m -30 Y s 2065 992 m cl s 2101 1011 m -18 X s 2083 1011 m cl s 2101 1011 m 18 X s 2119 1011 m cl s 2101 1011 m 31 Y s 2101 1042 m cl s 2101 1011 m -31 Y s 2101 980 m cl s 2136 936 m
 -17 X s 2119 936 m cl s 2136 936 m 18 X s 2154 936 m cl s 2136 936 m 42 Y s 2136 978 m cl s 2136 936 m -42 Y s 2136 894 m cl s 381 971 417 999 452 1042 488 1033 524 1028 560 1022 596 1051 632 1064 667 1051 703 1064 739 1148 775 1113 811 1113 847
 1127 882 1181 918 1143 954 1152 990 1197 1026 1195 1062 1210 1097 1239 1133 1250 1169 1270 1205 1274 1241 1314 1276 1330 1312 1335 1348 1351 1384 1381 1420 1388 1456 1397 1491 1413 1527 1397 1563 1412 1599 1390 1635 1371 1671 1339 1706 1328 1742
 1307 1778 1249 1814 1238 1850 1225 1886 1198 1921 1175 1957 1154 1993 1132 2029 1099 2065 1022 2101 1011 2136 936 50 { m20} R 0.52 0.76 0.64 c[ 4 8] 0 sd 9 lw black 0.52 0.76 0.64 c 363 995 m 36 9 d 35 9 d 36 10 d 36 9 d 36 10 d 36 10 d 36 10 d 35
 11 d 36 11 d 36 11 d 36 11 d 36 11 d 36 12 d 35 12 d 36 12 d 36 13 d 36 13 d 36 13 d 36 14 d 35 14 d 36 14 d 36 15 d 18 8 d 18 8 d 18 8 d 18 8 d 18 8 d 18 8 d 35 15 d 18 6 d 18 6 d 18 6 d 18 4 d 18 4 d 18 4 d 18 3 d 18 2 d 18 2 d 18 1 d 35 X 18 -1 d
 18 -1 d 18 -3 d 18 -2 d 18 -3 d 18 -4 d 18 -5 d 18 -5 d 18 -6 d 18 -6 d 35 -15 d 36 -17 d 36 -19 d 36 -22 d 36 -24 d 36 -27 d 35 -29 d 18 -16 d 18 -16 d 18 -17 d 18 -17 d 36 -37 d 36 -39 d 36 -41 d 35 -44 d s 0.54 0.66 0.63 c black 0.54 0.66 0.63 c
 1151 634 m 18 63 d s 1169 697 m 18 60 d 18 57 d 18 53 d 18 50 d 9 24 d 9 23 d 9 22 d 8 21 d 9 20 d 9 19 d 9 19 d 9 18 d 9 17 d 9 16 d 9 15 d 9 14 d 18 26 d 36 42 d 9 8 d 9 8 d 9 7 d 9 5 d 9 5 d 9 5 d 9 3 d 9 2 d 9 2 d 17 X 9 -1 d 9 -2 d 9 -2 d 9 -4
 d 9 -4 d 9 -6 d 9 -6 d 9 -7 d 9 -7 d 18 -19 d 18 -21 d 18 -25 d 18 -29 d 9 -15 d 9 -16 d 9 -18 d 9 -18 d 8 -19 d 9 -19 d 9 -21 d 9 -21 d 9 -23 d 9 -23 d 9 -24 d 9 -25 d 18 -52 d 18 -56 d 18 -59 d 18 -62 d 5 -20 d s black[  ] 0 sd 3 lw 363 634 m 1791
 X s 363 659 m -25 Y s 421 646 m -12 Y s 478 646 m -12 Y s 536 646 m -12 Y s 594 646 m -12 Y s 652 659 m -25 Y s 710 646 m -12 Y s 767 646 m -12 Y s 825 646 m -12 Y s 883 646 m -12 Y s 941 659 m -25 Y s 999 646 m -12 Y s 1056 646 m -12 Y s 1114 646 m
 -12 Y s 1172 646 m -12 Y s 1230 659 m -25 Y s 1287 646 m -12 Y s 1345 646 m -12 Y s 1403 646 m -12 Y s 1461 646 m -12 Y s 1519 659 m -25 Y s 1576 646 m -12 Y s 1634 646 m -12 Y s 1692 646 m -12 Y s 1750 646 m -12 Y s 1808 659 m -25 Y s 1865 646 m
 -12 Y s 1923 646 m -12 Y s 1981 646 m -12 Y s 2039 646 m -12 Y s 2097 659 m -25 Y s 2097 659 m -25 Y s 363 1484 m 1791 X s 363 1459 m 25 Y s 421 1471 m 13 Y s 478 1471 m 13 Y s 536 1471 m 13 Y s 594 1471 m 13 Y s 652 1459 m 25 Y s 710 1471 m 13 Y s
 767 1471 m 13 Y s 825 1471 m 13 Y s 883 1471 m 13 Y s 941 1459 m 25 Y s 999 1471 m 13 Y s 1056 1471 m 13 Y s 1114 1471 m 13 Y s 1172 1471 m 13 Y s 1230 1459 m 25 Y s 1287 1471 m 13 Y s 1345 1471 m 13 Y s 1403 1471 m 13 Y s 1461 1471 m 13 Y s 1519
 1459 m 25 Y s 1576 1471 m 13 Y s 1634 1471 m 13 Y s 1692 1471 m 13 Y s 1750 1471 m 13 Y s 1808 1459 m 25 Y s 1865 1471 m 13 Y s 1923 1471 m 13 Y s 1981 1471 m 13 Y s 2039 1471 m 13 Y s 2097 1459 m 25 Y s 2097 1459 m 25 Y s 363 634 m 850 Y s 390 665
 m -27 X s 390 722 m -27 X s 390 762 m -27 X s 390 793 m -27 X s 390 818 m -27 X s 390 840 m -27 X s 390 858 m -27 X s 390 875 m -27 X s 417 889 m -54 X s 390 986 m -27 X s 390 1042 m -27 X s 390 1082 m -27 X s 390 1113 m -27 X s 390 1139 m -27 X s
 390 1160 m -27 X s 390 1179 m -27 X s 390 1195 m -27 X s 417 1210 m -54 X s 390 1306 m -27 X s 390 1363 m -27 X s 390 1403 m -27 X s 390 1434 m -27 X s 390 1459 m -27 X s 390 1481 m -27 X s 2154 634 m 850 Y s 2127 665 m 27 X s 2127 722 m 27 X s 2127
 762 m 27 X s 2127 793 m 27 X s 2127 818 m 27 X s 2127 840 m 27 X s 2127 858 m 27 X s 2127 875 m 27 X s 2101 889 m 53 X s 2127 986 m 27 X s 2127 1042 m 27 X s 2127 1082 m 27 X s 2127 1113 m 27 X s 2127 1139 m 27 X s 2127 1160 m 27 X s 2127 1179 m 27
 X s 2127 1195 m 27 X s 2101 1210 m 53 X s 2127 1306 m 27 X s 2127 1363 m 27 X s 2127 1403 m 27 X s 2127 1434 m 27 X s 2127 1459 m 27 X s 2127 1481 m 27 X s
 gsave  2268 1077 0 461 C 677.708 1215.31 t 0 r /Helvetica findfont 58.7189 sf 0 0 m (4mu) show NC gr  1 1 1 c 453 161 454 1269 bf black
 gsave  2268 1077 0 461 C 566.929 1371.71 t 0 r /Helvetica-Bold findfont 48.9324 sf 0 0 m (MC15) show NC gr  510 1390 m20
 gsave  2268 1077 0 461 C 566.929 1293.51 t 0 r /Helvetica-Bold findfont 48.9324 sf 0 0 m (Projection of Signal pdf) show NC gr  0 0 1 c 9 lw 471 1309 m 79 X s black 3 lw 1 1 1 c 2268 461 0 0 bf black 1 1 1 c 1791 364 363 74 bf black 1791 364 363 74
 bl 363 74 m 1791 X s
 gsave  2268 461 0 0 C 1915.83 13.0329 t 0 r /Helvetica findfont 22.9045 sf 0 0 m (4l Invariant Mass \(GeV\)) show NC gr  363 85 m -11 Y s 421 79 m -5 Y s 478 79 m -5 Y s 536 79 m -5 Y s 594 79 m -5 Y s 652 85 m -11 Y s 710 79 m -5 Y s 767 79 m -5 Y
 s 825 79 m -5 Y s 883 79 m -5 Y s 941 85 m -11 Y s 999 79 m -5 Y s 1056 79 m -5 Y s 1114 79 m -5 Y s 1172 79 m -5 Y s 1230 85 m -11 Y s 1287 79 m -5 Y s 1345 79 m -5 Y s 1403 79 m -5 Y s 1461 79 m -5 Y s 1519 85 m -11 Y s 1576 79 m -5 Y s 1634 79 m
 -5 Y s 1692 79 m -5 Y s 1750 79 m -5 Y s 1808 85 m -11 Y s 1865 79 m -5 Y s 1923 79 m -5 Y s 1981 79 m -5 Y s 2039 79 m -5 Y s 2097 85 m -11 Y s 2097 85 m -11 Y s
 gsave  2268 461 0 0 C 335.596 55.3896 t 0 r /Helvetica findfont 22.9045 sf 0 0 m (1400) show NC gr 
 gsave  2268 461 0 0 C 625.577 55.3896 t 0 r /Helvetica findfont 22.9045 sf 0 0 m (1450) show NC gr 
 gsave  2268 461 0 0 C 912.3 55.3896 t 0 r /Helvetica findfont 22.9045 sf 0 0 m (1500) show NC gr 
 gsave  2268 461 0 0 C 1202.28 55.3896 t 0 r /Helvetica findfont 22.9045 sf 0 0 m (1550) show NC gr 
 gsave  2268 461 0 0 C 1492.26 55.3896 t 0 r /Helvetica findfont 22.9045 sf 0 0 m (1600) show NC gr 
 gsave  2268 461 0 0 C 1778.98 55.3896 t 0 r /Helvetica findfont 22.9045 sf 0 0 m (1650) show NC gr 
 gsave  2268 461 0 0 C 2068.97 55.3896 t 0 r /Helvetica findfont 22.9045 sf 0 0 m (1700) show NC gr  363 438 m 1791 X s 363 427 m 11 Y s 421 433 m 5 Y s 478 433 m 5 Y s 536 433 m 5 Y s 594 433 m 5 Y s 652 427 m 11 Y s 710 433 m 5 Y s 767 433 m 5 Y s
 825 433 m 5 Y s 883 433 m 5 Y s 941 427 m 11 Y s 999 433 m 5 Y s 1056 433 m 5 Y s 1114 433 m 5 Y s 1172 433 m 5 Y s 1230 427 m 11 Y s 1287 433 m 5 Y s 1345 433 m 5 Y s 1403 433 m 5 Y s 1461 433 m 5 Y s 1519 427 m 11 Y s 1576 433 m 5 Y s 1634 433 m 5
 Y s 1692 433 m 5 Y s 1750 433 m 5 Y s 1808 427 m 11 Y s 1865 433 m 5 Y s 1923 433 m 5 Y s 1981 433 m 5 Y s 2039 433 m 5 Y s 2097 427 m 11 Y s 2097 427 m 11 Y s 363 74 m 364 Y s 417 74 m -54 X s 390 81 m -27 X s 390 88 m -27 X s 390 96 m -27 X s 390
 103 m -27 X s 417 110 m -54 X s 390 118 m -27 X s 390 125 m -27 X s 390 132 m -27 X s 390 139 m -27 X s 417 147 m -54 X s 390 154 m -27 X s 390 161 m -27 X s 390 169 m -27 X s 390 176 m -27 X s 417 183 m -54 X s 390 190 m -27 X s 390 198 m -27 X s
 390 205 m -27 X s 390 212 m -27 X s 417 220 m -54 X s 390 227 m -27 X s 390 234 m -27 X s 390 241 m -27 X s 390 249 m -27 X s 417 256 m -54 X s 390 263 m -27 X s 390 271 m -27 X s 390 278 m -27 X s 390 285 m -27 X s 417 293 m -54 X s 390 300 m -27 X
 s 390 307 m -27 X s 390 314 m -27 X s 390 322 m -27 X s 417 329 m -54 X s 390 336 m -27 X s 390 344 m -27 X s 390 351 m -27 X s 390 358 m -27 X s 417 365 m -54 X s 390 373 m -27 X s 390 380 m -27 X s 390 387 m -27 X s 390 395 m -27 X s 417 402 m -54
 X s 390 409 m -27 X s 390 416 m -27 X s 390 424 m -27 X s 390 431 m -27 X s 417 438 m -54 X s
 gsave  2268 461 0 0 C 329.08 65.1643 t 0 r /Helvetica findfont 22.9045 sf 0 0 m (\2555) show NC gr 
 gsave  2268 461 0 0 C 329.08 101.005 t 0 r /Helvetica findfont 22.9045 sf 0 0 m (\2554) show NC gr 
 gsave  2268 461 0 0 C 329.08 140.103 t 0 r /Helvetica findfont 22.9045 sf 0 0 m (\2553) show NC gr 
 gsave  2268 461 0 0 C 329.08 175.944 t 0 r /Helvetica findfont 22.9045 sf 0 0 m (\2552) show NC gr 
 gsave  2268 461 0 0 C 332.338 211.784 t 0 r /Helvetica findfont 22.9045 sf 0 0 m (\2551) show NC gr 
 gsave  2268 461 0 0 C 335.596 247.624 t 0 r /Helvetica findfont 22.9045 sf 0 0 m (0) show NC gr 
 gsave  2268 461 0 0 C 338.854 283.465 t 0 r /Helvetica findfont 22.9045 sf 0 0 m (1) show NC gr 
 gsave  2268 461 0 0 C 335.596 319.305 t 0 r /Helvetica findfont 22.9045 sf 0 0 m (2) show NC gr 
 gsave  2268 461 0 0 C 335.596 358.403 t 0 r /Helvetica findfont 22.9045 sf 0 0 m (3) show NC gr 
 gsave  2268 461 0 0 C 335.596 394.244 t 0 r /Helvetica findfont 22.9045 sf 0 0 m (4) show NC gr 
 gsave  2268 461 0 0 C 335.596 430.084 t 0 r /Helvetica findfont 22.9045 sf 0 0 m (5) show NC gr  2154 74 m 364 Y s 2101 74 m 53 X s 2127 81 m 27 X s 2127 88 m 27 X s 2127 96 m 27 X s 2127 103 m 27 X s 2101 110 m 53 X s 2127 118 m 27 X s 2127 125 m
 27 X s 2127 132 m 27 X s 2127 139 m 27 X s 2101 147 m 53 X s 2127 154 m 27 X s 2127 161 m 27 X s 2127 169 m 27 X s 2127 176 m 27 X s 2101 183 m 53 X s 2127 190 m 27 X s 2127 198 m 27 X s 2127 205 m 27 X s 2127 212 m 27 X s 2101 220 m 53 X s 2127 227
 m 27 X s 2127 234 m 27 X s 2127 241 m 27 X s 2127 249 m 27 X s 2101 256 m 53 X s 2127 263 m 27 X s 2127 271 m 27 X s 2127 278 m 27 X s 2127 285 m 27 X s 2101 293 m 53 X s 2127 300 m 27 X s 2127 307 m 27 X s 2127 314 m 27 X s 2127 322 m 27 X s 2101
 329 m 53 X s 2127 336 m 27 X s 2127 344 m 27 X s 2127 351 m 27 X s 2127 358 m 27 X s 2101 365 m 53 X s 2127 373 m 27 X s 2127 380 m 27 X s 2127 387 m 27 X s 2127 395 m 27 X s 2101 402 m 53 X s 2127 409 m 27 X s 2127 416 m 27 X s 2127 424 m 27 X s
 2127 431 m 27 X s 2101 438 m 53 X s 6 lw 0.2 0.8 0.2 c black 3 lw 0.2 0.8 0.2 c 363 256 m -28 Y 36 X 18 Y 35 X 42 Y 36 X -25 Y 36 X -18 Y 36 X -19 Y 36 X 22 Y 36 X 3 Y 35 X -32 Y 36 X 1 Y 36 X 121 Y 36 X -81 Y 36 X -20 Y 36 X 2 Y 35 X 84 Y 36 X -101
 Y 36 X -10 Y 36 X 68 Y 36 X -36 Y 36 X 2 Y 35 X 39 Y 36 X -12 Y 36 X 15 Y 36 X -48 Y 36 X 72 Y 36 X -21 Y 35 X -67 Y 36 X -22 Y 36 X 54 Y 36 X -40 Y 36 X -2 Y 36 X 64 Y 35 X -69 Y 36 X 124 Y 36 X -45 Y 36 X -9 Y 36 X -53 Y 36 X 44 Y 35 X 5 Y 36 X
 -119 Y 36 X 44 Y 36 X 35 Y 36 X 3 Y 36 X 13 Y 35 X 19 Y 36 X 17 Y 72 X -55 Y 36 X 35 Y 36 X -31 Y 35 X 17 Y f 6 lw black 0.2 0.8 0.2 c black 363 228 m 36 X 18 Y 35 X 42 Y 36 X -25 Y 36 X -18 Y 36 X -19 Y 36 X 22 Y 36 X 3 Y 35 X -32 Y 36 X 1 Y 36 X
 121 Y 36 X -81 Y 36 X -20 Y 36 X 2 Y 35 X 84 Y 36 X -101 Y 36 X -10 Y 36 X 68 Y 36 X -36 Y 36 X 2 Y 35 X 39 Y 36 X -12 Y 36 X 15 Y 36 X -48 Y 36 X 72 Y 36 X -21 Y 35 X -67 Y 36 X -22 Y 36 X 54 Y 36 X -40 Y 36 X -2 Y 36 X 64 Y 35 X -69 Y 36 X 124 Y
 36 X -45 Y 36 X -9 Y 36 X -53 Y 36 X 44 Y 35 X 5 Y 36 X -119 Y 36 X 44 Y 36 X 35 Y 36 X 3 Y 36 X 13 Y 35 X 19 Y 36 X 17 Y 72 X -55 Y 36 X 35 Y 36 X -31 Y 35 X s 3 lw 363 74 m 1791 X s 363 85 m -11 Y s 421 79 m -5 Y s 478 79 m -5 Y s 536 79 m -5 Y s
 594 79 m -5 Y s 652 85 m -11 Y s 710 79 m -5 Y s 767 79 m -5 Y s 825 79 m -5 Y s 883 79 m -5 Y s 941 85 m -11 Y s 999 79 m -5 Y s 1056 79 m -5 Y s 1114 79 m -5 Y s 1172 79 m -5 Y s 1230 85 m -11 Y s 1287 79 m -5 Y s 1345 79 m -5 Y s 1403 79 m -5 Y s
 1461 79 m -5 Y s 1519 85 m -11 Y s 1576 79 m -5 Y s 1634 79 m -5 Y s 1692 79 m -5 Y s 1750 79 m -5 Y s 1808 85 m -11 Y s 1865 79 m -5 Y s 1923 79 m -5 Y s 1981 79 m -5 Y s 2039 79 m -5 Y s 2097 85 m -11 Y s 2097 85 m -11 Y s 363 438 m 1791 X s 363
 427 m 11 Y s 421 433 m 5 Y s 478 433 m 5 Y s 536 433 m 5 Y s 594 433 m 5 Y s 652 427 m 11 Y s 710 433 m 5 Y s 767 433 m 5 Y s 825 433 m 5 Y s 883 433 m 5 Y s 941 427 m 11 Y s 999 433 m 5 Y s 1056 433 m 5 Y s 1114 433 m 5 Y s 1172 433 m 5 Y s 1230
 427 m 11 Y s 1287 433 m 5 Y s 1345 433 m 5 Y s 1403 433 m 5 Y s 1461 433 m 5 Y s 1519 427 m 11 Y s 1576 433 m 5 Y s 1634 433 m 5 Y s 1692 433 m 5 Y s 1750 433 m 5 Y s 1808 427 m 11 Y s 1865 433 m 5 Y s 1923 433 m 5 Y s 1981 433 m 5 Y s 2039 433 m 5
 Y s 2097 427 m 11 Y s 2097 427 m 11 Y s 363 74 m 364 Y s 417 74 m -54 X s 390 81 m -27 X s 390 88 m -27 X s 390 96 m -27 X s 390 103 m -27 X s 417 110 m -54 X s 390 118 m -27 X s 390 125 m -27 X s 390 132 m -27 X s 390 139 m -27 X s 417 147 m -54 X
 s 390 154 m -27 X s 390 161 m -27 X s 390 169 m -27 X s 390 176 m -27 X s 417 183 m -54 X s 390 190 m -27 X s 390 198 m -27 X s 390 205 m -27 X s 390 212 m -27 X s 417 220 m -54 X s 390 227 m -27 X s 390 234 m -27 X s 390 241 m -27 X s 390 249 m -27
 X s 417 256 m -54 X s 390 263 m -27 X s 390 271 m -27 X s 390 278 m -27 X s 390 285 m -27 X s 417 293 m -54 X s 390 300 m -27 X s 390 307 m -27 X s 390 314 m -27 X s 390 322 m -27 X s 417 329 m -54 X s 390 336 m -27 X s 390 344 m -27 X s 390 351 m
 -27 X s 390 358 m -27 X s 417 365 m -54 X s 390 373 m -27 X s 390 380 m -27 X s 390 387 m -27 X s 390 395 m -27 X s 417 402 m -54 X s 390 409 m -27 X s 390 416 m -27 X s 390 424 m -27 X s 390 431 m -27 X s 417 438 m -54 X s 2154 74 m 364 Y s 2101 74
 m 53 X s 2127 81 m 27 X s 2127 88 m 27 X s 2127 96 m 27 X s 2127 103 m 27 X s 2101 110 m 53 X s 2127 118 m 27 X s 2127 125 m 27 X s 2127 132 m 27 X s 2127 139 m 27 X s 2101 147 m 53 X s 2127 154 m 27 X s 2127 161 m 27 X s 2127 169 m 27 X s 2127 176
 m 27 X s 2101 183 m 53 X s 2127 190 m 27 X s 2127 198 m 27 X s 2127 205 m 27 X s 2127 212 m 27 X s 2101 220 m 53 X s 2127 227 m 27 X s 2127 234 m 27 X s 2127 241 m 27 X s 2127 249 m 27 X s 2101 256 m 53 X s 2127 263 m 27 X s 2127 271 m 27 X s 2127
 278 m 27 X s 2127 285 m 27 X s 2101 293 m 53 X s 2127 300 m 27 X s 2127 307 m 27 X s 2127 314 m 27 X s 2127 322 m 27 X s 2101 329 m 53 X s 2127 336 m 27 X s 2127 344 m 27 X s 2127 351 m 27 X s 2127 358 m 27 X s 2101 365 m 53 X s 2127 373 m 27 X s
 2127 380 m 27 X s 2127 387 m 27 X s 2127 395 m 27 X s 2101 402 m 53 X s 2127 409 m 27 X s 2127 416 m 27 X s 2127 424 m 27 X s 2127 431 m 27 X s 2101 438 m 53 X s
 gr  gr showpage
end
%%EOF
