%!PS-Adobe-2.0 EPSF-2.0
%%BoundingBox:  0 0 567 384
%%Title: H4l2015_plotfit/gg_mass_signal_500_fixed_H4l_4mu.eps: 
%%Creator: ROOT Version 5.34/10
%%CreationDate: Thu Feb 16 13:02:59 2017
%%EndComments
%%BeginProlog
80 dict begin
/s {stroke} def /l {lineto} def /m {moveto} def /t {translate} def
/r {rotate} def /rl {roll}  def /R {repeat} def
/d {rlineto} def /rm {rmoveto} def /gr {grestore} def /f {eofill} def
/c {setrgbcolor} def /black {0 setgray} def /sd {setdash} def
/cl {closepath} def /sf {scalefont setfont} def /lw {setlinewidth} def
/box {m dup 0 exch d exch 0 d 0 exch neg d cl} def
/NC{systemdict begin initclip end}def/C{NC box clip newpath}def
/bl {box s} def /bf {box f} def /Y { 0 exch d} def /X { 0 d} def 
/K {{pop pop 0 moveto} exch kshow} bind def
/ita {/ang 15 def gsave [1 0 ang dup sin exch cos div 1 0 0] concat} def 
/mp {newpath /y exch def /x exch def} def
/side {[w .77 mul w .23 mul] .385 w mul sd w 0 l currentpoint t -144 r} def
/mr {mp x y w2 0 360 arc} def /m24 {mr s} def /m20 {mr f} def
/mb {mp x y w2 add m w2 neg 0 d 0 w neg d w 0 d 0 w d cl} def
/mt {mp x y w2 add m w2 neg w neg d w 0 d cl} def
/m21 {mb f} def /m25 {mb s} def /m22 {mt f} def /m26{mt s} def
/m23 {mp x y w2 sub m w2 w d w neg 0 d cl f} def
/m27 {mp x y w2 add m w3 neg w2 neg d w3 w2 neg d w3 w2 d cl s} def
/m28 {mp x w2 sub y w2 sub w3 add m w3 0 d  0 w3 neg d w3 0 d 0 w3 d w3 0 d  0 w3 d w3 neg 0 d 0 w3 d w3 neg 0 d 0 w3 neg d w3 neg 0 d cl s } def
/m29 {mp gsave x w2 sub y w2 add w3 sub m currentpoint t 4 {side} repeat cl fill gr} def
/m30 {mp gsave x w2 sub y w2 add w3 sub m currentpoint t 4 {side} repeat cl s gr} def
/m31 {mp x y w2 sub m 0 w d x w2 sub y m w 0 d x w2 sub y w2 add m w w neg d x w2 sub y w2 sub m w w d s} def
/m32 {mp x y w2 sub m w2 w d w neg 0 d cl s} def
/m33 {mp x y w2 add m w3 neg w2 neg d w3 w2 neg d w3 w2 d cl f} def
/m34 {mp x w2 sub y w2 sub w3 add m w3 0 d  0 w3 neg d w3 0 d 0 w3 d w3 0 d  0 w3 d w3 neg 0 d 0 w3 d w3 neg 0 d 0 w3 neg d w3 neg 0 d cl f } def
/m2 {mp x y w2 sub m 0 w d x w2 sub y m w 0 d s} def
/m5 {mp x w2 sub y w2 sub m w w d x w2 sub y w2 add m w w neg d s} def
/reEncode {exch findfont dup length dict begin {1 index /FID eq  {pop pop} {def} ifelse } forall /Encoding exch def currentdict end dup /FontName get exch definefont pop } def [/Times-Bold /Times-Italic /Times-BoldItalic /Helvetica /Helvetica-Oblique
 /Helvetica-Bold /Helvetica-BoldOblique /Courier /Courier-Oblique /Courier-Bold /Courier-BoldOblique /Times-Roman /AvantGarde-Book /AvantGarde-BookOblique /AvantGarde-Demi /AvantGarde-DemiOblique /Bookman-Demi /Bookman-DemiItalic /Bookman-Light
 /Bookman-LightItalic /Helvetica-Narrow /Helvetica-Narrow-Bold /Helvetica-Narrow-BoldOblique /Helvetica-Narrow-Oblique /NewCenturySchlbk-Roman /NewCenturySchlbk-Bold /NewCenturySchlbk-BoldItalic /NewCenturySchlbk-Italic /Palatino-Bold
 /Palatino-BoldItalic /Palatino-Italic /Palatino-Roman ] {ISOLatin1Encoding reEncode } forall
%%EndProlog
%%BeginSetup
%%EndSetup
newpath  gsave  .25 .25 scale  gsave  0 0 t black[  ] 0 sd 3 lw 1 1 1 c 2268 1538 0 0 bf black 1 1 1 c 2222 738 23 784 bf black 1 1 1 c 2222 739 23 15 bf black 1 1 1 c 2268 1077 0 461 bf black 1 1 1 c 1791 850 363 634 bf black 1791 850 363 634 bl 363
 634 m 1791 X s
 gsave  2268 1077 0 461 C 1642.14 498.507 t 0 r /Helvetica findfont 48.9324 sf 0 0 m (4l Invariant Mass \(GeV\)) show NC gr  363 659 m -25 Y s 442 646 m -12 Y s 521 646 m -12 Y s 601 646 m -12 Y s 680 659 m -25 Y s 759 646 m -12 Y s 838 646 m -12 Y s
 918 646 m -12 Y s 997 659 m -25 Y s 1076 646 m -12 Y s 1156 646 m -12 Y s 1235 646 m -12 Y s 1314 659 m -25 Y s 1393 646 m -12 Y s 1473 646 m -12 Y s 1552 646 m -12 Y s 1631 659 m -25 Y s 1710 646 m -12 Y s 1790 646 m -12 Y s 1869 646 m -12 Y s 1948
 659 m -25 Y s 1948 659 m -25 Y s 2027 646 m -12 Y s 2107 646 m -12 Y s
 gsave  2268 1077 0 461 C 319.305 586.478 t 0 r /Helvetica findfont 48.9324 sf 0 0 m (420) show NC gr 
 gsave  2268 1077 0 461 C 635.352 586.478 t 0 r /Helvetica findfont 48.9324 sf 0 0 m (440) show NC gr 
 gsave  2268 1077 0 461 C 951.398 586.478 t 0 r /Helvetica findfont 48.9324 sf 0 0 m (460) show NC gr 
 gsave  2268 1077 0 461 C 1270.7 586.478 t 0 r /Helvetica findfont 48.9324 sf 0 0 m (480) show NC gr 
 gsave  2268 1077 0 461 C 1586.75 586.478 t 0 r /Helvetica findfont 48.9324 sf 0 0 m (500) show NC gr 
 gsave  2268 1077 0 461 C 1902.8 586.478 t 0 r /Helvetica findfont 48.9324 sf 0 0 m (520) show NC gr  363 1484 m 1791 X s 363 1459 m 25 Y s 442 1471 m 13 Y s 521 1471 m 13 Y s 601 1471 m 13 Y s 680 1459 m 25 Y s 759 1471 m 13 Y s 838 1471 m 13 Y s
 918 1471 m 13 Y s 997 1459 m 25 Y s 1076 1471 m 13 Y s 1156 1471 m 13 Y s 1235 1471 m 13 Y s 1314 1459 m 25 Y s 1393 1471 m 13 Y s 1473 1471 m 13 Y s 1552 1471 m 13 Y s 1631 1459 m 25 Y s 1710 1471 m 13 Y s 1790 1471 m 13 Y s 1869 1471 m 13 Y s 1948
 1459 m 25 Y s 1948 1459 m 25 Y s 2027 1471 m 13 Y s 2107 1471 m 13 Y s 363 634 m 850 Y s
 gsave  2268 1077 0 461 C 120.554 1032.85 t 90 r /Helvetica findfont 48.9324 sf 0 0 m (Events / \( 2.26 GeV \)) show NC gr  390 659 m -27 X s 390 699 m -27 X s 390 730 m -27 X s 390 756 m -27 X s 390 777 m -27 X s 390 796 m -27 X s 390 812 m -27 X s
 417 827 m -54 X s
 gsave  2268 1077 0 461 C 342.425 806.031 t 0 r  -55 0 t /Helvetica findfont 48.9324 sf 0 0 m (10) show NC gr  390 923 m -27 X s 390 980 m -27 X s 390 1020 m -27 X s 390 1051 m -27 X s 390 1076 m -27 X s 390 1098 m -27 X s 390 1116 m -27 X s 390 1133
 m -27 X s 417 1147 m -54 X s
 gsave  2268 1077 0 461 C 322.563 1146.89 t 0 r /Helvetica findfont 32.6216 sf 0 0 m (2) show NC gr 
 gsave  2268 1077 0 461 C 270.432 1127.34 t 0 r /Helvetica findfont 48.9324 sf 0 0 m (10) show NC gr  390 1244 m -27 X s 390 1300 m -27 X s 390 1340 m -27 X s 390 1371 m -27 X s 390 1397 m -27 X s 390 1418 m -27 X s 390 1437 m -27 X s 390 1453 m -27
 X s 417 1468 m -54 X s
 gsave  2268 1077 0 461 C 322.563 1469.45 t 0 r /Helvetica findfont 32.6216 sf 0 0 m (3) show NC gr 
 gsave  2268 1077 0 461 C 270.432 1446.65 t 0 r /Helvetica findfont 48.9324 sf 0 0 m (10) show NC gr  2154 634 m 850 Y s 2127 659 m 27 X s 2127 699 m 27 X s 2127 730 m 27 X s 2127 756 m 27 X s 2127 777 m 27 X s 2127 796 m 27 X s 2127 812 m 27 X s
 2101 827 m 53 X s 2127 923 m 27 X s 2127 980 m 27 X s 2127 1020 m 27 X s 2127 1051 m 27 X s 2127 1076 m 27 X s 2127 1098 m 27 X s 2127 1116 m 27 X s 2127 1133 m 27 X s 2101 1147 m 53 X s 2127 1244 m 27 X s 2127 1300 m 27 X s 2127 1340 m 27 X s 2127
 1371 m 27 X s 2127 1397 m 27 X s 2127 1418 m 27 X s 2127 1437 m 27 X s 2127 1453 m 27 X s 2101 1468 m 53 X s 381 756 m -18 X s 363 756 m cl s 381 756 m 18 X s 399 756 m cl s 381 756 m 65 Y s 381 821 m cl s 381 756 m -71 Y s 381 685 m cl s 417 659 m
 -18 X s 399 659 m cl s 417 659 m 17 X s 434 659 m cl s 417 659 m 95 Y s 417 754 m cl s 417 659 m -25 Y s 417 634 m cl s 452 777 m -18 X s 434 777 m cl s 452 777 m 18 X s 470 777 m cl s 452 777 m 60 Y s 452 837 m cl s 452 777 m -64 Y s 452 713 m cl s
 488 796 m -18 X s 470 796 m cl s 488 796 m 18 X s 506 796 m cl s 488 796 m 56 Y s 488 852 m cl s 488 796 m -59 Y s 488 737 m cl s 524 756 m -18 X s 506 756 m cl s 524 756 m 18 X s 542 756 m cl s 524 756 m 65 Y s 524 821 m cl s 524 756 m -71 Y s 524
 685 m cl s 560 796 m -18 X s 542 796 m cl s 560 796 m 18 X s 578 796 m cl s 560 796 m 56 Y s 560 852 m cl s 560 796 m -59 Y s 560 737 m cl s 596 796 m -18 X s 578 796 m cl s 596 796 m 18 X s 614 796 m cl s 596 796 m 56 Y s 596 852 m cl s 596 796 m
 -59 Y s 596 737 m cl s 632 730 m -18 X s 614 730 m cl s 632 730 m 17 X s 649 730 m cl s 632 730 m 72 Y s 632 802 m cl s 632 730 m -78 Y s 632 652 m cl s 667 796 m -18 X s 649 796 m cl s 667 796 m 18 X s 685 796 m cl s 667 796 m 56 Y s 667 852 m cl s
 667 796 m -59 Y s 667 737 m cl s 703 840 m -18 X s 685 840 m cl s 703 840 m 18 X s 721 840 m cl s 703 840 m 47 Y s 703 887 m cl s 703 840 m -49 Y s 703 791 m cl s 739 930 m -18 X s 721 930 m cl s 739 930 m 18 X s 757 930 m cl s 739 930 m 33 Y s 739
 963 m cl s 739 930 m -34 Y s 739 896 m cl s 775 827 m -18 X s 757 827 m cl s 775 827 m 18 X s 793 827 m cl s 775 827 m 49 Y s 775 876 m cl s 775 827 m -52 Y s 775 775 m cl s 811 827 m -18 X s 793 827 m cl s 811 827 m 18 X s 829 827 m cl s 811 827 m
 49 Y s 811 876 m cl s 811 827 m -52 Y s 811 775 m cl s 847 883 m -18 X s 829 883 m cl s 847 883 m 17 X s 864 883 m cl s 847 883 m 40 Y s 847 923 m cl s 847 883 m -41 Y s 847 842 m cl s 882 949 m -18 X s 864 949 m cl s 882 949 m 18 X s 900 949 m cl s
 882 949 m 31 Y s 882 980 m cl s 882 949 m -32 Y s 882 917 m cl s 918 960 m -18 X s 900 960 m cl s 918 960 m 18 X s 936 960 m cl s 918 960 m 30 Y s 918 990 m cl s 918 960 m -30 Y s 918 930 m cl s 954 949 m -18 X s 936 949 m cl s 954 949 m 18 X s 972
 949 m cl s 954 949 m 31 Y s 954 980 m cl s 954 949 m -32 Y s 954 917 m cl s 990 965 m -18 X s 972 965 m cl s 990 965 m 18 X s 1008 965 m cl s 990 965 m 29 Y s 990 994 m cl s 990 965 m -29 Y s 990 936 m cl s 1026 970 m -18 X s 1008 970 m cl s 1026
 970 m 18 X s 1044 970 m cl s 1026 970 m 29 Y s 1026 999 m cl s 1026 970 m -29 Y s 1026 941 m cl s 1062 993 m -18 X s 1044 993 m cl s 1062 993 m 17 X s 1079 993 m cl s 1062 993 m 26 Y s 1062 1019 m cl s 1062 993 m -26 Y s 1062 967 m cl s 1097 1009 m
 -18 X s 1079 1009 m cl s 1097 1009 m 18 X s 1115 1009 m cl s 1097 1009 m 25 Y s 1097 1034 m cl s 1097 1009 m -25 Y s 1097 984 m cl s 1133 1023 m -18 X s 1115 1023 m cl s 1133 1023 m 18 X s 1151 1023 m cl s 1133 1023 m 24 Y s 1133 1047 m cl s 1133
 1023 m -23 Y s 1133 1000 m cl s 1169 1059 m -18 X s 1151 1059 m cl s 1169 1059 m 18 X s 1187 1059 m cl s 1169 1059 m 20 Y s 1169 1079 m cl s 1169 1059 m -20 Y s 1169 1039 m cl s 1205 1067 m -18 X s 1187 1067 m cl s 1205 1067 m 18 X s 1223 1067 m cl
 s 1205 1067 m 19 Y s 1205 1086 m cl s 1205 1067 m -20 Y s 1205 1047 m cl s 1241 1081 m -18 X s 1223 1081 m cl s 1241 1081 m 18 X s 1259 1081 m cl s 1241 1081 m 19 Y s 1241 1100 m cl s 1241 1081 m -19 Y s 1241 1062 m cl s 1276 1159 m -17 X s 1259
 1159 m cl s 1276 1159 m 18 X s 1294 1159 m cl s 1276 1159 m 14 Y s 1276 1173 m cl s 1276 1159 m -13 Y s 1276 1146 m cl s 1312 1178 m -18 X s 1294 1178 m cl s 1312 1178 m 18 X s 1330 1178 m cl s 1312 1178 m 13 Y s 1312 1191 m cl s 1312 1178 m -12 Y s
 1312 1166 m cl s 1348 1219 m -18 X s 1330 1219 m cl s 1348 1219 m 18 X s 1366 1219 m cl s 1348 1219 m 11 Y s 1348 1230 m cl s 1348 1219 m -11 Y s 1348 1208 m cl s 1384 1255 m -18 X s 1366 1255 m cl s 1384 1255 m 18 X s 1402 1255 m cl s 1384 1255 m
 10 Y s 1384 1265 m cl s 1384 1255 m -9 Y s 1384 1246 m cl s 1420 1300 m -18 X s 1402 1300 m cl s 1420 1300 m 18 X s 1438 1300 m cl s 1420 1300 m 8 Y s 1420 1308 m cl s 1420 1300 m -8 Y s 1420 1292 m cl s 1456 1331 m -18 X s 1438 1331 m cl s 1456
 1331 m 18 X s 1474 1331 m cl s 1456 1331 m 7 Y s 1456 1338 m cl s 1456 1331 m -7 Y s 1456 1324 m cl s 1491 1363 m -17 X s 1474 1363 m cl s 1491 1363 m 18 X s 1509 1363 m cl s 1491 1363 m 7 Y s 1491 1370 m cl s 1491 1363 m -6 Y s 1491 1357 m cl s
 1527 1377 m -18 X s 1509 1377 m cl s 1527 1377 m 18 X s 1545 1377 m cl s 1527 1377 m 6 Y s 1527 1383 m cl s 1527 1377 m -6 Y s 1527 1371 m cl s 1563 1407 m -18 X s 1545 1407 m cl s 1563 1407 m 18 X s 1581 1407 m cl s 1563 1407 m 5 Y s 1563 1412 m cl
 s 1563 1407 m -6 Y s 1563 1401 m cl s 1599 1415 m -18 X s 1581 1415 m cl s 1599 1415 m 18 X s 1617 1415 m cl s 1599 1415 m 5 Y s 1599 1420 m cl s 1599 1415 m -5 Y s 1599 1410 m cl s 1635 1409 m -18 X s 1617 1409 m cl s 1635 1409 m 18 X s 1653 1409 m
 cl s 1635 1409 m 5 Y s 1635 1414 m cl s 1635 1409 m -6 Y s 1635 1403 m cl s 1671 1405 m -18 X s 1653 1405 m cl s 1671 1405 m 18 X s 1689 1405 m cl s 1671 1405 m 6 Y s 1671 1411 m cl s 1671 1405 m -5 Y s 1671 1400 m cl s 1706 1368 m -17 X s 1689 1368
 m cl s 1706 1368 m 18 X s 1724 1368 m cl s 1706 1368 m 6 Y s 1706 1374 m cl s 1706 1368 m -7 Y s 1706 1361 m cl s 1742 1325 m -18 X s 1724 1325 m cl s 1742 1325 m 18 X s 1760 1325 m cl s 1742 1325 m 8 Y s 1742 1333 m cl s 1742 1325 m -7 Y s 1742
 1318 m cl s 1778 1283 m -18 X s 1760 1283 m cl s 1778 1283 m 18 X s 1796 1283 m cl s 1778 1283 m 9 Y s 1778 1292 m cl s 1778 1283 m -8 Y s 1778 1275 m cl s 1814 1213 m -18 X s 1796 1213 m cl s 1814 1213 m 18 X s 1832 1213 m cl s 1814 1213 m 11 Y s
 1814 1224 m cl s 1814 1213 m -11 Y s 1814 1202 m cl s 1850 1199 m -18 X s 1832 1199 m cl s 1850 1199 m 18 X s 1868 1199 m cl s 1850 1199 m 12 Y s 1850 1211 m cl s 1850 1199 m -11 Y s 1850 1188 m cl s 1886 1115 m -18 X s 1868 1115 m cl s 1886 1115 m
 18 X s 1904 1115 m cl s 1886 1115 m 16 Y s 1886 1131 m cl s 1886 1115 m -17 Y s 1886 1098 m cl s 1921 1090 m -17 X s 1904 1090 m cl s 1921 1090 m 18 X s 1939 1090 m cl s 1921 1090 m 18 Y s 1921 1108 m cl s 1921 1090 m -19 Y s 1921 1071 m cl s 1957
 1042 m -18 X s 1939 1042 m cl s 1957 1042 m 18 X s 1975 1042 m cl s 1957 1042 m 22 Y s 1957 1064 m cl s 1957 1042 m -22 Y s 1957 1020 m cl s 1993 930 m -18 X s 1975 930 m cl s 1993 930 m 18 X s 2011 930 m cl s 1993 930 m 33 Y s 1993 963 m cl s 1993
 930 m -34 Y s 1993 896 m cl s 2029 874 m -18 X s 2011 874 m cl s 2029 874 m 18 X s 2047 874 m cl s 2029 874 m 41 Y s 2029 915 m cl s 2029 874 m -43 Y s 2029 831 m cl s 2065 863 m -18 X s 2047 863 m cl s 2065 863 m 18 X s 2083 863 m cl s 2065 863 m
 43 Y s 2065 906 m cl s 2065 863 m -44 Y s 2065 819 m cl s 2101 852 m -18 X s 2083 852 m cl s 2101 852 m 18 X s 2119 852 m cl s 2101 852 m 45 Y s 2101 897 m cl s 2101 852 m -46 Y s 2101 806 m cl s 2136 730 m -17 X s 2119 730 m cl s 2136 730 m 18 X s
 2154 730 m cl s 2136 730 m 72 Y s 2136 802 m cl s 2136 730 m -78 Y s 2136 652 m cl s /w 31 def /w2 {w 2 div} def /w3 {w 3 div} def 381 756 417 659 452 777 488 796 524 756 560 796 596 796 632 730 667 796 703 840 739 930 775 827 811 827 847 883 882
 949 918 960 954 949 990 965 1026 970 1062 993 1097 1009 1133 1023 1169 1059 1205 1067 1241 1081 1276 1159 1312 1178 1348 1219 1384 1255 1420 1300 1456 1331 1491 1363 1527 1377 1563 1407 1599 1415 1635 1409 1671 1405 1706 1368 1742 1325 1778 1283
 1814 1213 1850 1199 1886 1115 1921 1090 1957 1042 1993 930 2029 874 2065 863 2101 852 2136 730 50 { m20} R 0 1 1 c 1 1 0 c black 1 1 0 c 363 727 m 36 11 d 35 11 d 36 12 d 36 12 d 36 11 d 36 13 d 36 12 d 35 13 d 36 14 d 36 13 d 36 14 d 36 15 d 36 15
 d 35 15 d 36 16 d 36 16 d 36 17 d 36 18 d 36 18 d 35 19 d 36 20 d 36 20 d 36 22 d 36 23 d 36 24 d 35 26 d 18 15 d 18 16 d 18 17 d 18 19 d 9 10 d 9 10 d 9 11 d 9 11 d 9 12 d 9 11 d 9 12 d 9 11 d 18 22 d 18 20 d 35 36 d 18 14 d 9 6 d 9 5 d 9 5 d 9 4 d
 9 3 d 9 2 d 9 1 d 9 1 d 9 -1 d 9 -1 d 9 -2 d 9 -3 d 9 -4 d 9 -4 d 9 -5 d 9 -6 d 18 -15 d 35 -35 d 18 -20 d 18 -22 d 9 -11 d 9 -12 d 9 -11 d 9 -12 d 18 -23 d 18 -24 d 18 -23 d 18 -24 d 18 -25 d 18 -25 d 17 -26 d 18 -27 d 18 -28 d 18 -29 d 36 -62 d 36
 -68 d 36 -73 d 36 -79 d 35 -85 d -35 85 d -36 79 d -36 73 d -36 68 d -36 62 d -18 29 d -18 28 d -18 27 d -17 26 d -18 25 d -18 25 d -18 24 d -18 23 d -18 24 d -18 23 d -9 12 d -9 11 d -9 12 d -9 11 d -18 22 d -18 20 d -35 35 d -18 15 d -9 6 d -9 5 d
 -9 4 d -9 4 d -9 3 d -9 2 d -9 1 d -9 1 d -9 -1 d -9 -1 d -9 -2 d -9 -3 d -9 -4 d -9 -5 d -9 -5 d -9 -6 d -18 -14 d -35 -36 d -18 -20 d -18 -22 d -9 -11 d -9 -12 d -9 -11 d -9 -12 d -9 -11 d -9 -11 d -9 -10 d -9 -10 d -18 -19 d -18 -17 d -18 -16 d
 -18 -15 d -35 -26 d -36 -24 d -36 -23 d -36 -22 d -36 -20 d -36 -20 d -35 -19 d -36 -18 d -36 -18 d -36 -17 d -36 -16 d -36 -16 d -35 -15 d -36 -15 d -36 -15 d -36 -14 d -36 -13 d -36 -14 d -35 -13 d -36 -12 d -36 -13 d -36 -11 d -36 -12 d -36 -12 d
 -35 -11 d -36 -11 d f 0 1 1 c 0 1 0 c black 0 1 0 c 363 727 m 36 11 d 35 11 d 36 12 d 36 12 d 36 11 d 36 13 d 36 12 d 35 13 d 36 14 d 36 13 d 36 14 d 36 15 d 36 15 d 35 15 d 36 16 d 36 16 d 36 17 d 36 18 d 36 18 d 35 19 d 36 20 d 36 20 d 36 22 d 36
 23 d 36 24 d 35 26 d 18 15 d 18 16 d 18 17 d 18 19 d 9 10 d 9 10 d 9 11 d 9 11 d 9 12 d 9 11 d 9 12 d 9 11 d 18 22 d 18 20 d 35 36 d 18 14 d 9 6 d 9 5 d 9 5 d 9 4 d 9 3 d 9 2 d 9 1 d 9 1 d 9 -1 d 9 -1 d 9 -2 d 9 -3 d 9 -4 d 9 -4 d 9 -5 d 9 -6 d 18
 -15 d 35 -35 d 18 -20 d 18 -22 d 9 -11 d 9 -12 d 9 -11 d 9 -12 d 18 -23 d 18 -24 d 18 -23 d 18 -24 d 18 -25 d 18 -25 d 17 -26 d 18 -27 d 18 -28 d 18 -29 d 36 -62 d 36 -68 d 36 -73 d 36 -79 d 35 -85 d -35 85 d -36 79 d -36 73 d -36 68 d -36 62 d -18
 29 d -18 28 d -18 27 d -17 26 d -18 25 d -18 25 d -18 24 d -18 23 d -18 24 d -18 23 d -9 12 d -9 11 d -9 12 d -9 11 d -18 22 d -18 20 d -35 35 d -18 15 d -9 6 d -9 5 d -9 4 d -9 4 d -9 3 d -9 2 d -9 1 d -9 1 d -9 -1 d -9 -1 d -9 -2 d -9 -3 d -9 -4 d
 -9 -5 d -9 -5 d -9 -6 d -18 -14 d -35 -36 d -18 -20 d -18 -22 d -9 -11 d -9 -12 d -9 -11 d -9 -12 d -9 -11 d -9 -11 d -9 -10 d -9 -10 d -18 -19 d -18 -17 d -18 -16 d -18 -15 d -35 -26 d -36 -24 d -36 -23 d -36 -22 d -36 -20 d -36 -20 d -35 -19 d -36
 -18 d -36 -18 d -36 -17 d -36 -16 d -36 -16 d -35 -15 d -36 -15 d -36 -15 d -36 -14 d -36 -13 d -36 -14 d -35 -13 d -36 -12 d -36 -13 d -36 -11 d -36 -12 d -36 -12 d -35 -11 d -36 -11 d f 0 0 1 c 9 lw black 0 0 1 c 363 727 m 36 11 d 35 11 d 36 12 d
 36 12 d 36 11 d 36 13 d 36 12 d 35 13 d 36 14 d 36 13 d 36 14 d 36 15 d 36 15 d 35 15 d 36 16 d 36 16 d 36 17 d 36 18 d 36 18 d 35 19 d 36 20 d 36 20 d 36 22 d 36 23 d 36 24 d 35 26 d 18 15 d 18 16 d 18 17 d 18 19 d 9 10 d 9 10 d 9 11 d 9 11 d 9 12
 d 9 11 d 9 12 d 9 11 d 18 22 d 18 20 d 35 36 d 18 14 d 9 6 d 9 5 d 9 5 d 9 4 d 9 3 d 9 2 d 9 1 d 9 1 d 9 -1 d 9 -1 d 9 -2 d 9 -3 d 9 -4 d 9 -4 d 9 -5 d 9 -6 d 18 -15 d 35 -35 d 18 -20 d 18 -22 d 9 -11 d 9 -12 d 9 -11 d 9 -12 d 18 -23 d 18 -24 d 18
 -23 d 18 -24 d 18 -25 d 18 -25 d 17 -26 d 18 -27 d 18 -28 d 18 -29 d 36 -62 d 36 -68 d 36 -73 d 36 -79 d 35 -85 d s black 3 lw 381 756 m -18 X s 363 756 m cl s 381 756 m 18 X s 399 756 m cl s 381 756 m 65 Y s 381 821 m cl s 381 756 m -71 Y s 381 685
 m cl s 417 659 m -18 X s 399 659 m cl s 417 659 m 17 X s 434 659 m cl s 417 659 m 95 Y s 417 754 m cl s 417 659 m -25 Y s 417 634 m cl s 452 777 m -18 X s 434 777 m cl s 452 777 m 18 X s 470 777 m cl s 452 777 m 60 Y s 452 837 m cl s 452 777 m -64 Y
 s 452 713 m cl s 488 796 m -18 X s 470 796 m cl s 488 796 m 18 X s 506 796 m cl s 488 796 m 56 Y s 488 852 m cl s 488 796 m -59 Y s 488 737 m cl s 524 756 m -18 X s 506 756 m cl s 524 756 m 18 X s 542 756 m cl s 524 756 m 65 Y s 524 821 m cl s 524
 756 m -71 Y s 524 685 m cl s 560 796 m -18 X s 542 796 m cl s 560 796 m 18 X s 578 796 m cl s 560 796 m 56 Y s 560 852 m cl s 560 796 m -59 Y s 560 737 m cl s 596 796 m -18 X s 578 796 m cl s 596 796 m 18 X s 614 796 m cl s 596 796 m 56 Y s 596 852
 m cl s 596 796 m -59 Y s 596 737 m cl s 632 730 m -18 X s 614 730 m cl s 632 730 m 17 X s 649 730 m cl s 632 730 m 72 Y s 632 802 m cl s 632 730 m -78 Y s 632 652 m cl s 667 796 m -18 X s 649 796 m cl s 667 796 m 18 X s 685 796 m cl s 667 796 m 56 Y
 s 667 852 m cl s 667 796 m -59 Y s 667 737 m cl s 703 840 m -18 X s 685 840 m cl s 703 840 m 18 X s 721 840 m cl s 703 840 m 47 Y s 703 887 m cl s 703 840 m -49 Y s 703 791 m cl s 739 930 m -18 X s 721 930 m cl s 739 930 m 18 X s 757 930 m cl s 739
 930 m 33 Y s 739 963 m cl s 739 930 m -34 Y s 739 896 m cl s 775 827 m -18 X s 757 827 m cl s 775 827 m 18 X s 793 827 m cl s 775 827 m 49 Y s 775 876 m cl s 775 827 m -52 Y s 775 775 m cl s 811 827 m -18 X s 793 827 m cl s 811 827 m 18 X s 829 827
 m cl s 811 827 m 49 Y s 811 876 m cl s 811 827 m -52 Y s 811 775 m cl s 847 883 m -18 X s 829 883 m cl s 847 883 m 17 X s 864 883 m cl s 847 883 m 40 Y s 847 923 m cl s 847 883 m -41 Y s 847 842 m cl s 882 949 m -18 X s 864 949 m cl s 882 949 m 18 X
 s 900 949 m cl s 882 949 m 31 Y s 882 980 m cl s 882 949 m -32 Y s 882 917 m cl s 918 960 m -18 X s 900 960 m cl s 918 960 m 18 X s 936 960 m cl s 918 960 m 30 Y s 918 990 m cl s 918 960 m -30 Y s 918 930 m cl s 954 949 m -18 X s 936 949 m cl s 954
 949 m 18 X s 972 949 m cl s 954 949 m 31 Y s 954 980 m cl s 954 949 m -32 Y s 954 917 m cl s 990 965 m -18 X s 972 965 m cl s 990 965 m 18 X s 1008 965 m cl s 990 965 m 29 Y s 990 994 m cl s 990 965 m -29 Y s 990 936 m cl s 1026 970 m -18 X s 1008
 970 m cl s 1026 970 m 18 X s 1044 970 m cl s 1026 970 m 29 Y s 1026 999 m cl s 1026 970 m -29 Y s 1026 941 m cl s 1062 993 m -18 X s 1044 993 m cl s 1062 993 m 17 X s 1079 993 m cl s 1062 993 m 26 Y s 1062 1019 m cl s 1062 993 m -26 Y s 1062 967 m
 cl s 1097 1009 m -18 X s 1079 1009 m cl s 1097 1009 m 18 X s 1115 1009 m cl s 1097 1009 m 25 Y s 1097 1034 m cl s 1097 1009 m -25 Y s 1097 984 m cl s 1133 1023 m -18 X s 1115 1023 m cl s 1133 1023 m 18 X s 1151 1023 m cl s 1133 1023 m 24 Y s 1133
 1047 m cl s 1133 1023 m -23 Y s 1133 1000 m cl s 1169 1059 m -18 X s 1151 1059 m cl s 1169 1059 m 18 X s 1187 1059 m cl s 1169 1059 m 20 Y s 1169 1079 m cl s 1169 1059 m -20 Y s 1169 1039 m cl s 1205 1067 m -18 X s 1187 1067 m cl s 1205 1067 m 18 X
 s 1223 1067 m cl s 1205 1067 m 19 Y s 1205 1086 m cl s 1205 1067 m -20 Y s 1205 1047 m cl s 1241 1081 m -18 X s 1223 1081 m cl s 1241 1081 m 18 X s 1259 1081 m cl s 1241 1081 m 19 Y s 1241 1100 m cl s 1241 1081 m -19 Y s 1241 1062 m cl s 1276 1159 m
 -17 X s 1259 1159 m cl s 1276 1159 m 18 X s 1294 1159 m cl s 1276 1159 m 14 Y s 1276 1173 m cl s 1276 1159 m -13 Y s 1276 1146 m cl s 1312 1178 m -18 X s 1294 1178 m cl s 1312 1178 m 18 X s 1330 1178 m cl s 1312 1178 m 13 Y s 1312 1191 m cl s 1312
 1178 m -12 Y s 1312 1166 m cl s 1348 1219 m -18 X s 1330 1219 m cl s 1348 1219 m 18 X s 1366 1219 m cl s 1348 1219 m 11 Y s 1348 1230 m cl s 1348 1219 m -11 Y s 1348 1208 m cl s 1384 1255 m -18 X s 1366 1255 m cl s 1384 1255 m 18 X s 1402 1255 m cl
 s 1384 1255 m 10 Y s 1384 1265 m cl s 1384 1255 m -9 Y s 1384 1246 m cl s 1420 1300 m -18 X s 1402 1300 m cl s 1420 1300 m 18 X s 1438 1300 m cl s 1420 1300 m 8 Y s 1420 1308 m cl s 1420 1300 m -8 Y s 1420 1292 m cl s 1456 1331 m -18 X s 1438 1331 m
 cl s 1456 1331 m 18 X s 1474 1331 m cl s 1456 1331 m 7 Y s 1456 1338 m cl s 1456 1331 m -7 Y s 1456 1324 m cl s 1491 1363 m -17 X s 1474 1363 m cl s 1491 1363 m 18 X s 1509 1363 m cl s 1491 1363 m 7 Y s 1491 1370 m cl s 1491 1363 m -6 Y s 1491 1357
 m cl s 1527 1377 m -18 X s 1509 1377 m cl s 1527 1377 m 18 X s 1545 1377 m cl s 1527 1377 m 6 Y s 1527 1383 m cl s 1527 1377 m -6 Y s 1527 1371 m cl s 1563 1407 m -18 X s 1545 1407 m cl s 1563 1407 m 18 X s 1581 1407 m cl s 1563 1407 m 5 Y s 1563
 1412 m cl s 1563 1407 m -6 Y s 1563 1401 m cl s 1599 1415 m -18 X s 1581 1415 m cl s 1599 1415 m 18 X s 1617 1415 m cl s 1599 1415 m 5 Y s 1599 1420 m cl s 1599 1415 m -5 Y s 1599 1410 m cl s 1635 1409 m -18 X s 1617 1409 m cl s 1635 1409 m 18 X s
 1653 1409 m cl s 1635 1409 m 5 Y s 1635 1414 m cl s 1635 1409 m -6 Y s 1635 1403 m cl s 1671 1405 m -18 X s 1653 1405 m cl s 1671 1405 m 18 X s 1689 1405 m cl s 1671 1405 m 6 Y s 1671 1411 m cl s 1671 1405 m -5 Y s 1671 1400 m cl s 1706 1368 m -17 X
 s 1689 1368 m cl s 1706 1368 m 18 X s 1724 1368 m cl s 1706 1368 m 6 Y s 1706 1374 m cl s 1706 1368 m -7 Y s 1706 1361 m cl s 1742 1325 m -18 X s 1724 1325 m cl s 1742 1325 m 18 X s 1760 1325 m cl s 1742 1325 m 8 Y s 1742 1333 m cl s 1742 1325 m -7
 Y s 1742 1318 m cl s 1778 1283 m -18 X s 1760 1283 m cl s 1778 1283 m 18 X s 1796 1283 m cl s 1778 1283 m 9 Y s 1778 1292 m cl s 1778 1283 m -8 Y s 1778 1275 m cl s 1814 1213 m -18 X s 1796 1213 m cl s 1814 1213 m 18 X s 1832 1213 m cl s 1814 1213 m
 11 Y s 1814 1224 m cl s 1814 1213 m -11 Y s 1814 1202 m cl s 1850 1199 m -18 X s 1832 1199 m cl s 1850 1199 m 18 X s 1868 1199 m cl s 1850 1199 m 12 Y s 1850 1211 m cl s 1850 1199 m -11 Y s 1850 1188 m cl s 1886 1115 m -18 X s 1868 1115 m cl s 1886
 1115 m 18 X s 1904 1115 m cl s 1886 1115 m 16 Y s 1886 1131 m cl s 1886 1115 m -17 Y s 1886 1098 m cl s 1921 1090 m -17 X s 1904 1090 m cl s 1921 1090 m 18 X s 1939 1090 m cl s 1921 1090 m 18 Y s 1921 1108 m cl s 1921 1090 m -19 Y s 1921 1071 m cl s
 1957 1042 m -18 X s 1939 1042 m cl s 1957 1042 m 18 X s 1975 1042 m cl s 1957 1042 m 22 Y s 1957 1064 m cl s 1957 1042 m -22 Y s 1957 1020 m cl s 1993 930 m -18 X s 1975 930 m cl s 1993 930 m 18 X s 2011 930 m cl s 1993 930 m 33 Y s 1993 963 m cl s
 1993 930 m -34 Y s 1993 896 m cl s 2029 874 m -18 X s 2011 874 m cl s 2029 874 m 18 X s 2047 874 m cl s 2029 874 m 41 Y s 2029 915 m cl s 2029 874 m -43 Y s 2029 831 m cl s 2065 863 m -18 X s 2047 863 m cl s 2065 863 m 18 X s 2083 863 m cl s 2065
 863 m 43 Y s 2065 906 m cl s 2065 863 m -44 Y s 2065 819 m cl s 2101 852 m -18 X s 2083 852 m cl s 2101 852 m 18 X s 2119 852 m cl s 2101 852 m 45 Y s 2101 897 m cl s 2101 852 m -46 Y s 2101 806 m cl s 2136 730 m -17 X s 2119 730 m cl s 2136 730 m
 18 X s 2154 730 m cl s 2136 730 m 72 Y s 2136 802 m cl s 2136 730 m -78 Y s 2136 652 m cl s 381 756 417 659 452 777 488 796 524 756 560 796 596 796 632 730 667 796 703 840 739 930 775 827 811 827 847 883 882 949 918 960 954 949 990 965 1026 970 1062
 993 1097 1009 1133 1023 1169 1059 1205 1067 1241 1081 1276 1159 1312 1178 1348 1219 1384 1255 1420 1300 1456 1331 1491 1363 1527 1377 1563 1407 1599 1415 1635 1409 1671 1405 1706 1368 1742 1325 1778 1283 1814 1213 1850 1199 1886 1115 1921 1090 1957
 1042 1993 930 2029 874 2065 863 2101 852 2136 730 50 { m20} R 0.52 0.76 0.64 c[ 4 8] 0 sd 9 lw black 0.52 0.76 0.64 c 363 727 m 36 11 d 35 11 d 36 12 d 36 12 d 36 11 d 36 13 d 36 12 d 35 13 d 36 14 d 36 13 d 36 14 d 36 15 d 36 15 d 35 15 d 36 16 d
 36 16 d 36 17 d 36 18 d 36 18 d 35 19 d 36 20 d 36 20 d 36 22 d 36 22 d 18 12 d 18 12 d 17 12 d 18 13 d 18 13 d 18 13 d 18 13 d 18 14 d 18 15 d 18 15 d 36 28 d 18 12 d 18 10 d 17 10 d 18 7 d 18 7 d 9 2 d 9 3 d 9 2 d 9 1 d 9 2 d 9 X 9 1 d 27 X 9 -1 d
 9 -2 d 9 -1 d 9 -2 d 9 -2 d 9 -3 d 18 -6 d 17 -8 d 18 -9 d 18 -11 d 18 -12 d 36 -28 d 18 -16 d 18 -18 d 18 -19 d 18 -20 d 18 -22 d 18 -23 d 17 -25 d 18 -26 d 18 -27 d 18 -29 d 18 -31 d 18 -31 d 18 -34 d 18 -34 d 36 -73 d 36 -79 d 35 -85 d s 0.54
 0.66 0.63 c black 0.54 0.66 0.63 c 1303 634 m 9 42 d s 1312 676 m 18 80 d 18 74 d 18 69 d 9 33 d 9 32 d 9 30 d 9 29 d 9 28 d 9 26 d 9 25 d 9 24 d 9 22 d 9 21 d 9 20 d 9 19 d 9 17 d 8 17 d 18 28 d 18 23 d 9 10 d 9 8 d 9 7 d 9 6 d 9 5 d 5 1 d 4 2 d 5
 1 d 4 1 d 4 X 5 1 d 4 X 5 -1 d 4 -1 d 5 -1 d 4 -1 d 5 -2 d 9 -4 d 9 -6 d 9 -7 d 9 -8 d 9 -10 d 18 -23 d 17 -28 d 9 -16 d 9 -17 d 9 -19 d 9 -20 d 9 -21 d 9 -22 d 9 -24 d 9 -25 d 9 -26 d 9 -28 d 9 -28 d 9 -31 d 9 -31 d 9 -33 d 18 -69 d 18 -74 d 18 -79
 d 9 -46 d s black[  ] 0 sd 3 lw 363 634 m 1791 X s 363 659 m -25 Y s 442 646 m -12 Y s 521 646 m -12 Y s 601 646 m -12 Y s 680 659 m -25 Y s 759 646 m -12 Y s 838 646 m -12 Y s 918 646 m -12 Y s 997 659 m -25 Y s 1076 646 m -12 Y s 1156 646 m -12 Y
 s 1235 646 m -12 Y s 1314 659 m -25 Y s 1393 646 m -12 Y s 1473 646 m -12 Y s 1552 646 m -12 Y s 1631 659 m -25 Y s 1710 646 m -12 Y s 1790 646 m -12 Y s 1869 646 m -12 Y s 1948 659 m -25 Y s 1948 659 m -25 Y s 2027 646 m -12 Y s 2107 646 m -12 Y s
 363 1484 m 1791 X s 363 1459 m 25 Y s 442 1471 m 13 Y s 521 1471 m 13 Y s 601 1471 m 13 Y s 680 1459 m 25 Y s 759 1471 m 13 Y s 838 1471 m 13 Y s 918 1471 m 13 Y s 997 1459 m 25 Y s 1076 1471 m 13 Y s 1156 1471 m 13 Y s 1235 1471 m 13 Y s 1314 1459
 m 25 Y s 1393 1471 m 13 Y s 1473 1471 m 13 Y s 1552 1471 m 13 Y s 1631 1459 m 25 Y s 1710 1471 m 13 Y s 1790 1471 m 13 Y s 1869 1471 m 13 Y s 1948 1459 m 25 Y s 1948 1459 m 25 Y s 2027 1471 m 13 Y s 2107 1471 m 13 Y s 363 634 m 850 Y s 390 659 m -27
 X s 390 699 m -27 X s 390 730 m -27 X s 390 756 m -27 X s 390 777 m -27 X s 390 796 m -27 X s 390 812 m -27 X s 417 827 m -54 X s 390 923 m -27 X s 390 980 m -27 X s 390 1020 m -27 X s 390 1051 m -27 X s 390 1076 m -27 X s 390 1098 m -27 X s 390
 1116 m -27 X s 390 1133 m -27 X s 417 1147 m -54 X s 390 1244 m -27 X s 390 1300 m -27 X s 390 1340 m -27 X s 390 1371 m -27 X s 390 1397 m -27 X s 390 1418 m -27 X s 390 1437 m -27 X s 390 1453 m -27 X s 417 1468 m -54 X s 2154 634 m 850 Y s 2127
 659 m 27 X s 2127 699 m 27 X s 2127 730 m 27 X s 2127 756 m 27 X s 2127 777 m 27 X s 2127 796 m 27 X s 2127 812 m 27 X s 2101 827 m 53 X s 2127 923 m 27 X s 2127 980 m 27 X s 2127 1020 m 27 X s 2127 1051 m 27 X s 2127 1076 m 27 X s 2127 1098 m 27 X
 s 2127 1116 m 27 X s 2127 1133 m 27 X s 2101 1147 m 53 X s 2127 1244 m 27 X s 2127 1300 m 27 X s 2127 1340 m 27 X s 2127 1371 m 27 X s 2127 1397 m 27 X s 2127 1418 m 27 X s 2127 1437 m 27 X s 2127 1453 m 27 X s 2101 1468 m 53 X s
 gsave  2268 1077 0 461 C 677.708 1215.31 t 0 r /Helvetica findfont 58.7189 sf 0 0 m (4mu) show NC gr  1 1 1 c 453 161 454 1269 bf black
 gsave  2268 1077 0 461 C 566.929 1371.71 t 0 r /Helvetica-Bold findfont 48.9324 sf 0 0 m (MC15) show NC gr  510 1390 m20
 gsave  2268 1077 0 461 C 566.929 1293.51 t 0 r /Helvetica-Bold findfont 48.9324 sf 0 0 m (Projection of Signal pdf) show NC gr  0 0 1 c 9 lw 471 1309 m 79 X s black 3 lw 1 1 1 c 2268 461 0 0 bf black 1 1 1 c 1791 364 363 74 bf black 1791 364 363 74
 bl 363 74 m 1791 X s
 gsave  2268 461 0 0 C 1915.83 13.0329 t 0 r /Helvetica findfont 22.9045 sf 0 0 m (4l Invariant Mass \(GeV\)) show NC gr  363 85 m -11 Y s 442 79 m -5 Y s 521 79 m -5 Y s 601 79 m -5 Y s 680 85 m -11 Y s 759 79 m -5 Y s 838 79 m -5 Y s 918 79 m -5 Y
 s 997 85 m -11 Y s 1076 79 m -5 Y s 1156 79 m -5 Y s 1235 79 m -5 Y s 1314 85 m -11 Y s 1393 79 m -5 Y s 1473 79 m -5 Y s 1552 79 m -5 Y s 1631 85 m -11 Y s 1710 79 m -5 Y s 1790 79 m -5 Y s 1869 79 m -5 Y s 1948 85 m -11 Y s 1948 85 m -11 Y s 2027
 79 m -5 Y s 2107 79 m -5 Y s
 gsave  2268 461 0 0 C 342.112 55.3896 t 0 r /Helvetica findfont 22.9045 sf 0 0 m (420) show NC gr 
 gsave  2268 461 0 0 C 658.159 55.3896 t 0 r /Helvetica findfont 22.9045 sf 0 0 m (440) show NC gr 
 gsave  2268 461 0 0 C 974.206 55.3896 t 0 r /Helvetica findfont 22.9045 sf 0 0 m (460) show NC gr 
 gsave  2268 461 0 0 C 1293.51 55.3896 t 0 r /Helvetica findfont 22.9045 sf 0 0 m (480) show NC gr 
 gsave  2268 461 0 0 C 1609.56 55.3896 t 0 r /Helvetica findfont 22.9045 sf 0 0 m (500) show NC gr 
 gsave  2268 461 0 0 C 1925.6 55.3896 t 0 r /Helvetica findfont 22.9045 sf 0 0 m (520) show NC gr  363 438 m 1791 X s 363 427 m 11 Y s 442 433 m 5 Y s 521 433 m 5 Y s 601 433 m 5 Y s 680 427 m 11 Y s 759 433 m 5 Y s 838 433 m 5 Y s 918 433 m 5 Y s
 997 427 m 11 Y s 1076 433 m 5 Y s 1156 433 m 5 Y s 1235 433 m 5 Y s 1314 427 m 11 Y s 1393 433 m 5 Y s 1473 433 m 5 Y s 1552 433 m 5 Y s 1631 427 m 11 Y s 1710 433 m 5 Y s 1790 433 m 5 Y s 1869 433 m 5 Y s 1948 427 m 11 Y s 1948 427 m 11 Y s 2027
 433 m 5 Y s 2107 433 m 5 Y s 363 74 m 364 Y s 417 74 m -54 X s 390 81 m -27 X s 390 88 m -27 X s 390 96 m -27 X s 390 103 m -27 X s 417 110 m -54 X s 390 118 m -27 X s 390 125 m -27 X s 390 132 m -27 X s 390 139 m -27 X s 417 147 m -54 X s 390 154 m
 -27 X s 390 161 m -27 X s 390 169 m -27 X s 390 176 m -27 X s 417 183 m -54 X s 390 190 m -27 X s 390 198 m -27 X s 390 205 m -27 X s 390 212 m -27 X s 417 220 m -54 X s 390 227 m -27 X s 390 234 m -27 X s 390 241 m -27 X s 390 249 m -27 X s 417 256
 m -54 X s 390 263 m -27 X s 390 271 m -27 X s 390 278 m -27 X s 390 285 m -27 X s 417 293 m -54 X s 390 300 m -27 X s 390 307 m -27 X s 390 314 m -27 X s 390 322 m -27 X s 417 329 m -54 X s 390 336 m -27 X s 390 344 m -27 X s 390 351 m -27 X s 390
 358 m -27 X s 417 365 m -54 X s 390 373 m -27 X s 390 380 m -27 X s 390 387 m -27 X s 390 395 m -27 X s 417 402 m -54 X s 390 409 m -27 X s 390 416 m -27 X s 390 424 m -27 X s 390 431 m -27 X s 417 438 m -54 X s
 gsave  2268 461 0 0 C 329.08 65.1643 t 0 r /Helvetica findfont 22.9045 sf 0 0 m (\2555) show NC gr 
 gsave  2268 461 0 0 C 329.08 101.005 t 0 r /Helvetica findfont 22.9045 sf 0 0 m (\2554) show NC gr 
 gsave  2268 461 0 0 C 329.08 140.103 t 0 r /Helvetica findfont 22.9045 sf 0 0 m (\2553) show NC gr 
 gsave  2268 461 0 0 C 329.08 175.944 t 0 r /Helvetica findfont 22.9045 sf 0 0 m (\2552) show NC gr 
 gsave  2268 461 0 0 C 332.338 211.784 t 0 r /Helvetica findfont 22.9045 sf 0 0 m (\2551) show NC gr 
 gsave  2268 461 0 0 C 335.596 247.624 t 0 r /Helvetica findfont 22.9045 sf 0 0 m (0) show NC gr 
 gsave  2268 461 0 0 C 338.854 283.465 t 0 r /Helvetica findfont 22.9045 sf 0 0 m (1) show NC gr 
 gsave  2268 461 0 0 C 335.596 319.305 t 0 r /Helvetica findfont 22.9045 sf 0 0 m (2) show NC gr 
 gsave  2268 461 0 0 C 335.596 358.403 t 0 r /Helvetica findfont 22.9045 sf 0 0 m (3) show NC gr 
 gsave  2268 461 0 0 C 335.596 394.244 t 0 r /Helvetica findfont 22.9045 sf 0 0 m (4) show NC gr 
 gsave  2268 461 0 0 C 335.596 430.084 t 0 r /Helvetica findfont 22.9045 sf 0 0 m (5) show NC gr  2154 74 m 364 Y s 2101 74 m 53 X s 2127 81 m 27 X s 2127 88 m 27 X s 2127 96 m 27 X s 2127 103 m 27 X s 2101 110 m 53 X s 2127 118 m 27 X s 2127 125 m
 27 X s 2127 132 m 27 X s 2127 139 m 27 X s 2101 147 m 53 X s 2127 154 m 27 X s 2127 161 m 27 X s 2127 169 m 27 X s 2127 176 m 27 X s 2101 183 m 53 X s 2127 190 m 27 X s 2127 198 m 27 X s 2127 205 m 27 X s 2127 212 m 27 X s 2101 220 m 53 X s 2127 227
 m 27 X s 2127 234 m 27 X s 2127 241 m 27 X s 2127 249 m 27 X s 2101 256 m 53 X s 2127 263 m 27 X s 2127 271 m 27 X s 2127 278 m 27 X s 2127 285 m 27 X s 2101 293 m 53 X s 2127 300 m 27 X s 2127 307 m 27 X s 2127 314 m 27 X s 2127 322 m 27 X s 2101
 329 m 53 X s 2127 336 m 27 X s 2127 344 m 27 X s 2127 351 m 27 X s 2127 358 m 27 X s 2101 365 m 53 X s 2127 373 m 27 X s 2127 380 m 27 X s 2127 387 m 27 X s 2127 395 m 27 X s 2101 402 m 53 X s 2127 409 m 27 X s 2127 416 m 27 X s 2127 424 m 27 X s
 2127 431 m 27 X s 2101 438 m 53 X s 6 lw 0.2 0.8 0.2 c black 3 lw 0.2 0.8 0.2 c 363 256 m 14 Y 36 X -45 Y 35 X 45 Y 36 X 6 Y 36 X -31 Y 36 X 15 Y 36 X -8 Y 36 X -42 Y 35 X 26 Y 36 X 18 Y 36 X 71 Y 36 X -101 Y 36 X -13 Y 36 X 31 Y 35 X 52 Y 36 X -4 Y
 36 X -34 Y 36 X -1 Y 36 X -16 Y 36 X 4 Y 35 X -6 Y 36 X -11 Y 36 X 22 Y 36 X -27 Y 36 X -22 Y 36 X 122 Y 35 X -17 Y 36 X 29 Y 36 X 1 Y 36 X 13 Y 36 X -53 Y 36 X -37 Y 35 X -109 Y 36 X 61 Y 36 X 8 Y 36 X 3 Y 36 X 105 Y 36 X -46 Y 35 X -19 Y 36 X 8 Y
 36 X -85 Y 36 X 112 Y 36 X -93 Y 36 X 59 Y 35 X 12 Y 36 X -69 Y 36 X 20 Y 36 X 52 Y 36 X 39 Y 36 X -35 Y 35 X -24 Y f 6 lw black 0.2 0.8 0.2 c black 363 270 m 36 X -45 Y 35 X 45 Y 36 X 6 Y 36 X -31 Y 36 X 15 Y 36 X -8 Y 36 X -42 Y 35 X 26 Y 36 X 18
 Y 36 X 71 Y 36 X -101 Y 36 X -13 Y 36 X 31 Y 35 X 52 Y 36 X -4 Y 36 X -34 Y 36 X -1 Y 36 X -16 Y 36 X 4 Y 35 X -6 Y 36 X -11 Y 36 X 22 Y 36 X -27 Y 36 X -22 Y 36 X 122 Y 35 X -17 Y 36 X 29 Y 36 X 1 Y 36 X 13 Y 36 X -53 Y 36 X -37 Y 35 X -109 Y 36 X
 61 Y 36 X 8 Y 36 X 3 Y 36 X 105 Y 36 X -46 Y 35 X -19 Y 36 X 8 Y 36 X -85 Y 36 X 112 Y 36 X -93 Y 36 X 59 Y 35 X 12 Y 36 X -69 Y 36 X 20 Y 36 X 52 Y 36 X 39 Y 36 X -35 Y 35 X s 3 lw 363 74 m 1791 X s 363 85 m -11 Y s 442 79 m -5 Y s 521 79 m -5 Y s
 601 79 m -5 Y s 680 85 m -11 Y s 759 79 m -5 Y s 838 79 m -5 Y s 918 79 m -5 Y s 997 85 m -11 Y s 1076 79 m -5 Y s 1156 79 m -5 Y s 1235 79 m -5 Y s 1314 85 m -11 Y s 1393 79 m -5 Y s 1473 79 m -5 Y s 1552 79 m -5 Y s 1631 85 m -11 Y s 1710 79 m -5
 Y s 1790 79 m -5 Y s 1869 79 m -5 Y s 1948 85 m -11 Y s 1948 85 m -11 Y s 2027 79 m -5 Y s 2107 79 m -5 Y s 363 438 m 1791 X s 363 427 m 11 Y s 442 433 m 5 Y s 521 433 m 5 Y s 601 433 m 5 Y s 680 427 m 11 Y s 759 433 m 5 Y s 838 433 m 5 Y s 918 433
 m 5 Y s 997 427 m 11 Y s 1076 433 m 5 Y s 1156 433 m 5 Y s 1235 433 m 5 Y s 1314 427 m 11 Y s 1393 433 m 5 Y s 1473 433 m 5 Y s 1552 433 m 5 Y s 1631 427 m 11 Y s 1710 433 m 5 Y s 1790 433 m 5 Y s 1869 433 m 5 Y s 1948 427 m 11 Y s 1948 427 m 11 Y s
 2027 433 m 5 Y s 2107 433 m 5 Y s 363 74 m 364 Y s 417 74 m -54 X s 390 81 m -27 X s 390 88 m -27 X s 390 96 m -27 X s 390 103 m -27 X s 417 110 m -54 X s 390 118 m -27 X s 390 125 m -27 X s 390 132 m -27 X s 390 139 m -27 X s 417 147 m -54 X s 390
 154 m -27 X s 390 161 m -27 X s 390 169 m -27 X s 390 176 m -27 X s 417 183 m -54 X s 390 190 m -27 X s 390 198 m -27 X s 390 205 m -27 X s 390 212 m -27 X s 417 220 m -54 X s 390 227 m -27 X s 390 234 m -27 X s 390 241 m -27 X s 390 249 m -27 X s
 417 256 m -54 X s 390 263 m -27 X s 390 271 m -27 X s 390 278 m -27 X s 390 285 m -27 X s 417 293 m -54 X s 390 300 m -27 X s 390 307 m -27 X s 390 314 m -27 X s 390 322 m -27 X s 417 329 m -54 X s 390 336 m -27 X s 390 344 m -27 X s 390 351 m -27 X
 s 390 358 m -27 X s 417 365 m -54 X s 390 373 m -27 X s 390 380 m -27 X s 390 387 m -27 X s 390 395 m -27 X s 417 402 m -54 X s 390 409 m -27 X s 390 416 m -27 X s 390 424 m -27 X s 390 431 m -27 X s 417 438 m -54 X s 2154 74 m 364 Y s 2101 74 m 53
 X s 2127 81 m 27 X s 2127 88 m 27 X s 2127 96 m 27 X s 2127 103 m 27 X s 2101 110 m 53 X s 2127 118 m 27 X s 2127 125 m 27 X s 2127 132 m 27 X s 2127 139 m 27 X s 2101 147 m 53 X s 2127 154 m 27 X s 2127 161 m 27 X s 2127 169 m 27 X s 2127 176 m 27
 X s 2101 183 m 53 X s 2127 190 m 27 X s 2127 198 m 27 X s 2127 205 m 27 X s 2127 212 m 27 X s 2101 220 m 53 X s 2127 227 m 27 X s 2127 234 m 27 X s 2127 241 m 27 X s 2127 249 m 27 X s 2101 256 m 53 X s 2127 263 m 27 X s 2127 271 m 27 X s 2127 278 m
 27 X s 2127 285 m 27 X s 2101 293 m 53 X s 2127 300 m 27 X s 2127 307 m 27 X s 2127 314 m 27 X s 2127 322 m 27 X s 2101 329 m 53 X s 2127 336 m 27 X s 2127 344 m 27 X s 2127 351 m 27 X s 2127 358 m 27 X s 2101 365 m 53 X s 2127 373 m 27 X s 2127 380
 m 27 X s 2127 387 m 27 X s 2127 395 m 27 X s 2101 402 m 53 X s 2127 409 m 27 X s 2127 416 m 27 X s 2127 424 m 27 X s 2127 431 m 27 X s 2101 438 m 53 X s
 gr  gr showpage
end
%%EOF
