%!PS-Adobe-2.0 EPSF-2.0
%%BoundingBox:  0 0 567 384
%%Title: H4l2015_plotfit/gg_mass_signal_900_fixed_H4l_2mu2e.eps: 
%%Creator: ROOT Version 5.34/10
%%CreationDate: Thu Feb 16 15:43:05 2017
%%EndComments
%%BeginProlog
80 dict begin
/s {stroke} def /l {lineto} def /m {moveto} def /t {translate} def
/r {rotate} def /rl {roll}  def /R {repeat} def
/d {rlineto} def /rm {rmoveto} def /gr {grestore} def /f {eofill} def
/c {setrgbcolor} def /black {0 setgray} def /sd {setdash} def
/cl {closepath} def /sf {scalefont setfont} def /lw {setlinewidth} def
/box {m dup 0 exch d exch 0 d 0 exch neg d cl} def
/NC{systemdict begin initclip end}def/C{NC box clip newpath}def
/bl {box s} def /bf {box f} def /Y { 0 exch d} def /X { 0 d} def 
/K {{pop pop 0 moveto} exch kshow} bind def
/ita {/ang 15 def gsave [1 0 ang dup sin exch cos div 1 0 0] concat} def 
/mp {newpath /y exch def /x exch def} def
/side {[w .77 mul w .23 mul] .385 w mul sd w 0 l currentpoint t -144 r} def
/mr {mp x y w2 0 360 arc} def /m24 {mr s} def /m20 {mr f} def
/mb {mp x y w2 add m w2 neg 0 d 0 w neg d w 0 d 0 w d cl} def
/mt {mp x y w2 add m w2 neg w neg d w 0 d cl} def
/m21 {mb f} def /m25 {mb s} def /m22 {mt f} def /m26{mt s} def
/m23 {mp x y w2 sub m w2 w d w neg 0 d cl f} def
/m27 {mp x y w2 add m w3 neg w2 neg d w3 w2 neg d w3 w2 d cl s} def
/m28 {mp x w2 sub y w2 sub w3 add m w3 0 d  0 w3 neg d w3 0 d 0 w3 d w3 0 d  0 w3 d w3 neg 0 d 0 w3 d w3 neg 0 d 0 w3 neg d w3 neg 0 d cl s } def
/m29 {mp gsave x w2 sub y w2 add w3 sub m currentpoint t 4 {side} repeat cl fill gr} def
/m30 {mp gsave x w2 sub y w2 add w3 sub m currentpoint t 4 {side} repeat cl s gr} def
/m31 {mp x y w2 sub m 0 w d x w2 sub y m w 0 d x w2 sub y w2 add m w w neg d x w2 sub y w2 sub m w w d s} def
/m32 {mp x y w2 sub m w2 w d w neg 0 d cl s} def
/m33 {mp x y w2 add m w3 neg w2 neg d w3 w2 neg d w3 w2 d cl f} def
/m34 {mp x w2 sub y w2 sub w3 add m w3 0 d  0 w3 neg d w3 0 d 0 w3 d w3 0 d  0 w3 d w3 neg 0 d 0 w3 d w3 neg 0 d 0 w3 neg d w3 neg 0 d cl f } def
/m2 {mp x y w2 sub m 0 w d x w2 sub y m w 0 d s} def
/m5 {mp x w2 sub y w2 sub m w w d x w2 sub y w2 add m w w neg d s} def
/reEncode {exch findfont dup length dict begin {1 index /FID eq  {pop pop} {def} ifelse } forall /Encoding exch def currentdict end dup /FontName get exch definefont pop } def [/Times-Bold /Times-Italic /Times-BoldItalic /Helvetica /Helvetica-Oblique
 /Helvetica-Bold /Helvetica-BoldOblique /Courier /Courier-Oblique /Courier-Bold /Courier-BoldOblique /Times-Roman /AvantGarde-Book /AvantGarde-BookOblique /AvantGarde-Demi /AvantGarde-DemiOblique /Bookman-Demi /Bookman-DemiItalic /Bookman-Light
 /Bookman-LightItalic /Helvetica-Narrow /Helvetica-Narrow-Bold /Helvetica-Narrow-BoldOblique /Helvetica-Narrow-Oblique /NewCenturySchlbk-Roman /NewCenturySchlbk-Bold /NewCenturySchlbk-BoldItalic /NewCenturySchlbk-Italic /Palatino-Bold
 /Palatino-BoldItalic /Palatino-Italic /Palatino-Roman ] {ISOLatin1Encoding reEncode } forall
%%EndProlog
%%BeginSetup
%%EndSetup
newpath  gsave  .25 .25 scale  gsave  0 0 t black[  ] 0 sd 3 lw 1 1 1 c 2268 1538 0 0 bf black 1 1 1 c 2222 738 23 784 bf black 1 1 1 c 2222 739 23 15 bf black 1 1 1 c 2268 1077 0 461 bf black 1 1 1 c 1791 850 363 634 bf black 1791 850 363 634 bl 363
 634 m 1791 X s
 gsave  2268 1077 0 461 C 1642.14 498.507 t 0 r /Helvetica findfont 48.9324 sf 0 0 m (4l Invariant Mass \(GeV\)) show NC gr  419 659 m -25 Y s 465 646 m -12 Y s 512 646 m -12 Y s 559 646 m -12 Y s 605 659 m -25 Y s 652 646 m -12 Y s 699 646 m -12 Y s
 745 646 m -12 Y s 792 659 m -25 Y s 839 646 m -12 Y s 885 646 m -12 Y s 932 646 m -12 Y s 979 659 m -25 Y s 1025 646 m -12 Y s 1072 646 m -12 Y s 1119 646 m -12 Y s 1165 659 m -25 Y s 1212 646 m -12 Y s 1259 646 m -12 Y s 1305 646 m -12 Y s 1352 659
 m -25 Y s 1399 646 m -12 Y s 1445 646 m -12 Y s 1492 646 m -12 Y s 1539 659 m -25 Y s 1585 646 m -12 Y s 1632 646 m -12 Y s 1678 646 m -12 Y s 1725 659 m -25 Y s 1772 646 m -12 Y s 1818 646 m -12 Y s 1865 646 m -12 Y s 1912 659 m -25 Y s 1958 646 m
 -12 Y s 2005 646 m -12 Y s 2052 646 m -12 Y s 2098 659 m -25 Y s 419 659 m -25 Y s 372 646 m -12 Y s 2098 659 m -25 Y s 2145 646 m -12 Y s
 gsave  2268 1077 0 461 C 374.695 586.478 t 0 r /Helvetica findfont 48.9324 sf 0 0 m (780) show NC gr 
 gsave  2268 1077 0 461 C 560.413 586.478 t 0 r /Helvetica findfont 48.9324 sf 0 0 m (800) show NC gr 
 gsave  2268 1077 0 461 C 749.389 586.478 t 0 r /Helvetica findfont 48.9324 sf 0 0 m (820) show NC gr 
 gsave  2268 1077 0 461 C 935.107 586.478 t 0 r /Helvetica findfont 48.9324 sf 0 0 m (840) show NC gr 
 gsave  2268 1077 0 461 C 1120.83 586.478 t 0 r /Helvetica findfont 48.9324 sf 0 0 m (860) show NC gr 
 gsave  2268 1077 0 461 C 1306.54 586.478 t 0 r /Helvetica findfont 48.9324 sf 0 0 m (880) show NC gr 
 gsave  2268 1077 0 461 C 1495.52 586.478 t 0 r /Helvetica findfont 48.9324 sf 0 0 m (900) show NC gr 
 gsave  2268 1077 0 461 C 1681.24 586.478 t 0 r /Helvetica findfont 48.9324 sf 0 0 m (920) show NC gr 
 gsave  2268 1077 0 461 C 1866.96 586.478 t 0 r /Helvetica findfont 48.9324 sf 0 0 m (940) show NC gr 
 gsave  2268 1077 0 461 C 2055.93 586.478 t 0 r /Helvetica findfont 48.9324 sf 0 0 m (960) show NC gr  363 1484 m 1791 X s 419 1459 m 25 Y s 465 1471 m 13 Y s 512 1471 m 13 Y s 559 1471 m 13 Y s 605 1459 m 25 Y s 652 1471 m 13 Y s 699 1471 m 13 Y s
 745 1471 m 13 Y s 792 1459 m 25 Y s 839 1471 m 13 Y s 885 1471 m 13 Y s 932 1471 m 13 Y s 979 1459 m 25 Y s 1025 1471 m 13 Y s 1072 1471 m 13 Y s 1119 1471 m 13 Y s 1165 1459 m 25 Y s 1212 1471 m 13 Y s 1259 1471 m 13 Y s 1305 1471 m 13 Y s 1352
 1459 m 25 Y s 1399 1471 m 13 Y s 1445 1471 m 13 Y s 1492 1471 m 13 Y s 1539 1459 m 25 Y s 1585 1471 m 13 Y s 1632 1471 m 13 Y s 1678 1471 m 13 Y s 1725 1459 m 25 Y s 1772 1471 m 13 Y s 1818 1471 m 13 Y s 1865 1471 m 13 Y s 1912 1459 m 25 Y s 1958
 1471 m 13 Y s 2005 1471 m 13 Y s 2052 1471 m 13 Y s 2098 1459 m 25 Y s 419 1459 m 25 Y s 372 1471 m 13 Y s 2098 1459 m 25 Y s 2145 1471 m 13 Y s 363 634 m 850 Y s
 gsave  2268 1077 0 461 C 120.554 1032.85 t 90 r /Helvetica findfont 48.9324 sf 0 0 m (Events / \( 3.84 GeV \)) show NC gr  390 655 m -27 X s 390 679 m -27 X s 390 700 m -27 X s 390 717 m -27 X s 390 733 m -27 X s 417 747 m -54 X s
 gsave  2268 1077 0 461 C 342.425 726.162 t 0 r  -55 0 t /Helvetica findfont 48.9324 sf 0 0 m (10) show NC gr  390 839 m -27 X s 390 893 m -27 X s 390 931 m -27 X s 390 961 m -27 X s 390 985 m -27 X s 390 1006 m -27 X s 390 1023 m -27 X s 390 1039 m
 -27 X s 417 1053 m -54 X s
 gsave  2268 1077 0 461 C 322.563 1052.4 t 0 r /Helvetica findfont 32.6216 sf 0 0 m (2) show NC gr 
 gsave  2268 1077 0 461 C 270.432 1032.85 t 0 r /Helvetica findfont 48.9324 sf 0 0 m (10) show NC gr  390 1145 m -27 X s 390 1199 m -27 X s 390 1237 m -27 X s 390 1267 m -27 X s 390 1291 m -27 X s 390 1312 m -27 X s 390 1330 m -27 X s 390 1345 m -27
 X s 417 1359 m -54 X s
 gsave  2268 1077 0 461 C 322.563 1361.93 t 0 r /Helvetica findfont 32.6216 sf 0 0 m (3) show NC gr 
 gsave  2268 1077 0 461 C 270.432 1339.13 t 0 r /Helvetica findfont 48.9324 sf 0 0 m (10) show NC gr  390 1451 m -27 X s 2154 634 m 850 Y s 2127 655 m 27 X s 2127 679 m 27 X s 2127 700 m 27 X s 2127 717 m 27 X s 2127 733 m 27 X s 2101 747 m 53 X s
 2127 839 m 27 X s 2127 893 m 27 X s 2127 931 m 27 X s 2127 961 m 27 X s 2127 985 m 27 X s 2127 1006 m 27 X s 2127 1023 m 27 X s 2127 1039 m 27 X s 2101 1053 m 53 X s 2127 1145 m 27 X s 2127 1199 m 27 X s 2127 1237 m 27 X s 2127 1267 m 27 X s 2127
 1291 m 27 X s 2127 1312 m 27 X s 2127 1330 m 27 X s 2127 1345 m 27 X s 2101 1359 m 53 X s 2127 1451 m 27 X s 381 760 m -18 X s 363 760 m cl s 381 760 m 18 X s 399 760 m cl s 381 760 m 45 Y s 381 805 m cl s 381 760 m -47 Y s 381 713 m cl s 417 717 m
 -18 X s 399 717 m cl s 417 717 m 17 X s 434 717 m cl s 417 717 m 54 Y s 417 771 m cl s 417 717 m -56 Y s 417 661 m cl s 452 809 m -18 X s 434 809 m cl s 452 809 m 18 X s 470 809 m cl s 452 809 m 37 Y s 452 846 m cl s 452 809 m -37 Y s 452 772 m cl s
 488 801 m -18 X s 470 801 m cl s 488 801 m 18 X s 506 801 m cl s 488 801 m 38 Y s 488 839 m cl s 488 801 m -39 Y s 488 762 m cl s 524 782 m -18 X s 506 782 m cl s 524 782 m 18 X s 542 782 m cl s 524 782 m 41 Y s 524 823 m cl s 524 782 m -43 Y s 524
 739 m cl s 560 846 m -18 X s 542 846 m cl s 560 846 m 18 X s 578 846 m cl s 560 846 m 31 Y s 560 877 m cl s 560 846 m -33 Y s 560 813 m cl s 596 879 m -18 X s 578 879 m cl s 596 879 m 18 X s 614 879 m cl s 596 879 m 28 Y s 596 907 m cl s 596 879 m
 -28 Y s 596 851 m cl s 632 852 m -18 X s 614 852 m cl s 632 852 m 17 X s 649 852 m cl s 632 852 m 31 Y s 632 883 m cl s 632 852 m -32 Y s 632 820 m cl s 667 858 m -18 X s 649 858 m cl s 667 858 m 18 X s 685 858 m cl s 667 858 m 30 Y s 667 888 m cl s
 667 858 m -31 Y s 667 827 m cl s 703 839 m -18 X s 685 839 m cl s 703 839 m 18 X s 721 839 m cl s 703 839 m 33 Y s 703 872 m cl s 703 839 m -33 Y s 703 806 m cl s 739 902 m -18 X s 721 902 m cl s 739 902 m 18 X s 757 902 m cl s 739 902 m 25 Y s 739
 927 m cl s 739 902 m -26 Y s 739 876 m cl s 775 889 m -18 X s 757 889 m cl s 775 889 m 18 X s 793 889 m cl s 775 889 m 26 Y s 775 915 m cl s 775 889 m -28 Y s 775 861 m cl s 811 906 m -18 X s 793 906 m cl s 811 906 m 18 X s 829 906 m cl s 811 906 m
 25 Y s 811 931 m cl s 811 906 m -26 Y s 811 880 m cl s 847 944 m -18 X s 829 944 m cl s 847 944 m 17 X s 864 944 m cl s 847 944 m 21 Y s 847 965 m cl s 847 944 m -22 Y s 847 922 m cl s 882 938 m -18 X s 864 938 m cl s 882 938 m 18 X s 900 938 m cl s
 882 938 m 22 Y s 882 960 m cl s 882 938 m -22 Y s 882 916 m cl s 918 958 m -18 X s 900 958 m cl s 918 958 m 18 X s 936 958 m cl s 918 958 m 21 Y s 918 979 m cl s 918 958 m -20 Y s 918 938 m cl s 954 971 m -18 X s 936 971 m cl s 954 971 m 18 X s 972
 971 m cl s 954 971 m 19 Y s 954 990 m cl s 954 971 m -19 Y s 954 952 m cl s 990 1004 m -18 X s 972 1004 m cl s 990 1004 m 18 X s 1008 1004 m cl s 990 1004 m 17 Y s 990 1021 m cl s 990 1004 m -17 Y s 990 987 m cl s 1026 1025 m -18 X s 1008 1025 m cl
 s 1026 1025 m 18 X s 1044 1025 m cl s 1026 1025 m 16 Y s 1026 1041 m cl s 1026 1025 m -16 Y s 1026 1009 m cl s 1062 1032 m -18 X s 1044 1032 m cl s 1062 1032 m 17 X s 1079 1032 m cl s 1062 1032 m 15 Y s 1062 1047 m cl s 1062 1032 m -16 Y s 1062 1016
 m cl s 1097 1049 m -18 X s 1079 1049 m cl s 1097 1049 m 18 X s 1115 1049 m cl s 1097 1049 m 14 Y s 1097 1063 m cl s 1097 1049 m -14 Y s 1097 1035 m cl s 1133 1084 m -18 X s 1115 1084 m cl s 1133 1084 m 18 X s 1151 1084 m cl s 1133 1084 m 12 Y s 1133
 1096 m cl s 1133 1084 m -12 Y s 1133 1072 m cl s 1169 1121 m -18 X s 1151 1121 m cl s 1169 1121 m 18 X s 1187 1121 m cl s 1169 1121 m 10 Y s 1169 1131 m cl s 1169 1121 m -11 Y s 1169 1110 m cl s 1205 1144 m -18 X s 1187 1144 m cl s 1205 1144 m 18 X
 s 1223 1144 m cl s 1205 1144 m 9 Y s 1205 1153 m cl s 1205 1144 m -9 Y s 1205 1135 m cl s 1241 1181 m -18 X s 1223 1181 m cl s 1241 1181 m 18 X s 1259 1181 m cl s 1241 1181 m 8 Y s 1241 1189 m cl s 1241 1181 m -8 Y s 1241 1173 m cl s 1276 1209 m -17
 X s 1259 1209 m cl s 1276 1209 m 18 X s 1294 1209 m cl s 1276 1209 m 7 Y s 1276 1216 m cl s 1276 1209 m -7 Y s 1276 1202 m cl s 1312 1242 m -18 X s 1294 1242 m cl s 1312 1242 m 18 X s 1330 1242 m cl s 1312 1242 m 7 Y s 1312 1249 m cl s 1312 1242 m
 -6 Y s 1312 1236 m cl s 1348 1283 m -18 X s 1330 1283 m cl s 1348 1283 m 18 X s 1366 1283 m cl s 1348 1283 m 6 Y s 1348 1289 m cl s 1348 1283 m -5 Y s 1348 1278 m cl s 1384 1318 m -18 X s 1366 1318 m cl s 1384 1318 m 18 X s 1402 1318 m cl s 1384
 1318 m 5 Y s 1384 1323 m cl s 1384 1318 m -5 Y s 1384 1313 m cl s 1420 1354 m -18 X s 1402 1354 m cl s 1420 1354 m 18 X s 1438 1354 m cl s 1420 1354 m 5 Y s 1420 1359 m cl s 1420 1354 m -4 Y s 1420 1350 m cl s 1456 1386 m -18 X s 1438 1386 m cl s
 1456 1386 m 18 X s 1474 1386 m cl s 1456 1386 m 4 Y s 1456 1390 m cl s 1456 1386 m -4 Y s 1456 1382 m cl s 1491 1417 m -17 X s 1474 1417 m cl s 1491 1417 m 18 X s 1509 1417 m cl s 1491 1417 m 3 Y s 1491 1420 m cl s 1491 1417 m -3 Y s 1491 1414 m cl
 s 1527 1420 m -18 X s 1509 1420 m cl s 1527 1420 m 18 X s 1545 1420 m cl s 1527 1420 m 4 Y s 1527 1424 m cl s 1527 1420 m -3 Y s 1527 1417 m cl s 1563 1409 m -18 X s 1545 1409 m cl s 1563 1409 m 18 X s 1581 1409 m cl s 1563 1409 m 3 Y s 1563 1412 m
 cl s 1563 1409 m -4 Y s 1563 1405 m cl s 1599 1377 m -18 X s 1581 1377 m cl s 1599 1377 m 18 X s 1617 1377 m cl s 1599 1377 m 4 Y s 1599 1381 m cl s 1599 1377 m -4 Y s 1599 1373 m cl s 1635 1333 m -18 X s 1617 1333 m cl s 1635 1333 m 18 X s 1653
 1333 m cl s 1635 1333 m 5 Y s 1635 1338 m cl s 1635 1333 m -5 Y s 1635 1328 m cl s 1671 1281 m -18 X s 1653 1281 m cl s 1671 1281 m 18 X s 1689 1281 m cl s 1671 1281 m 6 Y s 1671 1287 m cl s 1671 1281 m -5 Y s 1671 1276 m cl s 1706 1226 m -17 X s
 1689 1226 m cl s 1706 1226 m 18 X s 1724 1226 m cl s 1706 1226 m 7 Y s 1706 1233 m cl s 1706 1226 m -7 Y s 1706 1219 m cl s 1742 1168 m -18 X s 1724 1168 m cl s 1742 1168 m 18 X s 1760 1168 m cl s 1742 1168 m 8 Y s 1742 1176 m cl s 1742 1168 m -9 Y
 s 1742 1159 m cl s 1778 1128 m -18 X s 1760 1128 m cl s 1778 1128 m 18 X s 1796 1128 m cl s 1778 1128 m 10 Y s 1778 1138 m cl s 1778 1128 m -10 Y s 1778 1118 m cl s 1814 1067 m -18 X s 1796 1067 m cl s 1814 1067 m 18 X s 1832 1067 m cl s 1814 1067 m
 13 Y s 1814 1080 m cl s 1814 1067 m -13 Y s 1814 1054 m cl s 1850 1041 m -18 X s 1832 1041 m cl s 1850 1041 m 18 X s 1868 1041 m cl s 1850 1041 m 14 Y s 1850 1055 m cl s 1850 1041 m -15 Y s 1850 1026 m cl s 1886 1009 m -18 X s 1868 1009 m cl s 1886
 1009 m 18 X s 1904 1009 m cl s 1886 1009 m 17 Y s 1886 1026 m cl s 1886 1009 m -16 Y s 1886 993 m cl s 1921 966 m -17 X s 1904 966 m cl s 1921 966 m 18 X s 1939 966 m cl s 1921 966 m 20 Y s 1921 986 m cl s 1921 966 m -20 Y s 1921 946 m cl s 1957 921
 m -18 X s 1939 921 m cl s 1957 921 m 18 X s 1975 921 m cl s 1957 921 m 23 Y s 1957 944 m cl s 1957 921 m -24 Y s 1957 897 m cl s 1993 801 m -18 X s 1975 801 m cl s 1993 801 m 18 X s 2011 801 m cl s 1993 801 m 38 Y s 1993 839 m cl s 1993 801 m -39 Y
 s 1993 762 m cl s 2029 874 m -18 X s 2011 874 m cl s 2029 874 m 18 X s 2047 874 m cl s 2029 874 m 28 Y s 2029 902 m cl s 2029 874 m -29 Y s 2029 845 m cl s 2065 825 m -18 X s 2047 825 m cl s 2065 825 m 18 X s 2083 825 m cl s 2065 825 m 35 Y s 2065
 860 m cl s 2065 825 m -35 Y s 2065 790 m cl s 2101 717 m -18 X s 2083 717 m cl s 2101 717 m 18 X s 2119 717 m cl s 2101 717 m 54 Y s 2101 771 m cl s 2101 717 m -56 Y s 2101 661 m cl s 2136 717 m -17 X s 2119 717 m cl s 2136 717 m 18 X s 2154 717 m
 cl s 2136 717 m 54 Y s 2136 771 m cl s 2136 717 m -56 Y s 2136 661 m cl s /w 31 def /w2 {w 2 div} def /w3 {w 3 div} def 381 760 417 717 452 809 488 801 524 782 560 846 596 879 632 852 667 858 703 839 739 902 775 889 811 906 847 944 882 938 918 958
 954 971 990 1004 1026 1025 1062 1032 1097 1049 1133 1084 1169 1121 1205 1144 1241 1181 1276 1209 1312 1242 1348 1283 1384 1318 1420 1354 1456 1386 1491 1417 1527 1420 1563 1409 1599 1377 1635 1333 1671 1281 1706 1226 1742 1168 1778 1128 1814 1067
 1850 1041 1886 1009 1921 966 1957 921 1993 801 2029 874 2065 825 2101 717 2136 717 50 { m20} R 0 1 1 c 1 1 0 c black 1 1 0 c 363 787 m 36 6 d 35 7 d 36 7 d 36 7 d 36 8 d 36 7 d 36 9 d 35 9 d 36 9 d 36 10 d 36 11 d 36 13 d 36 13 d 35 16 d 36 18 d 36
 20 d 36 22 d 36 24 d 36 25 d 35 27 d 36 27 d 36 27 d 36 28 d 36 27 d 36 28 d 17 15 d 18 14 d 18 16 d 18 16 d 9 9 d 9 9 d 9 10 d 9 11 d 9 11 d 9 13 d 18 24 d 36 41 d 9 8 d 9 7 d 9 7 d 9 5 d 9 4 d 8 3 d 9 3 d 9 1 d 9 X 9 -1 d 9 -1 d 9 -3 d 9 -4 d 9 -5
 d 9 -5 d 9 -7 d 9 -8 d 9 -8 d 18 -20 d 18 -22 d 9 -13 d 9 -13 d 9 -13 d 9 -14 d 9 -14 d 9 -15 d 8 -14 d 9 -15 d 9 -14 d 9 -15 d 9 -14 d 9 -13 d 18 -26 d 18 -24 d 18 -22 d 18 -20 d 18 -19 d 36 -37 d 36 -37 d 35 -39 d 36 -42 d 36 -46 d 36 -49 d 36 -53
 d 36 -56 d 35 -59 d -35 59 d -36 56 d -36 53 d -36 49 d -36 46 d -36 42 d -35 39 d -36 37 d -36 37 d -18 19 d -18 20 d -18 22 d -18 24 d -18 26 d -9 13 d -9 14 d -9 15 d -9 14 d -9 15 d -8 14 d -9 15 d -9 14 d -9 14 d -9 13 d -9 13 d -9 13 d -18 22
 d -18 20 d -9 8 d -9 8 d -9 7 d -9 5 d -9 5 d -9 4 d -9 3 d -9 1 d -9 1 d -9 X -9 -1 d -9 -3 d -8 -3 d -9 -4 d -9 -5 d -9 -7 d -9 -7 d -9 -8 d -36 -41 d -18 -24 d -9 -13 d -9 -11 d -9 -11 d -9 -10 d -9 -9 d -9 -9 d -18 -16 d -18 -16 d -18 -14 d -17
 -15 d -36 -28 d -36 -27 d -36 -28 d -36 -27 d -36 -27 d -35 -27 d -36 -25 d -36 -24 d -36 -22 d -36 -20 d -36 -18 d -35 -16 d -36 -13 d -36 -13 d -36 -11 d -36 -10 d -36 -9 d -35 -9 d -36 -9 d -36 -7 d -36 -8 d -36 -7 d -36 -7 d -35 -7 d -36 -6 d f
 0 1 1 c 0 1 0 c black 0 1 0 c 363 787 m 36 6 d 35 7 d 36 7 d 36 7 d 36 8 d 36 7 d 36 9 d 35 9 d 36 9 d 36 10 d 36 11 d 36 13 d 36 13 d 35 16 d 36 18 d 36 20 d 36 22 d 36 24 d 36 25 d 35 27 d 36 27 d 36 27 d 36 28 d 36 27 d 36 28 d 17 15 d 18 14 d 18
 16 d 18 16 d 9 9 d 9 9 d 9 10 d 9 11 d 9 11 d 9 13 d 18 24 d 36 41 d 9 8 d 9 7 d 9 7 d 9 5 d 9 4 d 8 3 d 9 3 d 9 1 d 9 X 9 -1 d 9 -1 d 9 -3 d 9 -4 d 9 -5 d 9 -5 d 9 -7 d 9 -8 d 9 -8 d 18 -20 d 18 -22 d 9 -13 d 9 -13 d 9 -13 d 9 -14 d 9 -14 d 9 -15 d
 8 -14 d 9 -15 d 9 -14 d 9 -15 d 9 -14 d 9 -13 d 18 -26 d 18 -24 d 18 -22 d 18 -20 d 18 -19 d 36 -37 d 36 -37 d 35 -39 d 36 -42 d 36 -46 d 36 -49 d 36 -53 d 36 -56 d 35 -59 d -35 59 d -36 56 d -36 53 d -36 49 d -36 46 d -36 42 d -35 39 d -36 37 d -36
 37 d -18 19 d -18 20 d -18 22 d -18 24 d -18 26 d -9 13 d -9 14 d -9 15 d -9 14 d -9 15 d -8 14 d -9 15 d -9 14 d -9 14 d -9 13 d -9 13 d -9 13 d -18 22 d -18 20 d -9 8 d -9 8 d -9 7 d -9 5 d -9 5 d -9 4 d -9 3 d -9 1 d -9 1 d -9 X -9 -1 d -9 -3 d
 -8 -3 d -9 -4 d -9 -5 d -9 -7 d -9 -7 d -9 -8 d -36 -41 d -18 -24 d -9 -13 d -9 -11 d -9 -11 d -9 -10 d -9 -9 d -9 -9 d -18 -16 d -18 -16 d -18 -14 d -17 -15 d -36 -28 d -36 -27 d -36 -28 d -36 -27 d -36 -27 d -35 -27 d -36 -25 d -36 -24 d -36 -22 d
 -36 -20 d -36 -18 d -35 -16 d -36 -13 d -36 -13 d -36 -11 d -36 -10 d -36 -9 d -35 -9 d -36 -9 d -36 -7 d -36 -8 d -36 -7 d -36 -7 d -35 -7 d -36 -6 d f 0 0 1 c 9 lw black 0 0 1 c 363 787 m 36 6 d 35 7 d 36 7 d 36 7 d 36 8 d 36 7 d 36 9 d 35 9 d 36
 9 d 36 10 d 36 11 d 36 13 d 36 13 d 35 16 d 36 18 d 36 20 d 36 22 d 36 24 d 36 25 d 35 27 d 36 27 d 36 27 d 36 28 d 36 27 d 36 28 d 17 15 d 18 14 d 18 16 d 18 16 d 9 9 d 9 9 d 9 10 d 9 11 d 9 11 d 9 13 d 18 24 d 36 41 d 9 8 d 9 7 d 9 7 d 9 5 d 9 4 d
 8 3 d 9 3 d 9 1 d 9 X 9 -1 d 9 -1 d 9 -3 d 9 -4 d 9 -5 d 9 -5 d 9 -7 d 9 -8 d 9 -8 d 18 -20 d 18 -22 d 9 -13 d 9 -13 d 9 -13 d 9 -14 d 9 -14 d 9 -15 d 8 -14 d 9 -15 d 9 -14 d 9 -15 d 9 -14 d 9 -13 d 18 -26 d 18 -24 d 18 -22 d 18 -20 d 18 -19 d 36
 -37 d 36 -37 d 35 -39 d 36 -42 d 36 -46 d 36 -49 d 36 -53 d 36 -56 d 35 -59 d s black 3 lw 381 760 m -18 X s 363 760 m cl s 381 760 m 18 X s 399 760 m cl s 381 760 m 45 Y s 381 805 m cl s 381 760 m -47 Y s 381 713 m cl s 417 717 m -18 X s 399 717 m
 cl s 417 717 m 17 X s 434 717 m cl s 417 717 m 54 Y s 417 771 m cl s 417 717 m -56 Y s 417 661 m cl s 452 809 m -18 X s 434 809 m cl s 452 809 m 18 X s 470 809 m cl s 452 809 m 37 Y s 452 846 m cl s 452 809 m -37 Y s 452 772 m cl s 488 801 m -18 X s
 470 801 m cl s 488 801 m 18 X s 506 801 m cl s 488 801 m 38 Y s 488 839 m cl s 488 801 m -39 Y s 488 762 m cl s 524 782 m -18 X s 506 782 m cl s 524 782 m 18 X s 542 782 m cl s 524 782 m 41 Y s 524 823 m cl s 524 782 m -43 Y s 524 739 m cl s 560 846
 m -18 X s 542 846 m cl s 560 846 m 18 X s 578 846 m cl s 560 846 m 31 Y s 560 877 m cl s 560 846 m -33 Y s 560 813 m cl s 596 879 m -18 X s 578 879 m cl s 596 879 m 18 X s 614 879 m cl s 596 879 m 28 Y s 596 907 m cl s 596 879 m -28 Y s 596 851 m cl
 s 632 852 m -18 X s 614 852 m cl s 632 852 m 17 X s 649 852 m cl s 632 852 m 31 Y s 632 883 m cl s 632 852 m -32 Y s 632 820 m cl s 667 858 m -18 X s 649 858 m cl s 667 858 m 18 X s 685 858 m cl s 667 858 m 30 Y s 667 888 m cl s 667 858 m -31 Y s
 667 827 m cl s 703 839 m -18 X s 685 839 m cl s 703 839 m 18 X s 721 839 m cl s 703 839 m 33 Y s 703 872 m cl s 703 839 m -33 Y s 703 806 m cl s 739 902 m -18 X s 721 902 m cl s 739 902 m 18 X s 757 902 m cl s 739 902 m 25 Y s 739 927 m cl s 739 902
 m -26 Y s 739 876 m cl s 775 889 m -18 X s 757 889 m cl s 775 889 m 18 X s 793 889 m cl s 775 889 m 26 Y s 775 915 m cl s 775 889 m -28 Y s 775 861 m cl s 811 906 m -18 X s 793 906 m cl s 811 906 m 18 X s 829 906 m cl s 811 906 m 25 Y s 811 931 m cl
 s 811 906 m -26 Y s 811 880 m cl s 847 944 m -18 X s 829 944 m cl s 847 944 m 17 X s 864 944 m cl s 847 944 m 21 Y s 847 965 m cl s 847 944 m -22 Y s 847 922 m cl s 882 938 m -18 X s 864 938 m cl s 882 938 m 18 X s 900 938 m cl s 882 938 m 22 Y s
 882 960 m cl s 882 938 m -22 Y s 882 916 m cl s 918 958 m -18 X s 900 958 m cl s 918 958 m 18 X s 936 958 m cl s 918 958 m 21 Y s 918 979 m cl s 918 958 m -20 Y s 918 938 m cl s 954 971 m -18 X s 936 971 m cl s 954 971 m 18 X s 972 971 m cl s 954
 971 m 19 Y s 954 990 m cl s 954 971 m -19 Y s 954 952 m cl s 990 1004 m -18 X s 972 1004 m cl s 990 1004 m 18 X s 1008 1004 m cl s 990 1004 m 17 Y s 990 1021 m cl s 990 1004 m -17 Y s 990 987 m cl s 1026 1025 m -18 X s 1008 1025 m cl s 1026 1025 m
 18 X s 1044 1025 m cl s 1026 1025 m 16 Y s 1026 1041 m cl s 1026 1025 m -16 Y s 1026 1009 m cl s 1062 1032 m -18 X s 1044 1032 m cl s 1062 1032 m 17 X s 1079 1032 m cl s 1062 1032 m 15 Y s 1062 1047 m cl s 1062 1032 m -16 Y s 1062 1016 m cl s 1097
 1049 m -18 X s 1079 1049 m cl s 1097 1049 m 18 X s 1115 1049 m cl s 1097 1049 m 14 Y s 1097 1063 m cl s 1097 1049 m -14 Y s 1097 1035 m cl s 1133 1084 m -18 X s 1115 1084 m cl s 1133 1084 m 18 X s 1151 1084 m cl s 1133 1084 m 12 Y s 1133 1096 m cl s
 1133 1084 m -12 Y s 1133 1072 m cl s 1169 1121 m -18 X s 1151 1121 m cl s 1169 1121 m 18 X s 1187 1121 m cl s 1169 1121 m 10 Y s 1169 1131 m cl s 1169 1121 m -11 Y s 1169 1110 m cl s 1205 1144 m -18 X s 1187 1144 m cl s 1205 1144 m 18 X s 1223 1144
 m cl s 1205 1144 m 9 Y s 1205 1153 m cl s 1205 1144 m -9 Y s 1205 1135 m cl s 1241 1181 m -18 X s 1223 1181 m cl s 1241 1181 m 18 X s 1259 1181 m cl s 1241 1181 m 8 Y s 1241 1189 m cl s 1241 1181 m -8 Y s 1241 1173 m cl s 1276 1209 m -17 X s 1259
 1209 m cl s 1276 1209 m 18 X s 1294 1209 m cl s 1276 1209 m 7 Y s 1276 1216 m cl s 1276 1209 m -7 Y s 1276 1202 m cl s 1312 1242 m -18 X s 1294 1242 m cl s 1312 1242 m 18 X s 1330 1242 m cl s 1312 1242 m 7 Y s 1312 1249 m cl s 1312 1242 m -6 Y s
 1312 1236 m cl s 1348 1283 m -18 X s 1330 1283 m cl s 1348 1283 m 18 X s 1366 1283 m cl s 1348 1283 m 6 Y s 1348 1289 m cl s 1348 1283 m -5 Y s 1348 1278 m cl s 1384 1318 m -18 X s 1366 1318 m cl s 1384 1318 m 18 X s 1402 1318 m cl s 1384 1318 m 5 Y
 s 1384 1323 m cl s 1384 1318 m -5 Y s 1384 1313 m cl s 1420 1354 m -18 X s 1402 1354 m cl s 1420 1354 m 18 X s 1438 1354 m cl s 1420 1354 m 5 Y s 1420 1359 m cl s 1420 1354 m -4 Y s 1420 1350 m cl s 1456 1386 m -18 X s 1438 1386 m cl s 1456 1386 m
 18 X s 1474 1386 m cl s 1456 1386 m 4 Y s 1456 1390 m cl s 1456 1386 m -4 Y s 1456 1382 m cl s 1491 1417 m -17 X s 1474 1417 m cl s 1491 1417 m 18 X s 1509 1417 m cl s 1491 1417 m 3 Y s 1491 1420 m cl s 1491 1417 m -3 Y s 1491 1414 m cl s 1527 1420
 m -18 X s 1509 1420 m cl s 1527 1420 m 18 X s 1545 1420 m cl s 1527 1420 m 4 Y s 1527 1424 m cl s 1527 1420 m -3 Y s 1527 1417 m cl s 1563 1409 m -18 X s 1545 1409 m cl s 1563 1409 m 18 X s 1581 1409 m cl s 1563 1409 m 3 Y s 1563 1412 m cl s 1563
 1409 m -4 Y s 1563 1405 m cl s 1599 1377 m -18 X s 1581 1377 m cl s 1599 1377 m 18 X s 1617 1377 m cl s 1599 1377 m 4 Y s 1599 1381 m cl s 1599 1377 m -4 Y s 1599 1373 m cl s 1635 1333 m -18 X s 1617 1333 m cl s 1635 1333 m 18 X s 1653 1333 m cl s
 1635 1333 m 5 Y s 1635 1338 m cl s 1635 1333 m -5 Y s 1635 1328 m cl s 1671 1281 m -18 X s 1653 1281 m cl s 1671 1281 m 18 X s 1689 1281 m cl s 1671 1281 m 6 Y s 1671 1287 m cl s 1671 1281 m -5 Y s 1671 1276 m cl s 1706 1226 m -17 X s 1689 1226 m cl
 s 1706 1226 m 18 X s 1724 1226 m cl s 1706 1226 m 7 Y s 1706 1233 m cl s 1706 1226 m -7 Y s 1706 1219 m cl s 1742 1168 m -18 X s 1724 1168 m cl s 1742 1168 m 18 X s 1760 1168 m cl s 1742 1168 m 8 Y s 1742 1176 m cl s 1742 1168 m -9 Y s 1742 1159 m
 cl s 1778 1128 m -18 X s 1760 1128 m cl s 1778 1128 m 18 X s 1796 1128 m cl s 1778 1128 m 10 Y s 1778 1138 m cl s 1778 1128 m -10 Y s 1778 1118 m cl s 1814 1067 m -18 X s 1796 1067 m cl s 1814 1067 m 18 X s 1832 1067 m cl s 1814 1067 m 13 Y s 1814
 1080 m cl s 1814 1067 m -13 Y s 1814 1054 m cl s 1850 1041 m -18 X s 1832 1041 m cl s 1850 1041 m 18 X s 1868 1041 m cl s 1850 1041 m 14 Y s 1850 1055 m cl s 1850 1041 m -15 Y s 1850 1026 m cl s 1886 1009 m -18 X s 1868 1009 m cl s 1886 1009 m 18 X
 s 1904 1009 m cl s 1886 1009 m 17 Y s 1886 1026 m cl s 1886 1009 m -16 Y s 1886 993 m cl s 1921 966 m -17 X s 1904 966 m cl s 1921 966 m 18 X s 1939 966 m cl s 1921 966 m 20 Y s 1921 986 m cl s 1921 966 m -20 Y s 1921 946 m cl s 1957 921 m -18 X s
 1939 921 m cl s 1957 921 m 18 X s 1975 921 m cl s 1957 921 m 23 Y s 1957 944 m cl s 1957 921 m -24 Y s 1957 897 m cl s 1993 801 m -18 X s 1975 801 m cl s 1993 801 m 18 X s 2011 801 m cl s 1993 801 m 38 Y s 1993 839 m cl s 1993 801 m -39 Y s 1993 762
 m cl s 2029 874 m -18 X s 2011 874 m cl s 2029 874 m 18 X s 2047 874 m cl s 2029 874 m 28 Y s 2029 902 m cl s 2029 874 m -29 Y s 2029 845 m cl s 2065 825 m -18 X s 2047 825 m cl s 2065 825 m 18 X s 2083 825 m cl s 2065 825 m 35 Y s 2065 860 m cl s
 2065 825 m -35 Y s 2065 790 m cl s 2101 717 m -18 X s 2083 717 m cl s 2101 717 m 18 X s 2119 717 m cl s 2101 717 m 54 Y s 2101 771 m cl s 2101 717 m -56 Y s 2101 661 m cl s 2136 717 m -17 X s 2119 717 m cl s 2136 717 m 18 X s 2154 717 m cl s 2136
 717 m 54 Y s 2136 771 m cl s 2136 717 m -56 Y s 2136 661 m cl s 381 760 417 717 452 809 488 801 524 782 560 846 596 879 632 852 667 858 703 839 739 902 775 889 811 906 847 944 882 938 918 958 954 971 990 1004 1026 1025 1062 1032 1097 1049 1133 1084
 1169 1121 1205 1144 1241 1181 1276 1209 1312 1242 1348 1283 1384 1318 1420 1354 1456 1386 1491 1417 1527 1420 1563 1409 1599 1377 1635 1333 1671 1281 1706 1226 1742 1168 1778 1128 1814 1067 1850 1041 1886 1009 1921 966 1957 921 1993 801 2029 874
 2065 825 2101 717 2136 717 50 { m20} R 0.52 0.76 0.64 c[ 4 8] 0 sd 9 lw black 0.52 0.76 0.64 c 363 787 m 36 6 d 35 7 d 36 7 d 36 7 d 36 7 d 36 8 d 36 8 d 35 9 d 36 8 d 36 9 d 36 10 d 36 10 d 36 11 d 35 11 d 36 12 d 36 12 d 36 14 d 36 14 d 36 16 d 35
 17 d 36 18 d 36 20 d 36 23 d 36 26 d 18 14 d 18 15 d 17 16 d 18 18 d 18 20 d 9 10 d 9 12 d 9 11 d 9 13 d 9 14 d 9 14 d 9 16 d 5 8 d 4 8 d 9 17 d 9 16 d 36 51 d 9 9 d 9 9 d 9 7 d 9 6 d 9 5 d 8 4 d 5 2 d 4 1 d 5 1 d 4 X 5 1 d 4 X 5 -1 d 4 X 5 -1 d 4
 -1 d 5 -2 d 4 -2 d 9 -4 d 9 -6 d 9 -6 d 9 -8 d 9 -9 d 9 -11 d 18 -24 d 18 -29 d 9 -16 d 9 -17 d 9 -19 d 9 -19 d 9 -21 d 9 -22 d 8 -23 d 9 -25 d 9 -25 d 9 -27 d 9 -28 d 9 -29 d 9 -31 d 9 -31 d 18 -67 d 18 -71 d 18 -76 d 18 -80 d 6 -30 d s 0.54 0.66
 0.63 c black 0.54 0.66 0.63 c 875 634 m 25 42 d s 900 676 m 36 58 d 36 53 d 36 51 d 18 24 d 18 23 d 18 22 d 17 21 d 18 21 d 18 19 d 18 19 d 18 18 d 18 17 d 18 16 d 18 15 d 18 15 d 36 26 d 35 23 d 36 20 d 18 8 d 18 8 d 18 7 d 18 6 d 18 5 d 18 4 d 18
 3 d 18 3 d 17 1 d 18 1 d 18 X 18 -1 d 18 -2 d 18 -3 d 18 -3 d 18 -5 d 18 -5 d 18 -6 d 18 -7 d 18 -8 d 35 -18 d 36 -22 d 36 -25 d 18 -13 d 18 -15 d 18 -16 d 18 -16 d 18 -17 d 18 -18 d 17 -19 d 18 -20 d 18 -21 d 18 -21 d 18 -23 d 18 -23 d 36 -49 d 36
 -53 d 36 -56 d 35 -59 d s black[  ] 0 sd 3 lw 363 634 m 1791 X s 419 659 m -25 Y s 465 646 m -12 Y s 512 646 m -12 Y s 559 646 m -12 Y s 605 659 m -25 Y s 652 646 m -12 Y s 699 646 m -12 Y s 745 646 m -12 Y s 792 659 m -25 Y s 839 646 m -12 Y s 885
 646 m -12 Y s 932 646 m -12 Y s 979 659 m -25 Y s 1025 646 m -12 Y s 1072 646 m -12 Y s 1119 646 m -12 Y s 1165 659 m -25 Y s 1212 646 m -12 Y s 1259 646 m -12 Y s 1305 646 m -12 Y s 1352 659 m -25 Y s 1399 646 m -12 Y s 1445 646 m -12 Y s 1492 646
 m -12 Y s 1539 659 m -25 Y s 1585 646 m -12 Y s 1632 646 m -12 Y s 1678 646 m -12 Y s 1725 659 m -25 Y s 1772 646 m -12 Y s 1818 646 m -12 Y s 1865 646 m -12 Y s 1912 659 m -25 Y s 1958 646 m -12 Y s 2005 646 m -12 Y s 2052 646 m -12 Y s 2098 659 m
 -25 Y s 419 659 m -25 Y s 372 646 m -12 Y s 2098 659 m -25 Y s 2145 646 m -12 Y s 363 1484 m 1791 X s 419 1459 m 25 Y s 465 1471 m 13 Y s 512 1471 m 13 Y s 559 1471 m 13 Y s 605 1459 m 25 Y s 652 1471 m 13 Y s 699 1471 m 13 Y s 745 1471 m 13 Y s 792
 1459 m 25 Y s 839 1471 m 13 Y s 885 1471 m 13 Y s 932 1471 m 13 Y s 979 1459 m 25 Y s 1025 1471 m 13 Y s 1072 1471 m 13 Y s 1119 1471 m 13 Y s 1165 1459 m 25 Y s 1212 1471 m 13 Y s 1259 1471 m 13 Y s 1305 1471 m 13 Y s 1352 1459 m 25 Y s 1399 1471 m
 13 Y s 1445 1471 m 13 Y s 1492 1471 m 13 Y s 1539 1459 m 25 Y s 1585 1471 m 13 Y s 1632 1471 m 13 Y s 1678 1471 m 13 Y s 1725 1459 m 25 Y s 1772 1471 m 13 Y s 1818 1471 m 13 Y s 1865 1471 m 13 Y s 1912 1459 m 25 Y s 1958 1471 m 13 Y s 2005 1471 m 13
 Y s 2052 1471 m 13 Y s 2098 1459 m 25 Y s 419 1459 m 25 Y s 372 1471 m 13 Y s 2098 1459 m 25 Y s 2145 1471 m 13 Y s 363 634 m 850 Y s 390 655 m -27 X s 390 679 m -27 X s 390 700 m -27 X s 390 717 m -27 X s 390 733 m -27 X s 417 747 m -54 X s 390 839
 m -27 X s 390 893 m -27 X s 390 931 m -27 X s 390 961 m -27 X s 390 985 m -27 X s 390 1006 m -27 X s 390 1023 m -27 X s 390 1039 m -27 X s 417 1053 m -54 X s 390 1145 m -27 X s 390 1199 m -27 X s 390 1237 m -27 X s 390 1267 m -27 X s 390 1291 m -27
 X s 390 1312 m -27 X s 390 1330 m -27 X s 390 1345 m -27 X s 417 1359 m -54 X s 390 1451 m -27 X s 2154 634 m 850 Y s 2127 655 m 27 X s 2127 679 m 27 X s 2127 700 m 27 X s 2127 717 m 27 X s 2127 733 m 27 X s 2101 747 m 53 X s 2127 839 m 27 X s 2127
 893 m 27 X s 2127 931 m 27 X s 2127 961 m 27 X s 2127 985 m 27 X s 2127 1006 m 27 X s 2127 1023 m 27 X s 2127 1039 m 27 X s 2101 1053 m 53 X s 2127 1145 m 27 X s 2127 1199 m 27 X s 2127 1237 m 27 X s 2127 1267 m 27 X s 2127 1291 m 27 X s 2127 1312 m
 27 X s 2127 1330 m 27 X s 2127 1345 m 27 X s 2101 1359 m 53 X s 2127 1451 m 27 X s
 gsave  2268 1077 0 461 C 677.708 1215.31 t 0 r /Helvetica findfont 58.7189 sf 0 0 m (2mu2e) show NC gr  1 1 1 c 453 161 454 1269 bf black
 gsave  2268 1077 0 461 C 566.929 1371.71 t 0 r /Helvetica-Bold findfont 48.9324 sf 0 0 m (MC15) show NC gr  510 1390 m20
 gsave  2268 1077 0 461 C 566.929 1293.51 t 0 r /Helvetica-Bold findfont 48.9324 sf 0 0 m (Projection of Signal pdf) show NC gr  0 0 1 c 9 lw 471 1309 m 79 X s black 3 lw 1 1 1 c 2268 461 0 0 bf black 1 1 1 c 1791 364 363 74 bf black 1791 364 363 74
 bl 363 74 m 1791 X s
 gsave  2268 461 0 0 C 1915.83 13.0329 t 0 r /Helvetica findfont 22.9045 sf 0 0 m (4l Invariant Mass \(GeV\)) show NC gr  419 85 m -11 Y s 465 79 m -5 Y s 512 79 m -5 Y s 559 79 m -5 Y s 605 85 m -11 Y s 652 79 m -5 Y s 699 79 m -5 Y s 745 79 m -5 Y
 s 792 85 m -11 Y s 839 79 m -5 Y s 885 79 m -5 Y s 932 79 m -5 Y s 979 85 m -11 Y s 1025 79 m -5 Y s 1072 79 m -5 Y s 1119 79 m -5 Y s 1165 85 m -11 Y s 1212 79 m -5 Y s 1259 79 m -5 Y s 1305 79 m -5 Y s 1352 85 m -11 Y s 1399 79 m -5 Y s 1445 79 m
 -5 Y s 1492 79 m -5 Y s 1539 85 m -11 Y s 1585 79 m -5 Y s 1632 79 m -5 Y s 1678 79 m -5 Y s 1725 85 m -11 Y s 1772 79 m -5 Y s 1818 79 m -5 Y s 1865 79 m -5 Y s 1912 85 m -11 Y s 1958 79 m -5 Y s 2005 79 m -5 Y s 2052 79 m -5 Y s 2098 85 m -11 Y s
 419 85 m -11 Y s 372 79 m -5 Y s 2098 85 m -11 Y s 2145 79 m -5 Y s
 gsave  2268 461 0 0 C 397.502 55.3896 t 0 r /Helvetica findfont 22.9045 sf 0 0 m (780) show NC gr 
 gsave  2268 461 0 0 C 583.22 55.3896 t 0 r /Helvetica findfont 22.9045 sf 0 0 m (800) show NC gr 
 gsave  2268 461 0 0 C 772.197 55.3896 t 0 r /Helvetica findfont 22.9045 sf 0 0 m (820) show NC gr 
 gsave  2268 461 0 0 C 957.915 55.3896 t 0 r /Helvetica findfont 22.9045 sf 0 0 m (840) show NC gr 
 gsave  2268 461 0 0 C 1143.63 55.3896 t 0 r /Helvetica findfont 22.9045 sf 0 0 m (860) show NC gr 
 gsave  2268 461 0 0 C 1329.35 55.3896 t 0 r /Helvetica findfont 22.9045 sf 0 0 m (880) show NC gr 
 gsave  2268 461 0 0 C 1518.33 55.3896 t 0 r /Helvetica findfont 22.9045 sf 0 0 m (900) show NC gr 
 gsave  2268 461 0 0 C 1704.05 55.3896 t 0 r /Helvetica findfont 22.9045 sf 0 0 m (920) show NC gr 
 gsave  2268 461 0 0 C 1889.76 55.3896 t 0 r /Helvetica findfont 22.9045 sf 0 0 m (940) show NC gr 
 gsave  2268 461 0 0 C 2078.74 55.3896 t 0 r /Helvetica findfont 22.9045 sf 0 0 m (960) show NC gr  363 438 m 1791 X s 419 427 m 11 Y s 465 433 m 5 Y s 512 433 m 5 Y s 559 433 m 5 Y s 605 427 m 11 Y s 652 433 m 5 Y s 699 433 m 5 Y s 745 433 m 5 Y s
 792 427 m 11 Y s 839 433 m 5 Y s 885 433 m 5 Y s 932 433 m 5 Y s 979 427 m 11 Y s 1025 433 m 5 Y s 1072 433 m 5 Y s 1119 433 m 5 Y s 1165 427 m 11 Y s 1212 433 m 5 Y s 1259 433 m 5 Y s 1305 433 m 5 Y s 1352 427 m 11 Y s 1399 433 m 5 Y s 1445 433 m 5
 Y s 1492 433 m 5 Y s 1539 427 m 11 Y s 1585 433 m 5 Y s 1632 433 m 5 Y s 1678 433 m 5 Y s 1725 427 m 11 Y s 1772 433 m 5 Y s 1818 433 m 5 Y s 1865 433 m 5 Y s 1912 427 m 11 Y s 1958 433 m 5 Y s 2005 433 m 5 Y s 2052 433 m 5 Y s 2098 427 m 11 Y s 419
 427 m 11 Y s 372 433 m 5 Y s 2098 427 m 11 Y s 2145 433 m 5 Y s 363 74 m 364 Y s 417 74 m -54 X s 390 81 m -27 X s 390 88 m -27 X s 390 96 m -27 X s 390 103 m -27 X s 417 110 m -54 X s 390 118 m -27 X s 390 125 m -27 X s 390 132 m -27 X s 390 139 m
 -27 X s 417 147 m -54 X s 390 154 m -27 X s 390 161 m -27 X s 390 169 m -27 X s 390 176 m -27 X s 417 183 m -54 X s 390 190 m -27 X s 390 198 m -27 X s 390 205 m -27 X s 390 212 m -27 X s 417 220 m -54 X s 390 227 m -27 X s 390 234 m -27 X s 390 241
 m -27 X s 390 249 m -27 X s 417 256 m -54 X s 390 263 m -27 X s 390 271 m -27 X s 390 278 m -27 X s 390 285 m -27 X s 417 293 m -54 X s 390 300 m -27 X s 390 307 m -27 X s 390 314 m -27 X s 390 322 m -27 X s 417 329 m -54 X s 390 336 m -27 X s 390
 344 m -27 X s 390 351 m -27 X s 390 358 m -27 X s 417 365 m -54 X s 390 373 m -27 X s 390 380 m -27 X s 390 387 m -27 X s 390 395 m -27 X s 417 402 m -54 X s 390 409 m -27 X s 390 416 m -27 X s 390 424 m -27 X s 390 431 m -27 X s 417 438 m -54 X s
 gsave  2268 461 0 0 C 329.08 65.1643 t 0 r /Helvetica findfont 22.9045 sf 0 0 m (\2555) show NC gr 
 gsave  2268 461 0 0 C 329.08 101.005 t 0 r /Helvetica findfont 22.9045 sf 0 0 m (\2554) show NC gr 
 gsave  2268 461 0 0 C 329.08 140.103 t 0 r /Helvetica findfont 22.9045 sf 0 0 m (\2553) show NC gr 
 gsave  2268 461 0 0 C 329.08 175.944 t 0 r /Helvetica findfont 22.9045 sf 0 0 m (\2552) show NC gr 
 gsave  2268 461 0 0 C 332.338 211.784 t 0 r /Helvetica findfont 22.9045 sf 0 0 m (\2551) show NC gr 
 gsave  2268 461 0 0 C 335.596 247.624 t 0 r /Helvetica findfont 22.9045 sf 0 0 m (0) show NC gr 
 gsave  2268 461 0 0 C 338.854 283.465 t 0 r /Helvetica findfont 22.9045 sf 0 0 m (1) show NC gr 
 gsave  2268 461 0 0 C 335.596 319.305 t 0 r /Helvetica findfont 22.9045 sf 0 0 m (2) show NC gr 
 gsave  2268 461 0 0 C 335.596 358.403 t 0 r /Helvetica findfont 22.9045 sf 0 0 m (3) show NC gr 
 gsave  2268 461 0 0 C 335.596 394.244 t 0 r /Helvetica findfont 22.9045 sf 0 0 m (4) show NC gr 
 gsave  2268 461 0 0 C 335.596 430.084 t 0 r /Helvetica findfont 22.9045 sf 0 0 m (5) show NC gr  2154 74 m 364 Y s 2101 74 m 53 X s 2127 81 m 27 X s 2127 88 m 27 X s 2127 96 m 27 X s 2127 103 m 27 X s 2101 110 m 53 X s 2127 118 m 27 X s 2127 125 m
 27 X s 2127 132 m 27 X s 2127 139 m 27 X s 2101 147 m 53 X s 2127 154 m 27 X s 2127 161 m 27 X s 2127 169 m 27 X s 2127 176 m 27 X s 2101 183 m 53 X s 2127 190 m 27 X s 2127 198 m 27 X s 2127 205 m 27 X s 2127 212 m 27 X s 2101 220 m 53 X s 2127 227
 m 27 X s 2127 234 m 27 X s 2127 241 m 27 X s 2127 249 m 27 X s 2101 256 m 53 X s 2127 263 m 27 X s 2127 271 m 27 X s 2127 278 m 27 X s 2127 285 m 27 X s 2101 293 m 53 X s 2127 300 m 27 X s 2127 307 m 27 X s 2127 314 m 27 X s 2127 322 m 27 X s 2101
 329 m 53 X s 2127 336 m 27 X s 2127 344 m 27 X s 2127 351 m 27 X s 2127 358 m 27 X s 2101 365 m 53 X s 2127 373 m 27 X s 2127 380 m 27 X s 2127 387 m 27 X s 2127 395 m 27 X s 2101 402 m 53 X s 2127 409 m 27 X s 2127 416 m 27 X s 2127 424 m 27 X s
 2127 431 m 27 X s 2101 438 m 53 X s 6 lw 0.2 0.8 0.2 c black 3 lw 0.2 0.8 0.2 c 363 256 m -23 Y 36 X -37 Y 35 X 67 Y 36 X -15 Y 36 X -23 Y 36 X 55 Y 36 X 31 Y 36 X -43 Y 35 X -4 Y 36 X -31 Y 36 X 65 Y 36 X -35 Y 36 X 7 Y 36 X 39 Y 35 X -37 Y 36 X 4
 Y 36 X -14 Y 36 X 21 Y 36 X -5 Y 36 X -47 Y 35 X -27 Y 36 X 14 Y 36 X 27 Y 36 X -18 Y 36 X 38 Y 36 X 3 Y 35 X 19 Y 36 X 44 Y 36 X -58 Y 36 X -86 Y 36 X -33 Y 36 X 119 Y 35 X 3 Y 36 X 15 Y 36 X -36 Y 36 X -12 Y 36 X 8 Y 36 X 15 Y 35 X -9 Y 36 X 36 Y
 36 X -63 Y 36 X 28 Y 36 X 12 Y 36 X -12 Y 35 X -7 Y 36 X -86 Y 36 X 140 Y 36 X -7 Y 36 X -49 Y 36 X 37 Y 35 X -30 Y f 6 lw black 0.2 0.8 0.2 c black 363 233 m 36 X -37 Y 35 X 67 Y 36 X -15 Y 36 X -23 Y 36 X 55 Y 36 X 31 Y 36 X -43 Y 35 X -4 Y 36 X
 -31 Y 36 X 65 Y 36 X -35 Y 36 X 7 Y 36 X 39 Y 35 X -37 Y 36 X 4 Y 36 X -14 Y 36 X 21 Y 36 X -5 Y 36 X -47 Y 35 X -27 Y 36 X 14 Y 36 X 27 Y 36 X -18 Y 36 X 38 Y 36 X 3 Y 35 X 19 Y 36 X 44 Y 36 X -58 Y 36 X -86 Y 36 X -33 Y 36 X 119 Y 35 X 3 Y 36 X 15
 Y 36 X -36 Y 36 X -12 Y 36 X 8 Y 36 X 15 Y 35 X -9 Y 36 X 36 Y 36 X -63 Y 36 X 28 Y 36 X 12 Y 36 X -12 Y 35 X -7 Y 36 X -86 Y 36 X 140 Y 36 X -7 Y 36 X -49 Y 36 X 37 Y 35 X s 3 lw 363 74 m 1791 X s 419 85 m -11 Y s 465 79 m -5 Y s 512 79 m -5 Y s
 559 79 m -5 Y s 605 85 m -11 Y s 652 79 m -5 Y s 699 79 m -5 Y s 745 79 m -5 Y s 792 85 m -11 Y s 839 79 m -5 Y s 885 79 m -5 Y s 932 79 m -5 Y s 979 85 m -11 Y s 1025 79 m -5 Y s 1072 79 m -5 Y s 1119 79 m -5 Y s 1165 85 m -11 Y s 1212 79 m -5 Y s
 1259 79 m -5 Y s 1305 79 m -5 Y s 1352 85 m -11 Y s 1399 79 m -5 Y s 1445 79 m -5 Y s 1492 79 m -5 Y s 1539 85 m -11 Y s 1585 79 m -5 Y s 1632 79 m -5 Y s 1678 79 m -5 Y s 1725 85 m -11 Y s 1772 79 m -5 Y s 1818 79 m -5 Y s 1865 79 m -5 Y s 1912 85
 m -11 Y s 1958 79 m -5 Y s 2005 79 m -5 Y s 2052 79 m -5 Y s 2098 85 m -11 Y s 419 85 m -11 Y s 372 79 m -5 Y s 2098 85 m -11 Y s 2145 79 m -5 Y s 363 438 m 1791 X s 419 427 m 11 Y s 465 433 m 5 Y s 512 433 m 5 Y s 559 433 m 5 Y s 605 427 m 11 Y s
 652 433 m 5 Y s 699 433 m 5 Y s 745 433 m 5 Y s 792 427 m 11 Y s 839 433 m 5 Y s 885 433 m 5 Y s 932 433 m 5 Y s 979 427 m 11 Y s 1025 433 m 5 Y s 1072 433 m 5 Y s 1119 433 m 5 Y s 1165 427 m 11 Y s 1212 433 m 5 Y s 1259 433 m 5 Y s 1305 433 m 5 Y s
 1352 427 m 11 Y s 1399 433 m 5 Y s 1445 433 m 5 Y s 1492 433 m 5 Y s 1539 427 m 11 Y s 1585 433 m 5 Y s 1632 433 m 5 Y s 1678 433 m 5 Y s 1725 427 m 11 Y s 1772 433 m 5 Y s 1818 433 m 5 Y s 1865 433 m 5 Y s 1912 427 m 11 Y s 1958 433 m 5 Y s 2005
 433 m 5 Y s 2052 433 m 5 Y s 2098 427 m 11 Y s 419 427 m 11 Y s 372 433 m 5 Y s 2098 427 m 11 Y s 2145 433 m 5 Y s 363 74 m 364 Y s 417 74 m -54 X s 390 81 m -27 X s 390 88 m -27 X s 390 96 m -27 X s 390 103 m -27 X s 417 110 m -54 X s 390 118 m -27
 X s 390 125 m -27 X s 390 132 m -27 X s 390 139 m -27 X s 417 147 m -54 X s 390 154 m -27 X s 390 161 m -27 X s 390 169 m -27 X s 390 176 m -27 X s 417 183 m -54 X s 390 190 m -27 X s 390 198 m -27 X s 390 205 m -27 X s 390 212 m -27 X s 417 220 m
 -54 X s 390 227 m -27 X s 390 234 m -27 X s 390 241 m -27 X s 390 249 m -27 X s 417 256 m -54 X s 390 263 m -27 X s 390 271 m -27 X s 390 278 m -27 X s 390 285 m -27 X s 417 293 m -54 X s 390 300 m -27 X s 390 307 m -27 X s 390 314 m -27 X s 390 322
 m -27 X s 417 329 m -54 X s 390 336 m -27 X s 390 344 m -27 X s 390 351 m -27 X s 390 358 m -27 X s 417 365 m -54 X s 390 373 m -27 X s 390 380 m -27 X s 390 387 m -27 X s 390 395 m -27 X s 417 402 m -54 X s 390 409 m -27 X s 390 416 m -27 X s 390
 424 m -27 X s 390 431 m -27 X s 417 438 m -54 X s 2154 74 m 364 Y s 2101 74 m 53 X s 2127 81 m 27 X s 2127 88 m 27 X s 2127 96 m 27 X s 2127 103 m 27 X s 2101 110 m 53 X s 2127 118 m 27 X s 2127 125 m 27 X s 2127 132 m 27 X s 2127 139 m 27 X s 2101
 147 m 53 X s 2127 154 m 27 X s 2127 161 m 27 X s 2127 169 m 27 X s 2127 176 m 27 X s 2101 183 m 53 X s 2127 190 m 27 X s 2127 198 m 27 X s 2127 205 m 27 X s 2127 212 m 27 X s 2101 220 m 53 X s 2127 227 m 27 X s 2127 234 m 27 X s 2127 241 m 27 X s
 2127 249 m 27 X s 2101 256 m 53 X s 2127 263 m 27 X s 2127 271 m 27 X s 2127 278 m 27 X s 2127 285 m 27 X s 2101 293 m 53 X s 2127 300 m 27 X s 2127 307 m 27 X s 2127 314 m 27 X s 2127 322 m 27 X s 2101 329 m 53 X s 2127 336 m 27 X s 2127 344 m 27 X
 s 2127 351 m 27 X s 2127 358 m 27 X s 2101 365 m 53 X s 2127 373 m 27 X s 2127 380 m 27 X s 2127 387 m 27 X s 2127 395 m 27 X s 2101 402 m 53 X s 2127 409 m 27 X s 2127 416 m 27 X s 2127 424 m 27 X s 2127 431 m 27 X s 2101 438 m 53 X s
 gr  gr showpage
end
%%EOF
