%!PS-Adobe-2.0 EPSF-2.0
%%BoundingBox:  0 0 567 384
%%Title: H4l2015_plotfit/gg_mass_signal_1200_H4l_2mu2e.eps: 
%%Creator: ROOT Version 5.34/10
%%CreationDate: Thu Feb 16 15:47:31 2017
%%EndComments
%%BeginProlog
80 dict begin
/s {stroke} def /l {lineto} def /m {moveto} def /t {translate} def
/r {rotate} def /rl {roll}  def /R {repeat} def
/d {rlineto} def /rm {rmoveto} def /gr {grestore} def /f {eofill} def
/c {setrgbcolor} def /black {0 setgray} def /sd {setdash} def
/cl {closepath} def /sf {scalefont setfont} def /lw {setlinewidth} def
/box {m dup 0 exch d exch 0 d 0 exch neg d cl} def
/NC{systemdict begin initclip end}def/C{NC box clip newpath}def
/bl {box s} def /bf {box f} def /Y { 0 exch d} def /X { 0 d} def 
/K {{pop pop 0 moveto} exch kshow} bind def
/ita {/ang 15 def gsave [1 0 ang dup sin exch cos div 1 0 0] concat} def 
/mp {newpath /y exch def /x exch def} def
/side {[w .77 mul w .23 mul] .385 w mul sd w 0 l currentpoint t -144 r} def
/mr {mp x y w2 0 360 arc} def /m24 {mr s} def /m20 {mr f} def
/mb {mp x y w2 add m w2 neg 0 d 0 w neg d w 0 d 0 w d cl} def
/mt {mp x y w2 add m w2 neg w neg d w 0 d cl} def
/m21 {mb f} def /m25 {mb s} def /m22 {mt f} def /m26{mt s} def
/m23 {mp x y w2 sub m w2 w d w neg 0 d cl f} def
/m27 {mp x y w2 add m w3 neg w2 neg d w3 w2 neg d w3 w2 d cl s} def
/m28 {mp x w2 sub y w2 sub w3 add m w3 0 d  0 w3 neg d w3 0 d 0 w3 d w3 0 d  0 w3 d w3 neg 0 d 0 w3 d w3 neg 0 d 0 w3 neg d w3 neg 0 d cl s } def
/m29 {mp gsave x w2 sub y w2 add w3 sub m currentpoint t 4 {side} repeat cl fill gr} def
/m30 {mp gsave x w2 sub y w2 add w3 sub m currentpoint t 4 {side} repeat cl s gr} def
/m31 {mp x y w2 sub m 0 w d x w2 sub y m w 0 d x w2 sub y w2 add m w w neg d x w2 sub y w2 sub m w w d s} def
/m32 {mp x y w2 sub m w2 w d w neg 0 d cl s} def
/m33 {mp x y w2 add m w3 neg w2 neg d w3 w2 neg d w3 w2 d cl f} def
/m34 {mp x w2 sub y w2 sub w3 add m w3 0 d  0 w3 neg d w3 0 d 0 w3 d w3 0 d  0 w3 d w3 neg 0 d 0 w3 d w3 neg 0 d 0 w3 neg d w3 neg 0 d cl f } def
/m2 {mp x y w2 sub m 0 w d x w2 sub y m w 0 d s} def
/m5 {mp x w2 sub y w2 sub m w w d x w2 sub y w2 add m w w neg d s} def
/reEncode {exch findfont dup length dict begin {1 index /FID eq  {pop pop} {def} ifelse } forall /Encoding exch def currentdict end dup /FontName get exch definefont pop } def [/Times-Bold /Times-Italic /Times-BoldItalic /Helvetica /Helvetica-Oblique
 /Helvetica-Bold /Helvetica-BoldOblique /Courier /Courier-Oblique /Courier-Bold /Courier-BoldOblique /Times-Roman /AvantGarde-Book /AvantGarde-BookOblique /AvantGarde-Demi /AvantGarde-DemiOblique /Bookman-Demi /Bookman-DemiItalic /Bookman-Light
 /Bookman-LightItalic /Helvetica-Narrow /Helvetica-Narrow-Bold /Helvetica-Narrow-BoldOblique /Helvetica-Narrow-Oblique /NewCenturySchlbk-Roman /NewCenturySchlbk-Bold /NewCenturySchlbk-BoldItalic /NewCenturySchlbk-Italic /Palatino-Bold
 /Palatino-BoldItalic /Palatino-Italic /Palatino-Roman ] {ISOLatin1Encoding reEncode } forall
%%EndProlog
%%BeginSetup
%%EndSetup
newpath  gsave  .25 .25 scale  gsave  0 0 t black[  ] 0 sd 3 lw 1 1 1 c 2268 1538 0 0 bf black 1 1 1 c 2222 738 23 784 bf black 1 1 1 c 2222 739 23 15 bf black 1 1 1 c 2268 1077 0 461 bf black 1 1 1 c 1791 850 363 634 bf black 1791 850 363 634 bl 363
 634 m 1791 X s
 gsave  2268 1077 0 461 C 1642.14 498.507 t 0 r /Helvetica findfont 48.9324 sf 0 0 m (4l Invariant Mass \(GeV\)) show NC gr  403 659 m -25 Y s 442 646 m -12 Y s 482 646 m -12 Y s 522 646 m -12 Y s 562 659 m -25 Y s 602 646 m -12 Y s 642 646 m -12 Y s
 681 646 m -12 Y s 721 659 m -25 Y s 761 646 m -12 Y s 801 646 m -12 Y s 841 646 m -12 Y s 880 659 m -25 Y s 920 646 m -12 Y s 960 646 m -12 Y s 1000 646 m -12 Y s 1040 659 m -25 Y s 1079 646 m -12 Y s 1119 646 m -12 Y s 1159 646 m -12 Y s 1199 659 m
 -25 Y s 1239 646 m -12 Y s 1278 646 m -12 Y s 1318 646 m -12 Y s 1358 659 m -25 Y s 1398 646 m -12 Y s 1438 646 m -12 Y s 1478 646 m -12 Y s 1517 659 m -25 Y s 1557 646 m -12 Y s 1597 646 m -12 Y s 1637 646 m -12 Y s 1677 659 m -25 Y s 1716 646 m
 -12 Y s 1756 646 m -12 Y s 1796 646 m -12 Y s 1836 659 m -25 Y s 1876 646 m -12 Y s 1915 646 m -12 Y s 1955 646 m -12 Y s 1995 659 m -25 Y s 2035 646 m -12 Y s 2075 646 m -12 Y s 2115 646 m -12 Y s 2154 659 m -25 Y s 403 659 m -25 Y s
 gsave  2268 1077 0 461 C 345.371 586.478 t 0 r /Helvetica findfont 48.9324 sf 0 0 m (1060) show NC gr 
 gsave  2268 1077 0 461 C 505.023 586.478 t 0 r /Helvetica findfont 48.9324 sf 0 0 m (1080) show NC gr 
 gsave  2268 1077 0 461 C 664.676 586.478 t 0 r /Helvetica findfont 48.9324 sf 0 0 m (1100) show NC gr 
 gsave  2268 1077 0 461 C 824.328 586.478 t 0 r /Helvetica findfont 48.9324 sf 0 0 m (1120) show NC gr 
 gsave  2268 1077 0 461 C 983.98 586.478 t 0 r /Helvetica findfont 48.9324 sf 0 0 m (1140) show NC gr 
 gsave  2268 1077 0 461 C 1140.37 586.478 t 0 r /Helvetica findfont 48.9324 sf 0 0 m (1160) show NC gr 
 gsave  2268 1077 0 461 C 1300.03 586.478 t 0 r /Helvetica findfont 48.9324 sf 0 0 m (1180) show NC gr 
 gsave  2268 1077 0 461 C 1459.68 586.478 t 0 r /Helvetica findfont 48.9324 sf 0 0 m (1200) show NC gr 
 gsave  2268 1077 0 461 C 1619.33 586.478 t 0 r /Helvetica findfont 48.9324 sf 0 0 m (1220) show NC gr 
 gsave  2268 1077 0 461 C 1778.98 586.478 t 0 r /Helvetica findfont 48.9324 sf 0 0 m (1240) show NC gr 
 gsave  2268 1077 0 461 C 1938.64 586.478 t 0 r /Helvetica findfont 48.9324 sf 0 0 m (1260) show NC gr 
 gsave  2268 1077 0 461 C 2098.29 586.478 t 0 r /Helvetica findfont 48.9324 sf 0 0 m (1280) show NC gr  363 1484 m 1791 X s 403 1459 m 25 Y s 442 1471 m 13 Y s 482 1471 m 13 Y s 522 1471 m 13 Y s 562 1459 m 25 Y s 602 1471 m 13 Y s 642 1471 m 13 Y s
 681 1471 m 13 Y s 721 1459 m 25 Y s 761 1471 m 13 Y s 801 1471 m 13 Y s 841 1471 m 13 Y s 880 1459 m 25 Y s 920 1471 m 13 Y s 960 1471 m 13 Y s 1000 1471 m 13 Y s 1040 1459 m 25 Y s 1079 1471 m 13 Y s 1119 1471 m 13 Y s 1159 1471 m 13 Y s 1199 1459
 m 25 Y s 1239 1471 m 13 Y s 1278 1471 m 13 Y s 1318 1471 m 13 Y s 1358 1459 m 25 Y s 1398 1471 m 13 Y s 1438 1471 m 13 Y s 1478 1471 m 13 Y s 1517 1459 m 25 Y s 1557 1471 m 13 Y s 1597 1471 m 13 Y s 1637 1471 m 13 Y s 1677 1459 m 25 Y s 1716 1471 m
 13 Y s 1756 1471 m 13 Y s 1796 1471 m 13 Y s 1836 1459 m 25 Y s 1876 1471 m 13 Y s 1915 1471 m 13 Y s 1955 1471 m 13 Y s 1995 1459 m 25 Y s 2035 1471 m 13 Y s 2075 1471 m 13 Y s 2115 1471 m 13 Y s 2154 1459 m 25 Y s 403 1459 m 25 Y s 363 634 m 850 Y
 s
 gsave  2268 1077 0 461 C 120.554 1058.92 t 90 r /Helvetica findfont 48.9324 sf 0 0 m (Events / \( 4.5 GeV \)) show NC gr  390 641 m -27 X s 390 670 m -27 X s 390 695 m -27 X s 390 715 m -27 X s 390 733 m -27 X s 390 749 m -27 X s 417 763 m -54 X s
 gsave  2268 1077 0 461 C 342.425 741.721 t 0 r  -55 0 t /Helvetica findfont 48.9324 sf 0 0 m (10) show NC gr  390 855 m -27 X s 390 909 m -27 X s 390 947 m -27 X s 390 977 m -27 X s 390 1001 m -27 X s 390 1021 m -27 X s 390 1039 m -27 X s 390 1055 m
 -27 X s 417 1069 m -54 X s
 gsave  2268 1077 0 461 C 322.563 1065.44 t 0 r /Helvetica findfont 32.6216 sf 0 0 m (2) show NC gr 
 gsave  2268 1077 0 461 C 270.432 1045.89 t 0 r /Helvetica findfont 48.9324 sf 0 0 m (10) show NC gr  390 1161 m -27 X s 390 1215 m -27 X s 390 1253 m -27 X s 390 1283 m -27 X s 390 1307 m -27 X s 390 1327 m -27 X s 390 1345 m -27 X s 390 1361 m -27
 X s 417 1375 m -54 X s
 gsave  2268 1077 0 461 C 322.563 1374.97 t 0 r /Helvetica findfont 32.6216 sf 0 0 m (3) show NC gr 
 gsave  2268 1077 0 461 C 270.432 1352.16 t 0 r /Helvetica findfont 48.9324 sf 0 0 m (10) show NC gr  390 1467 m -27 X s 2154 634 m 850 Y s 2127 641 m 27 X s 2127 670 m 27 X s 2127 695 m 27 X s 2127 715 m 27 X s 2127 733 m 27 X s 2127 749 m 27 X s
 2101 763 m 53 X s 2127 855 m 27 X s 2127 909 m 27 X s 2127 947 m 27 X s 2127 977 m 27 X s 2127 1001 m 27 X s 2127 1021 m 27 X s 2127 1039 m 27 X s 2127 1055 m 27 X s 2101 1069 m 53 X s 2127 1161 m 27 X s 2127 1215 m 27 X s 2127 1253 m 27 X s 2127
 1283 m 27 X s 2127 1307 m 27 X s 2127 1327 m 27 X s 2127 1345 m 27 X s 2127 1361 m 27 X s 2101 1375 m 53 X s 2127 1467 m 27 X s 381 848 m -18 X s 363 848 m cl s 381 848 m 18 X s 399 848 m cl s 381 848 m 33 Y s 381 881 m cl s 381 848 m -34 Y s 381
 814 m cl s 417 867 m -18 X s 399 867 m cl s 417 867 m 17 X s 434 867 m cl s 417 867 m 31 Y s 417 898 m cl s 417 867 m -31 Y s 417 836 m cl s 452 825 m -18 X s 434 825 m cl s 452 825 m 18 X s 470 825 m cl s 452 825 m 37 Y s 452 862 m cl s 452 825 m
 -38 Y s 452 787 m cl s 488 861 m -18 X s 470 861 m cl s 488 861 m 18 X s 506 861 m cl s 488 861 m 32 Y s 488 893 m cl s 488 861 m -32 Y s 488 829 m cl s 524 873 m -18 X s 506 873 m cl s 524 873 m 18 X s 542 873 m cl s 524 873 m 31 Y s 524 904 m cl s
 524 873 m -31 Y s 524 842 m cl s 560 833 m -18 X s 542 833 m cl s 560 833 m 18 X s 578 833 m cl s 560 833 m 36 Y s 560 869 m cl s 560 833 m -36 Y s 560 797 m cl s 596 884 m -18 X s 578 884 m cl s 596 884 m 18 X s 614 884 m cl s 596 884 m 29 Y s 596
 913 m cl s 596 884 m -29 Y s 596 855 m cl s 632 904 m -18 X s 614 904 m cl s 632 904 m 17 X s 649 904 m cl s 632 904 m 27 Y s 632 931 m cl s 632 904 m -27 Y s 632 877 m cl s 667 944 m -18 X s 649 944 m cl s 667 944 m 18 X s 685 944 m cl s 667 944 m
 22 Y s 667 966 m cl s 667 944 m -24 Y s 667 920 m cl s 703 937 m -18 X s 685 937 m cl s 703 937 m 18 X s 721 937 m cl s 703 937 m 23 Y s 703 960 m cl s 703 937 m -24 Y s 703 913 m cl s 739 960 m -18 X s 721 960 m cl s 739 960 m 18 X s 757 960 m cl s
 739 960 m 21 Y s 739 981 m cl s 739 960 m -22 Y s 739 938 m cl s 775 965 m -18 X s 757 965 m cl s 775 965 m 18 X s 793 965 m cl s 775 965 m 21 Y s 775 986 m cl s 775 965 m -21 Y s 775 944 m cl s 811 965 m -18 X s 793 965 m cl s 811 965 m 18 X s 829
 965 m cl s 811 965 m 21 Y s 811 986 m cl s 811 965 m -21 Y s 811 944 m cl s 847 984 m -18 X s 829 984 m cl s 847 984 m 17 X s 864 984 m cl s 847 984 m 20 Y s 847 1004 m cl s 847 984 m -19 Y s 847 965 m cl s 882 1042 m -18 X s 864 1042 m cl s 882
 1042 m 18 X s 900 1042 m cl s 882 1042 m 16 Y s 882 1058 m cl s 882 1042 m -15 Y s 882 1027 m cl s 918 1023 m -18 X s 900 1023 m cl s 918 1023 m 18 X s 936 1023 m cl s 918 1023 m 17 Y s 918 1040 m cl s 918 1023 m -17 Y s 918 1006 m cl s 954 1047 m
 -18 X s 936 1047 m cl s 954 1047 m 18 X s 972 1047 m cl s 954 1047 m 15 Y s 954 1062 m cl s 954 1047 m -15 Y s 954 1032 m cl s 990 1046 m -18 X s 972 1046 m cl s 990 1046 m 18 X s 1008 1046 m cl s 990 1046 m 15 Y s 990 1061 m cl s 990 1046 m -16 Y s
 990 1030 m cl s 1026 1036 m -18 X s 1008 1036 m cl s 1026 1036 m 18 X s 1044 1036 m cl s 1026 1036 m 16 Y s 1026 1052 m cl s 1026 1036 m -16 Y s 1026 1020 m cl s 1062 1105 m -18 X s 1044 1105 m cl s 1062 1105 m 17 X s 1079 1105 m cl s 1062 1105 m 11
 Y s 1062 1116 m cl s 1062 1105 m -12 Y s 1062 1093 m cl s 1097 1128 m -18 X s 1079 1128 m cl s 1097 1128 m 18 X s 1115 1128 m cl s 1097 1128 m 10 Y s 1097 1138 m cl s 1097 1128 m -11 Y s 1097 1117 m cl s 1133 1145 m -18 X s 1115 1145 m cl s 1133
 1145 m 18 X s 1151 1145 m cl s 1133 1145 m 10 Y s 1133 1155 m cl s 1133 1145 m -10 Y s 1133 1135 m cl s 1169 1170 m -18 X s 1151 1170 m cl s 1169 1170 m 18 X s 1187 1170 m cl s 1169 1170 m 10 Y s 1169 1180 m cl s 1169 1170 m -9 Y s 1169 1161 m cl s
 1205 1194 m -18 X s 1187 1194 m cl s 1205 1194 m 18 X s 1223 1194 m cl s 1205 1194 m 8 Y s 1205 1202 m cl s 1205 1194 m -8 Y s 1205 1186 m cl s 1241 1219 m -18 X s 1223 1219 m cl s 1241 1219 m 18 X s 1259 1219 m cl s 1241 1219 m 8 Y s 1241 1227 m cl
 s 1241 1219 m -7 Y s 1241 1212 m cl s 1276 1263 m -17 X s 1259 1263 m cl s 1276 1263 m 18 X s 1294 1263 m cl s 1276 1263 m 7 Y s 1276 1270 m cl s 1276 1263 m -6 Y s 1276 1257 m cl s 1312 1285 m -18 X s 1294 1285 m cl s 1312 1285 m 18 X s 1330 1285 m
 cl s 1312 1285 m 6 Y s 1312 1291 m cl s 1312 1285 m -6 Y s 1312 1279 m cl s 1348 1317 m -18 X s 1330 1317 m cl s 1348 1317 m 18 X s 1366 1317 m cl s 1348 1317 m 6 Y s 1348 1323 m cl s 1348 1317 m -5 Y s 1348 1312 m cl s 1384 1346 m -18 X s 1366 1346
 m cl s 1384 1346 m 18 X s 1402 1346 m cl s 1384 1346 m 5 Y s 1384 1351 m cl s 1384 1346 m -4 Y s 1384 1342 m cl s 1420 1383 m -18 X s 1402 1383 m cl s 1420 1383 m 18 X s 1438 1383 m cl s 1420 1383 m 4 Y s 1420 1387 m cl s 1420 1383 m -5 Y s 1420
 1378 m cl s 1456 1403 m -18 X s 1438 1403 m cl s 1456 1403 m 18 X s 1474 1403 m cl s 1456 1403 m 4 Y s 1456 1407 m cl s 1456 1403 m -4 Y s 1456 1399 m cl s 1491 1420 m -17 X s 1474 1420 m cl s 1491 1420 m 18 X s 1509 1420 m cl s 1491 1420 m 4 Y s
 1491 1424 m cl s 1491 1420 m -3 Y s 1491 1417 m cl s 1527 1408 m -18 X s 1509 1408 m cl s 1527 1408 m 18 X s 1545 1408 m cl s 1527 1408 m 3 Y s 1527 1411 m cl s 1527 1408 m -4 Y s 1527 1404 m cl s 1563 1386 m -18 X s 1545 1386 m cl s 1563 1386 m 18
 X s 1581 1386 m cl s 1563 1386 m 4 Y s 1563 1390 m cl s 1563 1386 m -4 Y s 1563 1382 m cl s 1599 1358 m -18 X s 1581 1358 m cl s 1599 1358 m 18 X s 1617 1358 m cl s 1599 1358 m 4 Y s 1599 1362 m cl s 1599 1358 m -5 Y s 1599 1353 m cl s 1635 1318 m
 -18 X s 1617 1318 m cl s 1635 1318 m 18 X s 1653 1318 m cl s 1635 1318 m 5 Y s 1635 1323 m cl s 1635 1318 m -5 Y s 1635 1313 m cl s 1671 1280 m -18 X s 1653 1280 m cl s 1671 1280 m 18 X s 1689 1280 m cl s 1671 1280 m 6 Y s 1671 1286 m cl s 1671 1280
 m -6 Y s 1671 1274 m cl s 1706 1246 m -17 X s 1689 1246 m cl s 1706 1246 m 18 X s 1724 1246 m cl s 1706 1246 m 7 Y s 1706 1253 m cl s 1706 1246 m -7 Y s 1706 1239 m cl s 1742 1204 m -18 X s 1724 1204 m cl s 1742 1204 m 18 X s 1760 1204 m cl s 1742
 1204 m 8 Y s 1742 1212 m cl s 1742 1204 m -8 Y s 1742 1196 m cl s 1778 1162 m -18 X s 1760 1162 m cl s 1778 1162 m 18 X s 1796 1162 m cl s 1778 1162 m 9 Y s 1778 1171 m cl s 1778 1162 m -10 Y s 1778 1152 m cl s 1814 1130 m -18 X s 1796 1130 m cl s
 1814 1130 m 18 X s 1832 1130 m cl s 1814 1130 m 11 Y s 1814 1141 m cl s 1814 1130 m -10 Y s 1814 1120 m cl s 1850 1059 m -18 X s 1832 1059 m cl s 1850 1059 m 18 X s 1868 1059 m cl s 1850 1059 m 14 Y s 1850 1073 m cl s 1850 1059 m -14 Y s 1850 1045 m
 cl s 1886 1030 m -18 X s 1868 1030 m cl s 1886 1030 m 18 X s 1904 1030 m cl s 1886 1030 m 17 Y s 1886 1047 m cl s 1886 1030 m -16 Y s 1886 1014 m cl s 1921 1032 m -17 X s 1904 1032 m cl s 1921 1032 m 18 X s 1939 1032 m cl s 1921 1032 m 16 Y s 1921
 1048 m cl s 1921 1032 m -16 Y s 1921 1016 m cl s 1957 987 m -18 X s 1939 987 m cl s 1957 987 m 18 X s 1975 987 m cl s 1957 987 m 19 Y s 1957 1006 m cl s 1957 987 m -20 Y s 1957 967 m cl s 1993 963 m -18 X s 1975 963 m cl s 1993 963 m 18 X s 2011 963
 m cl s 1993 963 m 21 Y s 1993 984 m cl s 1993 963 m -22 Y s 1993 941 m cl s 2029 879 m -18 X s 2011 879 m cl s 2029 879 m 18 X s 2047 879 m cl s 2029 879 m 29 Y s 2029 908 m cl s 2029 879 m -30 Y s 2029 849 m cl s 2065 861 m -18 X s 2047 861 m cl s
 2065 861 m 18 X s 2083 861 m cl s 2065 861 m 32 Y s 2065 893 m cl s 2065 861 m -32 Y s 2065 829 m cl s 2101 873 m -18 X s 2083 873 m cl s 2101 873 m 18 X s 2119 873 m cl s 2101 873 m 31 Y s 2101 904 m cl s 2101 873 m -31 Y s 2101 842 m cl s 2136 861
 m -17 X s 2119 861 m cl s 2136 861 m 18 X s 2154 861 m cl s 2136 861 m 32 Y s 2136 893 m cl s 2136 861 m -32 Y s 2136 829 m cl s /w 31 def /w2 {w 2 div} def /w3 {w 3 div} def 381 848 417 867 452 825 488 861 524 873 560 833 596 884 632 904 667 944
 703 937 739 960 775 965 811 965 847 984 882 1042 918 1023 954 1047 990 1046 1026 1036 1062 1105 1097 1128 1133 1145 1169 1170 1205 1194 1241 1219 1276 1263 1312 1285 1348 1317 1384 1346 1420 1383 1456 1403 1491 1420 1527 1408 1563 1386 1599 1358
 1635 1318 1671 1280 1706 1246 1742 1204 1778 1162 1814 1130 1850 1059 1886 1030 1921 1032 1957 987 1993 963 2029 879 2065 861 2101 873 2136 861 50 { m20} R 0 1 1 c 1 1 0 c black 1 1 0 c 363 847 m 36 7 d 35 7 d 36 7 d 36 7 d 36 8 d 36 9 d 36 9 d 35
 10 d 36 11 d 36 13 d 36 14 d 36 16 d 36 17 d 35 18 d 36 20 d 36 20 d 36 22 d 36 21 d 36 22 d 35 23 d 36 23 d 36 23 d 36 23 d 36 23 d 18 12 d 18 12 d 17 12 d 18 13 d 18 14 d 9 8 d 9 8 d 9 10 d 9 10 d 9 12 d 9 9 d 36 33 d 18 13 d 9 6 d 9 5 d 9 5 d 9 4
 d 9 3 d 9 3 d 9 1 d 8 1 d 9 1 d 9 -1 d 9 -1 d 9 -3 d 9 -2 d 9 -4 d 9 -5 d 9 -5 d 9 -6 d 9 -6 d 18 -15 d 18 -17 d 18 -19 d 18 -20 d 9 -11 d 9 -11 d 9 -11 d 9 -12 d 8 -12 d 9 -12 d 9 -12 d 9 -12 d 18 -23 d 18 -22 d 18 -20 d 18 -18 d 18 -16 d 18 -16 d
 36 -29 d 36 -30 d 35 -30 d 36 -31 d 36 -31 d 36 -33 d 36 -35 d 36 -37 d 35 -39 d -73 Y -35 52 d -36 48 d -36 45 d -36 41 d -36 38 d -36 34 d -35 30 d -36 30 d -36 31 d -18 17 d -18 19 d -18 19 d -18 21 d -18 22 d -18 23 d -9 11 d -9 12 d -9 12 d -8
 12 d -9 12 d -9 12 d -9 12 d -9 12 d -18 22 d -18 21 d -18 18 d -18 15 d -9 6 d -9 6 d -9 5 d -9 4 d -9 4 d -9 3 d -9 2 d -9 1 d -9 1 d -9 X -8 -1 d -9 -2 d -9 -2 d -9 -3 d -9 -4 d -9 -4 d -9 -6 d -9 -6 d -18 -15 d -36 -39 d -9 -10 d -9 -9 d -9 -8 d
 -9 -8 d -9 -8 d -9 -8 d -18 -15 d -18 -14 d -17 -13 d -18 -13 d -18 -12 d -36 -22 d -36 -22 d -36 -23 d -36 -22 d -35 -24 d -36 -24 d -36 -23 d -36 -24 d -36 -22 d -36 -20 d -35 -20 d -36 -17 d -36 -16 d -36 -14 d -36 -14 d -36 -12 d -35 -11 d -36
 -10 d -36 -9 d -36 -8 d -36 -8 d -36 -8 d -35 -7 d -36 -7 d f 0 1 1 c 0 1 0 c black 0 1 0 c 363 841 m 36 7 d 35 7 d 36 7 d 36 7 d 36 8 d 36 9 d 36 10 d 35 10 d 36 11 d 36 13 d 36 14 d 36 16 d 36 17 d 35 19 d 36 20 d 36 21 d 36 21 d 36 22 d 36 23 d
 35 22 d 36 23 d 36 23 d 36 23 d 36 23 d 18 12 d 18 12 d 17 13 d 18 13 d 18 14 d 9 8 d 9 8 d 9 9 d 9 10 d 9 11 d 9 10 d 36 34 d 18 14 d 9 6 d 9 5 d 9 4 d 9 4 d 9 4 d 9 2 d 9 2 d 8 1 d 9 X 9 -1 d 9 -1 d 9 -2 d 9 -3 d 9 -4 d 9 -4 d 9 -5 d 9 -6 d 9 -7 d
 18 -15 d 18 -17 d 18 -19 d 18 -21 d 9 -11 d 9 -11 d 9 -12 d 9 -12 d 8 -11 d 9 -12 d 9 -12 d 9 -12 d 18 -23 d 18 -22 d 18 -20 d 18 -19 d 18 -16 d 18 -16 d 36 -30 d 36 -30 d 35 -30 d 36 -31 d 36 -33 d 36 -35 d 36 -37 d 36 -39 d 35 -41 d -36 Y -35 47 d
 -36 45 d -36 42 d -36 39 d -36 35 d -36 33 d -35 31 d -36 29 d -36 31 d -18 17 d -18 18 d -18 19 d -18 20 d -18 22 d -18 23 d -9 12 d -9 12 d -9 12 d -8 12 d -9 12 d -9 12 d -9 11 d -9 12 d -18 22 d -18 20 d -18 17 d -18 15 d -9 7 d -9 6 d -9 5 d -9
 4 d -9 3 d -9 3 d -9 2 d -9 2 d -9 1 d -9 -1 d -8 X -9 -2 d -9 -2 d -9 -3 d -9 -4 d -9 -5 d -9 -5 d -9 -7 d -18 -14 d -36 -37 d -9 -11 d -9 -9 d -9 -9 d -9 -8 d -9 -8 d -9 -8 d -18 -15 d -18 -13 d -17 -13 d -18 -13 d -18 -11 d -36 -23 d -36 -23 d
 -36 -22 d -36 -23 d -35 -23 d -36 -24 d -36 -23 d -36 -22 d -36 -22 d -36 -21 d -35 -18 d -36 -18 d -36 -16 d -36 -14 d -36 -13 d -36 -12 d -35 -11 d -36 -9 d -36 -9 d -36 -9 d -36 -8 d -36 -7 d -35 -7 d -36 -7 d f 0 0 1 c 9 lw black 0 0 1 c 363 835
 m 36 7 d 35 7 d 36 7 d 36 7 d 36 9 d 36 8 d 36 10 d 35 11 d 36 11 d 36 13 d 36 14 d 36 16 d 36 17 d 35 19 d 36 20 d 36 22 d 36 22 d 36 22 d 36 23 d 35 23 d 36 23 d 36 23 d 36 23 d 36 23 d 18 11 d 18 13 d 17 12 d 18 14 d 18 14 d 9 8 d 9 8 d 9 9 d 9 9
 d 9 10 d 9 10 d 36 36 d 18 14 d 9 6 d 9 5 d 9 5 d 9 4 d 9 3 d 9 3 d 9 1 d 8 1 d 18 X 9 -2 d 9 -2 d 9 -3 d 9 -3 d 9 -5 d 9 -5 d 9 -6 d 9 -6 d 18 -15 d 18 -18 d 18 -19 d 18 -21 d 9 -12 d 9 -11 d 9 -12 d 9 -12 d 8 -12 d 9 -12 d 9 -12 d 9 -12 d 18 -22 d
 18 -22 d 18 -21 d 18 -18 d 18 -18 d 18 -16 d 36 -30 d 36 -30 d 35 -30 d 36 -32 d 36 -34 d 36 -37 d 36 -39 d 36 -42 d 35 -44 d s black 3 lw 381 848 m -18 X s 363 848 m cl s 381 848 m 18 X s 399 848 m cl s 381 848 m 33 Y s 381 881 m cl s 381 848 m -34
 Y s 381 814 m cl s 417 867 m -18 X s 399 867 m cl s 417 867 m 17 X s 434 867 m cl s 417 867 m 31 Y s 417 898 m cl s 417 867 m -31 Y s 417 836 m cl s 452 825 m -18 X s 434 825 m cl s 452 825 m 18 X s 470 825 m cl s 452 825 m 37 Y s 452 862 m cl s 452
 825 m -38 Y s 452 787 m cl s 488 861 m -18 X s 470 861 m cl s 488 861 m 18 X s 506 861 m cl s 488 861 m 32 Y s 488 893 m cl s 488 861 m -32 Y s 488 829 m cl s 524 873 m -18 X s 506 873 m cl s 524 873 m 18 X s 542 873 m cl s 524 873 m 31 Y s 524 904
 m cl s 524 873 m -31 Y s 524 842 m cl s 560 833 m -18 X s 542 833 m cl s 560 833 m 18 X s 578 833 m cl s 560 833 m 36 Y s 560 869 m cl s 560 833 m -36 Y s 560 797 m cl s 596 884 m -18 X s 578 884 m cl s 596 884 m 18 X s 614 884 m cl s 596 884 m 29 Y
 s 596 913 m cl s 596 884 m -29 Y s 596 855 m cl s 632 904 m -18 X s 614 904 m cl s 632 904 m 17 X s 649 904 m cl s 632 904 m 27 Y s 632 931 m cl s 632 904 m -27 Y s 632 877 m cl s 667 944 m -18 X s 649 944 m cl s 667 944 m 18 X s 685 944 m cl s 667
 944 m 22 Y s 667 966 m cl s 667 944 m -24 Y s 667 920 m cl s 703 937 m -18 X s 685 937 m cl s 703 937 m 18 X s 721 937 m cl s 703 937 m 23 Y s 703 960 m cl s 703 937 m -24 Y s 703 913 m cl s 739 960 m -18 X s 721 960 m cl s 739 960 m 18 X s 757 960
 m cl s 739 960 m 21 Y s 739 981 m cl s 739 960 m -22 Y s 739 938 m cl s 775 965 m -18 X s 757 965 m cl s 775 965 m 18 X s 793 965 m cl s 775 965 m 21 Y s 775 986 m cl s 775 965 m -21 Y s 775 944 m cl s 811 965 m -18 X s 793 965 m cl s 811 965 m 18 X
 s 829 965 m cl s 811 965 m 21 Y s 811 986 m cl s 811 965 m -21 Y s 811 944 m cl s 847 984 m -18 X s 829 984 m cl s 847 984 m 17 X s 864 984 m cl s 847 984 m 20 Y s 847 1004 m cl s 847 984 m -19 Y s 847 965 m cl s 882 1042 m -18 X s 864 1042 m cl s
 882 1042 m 18 X s 900 1042 m cl s 882 1042 m 16 Y s 882 1058 m cl s 882 1042 m -15 Y s 882 1027 m cl s 918 1023 m -18 X s 900 1023 m cl s 918 1023 m 18 X s 936 1023 m cl s 918 1023 m 17 Y s 918 1040 m cl s 918 1023 m -17 Y s 918 1006 m cl s 954 1047
 m -18 X s 936 1047 m cl s 954 1047 m 18 X s 972 1047 m cl s 954 1047 m 15 Y s 954 1062 m cl s 954 1047 m -15 Y s 954 1032 m cl s 990 1046 m -18 X s 972 1046 m cl s 990 1046 m 18 X s 1008 1046 m cl s 990 1046 m 15 Y s 990 1061 m cl s 990 1046 m -16 Y
 s 990 1030 m cl s 1026 1036 m -18 X s 1008 1036 m cl s 1026 1036 m 18 X s 1044 1036 m cl s 1026 1036 m 16 Y s 1026 1052 m cl s 1026 1036 m -16 Y s 1026 1020 m cl s 1062 1105 m -18 X s 1044 1105 m cl s 1062 1105 m 17 X s 1079 1105 m cl s 1062 1105 m
 11 Y s 1062 1116 m cl s 1062 1105 m -12 Y s 1062 1093 m cl s 1097 1128 m -18 X s 1079 1128 m cl s 1097 1128 m 18 X s 1115 1128 m cl s 1097 1128 m 10 Y s 1097 1138 m cl s 1097 1128 m -11 Y s 1097 1117 m cl s 1133 1145 m -18 X s 1115 1145 m cl s 1133
 1145 m 18 X s 1151 1145 m cl s 1133 1145 m 10 Y s 1133 1155 m cl s 1133 1145 m -10 Y s 1133 1135 m cl s 1169 1170 m -18 X s 1151 1170 m cl s 1169 1170 m 18 X s 1187 1170 m cl s 1169 1170 m 10 Y s 1169 1180 m cl s 1169 1170 m -9 Y s 1169 1161 m cl s
 1205 1194 m -18 X s 1187 1194 m cl s 1205 1194 m 18 X s 1223 1194 m cl s 1205 1194 m 8 Y s 1205 1202 m cl s 1205 1194 m -8 Y s 1205 1186 m cl s 1241 1219 m -18 X s 1223 1219 m cl s 1241 1219 m 18 X s 1259 1219 m cl s 1241 1219 m 8 Y s 1241 1227 m cl
 s 1241 1219 m -7 Y s 1241 1212 m cl s 1276 1263 m -17 X s 1259 1263 m cl s 1276 1263 m 18 X s 1294 1263 m cl s 1276 1263 m 7 Y s 1276 1270 m cl s 1276 1263 m -6 Y s 1276 1257 m cl s 1312 1285 m -18 X s 1294 1285 m cl s 1312 1285 m 18 X s 1330 1285 m
 cl s 1312 1285 m 6 Y s 1312 1291 m cl s 1312 1285 m -6 Y s 1312 1279 m cl s 1348 1317 m -18 X s 1330 1317 m cl s 1348 1317 m 18 X s 1366 1317 m cl s 1348 1317 m 6 Y s 1348 1323 m cl s 1348 1317 m -5 Y s 1348 1312 m cl s 1384 1346 m -18 X s 1366 1346
 m cl s 1384 1346 m 18 X s 1402 1346 m cl s 1384 1346 m 5 Y s 1384 1351 m cl s 1384 1346 m -4 Y s 1384 1342 m cl s 1420 1383 m -18 X s 1402 1383 m cl s 1420 1383 m 18 X s 1438 1383 m cl s 1420 1383 m 4 Y s 1420 1387 m cl s 1420 1383 m -5 Y s 1420
 1378 m cl s 1456 1403 m -18 X s 1438 1403 m cl s 1456 1403 m 18 X s 1474 1403 m cl s 1456 1403 m 4 Y s 1456 1407 m cl s 1456 1403 m -4 Y s 1456 1399 m cl s 1491 1420 m -17 X s 1474 1420 m cl s 1491 1420 m 18 X s 1509 1420 m cl s 1491 1420 m 4 Y s
 1491 1424 m cl s 1491 1420 m -3 Y s 1491 1417 m cl s 1527 1408 m -18 X s 1509 1408 m cl s 1527 1408 m 18 X s 1545 1408 m cl s 1527 1408 m 3 Y s 1527 1411 m cl s 1527 1408 m -4 Y s 1527 1404 m cl s 1563 1386 m -18 X s 1545 1386 m cl s 1563 1386 m 18
 X s 1581 1386 m cl s 1563 1386 m 4 Y s 1563 1390 m cl s 1563 1386 m -4 Y s 1563 1382 m cl s 1599 1358 m -18 X s 1581 1358 m cl s 1599 1358 m 18 X s 1617 1358 m cl s 1599 1358 m 4 Y s 1599 1362 m cl s 1599 1358 m -5 Y s 1599 1353 m cl s 1635 1318 m
 -18 X s 1617 1318 m cl s 1635 1318 m 18 X s 1653 1318 m cl s 1635 1318 m 5 Y s 1635 1323 m cl s 1635 1318 m -5 Y s 1635 1313 m cl s 1671 1280 m -18 X s 1653 1280 m cl s 1671 1280 m 18 X s 1689 1280 m cl s 1671 1280 m 6 Y s 1671 1286 m cl s 1671 1280
 m -6 Y s 1671 1274 m cl s 1706 1246 m -17 X s 1689 1246 m cl s 1706 1246 m 18 X s 1724 1246 m cl s 1706 1246 m 7 Y s 1706 1253 m cl s 1706 1246 m -7 Y s 1706 1239 m cl s 1742 1204 m -18 X s 1724 1204 m cl s 1742 1204 m 18 X s 1760 1204 m cl s 1742
 1204 m 8 Y s 1742 1212 m cl s 1742 1204 m -8 Y s 1742 1196 m cl s 1778 1162 m -18 X s 1760 1162 m cl s 1778 1162 m 18 X s 1796 1162 m cl s 1778 1162 m 9 Y s 1778 1171 m cl s 1778 1162 m -10 Y s 1778 1152 m cl s 1814 1130 m -18 X s 1796 1130 m cl s
 1814 1130 m 18 X s 1832 1130 m cl s 1814 1130 m 11 Y s 1814 1141 m cl s 1814 1130 m -10 Y s 1814 1120 m cl s 1850 1059 m -18 X s 1832 1059 m cl s 1850 1059 m 18 X s 1868 1059 m cl s 1850 1059 m 14 Y s 1850 1073 m cl s 1850 1059 m -14 Y s 1850 1045 m
 cl s 1886 1030 m -18 X s 1868 1030 m cl s 1886 1030 m 18 X s 1904 1030 m cl s 1886 1030 m 17 Y s 1886 1047 m cl s 1886 1030 m -16 Y s 1886 1014 m cl s 1921 1032 m -17 X s 1904 1032 m cl s 1921 1032 m 18 X s 1939 1032 m cl s 1921 1032 m 16 Y s 1921
 1048 m cl s 1921 1032 m -16 Y s 1921 1016 m cl s 1957 987 m -18 X s 1939 987 m cl s 1957 987 m 18 X s 1975 987 m cl s 1957 987 m 19 Y s 1957 1006 m cl s 1957 987 m -20 Y s 1957 967 m cl s 1993 963 m -18 X s 1975 963 m cl s 1993 963 m 18 X s 2011 963
 m cl s 1993 963 m 21 Y s 1993 984 m cl s 1993 963 m -22 Y s 1993 941 m cl s 2029 879 m -18 X s 2011 879 m cl s 2029 879 m 18 X s 2047 879 m cl s 2029 879 m 29 Y s 2029 908 m cl s 2029 879 m -30 Y s 2029 849 m cl s 2065 861 m -18 X s 2047 861 m cl s
 2065 861 m 18 X s 2083 861 m cl s 2065 861 m 32 Y s 2065 893 m cl s 2065 861 m -32 Y s 2065 829 m cl s 2101 873 m -18 X s 2083 873 m cl s 2101 873 m 18 X s 2119 873 m cl s 2101 873 m 31 Y s 2101 904 m cl s 2101 873 m -31 Y s 2101 842 m cl s 2136 861
 m -17 X s 2119 861 m cl s 2136 861 m 18 X s 2154 861 m cl s 2136 861 m 32 Y s 2136 893 m cl s 2136 861 m -32 Y s 2136 829 m cl s 381 848 417 867 452 825 488 861 524 873 560 833 596 884 632 904 667 944 703 937 739 960 775 965 811 965 847 984 882 1042
 918 1023 954 1047 990 1046 1026 1036 1062 1105 1097 1128 1133 1145 1169 1170 1205 1194 1241 1219 1276 1263 1312 1285 1348 1317 1384 1346 1420 1383 1456 1403 1491 1420 1527 1408 1563 1386 1599 1358 1635 1318 1671 1280 1706 1246 1742 1204 1778 1162
 1814 1130 1850 1059 1886 1030 1921 1032 1957 987 1993 963 2029 879 2065 861 2101 873 2136 861 50 { m20} R 0.52 0.76 0.64 c[ 4 8] 0 sd 9 lw black 0.52 0.76 0.64 c 363 835 m 36 6 d 35 7 d 36 7 d 36 7 d 36 8 d 36 7 d 36 8 d 35 9 d 36 9 d 36 9 d 36 9 d
 36 11 d 36 10 d 35 11 d 36 12 d 36 13 d 36 14 d 36 14 d 36 16 d 35 17 d 36 18 d 36 21 d 36 23 d 18 12 d 18 13 d 18 15 d 18 15 d 17 17 d 18 18 d 9 10 d 9 10 d 9 11 d 9 11 d 9 12 d 9 13 d 9 14 d 9 14 d 36 46 d 18 17 d 9 8 d 9 6 d 9 6 d 9 4 d 9 4 d 9 3
 d 9 2 d 8 1 d 9 X 9 -1 d 9 -1 d 9 -3 d 9 -3 d 9 -5 d 9 -5 d 9 -6 d 9 -7 d 9 -8 d 18 -19 d 18 -22 d 18 -26 d 9 -14 d 9 -16 d 9 -16 d 9 -17 d 9 -18 d 9 -19 d 8 -19 d 9 -21 d 9 -22 d 9 -22 d 9 -23 d 9 -25 d 18 -51 d 18 -55 d 18 -58 d 18 -62 d 18 -66 d
 30 -119 d s 0.54 0.66 0.63 c black 0.54 0.66 0.63 c 736 634 m 21 30 d s 757 664 m 36 50 d 36 47 d 35 45 d 36 42 d 36 40 d 36 37 d 36 35 d 18 17 d 18 16 d 18 15 d 17 15 d 36 27 d 36 25 d 36 23 d 36 20 d 36 18 d 35 15 d 36 13 d 18 5 d 18 5 d 18 4 d 18
 4 d 18 3 d 18 2 d 18 2 d 18 1 d 17 1 d 18 X 18 -1 d 18 -1 d 18 -2 d 18 -3 d 18 -3 d 18 -4 d 18 -4 d 18 -5 d 18 -6 d 18 -6 d 35 -15 d 36 -17 d 36 -19 d 36 -22 d 36 -24 d 36 -27 d 17 -14 d 18 -15 d 18 -15 d 18 -16 d 18 -17 d 18 -18 d 36 -36 d 36 -39 d
 36 -42 d 35 -44 d s black[  ] 0 sd 3 lw 363 634 m 1791 X s 403 659 m -25 Y s 442 646 m -12 Y s 482 646 m -12 Y s 522 646 m -12 Y s 562 659 m -25 Y s 602 646 m -12 Y s 642 646 m -12 Y s 681 646 m -12 Y s 721 659 m -25 Y s 761 646 m -12 Y s 801 646 m
 -12 Y s 841 646 m -12 Y s 880 659 m -25 Y s 920 646 m -12 Y s 960 646 m -12 Y s 1000 646 m -12 Y s 1040 659 m -25 Y s 1079 646 m -12 Y s 1119 646 m -12 Y s 1159 646 m -12 Y s 1199 659 m -25 Y s 1239 646 m -12 Y s 1278 646 m -12 Y s 1318 646 m -12 Y
 s 1358 659 m -25 Y s 1398 646 m -12 Y s 1438 646 m -12 Y s 1478 646 m -12 Y s 1517 659 m -25 Y s 1557 646 m -12 Y s 1597 646 m -12 Y s 1637 646 m -12 Y s 1677 659 m -25 Y s 1716 646 m -12 Y s 1756 646 m -12 Y s 1796 646 m -12 Y s 1836 659 m -25 Y s
 1876 646 m -12 Y s 1915 646 m -12 Y s 1955 646 m -12 Y s 1995 659 m -25 Y s 2035 646 m -12 Y s 2075 646 m -12 Y s 2115 646 m -12 Y s 2154 659 m -25 Y s 403 659 m -25 Y s 363 1484 m 1791 X s 403 1459 m 25 Y s 442 1471 m 13 Y s 482 1471 m 13 Y s 522
 1471 m 13 Y s 562 1459 m 25 Y s 602 1471 m 13 Y s 642 1471 m 13 Y s 681 1471 m 13 Y s 721 1459 m 25 Y s 761 1471 m 13 Y s 801 1471 m 13 Y s 841 1471 m 13 Y s 880 1459 m 25 Y s 920 1471 m 13 Y s 960 1471 m 13 Y s 1000 1471 m 13 Y s 1040 1459 m 25 Y s
 1079 1471 m 13 Y s 1119 1471 m 13 Y s 1159 1471 m 13 Y s 1199 1459 m 25 Y s 1239 1471 m 13 Y s 1278 1471 m 13 Y s 1318 1471 m 13 Y s 1358 1459 m 25 Y s 1398 1471 m 13 Y s 1438 1471 m 13 Y s 1478 1471 m 13 Y s 1517 1459 m 25 Y s 1557 1471 m 13 Y s
 1597 1471 m 13 Y s 1637 1471 m 13 Y s 1677 1459 m 25 Y s 1716 1471 m 13 Y s 1756 1471 m 13 Y s 1796 1471 m 13 Y s 1836 1459 m 25 Y s 1876 1471 m 13 Y s 1915 1471 m 13 Y s 1955 1471 m 13 Y s 1995 1459 m 25 Y s 2035 1471 m 13 Y s 2075 1471 m 13 Y s
 2115 1471 m 13 Y s 2154 1459 m 25 Y s 403 1459 m 25 Y s 363 634 m 850 Y s 390 641 m -27 X s 390 670 m -27 X s 390 695 m -27 X s 390 715 m -27 X s 390 733 m -27 X s 390 749 m -27 X s 417 763 m -54 X s 390 855 m -27 X s 390 909 m -27 X s 390 947 m -27
 X s 390 977 m -27 X s 390 1001 m -27 X s 390 1021 m -27 X s 390 1039 m -27 X s 390 1055 m -27 X s 417 1069 m -54 X s 390 1161 m -27 X s 390 1215 m -27 X s 390 1253 m -27 X s 390 1283 m -27 X s 390 1307 m -27 X s 390 1327 m -27 X s 390 1345 m -27 X s
 390 1361 m -27 X s 417 1375 m -54 X s 390 1467 m -27 X s 2154 634 m 850 Y s 2127 641 m 27 X s 2127 670 m 27 X s 2127 695 m 27 X s 2127 715 m 27 X s 2127 733 m 27 X s 2127 749 m 27 X s 2101 763 m 53 X s 2127 855 m 27 X s 2127 909 m 27 X s 2127 947 m
 27 X s 2127 977 m 27 X s 2127 1001 m 27 X s 2127 1021 m 27 X s 2127 1039 m 27 X s 2127 1055 m 27 X s 2101 1069 m 53 X s 2127 1161 m 27 X s 2127 1215 m 27 X s 2127 1253 m 27 X s 2127 1283 m 27 X s 2127 1307 m 27 X s 2127 1327 m 27 X s 2127 1345 m 27
 X s 2127 1361 m 27 X s 2101 1375 m 53 X s 2127 1467 m 27 X s
 gsave  2268 1077 0 461 C 677.708 1215.31 t 0 r /Helvetica findfont 58.7189 sf 0 0 m (2mu2e) show NC gr  1 1 1 c 453 161 454 1269 bf black
 gsave  2268 1077 0 461 C 566.929 1371.71 t 0 r /Helvetica-Bold findfont 48.9324 sf 0 0 m (MC15) show NC gr  510 1390 m20
 gsave  2268 1077 0 461 C 566.929 1293.51 t 0 r /Helvetica-Bold findfont 48.9324 sf 0 0 m (Projection of Signal pdf) show NC gr  0 0 1 c 9 lw 471 1309 m 79 X s black 3 lw 1 1 1 c 2268 461 0 0 bf black 1 1 1 c 1791 364 363 74 bf black 1791 364 363 74
 bl 363 74 m 1791 X s
 gsave  2268 461 0 0 C 1915.83 13.0329 t 0 r /Helvetica findfont 22.9045 sf 0 0 m (4l Invariant Mass \(GeV\)) show NC gr  403 85 m -11 Y s 442 79 m -5 Y s 482 79 m -5 Y s 522 79 m -5 Y s 562 85 m -11 Y s 602 79 m -5 Y s 642 79 m -5 Y s 681 79 m -5 Y
 s 721 85 m -11 Y s 761 79 m -5 Y s 801 79 m -5 Y s 841 79 m -5 Y s 880 85 m -11 Y s 920 79 m -5 Y s 960 79 m -5 Y s 1000 79 m -5 Y s 1040 85 m -11 Y s 1079 79 m -5 Y s 1119 79 m -5 Y s 1159 79 m -5 Y s 1199 85 m -11 Y s 1239 79 m -5 Y s 1278 79 m -5
 Y s 1318 79 m -5 Y s 1358 85 m -11 Y s 1398 79 m -5 Y s 1438 79 m -5 Y s 1478 79 m -5 Y s 1517 85 m -11 Y s 1557 79 m -5 Y s 1597 79 m -5 Y s 1637 79 m -5 Y s 1677 85 m -11 Y s 1716 79 m -5 Y s 1756 79 m -5 Y s 1796 79 m -5 Y s 1836 85 m -11 Y s
 1876 79 m -5 Y s 1915 79 m -5 Y s 1955 79 m -5 Y s 1995 85 m -11 Y s 2035 79 m -5 Y s 2075 79 m -5 Y s 2115 79 m -5 Y s 2154 85 m -11 Y s 403 85 m -11 Y s
 gsave  2268 461 0 0 C 374.695 55.3896 t 0 r /Helvetica findfont 22.9045 sf 0 0 m (1060) show NC gr 
 gsave  2268 461 0 0 C 534.347 55.3896 t 0 r /Helvetica findfont 22.9045 sf 0 0 m (1080) show NC gr 
 gsave  2268 461 0 0 C 693.999 55.3896 t 0 r /Helvetica findfont 22.9045 sf 0 0 m (1100) show NC gr 
 gsave  2268 461 0 0 C 853.652 55.3896 t 0 r /Helvetica findfont 22.9045 sf 0 0 m (1120) show NC gr 
 gsave  2268 461 0 0 C 1013.3 55.3896 t 0 r /Helvetica findfont 22.9045 sf 0 0 m (1140) show NC gr 
 gsave  2268 461 0 0 C 1169.7 55.3896 t 0 r /Helvetica findfont 22.9045 sf 0 0 m (1160) show NC gr 
 gsave  2268 461 0 0 C 1329.35 55.3896 t 0 r /Helvetica findfont 22.9045 sf 0 0 m (1180) show NC gr 
 gsave  2268 461 0 0 C 1489 55.3896 t 0 r /Helvetica findfont 22.9045 sf 0 0 m (1200) show NC gr 
 gsave  2268 461 0 0 C 1648.66 55.3896 t 0 r /Helvetica findfont 22.9045 sf 0 0 m (1220) show NC gr 
 gsave  2268 461 0 0 C 1808.31 55.3896 t 0 r /Helvetica findfont 22.9045 sf 0 0 m (1240) show NC gr 
 gsave  2268 461 0 0 C 1967.96 55.3896 t 0 r /Helvetica findfont 22.9045 sf 0 0 m (1260) show NC gr 
 gsave  2268 461 0 0 C 2127.61 55.3896 t 0 r /Helvetica findfont 22.9045 sf 0 0 m (1280) show NC gr  363 438 m 1791 X s 403 427 m 11 Y s 442 433 m 5 Y s 482 433 m 5 Y s 522 433 m 5 Y s 562 427 m 11 Y s 602 433 m 5 Y s 642 433 m 5 Y s 681 433 m 5 Y s
 721 427 m 11 Y s 761 433 m 5 Y s 801 433 m 5 Y s 841 433 m 5 Y s 880 427 m 11 Y s 920 433 m 5 Y s 960 433 m 5 Y s 1000 433 m 5 Y s 1040 427 m 11 Y s 1079 433 m 5 Y s 1119 433 m 5 Y s 1159 433 m 5 Y s 1199 427 m 11 Y s 1239 433 m 5 Y s 1278 433 m 5 Y
 s 1318 433 m 5 Y s 1358 427 m 11 Y s 1398 433 m 5 Y s 1438 433 m 5 Y s 1478 433 m 5 Y s 1517 427 m 11 Y s 1557 433 m 5 Y s 1597 433 m 5 Y s 1637 433 m 5 Y s 1677 427 m 11 Y s 1716 433 m 5 Y s 1756 433 m 5 Y s 1796 433 m 5 Y s 1836 427 m 11 Y s 1876
 433 m 5 Y s 1915 433 m 5 Y s 1955 433 m 5 Y s 1995 427 m 11 Y s 2035 433 m 5 Y s 2075 433 m 5 Y s 2115 433 m 5 Y s 2154 427 m 11 Y s 403 427 m 11 Y s 363 74 m 364 Y s 417 74 m -54 X s 390 81 m -27 X s 390 88 m -27 X s 390 96 m -27 X s 390 103 m -27
 X s 417 110 m -54 X s 390 118 m -27 X s 390 125 m -27 X s 390 132 m -27 X s 390 139 m -27 X s 417 147 m -54 X s 390 154 m -27 X s 390 161 m -27 X s 390 169 m -27 X s 390 176 m -27 X s 417 183 m -54 X s 390 190 m -27 X s 390 198 m -27 X s 390 205 m
 -27 X s 390 212 m -27 X s 417 220 m -54 X s 390 227 m -27 X s 390 234 m -27 X s 390 241 m -27 X s 390 249 m -27 X s 417 256 m -54 X s 390 263 m -27 X s 390 271 m -27 X s 390 278 m -27 X s 390 285 m -27 X s 417 293 m -54 X s 390 300 m -27 X s 390 307
 m -27 X s 390 314 m -27 X s 390 322 m -27 X s 417 329 m -54 X s 390 336 m -27 X s 390 344 m -27 X s 390 351 m -27 X s 390 358 m -27 X s 417 365 m -54 X s 390 373 m -27 X s 390 380 m -27 X s 390 387 m -27 X s 390 395 m -27 X s 417 402 m -54 X s 390
 409 m -27 X s 390 416 m -27 X s 390 424 m -27 X s 390 431 m -27 X s 417 438 m -54 X s
 gsave  2268 461 0 0 C 329.08 65.1643 t 0 r /Helvetica findfont 22.9045 sf 0 0 m (\2555) show NC gr 
 gsave  2268 461 0 0 C 329.08 101.005 t 0 r /Helvetica findfont 22.9045 sf 0 0 m (\2554) show NC gr 
 gsave  2268 461 0 0 C 329.08 140.103 t 0 r /Helvetica findfont 22.9045 sf 0 0 m (\2553) show NC gr 
 gsave  2268 461 0 0 C 329.08 175.944 t 0 r /Helvetica findfont 22.9045 sf 0 0 m (\2552) show NC gr 
 gsave  2268 461 0 0 C 332.338 211.784 t 0 r /Helvetica findfont 22.9045 sf 0 0 m (\2551) show NC gr 
 gsave  2268 461 0 0 C 335.596 247.624 t 0 r /Helvetica findfont 22.9045 sf 0 0 m (0) show NC gr 
 gsave  2268 461 0 0 C 338.854 283.465 t 0 r /Helvetica findfont 22.9045 sf 0 0 m (1) show NC gr 
 gsave  2268 461 0 0 C 335.596 319.305 t 0 r /Helvetica findfont 22.9045 sf 0 0 m (2) show NC gr 
 gsave  2268 461 0 0 C 335.596 358.403 t 0 r /Helvetica findfont 22.9045 sf 0 0 m (3) show NC gr 
 gsave  2268 461 0 0 C 335.596 394.244 t 0 r /Helvetica findfont 22.9045 sf 0 0 m (4) show NC gr 
 gsave  2268 461 0 0 C 335.596 430.084 t 0 r /Helvetica findfont 22.9045 sf 0 0 m (5) show NC gr  2154 74 m 364 Y s 2101 74 m 53 X s 2127 81 m 27 X s 2127 88 m 27 X s 2127 96 m 27 X s 2127 103 m 27 X s 2101 110 m 53 X s 2127 118 m 27 X s 2127 125 m
 27 X s 2127 132 m 27 X s 2127 139 m 27 X s 2101 147 m 53 X s 2127 154 m 27 X s 2127 161 m 27 X s 2127 169 m 27 X s 2127 176 m 27 X s 2101 183 m 53 X s 2127 190 m 27 X s 2127 198 m 27 X s 2127 205 m 27 X s 2127 212 m 27 X s 2101 220 m 53 X s 2127 227
 m 27 X s 2127 234 m 27 X s 2127 241 m 27 X s 2127 249 m 27 X s 2101 256 m 53 X s 2127 263 m 27 X s 2127 271 m 27 X s 2127 278 m 27 X s 2127 285 m 27 X s 2101 293 m 53 X s 2127 300 m 27 X s 2127 307 m 27 X s 2127 314 m 27 X s 2127 322 m 27 X s 2101
 329 m 53 X s 2127 336 m 27 X s 2127 344 m 27 X s 2127 351 m 27 X s 2127 358 m 27 X s 2101 365 m 53 X s 2127 373 m 27 X s 2127 380 m 27 X s 2127 387 m 27 X s 2127 395 m 27 X s 2101 402 m 53 X s 2127 409 m 27 X s 2127 416 m 27 X s 2127 424 m 27 X s
 2127 431 m 27 X s 2101 438 m 53 X s 6 lw 0.2 0.8 0.2 c black 3 lw 0.2 0.8 0.2 c 363 256 m 11 Y 36 X 16 Y 35 X -53 Y 36 X 28 Y 36 X 5 Y 36 X -52 Y 36 X 44 Y 36 X 14 Y 35 X 43 Y 36 X -28 Y 36 X 17 Y 36 X -14 Y 36 X -28 Y 36 X 1 Y 35 X 83 Y 36 X -85 Y
 36 X 5 Y 36 X -58 Y 36 X -92 Y 36 X 120 Y 35 X -2 Y 36 X -21 Y 36 X 5 Y 72 X 6 Y 36 X 102 Y 35 X -30 Y 36 X -8 Y 36 X -77 Y 36 X 44 Y 36 X 5 Y 36 X 90 Y 35 X -85 Y 36 X -52 Y 36 X -3 Y 36 X -14 Y 36 X 45 Y 36 X 74 Y 35 X 11 Y 36 X -10 Y 36 X 10 Y 36
 X -120 Y 36 X 9 Y 36 X 72 Y 35 X -31 Y 36 X 15 Y 36 X -66 Y 36 X 30 Y 36 X 60 Y 36 X 26 Y 35 X -62 Y f 6 lw black 0.2 0.8 0.2 c black 363 267 m 36 X 16 Y 35 X -53 Y 36 X 28 Y 36 X 5 Y 36 X -52 Y 36 X 44 Y 36 X 14 Y 35 X 43 Y 36 X -28 Y 36 X 17 Y 36
 X -14 Y 36 X -28 Y 36 X 1 Y 35 X 83 Y 36 X -85 Y 36 X 5 Y 36 X -58 Y 36 X -92 Y 36 X 120 Y 35 X -2 Y 36 X -21 Y 36 X 5 Y 72 X 6 Y 36 X 102 Y 35 X -30 Y 36 X -8 Y 36 X -77 Y 36 X 44 Y 36 X 5 Y 36 X 90 Y 35 X -85 Y 36 X -52 Y 36 X -3 Y 36 X -14 Y 36 X
 45 Y 36 X 74 Y 35 X 11 Y 36 X -10 Y 36 X 10 Y 36 X -120 Y 36 X 9 Y 36 X 72 Y 35 X -31 Y 36 X 15 Y 36 X -66 Y 36 X 30 Y 36 X 60 Y 36 X 26 Y 35 X s 3 lw 363 74 m 1791 X s 403 85 m -11 Y s 442 79 m -5 Y s 482 79 m -5 Y s 522 79 m -5 Y s 562 85 m -11 Y
 s 602 79 m -5 Y s 642 79 m -5 Y s 681 79 m -5 Y s 721 85 m -11 Y s 761 79 m -5 Y s 801 79 m -5 Y s 841 79 m -5 Y s 880 85 m -11 Y s 920 79 m -5 Y s 960 79 m -5 Y s 1000 79 m -5 Y s 1040 85 m -11 Y s 1079 79 m -5 Y s 1119 79 m -5 Y s 1159 79 m -5 Y s
 1199 85 m -11 Y s 1239 79 m -5 Y s 1278 79 m -5 Y s 1318 79 m -5 Y s 1358 85 m -11 Y s 1398 79 m -5 Y s 1438 79 m -5 Y s 1478 79 m -5 Y s 1517 85 m -11 Y s 1557 79 m -5 Y s 1597 79 m -5 Y s 1637 79 m -5 Y s 1677 85 m -11 Y s 1716 79 m -5 Y s 1756 79
 m -5 Y s 1796 79 m -5 Y s 1836 85 m -11 Y s 1876 79 m -5 Y s 1915 79 m -5 Y s 1955 79 m -5 Y s 1995 85 m -11 Y s 2035 79 m -5 Y s 2075 79 m -5 Y s 2115 79 m -5 Y s 2154 85 m -11 Y s 403 85 m -11 Y s 363 438 m 1791 X s 403 427 m 11 Y s 442 433 m 5 Y
 s 482 433 m 5 Y s 522 433 m 5 Y s 562 427 m 11 Y s 602 433 m 5 Y s 642 433 m 5 Y s 681 433 m 5 Y s 721 427 m 11 Y s 761 433 m 5 Y s 801 433 m 5 Y s 841 433 m 5 Y s 880 427 m 11 Y s 920 433 m 5 Y s 960 433 m 5 Y s 1000 433 m 5 Y s 1040 427 m 11 Y s
 1079 433 m 5 Y s 1119 433 m 5 Y s 1159 433 m 5 Y s 1199 427 m 11 Y s 1239 433 m 5 Y s 1278 433 m 5 Y s 1318 433 m 5 Y s 1358 427 m 11 Y s 1398 433 m 5 Y s 1438 433 m 5 Y s 1478 433 m 5 Y s 1517 427 m 11 Y s 1557 433 m 5 Y s 1597 433 m 5 Y s 1637 433
 m 5 Y s 1677 427 m 11 Y s 1716 433 m 5 Y s 1756 433 m 5 Y s 1796 433 m 5 Y s 1836 427 m 11 Y s 1876 433 m 5 Y s 1915 433 m 5 Y s 1955 433 m 5 Y s 1995 427 m 11 Y s 2035 433 m 5 Y s 2075 433 m 5 Y s 2115 433 m 5 Y s 2154 427 m 11 Y s 403 427 m 11 Y s
 363 74 m 364 Y s 417 74 m -54 X s 390 81 m -27 X s 390 88 m -27 X s 390 96 m -27 X s 390 103 m -27 X s 417 110 m -54 X s 390 118 m -27 X s 390 125 m -27 X s 390 132 m -27 X s 390 139 m -27 X s 417 147 m -54 X s 390 154 m -27 X s 390 161 m -27 X s
 390 169 m -27 X s 390 176 m -27 X s 417 183 m -54 X s 390 190 m -27 X s 390 198 m -27 X s 390 205 m -27 X s 390 212 m -27 X s 417 220 m -54 X s 390 227 m -27 X s 390 234 m -27 X s 390 241 m -27 X s 390 249 m -27 X s 417 256 m -54 X s 390 263 m -27 X
 s 390 271 m -27 X s 390 278 m -27 X s 390 285 m -27 X s 417 293 m -54 X s 390 300 m -27 X s 390 307 m -27 X s 390 314 m -27 X s 390 322 m -27 X s 417 329 m -54 X s 390 336 m -27 X s 390 344 m -27 X s 390 351 m -27 X s 390 358 m -27 X s 417 365 m -54
 X s 390 373 m -27 X s 390 380 m -27 X s 390 387 m -27 X s 390 395 m -27 X s 417 402 m -54 X s 390 409 m -27 X s 390 416 m -27 X s 390 424 m -27 X s 390 431 m -27 X s 417 438 m -54 X s 2154 74 m 364 Y s 2101 74 m 53 X s 2127 81 m 27 X s 2127 88 m 27
 X s 2127 96 m 27 X s 2127 103 m 27 X s 2101 110 m 53 X s 2127 118 m 27 X s 2127 125 m 27 X s 2127 132 m 27 X s 2127 139 m 27 X s 2101 147 m 53 X s 2127 154 m 27 X s 2127 161 m 27 X s 2127 169 m 27 X s 2127 176 m 27 X s 2101 183 m 53 X s 2127 190 m
 27 X s 2127 198 m 27 X s 2127 205 m 27 X s 2127 212 m 27 X s 2101 220 m 53 X s 2127 227 m 27 X s 2127 234 m 27 X s 2127 241 m 27 X s 2127 249 m 27 X s 2101 256 m 53 X s 2127 263 m 27 X s 2127 271 m 27 X s 2127 278 m 27 X s 2127 285 m 27 X s 2101 293
 m 53 X s 2127 300 m 27 X s 2127 307 m 27 X s 2127 314 m 27 X s 2127 322 m 27 X s 2101 329 m 53 X s 2127 336 m 27 X s 2127 344 m 27 X s 2127 351 m 27 X s 2127 358 m 27 X s 2101 365 m 53 X s 2127 373 m 27 X s 2127 380 m 27 X s 2127 387 m 27 X s 2127
 395 m 27 X s 2101 402 m 53 X s 2127 409 m 27 X s 2127 416 m 27 X s 2127 424 m 27 X s 2127 431 m 27 X s 2101 438 m 53 X s
 gr  gr showpage
end
%%EOF
