%!PS-Adobe-2.0 EPSF-2.0
%%BoundingBox:  0 0 567 384
%%Title: H4l2015_plotfit/gg_mass_signal_900_fixed_H4l_4e.eps: 
%%Creator: ROOT Version 5.34/10
%%CreationDate: Thu Feb 16 13:48:33 2017
%%EndComments
%%BeginProlog
80 dict begin
/s {stroke} def /l {lineto} def /m {moveto} def /t {translate} def
/r {rotate} def /rl {roll}  def /R {repeat} def
/d {rlineto} def /rm {rmoveto} def /gr {grestore} def /f {eofill} def
/c {setrgbcolor} def /black {0 setgray} def /sd {setdash} def
/cl {closepath} def /sf {scalefont setfont} def /lw {setlinewidth} def
/box {m dup 0 exch d exch 0 d 0 exch neg d cl} def
/NC{systemdict begin initclip end}def/C{NC box clip newpath}def
/bl {box s} def /bf {box f} def /Y { 0 exch d} def /X { 0 d} def 
/K {{pop pop 0 moveto} exch kshow} bind def
/ita {/ang 15 def gsave [1 0 ang dup sin exch cos div 1 0 0] concat} def 
/mp {newpath /y exch def /x exch def} def
/side {[w .77 mul w .23 mul] .385 w mul sd w 0 l currentpoint t -144 r} def
/mr {mp x y w2 0 360 arc} def /m24 {mr s} def /m20 {mr f} def
/mb {mp x y w2 add m w2 neg 0 d 0 w neg d w 0 d 0 w d cl} def
/mt {mp x y w2 add m w2 neg w neg d w 0 d cl} def
/m21 {mb f} def /m25 {mb s} def /m22 {mt f} def /m26{mt s} def
/m23 {mp x y w2 sub m w2 w d w neg 0 d cl f} def
/m27 {mp x y w2 add m w3 neg w2 neg d w3 w2 neg d w3 w2 d cl s} def
/m28 {mp x w2 sub y w2 sub w3 add m w3 0 d  0 w3 neg d w3 0 d 0 w3 d w3 0 d  0 w3 d w3 neg 0 d 0 w3 d w3 neg 0 d 0 w3 neg d w3 neg 0 d cl s } def
/m29 {mp gsave x w2 sub y w2 add w3 sub m currentpoint t 4 {side} repeat cl fill gr} def
/m30 {mp gsave x w2 sub y w2 add w3 sub m currentpoint t 4 {side} repeat cl s gr} def
/m31 {mp x y w2 sub m 0 w d x w2 sub y m w 0 d x w2 sub y w2 add m w w neg d x w2 sub y w2 sub m w w d s} def
/m32 {mp x y w2 sub m w2 w d w neg 0 d cl s} def
/m33 {mp x y w2 add m w3 neg w2 neg d w3 w2 neg d w3 w2 d cl f} def
/m34 {mp x w2 sub y w2 sub w3 add m w3 0 d  0 w3 neg d w3 0 d 0 w3 d w3 0 d  0 w3 d w3 neg 0 d 0 w3 d w3 neg 0 d 0 w3 neg d w3 neg 0 d cl f } def
/m2 {mp x y w2 sub m 0 w d x w2 sub y m w 0 d s} def
/m5 {mp x w2 sub y w2 sub m w w d x w2 sub y w2 add m w w neg d s} def
/reEncode {exch findfont dup length dict begin {1 index /FID eq  {pop pop} {def} ifelse } forall /Encoding exch def currentdict end dup /FontName get exch definefont pop } def [/Times-Bold /Times-Italic /Times-BoldItalic /Helvetica /Helvetica-Oblique
 /Helvetica-Bold /Helvetica-BoldOblique /Courier /Courier-Oblique /Courier-Bold /Courier-BoldOblique /Times-Roman /AvantGarde-Book /AvantGarde-BookOblique /AvantGarde-Demi /AvantGarde-DemiOblique /Bookman-Demi /Bookman-DemiItalic /Bookman-Light
 /Bookman-LightItalic /Helvetica-Narrow /Helvetica-Narrow-Bold /Helvetica-Narrow-BoldOblique /Helvetica-Narrow-Oblique /NewCenturySchlbk-Roman /NewCenturySchlbk-Bold /NewCenturySchlbk-BoldItalic /NewCenturySchlbk-Italic /Palatino-Bold
 /Palatino-BoldItalic /Palatino-Italic /Palatino-Roman ] {ISOLatin1Encoding reEncode } forall
%%EndProlog
%%BeginSetup
%%EndSetup
newpath  gsave  .25 .25 scale  gsave  0 0 t black[  ] 0 sd 3 lw 1 1 1 c 2268 1538 0 0 bf black 1 1 1 c 2222 738 23 784 bf black 1 1 1 c 2222 739 23 15 bf black 1 1 1 c 2268 1077 0 461 bf black 1 1 1 c 1791 850 363 634 bf black 1791 850 363 634 bl 363
 634 m 1791 X s
 gsave  2268 1077 0 461 C 1642.14 498.507 t 0 r /Helvetica findfont 48.9324 sf 0 0 m (4l Invariant Mass \(GeV\)) show NC gr  460 659 m -25 Y s 499 646 m -12 Y s 538 646 m -12 Y s 577 646 m -12 Y s 616 646 m -12 Y s 655 659 m -25 Y s 694 646 m -12 Y s
 733 646 m -12 Y s 772 646 m -12 Y s 811 646 m -12 Y s 850 659 m -25 Y s 889 646 m -12 Y s 928 646 m -12 Y s 966 646 m -12 Y s 1005 646 m -12 Y s 1044 659 m -25 Y s 1083 646 m -12 Y s 1122 646 m -12 Y s 1161 646 m -12 Y s 1200 646 m -12 Y s 1239 659
 m -25 Y s 1278 646 m -12 Y s 1317 646 m -12 Y s 1356 646 m -12 Y s 1395 646 m -12 Y s 1434 659 m -25 Y s 1473 646 m -12 Y s 1512 646 m -12 Y s 1551 646 m -12 Y s 1590 646 m -12 Y s 1629 659 m -25 Y s 1668 646 m -12 Y s 1706 646 m -12 Y s 1745 646 m
 -12 Y s 1784 646 m -12 Y s 1823 659 m -25 Y s 1862 646 m -12 Y s 1901 646 m -12 Y s 1940 646 m -12 Y s 1979 646 m -12 Y s 2018 659 m -25 Y s 460 659 m -25 Y s 421 646 m -12 Y s 382 646 m -12 Y s 2018 659 m -25 Y s 2057 646 m -12 Y s 2096 646 m -12 Y
 s 2135 646 m -12 Y s
 gsave  2268 1077 0 461 C 417.051 586.478 t 0 r /Helvetica findfont 48.9324 sf 0 0 m (840) show NC gr 
 gsave  2268 1077 0 461 C 612.544 586.478 t 0 r /Helvetica findfont 48.9324 sf 0 0 m (850) show NC gr 
 gsave  2268 1077 0 461 C 804.779 586.478 t 0 r /Helvetica findfont 48.9324 sf 0 0 m (860) show NC gr 
 gsave  2268 1077 0 461 C 1000.27 586.478 t 0 r /Helvetica findfont 48.9324 sf 0 0 m (870) show NC gr 
 gsave  2268 1077 0 461 C 1195.76 586.478 t 0 r /Helvetica findfont 48.9324 sf 0 0 m (880) show NC gr 
 gsave  2268 1077 0 461 C 1391.26 586.478 t 0 r /Helvetica findfont 48.9324 sf 0 0 m (890) show NC gr 
 gsave  2268 1077 0 461 C 1583.49 586.478 t 0 r /Helvetica findfont 48.9324 sf 0 0 m (900) show NC gr 
 gsave  2268 1077 0 461 C 1778.98 586.478 t 0 r /Helvetica findfont 48.9324 sf 0 0 m (910) show NC gr 
 gsave  2268 1077 0 461 C 1974.48 586.478 t 0 r /Helvetica findfont 48.9324 sf 0 0 m (920) show NC gr  363 1484 m 1791 X s 460 1459 m 25 Y s 499 1471 m 13 Y s 538 1471 m 13 Y s 577 1471 m 13 Y s 616 1471 m 13 Y s 655 1459 m 25 Y s 694 1471 m 13 Y s
 733 1471 m 13 Y s 772 1471 m 13 Y s 811 1471 m 13 Y s 850 1459 m 25 Y s 889 1471 m 13 Y s 928 1471 m 13 Y s 966 1471 m 13 Y s 1005 1471 m 13 Y s 1044 1459 m 25 Y s 1083 1471 m 13 Y s 1122 1471 m 13 Y s 1161 1471 m 13 Y s 1200 1471 m 13 Y s 1239 1459
 m 25 Y s 1278 1471 m 13 Y s 1317 1471 m 13 Y s 1356 1471 m 13 Y s 1395 1471 m 13 Y s 1434 1459 m 25 Y s 1473 1471 m 13 Y s 1512 1471 m 13 Y s 1551 1471 m 13 Y s 1590 1471 m 13 Y s 1629 1459 m 25 Y s 1668 1471 m 13 Y s 1706 1471 m 13 Y s 1745 1471 m
 13 Y s 1784 1471 m 13 Y s 1823 1459 m 25 Y s 1862 1471 m 13 Y s 1901 1471 m 13 Y s 1940 1471 m 13 Y s 1979 1471 m 13 Y s 2018 1459 m 25 Y s 460 1459 m 25 Y s 421 1471 m 13 Y s 382 1471 m 13 Y s 2018 1459 m 25 Y s 2057 1471 m 13 Y s 2096 1471 m 13 Y
 s 2135 1471 m 13 Y s 363 634 m 850 Y s
 gsave  2268 1077 0 461 C 120.554 1032.85 t 90 r /Helvetica findfont 48.9324 sf 0 0 m (Events / \( 1.84 GeV \)) show NC gr  390 644 m -27 X s 390 698 m -27 X s 390 737 m -27 X s 390 766 m -27 X s 390 790 m -27 X s 390 811 m -27 X s 390 829 m -27 X s
 390 844 m -27 X s 417 858 m -54 X s
 gsave  2268 1077 0 461 C 342.425 837.512 t 0 r  -55 0 t /Helvetica findfont 48.9324 sf 0 0 m (10) show NC gr  390 951 m -27 X s 390 1004 m -27 X s 390 1043 m -27 X s 390 1072 m -27 X s 390 1097 m -27 X s 390 1117 m -27 X s 390 1135 m -27 X s 390
 1150 m -27 X s 417 1164 m -54 X s
 gsave  2268 1077 0 461 C 322.563 1163.18 t 0 r /Helvetica findfont 32.6216 sf 0 0 m (2) show NC gr 
 gsave  2268 1077 0 461 C 270.432 1143.63 t 0 r /Helvetica findfont 48.9324 sf 0 0 m (10) show NC gr  390 1257 m -27 X s 390 1311 m -27 X s 390 1349 m -27 X s 390 1378 m -27 X s 390 1403 m -27 X s 390 1423 m -27 X s 390 1441 m -27 X s 390 1457 m -27
 X s 417 1471 m -54 X s
 gsave  2268 1077 0 461 C 322.563 1472.71 t 0 r /Helvetica findfont 32.6216 sf 0 0 m (3) show NC gr 
 gsave  2268 1077 0 461 C 270.432 1449.9 t 0 r /Helvetica findfont 48.9324 sf 0 0 m (10) show NC gr  2154 634 m 850 Y s 2127 644 m 27 X s 2127 698 m 27 X s 2127 737 m 27 X s 2127 766 m 27 X s 2127 790 m 27 X s 2127 811 m 27 X s 2127 829 m 27 X s 2127
 844 m 27 X s 2101 858 m 53 X s 2127 951 m 27 X s 2127 1004 m 27 X s 2127 1043 m 27 X s 2127 1072 m 27 X s 2127 1097 m 27 X s 2127 1117 m 27 X s 2127 1135 m 27 X s 2127 1150 m 27 X s 2101 1164 m 53 X s 2127 1257 m 27 X s 2127 1311 m 27 X s 2127 1349
 m 27 X s 2127 1378 m 27 X s 2127 1403 m 27 X s 2127 1423 m 27 X s 2127 1441 m 27 X s 2127 1457 m 27 X s 2101 1471 m 53 X s 381 811 m -18 X s 363 811 m cl s 381 811 m 18 X s 399 811 m cl s 381 811 m 57 Y s 381 868 m cl s 381 811 m -61 Y s 381 750 m
 cl s 417 737 m -18 X s 399 737 m cl s 417 737 m 17 X s 434 737 m cl s 417 737 m 77 Y s 417 814 m cl s 417 737 m -87 Y s 417 650 m cl s 452 737 m -18 X s 434 737 m cl s 452 737 m 18 X s 470 737 m cl s 452 737 m 77 Y s 452 814 m cl s 452 737 m -87 Y s
 452 650 m cl s 488 737 m -18 X s 470 737 m cl s 488 737 m 18 X s 506 737 m cl s 488 737 m 77 Y s 488 814 m cl s 488 737 m -87 Y s 488 650 m cl s 524 698 m -18 X s 506 698 m cl s 524 698 m 18 X s 542 698 m cl s 524 698 m 91 Y s 524 789 m cl s 524 698
 m -64 Y s 524 634 m cl s 560 790 m -18 X s 542 790 m cl s 560 790 m 18 X s 578 790 m cl s 560 790 m 63 Y s 560 853 m cl s 560 790 m -67 Y s 560 723 m cl s 596 790 m -18 X s 578 790 m cl s 596 790 m 18 X s 614 790 m cl s 596 790 m 63 Y s 596 853 m cl
 s 596 790 m -67 Y s 596 723 m cl s 632 737 m -18 X s 614 737 m cl s 632 737 m 17 X s 649 737 m cl s 632 737 m 77 Y s 632 814 m cl s 632 737 m -87 Y s 632 650 m cl s 667 790 m -18 X s 649 790 m cl s 667 790 m 18 X s 685 790 m cl s 667 790 m 63 Y s
 667 853 m cl s 667 790 m -67 Y s 667 723 m cl s 703 871 m -18 X s 685 871 m cl s 703 871 m 18 X s 721 871 m cl s 703 871 m 45 Y s 703 916 m cl s 703 871 m -47 Y s 703 824 m cl s 739 766 m -18 X s 721 766 m cl s 739 766 m 18 X s 757 766 m cl s 739
 766 m 69 Y s 739 835 m cl s 739 766 m -75 Y s 739 691 m cl s 775 829 m -18 X s 757 829 m cl s 775 829 m 18 X s 793 829 m cl s 775 829 m 53 Y s 775 882 m cl s 775 829 m -57 Y s 775 772 m cl s 811 811 m -18 X s 793 811 m cl s 811 811 m 18 X s 829 811
 m cl s 811 811 m 57 Y s 811 868 m cl s 811 811 m -61 Y s 811 750 m cl s 847 883 m -18 X s 829 883 m cl s 847 883 m 17 X s 864 883 m cl s 847 883 m 42 Y s 847 925 m cl s 847 883 m -45 Y s 847 838 m cl s 882 871 m -18 X s 864 871 m cl s 882 871 m 18 X
 s 900 871 m cl s 882 871 m 45 Y s 882 916 m cl s 882 871 m -47 Y s 882 824 m cl s 918 980 m -18 X s 900 980 m cl s 918 980 m 18 X s 936 980 m cl s 918 980 m 29 Y s 918 1009 m cl s 918 980 m -29 Y s 918 951 m cl s 954 883 m -18 X s 936 883 m cl s 954
 883 m 18 X s 972 883 m cl s 954 883 m 42 Y s 954 925 m cl s 954 883 m -45 Y s 954 838 m cl s 990 969 m -18 X s 972 969 m cl s 990 969 m 18 X s 1008 969 m cl s 990 969 m 30 Y s 990 999 m cl s 990 969 m -31 Y s 990 938 m cl s 1026 1000 m -18 X s 1008
 1000 m cl s 1026 1000 m 18 X s 1044 1000 m cl s 1026 1000 m 27 Y s 1026 1027 m cl s 1026 1000 m -27 Y s 1026 973 m cl s 1062 1009 m -18 X s 1044 1009 m cl s 1062 1009 m 17 X s 1079 1009 m cl s 1062 1009 m 26 Y s 1062 1035 m cl s 1062 1009 m -26 Y s
 1062 983 m cl s 1097 969 m -18 X s 1079 969 m cl s 1097 969 m 18 X s 1115 969 m cl s 1097 969 m 30 Y s 1097 999 m cl s 1097 969 m -31 Y s 1097 938 m cl s 1133 1049 m -18 X s 1115 1049 m cl s 1133 1049 m 18 X s 1151 1049 m cl s 1133 1049 m 22 Y s
 1133 1071 m cl s 1133 1049 m -22 Y s 1133 1027 m cl s 1169 1032 m -18 X s 1151 1032 m cl s 1169 1032 m 18 X s 1187 1032 m cl s 1169 1032 m 24 Y s 1169 1056 m cl s 1169 1032 m -23 Y s 1169 1009 m cl s 1205 1117 m -18 X s 1187 1117 m cl s 1205 1117 m
 18 X s 1223 1117 m cl s 1205 1117 m 17 Y s 1205 1134 m cl s 1205 1117 m -17 Y s 1205 1100 m cl s 1241 1152 m -18 X s 1223 1152 m cl s 1241 1152 m 18 X s 1259 1152 m cl s 1241 1152 m 15 Y s 1241 1167 m cl s 1241 1152 m -15 Y s 1241 1137 m cl s 1276
 1163 m -17 X s 1259 1163 m cl s 1276 1163 m 18 X s 1294 1163 m cl s 1276 1163 m 14 Y s 1276 1177 m cl s 1276 1163 m -14 Y s 1276 1149 m cl s 1312 1180 m -18 X s 1294 1180 m cl s 1312 1180 m 18 X s 1330 1180 m cl s 1312 1180 m 12 Y s 1312 1192 m cl s
 1312 1180 m -13 Y s 1312 1167 m cl s 1348 1225 m -18 X s 1330 1225 m cl s 1348 1225 m 18 X s 1366 1225 m cl s 1348 1225 m 11 Y s 1348 1236 m cl s 1348 1225 m -10 Y s 1348 1215 m cl s 1384 1266 m -18 X s 1366 1266 m cl s 1384 1266 m 18 X s 1402 1266
 m cl s 1384 1266 m 9 Y s 1384 1275 m cl s 1384 1266 m -9 Y s 1384 1257 m cl s 1420 1299 m -18 X s 1402 1299 m cl s 1420 1299 m 18 X s 1438 1299 m cl s 1420 1299 m 8 Y s 1420 1307 m cl s 1420 1299 m -8 Y s 1420 1291 m cl s 1456 1342 m -18 X s 1438
 1342 m cl s 1456 1342 m 18 X s 1474 1342 m cl s 1456 1342 m 7 Y s 1456 1349 m cl s 1456 1342 m -6 Y s 1456 1336 m cl s 1491 1366 m -17 X s 1474 1366 m cl s 1491 1366 m 18 X s 1509 1366 m cl s 1491 1366 m 6 Y s 1491 1372 m cl s 1491 1366 m -7 Y s
 1491 1359 m cl s 1527 1387 m -18 X s 1509 1387 m cl s 1527 1387 m 18 X s 1545 1387 m cl s 1527 1387 m 5 Y s 1527 1392 m cl s 1527 1387 m -6 Y s 1527 1381 m cl s 1563 1419 m -18 X s 1545 1419 m cl s 1563 1419 m 18 X s 1581 1419 m cl s 1563 1419 m 5 Y
 s 1563 1424 m cl s 1563 1419 m -6 Y s 1563 1413 m cl s 1599 1412 m -18 X s 1581 1412 m cl s 1599 1412 m 18 X s 1617 1412 m cl s 1599 1412 m 5 Y s 1599 1417 m cl s 1599 1412 m -5 Y s 1599 1407 m cl s 1635 1410 m -18 X s 1617 1410 m cl s 1635 1410 m
 18 X s 1653 1410 m cl s 1635 1410 m 6 Y s 1635 1416 m cl s 1635 1410 m -5 Y s 1635 1405 m cl s 1671 1381 m -18 X s 1653 1381 m cl s 1671 1381 m 18 X s 1689 1381 m cl s 1671 1381 m 5 Y s 1671 1386 m cl s 1671 1381 m -6 Y s 1671 1375 m cl s 1706 1355
 m -17 X s 1689 1355 m cl s 1706 1355 m 18 X s 1724 1355 m cl s 1706 1355 m 7 Y s 1706 1362 m cl s 1706 1355 m -6 Y s 1706 1349 m cl s 1742 1311 m -18 X s 1724 1311 m cl s 1742 1311 m 18 X s 1760 1311 m cl s 1742 1311 m 7 Y s 1742 1318 m cl s 1742
 1311 m -8 Y s 1742 1303 m cl s 1778 1269 m -18 X s 1760 1269 m cl s 1778 1269 m 18 X s 1796 1269 m cl s 1778 1269 m 9 Y s 1778 1278 m cl s 1778 1269 m -9 Y s 1778 1260 m cl s 1814 1201 m -18 X s 1796 1201 m cl s 1814 1201 m 18 X s 1832 1201 m cl s
 1814 1201 m 12 Y s 1814 1213 m cl s 1814 1201 m -11 Y s 1814 1190 m cl s 1850 1117 m -18 X s 1832 1117 m cl s 1850 1117 m 18 X s 1868 1117 m cl s 1850 1117 m 17 Y s 1850 1134 m cl s 1850 1117 m -17 Y s 1850 1100 m cl s 1886 1070 m -18 X s 1868 1070
 m cl s 1886 1070 m 18 X s 1904 1070 m cl s 1886 1070 m 20 Y s 1886 1090 m cl s 1886 1070 m -21 Y s 1886 1049 m cl s 1921 1029 m -17 X s 1904 1029 m cl s 1921 1029 m 18 X s 1939 1029 m cl s 1921 1029 m 23 Y s 1921 1052 m cl s 1921 1029 m -24 Y s 1921
 1005 m cl s 1957 1009 m -18 X s 1939 1009 m cl s 1957 1009 m 18 X s 1975 1009 m cl s 1957 1009 m 26 Y s 1957 1035 m cl s 1957 1009 m -26 Y s 1957 983 m cl s 1993 921 m -18 X s 1975 921 m cl s 1993 921 m 18 X s 2011 921 m cl s 1993 921 m 37 Y s 1993
 958 m cl s 1993 921 m -38 Y s 1993 883 m cl s 2029 929 m -18 X s 2011 929 m cl s 2029 929 m 18 X s 2047 929 m cl s 2029 929 m 35 Y s 2029 964 m cl s 2029 929 m -37 Y s 2029 892 m cl s 2065 921 m -18 X s 2047 921 m cl s 2065 921 m 18 X s 2083 921 m
 cl s 2065 921 m 37 Y s 2065 958 m cl s 2065 921 m -38 Y s 2065 883 m cl s 2101 790 m -18 X s 2083 790 m cl s 2101 790 m 18 X s 2119 790 m cl s 2101 790 m 63 Y s 2101 853 m cl s 2101 790 m -67 Y s 2101 723 m cl s 2136 766 m -17 X s 2119 766 m cl s
 2136 766 m 18 X s 2154 766 m cl s 2136 766 m 69 Y s 2136 835 m cl s 2136 766 m -75 Y s 2136 691 m cl s /w 31 def /w2 {w 2 div} def /w3 {w 3 div} def 381 811 417 737 452 737 488 737 524 698 560 790 596 790 632 737 667 790 703 871 739 766 775 829 811
 811 847 883 882 871 918 980 954 883 990 969 1026 1000 1062 1009 1097 969 1133 1049 1169 1032 1205 1117 1241 1152 1276 1163 1312 1180 1348 1225 1384 1266 1420 1299 1456 1342 1491 1366 1527 1387 1563 1419 1599 1412 1635 1410 1671 1381 1706 1355 1742
 1311 1778 1269 1814 1201 1850 1117 1886 1070 1921 1029 1957 1009 1993 921 2029 929 2065 921 2101 790 2136 766 50 { m20} R 0 1 1 c 1 1 0 c black 1 1 0 c 363 754 m 36 8 d 35 8 d 36 8 d 36 8 d 36 8 d 36 9 d 36 9 d 35 10 d 36 10 d 36 10 d 36 11 d 36 12
 d 36 12 d 35 13 d 36 15 d 36 16 d 36 17 d 36 20 d 36 21 d 35 23 d 36 26 d 36 26 d 36 28 d 36 29 d 36 30 d 17 16 d 18 15 d 18 16 d 18 16 d 18 17 d 18 17 d 18 19 d 9 10 d 9 10 d 9 11 d 9 11 d 9 11 d 9 12 d 18 21 d 18 19 d 17 16 d 9 8 d 9 6 d 9 6 d 9 5
 d 9 4 d 9 3 d 9 3 d 9 2 d 9 2 d 18 X 9 -1 d 9 -1 d 9 -3 d 9 -3 d 9 -4 d 9 -4 d 9 -6 d 9 -5 d 9 -7 d 18 -16 d 35 -38 d 18 -23 d 9 -13 d 9 -13 d 9 -13 d 9 -14 d 9 -14 d 9 -14 d 9 -15 d 9 -15 d 9 -15 d 9 -16 d 18 -30 d 18 -31 d 18 -30 d 18 -30 d 17 -29
 d 18 -27 d 36 -53 d 36 -51 d 36 -52 d 36 -54 d 36 -57 d 35 -61 d -35 61 d -36 57 d -36 54 d -36 52 d -36 51 d -36 53 d -18 27 d -17 29 d -18 30 d -18 30 d -18 31 d -18 30 d -9 16 d -9 15 d -9 15 d -9 15 d -9 14 d -9 14 d -9 14 d -9 13 d -9 13 d -9
 13 d -18 23 d -35 38 d -18 16 d -9 7 d -9 5 d -9 6 d -9 4 d -9 4 d -9 3 d -9 3 d -9 1 d -9 1 d -18 X -9 -2 d -9 -2 d -9 -3 d -9 -3 d -9 -4 d -9 -5 d -9 -6 d -9 -6 d -9 -8 d -17 -16 d -18 -19 d -18 -21 d -9 -12 d -9 -11 d -9 -11 d -9 -11 d -9 -10 d
 -9 -10 d -18 -19 d -18 -17 d -18 -17 d -18 -16 d -18 -16 d -18 -15 d -17 -16 d -36 -30 d -36 -29 d -36 -28 d -36 -26 d -36 -26 d -35 -23 d -36 -21 d -36 -20 d -36 -17 d -36 -16 d -36 -15 d -35 -13 d -36 -12 d -36 -12 d -36 -11 d -36 -10 d -36 -10 d
 -35 -10 d -36 -9 d -36 -9 d -36 -8 d -36 -8 d -36 -8 d -35 -8 d -36 -8 d f 0 1 1 c 0 1 0 c black 0 1 0 c 363 754 m 36 8 d 35 8 d 36 8 d 36 8 d 36 8 d 36 9 d 36 9 d 35 10 d 36 10 d 36 10 d 36 11 d 36 12 d 36 12 d 35 13 d 36 15 d 36 16 d 36 17 d 36 20
 d 36 21 d 35 23 d 36 26 d 36 26 d 36 28 d 36 29 d 36 30 d 17 16 d 18 15 d 18 16 d 18 16 d 18 17 d 18 17 d 18 19 d 9 10 d 9 10 d 9 11 d 9 11 d 9 11 d 9 12 d 18 21 d 18 19 d 17 16 d 9 8 d 9 6 d 9 6 d 9 5 d 9 4 d 9 3 d 9 3 d 9 2 d 9 2 d 18 X 9 -1 d 9
 -1 d 9 -3 d 9 -3 d 9 -4 d 9 -4 d 9 -6 d 9 -5 d 9 -7 d 18 -16 d 35 -38 d 18 -23 d 9 -13 d 9 -13 d 9 -13 d 9 -14 d 9 -14 d 9 -14 d 9 -15 d 9 -15 d 9 -15 d 9 -16 d 18 -30 d 18 -31 d 18 -30 d 18 -30 d 17 -29 d 18 -27 d 36 -53 d 36 -51 d 36 -52 d 36 -54
 d 36 -57 d 35 -61 d -35 61 d -36 57 d -36 54 d -36 52 d -36 51 d -36 53 d -18 27 d -17 29 d -18 30 d -18 30 d -18 31 d -18 30 d -9 16 d -9 15 d -9 15 d -9 15 d -9 14 d -9 14 d -9 14 d -9 13 d -9 13 d -9 13 d -18 23 d -35 38 d -18 16 d -9 7 d -9 5 d
 -9 6 d -9 4 d -9 4 d -9 3 d -9 3 d -9 1 d -9 1 d -18 X -9 -2 d -9 -2 d -9 -3 d -9 -3 d -9 -4 d -9 -5 d -9 -6 d -9 -6 d -9 -8 d -17 -16 d -18 -19 d -18 -21 d -9 -12 d -9 -11 d -9 -11 d -9 -11 d -9 -10 d -9 -10 d -18 -19 d -18 -17 d -18 -17 d -18 -16
 d -18 -16 d -18 -15 d -17 -16 d -36 -30 d -36 -29 d -36 -28 d -36 -26 d -36 -26 d -35 -23 d -36 -21 d -36 -20 d -36 -17 d -36 -16 d -36 -15 d -35 -13 d -36 -12 d -36 -12 d -36 -11 d -36 -10 d -36 -10 d -35 -10 d -36 -9 d -36 -9 d -36 -8 d -36 -8 d
 -36 -8 d -35 -8 d -36 -8 d f 0 0 1 c 9 lw black 0 0 1 c 363 754 m 36 8 d 35 8 d 36 8 d 36 8 d 36 8 d 36 9 d 36 9 d 35 10 d 36 10 d 36 10 d 36 11 d 36 12 d 36 12 d 35 13 d 36 15 d 36 16 d 36 17 d 36 20 d 36 21 d 35 23 d 36 26 d 36 26 d 36 28 d 36 29
 d 36 30 d 17 16 d 18 15 d 18 16 d 18 16 d 18 17 d 18 17 d 18 19 d 9 10 d 9 10 d 9 11 d 9 11 d 9 11 d 9 12 d 18 21 d 18 19 d 17 16 d 9 8 d 9 6 d 9 6 d 9 5 d 9 4 d 9 3 d 9 3 d 9 2 d 9 2 d 18 X 9 -1 d 9 -1 d 9 -3 d 9 -3 d 9 -4 d 9 -4 d 9 -6 d 9 -5 d 9
 -7 d 18 -16 d 35 -38 d 18 -23 d 9 -13 d 9 -13 d 9 -13 d 9 -14 d 9 -14 d 9 -14 d 9 -15 d 9 -15 d 9 -15 d 9 -16 d 18 -30 d 18 -31 d 18 -30 d 18 -30 d 17 -29 d 18 -27 d 36 -53 d 36 -51 d 36 -52 d 36 -54 d 36 -57 d 35 -61 d s black 3 lw 381 811 m -18 X
 s 363 811 m cl s 381 811 m 18 X s 399 811 m cl s 381 811 m 57 Y s 381 868 m cl s 381 811 m -61 Y s 381 750 m cl s 417 737 m -18 X s 399 737 m cl s 417 737 m 17 X s 434 737 m cl s 417 737 m 77 Y s 417 814 m cl s 417 737 m -87 Y s 417 650 m cl s 452
 737 m -18 X s 434 737 m cl s 452 737 m 18 X s 470 737 m cl s 452 737 m 77 Y s 452 814 m cl s 452 737 m -87 Y s 452 650 m cl s 488 737 m -18 X s 470 737 m cl s 488 737 m 18 X s 506 737 m cl s 488 737 m 77 Y s 488 814 m cl s 488 737 m -87 Y s 488 650
 m cl s 524 698 m -18 X s 506 698 m cl s 524 698 m 18 X s 542 698 m cl s 524 698 m 91 Y s 524 789 m cl s 524 698 m -64 Y s 524 634 m cl s 560 790 m -18 X s 542 790 m cl s 560 790 m 18 X s 578 790 m cl s 560 790 m 63 Y s 560 853 m cl s 560 790 m -67 Y
 s 560 723 m cl s 596 790 m -18 X s 578 790 m cl s 596 790 m 18 X s 614 790 m cl s 596 790 m 63 Y s 596 853 m cl s 596 790 m -67 Y s 596 723 m cl s 632 737 m -18 X s 614 737 m cl s 632 737 m 17 X s 649 737 m cl s 632 737 m 77 Y s 632 814 m cl s 632
 737 m -87 Y s 632 650 m cl s 667 790 m -18 X s 649 790 m cl s 667 790 m 18 X s 685 790 m cl s 667 790 m 63 Y s 667 853 m cl s 667 790 m -67 Y s 667 723 m cl s 703 871 m -18 X s 685 871 m cl s 703 871 m 18 X s 721 871 m cl s 703 871 m 45 Y s 703 916
 m cl s 703 871 m -47 Y s 703 824 m cl s 739 766 m -18 X s 721 766 m cl s 739 766 m 18 X s 757 766 m cl s 739 766 m 69 Y s 739 835 m cl s 739 766 m -75 Y s 739 691 m cl s 775 829 m -18 X s 757 829 m cl s 775 829 m 18 X s 793 829 m cl s 775 829 m 53 Y
 s 775 882 m cl s 775 829 m -57 Y s 775 772 m cl s 811 811 m -18 X s 793 811 m cl s 811 811 m 18 X s 829 811 m cl s 811 811 m 57 Y s 811 868 m cl s 811 811 m -61 Y s 811 750 m cl s 847 883 m -18 X s 829 883 m cl s 847 883 m 17 X s 864 883 m cl s 847
 883 m 42 Y s 847 925 m cl s 847 883 m -45 Y s 847 838 m cl s 882 871 m -18 X s 864 871 m cl s 882 871 m 18 X s 900 871 m cl s 882 871 m 45 Y s 882 916 m cl s 882 871 m -47 Y s 882 824 m cl s 918 980 m -18 X s 900 980 m cl s 918 980 m 18 X s 936 980
 m cl s 918 980 m 29 Y s 918 1009 m cl s 918 980 m -29 Y s 918 951 m cl s 954 883 m -18 X s 936 883 m cl s 954 883 m 18 X s 972 883 m cl s 954 883 m 42 Y s 954 925 m cl s 954 883 m -45 Y s 954 838 m cl s 990 969 m -18 X s 972 969 m cl s 990 969 m 18
 X s 1008 969 m cl s 990 969 m 30 Y s 990 999 m cl s 990 969 m -31 Y s 990 938 m cl s 1026 1000 m -18 X s 1008 1000 m cl s 1026 1000 m 18 X s 1044 1000 m cl s 1026 1000 m 27 Y s 1026 1027 m cl s 1026 1000 m -27 Y s 1026 973 m cl s 1062 1009 m -18 X s
 1044 1009 m cl s 1062 1009 m 17 X s 1079 1009 m cl s 1062 1009 m 26 Y s 1062 1035 m cl s 1062 1009 m -26 Y s 1062 983 m cl s 1097 969 m -18 X s 1079 969 m cl s 1097 969 m 18 X s 1115 969 m cl s 1097 969 m 30 Y s 1097 999 m cl s 1097 969 m -31 Y s
 1097 938 m cl s 1133 1049 m -18 X s 1115 1049 m cl s 1133 1049 m 18 X s 1151 1049 m cl s 1133 1049 m 22 Y s 1133 1071 m cl s 1133 1049 m -22 Y s 1133 1027 m cl s 1169 1032 m -18 X s 1151 1032 m cl s 1169 1032 m 18 X s 1187 1032 m cl s 1169 1032 m 24
 Y s 1169 1056 m cl s 1169 1032 m -23 Y s 1169 1009 m cl s 1205 1117 m -18 X s 1187 1117 m cl s 1205 1117 m 18 X s 1223 1117 m cl s 1205 1117 m 17 Y s 1205 1134 m cl s 1205 1117 m -17 Y s 1205 1100 m cl s 1241 1152 m -18 X s 1223 1152 m cl s 1241
 1152 m 18 X s 1259 1152 m cl s 1241 1152 m 15 Y s 1241 1167 m cl s 1241 1152 m -15 Y s 1241 1137 m cl s 1276 1163 m -17 X s 1259 1163 m cl s 1276 1163 m 18 X s 1294 1163 m cl s 1276 1163 m 14 Y s 1276 1177 m cl s 1276 1163 m -14 Y s 1276 1149 m cl s
 1312 1180 m -18 X s 1294 1180 m cl s 1312 1180 m 18 X s 1330 1180 m cl s 1312 1180 m 12 Y s 1312 1192 m cl s 1312 1180 m -13 Y s 1312 1167 m cl s 1348 1225 m -18 X s 1330 1225 m cl s 1348 1225 m 18 X s 1366 1225 m cl s 1348 1225 m 11 Y s 1348 1236 m
 cl s 1348 1225 m -10 Y s 1348 1215 m cl s 1384 1266 m -18 X s 1366 1266 m cl s 1384 1266 m 18 X s 1402 1266 m cl s 1384 1266 m 9 Y s 1384 1275 m cl s 1384 1266 m -9 Y s 1384 1257 m cl s 1420 1299 m -18 X s 1402 1299 m cl s 1420 1299 m 18 X s 1438
 1299 m cl s 1420 1299 m 8 Y s 1420 1307 m cl s 1420 1299 m -8 Y s 1420 1291 m cl s 1456 1342 m -18 X s 1438 1342 m cl s 1456 1342 m 18 X s 1474 1342 m cl s 1456 1342 m 7 Y s 1456 1349 m cl s 1456 1342 m -6 Y s 1456 1336 m cl s 1491 1366 m -17 X s
 1474 1366 m cl s 1491 1366 m 18 X s 1509 1366 m cl s 1491 1366 m 6 Y s 1491 1372 m cl s 1491 1366 m -7 Y s 1491 1359 m cl s 1527 1387 m -18 X s 1509 1387 m cl s 1527 1387 m 18 X s 1545 1387 m cl s 1527 1387 m 5 Y s 1527 1392 m cl s 1527 1387 m -6 Y
 s 1527 1381 m cl s 1563 1419 m -18 X s 1545 1419 m cl s 1563 1419 m 18 X s 1581 1419 m cl s 1563 1419 m 5 Y s 1563 1424 m cl s 1563 1419 m -6 Y s 1563 1413 m cl s 1599 1412 m -18 X s 1581 1412 m cl s 1599 1412 m 18 X s 1617 1412 m cl s 1599 1412 m 5
 Y s 1599 1417 m cl s 1599 1412 m -5 Y s 1599 1407 m cl s 1635 1410 m -18 X s 1617 1410 m cl s 1635 1410 m 18 X s 1653 1410 m cl s 1635 1410 m 6 Y s 1635 1416 m cl s 1635 1410 m -5 Y s 1635 1405 m cl s 1671 1381 m -18 X s 1653 1381 m cl s 1671 1381 m
 18 X s 1689 1381 m cl s 1671 1381 m 5 Y s 1671 1386 m cl s 1671 1381 m -6 Y s 1671 1375 m cl s 1706 1355 m -17 X s 1689 1355 m cl s 1706 1355 m 18 X s 1724 1355 m cl s 1706 1355 m 7 Y s 1706 1362 m cl s 1706 1355 m -6 Y s 1706 1349 m cl s 1742 1311
 m -18 X s 1724 1311 m cl s 1742 1311 m 18 X s 1760 1311 m cl s 1742 1311 m 7 Y s 1742 1318 m cl s 1742 1311 m -8 Y s 1742 1303 m cl s 1778 1269 m -18 X s 1760 1269 m cl s 1778 1269 m 18 X s 1796 1269 m cl s 1778 1269 m 9 Y s 1778 1278 m cl s 1778
 1269 m -9 Y s 1778 1260 m cl s 1814 1201 m -18 X s 1796 1201 m cl s 1814 1201 m 18 X s 1832 1201 m cl s 1814 1201 m 12 Y s 1814 1213 m cl s 1814 1201 m -11 Y s 1814 1190 m cl s 1850 1117 m -18 X s 1832 1117 m cl s 1850 1117 m 18 X s 1868 1117 m cl s
 1850 1117 m 17 Y s 1850 1134 m cl s 1850 1117 m -17 Y s 1850 1100 m cl s 1886 1070 m -18 X s 1868 1070 m cl s 1886 1070 m 18 X s 1904 1070 m cl s 1886 1070 m 20 Y s 1886 1090 m cl s 1886 1070 m -21 Y s 1886 1049 m cl s 1921 1029 m -17 X s 1904 1029
 m cl s 1921 1029 m 18 X s 1939 1029 m cl s 1921 1029 m 23 Y s 1921 1052 m cl s 1921 1029 m -24 Y s 1921 1005 m cl s 1957 1009 m -18 X s 1939 1009 m cl s 1957 1009 m 18 X s 1975 1009 m cl s 1957 1009 m 26 Y s 1957 1035 m cl s 1957 1009 m -26 Y s 1957
 983 m cl s 1993 921 m -18 X s 1975 921 m cl s 1993 921 m 18 X s 2011 921 m cl s 1993 921 m 37 Y s 1993 958 m cl s 1993 921 m -38 Y s 1993 883 m cl s 2029 929 m -18 X s 2011 929 m cl s 2029 929 m 18 X s 2047 929 m cl s 2029 929 m 35 Y s 2029 964 m cl
 s 2029 929 m -37 Y s 2029 892 m cl s 2065 921 m -18 X s 2047 921 m cl s 2065 921 m 18 X s 2083 921 m cl s 2065 921 m 37 Y s 2065 958 m cl s 2065 921 m -38 Y s 2065 883 m cl s 2101 790 m -18 X s 2083 790 m cl s 2101 790 m 18 X s 2119 790 m cl s 2101
 790 m 63 Y s 2101 853 m cl s 2101 790 m -67 Y s 2101 723 m cl s 2136 766 m -17 X s 2119 766 m cl s 2136 766 m 18 X s 2154 766 m cl s 2136 766 m 69 Y s 2136 835 m cl s 2136 766 m -75 Y s 2136 691 m cl s 381 811 417 737 452 737 488 737 524 698 560 790
 596 790 632 737 667 790 703 871 739 766 775 829 811 811 847 883 882 871 918 980 954 883 990 969 1026 1000 1062 1009 1097 969 1133 1049 1169 1032 1205 1117 1241 1152 1276 1163 1312 1180 1348 1225 1384 1266 1420 1299 1456 1342 1491 1366 1527 1387 1563
 1419 1599 1412 1635 1410 1671 1381 1706 1355 1742 1311 1778 1269 1814 1201 1850 1117 1886 1070 1921 1029 1957 1009 1993 921 2029 929 2065 921 2101 790 2136 766 50 { m20} R 0.52 0.76 0.64 c[ 4 8] 0 sd 9 lw black 0.52 0.76 0.64 c 363 754 m 36 8 d 35 8
 d 36 8 d 36 8 d 36 8 d 36 9 d 36 9 d 35 10 d 36 10 d 36 10 d 36 11 d 36 11 d 36 12 d 35 12 d 36 13 d 36 13 d 36 15 d 36 15 d 36 16 d 35 17 d 36 19 d 36 20 d 36 22 d 36 24 d 36 26 d 17 14 d 18 16 d 18 16 d 18 17 d 18 18 d 18 20 d 9 11 d 9 11 d 9 11 d
 9 12 d 9 13 d 9 14 d 9 14 d 9 13 d 18 26 d 18 21 d 17 19 d 9 8 d 9 7 d 9 7 d 9 5 d 9 5 d 9 4 d 9 3 d 9 2 d 9 2 d 18 X 9 -1 d 9 -2 d 9 -2 d 9 -4 d 9 -4 d 9 -5 d 9 -6 d 9 -7 d 9 -7 d 18 -18 d 17 -21 d 18 -24 d 18 -27 d 9 -15 d 9 -16 d 9 -16 d 9 -18 d
 9 -18 d 9 -19 d 9 -20 d 9 -21 d 9 -21 d 9 -22 d 18 -47 d 18 -51 d 18 -54 d 18 -56 d 17 -61 d 18 -63 d 31 -117 d s 0.54 0.66 0.63 c black 0.54 0.66 0.63 c 999 634 m 9 16 d s 1008 650 m 36 61 d 35 57 d 18 27 d 18 26 d 18 25 d 18 24 d 18 23 d 18 22 d
 18 21 d 18 20 d 18 20 d 18 18 d 17 17 d 18 16 d 18 16 d 18 14 d 36 26 d 36 21 d 18 10 d 18 8 d 18 8 d 18 6 d 17 6 d 18 4 d 18 4 d 18 3 d 18 1 d 18 1 d 18 -1 d 18 -1 d 18 -2 d 18 -3 d 18 -5 d 18 -5 d 17 -6 d 18 -7 d 18 -9 d 18 -9 d 36 -21 d 36 -25 d
 18 -14 d 18 -15 d 18 -16 d 18 -17 d 17 -18 d 18 -19 d 18 -20 d 18 -21 d 18 -21 d 18 -23 d 18 -24 d 18 -25 d 18 -25 d 18 -27 d 36 -57 d 35 -60 d s black[  ] 0 sd 3 lw 363 634 m 1791 X s 460 659 m -25 Y s 499 646 m -12 Y s 538 646 m -12 Y s 577 646 m
 -12 Y s 616 646 m -12 Y s 655 659 m -25 Y s 694 646 m -12 Y s 733 646 m -12 Y s 772 646 m -12 Y s 811 646 m -12 Y s 850 659 m -25 Y s 889 646 m -12 Y s 928 646 m -12 Y s 966 646 m -12 Y s 1005 646 m -12 Y s 1044 659 m -25 Y s 1083 646 m -12 Y s 1122
 646 m -12 Y s 1161 646 m -12 Y s 1200 646 m -12 Y s 1239 659 m -25 Y s 1278 646 m -12 Y s 1317 646 m -12 Y s 1356 646 m -12 Y s 1395 646 m -12 Y s 1434 659 m -25 Y s 1473 646 m -12 Y s 1512 646 m -12 Y s 1551 646 m -12 Y s 1590 646 m -12 Y s 1629
 659 m -25 Y s 1668 646 m -12 Y s 1706 646 m -12 Y s 1745 646 m -12 Y s 1784 646 m -12 Y s 1823 659 m -25 Y s 1862 646 m -12 Y s 1901 646 m -12 Y s 1940 646 m -12 Y s 1979 646 m -12 Y s 2018 659 m -25 Y s 460 659 m -25 Y s 421 646 m -12 Y s 382 646 m
 -12 Y s 2018 659 m -25 Y s 2057 646 m -12 Y s 2096 646 m -12 Y s 2135 646 m -12 Y s 363 1484 m 1791 X s 460 1459 m 25 Y s 499 1471 m 13 Y s 538 1471 m 13 Y s 577 1471 m 13 Y s 616 1471 m 13 Y s 655 1459 m 25 Y s 694 1471 m 13 Y s 733 1471 m 13 Y s
 772 1471 m 13 Y s 811 1471 m 13 Y s 850 1459 m 25 Y s 889 1471 m 13 Y s 928 1471 m 13 Y s 966 1471 m 13 Y s 1005 1471 m 13 Y s 1044 1459 m 25 Y s 1083 1471 m 13 Y s 1122 1471 m 13 Y s 1161 1471 m 13 Y s 1200 1471 m 13 Y s 1239 1459 m 25 Y s 1278
 1471 m 13 Y s 1317 1471 m 13 Y s 1356 1471 m 13 Y s 1395 1471 m 13 Y s 1434 1459 m 25 Y s 1473 1471 m 13 Y s 1512 1471 m 13 Y s 1551 1471 m 13 Y s 1590 1471 m 13 Y s 1629 1459 m 25 Y s 1668 1471 m 13 Y s 1706 1471 m 13 Y s 1745 1471 m 13 Y s 1784
 1471 m 13 Y s 1823 1459 m 25 Y s 1862 1471 m 13 Y s 1901 1471 m 13 Y s 1940 1471 m 13 Y s 1979 1471 m 13 Y s 2018 1459 m 25 Y s 460 1459 m 25 Y s 421 1471 m 13 Y s 382 1471 m 13 Y s 2018 1459 m 25 Y s 2057 1471 m 13 Y s 2096 1471 m 13 Y s 2135 1471
 m 13 Y s 363 634 m 850 Y s 390 644 m -27 X s 390 698 m -27 X s 390 737 m -27 X s 390 766 m -27 X s 390 790 m -27 X s 390 811 m -27 X s 390 829 m -27 X s 390 844 m -27 X s 417 858 m -54 X s 390 951 m -27 X s 390 1004 m -27 X s 390 1043 m -27 X s 390
 1072 m -27 X s 390 1097 m -27 X s 390 1117 m -27 X s 390 1135 m -27 X s 390 1150 m -27 X s 417 1164 m -54 X s 390 1257 m -27 X s 390 1311 m -27 X s 390 1349 m -27 X s 390 1378 m -27 X s 390 1403 m -27 X s 390 1423 m -27 X s 390 1441 m -27 X s 390
 1457 m -27 X s 417 1471 m -54 X s 2154 634 m 850 Y s 2127 644 m 27 X s 2127 698 m 27 X s 2127 737 m 27 X s 2127 766 m 27 X s 2127 790 m 27 X s 2127 811 m 27 X s 2127 829 m 27 X s 2127 844 m 27 X s 2101 858 m 53 X s 2127 951 m 27 X s 2127 1004 m 27 X
 s 2127 1043 m 27 X s 2127 1072 m 27 X s 2127 1097 m 27 X s 2127 1117 m 27 X s 2127 1135 m 27 X s 2127 1150 m 27 X s 2101 1164 m 53 X s 2127 1257 m 27 X s 2127 1311 m 27 X s 2127 1349 m 27 X s 2127 1378 m 27 X s 2127 1403 m 27 X s 2127 1423 m 27 X s
 2127 1441 m 27 X s 2127 1457 m 27 X s 2101 1471 m 53 X s
 gsave  2268 1077 0 461 C 677.708 1215.31 t 0 r /Helvetica findfont 58.7189 sf 0 0 m (4e) show NC gr  1 1 1 c 453 161 454 1269 bf black
 gsave  2268 1077 0 461 C 566.929 1371.71 t 0 r /Helvetica-Bold findfont 48.9324 sf 0 0 m (MC15) show NC gr  510 1390 m20
 gsave  2268 1077 0 461 C 566.929 1293.51 t 0 r /Helvetica-Bold findfont 48.9324 sf 0 0 m (Projection of Signal pdf) show NC gr  0 0 1 c 9 lw 471 1309 m 79 X s black 3 lw 1 1 1 c 2268 461 0 0 bf black 1 1 1 c 1791 364 363 74 bf black 1791 364 363 74
 bl 363 74 m 1791 X s
 gsave  2268 461 0 0 C 1915.83 13.0329 t 0 r /Helvetica findfont 22.9045 sf 0 0 m (4l Invariant Mass \(GeV\)) show NC gr  460 85 m -11 Y s 499 79 m -5 Y s 538 79 m -5 Y s 577 79 m -5 Y s 616 79 m -5 Y s 655 85 m -11 Y s 694 79 m -5 Y s 733 79 m -5 Y
 s 772 79 m -5 Y s 811 79 m -5 Y s 850 85 m -11 Y s 889 79 m -5 Y s 928 79 m -5 Y s 966 79 m -5 Y s 1005 79 m -5 Y s 1044 85 m -11 Y s 1083 79 m -5 Y s 1122 79 m -5 Y s 1161 79 m -5 Y s 1200 79 m -5 Y s 1239 85 m -11 Y s 1278 79 m -5 Y s 1317 79 m -5
 Y s 1356 79 m -5 Y s 1395 79 m -5 Y s 1434 85 m -11 Y s 1473 79 m -5 Y s 1512 79 m -5 Y s 1551 79 m -5 Y s 1590 79 m -5 Y s 1629 85 m -11 Y s 1668 79 m -5 Y s 1706 79 m -5 Y s 1745 79 m -5 Y s 1784 79 m -5 Y s 1823 85 m -11 Y s 1862 79 m -5 Y s 1901
 79 m -5 Y s 1940 79 m -5 Y s 1979 79 m -5 Y s 2018 85 m -11 Y s 460 85 m -11 Y s 421 79 m -5 Y s 382 79 m -5 Y s 2018 85 m -11 Y s 2057 79 m -5 Y s 2096 79 m -5 Y s 2135 79 m -5 Y s
 gsave  2268 461 0 0 C 439.859 55.3896 t 0 r /Helvetica findfont 22.9045 sf 0 0 m (840) show NC gr 
 gsave  2268 461 0 0 C 635.352 55.3896 t 0 r /Helvetica findfont 22.9045 sf 0 0 m (850) show NC gr 
 gsave  2268 461 0 0 C 827.586 55.3896 t 0 r /Helvetica findfont 22.9045 sf 0 0 m (860) show NC gr 
 gsave  2268 461 0 0 C 1023.08 55.3896 t 0 r /Helvetica findfont 22.9045 sf 0 0 m (870) show NC gr 
 gsave  2268 461 0 0 C 1218.57 55.3896 t 0 r /Helvetica findfont 22.9045 sf 0 0 m (880) show NC gr 
 gsave  2268 461 0 0 C 1414.06 55.3896 t 0 r /Helvetica findfont 22.9045 sf 0 0 m (890) show NC gr 
 gsave  2268 461 0 0 C 1606.3 55.3896 t 0 r /Helvetica findfont 22.9045 sf 0 0 m (900) show NC gr 
 gsave  2268 461 0 0 C 1801.79 55.3896 t 0 r /Helvetica findfont 22.9045 sf 0 0 m (910) show NC gr 
 gsave  2268 461 0 0 C 1997.28 55.3896 t 0 r /Helvetica findfont 22.9045 sf 0 0 m (920) show NC gr  363 438 m 1791 X s 460 427 m 11 Y s 499 433 m 5 Y s 538 433 m 5 Y s 577 433 m 5 Y s 616 433 m 5 Y s 655 427 m 11 Y s 694 433 m 5 Y s 733 433 m 5 Y s
 772 433 m 5 Y s 811 433 m 5 Y s 850 427 m 11 Y s 889 433 m 5 Y s 928 433 m 5 Y s 966 433 m 5 Y s 1005 433 m 5 Y s 1044 427 m 11 Y s 1083 433 m 5 Y s 1122 433 m 5 Y s 1161 433 m 5 Y s 1200 433 m 5 Y s 1239 427 m 11 Y s 1278 433 m 5 Y s 1317 433 m 5 Y
 s 1356 433 m 5 Y s 1395 433 m 5 Y s 1434 427 m 11 Y s 1473 433 m 5 Y s 1512 433 m 5 Y s 1551 433 m 5 Y s 1590 433 m 5 Y s 1629 427 m 11 Y s 1668 433 m 5 Y s 1706 433 m 5 Y s 1745 433 m 5 Y s 1784 433 m 5 Y s 1823 427 m 11 Y s 1862 433 m 5 Y s 1901
 433 m 5 Y s 1940 433 m 5 Y s 1979 433 m 5 Y s 2018 427 m 11 Y s 460 427 m 11 Y s 421 433 m 5 Y s 382 433 m 5 Y s 2018 427 m 11 Y s 2057 433 m 5 Y s 2096 433 m 5 Y s 2135 433 m 5 Y s 363 74 m 364 Y s 417 74 m -54 X s 390 81 m -27 X s 390 88 m -27 X s
 390 96 m -27 X s 390 103 m -27 X s 417 110 m -54 X s 390 118 m -27 X s 390 125 m -27 X s 390 132 m -27 X s 390 139 m -27 X s 417 147 m -54 X s 390 154 m -27 X s 390 161 m -27 X s 390 169 m -27 X s 390 176 m -27 X s 417 183 m -54 X s 390 190 m -27 X
 s 390 198 m -27 X s 390 205 m -27 X s 390 212 m -27 X s 417 220 m -54 X s 390 227 m -27 X s 390 234 m -27 X s 390 241 m -27 X s 390 249 m -27 X s 417 256 m -54 X s 390 263 m -27 X s 390 271 m -27 X s 390 278 m -27 X s 390 285 m -27 X s 417 293 m -54
 X s 390 300 m -27 X s 390 307 m -27 X s 390 314 m -27 X s 390 322 m -27 X s 417 329 m -54 X s 390 336 m -27 X s 390 344 m -27 X s 390 351 m -27 X s 390 358 m -27 X s 417 365 m -54 X s 390 373 m -27 X s 390 380 m -27 X s 390 387 m -27 X s 390 395 m
 -27 X s 417 402 m -54 X s 390 409 m -27 X s 390 416 m -27 X s 390 424 m -27 X s 390 431 m -27 X s 417 438 m -54 X s
 gsave  2268 461 0 0 C 329.08 65.1643 t 0 r /Helvetica findfont 22.9045 sf 0 0 m (\2555) show NC gr 
 gsave  2268 461 0 0 C 329.08 101.005 t 0 r /Helvetica findfont 22.9045 sf 0 0 m (\2554) show NC gr 
 gsave  2268 461 0 0 C 329.08 140.103 t 0 r /Helvetica findfont 22.9045 sf 0 0 m (\2553) show NC gr 
 gsave  2268 461 0 0 C 329.08 175.944 t 0 r /Helvetica findfont 22.9045 sf 0 0 m (\2552) show NC gr 
 gsave  2268 461 0 0 C 332.338 211.784 t 0 r /Helvetica findfont 22.9045 sf 0 0 m (\2551) show NC gr 
 gsave  2268 461 0 0 C 335.596 247.624 t 0 r /Helvetica findfont 22.9045 sf 0 0 m (0) show NC gr 
 gsave  2268 461 0 0 C 338.854 283.465 t 0 r /Helvetica findfont 22.9045 sf 0 0 m (1) show NC gr 
 gsave  2268 461 0 0 C 335.596 319.305 t 0 r /Helvetica findfont 22.9045 sf 0 0 m (2) show NC gr 
 gsave  2268 461 0 0 C 335.596 358.403 t 0 r /Helvetica findfont 22.9045 sf 0 0 m (3) show NC gr 
 gsave  2268 461 0 0 C 335.596 394.244 t 0 r /Helvetica findfont 22.9045 sf 0 0 m (4) show NC gr 
 gsave  2268 461 0 0 C 335.596 430.084 t 0 r /Helvetica findfont 22.9045 sf 0 0 m (5) show NC gr  2154 74 m 364 Y s 2101 74 m 53 X s 2127 81 m 27 X s 2127 88 m 27 X s 2127 96 m 27 X s 2127 103 m 27 X s 2101 110 m 53 X s 2127 118 m 27 X s 2127 125 m
 27 X s 2127 132 m 27 X s 2127 139 m 27 X s 2101 147 m 53 X s 2127 154 m 27 X s 2127 161 m 27 X s 2127 169 m 27 X s 2127 176 m 27 X s 2101 183 m 53 X s 2127 190 m 27 X s 2127 198 m 27 X s 2127 205 m 27 X s 2127 212 m 27 X s 2101 220 m 53 X s 2127 227
 m 27 X s 2127 234 m 27 X s 2127 241 m 27 X s 2127 249 m 27 X s 2101 256 m 53 X s 2127 263 m 27 X s 2127 271 m 27 X s 2127 278 m 27 X s 2127 285 m 27 X s 2101 293 m 53 X s 2127 300 m 27 X s 2127 307 m 27 X s 2127 314 m 27 X s 2127 322 m 27 X s 2101
 329 m 53 X s 2127 336 m 27 X s 2127 344 m 27 X s 2127 351 m 27 X s 2127 358 m 27 X s 2101 365 m 53 X s 2127 373 m 27 X s 2127 380 m 27 X s 2127 387 m 27 X s 2127 395 m 27 X s 2101 402 m 53 X s 2127 409 m 27 X s 2127 416 m 27 X s 2127 424 m 27 X s
 2127 431 m 27 X s 2101 438 m 53 X s 6 lw 0.2 0.8 0.2 c black 3 lw 0.2 0.8 0.2 c 363 256 m 32 Y 36 X -43 Y 35 X -4 Y 36 X -4 Y 36 X -18 Y 36 X 33 Y 36 X -4 Y 36 X -30 Y 35 X 19 Y 36 X 47 Y 36 X -74 Y 36 X 27 Y 36 X -20 Y 36 X 38 Y 35 X -19 Y 36 X 93
 Y 36 X -114 Y 36 X 66 Y 36 X 16 Y 36 X -16 Y 35 X -85 Y 36 X 73 Y 36 X -73 Y 36 X 102 Y 36 X 17 Y 36 X -41 Y 35 X -42 Y 36 X 39 Y 36 X 22 Y 36 X -36 Y 36 X -6 Y 36 X -72 Y 35 X -28 Y 36 X 128 Y 36 X -52 Y 36 X 64 Y 36 X -49 Y 36 X 47 Y 35 X -9 Y 36
 X 37 Y 36 X -40 Y 36 X -57 Y 36 X 31 Y 36 X 27 Y 35 X 37 Y 36 X -48 Y 36 X 51 Y 36 X 23 Y 36 X -62 Y 36 X 13 Y 35 X -36 Y f 6 lw black 0.2 0.8 0.2 c black 363 288 m 36 X -43 Y 35 X -4 Y 36 X -4 Y 36 X -18 Y 36 X 33 Y 36 X -4 Y 36 X -30 Y 35 X 19 Y
 36 X 47 Y 36 X -74 Y 36 X 27 Y 36 X -20 Y 36 X 38 Y 35 X -19 Y 36 X 93 Y 36 X -114 Y 36 X 66 Y 36 X 16 Y 36 X -16 Y 35 X -85 Y 36 X 73 Y 36 X -73 Y 36 X 102 Y 36 X 17 Y 36 X -41 Y 35 X -42 Y 36 X 39 Y 36 X 22 Y 36 X -36 Y 36 X -6 Y 36 X -72 Y 35 X
 -28 Y 36 X 128 Y 36 X -52 Y 36 X 64 Y 36 X -49 Y 36 X 47 Y 35 X -9 Y 36 X 37 Y 36 X -40 Y 36 X -57 Y 36 X 31 Y 36 X 27 Y 35 X 37 Y 36 X -48 Y 36 X 51 Y 36 X 23 Y 36 X -62 Y 36 X 13 Y 35 X s 3 lw 363 74 m 1791 X s 460 85 m -11 Y s 499 79 m -5 Y s 538
 79 m -5 Y s 577 79 m -5 Y s 616 79 m -5 Y s 655 85 m -11 Y s 694 79 m -5 Y s 733 79 m -5 Y s 772 79 m -5 Y s 811 79 m -5 Y s 850 85 m -11 Y s 889 79 m -5 Y s 928 79 m -5 Y s 966 79 m -5 Y s 1005 79 m -5 Y s 1044 85 m -11 Y s 1083 79 m -5 Y s 1122 79
 m -5 Y s 1161 79 m -5 Y s 1200 79 m -5 Y s 1239 85 m -11 Y s 1278 79 m -5 Y s 1317 79 m -5 Y s 1356 79 m -5 Y s 1395 79 m -5 Y s 1434 85 m -11 Y s 1473 79 m -5 Y s 1512 79 m -5 Y s 1551 79 m -5 Y s 1590 79 m -5 Y s 1629 85 m -11 Y s 1668 79 m -5 Y s
 1706 79 m -5 Y s 1745 79 m -5 Y s 1784 79 m -5 Y s 1823 85 m -11 Y s 1862 79 m -5 Y s 1901 79 m -5 Y s 1940 79 m -5 Y s 1979 79 m -5 Y s 2018 85 m -11 Y s 460 85 m -11 Y s 421 79 m -5 Y s 382 79 m -5 Y s 2018 85 m -11 Y s 2057 79 m -5 Y s 2096 79 m
 -5 Y s 2135 79 m -5 Y s 363 438 m 1791 X s 460 427 m 11 Y s 499 433 m 5 Y s 538 433 m 5 Y s 577 433 m 5 Y s 616 433 m 5 Y s 655 427 m 11 Y s 694 433 m 5 Y s 733 433 m 5 Y s 772 433 m 5 Y s 811 433 m 5 Y s 850 427 m 11 Y s 889 433 m 5 Y s 928 433 m 5
 Y s 966 433 m 5 Y s 1005 433 m 5 Y s 1044 427 m 11 Y s 1083 433 m 5 Y s 1122 433 m 5 Y s 1161 433 m 5 Y s 1200 433 m 5 Y s 1239 427 m 11 Y s 1278 433 m 5 Y s 1317 433 m 5 Y s 1356 433 m 5 Y s 1395 433 m 5 Y s 1434 427 m 11 Y s 1473 433 m 5 Y s 1512
 433 m 5 Y s 1551 433 m 5 Y s 1590 433 m 5 Y s 1629 427 m 11 Y s 1668 433 m 5 Y s 1706 433 m 5 Y s 1745 433 m 5 Y s 1784 433 m 5 Y s 1823 427 m 11 Y s 1862 433 m 5 Y s 1901 433 m 5 Y s 1940 433 m 5 Y s 1979 433 m 5 Y s 2018 427 m 11 Y s 460 427 m 11
 Y s 421 433 m 5 Y s 382 433 m 5 Y s 2018 427 m 11 Y s 2057 433 m 5 Y s 2096 433 m 5 Y s 2135 433 m 5 Y s 363 74 m 364 Y s 417 74 m -54 X s 390 81 m -27 X s 390 88 m -27 X s 390 96 m -27 X s 390 103 m -27 X s 417 110 m -54 X s 390 118 m -27 X s 390
 125 m -27 X s 390 132 m -27 X s 390 139 m -27 X s 417 147 m -54 X s 390 154 m -27 X s 390 161 m -27 X s 390 169 m -27 X s 390 176 m -27 X s 417 183 m -54 X s 390 190 m -27 X s 390 198 m -27 X s 390 205 m -27 X s 390 212 m -27 X s 417 220 m -54 X s
 390 227 m -27 X s 390 234 m -27 X s 390 241 m -27 X s 390 249 m -27 X s 417 256 m -54 X s 390 263 m -27 X s 390 271 m -27 X s 390 278 m -27 X s 390 285 m -27 X s 417 293 m -54 X s 390 300 m -27 X s 390 307 m -27 X s 390 314 m -27 X s 390 322 m -27 X
 s 417 329 m -54 X s 390 336 m -27 X s 390 344 m -27 X s 390 351 m -27 X s 390 358 m -27 X s 417 365 m -54 X s 390 373 m -27 X s 390 380 m -27 X s 390 387 m -27 X s 390 395 m -27 X s 417 402 m -54 X s 390 409 m -27 X s 390 416 m -27 X s 390 424 m -27
 X s 390 431 m -27 X s 417 438 m -54 X s 2154 74 m 364 Y s 2101 74 m 53 X s 2127 81 m 27 X s 2127 88 m 27 X s 2127 96 m 27 X s 2127 103 m 27 X s 2101 110 m 53 X s 2127 118 m 27 X s 2127 125 m 27 X s 2127 132 m 27 X s 2127 139 m 27 X s 2101 147 m 53 X
 s 2127 154 m 27 X s 2127 161 m 27 X s 2127 169 m 27 X s 2127 176 m 27 X s 2101 183 m 53 X s 2127 190 m 27 X s 2127 198 m 27 X s 2127 205 m 27 X s 2127 212 m 27 X s 2101 220 m 53 X s 2127 227 m 27 X s 2127 234 m 27 X s 2127 241 m 27 X s 2127 249 m 27
 X s 2101 256 m 53 X s 2127 263 m 27 X s 2127 271 m 27 X s 2127 278 m 27 X s 2127 285 m 27 X s 2101 293 m 53 X s 2127 300 m 27 X s 2127 307 m 27 X s 2127 314 m 27 X s 2127 322 m 27 X s 2101 329 m 53 X s 2127 336 m 27 X s 2127 344 m 27 X s 2127 351 m
 27 X s 2127 358 m 27 X s 2101 365 m 53 X s 2127 373 m 27 X s 2127 380 m 27 X s 2127 387 m 27 X s 2127 395 m 27 X s 2101 402 m 53 X s 2127 409 m 27 X s 2127 416 m 27 X s 2127 424 m 27 X s 2127 431 m 27 X s 2101 438 m 53 X s
 gr  gr showpage
end
%%EOF
