%!PS-Adobe-2.0 EPSF-2.0
%%BoundingBox:  0 0 567 384
%%Title: H4l2015_plotfit/gg_mass_signal_600_H4l_2mu2e.eps: 
%%Creator: ROOT Version 5.34/10
%%CreationDate: Thu Feb 16 15:47:14 2017
%%EndComments
%%BeginProlog
80 dict begin
/s {stroke} def /l {lineto} def /m {moveto} def /t {translate} def
/r {rotate} def /rl {roll}  def /R {repeat} def
/d {rlineto} def /rm {rmoveto} def /gr {grestore} def /f {eofill} def
/c {setrgbcolor} def /black {0 setgray} def /sd {setdash} def
/cl {closepath} def /sf {scalefont setfont} def /lw {setlinewidth} def
/box {m dup 0 exch d exch 0 d 0 exch neg d cl} def
/NC{systemdict begin initclip end}def/C{NC box clip newpath}def
/bl {box s} def /bf {box f} def /Y { 0 exch d} def /X { 0 d} def 
/K {{pop pop 0 moveto} exch kshow} bind def
/ita {/ang 15 def gsave [1 0 ang dup sin exch cos div 1 0 0] concat} def 
/mp {newpath /y exch def /x exch def} def
/side {[w .77 mul w .23 mul] .385 w mul sd w 0 l currentpoint t -144 r} def
/mr {mp x y w2 0 360 arc} def /m24 {mr s} def /m20 {mr f} def
/mb {mp x y w2 add m w2 neg 0 d 0 w neg d w 0 d 0 w d cl} def
/mt {mp x y w2 add m w2 neg w neg d w 0 d cl} def
/m21 {mb f} def /m25 {mb s} def /m22 {mt f} def /m26{mt s} def
/m23 {mp x y w2 sub m w2 w d w neg 0 d cl f} def
/m27 {mp x y w2 add m w3 neg w2 neg d w3 w2 neg d w3 w2 d cl s} def
/m28 {mp x w2 sub y w2 sub w3 add m w3 0 d  0 w3 neg d w3 0 d 0 w3 d w3 0 d  0 w3 d w3 neg 0 d 0 w3 d w3 neg 0 d 0 w3 neg d w3 neg 0 d cl s } def
/m29 {mp gsave x w2 sub y w2 add w3 sub m currentpoint t 4 {side} repeat cl fill gr} def
/m30 {mp gsave x w2 sub y w2 add w3 sub m currentpoint t 4 {side} repeat cl s gr} def
/m31 {mp x y w2 sub m 0 w d x w2 sub y m w 0 d x w2 sub y w2 add m w w neg d x w2 sub y w2 sub m w w d s} def
/m32 {mp x y w2 sub m w2 w d w neg 0 d cl s} def
/m33 {mp x y w2 add m w3 neg w2 neg d w3 w2 neg d w3 w2 d cl f} def
/m34 {mp x w2 sub y w2 sub w3 add m w3 0 d  0 w3 neg d w3 0 d 0 w3 d w3 0 d  0 w3 d w3 neg 0 d 0 w3 d w3 neg 0 d 0 w3 neg d w3 neg 0 d cl f } def
/m2 {mp x y w2 sub m 0 w d x w2 sub y m w 0 d s} def
/m5 {mp x w2 sub y w2 sub m w w d x w2 sub y w2 add m w w neg d s} def
/reEncode {exch findfont dup length dict begin {1 index /FID eq  {pop pop} {def} ifelse } forall /Encoding exch def currentdict end dup /FontName get exch definefont pop } def [/Times-Bold /Times-Italic /Times-BoldItalic /Helvetica /Helvetica-Oblique
 /Helvetica-Bold /Helvetica-BoldOblique /Courier /Courier-Oblique /Courier-Bold /Courier-BoldOblique /Times-Roman /AvantGarde-Book /AvantGarde-BookOblique /AvantGarde-Demi /AvantGarde-DemiOblique /Bookman-Demi /Bookman-DemiItalic /Bookman-Light
 /Bookman-LightItalic /Helvetica-Narrow /Helvetica-Narrow-Bold /Helvetica-Narrow-BoldOblique /Helvetica-Narrow-Oblique /NewCenturySchlbk-Roman /NewCenturySchlbk-Bold /NewCenturySchlbk-BoldItalic /NewCenturySchlbk-Italic /Palatino-Bold
 /Palatino-BoldItalic /Palatino-Italic /Palatino-Roman ] {ISOLatin1Encoding reEncode } forall
%%EndProlog
%%BeginSetup
%%EndSetup
newpath  gsave  .25 .25 scale  gsave  0 0 t black[  ] 0 sd 3 lw 1 1 1 c 2268 1538 0 0 bf black 1 1 1 c 2222 738 23 784 bf black 1 1 1 c 2222 739 23 15 bf black 1 1 1 c 2268 1077 0 461 bf black 1 1 1 c 1791 850 363 634 bf black 1791 850 363 634 bl 363
 634 m 1791 X s
 gsave  2268 1077 0 461 C 1642.14 498.507 t 0 r /Helvetica findfont 48.9324 sf 0 0 m (4l Invariant Mass \(GeV\)) show NC gr  363 659 m -25 Y s 437 646 m -12 Y s 512 646 m -12 Y s 587 646 m -12 Y s 661 659 m -25 Y s 736 646 m -12 Y s 811 646 m -12 Y s
 885 646 m -12 Y s 960 659 m -25 Y s 1035 646 m -12 Y s 1109 646 m -12 Y s 1184 646 m -12 Y s 1259 659 m -25 Y s 1333 646 m -12 Y s 1408 646 m -12 Y s 1483 646 m -12 Y s 1557 659 m -25 Y s 1632 646 m -12 Y s 1706 646 m -12 Y s 1781 646 m -12 Y s 1856
 659 m -25 Y s 1930 646 m -12 Y s 2005 646 m -12 Y s 2080 646 m -12 Y s 2154 659 m -25 Y s
 gsave  2268 1077 0 461 C 319.305 586.478 t 0 r /Helvetica findfont 48.9324 sf 0 0 m (520) show NC gr 
 gsave  2268 1077 0 461 C 619.061 586.478 t 0 r /Helvetica findfont 48.9324 sf 0 0 m (540) show NC gr 
 gsave  2268 1077 0 461 C 915.558 586.478 t 0 r /Helvetica findfont 48.9324 sf 0 0 m (560) show NC gr 
 gsave  2268 1077 0 461 C 1215.31 586.478 t 0 r /Helvetica findfont 48.9324 sf 0 0 m (580) show NC gr 
 gsave  2268 1077 0 461 C 1511.81 586.478 t 0 r /Helvetica findfont 48.9324 sf 0 0 m (600) show NC gr 
 gsave  2268 1077 0 461 C 1811.57 586.478 t 0 r /Helvetica findfont 48.9324 sf 0 0 m (620) show NC gr 
 gsave  2268 1077 0 461 C 2111.32 586.478 t 0 r /Helvetica findfont 48.9324 sf 0 0 m (640) show NC gr  363 1484 m 1791 X s 363 1459 m 25 Y s 437 1471 m 13 Y s 512 1471 m 13 Y s 587 1471 m 13 Y s 661 1459 m 25 Y s 736 1471 m 13 Y s 811 1471 m 13 Y s
 885 1471 m 13 Y s 960 1459 m 25 Y s 1035 1471 m 13 Y s 1109 1471 m 13 Y s 1184 1471 m 13 Y s 1259 1459 m 25 Y s 1333 1471 m 13 Y s 1408 1471 m 13 Y s 1483 1471 m 13 Y s 1557 1459 m 25 Y s 1632 1471 m 13 Y s 1706 1471 m 13 Y s 1781 1471 m 13 Y s 1856
 1459 m 25 Y s 1930 1471 m 13 Y s 2005 1471 m 13 Y s 2080 1471 m 13 Y s 2154 1459 m 25 Y s 363 634 m 850 Y s
 gsave  2268 1077 0 461 C 120.554 1058.92 t 90 r /Helvetica findfont 48.9324 sf 0 0 m (Events / \( 2.4 GeV \)) show NC gr  390 636 m -27 X s 390 665 m -27 X s 390 690 m -27 X s 390 710 m -27 X s 390 728 m -27 X s 390 744 m -27 X s 417 758 m -54 X s
 gsave  2268 1077 0 461 C 342.425 736.793 t 0 r  -55 0 t /Helvetica findfont 48.9324 sf 0 0 m (10) show NC gr  390 850 m -27 X s 390 904 m -27 X s 390 942 m -27 X s 390 972 m -27 X s 390 996 m -27 X s 390 1016 m -27 X s 390 1034 m -27 X s 390 1050 m
 -27 X s 417 1064 m -54 X s
 gsave  2268 1077 0 461 C 322.563 1062.18 t 0 r /Helvetica findfont 32.6216 sf 0 0 m (2) show NC gr 
 gsave  2268 1077 0 461 C 270.432 1042.63 t 0 r /Helvetica findfont 48.9324 sf 0 0 m (10) show NC gr  390 1156 m -27 X s 390 1210 m -27 X s 390 1248 m -27 X s 390 1278 m -27 X s 390 1302 m -27 X s 390 1322 m -27 X s 390 1340 m -27 X s 390 1356 m -27
 X s 417 1370 m -54 X s
 gsave  2268 1077 0 461 C 322.563 1371.71 t 0 r /Helvetica findfont 32.6216 sf 0 0 m (3) show NC gr 
 gsave  2268 1077 0 461 C 270.432 1348.9 t 0 r /Helvetica findfont 48.9324 sf 0 0 m (10) show NC gr  390 1462 m -27 X s 2154 634 m 850 Y s 2127 636 m 27 X s 2127 665 m 27 X s 2127 690 m 27 X s 2127 710 m 27 X s 2127 728 m 27 X s 2127 744 m 27 X s
 2101 758 m 53 X s 2127 850 m 27 X s 2127 904 m 27 X s 2127 942 m 27 X s 2127 972 m 27 X s 2127 996 m 27 X s 2127 1016 m 27 X s 2127 1034 m 27 X s 2127 1050 m 27 X s 2101 1064 m 53 X s 2127 1156 m 27 X s 2127 1210 m 27 X s 2127 1248 m 27 X s 2127
 1278 m 27 X s 2127 1302 m 27 X s 2127 1322 m 27 X s 2127 1340 m 27 X s 2127 1356 m 27 X s 2101 1370 m 53 X s 2127 1462 m 27 X s 381 665 m -18 X s 363 665 m cl s 381 665 m 18 X s 399 665 m cl s 381 665 m 69 Y s 381 734 m cl s 381 665 m -31 Y s 381
 634 m cl s 417 710 m -18 X s 399 710 m cl s 417 710 m 17 X s 434 710 m cl s 417 710 m 58 Y s 417 768 m cl s 417 710 m -61 Y s 417 649 m cl s 452 828 m -18 X s 434 828 m cl s 452 828 m 18 X s 470 828 m cl s 452 828 m 36 Y s 452 864 m cl s 452 828 m
 -36 Y s 452 792 m cl s 488 843 m -18 X s 470 843 m cl s 488 843 m 18 X s 506 843 m cl s 488 843 m 33 Y s 488 876 m cl s 488 843 m -34 Y s 488 809 m cl s 524 782 m -18 X s 506 782 m cl s 524 782 m 18 X s 542 782 m cl s 524 782 m 43 Y s 524 825 m cl s
 524 782 m -45 Y s 524 737 m cl s 560 770 m -18 X s 542 770 m cl s 560 770 m 18 X s 578 770 m cl s 560 770 m 45 Y s 560 815 m cl s 560 770 m -47 Y s 560 723 m cl s 596 820 m -18 X s 578 820 m cl s 596 820 m 18 X s 614 820 m cl s 596 820 m 37 Y s 596
 857 m cl s 596 820 m -38 Y s 596 782 m cl s 632 802 m -18 X s 614 802 m cl s 632 802 m 17 X s 649 802 m cl s 632 802 m 40 Y s 632 842 m cl s 632 802 m -40 Y s 632 762 m cl s 667 802 m -18 X s 649 802 m cl s 667 802 m 18 X s 685 802 m cl s 667 802 m
 40 Y s 667 842 m cl s 667 802 m -40 Y s 667 762 m cl s 703 879 m -18 X s 685 879 m cl s 703 879 m 18 X s 721 879 m cl s 703 879 m 29 Y s 703 908 m cl s 703 879 m -29 Y s 703 850 m cl s 739 856 m -18 X s 721 856 m cl s 739 856 m 18 X s 757 856 m cl s
 739 856 m 32 Y s 739 888 m cl s 739 856 m -32 Y s 739 824 m cl s 775 874 m -18 X s 757 874 m cl s 775 874 m 18 X s 793 874 m cl s 775 874 m 30 Y s 775 904 m cl s 775 874 m -30 Y s 775 844 m cl s 811 879 m -18 X s 793 879 m cl s 811 879 m 18 X s 829
 879 m cl s 811 879 m 29 Y s 811 908 m cl s 811 879 m -29 Y s 811 850 m cl s 847 890 m -18 X s 829 890 m cl s 847 890 m 17 X s 864 890 m cl s 847 890 m 27 Y s 847 917 m cl s 847 890 m -29 Y s 847 861 m cl s 882 935 m -18 X s 864 935 m cl s 882 935 m
 18 X s 900 935 m cl s 882 935 m 23 Y s 882 958 m cl s 882 935 m -23 Y s 882 912 m cl s 918 935 m -18 X s 900 935 m cl s 918 935 m 18 X s 936 935 m cl s 918 935 m 23 Y s 918 958 m cl s 918 935 m -23 Y s 918 912 m cl s 954 977 m -18 X s 936 977 m cl s
 954 977 m 18 X s 972 977 m cl s 954 977 m 19 Y s 954 996 m cl s 954 977 m -20 Y s 954 957 m cl s 990 989 m -18 X s 972 989 m cl s 990 989 m 18 X s 1008 989 m cl s 990 989 m 19 Y s 990 1008 m cl s 990 989 m -19 Y s 990 970 m cl s 1026 1011 m -18 X s
 1008 1011 m cl s 1026 1011 m 18 X s 1044 1011 m cl s 1026 1011 m 17 Y s 1026 1028 m cl s 1026 1011 m -18 Y s 1026 993 m cl s 1062 1041 m -18 X s 1044 1041 m cl s 1062 1041 m 17 X s 1079 1041 m cl s 1062 1041 m 15 Y s 1062 1056 m cl s 1062 1041 m -16
 Y s 1062 1025 m cl s 1097 1027 m -18 X s 1079 1027 m cl s 1097 1027 m 18 X s 1115 1027 m cl s 1097 1027 m 16 Y s 1097 1043 m cl s 1097 1027 m -16 Y s 1097 1011 m cl s 1133 1096 m -18 X s 1115 1096 m cl s 1133 1096 m 18 X s 1151 1096 m cl s 1133 1096
 m 11 Y s 1133 1107 m cl s 1133 1096 m -12 Y s 1133 1084 m cl s 1169 1119 m -18 X s 1151 1119 m cl s 1169 1119 m 18 X s 1187 1119 m cl s 1169 1119 m 10 Y s 1169 1129 m cl s 1169 1119 m -11 Y s 1169 1108 m cl s 1205 1146 m -18 X s 1187 1146 m cl s
 1205 1146 m 18 X s 1223 1146 m cl s 1205 1146 m 10 Y s 1205 1156 m cl s 1205 1146 m -9 Y s 1205 1137 m cl s 1241 1161 m -18 X s 1223 1161 m cl s 1241 1161 m 18 X s 1259 1161 m cl s 1241 1161 m 9 Y s 1241 1170 m cl s 1241 1161 m -9 Y s 1241 1152 m cl
 s 1276 1193 m -17 X s 1259 1193 m cl s 1276 1193 m 18 X s 1294 1193 m cl s 1276 1193 m 8 Y s 1276 1201 m cl s 1276 1193 m -8 Y s 1276 1185 m cl s 1312 1233 m -18 X s 1294 1233 m cl s 1312 1233 m 18 X s 1330 1233 m cl s 1312 1233 m 7 Y s 1312 1240 m
 cl s 1312 1233 m -7 Y s 1312 1226 m cl s 1348 1274 m -18 X s 1330 1274 m cl s 1348 1274 m 18 X s 1366 1274 m cl s 1348 1274 m 6 Y s 1348 1280 m cl s 1348 1274 m -6 Y s 1348 1268 m cl s 1384 1310 m -18 X s 1366 1310 m cl s 1384 1310 m 18 X s 1402
 1310 m cl s 1384 1310 m 5 Y s 1384 1315 m cl s 1384 1310 m -6 Y s 1384 1304 m cl s 1420 1352 m -18 X s 1402 1352 m cl s 1420 1352 m 18 X s 1438 1352 m cl s 1420 1352 m 5 Y s 1420 1357 m cl s 1420 1352 m -4 Y s 1420 1348 m cl s 1456 1373 m -18 X s
 1438 1373 m cl s 1456 1373 m 18 X s 1474 1373 m cl s 1456 1373 m 4 Y s 1456 1377 m cl s 1456 1373 m -4 Y s 1456 1369 m cl s 1491 1404 m -17 X s 1474 1404 m cl s 1491 1404 m 18 X s 1509 1404 m cl s 1491 1404 m 3 Y s 1491 1407 m cl s 1491 1404 m -4 Y
 s 1491 1400 m cl s 1527 1419 m -18 X s 1509 1419 m cl s 1527 1419 m 18 X s 1545 1419 m cl s 1527 1419 m 4 Y s 1527 1423 m cl s 1527 1419 m -3 Y s 1527 1416 m cl s 1563 1417 m -18 X s 1545 1417 m cl s 1563 1417 m 18 X s 1581 1417 m cl s 1563 1417 m 3
 Y s 1563 1420 m cl s 1563 1417 m -4 Y s 1563 1413 m cl s 1599 1393 m -18 X s 1581 1393 m cl s 1599 1393 m 18 X s 1617 1393 m cl s 1599 1393 m 4 Y s 1599 1397 m cl s 1599 1393 m -4 Y s 1599 1389 m cl s 1635 1352 m -18 X s 1617 1352 m cl s 1635 1352 m
 18 X s 1653 1352 m cl s 1635 1352 m 4 Y s 1635 1356 m cl s 1635 1352 m -5 Y s 1635 1347 m cl s 1671 1312 m -18 X s 1653 1312 m cl s 1671 1312 m 18 X s 1689 1312 m cl s 1671 1312 m 5 Y s 1671 1317 m cl s 1671 1312 m -5 Y s 1671 1307 m cl s 1706 1253
 m -17 X s 1689 1253 m cl s 1706 1253 m 18 X s 1724 1253 m cl s 1706 1253 m 6 Y s 1706 1259 m cl s 1706 1253 m -7 Y s 1706 1246 m cl s 1742 1197 m -18 X s 1724 1197 m cl s 1742 1197 m 18 X s 1760 1197 m cl s 1742 1197 m 8 Y s 1742 1205 m cl s 1742
 1197 m -8 Y s 1742 1189 m cl s 1778 1158 m -18 X s 1760 1158 m cl s 1778 1158 m 18 X s 1796 1158 m cl s 1778 1158 m 9 Y s 1778 1167 m cl s 1778 1158 m -9 Y s 1778 1149 m cl s 1814 1101 m -18 X s 1796 1101 m cl s 1814 1101 m 18 X s 1832 1101 m cl s
 1814 1101 m 11 Y s 1814 1112 m cl s 1814 1101 m -12 Y s 1814 1089 m cl s 1850 1047 m -18 X s 1832 1047 m cl s 1850 1047 m 18 X s 1868 1047 m cl s 1850 1047 m 15 Y s 1850 1062 m cl s 1850 1047 m -15 Y s 1850 1032 m cl s 1886 1002 m -18 X s 1868 1002
 m cl s 1886 1002 m 18 X s 1904 1002 m cl s 1886 1002 m 18 Y s 1886 1020 m cl s 1886 1002 m -18 Y s 1886 984 m cl s 1921 935 m -17 X s 1904 935 m cl s 1921 935 m 18 X s 1939 935 m cl s 1921 935 m 23 Y s 1921 958 m cl s 1921 935 m -23 Y s 1921 912 m
 cl s 1957 912 m -18 X s 1939 912 m cl s 1957 912 m 18 X s 1975 912 m cl s 1957 912 m 26 Y s 1957 938 m cl s 1957 912 m -25 Y s 1957 887 m cl s 1993 885 m -18 X s 1975 885 m cl s 1993 885 m 18 X s 2011 885 m cl s 1993 885 m 28 Y s 1993 913 m cl s
 1993 885 m -29 Y s 1993 856 m cl s 2029 868 m -18 X s 2011 868 m cl s 2029 868 m 18 X s 2047 868 m cl s 2029 868 m 31 Y s 2029 899 m cl s 2029 868 m -30 Y s 2029 838 m cl s 2065 793 m -18 X s 2047 793 m cl s 2065 793 m 18 X s 2083 793 m cl s 2065
 793 m 41 Y s 2065 834 m cl s 2065 793 m -43 Y s 2065 750 m cl s 2101 770 m -18 X s 2083 770 m cl s 2101 770 m 18 X s 2119 770 m cl s 2101 770 m 45 Y s 2101 815 m cl s 2101 770 m -47 Y s 2101 723 m cl s 2136 744 m -17 X s 2119 744 m cl s 2136 744 m
 18 X s 2154 744 m cl s 2136 744 m 50 Y s 2136 794 m cl s 2136 744 m -53 Y s 2136 691 m cl s /w 31 def /w2 {w 2 div} def /w3 {w 3 div} def 381 665 417 710 452 828 488 843 524 782 560 770 596 820 632 802 667 802 703 879 739 856 775 874 811 879 847 890
 882 935 918 935 954 977 990 989 1026 1011 1062 1041 1097 1027 1133 1096 1169 1119 1205 1146 1241 1161 1276 1193 1312 1233 1348 1274 1384 1310 1420 1352 1456 1373 1491 1404 1527 1419 1563 1417 1599 1393 1635 1352 1671 1312 1706 1253 1742 1197 1778
 1158 1814 1101 1850 1047 1886 1002 1921 935 1957 912 1993 885 2029 868 2065 793 2101 770 2136 744 50 { m20} R 0 1 1 c 1 1 0 c black 1 1 0 c 363 795 m 36 6 d 35 7 d 36 6 d 36 7 d 36 8 d 36 7 d 36 9 d 35 8 d 36 9 d 36 10 d 36 10 d 36 12 d 36 13 d 35
 15 d 36 17 d 36 19 d 36 21 d 36 22 d 36 24 d 35 25 d 36 26 d 36 27 d 36 28 d 36 28 d 36 29 d 17 14 d 18 15 d 18 15 d 18 15 d 9 9 d 9 9 d 9 10 d 9 12 d 9 12 d 9 14 d 9 12 d 9 12 d 36 38 d 18 15 d 9 6 d 9 6 d 9 5 d 8 4 d 9 4 d 9 2 d 9 2 d 9 1 d 9 X 9
 -1 d 9 -2 d 9 -3 d 9 -4 d 9 -5 d 9 -6 d 9 -6 d 9 -7 d 9 -8 d 36 -39 d 18 -23 d 9 -12 d 9 -13 d 8 -13 d 9 -14 d 9 -14 d 9 -14 d 9 -14 d 9 -15 d 9 -14 d 9 -14 d 18 -27 d 18 -25 d 18 -22 d 18 -21 d 18 -21 d 18 -19 d 36 -38 d 35 -38 d 36 -39 d 36 -41 d
 36 -42 d 36 -45 d 36 -48 d 35 -51 d -68 Y -17 X -18 37 d -36 64 d -36 60 d -36 54 d -36 48 d -36 44 d -35 39 d -36 40 d -18 21 d -18 22 d -18 23 d -18 25 d -18 27 d -18 27 d -9 14 d -9 15 d -9 14 d -9 14 d -9 15 d -9 14 d -9 14 d -8 14 d -9 14 d -9
 13 d -18 25 d -36 41 d -9 8 d -9 7 d -9 6 d -9 6 d -9 4 d -9 4 d -9 3 d -9 2 d -9 1 d -18 X -9 -1 d -9 -3 d -9 -3 d -8 -4 d -9 -5 d -9 -6 d -9 -8 d -18 -17 d -36 -44 d -9 -13 d -9 -13 d -9 -11 d -9 -10 d -9 -9 d -9 -10 d -9 -9 d -9 -9 d -18 -18 d
 -18 -16 d -18 -15 d -17 -15 d -36 -28 d -36 -27 d -36 -27 d -36 -28 d -36 -28 d -35 -27 d -36 -26 d -36 -24 d -36 -22 d -36 -19 d -36 -18 d -35 -15 d -36 -14 d -36 -13 d -36 -11 d -36 -11 d -36 -9 d -35 -9 d -36 -8 d -36 -8 d -36 -8 d -36 -7 d -36
 -7 d -35 -7 d -36 -7 d f 0 1 1 c 0 1 0 c black 0 1 0 c 363 788 m 36 6 d 35 7 d 36 7 d 36 7 d 36 7 d 36 8 d 36 8 d 35 9 d 36 9 d 36 10 d 36 11 d 36 11 d 36 14 d 35 15 d 36 17 d 36 19 d 36 21 d 36 23 d 36 24 d 35 26 d 36 26 d 36 27 d 36 28 d 36 28 d
 36 28 d 17 15 d 18 15 d 18 15 d 18 16 d 9 9 d 9 9 d 9 10 d 9 11 d 9 12 d 9 13 d 9 13 d 9 11 d 36 40 d 18 15 d 9 7 d 9 5 d 9 6 d 8 4 d 9 3 d 9 3 d 9 2 d 18 X 9 -1 d 9 -2 d 9 -3 d 9 -4 d 9 -5 d 9 -5 d 9 -7 d 9 -7 d 9 -8 d 36 -39 d 18 -23 d 9 -13 d 9
 -13 d 8 -13 d 9 -14 d 9 -14 d 9 -14 d 9 -15 d 9 -14 d 9 -14 d 9 -14 d 18 -27 d 18 -25 d 18 -24 d 18 -21 d 18 -21 d 18 -19 d 36 -39 d 35 -38 d 36 -40 d 36 -42 d 36 -45 d 36 -47 d 36 -51 d 35 -53 d -50 Y -35 62 d -36 59 d -36 54 d -36 51 d -36 46 d
 -36 42 d -35 39 d -36 39 d -18 21 d -18 21 d -18 23 d -18 25 d -18 26 d -18 27 d -9 14 d -9 14 d -9 14 d -9 15 d -9 14 d -9 14 d -9 14 d -8 14 d -9 14 d -9 13 d -18 24 d -36 40 d -9 8 d -9 7 d -9 7 d -9 5 d -9 5 d -9 4 d -9 3 d -9 2 d -9 1 d -9 X -9
 -1 d -9 -1 d -9 -2 d -9 -4 d -8 -4 d -9 -5 d -9 -6 d -9 -7 d -18 -17 d -36 -42 d -9 -13 d -9 -13 d -9 -11 d -9 -11 d -9 -10 d -9 -9 d -9 -10 d -9 -9 d -18 -17 d -18 -16 d -18 -15 d -17 -14 d -36 -28 d -36 -28 d -36 -27 d -36 -28 d -36 -27 d -35 -27
 d -36 -25 d -36 -24 d -36 -21 d -36 -20 d -36 -17 d -35 -15 d -36 -14 d -36 -12 d -36 -11 d -36 -11 d -36 -9 d -35 -9 d -36 -8 d -36 -8 d -36 -8 d -36 -7 d -36 -7 d -35 -7 d -36 -6 d f 0 0 1 c 9 lw black 0 0 1 c 363 781 m 36 7 d 35 6 d 36 7 d 36 7 d
 36 8 d 36 8 d 36 8 d 35 9 d 36 9 d 36 10 d 36 11 d 36 12 d 36 13 d 35 16 d 36 17 d 36 19 d 36 21 d 36 23 d 36 25 d 35 26 d 36 27 d 36 27 d 36 28 d 36 28 d 36 28 d 17 14 d 18 15 d 18 16 d 18 17 d 9 8 d 9 10 d 9 10 d 9 10 d 9 12 d 9 12 d 9 12 d 9 12 d
 36 41 d 18 16 d 9 7 d 9 6 d 9 5 d 8 5 d 9 3 d 9 2 d 9 2 d 9 1 d 9 -1 d 9 -1 d 9 -2 d 9 -3 d 9 -3 d 9 -5 d 9 -6 d 9 -6 d 9 -7 d 9 -8 d 36 -40 d 18 -24 d 9 -13 d 9 -13 d 8 -13 d 9 -14 d 9 -14 d 9 -15 d 9 -14 d 9 -14 d 9 -15 d 9 -14 d 18 -27 d 18 -25 d
 18 -24 d 18 -22 d 18 -21 d 18 -20 d 36 -39 d 35 -39 d 36 -41 d 36 -44 d 36 -47 d 36 -51 d 36 -54 d 35 -57 d s black 3 lw 381 665 m -18 X s 363 665 m cl s 381 665 m 18 X s 399 665 m cl s 381 665 m 69 Y s 381 734 m cl s 381 665 m -31 Y s 381 634 m cl
 s 417 710 m -18 X s 399 710 m cl s 417 710 m 17 X s 434 710 m cl s 417 710 m 58 Y s 417 768 m cl s 417 710 m -61 Y s 417 649 m cl s 452 828 m -18 X s 434 828 m cl s 452 828 m 18 X s 470 828 m cl s 452 828 m 36 Y s 452 864 m cl s 452 828 m -36 Y s
 452 792 m cl s 488 843 m -18 X s 470 843 m cl s 488 843 m 18 X s 506 843 m cl s 488 843 m 33 Y s 488 876 m cl s 488 843 m -34 Y s 488 809 m cl s 524 782 m -18 X s 506 782 m cl s 524 782 m 18 X s 542 782 m cl s 524 782 m 43 Y s 524 825 m cl s 524 782
 m -45 Y s 524 737 m cl s 560 770 m -18 X s 542 770 m cl s 560 770 m 18 X s 578 770 m cl s 560 770 m 45 Y s 560 815 m cl s 560 770 m -47 Y s 560 723 m cl s 596 820 m -18 X s 578 820 m cl s 596 820 m 18 X s 614 820 m cl s 596 820 m 37 Y s 596 857 m cl
 s 596 820 m -38 Y s 596 782 m cl s 632 802 m -18 X s 614 802 m cl s 632 802 m 17 X s 649 802 m cl s 632 802 m 40 Y s 632 842 m cl s 632 802 m -40 Y s 632 762 m cl s 667 802 m -18 X s 649 802 m cl s 667 802 m 18 X s 685 802 m cl s 667 802 m 40 Y s
 667 842 m cl s 667 802 m -40 Y s 667 762 m cl s 703 879 m -18 X s 685 879 m cl s 703 879 m 18 X s 721 879 m cl s 703 879 m 29 Y s 703 908 m cl s 703 879 m -29 Y s 703 850 m cl s 739 856 m -18 X s 721 856 m cl s 739 856 m 18 X s 757 856 m cl s 739
 856 m 32 Y s 739 888 m cl s 739 856 m -32 Y s 739 824 m cl s 775 874 m -18 X s 757 874 m cl s 775 874 m 18 X s 793 874 m cl s 775 874 m 30 Y s 775 904 m cl s 775 874 m -30 Y s 775 844 m cl s 811 879 m -18 X s 793 879 m cl s 811 879 m 18 X s 829 879
 m cl s 811 879 m 29 Y s 811 908 m cl s 811 879 m -29 Y s 811 850 m cl s 847 890 m -18 X s 829 890 m cl s 847 890 m 17 X s 864 890 m cl s 847 890 m 27 Y s 847 917 m cl s 847 890 m -29 Y s 847 861 m cl s 882 935 m -18 X s 864 935 m cl s 882 935 m 18 X
 s 900 935 m cl s 882 935 m 23 Y s 882 958 m cl s 882 935 m -23 Y s 882 912 m cl s 918 935 m -18 X s 900 935 m cl s 918 935 m 18 X s 936 935 m cl s 918 935 m 23 Y s 918 958 m cl s 918 935 m -23 Y s 918 912 m cl s 954 977 m -18 X s 936 977 m cl s 954
 977 m 18 X s 972 977 m cl s 954 977 m 19 Y s 954 996 m cl s 954 977 m -20 Y s 954 957 m cl s 990 989 m -18 X s 972 989 m cl s 990 989 m 18 X s 1008 989 m cl s 990 989 m 19 Y s 990 1008 m cl s 990 989 m -19 Y s 990 970 m cl s 1026 1011 m -18 X s 1008
 1011 m cl s 1026 1011 m 18 X s 1044 1011 m cl s 1026 1011 m 17 Y s 1026 1028 m cl s 1026 1011 m -18 Y s 1026 993 m cl s 1062 1041 m -18 X s 1044 1041 m cl s 1062 1041 m 17 X s 1079 1041 m cl s 1062 1041 m 15 Y s 1062 1056 m cl s 1062 1041 m -16 Y s
 1062 1025 m cl s 1097 1027 m -18 X s 1079 1027 m cl s 1097 1027 m 18 X s 1115 1027 m cl s 1097 1027 m 16 Y s 1097 1043 m cl s 1097 1027 m -16 Y s 1097 1011 m cl s 1133 1096 m -18 X s 1115 1096 m cl s 1133 1096 m 18 X s 1151 1096 m cl s 1133 1096 m
 11 Y s 1133 1107 m cl s 1133 1096 m -12 Y s 1133 1084 m cl s 1169 1119 m -18 X s 1151 1119 m cl s 1169 1119 m 18 X s 1187 1119 m cl s 1169 1119 m 10 Y s 1169 1129 m cl s 1169 1119 m -11 Y s 1169 1108 m cl s 1205 1146 m -18 X s 1187 1146 m cl s 1205
 1146 m 18 X s 1223 1146 m cl s 1205 1146 m 10 Y s 1205 1156 m cl s 1205 1146 m -9 Y s 1205 1137 m cl s 1241 1161 m -18 X s 1223 1161 m cl s 1241 1161 m 18 X s 1259 1161 m cl s 1241 1161 m 9 Y s 1241 1170 m cl s 1241 1161 m -9 Y s 1241 1152 m cl s
 1276 1193 m -17 X s 1259 1193 m cl s 1276 1193 m 18 X s 1294 1193 m cl s 1276 1193 m 8 Y s 1276 1201 m cl s 1276 1193 m -8 Y s 1276 1185 m cl s 1312 1233 m -18 X s 1294 1233 m cl s 1312 1233 m 18 X s 1330 1233 m cl s 1312 1233 m 7 Y s 1312 1240 m cl
 s 1312 1233 m -7 Y s 1312 1226 m cl s 1348 1274 m -18 X s 1330 1274 m cl s 1348 1274 m 18 X s 1366 1274 m cl s 1348 1274 m 6 Y s 1348 1280 m cl s 1348 1274 m -6 Y s 1348 1268 m cl s 1384 1310 m -18 X s 1366 1310 m cl s 1384 1310 m 18 X s 1402 1310 m
 cl s 1384 1310 m 5 Y s 1384 1315 m cl s 1384 1310 m -6 Y s 1384 1304 m cl s 1420 1352 m -18 X s 1402 1352 m cl s 1420 1352 m 18 X s 1438 1352 m cl s 1420 1352 m 5 Y s 1420 1357 m cl s 1420 1352 m -4 Y s 1420 1348 m cl s 1456 1373 m -18 X s 1438 1373
 m cl s 1456 1373 m 18 X s 1474 1373 m cl s 1456 1373 m 4 Y s 1456 1377 m cl s 1456 1373 m -4 Y s 1456 1369 m cl s 1491 1404 m -17 X s 1474 1404 m cl s 1491 1404 m 18 X s 1509 1404 m cl s 1491 1404 m 3 Y s 1491 1407 m cl s 1491 1404 m -4 Y s 1491
 1400 m cl s 1527 1419 m -18 X s 1509 1419 m cl s 1527 1419 m 18 X s 1545 1419 m cl s 1527 1419 m 4 Y s 1527 1423 m cl s 1527 1419 m -3 Y s 1527 1416 m cl s 1563 1417 m -18 X s 1545 1417 m cl s 1563 1417 m 18 X s 1581 1417 m cl s 1563 1417 m 3 Y s
 1563 1420 m cl s 1563 1417 m -4 Y s 1563 1413 m cl s 1599 1393 m -18 X s 1581 1393 m cl s 1599 1393 m 18 X s 1617 1393 m cl s 1599 1393 m 4 Y s 1599 1397 m cl s 1599 1393 m -4 Y s 1599 1389 m cl s 1635 1352 m -18 X s 1617 1352 m cl s 1635 1352 m 18
 X s 1653 1352 m cl s 1635 1352 m 4 Y s 1635 1356 m cl s 1635 1352 m -5 Y s 1635 1347 m cl s 1671 1312 m -18 X s 1653 1312 m cl s 1671 1312 m 18 X s 1689 1312 m cl s 1671 1312 m 5 Y s 1671 1317 m cl s 1671 1312 m -5 Y s 1671 1307 m cl s 1706 1253 m
 -17 X s 1689 1253 m cl s 1706 1253 m 18 X s 1724 1253 m cl s 1706 1253 m 6 Y s 1706 1259 m cl s 1706 1253 m -7 Y s 1706 1246 m cl s 1742 1197 m -18 X s 1724 1197 m cl s 1742 1197 m 18 X s 1760 1197 m cl s 1742 1197 m 8 Y s 1742 1205 m cl s 1742 1197
 m -8 Y s 1742 1189 m cl s 1778 1158 m -18 X s 1760 1158 m cl s 1778 1158 m 18 X s 1796 1158 m cl s 1778 1158 m 9 Y s 1778 1167 m cl s 1778 1158 m -9 Y s 1778 1149 m cl s 1814 1101 m -18 X s 1796 1101 m cl s 1814 1101 m 18 X s 1832 1101 m cl s 1814
 1101 m 11 Y s 1814 1112 m cl s 1814 1101 m -12 Y s 1814 1089 m cl s 1850 1047 m -18 X s 1832 1047 m cl s 1850 1047 m 18 X s 1868 1047 m cl s 1850 1047 m 15 Y s 1850 1062 m cl s 1850 1047 m -15 Y s 1850 1032 m cl s 1886 1002 m -18 X s 1868 1002 m cl
 s 1886 1002 m 18 X s 1904 1002 m cl s 1886 1002 m 18 Y s 1886 1020 m cl s 1886 1002 m -18 Y s 1886 984 m cl s 1921 935 m -17 X s 1904 935 m cl s 1921 935 m 18 X s 1939 935 m cl s 1921 935 m 23 Y s 1921 958 m cl s 1921 935 m -23 Y s 1921 912 m cl s
 1957 912 m -18 X s 1939 912 m cl s 1957 912 m 18 X s 1975 912 m cl s 1957 912 m 26 Y s 1957 938 m cl s 1957 912 m -25 Y s 1957 887 m cl s 1993 885 m -18 X s 1975 885 m cl s 1993 885 m 18 X s 2011 885 m cl s 1993 885 m 28 Y s 1993 913 m cl s 1993 885
 m -29 Y s 1993 856 m cl s 2029 868 m -18 X s 2011 868 m cl s 2029 868 m 18 X s 2047 868 m cl s 2029 868 m 31 Y s 2029 899 m cl s 2029 868 m -30 Y s 2029 838 m cl s 2065 793 m -18 X s 2047 793 m cl s 2065 793 m 18 X s 2083 793 m cl s 2065 793 m 41 Y
 s 2065 834 m cl s 2065 793 m -43 Y s 2065 750 m cl s 2101 770 m -18 X s 2083 770 m cl s 2101 770 m 18 X s 2119 770 m cl s 2101 770 m 45 Y s 2101 815 m cl s 2101 770 m -47 Y s 2101 723 m cl s 2136 744 m -17 X s 2119 744 m cl s 2136 744 m 18 X s 2154
 744 m cl s 2136 744 m 50 Y s 2136 794 m cl s 2136 744 m -53 Y s 2136 691 m cl s 381 665 417 710 452 828 488 843 524 782 560 770 596 820 632 802 667 802 703 879 739 856 775 874 811 879 847 890 882 935 918 935 954 977 990 989 1026 1011 1062 1041 1097
 1027 1133 1096 1169 1119 1205 1146 1241 1161 1276 1193 1312 1233 1348 1274 1384 1310 1420 1352 1456 1373 1491 1404 1527 1419 1563 1417 1599 1393 1635 1352 1671 1312 1706 1253 1742 1197 1778 1158 1814 1101 1850 1047 1886 1002 1921 935 1957 912 1993
 885 2029 868 2065 793 2101 770 2136 744 50 { m20} R 0.52 0.76 0.64 c[ 4 8] 0 sd 9 lw black 0.52 0.76 0.64 c 363 781 m 36 7 d 35 6 d 36 7 d 36 7 d 36 8 d 36 7 d 36 8 d 35 9 d 36 9 d 36 9 d 36 9 d 36 10 d 36 11 d 35 11 d 36 12 d 36 12 d 36 14 d 36 14
 d 36 15 d 35 17 d 36 19 d 36 20 d 36 22 d 36 25 d 36 29 d 17 17 d 18 17 d 18 20 d 18 21 d 9 12 d 9 12 d 9 13 d 9 15 d 9 15 d 5 8 d 4 8 d 9 17 d 9 15 d 18 27 d 18 24 d 18 19 d 9 8 d 9 7 d 9 6 d 8 5 d 9 4 d 9 2 d 9 2 d 9 1 d 9 X 9 -1 d 9 -3 d 9 -3 d 9
 -5 d 9 -5 d 9 -7 d 9 -7 d 9 -9 d 9 -9 d 36 -49 d 9 -15 d 9 -15 d 9 -17 d 9 -18 d 8 -19 d 9 -20 d 9 -21 d 9 -22 d 9 -23 d 9 -24 d 9 -25 d 9 -27 d 9 -27 d 9 -28 d 18 -60 d 18 -63 d 18 -68 d 36 -148 d 4 -21 d s 0.54 0.66 0.63 c black 0.54 0.66 0.63 c
 889 634 m 11 20 d s 900 654 m 36 57 d 36 55 d 36 51 d 18 24 d 18 23 d 18 23 d 17 21 d 18 21 d 18 20 d 18 19 d 18 19 d 18 17 d 18 17 d 18 15 d 18 15 d 36 28 d 35 24 d 36 20 d 36 17 d 18 7 d 18 7 d 18 5 d 18 5 d 18 4 d 18 3 d 17 2 d 18 2 d 36 X 18 -1
 d 18 -2 d 18 -3 d 18 -4 d 18 -4 d 18 -6 d 18 -6 d 18 -7 d 35 -17 d 36 -20 d 36 -23 d 36 -27 d 18 -15 d 18 -15 d 18 -17 d 18 -17 d 17 -18 d 18 -19 d 18 -20 d 18 -20 d 18 -22 d 18 -22 d 18 -23 d 18 -24 d 36 -51 d 36 -54 d 35 -57 d s black[  ] 0 sd 3
 lw 363 634 m 1791 X s 363 659 m -25 Y s 437 646 m -12 Y s 512 646 m -12 Y s 587 646 m -12 Y s 661 659 m -25 Y s 736 646 m -12 Y s 811 646 m -12 Y s 885 646 m -12 Y s 960 659 m -25 Y s 1035 646 m -12 Y s 1109 646 m -12 Y s 1184 646 m -12 Y s 1259 659
 m -25 Y s 1333 646 m -12 Y s 1408 646 m -12 Y s 1483 646 m -12 Y s 1557 659 m -25 Y s 1632 646 m -12 Y s 1706 646 m -12 Y s 1781 646 m -12 Y s 1856 659 m -25 Y s 1930 646 m -12 Y s 2005 646 m -12 Y s 2080 646 m -12 Y s 2154 659 m -25 Y s 363 1484 m
 1791 X s 363 1459 m 25 Y s 437 1471 m 13 Y s 512 1471 m 13 Y s 587 1471 m 13 Y s 661 1459 m 25 Y s 736 1471 m 13 Y s 811 1471 m 13 Y s 885 1471 m 13 Y s 960 1459 m 25 Y s 1035 1471 m 13 Y s 1109 1471 m 13 Y s 1184 1471 m 13 Y s 1259 1459 m 25 Y s
 1333 1471 m 13 Y s 1408 1471 m 13 Y s 1483 1471 m 13 Y s 1557 1459 m 25 Y s 1632 1471 m 13 Y s 1706 1471 m 13 Y s 1781 1471 m 13 Y s 1856 1459 m 25 Y s 1930 1471 m 13 Y s 2005 1471 m 13 Y s 2080 1471 m 13 Y s 2154 1459 m 25 Y s 363 634 m 850 Y s 390
 636 m -27 X s 390 665 m -27 X s 390 690 m -27 X s 390 710 m -27 X s 390 728 m -27 X s 390 744 m -27 X s 417 758 m -54 X s 390 850 m -27 X s 390 904 m -27 X s 390 942 m -27 X s 390 972 m -27 X s 390 996 m -27 X s 390 1016 m -27 X s 390 1034 m -27 X s
 390 1050 m -27 X s 417 1064 m -54 X s 390 1156 m -27 X s 390 1210 m -27 X s 390 1248 m -27 X s 390 1278 m -27 X s 390 1302 m -27 X s 390 1322 m -27 X s 390 1340 m -27 X s 390 1356 m -27 X s 417 1370 m -54 X s 390 1462 m -27 X s 2154 634 m 850 Y s
 2127 636 m 27 X s 2127 665 m 27 X s 2127 690 m 27 X s 2127 710 m 27 X s 2127 728 m 27 X s 2127 744 m 27 X s 2101 758 m 53 X s 2127 850 m 27 X s 2127 904 m 27 X s 2127 942 m 27 X s 2127 972 m 27 X s 2127 996 m 27 X s 2127 1016 m 27 X s 2127 1034 m 27
 X s 2127 1050 m 27 X s 2101 1064 m 53 X s 2127 1156 m 27 X s 2127 1210 m 27 X s 2127 1248 m 27 X s 2127 1278 m 27 X s 2127 1302 m 27 X s 2127 1322 m 27 X s 2127 1340 m 27 X s 2127 1356 m 27 X s 2101 1370 m 53 X s 2127 1462 m 27 X s
 gsave  2268 1077 0 461 C 677.708 1215.31 t 0 r /Helvetica findfont 58.7189 sf 0 0 m (2mu2e) show NC gr  1 1 1 c 453 161 454 1269 bf black
 gsave  2268 1077 0 461 C 566.929 1371.71 t 0 r /Helvetica-Bold findfont 48.9324 sf 0 0 m (MC15) show NC gr  510 1390 m20
 gsave  2268 1077 0 461 C 566.929 1293.51 t 0 r /Helvetica-Bold findfont 48.9324 sf 0 0 m (Projection of Signal pdf) show NC gr  0 0 1 c 9 lw 471 1309 m 79 X s black 3 lw 1 1 1 c 2268 461 0 0 bf black 1 1 1 c 1791 364 363 74 bf black 1791 364 363 74
 bl 363 74 m 1791 X s
 gsave  2268 461 0 0 C 1915.83 13.0329 t 0 r /Helvetica findfont 22.9045 sf 0 0 m (4l Invariant Mass \(GeV\)) show NC gr  363 85 m -11 Y s 437 79 m -5 Y s 512 79 m -5 Y s 587 79 m -5 Y s 661 85 m -11 Y s 736 79 m -5 Y s 811 79 m -5 Y s 885 79 m -5 Y
 s 960 85 m -11 Y s 1035 79 m -5 Y s 1109 79 m -5 Y s 1184 79 m -5 Y s 1259 85 m -11 Y s 1333 79 m -5 Y s 1408 79 m -5 Y s 1483 79 m -5 Y s 1557 85 m -11 Y s 1632 79 m -5 Y s 1706 79 m -5 Y s 1781 79 m -5 Y s 1856 85 m -11 Y s 1930 79 m -5 Y s 2005
 79 m -5 Y s 2080 79 m -5 Y s 2154 85 m -11 Y s
 gsave  2268 461 0 0 C 342.112 55.3896 t 0 r /Helvetica findfont 22.9045 sf 0 0 m (520) show NC gr 
 gsave  2268 461 0 0 C 641.868 55.3896 t 0 r /Helvetica findfont 22.9045 sf 0 0 m (540) show NC gr 
 gsave  2268 461 0 0 C 938.365 55.3896 t 0 r /Helvetica findfont 22.9045 sf 0 0 m (560) show NC gr 
 gsave  2268 461 0 0 C 1238.12 55.3896 t 0 r /Helvetica findfont 22.9045 sf 0 0 m (580) show NC gr 
 gsave  2268 461 0 0 C 1534.62 55.3896 t 0 r /Helvetica findfont 22.9045 sf 0 0 m (600) show NC gr 
 gsave  2268 461 0 0 C 1834.37 55.3896 t 0 r /Helvetica findfont 22.9045 sf 0 0 m (620) show NC gr 
 gsave  2268 461 0 0 C 2134.13 55.3896 t 0 r /Helvetica findfont 22.9045 sf 0 0 m (640) show NC gr  363 438 m 1791 X s 363 427 m 11 Y s 437 433 m 5 Y s 512 433 m 5 Y s 587 433 m 5 Y s 661 427 m 11 Y s 736 433 m 5 Y s 811 433 m 5 Y s 885 433 m 5 Y s
 960 427 m 11 Y s 1035 433 m 5 Y s 1109 433 m 5 Y s 1184 433 m 5 Y s 1259 427 m 11 Y s 1333 433 m 5 Y s 1408 433 m 5 Y s 1483 433 m 5 Y s 1557 427 m 11 Y s 1632 433 m 5 Y s 1706 433 m 5 Y s 1781 433 m 5 Y s 1856 427 m 11 Y s 1930 433 m 5 Y s 2005 433
 m 5 Y s 2080 433 m 5 Y s 2154 427 m 11 Y s 363 74 m 364 Y s 417 74 m -54 X s 390 81 m -27 X s 390 88 m -27 X s 390 96 m -27 X s 390 103 m -27 X s 417 110 m -54 X s 390 118 m -27 X s 390 125 m -27 X s 390 132 m -27 X s 390 139 m -27 X s 417 147 m -54
 X s 390 154 m -27 X s 390 161 m -27 X s 390 169 m -27 X s 390 176 m -27 X s 417 183 m -54 X s 390 190 m -27 X s 390 198 m -27 X s 390 205 m -27 X s 390 212 m -27 X s 417 220 m -54 X s 390 227 m -27 X s 390 234 m -27 X s 390 241 m -27 X s 390 249 m
 -27 X s 417 256 m -54 X s 390 263 m -27 X s 390 271 m -27 X s 390 278 m -27 X s 390 285 m -27 X s 417 293 m -54 X s 390 300 m -27 X s 390 307 m -27 X s 390 314 m -27 X s 390 322 m -27 X s 417 329 m -54 X s 390 336 m -27 X s 390 344 m -27 X s 390 351
 m -27 X s 390 358 m -27 X s 417 365 m -54 X s 390 373 m -27 X s 390 380 m -27 X s 390 387 m -27 X s 390 395 m -27 X s 417 402 m -54 X s 390 409 m -27 X s 390 416 m -27 X s 390 424 m -27 X s 390 431 m -27 X s 417 438 m -54 X s
 gsave  2268 461 0 0 C 329.08 65.1643 t 0 r /Helvetica findfont 22.9045 sf 0 0 m (\2555) show NC gr 
 gsave  2268 461 0 0 C 329.08 101.005 t 0 r /Helvetica findfont 22.9045 sf 0 0 m (\2554) show NC gr 
 gsave  2268 461 0 0 C 329.08 140.103 t 0 r /Helvetica findfont 22.9045 sf 0 0 m (\2553) show NC gr 
 gsave  2268 461 0 0 C 329.08 175.944 t 0 r /Helvetica findfont 22.9045 sf 0 0 m (\2552) show NC gr 
 gsave  2268 461 0 0 C 332.338 211.784 t 0 r /Helvetica findfont 22.9045 sf 0 0 m (\2551) show NC gr 
 gsave  2268 461 0 0 C 335.596 247.624 t 0 r /Helvetica findfont 22.9045 sf 0 0 m (0) show NC gr 
 gsave  2268 461 0 0 C 338.854 283.465 t 0 r /Helvetica findfont 22.9045 sf 0 0 m (1) show NC gr 
 gsave  2268 461 0 0 C 335.596 319.305 t 0 r /Helvetica findfont 22.9045 sf 0 0 m (2) show NC gr 
 gsave  2268 461 0 0 C 335.596 358.403 t 0 r /Helvetica findfont 22.9045 sf 0 0 m (3) show NC gr 
 gsave  2268 461 0 0 C 335.596 394.244 t 0 r /Helvetica findfont 22.9045 sf 0 0 m (4) show NC gr 
 gsave  2268 461 0 0 C 335.596 430.084 t 0 r /Helvetica findfont 22.9045 sf 0 0 m (5) show NC gr  2154 74 m 364 Y s 2101 74 m 53 X s 2127 81 m 27 X s 2127 88 m 27 X s 2127 96 m 27 X s 2127 103 m 27 X s 2101 110 m 53 X s 2127 118 m 27 X s 2127 125 m
 27 X s 2127 132 m 27 X s 2127 139 m 27 X s 2101 147 m 53 X s 2127 154 m 27 X s 2127 161 m 27 X s 2127 169 m 27 X s 2127 176 m 27 X s 2101 183 m 53 X s 2127 190 m 27 X s 2127 198 m 27 X s 2127 205 m 27 X s 2127 212 m 27 X s 2101 220 m 53 X s 2127 227
 m 27 X s 2127 234 m 27 X s 2127 241 m 27 X s 2127 249 m 27 X s 2101 256 m 53 X s 2127 263 m 27 X s 2127 271 m 27 X s 2127 278 m 27 X s 2127 285 m 27 X s 2101 293 m 53 X s 2127 300 m 27 X s 2127 307 m 27 X s 2127 314 m 27 X s 2127 322 m 27 X s 2101
 329 m 53 X s 2127 336 m 27 X s 2127 344 m 27 X s 2127 351 m 27 X s 2127 358 m 27 X s 2101 365 m 53 X s 2127 373 m 27 X s 2127 380 m 27 X s 2127 387 m 27 X s 2127 395 m 27 X s 2101 402 m 53 X s 2127 409 m 27 X s 2127 416 m 27 X s 2127 424 m 27 X s
 2127 431 m 27 X s 2101 438 m 53 X s 6 lw 0.2 0.8 0.2 c black 3 lw 0.2 0.8 0.2 c 363 256 m -78 Y 36 X 21 Y 35 X 88 Y 36 X 9 Y 36 X -64 Y 36 X -17 Y 36 X 34 Y 36 X -24 Y 35 X -9 Y 36 X 71 Y 36 X -41 Y 36 X 7 Y 36 X -9 Y 36 X -6 Y 35 X 42 Y 36 X -29 Y
 36 X 38 Y 36 X -17 Y 36 X -4 Y 36 X 12 Y 35 X -96 Y 36 X 106 Y 36 X -12 Y 36 X 3 Y 36 X -51 Y 36 X 14 Y 35 X 48 Y 36 X 43 Y 36 X -47 Y 36 X -26 Y 36 X -129 Y 36 X 75 Y 35 X 76 Y 36 X 37 Y 36 X -37 Y 36 X -67 Y 36 X 44 Y 36 X -31 Y 35 X 11 Y 36 X 64
 Y 36 X -33 Y 36 X -30 Y 36 X -11 Y 36 X -44 Y 35 X 35 Y 36 X 23 Y 36 X 36 Y 36 X -31 Y 36 X 25 Y 36 X 17 Y 35 X -36 Y f 6 lw black 0.2 0.8 0.2 c black 363 178 m 36 X 21 Y 35 X 88 Y 36 X 9 Y 36 X -64 Y 36 X -17 Y 36 X 34 Y 36 X -24 Y 35 X -9 Y 36 X
 71 Y 36 X -41 Y 36 X 7 Y 36 X -9 Y 36 X -6 Y 35 X 42 Y 36 X -29 Y 36 X 38 Y 36 X -17 Y 36 X -4 Y 36 X 12 Y 35 X -96 Y 36 X 106 Y 36 X -12 Y 36 X 3 Y 36 X -51 Y 36 X 14 Y 35 X 48 Y 36 X 43 Y 36 X -47 Y 36 X -26 Y 36 X -129 Y 36 X 75 Y 35 X 76 Y 36 X
 37 Y 36 X -37 Y 36 X -67 Y 36 X 44 Y 36 X -31 Y 35 X 11 Y 36 X 64 Y 36 X -33 Y 36 X -30 Y 36 X -11 Y 36 X -44 Y 35 X 35 Y 36 X 23 Y 36 X 36 Y 36 X -31 Y 36 X 25 Y 36 X 17 Y 35 X s 3 lw 363 74 m 1791 X s 363 85 m -11 Y s 437 79 m -5 Y s 512 79 m -5 Y
 s 587 79 m -5 Y s 661 85 m -11 Y s 736 79 m -5 Y s 811 79 m -5 Y s 885 79 m -5 Y s 960 85 m -11 Y s 1035 79 m -5 Y s 1109 79 m -5 Y s 1184 79 m -5 Y s 1259 85 m -11 Y s 1333 79 m -5 Y s 1408 79 m -5 Y s 1483 79 m -5 Y s 1557 85 m -11 Y s 1632 79 m
 -5 Y s 1706 79 m -5 Y s 1781 79 m -5 Y s 1856 85 m -11 Y s 1930 79 m -5 Y s 2005 79 m -5 Y s 2080 79 m -5 Y s 2154 85 m -11 Y s 363 438 m 1791 X s 363 427 m 11 Y s 437 433 m 5 Y s 512 433 m 5 Y s 587 433 m 5 Y s 661 427 m 11 Y s 736 433 m 5 Y s 811
 433 m 5 Y s 885 433 m 5 Y s 960 427 m 11 Y s 1035 433 m 5 Y s 1109 433 m 5 Y s 1184 433 m 5 Y s 1259 427 m 11 Y s 1333 433 m 5 Y s 1408 433 m 5 Y s 1483 433 m 5 Y s 1557 427 m 11 Y s 1632 433 m 5 Y s 1706 433 m 5 Y s 1781 433 m 5 Y s 1856 427 m 11 Y
 s 1930 433 m 5 Y s 2005 433 m 5 Y s 2080 433 m 5 Y s 2154 427 m 11 Y s 363 74 m 364 Y s 417 74 m -54 X s 390 81 m -27 X s 390 88 m -27 X s 390 96 m -27 X s 390 103 m -27 X s 417 110 m -54 X s 390 118 m -27 X s 390 125 m -27 X s 390 132 m -27 X s 390
 139 m -27 X s 417 147 m -54 X s 390 154 m -27 X s 390 161 m -27 X s 390 169 m -27 X s 390 176 m -27 X s 417 183 m -54 X s 390 190 m -27 X s 390 198 m -27 X s 390 205 m -27 X s 390 212 m -27 X s 417 220 m -54 X s 390 227 m -27 X s 390 234 m -27 X s
 390 241 m -27 X s 390 249 m -27 X s 417 256 m -54 X s 390 263 m -27 X s 390 271 m -27 X s 390 278 m -27 X s 390 285 m -27 X s 417 293 m -54 X s 390 300 m -27 X s 390 307 m -27 X s 390 314 m -27 X s 390 322 m -27 X s 417 329 m -54 X s 390 336 m -27 X
 s 390 344 m -27 X s 390 351 m -27 X s 390 358 m -27 X s 417 365 m -54 X s 390 373 m -27 X s 390 380 m -27 X s 390 387 m -27 X s 390 395 m -27 X s 417 402 m -54 X s 390 409 m -27 X s 390 416 m -27 X s 390 424 m -27 X s 390 431 m -27 X s 417 438 m -54
 X s 2154 74 m 364 Y s 2101 74 m 53 X s 2127 81 m 27 X s 2127 88 m 27 X s 2127 96 m 27 X s 2127 103 m 27 X s 2101 110 m 53 X s 2127 118 m 27 X s 2127 125 m 27 X s 2127 132 m 27 X s 2127 139 m 27 X s 2101 147 m 53 X s 2127 154 m 27 X s 2127 161 m 27 X
 s 2127 169 m 27 X s 2127 176 m 27 X s 2101 183 m 53 X s 2127 190 m 27 X s 2127 198 m 27 X s 2127 205 m 27 X s 2127 212 m 27 X s 2101 220 m 53 X s 2127 227 m 27 X s 2127 234 m 27 X s 2127 241 m 27 X s 2127 249 m 27 X s 2101 256 m 53 X s 2127 263 m 27
 X s 2127 271 m 27 X s 2127 278 m 27 X s 2127 285 m 27 X s 2101 293 m 53 X s 2127 300 m 27 X s 2127 307 m 27 X s 2127 314 m 27 X s 2127 322 m 27 X s 2101 329 m 53 X s 2127 336 m 27 X s 2127 344 m 27 X s 2127 351 m 27 X s 2127 358 m 27 X s 2101 365 m
 53 X s 2127 373 m 27 X s 2127 380 m 27 X s 2127 387 m 27 X s 2127 395 m 27 X s 2101 402 m 53 X s 2127 409 m 27 X s 2127 416 m 27 X s 2127 424 m 27 X s 2127 431 m 27 X s 2101 438 m 53 X s
 gr  gr showpage
end
%%EOF
