%!PS-Adobe-2.0 EPSF-2.0
%%BoundingBox:  0 0 567 384
%%Title: H4l2015_plotfit/gg_mass_signal_800_fixed_H4l_4e.eps: 
%%Creator: ROOT Version 5.34/10
%%CreationDate: Thu Feb 16 13:48:33 2017
%%EndComments
%%BeginProlog
80 dict begin
/s {stroke} def /l {lineto} def /m {moveto} def /t {translate} def
/r {rotate} def /rl {roll}  def /R {repeat} def
/d {rlineto} def /rm {rmoveto} def /gr {grestore} def /f {eofill} def
/c {setrgbcolor} def /black {0 setgray} def /sd {setdash} def
/cl {closepath} def /sf {scalefont setfont} def /lw {setlinewidth} def
/box {m dup 0 exch d exch 0 d 0 exch neg d cl} def
/NC{systemdict begin initclip end}def/C{NC box clip newpath}def
/bl {box s} def /bf {box f} def /Y { 0 exch d} def /X { 0 d} def 
/K {{pop pop 0 moveto} exch kshow} bind def
/ita {/ang 15 def gsave [1 0 ang dup sin exch cos div 1 0 0] concat} def 
/mp {newpath /y exch def /x exch def} def
/side {[w .77 mul w .23 mul] .385 w mul sd w 0 l currentpoint t -144 r} def
/mr {mp x y w2 0 360 arc} def /m24 {mr s} def /m20 {mr f} def
/mb {mp x y w2 add m w2 neg 0 d 0 w neg d w 0 d 0 w d cl} def
/mt {mp x y w2 add m w2 neg w neg d w 0 d cl} def
/m21 {mb f} def /m25 {mb s} def /m22 {mt f} def /m26{mt s} def
/m23 {mp x y w2 sub m w2 w d w neg 0 d cl f} def
/m27 {mp x y w2 add m w3 neg w2 neg d w3 w2 neg d w3 w2 d cl s} def
/m28 {mp x w2 sub y w2 sub w3 add m w3 0 d  0 w3 neg d w3 0 d 0 w3 d w3 0 d  0 w3 d w3 neg 0 d 0 w3 d w3 neg 0 d 0 w3 neg d w3 neg 0 d cl s } def
/m29 {mp gsave x w2 sub y w2 add w3 sub m currentpoint t 4 {side} repeat cl fill gr} def
/m30 {mp gsave x w2 sub y w2 add w3 sub m currentpoint t 4 {side} repeat cl s gr} def
/m31 {mp x y w2 sub m 0 w d x w2 sub y m w 0 d x w2 sub y w2 add m w w neg d x w2 sub y w2 sub m w w d s} def
/m32 {mp x y w2 sub m w2 w d w neg 0 d cl s} def
/m33 {mp x y w2 add m w3 neg w2 neg d w3 w2 neg d w3 w2 d cl f} def
/m34 {mp x w2 sub y w2 sub w3 add m w3 0 d  0 w3 neg d w3 0 d 0 w3 d w3 0 d  0 w3 d w3 neg 0 d 0 w3 d w3 neg 0 d 0 w3 neg d w3 neg 0 d cl f } def
/m2 {mp x y w2 sub m 0 w d x w2 sub y m w 0 d s} def
/m5 {mp x w2 sub y w2 sub m w w d x w2 sub y w2 add m w w neg d s} def
/reEncode {exch findfont dup length dict begin {1 index /FID eq  {pop pop} {def} ifelse } forall /Encoding exch def currentdict end dup /FontName get exch definefont pop } def [/Times-Bold /Times-Italic /Times-BoldItalic /Helvetica /Helvetica-Oblique
 /Helvetica-Bold /Helvetica-BoldOblique /Courier /Courier-Oblique /Courier-Bold /Courier-BoldOblique /Times-Roman /AvantGarde-Book /AvantGarde-BookOblique /AvantGarde-Demi /AvantGarde-DemiOblique /Bookman-Demi /Bookman-DemiItalic /Bookman-Light
 /Bookman-LightItalic /Helvetica-Narrow /Helvetica-Narrow-Bold /Helvetica-Narrow-BoldOblique /Helvetica-Narrow-Oblique /NewCenturySchlbk-Roman /NewCenturySchlbk-Bold /NewCenturySchlbk-BoldItalic /NewCenturySchlbk-Italic /Palatino-Bold
 /Palatino-BoldItalic /Palatino-Italic /Palatino-Roman ] {ISOLatin1Encoding reEncode } forall
%%EndProlog
%%BeginSetup
%%EndSetup
newpath  gsave  .25 .25 scale  gsave  0 0 t black[  ] 0 sd 3 lw 1 1 1 c 2268 1538 0 0 bf black 1 1 1 c 2222 738 23 784 bf black 1 1 1 c 2222 739 23 15 bf black 1 1 1 c 2268 1077 0 461 bf black 1 1 1 c 1791 850 363 634 bf black 1791 850 363 634 bl 363
 634 m 1791 X s
 gsave  2268 1077 0 461 C 1642.14 498.507 t 0 r /Helvetica findfont 48.9324 sf 0 0 m (4l Invariant Mass \(GeV\)) show NC gr  473 659 m -25 Y s 518 646 m -12 Y s 562 646 m -12 Y s 606 646 m -12 Y s 650 646 m -12 Y s 695 659 m -25 Y s 739 646 m -12 Y s
 783 646 m -12 Y s 827 646 m -12 Y s 872 646 m -12 Y s 916 659 m -25 Y s 960 646 m -12 Y s 1004 646 m -12 Y s 1048 646 m -12 Y s 1093 646 m -12 Y s 1137 659 m -25 Y s 1181 646 m -12 Y s 1225 646 m -12 Y s 1270 646 m -12 Y s 1314 646 m -12 Y s 1358
 659 m -25 Y s 1402 646 m -12 Y s 1447 646 m -12 Y s 1491 646 m -12 Y s 1535 646 m -12 Y s 1579 659 m -25 Y s 1624 646 m -12 Y s 1668 646 m -12 Y s 1712 646 m -12 Y s 1756 646 m -12 Y s 1800 659 m -25 Y s 1845 646 m -12 Y s 1889 646 m -12 Y s 1933
 646 m -12 Y s 1977 646 m -12 Y s 2022 659 m -25 Y s 473 659 m -25 Y s 429 646 m -12 Y s 385 646 m -12 Y s 2022 659 m -25 Y s 2066 646 m -12 Y s 2110 646 m -12 Y s
 gsave  2268 1077 0 461 C 430.084 586.478 t 0 r /Helvetica findfont 48.9324 sf 0 0 m (750) show NC gr 
 gsave  2268 1077 0 461 C 651.643 586.478 t 0 r /Helvetica findfont 48.9324 sf 0 0 m (760) show NC gr 
 gsave  2268 1077 0 461 C 873.201 586.478 t 0 r /Helvetica findfont 48.9324 sf 0 0 m (770) show NC gr 
 gsave  2268 1077 0 461 C 1091.5 586.478 t 0 r /Helvetica findfont 48.9324 sf 0 0 m (780) show NC gr 
 gsave  2268 1077 0 461 C 1313.06 586.478 t 0 r /Helvetica findfont 48.9324 sf 0 0 m (790) show NC gr 
 gsave  2268 1077 0 461 C 1534.62 586.478 t 0 r /Helvetica findfont 48.9324 sf 0 0 m (800) show NC gr 
 gsave  2268 1077 0 461 C 1756.18 586.478 t 0 r /Helvetica findfont 48.9324 sf 0 0 m (810) show NC gr 
 gsave  2268 1077 0 461 C 1977.74 586.478 t 0 r /Helvetica findfont 48.9324 sf 0 0 m (820) show NC gr  363 1484 m 1791 X s 473 1459 m 25 Y s 518 1471 m 13 Y s 562 1471 m 13 Y s 606 1471 m 13 Y s 650 1471 m 13 Y s 695 1459 m 25 Y s 739 1471 m 13 Y s
 783 1471 m 13 Y s 827 1471 m 13 Y s 872 1471 m 13 Y s 916 1459 m 25 Y s 960 1471 m 13 Y s 1004 1471 m 13 Y s 1048 1471 m 13 Y s 1093 1471 m 13 Y s 1137 1459 m 25 Y s 1181 1471 m 13 Y s 1225 1471 m 13 Y s 1270 1471 m 13 Y s 1314 1471 m 13 Y s 1358
 1459 m 25 Y s 1402 1471 m 13 Y s 1447 1471 m 13 Y s 1491 1471 m 13 Y s 1535 1471 m 13 Y s 1579 1459 m 25 Y s 1624 1471 m 13 Y s 1668 1471 m 13 Y s 1712 1471 m 13 Y s 1756 1471 m 13 Y s 1800 1459 m 25 Y s 1845 1471 m 13 Y s 1889 1471 m 13 Y s 1933
 1471 m 13 Y s 1977 1471 m 13 Y s 2022 1459 m 25 Y s 473 1459 m 25 Y s 429 1471 m 13 Y s 385 1471 m 13 Y s 2022 1459 m 25 Y s 2066 1471 m 13 Y s 2110 1471 m 13 Y s 363 634 m 850 Y s
 gsave  2268 1077 0 461 C 120.554 1032.85 t 90 r /Helvetica findfont 48.9324 sf 0 0 m (Events / \( 1.62 GeV \)) show NC gr  390 659 m -27 X s 390 713 m -27 X s 390 751 m -27 X s 390 781 m -27 X s 390 805 m -27 X s 390 826 m -27 X s 390 844 m -27 X s
 390 859 m -27 X s 417 873 m -54 X s
 gsave  2268 1077 0 461 C 342.425 852.404 t 0 r  -55 0 t /Helvetica findfont 48.9324 sf 0 0 m (10) show NC gr  390 965 m -27 X s 390 1019 m -27 X s 390 1058 m -27 X s 390 1087 m -27 X s 390 1111 m -27 X s 390 1132 m -27 X s 390 1150 m -27 X s 390
 1165 m -27 X s 417 1179 m -54 X s
 gsave  2268 1077 0 461 C 322.563 1176.21 t 0 r /Helvetica findfont 32.6216 sf 0 0 m (2) show NC gr 
 gsave  2268 1077 0 461 C 270.432 1156.67 t 0 r /Helvetica findfont 48.9324 sf 0 0 m (10) show NC gr  390 1272 m -27 X s 390 1325 m -27 X s 390 1364 m -27 X s 390 1393 m -27 X s 390 1418 m -27 X s 390 1438 m -27 X s 390 1456 m -27 X s 390 1471 m -27
 X s 2154 634 m 850 Y s 2127 659 m 27 X s 2127 713 m 27 X s 2127 751 m 27 X s 2127 781 m 27 X s 2127 805 m 27 X s 2127 826 m 27 X s 2127 844 m 27 X s 2127 859 m 27 X s 2101 873 m 53 X s 2127 965 m 27 X s 2127 1019 m 27 X s 2127 1058 m 27 X s 2127
 1087 m 27 X s 2127 1111 m 27 X s 2127 1132 m 27 X s 2127 1150 m 27 X s 2127 1165 m 27 X s 2101 1179 m 53 X s 2127 1272 m 27 X s 2127 1325 m 27 X s 2127 1364 m 27 X s 2127 1393 m 27 X s 2127 1418 m 27 X s 2127 1438 m 27 X s 2127 1456 m 27 X s 2127
 1471 m 27 X s 381 713 m -18 X s 363 713 m cl s 381 713 m 18 X s 399 713 m cl s 381 713 m 91 Y s 381 804 m cl s 381 713 m -79 Y s 381 634 m cl s 417 805 m -18 X s 399 805 m cl s 417 805 m 17 X s 434 805 m cl s 417 805 m 63 Y s 417 868 m cl s 417 805
 m -67 Y s 417 738 m cl s 452 781 m -18 X s 434 781 m cl s 452 781 m 18 X s 470 781 m cl s 452 781 m 69 Y s 452 850 m cl s 452 781 m -75 Y s 452 706 m cl s 488 634 m -18 X s 470 634 m cl s 488 634 m 18 X s 506 634 m cl s 524 844 m -18 X s 506 844 m
 cl s 524 844 m 18 X s 542 844 m cl s 524 844 m 53 Y s 524 897 m cl s 524 844 m -57 Y s 524 787 m cl s 560 751 m -18 X s 542 751 m cl s 560 751 m 18 X s 578 751 m cl s 560 751 m 78 Y s 560 829 m cl s 560 751 m -86 Y s 560 665 m cl s 596 826 m -18 X s
 578 826 m cl s 596 826 m 18 X s 614 826 m cl s 596 826 m 57 Y s 596 883 m cl s 596 826 m -61 Y s 596 765 m cl s 632 908 m -18 X s 614 908 m cl s 632 908 m 17 X s 649 908 m cl s 632 908 m 41 Y s 632 949 m cl s 632 908 m -42 Y s 632 866 m cl s 667 826
 m -18 X s 649 826 m cl s 667 826 m 18 X s 685 826 m cl s 667 826 m 57 Y s 667 883 m cl s 667 826 m -61 Y s 667 765 m cl s 703 927 m -18 X s 685 927 m cl s 703 927 m 18 X s 721 927 m cl s 703 927 m 38 Y s 703 965 m cl s 703 927 m -39 Y s 703 888 m cl
 s 739 908 m -18 X s 721 908 m cl s 739 908 m 18 X s 757 908 m cl s 739 908 m 41 Y s 739 949 m cl s 739 908 m -42 Y s 739 866 m cl s 775 844 m -18 X s 757 844 m cl s 775 844 m 18 X s 793 844 m cl s 775 844 m 53 Y s 775 897 m cl s 775 844 m -57 Y s
 775 787 m cl s 811 936 m -18 X s 793 936 m cl s 811 936 m 18 X s 829 936 m cl s 811 936 m 36 Y s 811 972 m cl s 811 936 m -38 Y s 811 898 m cl s 847 951 m -18 X s 829 951 m cl s 847 951 m 17 X s 864 951 m cl s 847 951 m 35 Y s 847 986 m cl s 847 951
 m -35 Y s 847 916 m cl s 882 886 m -18 X s 864 886 m cl s 882 886 m 18 X s 900 886 m cl s 882 886 m 45 Y s 882 931 m cl s 882 886 m -47 Y s 882 839 m cl s 918 951 m -18 X s 900 951 m cl s 918 951 m 18 X s 936 951 m cl s 918 951 m 35 Y s 918 986 m cl
 s 918 951 m -35 Y s 918 916 m cl s 954 990 m -18 X s 936 990 m cl s 954 990 m 18 X s 972 990 m cl s 954 990 m 29 Y s 954 1019 m cl s 954 990 m -30 Y s 954 960 m cl s 990 1015 m -18 X s 972 1015 m cl s 990 1015 m 18 X s 1008 1015 m cl s 990 1015 m 26
 Y s 990 1041 m cl s 990 1015 m -27 Y s 990 988 m cl s 1026 1051 m -18 X s 1008 1051 m cl s 1026 1051 m 18 X s 1044 1051 m cl s 1026 1051 m 23 Y s 1026 1074 m cl s 1026 1051 m -24 Y s 1026 1027 m cl s 1062 1040 m -18 X s 1044 1040 m cl s 1062 1040 m
 17 X s 1079 1040 m cl s 1062 1040 m 24 Y s 1062 1064 m cl s 1062 1040 m -25 Y s 1062 1015 m cl s 1097 1107 m -18 X s 1079 1107 m cl s 1097 1107 m 18 X s 1115 1107 m cl s 1097 1107 m 18 Y s 1097 1125 m cl s 1097 1107 m -19 Y s 1097 1088 m cl s 1133
 1095 m -18 X s 1115 1095 m cl s 1133 1095 m 18 X s 1151 1095 m cl s 1133 1095 m 19 Y s 1133 1114 m cl s 1133 1095 m -20 Y s 1133 1075 m cl s 1169 1116 m -18 X s 1151 1116 m cl s 1169 1116 m 18 X s 1187 1116 m cl s 1169 1116 m 18 Y s 1169 1134 m cl s
 1169 1116 m -18 Y s 1169 1098 m cl s 1205 1164 m -18 X s 1187 1164 m cl s 1205 1164 m 18 X s 1223 1164 m cl s 1205 1164 m 15 Y s 1205 1179 m cl s 1205 1164 m -15 Y s 1205 1149 m cl s 1241 1223 m -18 X s 1223 1223 m cl s 1241 1223 m 18 X s 1259 1223
 m cl s 1241 1223 m 11 Y s 1241 1234 m cl s 1241 1223 m -11 Y s 1241 1212 m cl s 1276 1221 m -17 X s 1259 1221 m cl s 1276 1221 m 18 X s 1294 1221 m cl s 1276 1221 m 12 Y s 1276 1233 m cl s 1276 1221 m -11 Y s 1276 1210 m cl s 1312 1260 m -18 X s
 1294 1260 m cl s 1312 1260 m 18 X s 1330 1260 m cl s 1312 1260 m 10 Y s 1312 1270 m cl s 1312 1260 m -10 Y s 1312 1250 m cl s 1348 1294 m -18 X s 1330 1294 m cl s 1348 1294 m 18 X s 1366 1294 m cl s 1348 1294 m 8 Y s 1348 1302 m cl s 1348 1294 m -9
 Y s 1348 1285 m cl s 1384 1330 m -18 X s 1366 1330 m cl s 1384 1330 m 18 X s 1402 1330 m cl s 1384 1330 m 7 Y s 1384 1337 m cl s 1384 1330 m -8 Y s 1384 1322 m cl s 1420 1357 m -18 X s 1402 1357 m cl s 1420 1357 m 18 X s 1438 1357 m cl s 1420 1357 m
 7 Y s 1420 1364 m cl s 1420 1357 m -7 Y s 1420 1350 m cl s 1456 1395 m -18 X s 1438 1395 m cl s 1456 1395 m 18 X s 1474 1395 m cl s 1456 1395 m 6 Y s 1456 1401 m cl s 1456 1395 m -5 Y s 1456 1390 m cl s 1491 1399 m -17 X s 1474 1399 m cl s 1491 1399
 m 18 X s 1509 1399 m cl s 1491 1399 m 5 Y s 1491 1404 m cl s 1491 1399 m -6 Y s 1491 1393 m cl s 1527 1418 m -18 X s 1509 1418 m cl s 1527 1418 m 18 X s 1545 1418 m cl s 1527 1418 m 6 Y s 1527 1424 m cl s 1527 1418 m -5 Y s 1527 1413 m cl s 1563
 1409 m -18 X s 1545 1409 m cl s 1563 1409 m 18 X s 1581 1409 m cl s 1563 1409 m 6 Y s 1563 1415 m cl s 1563 1409 m -5 Y s 1563 1404 m cl s 1599 1401 m -18 X s 1581 1401 m cl s 1599 1401 m 18 X s 1617 1401 m cl s 1599 1401 m 6 Y s 1599 1407 m cl s
 1599 1401 m -5 Y s 1599 1396 m cl s 1635 1382 m -18 X s 1617 1382 m cl s 1635 1382 m 18 X s 1653 1382 m cl s 1635 1382 m 6 Y s 1635 1388 m cl s 1635 1382 m -7 Y s 1635 1375 m cl s 1671 1339 m -18 X s 1653 1339 m cl s 1671 1339 m 18 X s 1689 1339 m
 cl s 1671 1339 m 7 Y s 1671 1346 m cl s 1671 1339 m -7 Y s 1671 1332 m cl s 1706 1310 m -17 X s 1689 1310 m cl s 1706 1310 m 18 X s 1724 1310 m cl s 1706 1310 m 9 Y s 1706 1319 m cl s 1706 1310 m -8 Y s 1706 1302 m cl s 1742 1265 m -18 X s 1724 1265
 m cl s 1742 1265 m 18 X s 1760 1265 m cl s 1742 1265 m 10 Y s 1742 1275 m cl s 1742 1265 m -9 Y s 1742 1256 m cl s 1778 1216 m -18 X s 1760 1216 m cl s 1778 1216 m 18 X s 1796 1216 m cl s 1778 1216 m 12 Y s 1778 1228 m cl s 1778 1216 m -11 Y s 1778
 1205 m cl s 1814 1141 m -18 X s 1796 1141 m cl s 1814 1141 m 18 X s 1832 1141 m cl s 1814 1141 m 16 Y s 1814 1157 m cl s 1814 1141 m -16 Y s 1814 1125 m cl s 1850 1100 m -18 X s 1832 1100 m cl s 1850 1100 m 18 X s 1868 1100 m cl s 1850 1100 m 19 Y s
 1850 1119 m cl s 1850 1100 m -19 Y s 1850 1081 m cl s 1886 1024 m -18 X s 1868 1024 m cl s 1886 1024 m 18 X s 1904 1024 m cl s 1886 1024 m 25 Y s 1886 1049 m cl s 1886 1024 m -26 Y s 1886 998 m cl s 1921 990 m -17 X s 1904 990 m cl s 1921 990 m 18 X
 s 1939 990 m cl s 1921 990 m 29 Y s 1921 1019 m cl s 1921 990 m -30 Y s 1921 960 m cl s 1957 936 m -18 X s 1939 936 m cl s 1957 936 m 18 X s 1975 936 m cl s 1957 936 m 36 Y s 1957 972 m cl s 1957 936 m -38 Y s 1957 898 m cl s 1993 944 m -18 X s 1975
 944 m cl s 1993 944 m 18 X s 2011 944 m cl s 1993 944 m 35 Y s 1993 979 m cl s 1993 944 m -37 Y s 1993 907 m cl s 2029 944 m -18 X s 2011 944 m cl s 2029 944 m 18 X s 2047 944 m cl s 2029 944 m 35 Y s 2029 979 m cl s 2029 944 m -37 Y s 2029 907 m cl
 s 2065 844 m -18 X s 2047 844 m cl s 2065 844 m 18 X s 2083 844 m cl s 2065 844 m 53 Y s 2065 897 m cl s 2065 844 m -57 Y s 2065 787 m cl s 2101 751 m -18 X s 2083 751 m cl s 2101 751 m 18 X s 2119 751 m cl s 2101 751 m 78 Y s 2101 829 m cl s 2101
 751 m -86 Y s 2101 665 m cl s /w 31 def /w2 {w 2 div} def /w3 {w 3 div} def 381 713 417 805 452 781 3 { m20} R 524 844 560 751 596 826 632 908 667 826 703 927 739 908 775 844 811 936 847 951 882 886 918 951 954 990 990 1015 1026 1051 1062 1040 1097
 1107 1133 1095 1169 1116 1205 1164 1241 1223 1276 1221 1312 1260 1348 1294 1384 1330 1420 1357 1456 1395 1491 1399 1527 1418 1563 1409 1599 1401 1635 1382 1671 1339 1706 1310 1742 1265 1778 1216 1814 1141 1850 1100 1886 1024 1921 990 1957 936 1993
 944 2029 944 2065 844 2101 751 45 { m20} R 0 1 1 c 1 1 0 c black 1 1 0 c 363 782 m 36 8 d 35 8 d 36 8 d 36 9 d 36 9 d 36 9 d 36 10 d 35 10 d 36 11 d 36 12 d 36 12 d 36 13 d 36 14 d 35 16 d 36 18 d 36 19 d 36 21 d 36 23 d 36 24 d 35 26 d 36 27 d 36
 28 d 36 29 d 36 29 d 18 15 d 18 15 d 17 16 d 18 16 d 18 16 d 9 9 d 9 9 d 9 10 d 9 9 d 9 11 d 9 10 d 18 22 d 18 19 d 18 18 d 18 15 d 9 6 d 9 6 d 9 5 d 9 5 d 9 4 d 8 3 d 9 3 d 9 2 d 9 1 d 9 1 d 9 X 9 -1 d 9 -1 d 9 -2 d 9 -3 d 9 -3 d 9 -4 d 9 -5 d 9 -5
 d 9 -6 d 18 -14 d 18 -16 d 18 -19 d 18 -20 d 17 -23 d 18 -25 d 9 -12 d 9 -13 d 9 -14 d 9 -14 d 18 -28 d 18 -28 d 18 -29 d 18 -28 d 18 -28 d 18 -27 d 18 -27 d 18 -25 d 35 -49 d 36 -48 d 36 -49 d 36 -51 d 36 -53 d 36 -57 d 35 -59 d -35 59 d -36 57 d
 -36 53 d -36 51 d -36 49 d -36 48 d -35 49 d -18 25 d -18 27 d -18 27 d -18 28 d -18 28 d -18 29 d -18 28 d -18 28 d -9 14 d -9 14 d -9 13 d -9 12 d -18 25 d -17 23 d -18 20 d -18 19 d -18 16 d -18 14 d -9 6 d -9 5 d -9 5 d -9 4 d -9 3 d -9 3 d -9 2
 d -9 1 d -9 1 d -9 X -9 -1 d -9 -1 d -9 -2 d -9 -3 d -8 -3 d -9 -4 d -9 -5 d -9 -5 d -9 -6 d -9 -6 d -18 -15 d -18 -18 d -18 -19 d -18 -22 d -9 -10 d -9 -11 d -9 -9 d -9 -10 d -9 -9 d -9 -9 d -18 -16 d -18 -16 d -17 -16 d -18 -15 d -18 -15 d -36 -29
 d -36 -29 d -36 -28 d -36 -27 d -35 -26 d -36 -24 d -36 -23 d -36 -21 d -36 -19 d -36 -18 d -35 -16 d -36 -14 d -36 -13 d -36 -12 d -36 -12 d -36 -11 d -35 -10 d -36 -10 d -36 -9 d -36 -9 d -36 -9 d -36 -8 d -35 -8 d -36 -8 d f 0 1 1 c 0 1 0 c black
 0 1 0 c 363 782 m 36 8 d 35 8 d 36 8 d 36 9 d 36 9 d 36 9 d 36 10 d 35 10 d 36 11 d 36 12 d 36 12 d 36 13 d 36 14 d 35 16 d 36 18 d 36 19 d 36 21 d 36 23 d 36 24 d 35 26 d 36 27 d 36 28 d 36 29 d 36 29 d 18 15 d 18 15 d 17 16 d 18 16 d 18 16 d 9 9 d
 9 9 d 9 10 d 9 9 d 9 11 d 9 10 d 18 22 d 18 19 d 18 18 d 18 15 d 9 6 d 9 6 d 9 5 d 9 5 d 9 4 d 8 3 d 9 3 d 9 2 d 9 1 d 9 1 d 9 X 9 -1 d 9 -1 d 9 -2 d 9 -3 d 9 -3 d 9 -4 d 9 -5 d 9 -5 d 9 -6 d 18 -14 d 18 -16 d 18 -19 d 18 -20 d 17 -23 d 18 -25 d 9
 -12 d 9 -13 d 9 -14 d 9 -14 d 18 -28 d 18 -28 d 18 -29 d 18 -28 d 18 -28 d 18 -27 d 18 -27 d 18 -25 d 35 -49 d 36 -48 d 36 -49 d 36 -51 d 36 -53 d 36 -57 d 35 -59 d -35 59 d -36 57 d -36 53 d -36 51 d -36 49 d -36 48 d -35 49 d -18 25 d -18 27 d -18
 27 d -18 28 d -18 28 d -18 29 d -18 28 d -18 28 d -9 14 d -9 14 d -9 13 d -9 12 d -18 25 d -17 23 d -18 20 d -18 19 d -18 16 d -18 14 d -9 6 d -9 5 d -9 5 d -9 4 d -9 3 d -9 3 d -9 2 d -9 1 d -9 1 d -9 X -9 -1 d -9 -1 d -9 -2 d -9 -3 d -8 -3 d -9 -4
 d -9 -5 d -9 -5 d -9 -6 d -9 -6 d -18 -15 d -18 -18 d -18 -19 d -18 -22 d -9 -10 d -9 -11 d -9 -9 d -9 -10 d -9 -9 d -9 -9 d -18 -16 d -18 -16 d -17 -16 d -18 -15 d -18 -15 d -36 -29 d -36 -29 d -36 -28 d -36 -27 d -35 -26 d -36 -24 d -36 -23 d -36
 -21 d -36 -19 d -36 -18 d -35 -16 d -36 -14 d -36 -13 d -36 -12 d -36 -12 d -36 -11 d -35 -10 d -36 -10 d -36 -9 d -36 -9 d -36 -9 d -36 -8 d -35 -8 d -36 -8 d f 0 0 1 c 9 lw black 0 0 1 c 363 782 m 36 8 d 35 8 d 36 8 d 36 9 d 36 9 d 36 9 d 36 10 d
 35 10 d 36 11 d 36 12 d 36 12 d 36 13 d 36 14 d 35 16 d 36 18 d 36 19 d 36 21 d 36 23 d 36 24 d 35 26 d 36 27 d 36 28 d 36 29 d 36 29 d 18 15 d 18 15 d 17 16 d 18 16 d 18 16 d 9 9 d 9 9 d 9 10 d 9 9 d 9 11 d 9 10 d 18 22 d 18 19 d 18 18 d 18 15 d 9
 6 d 9 6 d 9 5 d 9 5 d 9 4 d 8 3 d 9 3 d 9 2 d 9 1 d 9 1 d 9 X 9 -1 d 9 -1 d 9 -2 d 9 -3 d 9 -3 d 9 -4 d 9 -5 d 9 -5 d 9 -6 d 18 -14 d 18 -16 d 18 -19 d 18 -20 d 17 -23 d 18 -25 d 9 -12 d 9 -13 d 9 -14 d 9 -14 d 18 -28 d 18 -28 d 18 -29 d 18 -28 d 18
 -28 d 18 -27 d 18 -27 d 18 -25 d 35 -49 d 36 -48 d 36 -49 d 36 -51 d 36 -53 d 36 -57 d 35 -59 d s black 3 lw 381 713 m -18 X s 363 713 m cl s 381 713 m 18 X s 399 713 m cl s 381 713 m 91 Y s 381 804 m cl s 381 713 m -79 Y s 381 634 m cl s 417 805 m
 -18 X s 399 805 m cl s 417 805 m 17 X s 434 805 m cl s 417 805 m 63 Y s 417 868 m cl s 417 805 m -67 Y s 417 738 m cl s 452 781 m -18 X s 434 781 m cl s 452 781 m 18 X s 470 781 m cl s 452 781 m 69 Y s 452 850 m cl s 452 781 m -75 Y s 452 706 m cl s
 488 634 m -18 X s 470 634 m cl s 488 634 m 18 X s 506 634 m cl s 524 844 m -18 X s 506 844 m cl s 524 844 m 18 X s 542 844 m cl s 524 844 m 53 Y s 524 897 m cl s 524 844 m -57 Y s 524 787 m cl s 560 751 m -18 X s 542 751 m cl s 560 751 m 18 X s 578
 751 m cl s 560 751 m 78 Y s 560 829 m cl s 560 751 m -86 Y s 560 665 m cl s 596 826 m -18 X s 578 826 m cl s 596 826 m 18 X s 614 826 m cl s 596 826 m 57 Y s 596 883 m cl s 596 826 m -61 Y s 596 765 m cl s 632 908 m -18 X s 614 908 m cl s 632 908 m
 17 X s 649 908 m cl s 632 908 m 41 Y s 632 949 m cl s 632 908 m -42 Y s 632 866 m cl s 667 826 m -18 X s 649 826 m cl s 667 826 m 18 X s 685 826 m cl s 667 826 m 57 Y s 667 883 m cl s 667 826 m -61 Y s 667 765 m cl s 703 927 m -18 X s 685 927 m cl s
 703 927 m 18 X s 721 927 m cl s 703 927 m 38 Y s 703 965 m cl s 703 927 m -39 Y s 703 888 m cl s 739 908 m -18 X s 721 908 m cl s 739 908 m 18 X s 757 908 m cl s 739 908 m 41 Y s 739 949 m cl s 739 908 m -42 Y s 739 866 m cl s 775 844 m -18 X s 757
 844 m cl s 775 844 m 18 X s 793 844 m cl s 775 844 m 53 Y s 775 897 m cl s 775 844 m -57 Y s 775 787 m cl s 811 936 m -18 X s 793 936 m cl s 811 936 m 18 X s 829 936 m cl s 811 936 m 36 Y s 811 972 m cl s 811 936 m -38 Y s 811 898 m cl s 847 951 m
 -18 X s 829 951 m cl s 847 951 m 17 X s 864 951 m cl s 847 951 m 35 Y s 847 986 m cl s 847 951 m -35 Y s 847 916 m cl s 882 886 m -18 X s 864 886 m cl s 882 886 m 18 X s 900 886 m cl s 882 886 m 45 Y s 882 931 m cl s 882 886 m -47 Y s 882 839 m cl s
 918 951 m -18 X s 900 951 m cl s 918 951 m 18 X s 936 951 m cl s 918 951 m 35 Y s 918 986 m cl s 918 951 m -35 Y s 918 916 m cl s 954 990 m -18 X s 936 990 m cl s 954 990 m 18 X s 972 990 m cl s 954 990 m 29 Y s 954 1019 m cl s 954 990 m -30 Y s 954
 960 m cl s 990 1015 m -18 X s 972 1015 m cl s 990 1015 m 18 X s 1008 1015 m cl s 990 1015 m 26 Y s 990 1041 m cl s 990 1015 m -27 Y s 990 988 m cl s 1026 1051 m -18 X s 1008 1051 m cl s 1026 1051 m 18 X s 1044 1051 m cl s 1026 1051 m 23 Y s 1026
 1074 m cl s 1026 1051 m -24 Y s 1026 1027 m cl s 1062 1040 m -18 X s 1044 1040 m cl s 1062 1040 m 17 X s 1079 1040 m cl s 1062 1040 m 24 Y s 1062 1064 m cl s 1062 1040 m -25 Y s 1062 1015 m cl s 1097 1107 m -18 X s 1079 1107 m cl s 1097 1107 m 18 X
 s 1115 1107 m cl s 1097 1107 m 18 Y s 1097 1125 m cl s 1097 1107 m -19 Y s 1097 1088 m cl s 1133 1095 m -18 X s 1115 1095 m cl s 1133 1095 m 18 X s 1151 1095 m cl s 1133 1095 m 19 Y s 1133 1114 m cl s 1133 1095 m -20 Y s 1133 1075 m cl s 1169 1116 m
 -18 X s 1151 1116 m cl s 1169 1116 m 18 X s 1187 1116 m cl s 1169 1116 m 18 Y s 1169 1134 m cl s 1169 1116 m -18 Y s 1169 1098 m cl s 1205 1164 m -18 X s 1187 1164 m cl s 1205 1164 m 18 X s 1223 1164 m cl s 1205 1164 m 15 Y s 1205 1179 m cl s 1205
 1164 m -15 Y s 1205 1149 m cl s 1241 1223 m -18 X s 1223 1223 m cl s 1241 1223 m 18 X s 1259 1223 m cl s 1241 1223 m 11 Y s 1241 1234 m cl s 1241 1223 m -11 Y s 1241 1212 m cl s 1276 1221 m -17 X s 1259 1221 m cl s 1276 1221 m 18 X s 1294 1221 m cl
 s 1276 1221 m 12 Y s 1276 1233 m cl s 1276 1221 m -11 Y s 1276 1210 m cl s 1312 1260 m -18 X s 1294 1260 m cl s 1312 1260 m 18 X s 1330 1260 m cl s 1312 1260 m 10 Y s 1312 1270 m cl s 1312 1260 m -10 Y s 1312 1250 m cl s 1348 1294 m -18 X s 1330
 1294 m cl s 1348 1294 m 18 X s 1366 1294 m cl s 1348 1294 m 8 Y s 1348 1302 m cl s 1348 1294 m -9 Y s 1348 1285 m cl s 1384 1330 m -18 X s 1366 1330 m cl s 1384 1330 m 18 X s 1402 1330 m cl s 1384 1330 m 7 Y s 1384 1337 m cl s 1384 1330 m -8 Y s
 1384 1322 m cl s 1420 1357 m -18 X s 1402 1357 m cl s 1420 1357 m 18 X s 1438 1357 m cl s 1420 1357 m 7 Y s 1420 1364 m cl s 1420 1357 m -7 Y s 1420 1350 m cl s 1456 1395 m -18 X s 1438 1395 m cl s 1456 1395 m 18 X s 1474 1395 m cl s 1456 1395 m 6 Y
 s 1456 1401 m cl s 1456 1395 m -5 Y s 1456 1390 m cl s 1491 1399 m -17 X s 1474 1399 m cl s 1491 1399 m 18 X s 1509 1399 m cl s 1491 1399 m 5 Y s 1491 1404 m cl s 1491 1399 m -6 Y s 1491 1393 m cl s 1527 1418 m -18 X s 1509 1418 m cl s 1527 1418 m
 18 X s 1545 1418 m cl s 1527 1418 m 6 Y s 1527 1424 m cl s 1527 1418 m -5 Y s 1527 1413 m cl s 1563 1409 m -18 X s 1545 1409 m cl s 1563 1409 m 18 X s 1581 1409 m cl s 1563 1409 m 6 Y s 1563 1415 m cl s 1563 1409 m -5 Y s 1563 1404 m cl s 1599 1401
 m -18 X s 1581 1401 m cl s 1599 1401 m 18 X s 1617 1401 m cl s 1599 1401 m 6 Y s 1599 1407 m cl s 1599 1401 m -5 Y s 1599 1396 m cl s 1635 1382 m -18 X s 1617 1382 m cl s 1635 1382 m 18 X s 1653 1382 m cl s 1635 1382 m 6 Y s 1635 1388 m cl s 1635
 1382 m -7 Y s 1635 1375 m cl s 1671 1339 m -18 X s 1653 1339 m cl s 1671 1339 m 18 X s 1689 1339 m cl s 1671 1339 m 7 Y s 1671 1346 m cl s 1671 1339 m -7 Y s 1671 1332 m cl s 1706 1310 m -17 X s 1689 1310 m cl s 1706 1310 m 18 X s 1724 1310 m cl s
 1706 1310 m 9 Y s 1706 1319 m cl s 1706 1310 m -8 Y s 1706 1302 m cl s 1742 1265 m -18 X s 1724 1265 m cl s 1742 1265 m 18 X s 1760 1265 m cl s 1742 1265 m 10 Y s 1742 1275 m cl s 1742 1265 m -9 Y s 1742 1256 m cl s 1778 1216 m -18 X s 1760 1216 m
 cl s 1778 1216 m 18 X s 1796 1216 m cl s 1778 1216 m 12 Y s 1778 1228 m cl s 1778 1216 m -11 Y s 1778 1205 m cl s 1814 1141 m -18 X s 1796 1141 m cl s 1814 1141 m 18 X s 1832 1141 m cl s 1814 1141 m 16 Y s 1814 1157 m cl s 1814 1141 m -16 Y s 1814
 1125 m cl s 1850 1100 m -18 X s 1832 1100 m cl s 1850 1100 m 18 X s 1868 1100 m cl s 1850 1100 m 19 Y s 1850 1119 m cl s 1850 1100 m -19 Y s 1850 1081 m cl s 1886 1024 m -18 X s 1868 1024 m cl s 1886 1024 m 18 X s 1904 1024 m cl s 1886 1024 m 25 Y s
 1886 1049 m cl s 1886 1024 m -26 Y s 1886 998 m cl s 1921 990 m -17 X s 1904 990 m cl s 1921 990 m 18 X s 1939 990 m cl s 1921 990 m 29 Y s 1921 1019 m cl s 1921 990 m -30 Y s 1921 960 m cl s 1957 936 m -18 X s 1939 936 m cl s 1957 936 m 18 X s 1975
 936 m cl s 1957 936 m 36 Y s 1957 972 m cl s 1957 936 m -38 Y s 1957 898 m cl s 1993 944 m -18 X s 1975 944 m cl s 1993 944 m 18 X s 2011 944 m cl s 1993 944 m 35 Y s 1993 979 m cl s 1993 944 m -37 Y s 1993 907 m cl s 2029 944 m -18 X s 2011 944 m
 cl s 2029 944 m 18 X s 2047 944 m cl s 2029 944 m 35 Y s 2029 979 m cl s 2029 944 m -37 Y s 2029 907 m cl s 2065 844 m -18 X s 2047 844 m cl s 2065 844 m 18 X s 2083 844 m cl s 2065 844 m 53 Y s 2065 897 m cl s 2065 844 m -57 Y s 2065 787 m cl s
 2101 751 m -18 X s 2083 751 m cl s 2101 751 m 18 X s 2119 751 m cl s 2101 751 m 78 Y s 2101 829 m cl s 2101 751 m -86 Y s 2101 665 m cl s 381 713 417 805 452 781 3 { m20} R 524 844 560 751 596 826 632 908 667 826 703 927 739 908 775 844 811 936 847
 951 882 886 918 951 954 990 990 1015 1026 1051 1062 1040 1097 1107 1133 1095 1169 1116 1205 1164 1241 1223 1276 1221 1312 1260 1348 1294 1384 1330 1420 1357 1456 1395 1491 1399 1527 1418 1563 1409 1599 1401 1635 1382 1671 1339 1706 1310 1742 1265
 1778 1216 1814 1141 1850 1100 1886 1024 1921 990 1957 936 1993 944 2029 944 2065 844 2101 751 45 { m20} R 0.52 0.76 0.64 c[ 4 8] 0 sd 9 lw black 0.52 0.76 0.64 c 363 782 m 36 8 d 35 8 d 36 8 d 36 9 d 36 9 d 36 9 d 36 10 d 35 10 d 36 10 d 36 11 d 36
 12 d 36 11 d 36 13 d 35 13 d 36 14 d 36 15 d 36 15 d 36 17 d 36 18 d 35 19 d 36 20 d 36 23 d 36 25 d 36 27 d 18 15 d 18 16 d 17 17 d 18 18 d 18 20 d 9 10 d 9 11 d 9 11 d 9 12 d 9 13 d 9 13 d 18 26 d 18 23 d 36 37 d 9 8 d 9 6 d 9 6 d 9 5 d 9 5 d 8 4
 d 9 3 d 9 2 d 9 1 d 9 1 d 9 X 9 -1 d 9 -1 d 9 -3 d 9 -3 d 9 -3 d 9 -5 d 9 -5 d 9 -6 d 9 -7 d 18 -16 d 18 -19 d 18 -21 d 18 -25 d 8 -14 d 9 -14 d 9 -15 d 9 -15 d 9 -17 d 9 -17 d 9 -18 d 9 -19 d 9 -19 d 9 -21 d 9 -21 d 9 -21 d 18 -46 d 18 -49 d 18 -51
 d 18 -55 d 18 -58 d 18 -60 d 33 -120 d s 0.54 0.66 0.63 c black 0.54 0.66 0.63 c 908 634 m 28 47 d s 936 681 m 36 57 d 36 53 d 18 26 d 18 24 d 18 24 d 17 23 d 18 22 d 18 21 d 18 20 d 18 19 d 18 18 d 18 18 d 18 16 d 18 16 d 18 15 d 18 14 d 35 25 d 36
 21 d 36 19 d 18 7 d 18 7 d 18 6 d 18 5 d 18 4 d 18 4 d 17 2 d 18 2 d 36 X 18 -1 d 18 -2 d 18 -3 d 18 -4 d 18 -5 d 18 -5 d 18 -6 d 18 -8 d 35 -17 d 36 -21 d 36 -24 d 36 -28 d 18 -15 d 18 -17 d 18 -17 d 18 -18 d 17 -18 d 18 -20 d 18 -21 d 18 -21 d 18
 -22 d 18 -24 d 18 -24 d 18 -25 d 36 -52 d 36 -57 d 35 -59 d s black[  ] 0 sd 3 lw 363 634 m 1791 X s 473 659 m -25 Y s 518 646 m -12 Y s 562 646 m -12 Y s 606 646 m -12 Y s 650 646 m -12 Y s 695 659 m -25 Y s 739 646 m -12 Y s 783 646 m -12 Y s 827
 646 m -12 Y s 872 646 m -12 Y s 916 659 m -25 Y s 960 646 m -12 Y s 1004 646 m -12 Y s 1048 646 m -12 Y s 1093 646 m -12 Y s 1137 659 m -25 Y s 1181 646 m -12 Y s 1225 646 m -12 Y s 1270 646 m -12 Y s 1314 646 m -12 Y s 1358 659 m -25 Y s 1402 646 m
 -12 Y s 1447 646 m -12 Y s 1491 646 m -12 Y s 1535 646 m -12 Y s 1579 659 m -25 Y s 1624 646 m -12 Y s 1668 646 m -12 Y s 1712 646 m -12 Y s 1756 646 m -12 Y s 1800 659 m -25 Y s 1845 646 m -12 Y s 1889 646 m -12 Y s 1933 646 m -12 Y s 1977 646 m
 -12 Y s 2022 659 m -25 Y s 473 659 m -25 Y s 429 646 m -12 Y s 385 646 m -12 Y s 2022 659 m -25 Y s 2066 646 m -12 Y s 2110 646 m -12 Y s 363 1484 m 1791 X s 473 1459 m 25 Y s 518 1471 m 13 Y s 562 1471 m 13 Y s 606 1471 m 13 Y s 650 1471 m 13 Y s
 695 1459 m 25 Y s 739 1471 m 13 Y s 783 1471 m 13 Y s 827 1471 m 13 Y s 872 1471 m 13 Y s 916 1459 m 25 Y s 960 1471 m 13 Y s 1004 1471 m 13 Y s 1048 1471 m 13 Y s 1093 1471 m 13 Y s 1137 1459 m 25 Y s 1181 1471 m 13 Y s 1225 1471 m 13 Y s 1270 1471
 m 13 Y s 1314 1471 m 13 Y s 1358 1459 m 25 Y s 1402 1471 m 13 Y s 1447 1471 m 13 Y s 1491 1471 m 13 Y s 1535 1471 m 13 Y s 1579 1459 m 25 Y s 1624 1471 m 13 Y s 1668 1471 m 13 Y s 1712 1471 m 13 Y s 1756 1471 m 13 Y s 1800 1459 m 25 Y s 1845 1471 m
 13 Y s 1889 1471 m 13 Y s 1933 1471 m 13 Y s 1977 1471 m 13 Y s 2022 1459 m 25 Y s 473 1459 m 25 Y s 429 1471 m 13 Y s 385 1471 m 13 Y s 2022 1459 m 25 Y s 2066 1471 m 13 Y s 2110 1471 m 13 Y s 363 634 m 850 Y s 390 659 m -27 X s 390 713 m -27 X s
 390 751 m -27 X s 390 781 m -27 X s 390 805 m -27 X s 390 826 m -27 X s 390 844 m -27 X s 390 859 m -27 X s 417 873 m -54 X s 390 965 m -27 X s 390 1019 m -27 X s 390 1058 m -27 X s 390 1087 m -27 X s 390 1111 m -27 X s 390 1132 m -27 X s 390 1150 m
 -27 X s 390 1165 m -27 X s 417 1179 m -54 X s 390 1272 m -27 X s 390 1325 m -27 X s 390 1364 m -27 X s 390 1393 m -27 X s 390 1418 m -27 X s 390 1438 m -27 X s 390 1456 m -27 X s 390 1471 m -27 X s 2154 634 m 850 Y s 2127 659 m 27 X s 2127 713 m 27
 X s 2127 751 m 27 X s 2127 781 m 27 X s 2127 805 m 27 X s 2127 826 m 27 X s 2127 844 m 27 X s 2127 859 m 27 X s 2101 873 m 53 X s 2127 965 m 27 X s 2127 1019 m 27 X s 2127 1058 m 27 X s 2127 1087 m 27 X s 2127 1111 m 27 X s 2127 1132 m 27 X s 2127
 1150 m 27 X s 2127 1165 m 27 X s 2101 1179 m 53 X s 2127 1272 m 27 X s 2127 1325 m 27 X s 2127 1364 m 27 X s 2127 1393 m 27 X s 2127 1418 m 27 X s 2127 1438 m 27 X s 2127 1456 m 27 X s 2127 1471 m 27 X s
 gsave  2268 1077 0 461 C 677.708 1215.31 t 0 r /Helvetica findfont 58.7189 sf 0 0 m (4e) show NC gr  1 1 1 c 453 161 454 1269 bf black
 gsave  2268 1077 0 461 C 566.929 1371.71 t 0 r /Helvetica-Bold findfont 48.9324 sf 0 0 m (MC15) show NC gr  510 1390 m20
 gsave  2268 1077 0 461 C 566.929 1293.51 t 0 r /Helvetica-Bold findfont 48.9324 sf 0 0 m (Projection of Signal pdf) show NC gr  0 0 1 c 9 lw 471 1309 m 79 X s black 3 lw 1 1 1 c 2268 461 0 0 bf black 1 1 1 c 1791 364 363 74 bf black 1791 364 363 74
 bl 363 74 m 1791 X s
 gsave  2268 461 0 0 C 1915.83 13.0329 t 0 r /Helvetica findfont 22.9045 sf 0 0 m (4l Invariant Mass \(GeV\)) show NC gr  473 85 m -11 Y s 518 79 m -5 Y s 562 79 m -5 Y s 606 79 m -5 Y s 650 79 m -5 Y s 695 85 m -11 Y s 739 79 m -5 Y s 783 79 m -5 Y
 s 827 79 m -5 Y s 872 79 m -5 Y s 916 85 m -11 Y s 960 79 m -5 Y s 1004 79 m -5 Y s 1048 79 m -5 Y s 1093 79 m -5 Y s 1137 85 m -11 Y s 1181 79 m -5 Y s 1225 79 m -5 Y s 1270 79 m -5 Y s 1314 79 m -5 Y s 1358 85 m -11 Y s 1402 79 m -5 Y s 1447 79 m
 -5 Y s 1491 79 m -5 Y s 1535 79 m -5 Y s 1579 85 m -11 Y s 1624 79 m -5 Y s 1668 79 m -5 Y s 1712 79 m -5 Y s 1756 79 m -5 Y s 1800 85 m -11 Y s 1845 79 m -5 Y s 1889 79 m -5 Y s 1933 79 m -5 Y s 1977 79 m -5 Y s 2022 85 m -11 Y s 473 85 m -11 Y s
 429 79 m -5 Y s 385 79 m -5 Y s 2022 85 m -11 Y s 2066 79 m -5 Y s 2110 79 m -5 Y s
 gsave  2268 461 0 0 C 452.892 55.3896 t 0 r /Helvetica findfont 22.9045 sf 0 0 m (750) show NC gr 
 gsave  2268 461 0 0 C 674.45 55.3896 t 0 r /Helvetica findfont 22.9045 sf 0 0 m (760) show NC gr 
 gsave  2268 461 0 0 C 896.009 55.3896 t 0 r /Helvetica findfont 22.9045 sf 0 0 m (770) show NC gr 
 gsave  2268 461 0 0 C 1114.31 55.3896 t 0 r /Helvetica findfont 22.9045 sf 0 0 m (780) show NC gr 
 gsave  2268 461 0 0 C 1335.87 55.3896 t 0 r /Helvetica findfont 22.9045 sf 0 0 m (790) show NC gr 
 gsave  2268 461 0 0 C 1557.43 55.3896 t 0 r /Helvetica findfont 22.9045 sf 0 0 m (800) show NC gr 
 gsave  2268 461 0 0 C 1778.98 55.3896 t 0 r /Helvetica findfont 22.9045 sf 0 0 m (810) show NC gr 
 gsave  2268 461 0 0 C 2000.54 55.3896 t 0 r /Helvetica findfont 22.9045 sf 0 0 m (820) show NC gr  363 438 m 1791 X s 473 427 m 11 Y s 518 433 m 5 Y s 562 433 m 5 Y s 606 433 m 5 Y s 650 433 m 5 Y s 695 427 m 11 Y s 739 433 m 5 Y s 783 433 m 5 Y s
 827 433 m 5 Y s 872 433 m 5 Y s 916 427 m 11 Y s 960 433 m 5 Y s 1004 433 m 5 Y s 1048 433 m 5 Y s 1093 433 m 5 Y s 1137 427 m 11 Y s 1181 433 m 5 Y s 1225 433 m 5 Y s 1270 433 m 5 Y s 1314 433 m 5 Y s 1358 427 m 11 Y s 1402 433 m 5 Y s 1447 433 m 5
 Y s 1491 433 m 5 Y s 1535 433 m 5 Y s 1579 427 m 11 Y s 1624 433 m 5 Y s 1668 433 m 5 Y s 1712 433 m 5 Y s 1756 433 m 5 Y s 1800 427 m 11 Y s 1845 433 m 5 Y s 1889 433 m 5 Y s 1933 433 m 5 Y s 1977 433 m 5 Y s 2022 427 m 11 Y s 473 427 m 11 Y s 429
 433 m 5 Y s 385 433 m 5 Y s 2022 427 m 11 Y s 2066 433 m 5 Y s 2110 433 m 5 Y s 363 74 m 364 Y s 417 74 m -54 X s 390 81 m -27 X s 390 88 m -27 X s 390 96 m -27 X s 390 103 m -27 X s 417 110 m -54 X s 390 118 m -27 X s 390 125 m -27 X s 390 132 m
 -27 X s 390 139 m -27 X s 417 147 m -54 X s 390 154 m -27 X s 390 161 m -27 X s 390 169 m -27 X s 390 176 m -27 X s 417 183 m -54 X s 390 190 m -27 X s 390 198 m -27 X s 390 205 m -27 X s 390 212 m -27 X s 417 220 m -54 X s 390 227 m -27 X s 390 234
 m -27 X s 390 241 m -27 X s 390 249 m -27 X s 417 256 m -54 X s 390 263 m -27 X s 390 271 m -27 X s 390 278 m -27 X s 390 285 m -27 X s 417 293 m -54 X s 390 300 m -27 X s 390 307 m -27 X s 390 314 m -27 X s 390 322 m -27 X s 417 329 m -54 X s 390
 336 m -27 X s 390 344 m -27 X s 390 351 m -27 X s 390 358 m -27 X s 417 365 m -54 X s 390 373 m -27 X s 390 380 m -27 X s 390 387 m -27 X s 390 395 m -27 X s 417 402 m -54 X s 390 409 m -27 X s 390 416 m -27 X s 390 424 m -27 X s 390 431 m -27 X s
 417 438 m -54 X s
 gsave  2268 461 0 0 C 329.08 65.1643 t 0 r /Helvetica findfont 22.9045 sf 0 0 m (\2555) show NC gr 
 gsave  2268 461 0 0 C 329.08 101.005 t 0 r /Helvetica findfont 22.9045 sf 0 0 m (\2554) show NC gr 
 gsave  2268 461 0 0 C 329.08 140.103 t 0 r /Helvetica findfont 22.9045 sf 0 0 m (\2553) show NC gr 
 gsave  2268 461 0 0 C 329.08 175.944 t 0 r /Helvetica findfont 22.9045 sf 0 0 m (\2552) show NC gr 
 gsave  2268 461 0 0 C 332.338 211.784 t 0 r /Helvetica findfont 22.9045 sf 0 0 m (\2551) show NC gr 
 gsave  2268 461 0 0 C 335.596 247.624 t 0 r /Helvetica findfont 22.9045 sf 0 0 m (0) show NC gr 
 gsave  2268 461 0 0 C 338.854 283.465 t 0 r /Helvetica findfont 22.9045 sf 0 0 m (1) show NC gr 
 gsave  2268 461 0 0 C 335.596 319.305 t 0 r /Helvetica findfont 22.9045 sf 0 0 m (2) show NC gr 
 gsave  2268 461 0 0 C 335.596 358.403 t 0 r /Helvetica findfont 22.9045 sf 0 0 m (3) show NC gr 
 gsave  2268 461 0 0 C 335.596 394.244 t 0 r /Helvetica findfont 22.9045 sf 0 0 m (4) show NC gr 
 gsave  2268 461 0 0 C 335.596 430.084 t 0 r /Helvetica findfont 22.9045 sf 0 0 m (5) show NC gr  2154 74 m 364 Y s 2101 74 m 53 X s 2127 81 m 27 X s 2127 88 m 27 X s 2127 96 m 27 X s 2127 103 m 27 X s 2101 110 m 53 X s 2127 118 m 27 X s 2127 125 m
 27 X s 2127 132 m 27 X s 2127 139 m 27 X s 2101 147 m 53 X s 2127 154 m 27 X s 2127 161 m 27 X s 2127 169 m 27 X s 2127 176 m 27 X s 2101 183 m 53 X s 2127 190 m 27 X s 2127 198 m 27 X s 2127 205 m 27 X s 2127 212 m 27 X s 2101 220 m 53 X s 2127 227
 m 27 X s 2127 234 m 27 X s 2127 241 m 27 X s 2127 249 m 27 X s 2101 256 m 53 X s 2127 263 m 27 X s 2127 271 m 27 X s 2127 278 m 27 X s 2127 285 m 27 X s 2101 293 m 53 X s 2127 300 m 27 X s 2127 307 m 27 X s 2127 314 m 27 X s 2127 322 m 27 X s 2101
 329 m 53 X s 2127 336 m 27 X s 2127 344 m 27 X s 2127 351 m 27 X s 2127 358 m 27 X s 2101 365 m 53 X s 2127 373 m 27 X s 2127 380 m 27 X s 2127 387 m 27 X s 2127 395 m 27 X s 2101 402 m 53 X s 2127 409 m 27 X s 2127 416 m 27 X s 2127 424 m 27 X s
 2127 431 m 27 X s 2101 438 m 53 X s 6 lw 0.2 0.8 0.2 c black 3 lw 0.2 0.8 0.2 c 363 256 m -27 Y 36 X 35 Y 35 X -17 Y 36 X -173 Y 36 X 199 Y 36 X -53 Y 36 X 29 Y 36 X 55 Y 35 X -67 Y 36 X 69 Y 36 X -26 Y 36 X -58 Y 36 X 61 Y 36 X 3 Y 35 X -76 Y 36 X
 39 Y 36 X 21 Y 36 X 6 Y 36 X 20 Y 36 X -55 Y 35 X 72 Y 36 X -73 Y 36 X -17 Y 36 X 40 Y 36 X 93 Y 36 X -98 Y 35 X 21 Y 36 X -10 Y 36 X -28 Y 36 X -53 Y 36 X 59 Y 36 X -92 Y 35 X 85 Y 36 X -31 Y 36 X 44 Y 36 X 31 Y 36 X -44 Y 36 X 67 Y 35 X 11 Y 36 X
 7 Y 36 X -58 Y 36 X 27 Y 36 X -42 Y 36 X 18 Y 35 X -7 Y 36 X 50 Y 36 X 29 Y 36 X -46 Y 36 X -27 Y 36 X -31 Y 35 X 18 Y f 6 lw black 0.2 0.8 0.2 c black 363 229 m 36 X 35 Y 35 X -17 Y 36 X -173 Y 36 X 199 Y 36 X -53 Y 36 X 29 Y 36 X 55 Y 35 X -67 Y
 36 X 69 Y 36 X -26 Y 36 X -58 Y 36 X 61 Y 36 X 3 Y 35 X -76 Y 36 X 39 Y 36 X 21 Y 36 X 6 Y 36 X 20 Y 36 X -55 Y 35 X 72 Y 36 X -73 Y 36 X -17 Y 36 X 40 Y 36 X 93 Y 36 X -98 Y 35 X 21 Y 36 X -10 Y 36 X -28 Y 36 X -53 Y 36 X 59 Y 36 X -92 Y 35 X 85 Y
 36 X -31 Y 36 X 44 Y 36 X 31 Y 36 X -44 Y 36 X 67 Y 35 X 11 Y 36 X 7 Y 36 X -58 Y 36 X 27 Y 36 X -42 Y 36 X 18 Y 35 X -7 Y 36 X 50 Y 36 X 29 Y 36 X -46 Y 36 X -27 Y 36 X -31 Y 35 X s 3 lw 363 74 m 1791 X s 473 85 m -11 Y s 518 79 m -5 Y s 562 79 m
 -5 Y s 606 79 m -5 Y s 650 79 m -5 Y s 695 85 m -11 Y s 739 79 m -5 Y s 783 79 m -5 Y s 827 79 m -5 Y s 872 79 m -5 Y s 916 85 m -11 Y s 960 79 m -5 Y s 1004 79 m -5 Y s 1048 79 m -5 Y s 1093 79 m -5 Y s 1137 85 m -11 Y s 1181 79 m -5 Y s 1225 79 m
 -5 Y s 1270 79 m -5 Y s 1314 79 m -5 Y s 1358 85 m -11 Y s 1402 79 m -5 Y s 1447 79 m -5 Y s 1491 79 m -5 Y s 1535 79 m -5 Y s 1579 85 m -11 Y s 1624 79 m -5 Y s 1668 79 m -5 Y s 1712 79 m -5 Y s 1756 79 m -5 Y s 1800 85 m -11 Y s 1845 79 m -5 Y s
 1889 79 m -5 Y s 1933 79 m -5 Y s 1977 79 m -5 Y s 2022 85 m -11 Y s 473 85 m -11 Y s 429 79 m -5 Y s 385 79 m -5 Y s 2022 85 m -11 Y s 2066 79 m -5 Y s 2110 79 m -5 Y s 363 438 m 1791 X s 473 427 m 11 Y s 518 433 m 5 Y s 562 433 m 5 Y s 606 433 m 5
 Y s 650 433 m 5 Y s 695 427 m 11 Y s 739 433 m 5 Y s 783 433 m 5 Y s 827 433 m 5 Y s 872 433 m 5 Y s 916 427 m 11 Y s 960 433 m 5 Y s 1004 433 m 5 Y s 1048 433 m 5 Y s 1093 433 m 5 Y s 1137 427 m 11 Y s 1181 433 m 5 Y s 1225 433 m 5 Y s 1270 433 m 5
 Y s 1314 433 m 5 Y s 1358 427 m 11 Y s 1402 433 m 5 Y s 1447 433 m 5 Y s 1491 433 m 5 Y s 1535 433 m 5 Y s 1579 427 m 11 Y s 1624 433 m 5 Y s 1668 433 m 5 Y s 1712 433 m 5 Y s 1756 433 m 5 Y s 1800 427 m 11 Y s 1845 433 m 5 Y s 1889 433 m 5 Y s 1933
 433 m 5 Y s 1977 433 m 5 Y s 2022 427 m 11 Y s 473 427 m 11 Y s 429 433 m 5 Y s 385 433 m 5 Y s 2022 427 m 11 Y s 2066 433 m 5 Y s 2110 433 m 5 Y s 363 74 m 364 Y s 417 74 m -54 X s 390 81 m -27 X s 390 88 m -27 X s 390 96 m -27 X s 390 103 m -27 X
 s 417 110 m -54 X s 390 118 m -27 X s 390 125 m -27 X s 390 132 m -27 X s 390 139 m -27 X s 417 147 m -54 X s 390 154 m -27 X s 390 161 m -27 X s 390 169 m -27 X s 390 176 m -27 X s 417 183 m -54 X s 390 190 m -27 X s 390 198 m -27 X s 390 205 m -27
 X s 390 212 m -27 X s 417 220 m -54 X s 390 227 m -27 X s 390 234 m -27 X s 390 241 m -27 X s 390 249 m -27 X s 417 256 m -54 X s 390 263 m -27 X s 390 271 m -27 X s 390 278 m -27 X s 390 285 m -27 X s 417 293 m -54 X s 390 300 m -27 X s 390 307 m
 -27 X s 390 314 m -27 X s 390 322 m -27 X s 417 329 m -54 X s 390 336 m -27 X s 390 344 m -27 X s 390 351 m -27 X s 390 358 m -27 X s 417 365 m -54 X s 390 373 m -27 X s 390 380 m -27 X s 390 387 m -27 X s 390 395 m -27 X s 417 402 m -54 X s 390 409
 m -27 X s 390 416 m -27 X s 390 424 m -27 X s 390 431 m -27 X s 417 438 m -54 X s 2154 74 m 364 Y s 2101 74 m 53 X s 2127 81 m 27 X s 2127 88 m 27 X s 2127 96 m 27 X s 2127 103 m 27 X s 2101 110 m 53 X s 2127 118 m 27 X s 2127 125 m 27 X s 2127 132
 m 27 X s 2127 139 m 27 X s 2101 147 m 53 X s 2127 154 m 27 X s 2127 161 m 27 X s 2127 169 m 27 X s 2127 176 m 27 X s 2101 183 m 53 X s 2127 190 m 27 X s 2127 198 m 27 X s 2127 205 m 27 X s 2127 212 m 27 X s 2101 220 m 53 X s 2127 227 m 27 X s 2127
 234 m 27 X s 2127 241 m 27 X s 2127 249 m 27 X s 2101 256 m 53 X s 2127 263 m 27 X s 2127 271 m 27 X s 2127 278 m 27 X s 2127 285 m 27 X s 2101 293 m 53 X s 2127 300 m 27 X s 2127 307 m 27 X s 2127 314 m 27 X s 2127 322 m 27 X s 2101 329 m 53 X s
 2127 336 m 27 X s 2127 344 m 27 X s 2127 351 m 27 X s 2127 358 m 27 X s 2101 365 m 53 X s 2127 373 m 27 X s 2127 380 m 27 X s 2127 387 m 27 X s 2127 395 m 27 X s 2101 402 m 53 X s 2127 409 m 27 X s 2127 416 m 27 X s 2127 424 m 27 X s 2127 431 m 27 X
 s 2101 438 m 53 X s
 gr  gr showpage
end
%%EOF
