%!PS-Adobe-2.0 EPSF-2.0
%%BoundingBox:  0 0 567 384
%%Title: H4l2015_plotfit/gg_mass_signal_200_fixed_H4l_4e.eps: 
%%Creator: ROOT Version 5.34/10
%%CreationDate: Thu Feb 16 13:48:30 2017
%%EndComments
%%BeginProlog
80 dict begin
/s {stroke} def /l {lineto} def /m {moveto} def /t {translate} def
/r {rotate} def /rl {roll}  def /R {repeat} def
/d {rlineto} def /rm {rmoveto} def /gr {grestore} def /f {eofill} def
/c {setrgbcolor} def /black {0 setgray} def /sd {setdash} def
/cl {closepath} def /sf {scalefont setfont} def /lw {setlinewidth} def
/box {m dup 0 exch d exch 0 d 0 exch neg d cl} def
/NC{systemdict begin initclip end}def/C{NC box clip newpath}def
/bl {box s} def /bf {box f} def /Y { 0 exch d} def /X { 0 d} def 
/K {{pop pop 0 moveto} exch kshow} bind def
/ita {/ang 15 def gsave [1 0 ang dup sin exch cos div 1 0 0] concat} def 
/mp {newpath /y exch def /x exch def} def
/side {[w .77 mul w .23 mul] .385 w mul sd w 0 l currentpoint t -144 r} def
/mr {mp x y w2 0 360 arc} def /m24 {mr s} def /m20 {mr f} def
/mb {mp x y w2 add m w2 neg 0 d 0 w neg d w 0 d 0 w d cl} def
/mt {mp x y w2 add m w2 neg w neg d w 0 d cl} def
/m21 {mb f} def /m25 {mb s} def /m22 {mt f} def /m26{mt s} def
/m23 {mp x y w2 sub m w2 w d w neg 0 d cl f} def
/m27 {mp x y w2 add m w3 neg w2 neg d w3 w2 neg d w3 w2 d cl s} def
/m28 {mp x w2 sub y w2 sub w3 add m w3 0 d  0 w3 neg d w3 0 d 0 w3 d w3 0 d  0 w3 d w3 neg 0 d 0 w3 d w3 neg 0 d 0 w3 neg d w3 neg 0 d cl s } def
/m29 {mp gsave x w2 sub y w2 add w3 sub m currentpoint t 4 {side} repeat cl fill gr} def
/m30 {mp gsave x w2 sub y w2 add w3 sub m currentpoint t 4 {side} repeat cl s gr} def
/m31 {mp x y w2 sub m 0 w d x w2 sub y m w 0 d x w2 sub y w2 add m w w neg d x w2 sub y w2 sub m w w d s} def
/m32 {mp x y w2 sub m w2 w d w neg 0 d cl s} def
/m33 {mp x y w2 add m w3 neg w2 neg d w3 w2 neg d w3 w2 d cl f} def
/m34 {mp x w2 sub y w2 sub w3 add m w3 0 d  0 w3 neg d w3 0 d 0 w3 d w3 0 d  0 w3 d w3 neg 0 d 0 w3 d w3 neg 0 d 0 w3 neg d w3 neg 0 d cl f } def
/m2 {mp x y w2 sub m 0 w d x w2 sub y m w 0 d s} def
/m5 {mp x w2 sub y w2 sub m w w d x w2 sub y w2 add m w w neg d s} def
/reEncode {exch findfont dup length dict begin {1 index /FID eq  {pop pop} {def} ifelse } forall /Encoding exch def currentdict end dup /FontName get exch definefont pop } def [/Times-Bold /Times-Italic /Times-BoldItalic /Helvetica /Helvetica-Oblique
 /Helvetica-Bold /Helvetica-BoldOblique /Courier /Courier-Oblique /Courier-Bold /Courier-BoldOblique /Times-Roman /AvantGarde-Book /AvantGarde-BookOblique /AvantGarde-Demi /AvantGarde-DemiOblique /Bookman-Demi /Bookman-DemiItalic /Bookman-Light
 /Bookman-LightItalic /Helvetica-Narrow /Helvetica-Narrow-Bold /Helvetica-Narrow-BoldOblique /Helvetica-Narrow-Oblique /NewCenturySchlbk-Roman /NewCenturySchlbk-Bold /NewCenturySchlbk-BoldItalic /NewCenturySchlbk-Italic /Palatino-Bold
 /Palatino-BoldItalic /Palatino-Italic /Palatino-Roman ] {ISOLatin1Encoding reEncode } forall
%%EndProlog
%%BeginSetup
%%EndSetup
newpath  gsave  .25 .25 scale  gsave  0 0 t black[  ] 0 sd 3 lw 1 1 1 c 2268 1538 0 0 bf black 1 1 1 c 2222 738 23 784 bf black 1 1 1 c 2222 739 23 15 bf black 1 1 1 c 2268 1077 0 461 bf black 1 1 1 c 1791 850 363 634 bf black 1791 850 363 634 bl 363
 634 m 1791 X s
 gsave  2268 1077 0 461 C 1642.14 498.507 t 0 r /Helvetica findfont 48.9324 sf 0 0 m (4l Invariant Mass \(GeV\)) show NC gr  628 659 m -25 Y s 695 646 m -12 Y s 761 646 m -12 Y s 827 646 m -12 Y s 894 646 m -12 Y s 960 659 m -25 Y s 1026 646 m -12 Y
 s 1093 646 m -12 Y s 1159 646 m -12 Y s 1225 646 m -12 Y s 1292 659 m -25 Y s 1358 646 m -12 Y s 1424 646 m -12 Y s 1491 646 m -12 Y s 1557 646 m -12 Y s 1624 659 m -25 Y s 1690 646 m -12 Y s 1756 646 m -12 Y s 1823 646 m -12 Y s 1889 646 m -12 Y s
 1955 659 m -25 Y s 628 659 m -25 Y s 562 646 m -12 Y s 496 646 m -12 Y s 429 646 m -12 Y s 363 646 m -12 Y s 1955 659 m -25 Y s 2022 646 m -12 Y s 2088 646 m -12 Y s 2154 646 m -12 Y s
 gsave  2268 1077 0 461 C 583.22 586.478 t 0 r /Helvetica findfont 48.9324 sf 0 0 m (185) show NC gr 
 gsave  2268 1077 0 461 C 915.558 586.478 t 0 r /Helvetica findfont 48.9324 sf 0 0 m (190) show NC gr 
 gsave  2268 1077 0 461 C 1247.9 586.478 t 0 r /Helvetica findfont 48.9324 sf 0 0 m (195) show NC gr 
 gsave  2268 1077 0 461 C 1580.23 586.478 t 0 r /Helvetica findfont 48.9324 sf 0 0 m (200) show NC gr 
 gsave  2268 1077 0 461 C 1912.57 586.478 t 0 r /Helvetica findfont 48.9324 sf 0 0 m (205) show NC gr  363 1484 m 1791 X s 628 1459 m 25 Y s 695 1471 m 13 Y s 761 1471 m 13 Y s 827 1471 m 13 Y s 894 1471 m 13 Y s 960 1459 m 25 Y s 1026 1471 m 13 Y s
 1093 1471 m 13 Y s 1159 1471 m 13 Y s 1225 1471 m 13 Y s 1292 1459 m 25 Y s 1358 1471 m 13 Y s 1424 1471 m 13 Y s 1491 1471 m 13 Y s 1557 1471 m 13 Y s 1624 1459 m 25 Y s 1690 1471 m 13 Y s 1756 1471 m 13 Y s 1823 1471 m 13 Y s 1889 1471 m 13 Y s
 1955 1459 m 25 Y s 628 1459 m 25 Y s 562 1471 m 13 Y s 496 1471 m 13 Y s 429 1471 m 13 Y s 363 1471 m 13 Y s 1955 1459 m 25 Y s 2022 1471 m 13 Y s 2088 1471 m 13 Y s 2154 1471 m 13 Y s 363 634 m 850 Y s
 gsave  2268 1077 0 461 C 120.554 1032.85 t 90 r /Helvetica findfont 48.9324 sf 0 0 m (Events / \( 0.54 GeV \)) show NC gr  417 641 m -54 X s
 gsave  2268 1077 0 461 C 342.425 619.905 t 0 r  -27 0 t /Helvetica findfont 48.9324 sf 0 0 m (1) show NC gr  390 733 m -27 X s 390 787 m -27 X s 390 825 m -27 X s 390 855 m -27 X s 390 879 m -27 X s 390 899 m -27 X s 390 917 m -27 X s 390 933 m -27
 X s 417 947 m -54 X s
 gsave  2268 1077 0 461 C 342.425 926.024 t 0 r  -55 0 t /Helvetica findfont 48.9324 sf 0 0 m (10) show NC gr  390 1039 m -27 X s 390 1093 m -27 X s 390 1131 m -27 X s 390 1161 m -27 X s 390 1185 m -27 X s 390 1206 m -27 X s 390 1223 m -27 X s 390
 1239 m -27 X s 417 1253 m -54 X s
 gsave  2268 1077 0 461 C 322.563 1251.15 t 0 r /Helvetica findfont 32.6216 sf 0 0 m (2) show NC gr 
 gsave  2268 1077 0 461 C 270.432 1231.6 t 0 r /Helvetica findfont 48.9324 sf 0 0 m (10) show NC gr  390 1345 m -27 X s 390 1399 m -27 X s 390 1437 m -27 X s 390 1467 m -27 X s 2154 634 m 850 Y s 2101 641 m 53 X s 2127 733 m 27 X s 2127 787 m 27 X s
 2127 825 m 27 X s 2127 855 m 27 X s 2127 879 m 27 X s 2127 899 m 27 X s 2127 917 m 27 X s 2127 933 m 27 X s 2101 947 m 53 X s 2127 1039 m 27 X s 2127 1093 m 27 X s 2127 1131 m 27 X s 2127 1161 m 27 X s 2127 1185 m 27 X s 2127 1206 m 27 X s 2127 1223
 m 27 X s 2127 1239 m 27 X s 2101 1253 m 53 X s 2127 1345 m 27 X s 2127 1399 m 27 X s 2127 1437 m 27 X s 2127 1467 m 27 X s 381 733 m -18 X s 363 733 m cl s 381 733 m 18 X s 399 733 m cl s 381 733 m 112 Y s 381 845 m cl s 381 733 m -99 Y s 381 634 m
 cl s 417 879 m -18 X s 399 879 m cl s 417 879 m 17 X s 434 879 m cl s 417 879 m 62 Y s 417 941 m cl s 417 879 m -67 Y s 417 812 m cl s 452 933 m -18 X s 434 933 m cl s 452 933 m 18 X s 470 933 m cl s 452 933 m 50 Y s 452 983 m cl s 452 933 m -53 Y s
 452 880 m cl s 488 825 m -18 X s 470 825 m cl s 488 825 m 18 X s 506 825 m cl s 488 825 m 78 Y s 488 903 m cl s 488 825 m -87 Y s 488 738 m cl s 524 960 m -18 X s 506 960 m cl s 524 960 m 18 X s 542 960 m cl s 524 960 m 44 Y s 524 1004 m cl s 524
 960 m -47 Y s 524 913 m cl s 560 787 m -18 X s 542 787 m cl s 560 787 m 18 X s 578 787 m cl s 560 787 m 90 Y s 560 877 m cl s 560 787 m -105 Y s 560 682 m cl s 596 855 m -18 X s 578 855 m cl s 596 855 m 18 X s 614 855 m cl s 596 855 m 68 Y s 596 923
 m cl s 596 855 m -75 Y s 596 780 m cl s 632 947 m -18 X s 614 947 m cl s 632 947 m 17 X s 649 947 m cl s 632 947 m 47 Y s 632 994 m cl s 632 947 m -50 Y s 632 897 m cl s 667 1009 m -18 X s 649 1009 m cl s 667 1009 m 18 X s 685 1009 m cl s 667 1009 m
 37 Y s 667 1046 m cl s 667 1009 m -37 Y s 667 972 m cl s 703 933 m -18 X s 685 933 m cl s 703 933 m 18 X s 721 933 m cl s 703 933 m 50 Y s 703 983 m cl s 703 933 m -53 Y s 703 880 m cl s 739 1025 m -18 X s 721 1025 m cl s 739 1025 m 18 X s 757 1025
 m cl s 739 1025 m 34 Y s 739 1059 m cl s 739 1025 m -35 Y s 739 990 m cl s 775 1017 m -18 X s 757 1017 m cl s 775 1017 m 18 X s 793 1017 m cl s 775 1017 m 36 Y s 775 1053 m cl s 775 1017 m -36 Y s 775 981 m cl s 811 982 m -18 X s 793 982 m cl s 811
 982 m 18 X s 829 982 m cl s 811 982 m 41 Y s 811 1023 m cl s 811 982 m -43 Y s 811 939 m cl s 847 1052 m -18 X s 829 1052 m cl s 847 1052 m 17 X s 864 1052 m cl s 847 1052 m 31 Y s 847 1083 m cl s 847 1052 m -32 Y s 847 1020 m cl s 882 1069 m -18 X
 s 864 1069 m cl s 882 1069 m 18 X s 900 1069 m cl s 882 1069 m 29 Y s 882 1098 m cl s 882 1069 m -30 Y s 882 1039 m cl s 918 1052 m -18 X s 900 1052 m cl s 918 1052 m 18 X s 936 1052 m cl s 918 1052 m 31 Y s 918 1083 m cl s 918 1052 m -32 Y s 918
 1020 m cl s 954 1106 m -18 X s 936 1106 m cl s 954 1106 m 18 X s 972 1106 m cl s 954 1106 m 25 Y s 954 1131 m cl s 954 1106 m -26 Y s 954 1080 m cl s 990 1110 m -18 X s 972 1110 m cl s 990 1110 m 18 X s 1008 1110 m cl s 990 1110 m 24 Y s 990 1134 m
 cl s 990 1110 m -25 Y s 990 1085 m cl s 1026 1141 m -18 X s 1008 1141 m cl s 1026 1141 m 18 X s 1044 1141 m cl s 1026 1141 m 21 Y s 1026 1162 m cl s 1026 1141 m -22 Y s 1026 1119 m cl s 1062 1131 m -18 X s 1044 1131 m cl s 1062 1131 m 17 X s 1079
 1131 m cl s 1062 1131 m 23 Y s 1062 1154 m cl s 1062 1131 m -23 Y s 1062 1108 m cl s 1097 1155 m -18 X s 1079 1155 m cl s 1097 1155 m 18 X s 1115 1155 m cl s 1097 1155 m 21 Y s 1097 1176 m cl s 1097 1155 m -20 Y s 1097 1135 m cl s 1133 1176 m -18 X
 s 1115 1176 m cl s 1133 1176 m 18 X s 1151 1176 m cl s 1133 1176 m 19 Y s 1133 1195 m cl s 1133 1176 m -19 Y s 1133 1157 m cl s 1169 1161 m -18 X s 1151 1161 m cl s 1169 1161 m 18 X s 1187 1161 m cl s 1169 1161 m 20 Y s 1169 1181 m cl s 1169 1161 m
 -20 Y s 1169 1141 m cl s 1205 1189 m -18 X s 1187 1189 m cl s 1205 1189 m 18 X s 1223 1189 m cl s 1205 1189 m 18 Y s 1205 1207 m cl s 1205 1189 m -18 Y s 1205 1171 m cl s 1241 1249 m -18 X s 1223 1249 m cl s 1241 1249 m 18 X s 1259 1249 m cl s 1241
 1249 m 14 Y s 1241 1263 m cl s 1241 1249 m -14 Y s 1241 1235 m cl s 1276 1236 m -17 X s 1259 1236 m cl s 1276 1236 m 18 X s 1294 1236 m cl s 1276 1236 m 15 Y s 1276 1251 m cl s 1276 1236 m -15 Y s 1276 1221 m cl s 1312 1288 m -18 X s 1294 1288 m cl
 s 1312 1288 m 18 X s 1330 1288 m cl s 1312 1288 m 12 Y s 1312 1300 m cl s 1312 1288 m -12 Y s 1312 1276 m cl s 1348 1306 m -18 X s 1330 1306 m cl s 1348 1306 m 18 X s 1366 1306 m cl s 1348 1306 m 11 Y s 1348 1317 m cl s 1348 1306 m -11 Y s 1348 1295
 m cl s 1384 1328 m -18 X s 1366 1328 m cl s 1384 1328 m 18 X s 1402 1328 m cl s 1384 1328 m 10 Y s 1384 1338 m cl s 1384 1328 m -10 Y s 1384 1318 m cl s 1420 1338 m -18 X s 1402 1338 m cl s 1420 1338 m 18 X s 1438 1338 m cl s 1420 1338 m 9 Y s 1420
 1347 m cl s 1420 1338 m -10 Y s 1420 1328 m cl s 1456 1359 m -18 X s 1438 1359 m cl s 1456 1359 m 18 X s 1474 1359 m cl s 1456 1359 m 9 Y s 1456 1368 m cl s 1456 1359 m -9 Y s 1456 1350 m cl s 1491 1381 m -17 X s 1474 1381 m cl s 1491 1381 m 18 X s
 1509 1381 m cl s 1491 1381 m 8 Y s 1491 1389 m cl s 1491 1381 m -9 Y s 1491 1372 m cl s 1527 1395 m -18 X s 1509 1395 m cl s 1527 1395 m 18 X s 1545 1395 m cl s 1527 1395 m 8 Y s 1527 1403 m cl s 1527 1395 m -7 Y s 1527 1388 m cl s 1563 1409 m -18 X
 s 1545 1409 m cl s 1563 1409 m 18 X s 1581 1409 m cl s 1563 1409 m 8 Y s 1563 1417 m cl s 1563 1409 m -7 Y s 1563 1402 m cl s 1599 1416 m -18 X s 1581 1416 m cl s 1599 1416 m 18 X s 1617 1416 m cl s 1599 1416 m 8 Y s 1599 1424 m cl s 1599 1416 m -7
 Y s 1599 1409 m cl s 1635 1413 m -18 X s 1617 1413 m cl s 1635 1413 m 18 X s 1653 1413 m cl s 1635 1413 m 7 Y s 1635 1420 m cl s 1635 1413 m -7 Y s 1635 1406 m cl s 1671 1393 m -18 X s 1653 1393 m cl s 1671 1393 m 18 X s 1689 1393 m cl s 1671 1393 m
 8 Y s 1671 1401 m cl s 1671 1393 m -8 Y s 1671 1385 m cl s 1706 1372 m -17 X s 1689 1372 m cl s 1706 1372 m 18 X s 1724 1372 m cl s 1706 1372 m 8 Y s 1706 1380 m cl s 1706 1372 m -9 Y s 1706 1363 m cl s 1742 1330 m -18 X s 1724 1330 m cl s 1742 1330
 m 18 X s 1760 1330 m cl s 1742 1330 m 10 Y s 1742 1340 m cl s 1742 1330 m -10 Y s 1742 1320 m cl s 1778 1311 m -18 X s 1760 1311 m cl s 1778 1311 m 18 X s 1796 1311 m cl s 1778 1311 m 11 Y s 1778 1322 m cl s 1778 1311 m -10 Y s 1778 1301 m cl s 1814
 1275 m -18 X s 1796 1275 m cl s 1814 1275 m 18 X s 1832 1275 m cl s 1814 1275 m 12 Y s 1814 1287 m cl s 1814 1275 m -12 Y s 1814 1263 m cl s 1850 1192 m -18 X s 1832 1192 m cl s 1850 1192 m 18 X s 1868 1192 m cl s 1850 1192 m 17 Y s 1850 1209 m cl s
 1850 1192 m -18 Y s 1850 1174 m cl s 1886 1183 m -18 X s 1868 1183 m cl s 1886 1183 m 18 X s 1904 1183 m cl s 1886 1183 m 18 Y s 1886 1201 m cl s 1886 1183 m -19 Y s 1886 1164 m cl s 1921 1174 m -17 X s 1904 1174 m cl s 1921 1174 m 18 X s 1939 1174
 m cl s 1921 1174 m 19 Y s 1921 1193 m cl s 1921 1174 m -20 Y s 1921 1154 m cl s 1957 1093 m -18 X s 1939 1093 m cl s 1957 1093 m 18 X s 1975 1093 m cl s 1957 1093 m 26 Y s 1957 1119 m cl s 1957 1093 m -27 Y s 1957 1066 m cl s 1993 971 m -18 X s 1975
 971 m cl s 1993 971 m 18 X s 2011 971 m cl s 1993 971 m 43 Y s 1993 1014 m cl s 1993 971 m -44 Y s 1993 927 m cl s 2029 1032 m -18 X s 2011 1032 m cl s 2029 1032 m 18 X s 2047 1032 m cl s 2029 1032 m 34 Y s 2029 1066 m cl s 2029 1032 m -34 Y s 2029
 998 m cl s 2065 971 m -18 X s 2047 971 m cl s 2065 971 m 18 X s 2083 971 m cl s 2065 971 m 43 Y s 2065 1014 m cl s 2065 971 m -44 Y s 2065 927 m cl s 2101 917 m -18 X s 2083 917 m cl s 2101 917 m 18 X s 2119 917 m cl s 2101 917 m 54 Y s 2101 971 m
 cl s 2101 917 m -56 Y s 2101 861 m cl s 2136 899 m -17 X s 2119 899 m cl s 2136 899 m 18 X s 2154 899 m cl s 2136 899 m 58 Y s 2136 957 m cl s 2136 899 m -61 Y s 2136 838 m cl s /w 31 def /w2 {w 2 div} def /w3 {w 3 div} def 381 733 417 879 452 933
 488 825 524 960 560 787 596 855 632 947 667 1009 703 933 739 1025 775 1017 811 982 847 1052 882 1069 918 1052 954 1106 990 1110 1026 1141 1062 1131 1097 1155 1133 1176 1169 1161 1205 1189 1241 1249 1276 1236 1312 1288 1348 1306 1384 1328 1420 1338
 1456 1359 1491 1381 1527 1395 1563 1409 1599 1416 1635 1413 1671 1393 1706 1372 1742 1330 1778 1311 1814 1275 1850 1192 1886 1183 1921 1174 1957 1093 1993 971 2029 1032 2065 971 2101 917 2136 899 50 { m20} R 0 1 1 c 1 1 0 c black 1 1 0 c 363 888 m
 36 7 d 35 7 d 36 8 d 36 7 d 36 8 d 36 9 d 36 8 d 35 9 d 36 10 d 36 11 d 36 11 d 36 12 d 36 14 d 35 14 d 36 16 d 36 17 d 36 19 d 36 19 d 36 21 d 35 21 d 36 22 d 36 22 d 36 22 d 36 22 d 36 22 d 17 11 d 18 11 d 18 11 d 18 11 d 18 11 d 18 12 d 18 12 d
 18 12 d 9 6 d 9 7 d 18 14 d 18 12 d 18 11 d 17 9 d 9 3 d 9 4 d 9 3 d 9 2 d 9 2 d 9 2 d 9 1 d 9 1 d 9 X 9 -1 d 9 X 9 -2 d 9 -1 d 9 -3 d 9 -2 d 9 -3 d 9 -4 d 9 -4 d 18 -9 d 18 -11 d 35 -27 d 18 -16 d 18 -17 d 18 -17 d 18 -19 d 18 -20 d 18 -20 d 18 -20
 d 18 -21 d 18 -21 d 18 -20 d 17 -20 d 18 -20 d 18 -19 d 18 -19 d 36 -38 d 36 -38 d 36 -38 d 36 -40 d 35 -42 d -35 42 d -36 40 d -36 38 d -36 38 d -36 38 d -18 19 d -18 19 d -18 20 d -17 20 d -18 20 d -18 21 d -18 21 d -18 20 d -18 20 d -18 20 d -18
 19 d -18 17 d -18 17 d -18 16 d -35 27 d -18 11 d -18 9 d -9 4 d -9 4 d -9 3 d -9 2 d -9 3 d -9 1 d -9 2 d -9 X -9 1 d -9 X -9 -1 d -9 -1 d -9 -2 d -9 -2 d -9 -2 d -9 -3 d -9 -4 d -9 -3 d -17 -9 d -18 -11 d -18 -12 d -18 -14 d -9 -7 d -9 -6 d -18
 -12 d -18 -12 d -18 -12 d -18 -11 d -18 -11 d -18 -11 d -18 -11 d -17 -11 d -36 -22 d -36 -22 d -36 -22 d -36 -22 d -36 -22 d -35 -21 d -36 -21 d -36 -19 d -36 -19 d -36 -17 d -36 -16 d -35 -14 d -36 -14 d -36 -12 d -36 -11 d -36 -11 d -36 -10 d -35
 -9 d -36 -8 d -36 -9 d -36 -8 d -36 -7 d -36 -8 d -35 -7 d -36 -7 d f 0 1 1 c 0 1 0 c black 0 1 0 c 363 888 m 36 7 d 35 7 d 36 8 d 36 7 d 36 8 d 36 9 d 36 8 d 35 9 d 36 10 d 36 11 d 36 11 d 36 12 d 36 14 d 35 14 d 36 16 d 36 17 d 36 19 d 36 19 d 36
 21 d 35 21 d 36 22 d 36 22 d 36 22 d 36 22 d 36 22 d 17 11 d 18 11 d 18 11 d 18 11 d 18 11 d 18 12 d 18 12 d 18 12 d 9 6 d 9 7 d 18 14 d 18 12 d 18 11 d 17 9 d 9 3 d 9 4 d 9 3 d 9 2 d 9 2 d 9 2 d 9 1 d 9 1 d 9 X 9 -1 d 9 X 9 -2 d 9 -1 d 9 -3 d 9 -2
 d 9 -3 d 9 -4 d 9 -4 d 18 -9 d 18 -11 d 35 -27 d 18 -16 d 18 -17 d 18 -17 d 18 -19 d 18 -20 d 18 -20 d 18 -20 d 18 -21 d 18 -21 d 18 -20 d 17 -20 d 18 -20 d 18 -19 d 18 -19 d 36 -38 d 36 -38 d 36 -38 d 36 -40 d 35 -42 d -35 42 d -36 40 d -36 38 d
 -36 38 d -36 38 d -18 19 d -18 19 d -18 20 d -17 20 d -18 20 d -18 21 d -18 21 d -18 20 d -18 20 d -18 20 d -18 19 d -18 17 d -18 17 d -18 16 d -35 27 d -18 11 d -18 9 d -9 4 d -9 4 d -9 3 d -9 2 d -9 3 d -9 1 d -9 2 d -9 X -9 1 d -9 X -9 -1 d -9 -1
 d -9 -2 d -9 -2 d -9 -2 d -9 -3 d -9 -4 d -9 -3 d -17 -9 d -18 -11 d -18 -12 d -18 -14 d -9 -7 d -9 -6 d -18 -12 d -18 -12 d -18 -12 d -18 -11 d -18 -11 d -18 -11 d -18 -11 d -17 -11 d -36 -22 d -36 -22 d -36 -22 d -36 -22 d -36 -22 d -35 -21 d -36
 -21 d -36 -19 d -36 -19 d -36 -17 d -36 -16 d -35 -14 d -36 -14 d -36 -12 d -36 -11 d -36 -11 d -36 -10 d -35 -9 d -36 -8 d -36 -9 d -36 -8 d -36 -7 d -36 -8 d -35 -7 d -36 -7 d f 0 0 1 c 9 lw black 0 0 1 c 363 888 m 36 7 d 35 7 d 36 8 d 36 7 d 36 8
 d 36 9 d 36 8 d 35 9 d 36 10 d 36 11 d 36 11 d 36 12 d 36 14 d 35 14 d 36 16 d 36 17 d 36 19 d 36 19 d 36 21 d 35 21 d 36 22 d 36 22 d 36 22 d 36 22 d 36 22 d 17 11 d 18 11 d 18 11 d 18 11 d 18 11 d 18 12 d 18 12 d 18 12 d 9 6 d 9 7 d 18 14 d 18 12
 d 18 11 d 17 9 d 9 3 d 9 4 d 9 3 d 9 2 d 9 2 d 9 2 d 9 1 d 9 1 d 9 X 9 -1 d 9 X 9 -2 d 9 -1 d 9 -3 d 9 -2 d 9 -3 d 9 -4 d 9 -4 d 18 -9 d 18 -11 d 35 -27 d 18 -16 d 18 -17 d 18 -17 d 18 -19 d 18 -20 d 18 -20 d 18 -20 d 18 -21 d 18 -21 d 18 -20 d 17
 -20 d 18 -20 d 18 -19 d 18 -19 d 36 -38 d 36 -38 d 36 -38 d 36 -40 d 35 -42 d s black 3 lw 381 733 m -18 X s 363 733 m cl s 381 733 m 18 X s 399 733 m cl s 381 733 m 112 Y s 381 845 m cl s 381 733 m -99 Y s 381 634 m cl s 417 879 m -18 X s 399 879 m
 cl s 417 879 m 17 X s 434 879 m cl s 417 879 m 62 Y s 417 941 m cl s 417 879 m -67 Y s 417 812 m cl s 452 933 m -18 X s 434 933 m cl s 452 933 m 18 X s 470 933 m cl s 452 933 m 50 Y s 452 983 m cl s 452 933 m -53 Y s 452 880 m cl s 488 825 m -18 X s
 470 825 m cl s 488 825 m 18 X s 506 825 m cl s 488 825 m 78 Y s 488 903 m cl s 488 825 m -87 Y s 488 738 m cl s 524 960 m -18 X s 506 960 m cl s 524 960 m 18 X s 542 960 m cl s 524 960 m 44 Y s 524 1004 m cl s 524 960 m -47 Y s 524 913 m cl s 560
 787 m -18 X s 542 787 m cl s 560 787 m 18 X s 578 787 m cl s 560 787 m 90 Y s 560 877 m cl s 560 787 m -105 Y s 560 682 m cl s 596 855 m -18 X s 578 855 m cl s 596 855 m 18 X s 614 855 m cl s 596 855 m 68 Y s 596 923 m cl s 596 855 m -75 Y s 596 780
 m cl s 632 947 m -18 X s 614 947 m cl s 632 947 m 17 X s 649 947 m cl s 632 947 m 47 Y s 632 994 m cl s 632 947 m -50 Y s 632 897 m cl s 667 1009 m -18 X s 649 1009 m cl s 667 1009 m 18 X s 685 1009 m cl s 667 1009 m 37 Y s 667 1046 m cl s 667 1009
 m -37 Y s 667 972 m cl s 703 933 m -18 X s 685 933 m cl s 703 933 m 18 X s 721 933 m cl s 703 933 m 50 Y s 703 983 m cl s 703 933 m -53 Y s 703 880 m cl s 739 1025 m -18 X s 721 1025 m cl s 739 1025 m 18 X s 757 1025 m cl s 739 1025 m 34 Y s 739
 1059 m cl s 739 1025 m -35 Y s 739 990 m cl s 775 1017 m -18 X s 757 1017 m cl s 775 1017 m 18 X s 793 1017 m cl s 775 1017 m 36 Y s 775 1053 m cl s 775 1017 m -36 Y s 775 981 m cl s 811 982 m -18 X s 793 982 m cl s 811 982 m 18 X s 829 982 m cl s
 811 982 m 41 Y s 811 1023 m cl s 811 982 m -43 Y s 811 939 m cl s 847 1052 m -18 X s 829 1052 m cl s 847 1052 m 17 X s 864 1052 m cl s 847 1052 m 31 Y s 847 1083 m cl s 847 1052 m -32 Y s 847 1020 m cl s 882 1069 m -18 X s 864 1069 m cl s 882 1069 m
 18 X s 900 1069 m cl s 882 1069 m 29 Y s 882 1098 m cl s 882 1069 m -30 Y s 882 1039 m cl s 918 1052 m -18 X s 900 1052 m cl s 918 1052 m 18 X s 936 1052 m cl s 918 1052 m 31 Y s 918 1083 m cl s 918 1052 m -32 Y s 918 1020 m cl s 954 1106 m -18 X s
 936 1106 m cl s 954 1106 m 18 X s 972 1106 m cl s 954 1106 m 25 Y s 954 1131 m cl s 954 1106 m -26 Y s 954 1080 m cl s 990 1110 m -18 X s 972 1110 m cl s 990 1110 m 18 X s 1008 1110 m cl s 990 1110 m 24 Y s 990 1134 m cl s 990 1110 m -25 Y s 990
 1085 m cl s 1026 1141 m -18 X s 1008 1141 m cl s 1026 1141 m 18 X s 1044 1141 m cl s 1026 1141 m 21 Y s 1026 1162 m cl s 1026 1141 m -22 Y s 1026 1119 m cl s 1062 1131 m -18 X s 1044 1131 m cl s 1062 1131 m 17 X s 1079 1131 m cl s 1062 1131 m 23 Y s
 1062 1154 m cl s 1062 1131 m -23 Y s 1062 1108 m cl s 1097 1155 m -18 X s 1079 1155 m cl s 1097 1155 m 18 X s 1115 1155 m cl s 1097 1155 m 21 Y s 1097 1176 m cl s 1097 1155 m -20 Y s 1097 1135 m cl s 1133 1176 m -18 X s 1115 1176 m cl s 1133 1176 m
 18 X s 1151 1176 m cl s 1133 1176 m 19 Y s 1133 1195 m cl s 1133 1176 m -19 Y s 1133 1157 m cl s 1169 1161 m -18 X s 1151 1161 m cl s 1169 1161 m 18 X s 1187 1161 m cl s 1169 1161 m 20 Y s 1169 1181 m cl s 1169 1161 m -20 Y s 1169 1141 m cl s 1205
 1189 m -18 X s 1187 1189 m cl s 1205 1189 m 18 X s 1223 1189 m cl s 1205 1189 m 18 Y s 1205 1207 m cl s 1205 1189 m -18 Y s 1205 1171 m cl s 1241 1249 m -18 X s 1223 1249 m cl s 1241 1249 m 18 X s 1259 1249 m cl s 1241 1249 m 14 Y s 1241 1263 m cl s
 1241 1249 m -14 Y s 1241 1235 m cl s 1276 1236 m -17 X s 1259 1236 m cl s 1276 1236 m 18 X s 1294 1236 m cl s 1276 1236 m 15 Y s 1276 1251 m cl s 1276 1236 m -15 Y s 1276 1221 m cl s 1312 1288 m -18 X s 1294 1288 m cl s 1312 1288 m 18 X s 1330 1288
 m cl s 1312 1288 m 12 Y s 1312 1300 m cl s 1312 1288 m -12 Y s 1312 1276 m cl s 1348 1306 m -18 X s 1330 1306 m cl s 1348 1306 m 18 X s 1366 1306 m cl s 1348 1306 m 11 Y s 1348 1317 m cl s 1348 1306 m -11 Y s 1348 1295 m cl s 1384 1328 m -18 X s
 1366 1328 m cl s 1384 1328 m 18 X s 1402 1328 m cl s 1384 1328 m 10 Y s 1384 1338 m cl s 1384 1328 m -10 Y s 1384 1318 m cl s 1420 1338 m -18 X s 1402 1338 m cl s 1420 1338 m 18 X s 1438 1338 m cl s 1420 1338 m 9 Y s 1420 1347 m cl s 1420 1338 m -10
 Y s 1420 1328 m cl s 1456 1359 m -18 X s 1438 1359 m cl s 1456 1359 m 18 X s 1474 1359 m cl s 1456 1359 m 9 Y s 1456 1368 m cl s 1456 1359 m -9 Y s 1456 1350 m cl s 1491 1381 m -17 X s 1474 1381 m cl s 1491 1381 m 18 X s 1509 1381 m cl s 1491 1381 m
 8 Y s 1491 1389 m cl s 1491 1381 m -9 Y s 1491 1372 m cl s 1527 1395 m -18 X s 1509 1395 m cl s 1527 1395 m 18 X s 1545 1395 m cl s 1527 1395 m 8 Y s 1527 1403 m cl s 1527 1395 m -7 Y s 1527 1388 m cl s 1563 1409 m -18 X s 1545 1409 m cl s 1563 1409
 m 18 X s 1581 1409 m cl s 1563 1409 m 8 Y s 1563 1417 m cl s 1563 1409 m -7 Y s 1563 1402 m cl s 1599 1416 m -18 X s 1581 1416 m cl s 1599 1416 m 18 X s 1617 1416 m cl s 1599 1416 m 8 Y s 1599 1424 m cl s 1599 1416 m -7 Y s 1599 1409 m cl s 1635
 1413 m -18 X s 1617 1413 m cl s 1635 1413 m 18 X s 1653 1413 m cl s 1635 1413 m 7 Y s 1635 1420 m cl s 1635 1413 m -7 Y s 1635 1406 m cl s 1671 1393 m -18 X s 1653 1393 m cl s 1671 1393 m 18 X s 1689 1393 m cl s 1671 1393 m 8 Y s 1671 1401 m cl s
 1671 1393 m -8 Y s 1671 1385 m cl s 1706 1372 m -17 X s 1689 1372 m cl s 1706 1372 m 18 X s 1724 1372 m cl s 1706 1372 m 8 Y s 1706 1380 m cl s 1706 1372 m -9 Y s 1706 1363 m cl s 1742 1330 m -18 X s 1724 1330 m cl s 1742 1330 m 18 X s 1760 1330 m
 cl s 1742 1330 m 10 Y s 1742 1340 m cl s 1742 1330 m -10 Y s 1742 1320 m cl s 1778 1311 m -18 X s 1760 1311 m cl s 1778 1311 m 18 X s 1796 1311 m cl s 1778 1311 m 11 Y s 1778 1322 m cl s 1778 1311 m -10 Y s 1778 1301 m cl s 1814 1275 m -18 X s 1796
 1275 m cl s 1814 1275 m 18 X s 1832 1275 m cl s 1814 1275 m 12 Y s 1814 1287 m cl s 1814 1275 m -12 Y s 1814 1263 m cl s 1850 1192 m -18 X s 1832 1192 m cl s 1850 1192 m 18 X s 1868 1192 m cl s 1850 1192 m 17 Y s 1850 1209 m cl s 1850 1192 m -18 Y s
 1850 1174 m cl s 1886 1183 m -18 X s 1868 1183 m cl s 1886 1183 m 18 X s 1904 1183 m cl s 1886 1183 m 18 Y s 1886 1201 m cl s 1886 1183 m -19 Y s 1886 1164 m cl s 1921 1174 m -17 X s 1904 1174 m cl s 1921 1174 m 18 X s 1939 1174 m cl s 1921 1174 m
 19 Y s 1921 1193 m cl s 1921 1174 m -20 Y s 1921 1154 m cl s 1957 1093 m -18 X s 1939 1093 m cl s 1957 1093 m 18 X s 1975 1093 m cl s 1957 1093 m 26 Y s 1957 1119 m cl s 1957 1093 m -27 Y s 1957 1066 m cl s 1993 971 m -18 X s 1975 971 m cl s 1993
 971 m 18 X s 2011 971 m cl s 1993 971 m 43 Y s 1993 1014 m cl s 1993 971 m -44 Y s 1993 927 m cl s 2029 1032 m -18 X s 2011 1032 m cl s 2029 1032 m 18 X s 2047 1032 m cl s 2029 1032 m 34 Y s 2029 1066 m cl s 2029 1032 m -34 Y s 2029 998 m cl s 2065
 971 m -18 X s 2047 971 m cl s 2065 971 m 18 X s 2083 971 m cl s 2065 971 m 43 Y s 2065 1014 m cl s 2065 971 m -44 Y s 2065 927 m cl s 2101 917 m -18 X s 2083 917 m cl s 2101 917 m 18 X s 2119 917 m cl s 2101 917 m 54 Y s 2101 971 m cl s 2101 917 m
 -56 Y s 2101 861 m cl s 2136 899 m -17 X s 2119 899 m cl s 2136 899 m 18 X s 2154 899 m cl s 2136 899 m 58 Y s 2136 957 m cl s 2136 899 m -61 Y s 2136 838 m cl s 381 733 417 879 452 933 488 825 524 960 560 787 596 855 632 947 667 1009 703 933 739
 1025 775 1017 811 982 847 1052 882 1069 918 1052 954 1106 990 1110 1026 1141 1062 1131 1097 1155 1133 1176 1169 1161 1205 1189 1241 1249 1276 1236 1312 1288 1348 1306 1384 1328 1420 1338 1456 1359 1491 1381 1527 1395 1563 1409 1599 1416 1635 1413
 1671 1393 1706 1372 1742 1330 1778 1311 1814 1275 1850 1192 1886 1183 1921 1174 1957 1093 1993 971 2029 1032 2065 971 2101 917 2136 899 50 { m20} R 0.52 0.76 0.64 c[ 4 8] 0 sd 9 lw black 0.52 0.76 0.64 c 363 888 m 36 7 d 35 7 d 36 7 d 36 8 d 36 8 d
 36 8 d 36 8 d 35 9 d 36 9 d 36 9 d 36 10 d 36 10 d 36 10 d 35 11 d 36 11 d 36 12 d 36 12 d 36 13 d 36 14 d 35 15 d 36 15 d 36 17 d 36 17 d 36 19 d 36 21 d 17 11 d 18 11 d 18 12 d 18 13 d 18 13 d 18 14 d 18 14 d 9 8 d 9 8 d 9 8 d 9 9 d 9 8 d 9 9 d 18
 16 d 18 14 d 9 5 d 8 6 d 9 4 d 9 5 d 9 3 d 9 3 d 9 3 d 9 2 d 9 1 d 9 1 d 18 X 9 -1 d 9 -2 d 9 -2 d 9 -3 d 9 -3 d 9 -4 d 9 -4 d 9 -5 d 18 -12 d 18 -14 d 35 -35 d 18 -20 d 18 -24 d 18 -25 d 18 -28 d 18 -30 d 18 -32 d 18 -35 d 18 -36 d 18 -40 d 18 -41
 d 17 -44 d 18 -46 d 18 -48 d 18 -51 d 36 -108 d 15 -49 d s 0.54 0.66 0.63 c black 0.54 0.66 0.63 c 806 634 m 23 34 d s 829 668 m 35 53 d 36 50 d 36 48 d 36 45 d 36 42 d 36 40 d 18 19 d 17 18 d 18 17 d 18 17 d 18 17 d 18 15 d 18 15 d 18 14 d 36 27 d
 36 24 d 35 21 d 36 19 d 36 17 d 36 13 d 18 6 d 18 5 d 18 5 d 18 3 d 17 4 d 18 2 d 18 2 d 18 1 d 18 1 d 18 X 18 -1 d 18 -1 d 18 -2 d 18 -3 d 18 -3 d 18 -4 d 17 -5 d 18 -5 d 18 -6 d 18 -7 d 36 -15 d 36 -18 d 36 -20 d 36 -23 d 35 -25 d 18 -14 d 18 -15
 d 18 -15 d 18 -16 d 18 -16 d 18 -17 d 18 -18 d 18 -18 d 36 -39 d 35 -41 d s black[  ] 0 sd 3 lw 363 634 m 1791 X s 628 659 m -25 Y s 695 646 m -12 Y s 761 646 m -12 Y s 827 646 m -12 Y s 894 646 m -12 Y s 960 659 m -25 Y s 1026 646 m -12 Y s 1093
 646 m -12 Y s 1159 646 m -12 Y s 1225 646 m -12 Y s 1292 659 m -25 Y s 1358 646 m -12 Y s 1424 646 m -12 Y s 1491 646 m -12 Y s 1557 646 m -12 Y s 1624 659 m -25 Y s 1690 646 m -12 Y s 1756 646 m -12 Y s 1823 646 m -12 Y s 1889 646 m -12 Y s 1955
 659 m -25 Y s 628 659 m -25 Y s 562 646 m -12 Y s 496 646 m -12 Y s 429 646 m -12 Y s 363 646 m -12 Y s 1955 659 m -25 Y s 2022 646 m -12 Y s 2088 646 m -12 Y s 2154 646 m -12 Y s 363 1484 m 1791 X s 628 1459 m 25 Y s 695 1471 m 13 Y s 761 1471 m 13
 Y s 827 1471 m 13 Y s 894 1471 m 13 Y s 960 1459 m 25 Y s 1026 1471 m 13 Y s 1093 1471 m 13 Y s 1159 1471 m 13 Y s 1225 1471 m 13 Y s 1292 1459 m 25 Y s 1358 1471 m 13 Y s 1424 1471 m 13 Y s 1491 1471 m 13 Y s 1557 1471 m 13 Y s 1624 1459 m 25 Y s
 1690 1471 m 13 Y s 1756 1471 m 13 Y s 1823 1471 m 13 Y s 1889 1471 m 13 Y s 1955 1459 m 25 Y s 628 1459 m 25 Y s 562 1471 m 13 Y s 496 1471 m 13 Y s 429 1471 m 13 Y s 363 1471 m 13 Y s 1955 1459 m 25 Y s 2022 1471 m 13 Y s 2088 1471 m 13 Y s 2154
 1471 m 13 Y s 363 634 m 850 Y s 417 641 m -54 X s 390 733 m -27 X s 390 787 m -27 X s 390 825 m -27 X s 390 855 m -27 X s 390 879 m -27 X s 390 899 m -27 X s 390 917 m -27 X s 390 933 m -27 X s 417 947 m -54 X s 390 1039 m -27 X s 390 1093 m -27 X s
 390 1131 m -27 X s 390 1161 m -27 X s 390 1185 m -27 X s 390 1206 m -27 X s 390 1223 m -27 X s 390 1239 m -27 X s 417 1253 m -54 X s 390 1345 m -27 X s 390 1399 m -27 X s 390 1437 m -27 X s 390 1467 m -27 X s 2154 634 m 850 Y s 2101 641 m 53 X s
 2127 733 m 27 X s 2127 787 m 27 X s 2127 825 m 27 X s 2127 855 m 27 X s 2127 879 m 27 X s 2127 899 m 27 X s 2127 917 m 27 X s 2127 933 m 27 X s 2101 947 m 53 X s 2127 1039 m 27 X s 2127 1093 m 27 X s 2127 1131 m 27 X s 2127 1161 m 27 X s 2127 1185 m
 27 X s 2127 1206 m 27 X s 2127 1223 m 27 X s 2127 1239 m 27 X s 2101 1253 m 53 X s 2127 1345 m 27 X s 2127 1399 m 27 X s 2127 1437 m 27 X s 2127 1467 m 27 X s
 gsave  2268 1077 0 461 C 677.708 1215.31 t 0 r /Helvetica findfont 58.7189 sf 0 0 m (4e) show NC gr  1 1 1 c 453 161 454 1269 bf black
 gsave  2268 1077 0 461 C 566.929 1371.71 t 0 r /Helvetica-Bold findfont 48.9324 sf 0 0 m (MC15) show NC gr  510 1390 m20
 gsave  2268 1077 0 461 C 566.929 1293.51 t 0 r /Helvetica-Bold findfont 48.9324 sf 0 0 m (Projection of Signal pdf) show NC gr  0 0 1 c 9 lw 471 1309 m 79 X s black 3 lw 1 1 1 c 2268 461 0 0 bf black 1 1 1 c 1791 364 363 74 bf black 1791 364 363 74
 bl 363 74 m 1791 X s
 gsave  2268 461 0 0 C 1915.83 13.0329 t 0 r /Helvetica findfont 22.9045 sf 0 0 m (4l Invariant Mass \(GeV\)) show NC gr  628 85 m -11 Y s 695 79 m -5 Y s 761 79 m -5 Y s 827 79 m -5 Y s 894 79 m -5 Y s 960 85 m -11 Y s 1026 79 m -5 Y s 1093 79 m -5
 Y s 1159 79 m -5 Y s 1225 79 m -5 Y s 1292 85 m -11 Y s 1358 79 m -5 Y s 1424 79 m -5 Y s 1491 79 m -5 Y s 1557 79 m -5 Y s 1624 85 m -11 Y s 1690 79 m -5 Y s 1756 79 m -5 Y s 1823 79 m -5 Y s 1889 79 m -5 Y s 1955 85 m -11 Y s 628 85 m -11 Y s 562
 79 m -5 Y s 496 79 m -5 Y s 429 79 m -5 Y s 363 79 m -5 Y s 1955 85 m -11 Y s 2022 79 m -5 Y s 2088 79 m -5 Y s 2154 79 m -5 Y s
 gsave  2268 461 0 0 C 606.028 55.3896 t 0 r /Helvetica findfont 22.9045 sf 0 0 m (185) show NC gr 
 gsave  2268 461 0 0 C 938.365 55.3896 t 0 r /Helvetica findfont 22.9045 sf 0 0 m (190) show NC gr 
 gsave  2268 461 0 0 C 1270.7 55.3896 t 0 r /Helvetica findfont 22.9045 sf 0 0 m (195) show NC gr 
 gsave  2268 461 0 0 C 1603.04 55.3896 t 0 r /Helvetica findfont 22.9045 sf 0 0 m (200) show NC gr 
 gsave  2268 461 0 0 C 1935.38 55.3896 t 0 r /Helvetica findfont 22.9045 sf 0 0 m (205) show NC gr  363 438 m 1791 X s 628 427 m 11 Y s 695 433 m 5 Y s 761 433 m 5 Y s 827 433 m 5 Y s 894 433 m 5 Y s 960 427 m 11 Y s 1026 433 m 5 Y s 1093 433 m 5 Y s
 1159 433 m 5 Y s 1225 433 m 5 Y s 1292 427 m 11 Y s 1358 433 m 5 Y s 1424 433 m 5 Y s 1491 433 m 5 Y s 1557 433 m 5 Y s 1624 427 m 11 Y s 1690 433 m 5 Y s 1756 433 m 5 Y s 1823 433 m 5 Y s 1889 433 m 5 Y s 1955 427 m 11 Y s 628 427 m 11 Y s 562 433
 m 5 Y s 496 433 m 5 Y s 429 433 m 5 Y s 363 433 m 5 Y s 1955 427 m 11 Y s 2022 433 m 5 Y s 2088 433 m 5 Y s 2154 433 m 5 Y s 363 74 m 364 Y s 417 74 m -54 X s 390 81 m -27 X s 390 88 m -27 X s 390 96 m -27 X s 390 103 m -27 X s 417 110 m -54 X s 390
 118 m -27 X s 390 125 m -27 X s 390 132 m -27 X s 390 139 m -27 X s 417 147 m -54 X s 390 154 m -27 X s 390 161 m -27 X s 390 169 m -27 X s 390 176 m -27 X s 417 183 m -54 X s 390 190 m -27 X s 390 198 m -27 X s 390 205 m -27 X s 390 212 m -27 X s
 417 220 m -54 X s 390 227 m -27 X s 390 234 m -27 X s 390 241 m -27 X s 390 249 m -27 X s 417 256 m -54 X s 390 263 m -27 X s 390 271 m -27 X s 390 278 m -27 X s 390 285 m -27 X s 417 293 m -54 X s 390 300 m -27 X s 390 307 m -27 X s 390 314 m -27 X
 s 390 322 m -27 X s 417 329 m -54 X s 390 336 m -27 X s 390 344 m -27 X s 390 351 m -27 X s 390 358 m -27 X s 417 365 m -54 X s 390 373 m -27 X s 390 380 m -27 X s 390 387 m -27 X s 390 395 m -27 X s 417 402 m -54 X s 390 409 m -27 X s 390 416 m -27
 X s 390 424 m -27 X s 390 431 m -27 X s 417 438 m -54 X s
 gsave  2268 461 0 0 C 329.08 65.1643 t 0 r /Helvetica findfont 22.9045 sf 0 0 m (\2555) show NC gr 
 gsave  2268 461 0 0 C 329.08 101.005 t 0 r /Helvetica findfont 22.9045 sf 0 0 m (\2554) show NC gr 
 gsave  2268 461 0 0 C 329.08 140.103 t 0 r /Helvetica findfont 22.9045 sf 0 0 m (\2553) show NC gr 
 gsave  2268 461 0 0 C 329.08 175.944 t 0 r /Helvetica findfont 22.9045 sf 0 0 m (\2552) show NC gr 
 gsave  2268 461 0 0 C 332.338 211.784 t 0 r /Helvetica findfont 22.9045 sf 0 0 m (\2551) show NC gr 
 gsave  2268 461 0 0 C 335.596 247.624 t 0 r /Helvetica findfont 22.9045 sf 0 0 m (0) show NC gr 
 gsave  2268 461 0 0 C 338.854 283.465 t 0 r /Helvetica findfont 22.9045 sf 0 0 m (1) show NC gr 
 gsave  2268 461 0 0 C 335.596 319.305 t 0 r /Helvetica findfont 22.9045 sf 0 0 m (2) show NC gr 
 gsave  2268 461 0 0 C 335.596 358.403 t 0 r /Helvetica findfont 22.9045 sf 0 0 m (3) show NC gr 
 gsave  2268 461 0 0 C 335.596 394.244 t 0 r /Helvetica findfont 22.9045 sf 0 0 m (4) show NC gr 
 gsave  2268 461 0 0 C 335.596 430.084 t 0 r /Helvetica findfont 22.9045 sf 0 0 m (5) show NC gr  2154 74 m 364 Y s 2101 74 m 53 X s 2127 81 m 27 X s 2127 88 m 27 X s 2127 96 m 27 X s 2127 103 m 27 X s 2101 110 m 53 X s 2127 118 m 27 X s 2127 125 m
 27 X s 2127 132 m 27 X s 2127 139 m 27 X s 2101 147 m 53 X s 2127 154 m 27 X s 2127 161 m 27 X s 2127 169 m 27 X s 2127 176 m 27 X s 2101 183 m 53 X s 2127 190 m 27 X s 2127 198 m 27 X s 2127 205 m 27 X s 2127 212 m 27 X s 2101 220 m 53 X s 2127 227
 m 27 X s 2127 234 m 27 X s 2127 241 m 27 X s 2127 249 m 27 X s 2101 256 m 53 X s 2127 263 m 27 X s 2127 271 m 27 X s 2127 278 m 27 X s 2127 285 m 27 X s 2101 293 m 53 X s 2127 300 m 27 X s 2127 307 m 27 X s 2127 314 m 27 X s 2127 322 m 27 X s 2101
 329 m 53 X s 2127 336 m 27 X s 2127 344 m 27 X s 2127 351 m 27 X s 2127 358 m 27 X s 2101 365 m 53 X s 2127 373 m 27 X s 2127 380 m 27 X s 2127 387 m 27 X s 2127 395 m 27 X s 2101 402 m 53 X s 2127 409 m 27 X s 2127 416 m 27 X s 2127 424 m 27 X s
 2127 431 m 27 X s 2101 438 m 53 X s 6 lw 0.2 0.8 0.2 c black 3 lw 0.2 0.8 0.2 c 363 256 m -63 Y 36 X 53 Y 35 X 31 Y 36 X -64 Y 36 X 74 Y 36 X -103 Y 36 X 25 Y 36 X 47 Y 35 X 48 Y 36 X -71 Y 36 X 70 Y 36 X -18 Y 36 X -46 Y 36 X 58 Y 35 X 4 Y 36 X -40
 Y 36 X 49 Y 36 X -18 Y 36 X 21 Y 36 X -48 Y 35 X 6 Y 36 X -2 Y 36 X -71 Y 36 X 8 Y 36 X 85 Y 36 X -88 Y 35 X 81 Y 36 X -12 Y 36 X -3 Y 36 X -60 Y 36 X -24 Y 36 X 3 Y 35 X 7 Y 36 X 40 Y 36 X 47 Y 36 X 30 Y 36 X -19 Y 36 X 8 Y 35 X -48 Y 36 X 53 Y 72
 X -105 Y 36 X 68 Y 36 X 54 Y 35 X -72 Y 36 X -86 Y 36 X 102 Y 36 X -21 Y 36 X -7 Y 36 X 15 Y 35 X 2 Y f 6 lw black 0.2 0.8 0.2 c black 363 193 m 36 X 53 Y 35 X 31 Y 36 X -64 Y 36 X 74 Y 36 X -103 Y 36 X 25 Y 36 X 47 Y 35 X 48 Y 36 X -71 Y 36 X 70 Y
 36 X -18 Y 36 X -46 Y 36 X 58 Y 35 X 4 Y 36 X -40 Y 36 X 49 Y 36 X -18 Y 36 X 21 Y 36 X -48 Y 35 X 6 Y 36 X -2 Y 36 X -71 Y 36 X 8 Y 36 X 85 Y 36 X -88 Y 35 X 81 Y 36 X -12 Y 36 X -3 Y 36 X -60 Y 36 X -24 Y 36 X 3 Y 35 X 7 Y 36 X 40 Y 36 X 47 Y 36 X
 30 Y 36 X -19 Y 36 X 8 Y 35 X -48 Y 36 X 53 Y 72 X -105 Y 36 X 68 Y 36 X 54 Y 35 X -72 Y 36 X -86 Y 36 X 102 Y 36 X -21 Y 36 X -7 Y 36 X 15 Y 35 X s 3 lw 363 74 m 1791 X s 628 85 m -11 Y s 695 79 m -5 Y s 761 79 m -5 Y s 827 79 m -5 Y s 894 79 m -5
 Y s 960 85 m -11 Y s 1026 79 m -5 Y s 1093 79 m -5 Y s 1159 79 m -5 Y s 1225 79 m -5 Y s 1292 85 m -11 Y s 1358 79 m -5 Y s 1424 79 m -5 Y s 1491 79 m -5 Y s 1557 79 m -5 Y s 1624 85 m -11 Y s 1690 79 m -5 Y s 1756 79 m -5 Y s 1823 79 m -5 Y s 1889
 79 m -5 Y s 1955 85 m -11 Y s 628 85 m -11 Y s 562 79 m -5 Y s 496 79 m -5 Y s 429 79 m -5 Y s 363 79 m -5 Y s 1955 85 m -11 Y s 2022 79 m -5 Y s 2088 79 m -5 Y s 2154 79 m -5 Y s 363 438 m 1791 X s 628 427 m 11 Y s 695 433 m 5 Y s 761 433 m 5 Y s
 827 433 m 5 Y s 894 433 m 5 Y s 960 427 m 11 Y s 1026 433 m 5 Y s 1093 433 m 5 Y s 1159 433 m 5 Y s 1225 433 m 5 Y s 1292 427 m 11 Y s 1358 433 m 5 Y s 1424 433 m 5 Y s 1491 433 m 5 Y s 1557 433 m 5 Y s 1624 427 m 11 Y s 1690 433 m 5 Y s 1756 433 m
 5 Y s 1823 433 m 5 Y s 1889 433 m 5 Y s 1955 427 m 11 Y s 628 427 m 11 Y s 562 433 m 5 Y s 496 433 m 5 Y s 429 433 m 5 Y s 363 433 m 5 Y s 1955 427 m 11 Y s 2022 433 m 5 Y s 2088 433 m 5 Y s 2154 433 m 5 Y s 363 74 m 364 Y s 417 74 m -54 X s 390 81
 m -27 X s 390 88 m -27 X s 390 96 m -27 X s 390 103 m -27 X s 417 110 m -54 X s 390 118 m -27 X s 390 125 m -27 X s 390 132 m -27 X s 390 139 m -27 X s 417 147 m -54 X s 390 154 m -27 X s 390 161 m -27 X s 390 169 m -27 X s 390 176 m -27 X s 417 183
 m -54 X s 390 190 m -27 X s 390 198 m -27 X s 390 205 m -27 X s 390 212 m -27 X s 417 220 m -54 X s 390 227 m -27 X s 390 234 m -27 X s 390 241 m -27 X s 390 249 m -27 X s 417 256 m -54 X s 390 263 m -27 X s 390 271 m -27 X s 390 278 m -27 X s 390
 285 m -27 X s 417 293 m -54 X s 390 300 m -27 X s 390 307 m -27 X s 390 314 m -27 X s 390 322 m -27 X s 417 329 m -54 X s 390 336 m -27 X s 390 344 m -27 X s 390 351 m -27 X s 390 358 m -27 X s 417 365 m -54 X s 390 373 m -27 X s 390 380 m -27 X s
 390 387 m -27 X s 390 395 m -27 X s 417 402 m -54 X s 390 409 m -27 X s 390 416 m -27 X s 390 424 m -27 X s 390 431 m -27 X s 417 438 m -54 X s 2154 74 m 364 Y s 2101 74 m 53 X s 2127 81 m 27 X s 2127 88 m 27 X s 2127 96 m 27 X s 2127 103 m 27 X s
 2101 110 m 53 X s 2127 118 m 27 X s 2127 125 m 27 X s 2127 132 m 27 X s 2127 139 m 27 X s 2101 147 m 53 X s 2127 154 m 27 X s 2127 161 m 27 X s 2127 169 m 27 X s 2127 176 m 27 X s 2101 183 m 53 X s 2127 190 m 27 X s 2127 198 m 27 X s 2127 205 m 27 X
 s 2127 212 m 27 X s 2101 220 m 53 X s 2127 227 m 27 X s 2127 234 m 27 X s 2127 241 m 27 X s 2127 249 m 27 X s 2101 256 m 53 X s 2127 263 m 27 X s 2127 271 m 27 X s 2127 278 m 27 X s 2127 285 m 27 X s 2101 293 m 53 X s 2127 300 m 27 X s 2127 307 m 27
 X s 2127 314 m 27 X s 2127 322 m 27 X s 2101 329 m 53 X s 2127 336 m 27 X s 2127 344 m 27 X s 2127 351 m 27 X s 2127 358 m 27 X s 2101 365 m 53 X s 2127 373 m 27 X s 2127 380 m 27 X s 2127 387 m 27 X s 2127 395 m 27 X s 2101 402 m 53 X s 2127 409 m
 27 X s 2127 416 m 27 X s 2127 424 m 27 X s 2127 431 m 27 X s 2101 438 m 53 X s
 gr  gr showpage
end
%%EOF
