%!PS-Adobe-2.0 EPSF-2.0
%%BoundingBox:  0 0 567 384
%%Title: H4l2015_plotfit/gg_mass_signal_500_H4l_4mu.eps: 
%%Creator: ROOT Version 5.34/10
%%CreationDate: Thu Feb 16 12:42:17 2017
%%EndComments
%%BeginProlog
80 dict begin
/s {stroke} def /l {lineto} def /m {moveto} def /t {translate} def
/r {rotate} def /rl {roll}  def /R {repeat} def
/d {rlineto} def /rm {rmoveto} def /gr {grestore} def /f {eofill} def
/c {setrgbcolor} def /black {0 setgray} def /sd {setdash} def
/cl {closepath} def /sf {scalefont setfont} def /lw {setlinewidth} def
/box {m dup 0 exch d exch 0 d 0 exch neg d cl} def
/NC{systemdict begin initclip end}def/C{NC box clip newpath}def
/bl {box s} def /bf {box f} def /Y { 0 exch d} def /X { 0 d} def 
/K {{pop pop 0 moveto} exch kshow} bind def
/ita {/ang 15 def gsave [1 0 ang dup sin exch cos div 1 0 0] concat} def 
/mp {newpath /y exch def /x exch def} def
/side {[w .77 mul w .23 mul] .385 w mul sd w 0 l currentpoint t -144 r} def
/mr {mp x y w2 0 360 arc} def /m24 {mr s} def /m20 {mr f} def
/mb {mp x y w2 add m w2 neg 0 d 0 w neg d w 0 d 0 w d cl} def
/mt {mp x y w2 add m w2 neg w neg d w 0 d cl} def
/m21 {mb f} def /m25 {mb s} def /m22 {mt f} def /m26{mt s} def
/m23 {mp x y w2 sub m w2 w d w neg 0 d cl f} def
/m27 {mp x y w2 add m w3 neg w2 neg d w3 w2 neg d w3 w2 d cl s} def
/m28 {mp x w2 sub y w2 sub w3 add m w3 0 d  0 w3 neg d w3 0 d 0 w3 d w3 0 d  0 w3 d w3 neg 0 d 0 w3 d w3 neg 0 d 0 w3 neg d w3 neg 0 d cl s } def
/m29 {mp gsave x w2 sub y w2 add w3 sub m currentpoint t 4 {side} repeat cl fill gr} def
/m30 {mp gsave x w2 sub y w2 add w3 sub m currentpoint t 4 {side} repeat cl s gr} def
/m31 {mp x y w2 sub m 0 w d x w2 sub y m w 0 d x w2 sub y w2 add m w w neg d x w2 sub y w2 sub m w w d s} def
/m32 {mp x y w2 sub m w2 w d w neg 0 d cl s} def
/m33 {mp x y w2 add m w3 neg w2 neg d w3 w2 neg d w3 w2 d cl f} def
/m34 {mp x w2 sub y w2 sub w3 add m w3 0 d  0 w3 neg d w3 0 d 0 w3 d w3 0 d  0 w3 d w3 neg 0 d 0 w3 d w3 neg 0 d 0 w3 neg d w3 neg 0 d cl f } def
/m2 {mp x y w2 sub m 0 w d x w2 sub y m w 0 d s} def
/m5 {mp x w2 sub y w2 sub m w w d x w2 sub y w2 add m w w neg d s} def
/reEncode {exch findfont dup length dict begin {1 index /FID eq  {pop pop} {def} ifelse } forall /Encoding exch def currentdict end dup /FontName get exch definefont pop } def [/Times-Bold /Times-Italic /Times-BoldItalic /Helvetica /Helvetica-Oblique
 /Helvetica-Bold /Helvetica-BoldOblique /Courier /Courier-Oblique /Courier-Bold /Courier-BoldOblique /Times-Roman /AvantGarde-Book /AvantGarde-BookOblique /AvantGarde-Demi /AvantGarde-DemiOblique /Bookman-Demi /Bookman-DemiItalic /Bookman-Light
 /Bookman-LightItalic /Helvetica-Narrow /Helvetica-Narrow-Bold /Helvetica-Narrow-BoldOblique /Helvetica-Narrow-Oblique /NewCenturySchlbk-Roman /NewCenturySchlbk-Bold /NewCenturySchlbk-BoldItalic /NewCenturySchlbk-Italic /Palatino-Bold
 /Palatino-BoldItalic /Palatino-Italic /Palatino-Roman ] {ISOLatin1Encoding reEncode } forall
%%EndProlog
%%BeginSetup
%%EndSetup
newpath  gsave  .25 .25 scale  gsave  0 0 t black[  ] 0 sd 3 lw 1 1 1 c 2268 1538 0 0 bf black 1 1 1 c 2222 738 23 784 bf black 1 1 1 c 2222 739 23 15 bf black 1 1 1 c 2268 1077 0 461 bf black 1 1 1 c 1791 850 363 634 bf black 1791 850 363 634 bl 363
 634 m 1791 X s
 gsave  2268 1077 0 461 C 1642.14 498.507 t 0 r /Helvetica findfont 48.9324 sf 0 0 m (4l Invariant Mass \(GeV\)) show NC gr  363 659 m -25 Y s 442 646 m -12 Y s 521 646 m -12 Y s 601 646 m -12 Y s 680 659 m -25 Y s 759 646 m -12 Y s 838 646 m -12 Y s
 918 646 m -12 Y s 997 659 m -25 Y s 1076 646 m -12 Y s 1156 646 m -12 Y s 1235 646 m -12 Y s 1314 659 m -25 Y s 1393 646 m -12 Y s 1473 646 m -12 Y s 1552 646 m -12 Y s 1631 659 m -25 Y s 1710 646 m -12 Y s 1790 646 m -12 Y s 1869 646 m -12 Y s 1948
 659 m -25 Y s 1948 659 m -25 Y s 2027 646 m -12 Y s 2107 646 m -12 Y s
 gsave  2268 1077 0 461 C 319.305 586.478 t 0 r /Helvetica findfont 48.9324 sf 0 0 m (420) show NC gr 
 gsave  2268 1077 0 461 C 635.352 586.478 t 0 r /Helvetica findfont 48.9324 sf 0 0 m (440) show NC gr 
 gsave  2268 1077 0 461 C 951.398 586.478 t 0 r /Helvetica findfont 48.9324 sf 0 0 m (460) show NC gr 
 gsave  2268 1077 0 461 C 1270.7 586.478 t 0 r /Helvetica findfont 48.9324 sf 0 0 m (480) show NC gr 
 gsave  2268 1077 0 461 C 1586.75 586.478 t 0 r /Helvetica findfont 48.9324 sf 0 0 m (500) show NC gr 
 gsave  2268 1077 0 461 C 1902.8 586.478 t 0 r /Helvetica findfont 48.9324 sf 0 0 m (520) show NC gr  363 1484 m 1791 X s 363 1459 m 25 Y s 442 1471 m 13 Y s 521 1471 m 13 Y s 601 1471 m 13 Y s 680 1459 m 25 Y s 759 1471 m 13 Y s 838 1471 m 13 Y s
 918 1471 m 13 Y s 997 1459 m 25 Y s 1076 1471 m 13 Y s 1156 1471 m 13 Y s 1235 1471 m 13 Y s 1314 1459 m 25 Y s 1393 1471 m 13 Y s 1473 1471 m 13 Y s 1552 1471 m 13 Y s 1631 1459 m 25 Y s 1710 1471 m 13 Y s 1790 1471 m 13 Y s 1869 1471 m 13 Y s 1948
 1459 m 25 Y s 1948 1459 m 25 Y s 2027 1471 m 13 Y s 2107 1471 m 13 Y s 363 634 m 850 Y s
 gsave  2268 1077 0 461 C 120.554 1032.85 t 90 r /Helvetica findfont 48.9324 sf 0 0 m (Events / \( 2.26 GeV \)) show NC gr  390 655 m -27 X s 390 695 m -27 X s 390 726 m -27 X s 390 751 m -27 X s 390 772 m -27 X s 390 791 m -27 X s 390 807 m -27 X s
 417 822 m -54 X s
 gsave  2268 1077 0 461 C 342.425 801.28 t 0 r  -55 0 t /Helvetica findfont 48.9324 sf 0 0 m (10) show NC gr  390 919 m -27 X s 390 975 m -27 X s 390 1015 m -27 X s 390 1046 m -27 X s 390 1072 m -27 X s 390 1093 m -27 X s 390 1112 m -27 X s 390 1128
 m -27 X s 417 1143 m -54 X s
 gsave  2268 1077 0 461 C 322.563 1140.37 t 0 r /Helvetica findfont 32.6216 sf 0 0 m (2) show NC gr 
 gsave  2268 1077 0 461 C 270.432 1120.83 t 0 r /Helvetica findfont 48.9324 sf 0 0 m (10) show NC gr  390 1239 m -27 X s 390 1296 m -27 X s 390 1336 m -27 X s 390 1367 m -27 X s 390 1392 m -27 X s 390 1414 m -27 X s 390 1432 m -27 X s 390 1449 m -27
 X s 417 1463 m -54 X s
 gsave  2268 1077 0 461 C 322.563 1466.2 t 0 r /Helvetica findfont 32.6216 sf 0 0 m (3) show NC gr 
 gsave  2268 1077 0 461 C 270.432 1443.39 t 0 r /Helvetica findfont 48.9324 sf 0 0 m (10) show NC gr  2154 634 m 850 Y s 2127 655 m 27 X s 2127 695 m 27 X s 2127 726 m 27 X s 2127 751 m 27 X s 2127 772 m 27 X s 2127 791 m 27 X s 2127 807 m 27 X s
 2101 822 m 53 X s 2127 919 m 27 X s 2127 975 m 27 X s 2127 1015 m 27 X s 2127 1046 m 27 X s 2127 1072 m 27 X s 2127 1093 m 27 X s 2127 1112 m 27 X s 2127 1128 m 27 X s 2101 1143 m 53 X s 2127 1239 m 27 X s 2127 1296 m 27 X s 2127 1336 m 27 X s 2127
 1367 m 27 X s 2127 1392 m 27 X s 2127 1414 m 27 X s 2127 1432 m 27 X s 2127 1449 m 27 X s 2101 1463 m 53 X s 381 751 m -18 X s 363 751 m cl s 381 751 m 18 X s 399 751 m cl s 381 751 m 65 Y s 381 816 m cl s 381 751 m -70 Y s 381 681 m cl s 417 655 m
 -18 X s 399 655 m cl s 417 655 m 17 X s 434 655 m cl s 417 655 m 94 Y s 417 749 m cl s 417 655 m -21 Y s 417 634 m cl s 452 772 m -18 X s 434 772 m cl s 452 772 m 18 X s 470 772 m cl s 452 772 m 60 Y s 452 832 m cl s 452 772 m -64 Y s 452 708 m cl s
 488 791 m -18 X s 470 791 m cl s 488 791 m 18 X s 506 791 m cl s 488 791 m 56 Y s 488 847 m cl s 488 791 m -59 Y s 488 732 m cl s 524 751 m -18 X s 506 751 m cl s 524 751 m 18 X s 542 751 m cl s 524 751 m 65 Y s 524 816 m cl s 524 751 m -70 Y s 524
 681 m cl s 560 791 m -18 X s 542 791 m cl s 560 791 m 18 X s 578 791 m cl s 560 791 m 56 Y s 560 847 m cl s 560 791 m -59 Y s 560 732 m cl s 596 791 m -18 X s 578 791 m cl s 596 791 m 18 X s 614 791 m cl s 596 791 m 56 Y s 596 847 m cl s 596 791 m
 -59 Y s 596 732 m cl s 632 726 m -18 X s 614 726 m cl s 632 726 m 17 X s 649 726 m cl s 632 726 m 72 Y s 632 798 m cl s 632 726 m -79 Y s 632 647 m cl s 667 791 m -18 X s 649 791 m cl s 667 791 m 18 X s 685 791 m cl s 667 791 m 56 Y s 667 847 m cl s
 667 791 m -59 Y s 667 732 m cl s 703 835 m -18 X s 685 835 m cl s 703 835 m 18 X s 721 835 m cl s 703 835 m 47 Y s 703 882 m cl s 703 835 m -49 Y s 703 786 m cl s 739 925 m -18 X s 721 925 m cl s 739 925 m 18 X s 757 925 m cl s 739 925 m 34 Y s 739
 959 m cl s 739 925 m -34 Y s 739 891 m cl s 775 822 m -18 X s 757 822 m cl s 775 822 m 18 X s 793 822 m cl s 775 822 m 50 Y s 775 872 m cl s 775 822 m -52 Y s 775 770 m cl s 811 822 m -18 X s 793 822 m cl s 811 822 m 18 X s 829 822 m cl s 811 822 m
 50 Y s 811 872 m cl s 811 822 m -52 Y s 811 770 m cl s 847 879 m -18 X s 829 879 m cl s 847 879 m 17 X s 864 879 m cl s 847 879 m 39 Y s 847 918 m cl s 847 879 m -41 Y s 847 838 m cl s 882 944 m -18 X s 864 944 m cl s 882 944 m 18 X s 900 944 m cl s
 882 944 m 31 Y s 882 975 m cl s 882 944 m -32 Y s 882 912 m cl s 918 955 m -18 X s 900 955 m cl s 918 955 m 18 X s 936 955 m cl s 918 955 m 30 Y s 918 985 m cl s 918 955 m -30 Y s 918 925 m cl s 954 944 m -18 X s 936 944 m cl s 954 944 m 18 X s 972
 944 m cl s 954 944 m 31 Y s 954 975 m cl s 954 944 m -32 Y s 954 912 m cl s 990 960 m -18 X s 972 960 m cl s 990 960 m 18 X s 1008 960 m cl s 990 960 m 29 Y s 990 989 m cl s 990 960 m -29 Y s 990 931 m cl s 1026 965 m -18 X s 1008 965 m cl s 1026
 965 m 18 X s 1044 965 m cl s 1026 965 m 29 Y s 1026 994 m cl s 1026 965 m -29 Y s 1026 936 m cl s 1062 988 m -18 X s 1044 988 m cl s 1062 988 m 17 X s 1079 988 m cl s 1062 988 m 26 Y s 1062 1014 m cl s 1062 988 m -26 Y s 1062 962 m cl s 1097 1004 m
 -18 X s 1079 1004 m cl s 1097 1004 m 18 X s 1115 1004 m cl s 1097 1004 m 25 Y s 1097 1029 m cl s 1097 1004 m -25 Y s 1097 979 m cl s 1133 1019 m -18 X s 1115 1019 m cl s 1133 1019 m 18 X s 1151 1019 m cl s 1133 1019 m 23 Y s 1133 1042 m cl s 1133
 1019 m -24 Y s 1133 995 m cl s 1169 1054 m -18 X s 1151 1054 m cl s 1169 1054 m 18 X s 1187 1054 m cl s 1169 1054 m 21 Y s 1169 1075 m cl s 1169 1054 m -20 Y s 1169 1034 m cl s 1205 1062 m -18 X s 1187 1062 m cl s 1205 1062 m 18 X s 1223 1062 m cl s
 1205 1062 m 20 Y s 1205 1082 m cl s 1205 1062 m -20 Y s 1205 1042 m cl s 1241 1076 m -18 X s 1223 1076 m cl s 1241 1076 m 18 X s 1259 1076 m cl s 1241 1076 m 19 Y s 1241 1095 m cl s 1241 1076 m -19 Y s 1241 1057 m cl s 1276 1155 m -17 X s 1259 1155
 m cl s 1276 1155 m 18 X s 1294 1155 m cl s 1276 1155 m 13 Y s 1276 1168 m cl s 1276 1155 m -14 Y s 1276 1141 m cl s 1312 1174 m -18 X s 1294 1174 m cl s 1312 1174 m 18 X s 1330 1174 m cl s 1312 1174 m 12 Y s 1312 1186 m cl s 1312 1174 m -13 Y s 1312
 1161 m cl s 1348 1214 m -18 X s 1330 1214 m cl s 1348 1214 m 18 X s 1366 1214 m cl s 1348 1214 m 11 Y s 1348 1225 m cl s 1348 1214 m -11 Y s 1348 1203 m cl s 1384 1251 m -18 X s 1366 1251 m cl s 1384 1251 m 18 X s 1402 1251 m cl s 1384 1251 m 9 Y s
 1384 1260 m cl s 1384 1251 m -10 Y s 1384 1241 m cl s 1420 1296 m -18 X s 1402 1296 m cl s 1420 1296 m 18 X s 1438 1296 m cl s 1420 1296 m 8 Y s 1420 1304 m cl s 1420 1296 m -8 Y s 1420 1288 m cl s 1456 1326 m -18 X s 1438 1326 m cl s 1456 1326 m 18
 X s 1474 1326 m cl s 1456 1326 m 7 Y s 1456 1333 m cl s 1456 1326 m -7 Y s 1456 1319 m cl s 1491 1358 m -17 X s 1474 1358 m cl s 1491 1358 m 18 X s 1509 1358 m cl s 1491 1358 m 7 Y s 1491 1365 m cl s 1491 1358 m -6 Y s 1491 1352 m cl s 1527 1372 m
 -18 X s 1509 1372 m cl s 1527 1372 m 18 X s 1545 1372 m cl s 1527 1372 m 6 Y s 1527 1378 m cl s 1527 1372 m -6 Y s 1527 1366 m cl s 1563 1402 m -18 X s 1545 1402 m cl s 1563 1402 m 18 X s 1581 1402 m cl s 1563 1402 m 6 Y s 1563 1408 m cl s 1563 1402
 m -5 Y s 1563 1397 m cl s 1599 1410 m -18 X s 1581 1410 m cl s 1599 1410 m 18 X s 1617 1410 m cl s 1599 1410 m 6 Y s 1599 1416 m cl s 1599 1410 m -5 Y s 1599 1405 m cl s 1635 1404 m -18 X s 1617 1404 m cl s 1635 1404 m 18 X s 1653 1404 m cl s 1635
 1404 m 6 Y s 1635 1410 m cl s 1635 1404 m -5 Y s 1635 1399 m cl s 1671 1400 m -18 X s 1653 1400 m cl s 1671 1400 m 18 X s 1689 1400 m cl s 1671 1400 m 6 Y s 1671 1406 m cl s 1671 1400 m -5 Y s 1671 1395 m cl s 1706 1363 m -17 X s 1689 1363 m cl s
 1706 1363 m 18 X s 1724 1363 m cl s 1706 1363 m 6 Y s 1706 1369 m cl s 1706 1363 m -6 Y s 1706 1357 m cl s 1742 1321 m -18 X s 1724 1321 m cl s 1742 1321 m 18 X s 1760 1321 m cl s 1742 1321 m 7 Y s 1742 1328 m cl s 1742 1321 m -8 Y s 1742 1313 m cl
 s 1778 1278 m -18 X s 1760 1278 m cl s 1778 1278 m 18 X s 1796 1278 m cl s 1778 1278 m 9 Y s 1778 1287 m cl s 1778 1278 m -8 Y s 1778 1270 m cl s 1814 1208 m -18 X s 1796 1208 m cl s 1814 1208 m 18 X s 1832 1208 m cl s 1814 1208 m 11 Y s 1814 1219 m
 cl s 1814 1208 m -11 Y s 1814 1197 m cl s 1850 1194 m -18 X s 1832 1194 m cl s 1850 1194 m 18 X s 1868 1194 m cl s 1850 1194 m 12 Y s 1850 1206 m cl s 1850 1194 m -11 Y s 1850 1183 m cl s 1886 1110 m -18 X s 1868 1110 m cl s 1886 1110 m 18 X s 1904
 1110 m cl s 1886 1110 m 16 Y s 1886 1126 m cl s 1886 1110 m -17 Y s 1886 1093 m cl s 1921 1085 m -17 X s 1904 1085 m cl s 1921 1085 m 18 X s 1939 1085 m cl s 1921 1085 m 18 Y s 1921 1103 m cl s 1921 1085 m -18 Y s 1921 1067 m cl s 1957 1038 m -18 X
 s 1939 1038 m cl s 1957 1038 m 18 X s 1975 1038 m cl s 1957 1038 m 21 Y s 1957 1059 m cl s 1957 1038 m -22 Y s 1957 1016 m cl s 1993 925 m -18 X s 1975 925 m cl s 1993 925 m 18 X s 2011 925 m cl s 1993 925 m 34 Y s 1993 959 m cl s 1993 925 m -34 Y s
 1993 891 m cl s 2029 869 m -18 X s 2011 869 m cl s 2029 869 m 18 X s 2047 869 m cl s 2029 869 m 41 Y s 2029 910 m cl s 2029 869 m -43 Y s 2029 826 m cl s 2065 859 m -18 X s 2047 859 m cl s 2065 859 m 18 X s 2083 859 m cl s 2065 859 m 43 Y s 2065 902
 m cl s 2065 859 m -45 Y s 2065 814 m cl s 2101 848 m -18 X s 2083 848 m cl s 2101 848 m 18 X s 2119 848 m cl s 2101 848 m 44 Y s 2101 892 m cl s 2101 848 m -47 Y s 2101 801 m cl s 2136 726 m -17 X s 2119 726 m cl s 2136 726 m 18 X s 2154 726 m cl s
 2136 726 m 72 Y s 2136 798 m cl s 2136 726 m -79 Y s 2136 647 m cl s /w 31 def /w2 {w 2 div} def /w3 {w 3 div} def 381 751 417 655 452 772 488 791 524 751 560 791 596 791 632 726 667 791 703 835 739 925 775 822 811 822 847 879 882 944 918 955 954
 944 990 960 1026 965 1062 988 1097 1004 1133 1019 1169 1054 1205 1062 1241 1076 1276 1155 1312 1174 1348 1214 1384 1251 1420 1296 1456 1326 1491 1358 1527 1372 1563 1402 1599 1410 1635 1404 1671 1400 1706 1363 1742 1321 1778 1278 1814 1208 1850 1194
 1886 1110 1921 1085 1957 1038 1993 925 2029 869 2065 859 2101 848 2136 726 50 { m20} R 0 1 1 c 1 1 0 c black 1 1 0 c 363 750 m 36 10 d 35 10 d 36 10 d 36 11 d 36 11 d 36 12 d 36 11 d 35 12 d 36 12 d 36 13 d 36 12 d 36 14 d 36 13 d 35 14 d 36 15 d 36
 15 d 36 16 d 36 16 d 36 18 d 35 18 d 36 20 d 36 20 d 36 22 d 36 23 d 36 26 d 17 13 d 18 15 d 18 16 d 18 18 d 18 21 d 18 22 d 9 11 d 9 12 d 9 11 d 9 12 d 18 22 d 18 21 d 18 18 d 18 18 d 17 15 d 18 13 d 9 5 d 9 6 d 9 5 d 9 4 d 9 4 d 9 3 d 9 2 d 9 2 d
 9 X 9 1 d 9 -1 d 9 -1 d 9 -3 d 9 -2 d 9 -4 d 9 -4 d 9 -5 d 9 -5 d 18 -12 d 35 -31 d 18 -18 d 18 -19 d 18 -22 d 18 -22 d 18 -24 d 18 -25 d 18 -24 d 18 -25 d 18 -25 d 18 -25 d 17 -25 d 18 -26 d 18 -26 d 18 -27 d 36 -55 d 36 -59 d 36 -62 d 36 -66 d 35
 -70 d -67 Y -23 X -12 35 d -36 89 d -36 80 d -36 72 d -36 66 d -18 31 d -18 30 d -18 29 d -17 28 d -18 28 d -18 27 d -18 26 d -18 26 d -18 24 d -18 25 d -18 23 d -18 22 d -18 21 d -18 20 d -35 33 d -18 13 d -9 5 d -9 4 d -9 4 d -9 3 d -9 3 d -9 2 d
 -9 1 d -27 X -9 -2 d -9 -2 d -9 -2 d -9 -3 d -9 -4 d -9 -5 d -9 -6 d -9 -6 d -18 -15 d -17 -17 d -18 -19 d -18 -21 d -18 -22 d -18 -23 d -9 -12 d -9 -11 d -9 -11 d -9 -11 d -18 -21 d -18 -20 d -18 -20 d -18 -18 d -18 -18 d -17 -16 d -36 -27 d -36
 -23 d -36 -21 d -36 -19 d -36 -18 d -35 -19 d -36 -18 d -36 -18 d -36 -17 d -36 -17 d -36 -17 d -35 -16 d -36 -15 d -36 -16 d -36 -15 d -36 -14 d -36 -14 d -35 -14 d -36 -13 d -36 -13 d -36 -13 d -36 -13 d -36 -12 d -35 -12 d -36 -11 d f 0 1 1 c 0 1
 0 c black 0 1 0 c 363 737 m 36 11 d 35 10 d 36 11 d 36 11 d 36 12 d 36 11 d 36 12 d 35 12 d 36 13 d 36 13 d 36 13 d 36 14 d 36 14 d 35 14 d 36 15 d 36 16 d 36 16 d 36 17 d 36 17 d 35 19 d 36 19 d 36 21 d 36 21 d 36 23 d 36 26 d 17 14 d 18 15 d 18 17
 d 18 19 d 18 20 d 18 22 d 9 11 d 9 12 d 9 11 d 9 12 d 18 22 d 18 21 d 18 19 d 18 18 d 17 15 d 18 14 d 9 6 d 9 5 d 9 5 d 9 4 d 9 4 d 9 3 d 9 2 d 9 1 d 9 1 d 18 X 9 -2 d 9 -2 d 9 -2 d 9 -4 d 9 -4 d 9 -5 d 9 -5 d 18 -12 d 35 -31 d 18 -19 d 18 -20 d 18
 -21 d 18 -23 d 18 -24 d 18 -24 d 18 -25 d 18 -25 d 18 -26 d 18 -25 d 17 -26 d 18 -27 d 18 -26 d 18 -28 d 36 -58 d 36 -61 d 36 -65 d 36 -69 d 35 -74 d -44 Y -7 X -28 68 d -36 80 d -36 74 d -36 67 d -36 63 d -18 29 d -18 30 d -18 28 d -17 27 d -18 27
 d -18 27 d -18 26 d -18 25 d -18 24 d -18 24 d -18 24 d -18 22 d -18 20 d -18 20 d -35 32 d -18 12 d -9 6 d -9 4 d -9 4 d -9 3 d -9 3 d -9 2 d -9 1 d -9 1 d -9 X -9 -1 d -9 -1 d -9 -2 d -9 -3 d -9 -4 d -9 -4 d -9 -4 d -9 -6 d -9 -6 d -18 -14 d -17
 -17 d -18 -18 d -18 -21 d -18 -21 d -18 -23 d -9 -12 d -9 -11 d -9 -12 d -9 -11 d -18 -21 d -18 -20 d -18 -19 d -18 -18 d -18 -17 d -17 -15 d -36 -27 d -36 -23 d -36 -21 d -36 -20 d -36 -18 d -35 -19 d -36 -18 d -36 -17 d -36 -17 d -36 -16 d -36 -16
 d -35 -16 d -36 -15 d -36 -15 d -36 -14 d -36 -14 d -36 -13 d -35 -13 d -36 -13 d -36 -13 d -36 -12 d -36 -12 d -36 -11 d -35 -12 d -36 -11 d f 0 0 1 c 9 lw black 0 0 1 c 363 724 m 36 11 d 35 11 d 36 11 d 36 12 d 36 11 d 36 13 d 36 12 d 35 12 d 36
 13 d 36 14 d 36 14 d 36 14 d 36 14 d 35 15 d 36 16 d 36 16 d 36 16 d 36 17 d 36 18 d 35 18 d 36 19 d 36 20 d 36 22 d 36 23 d 36 26 d 17 15 d 18 16 d 18 17 d 18 19 d 18 20 d 18 22 d 9 11 d 9 11 d 9 12 d 9 11 d 18 23 d 18 21 d 18 20 d 18 18 d 17 16 d
 18 14 d 9 6 d 9 5 d 9 5 d 9 4 d 9 4 d 9 3 d 9 2 d 9 1 d 9 1 d 9 X 9 -1 d 9 -1 d 9 -2 d 9 -3 d 9 -3 d 9 -4 d 9 -4 d 9 -6 d 18 -12 d 35 -32 d 18 -19 d 18 -20 d 18 -22 d 18 -23 d 18 -24 d 18 -24 d 18 -25 d 18 -26 d 18 -26 d 18 -26 d 17 -27 d 18 -27 d
 18 -28 d 18 -28 d 36 -60 d 36 -64 d 36 -69 d 36 -74 d 35 -79 d s black 3 lw 381 751 m -18 X s 363 751 m cl s 381 751 m 18 X s 399 751 m cl s 381 751 m 65 Y s 381 816 m cl s 381 751 m -70 Y s 381 681 m cl s 417 655 m -18 X s 399 655 m cl s 417 655 m
 17 X s 434 655 m cl s 417 655 m 94 Y s 417 749 m cl s 417 655 m -21 Y s 417 634 m cl s 452 772 m -18 X s 434 772 m cl s 452 772 m 18 X s 470 772 m cl s 452 772 m 60 Y s 452 832 m cl s 452 772 m -64 Y s 452 708 m cl s 488 791 m -18 X s 470 791 m cl s
 488 791 m 18 X s 506 791 m cl s 488 791 m 56 Y s 488 847 m cl s 488 791 m -59 Y s 488 732 m cl s 524 751 m -18 X s 506 751 m cl s 524 751 m 18 X s 542 751 m cl s 524 751 m 65 Y s 524 816 m cl s 524 751 m -70 Y s 524 681 m cl s 560 791 m -18 X s 542
 791 m cl s 560 791 m 18 X s 578 791 m cl s 560 791 m 56 Y s 560 847 m cl s 560 791 m -59 Y s 560 732 m cl s 596 791 m -18 X s 578 791 m cl s 596 791 m 18 X s 614 791 m cl s 596 791 m 56 Y s 596 847 m cl s 596 791 m -59 Y s 596 732 m cl s 632 726 m
 -18 X s 614 726 m cl s 632 726 m 17 X s 649 726 m cl s 632 726 m 72 Y s 632 798 m cl s 632 726 m -79 Y s 632 647 m cl s 667 791 m -18 X s 649 791 m cl s 667 791 m 18 X s 685 791 m cl s 667 791 m 56 Y s 667 847 m cl s 667 791 m -59 Y s 667 732 m cl s
 703 835 m -18 X s 685 835 m cl s 703 835 m 18 X s 721 835 m cl s 703 835 m 47 Y s 703 882 m cl s 703 835 m -49 Y s 703 786 m cl s 739 925 m -18 X s 721 925 m cl s 739 925 m 18 X s 757 925 m cl s 739 925 m 34 Y s 739 959 m cl s 739 925 m -34 Y s 739
 891 m cl s 775 822 m -18 X s 757 822 m cl s 775 822 m 18 X s 793 822 m cl s 775 822 m 50 Y s 775 872 m cl s 775 822 m -52 Y s 775 770 m cl s 811 822 m -18 X s 793 822 m cl s 811 822 m 18 X s 829 822 m cl s 811 822 m 50 Y s 811 872 m cl s 811 822 m
 -52 Y s 811 770 m cl s 847 879 m -18 X s 829 879 m cl s 847 879 m 17 X s 864 879 m cl s 847 879 m 39 Y s 847 918 m cl s 847 879 m -41 Y s 847 838 m cl s 882 944 m -18 X s 864 944 m cl s 882 944 m 18 X s 900 944 m cl s 882 944 m 31 Y s 882 975 m cl s
 882 944 m -32 Y s 882 912 m cl s 918 955 m -18 X s 900 955 m cl s 918 955 m 18 X s 936 955 m cl s 918 955 m 30 Y s 918 985 m cl s 918 955 m -30 Y s 918 925 m cl s 954 944 m -18 X s 936 944 m cl s 954 944 m 18 X s 972 944 m cl s 954 944 m 31 Y s 954
 975 m cl s 954 944 m -32 Y s 954 912 m cl s 990 960 m -18 X s 972 960 m cl s 990 960 m 18 X s 1008 960 m cl s 990 960 m 29 Y s 990 989 m cl s 990 960 m -29 Y s 990 931 m cl s 1026 965 m -18 X s 1008 965 m cl s 1026 965 m 18 X s 1044 965 m cl s 1026
 965 m 29 Y s 1026 994 m cl s 1026 965 m -29 Y s 1026 936 m cl s 1062 988 m -18 X s 1044 988 m cl s 1062 988 m 17 X s 1079 988 m cl s 1062 988 m 26 Y s 1062 1014 m cl s 1062 988 m -26 Y s 1062 962 m cl s 1097 1004 m -18 X s 1079 1004 m cl s 1097 1004
 m 18 X s 1115 1004 m cl s 1097 1004 m 25 Y s 1097 1029 m cl s 1097 1004 m -25 Y s 1097 979 m cl s 1133 1019 m -18 X s 1115 1019 m cl s 1133 1019 m 18 X s 1151 1019 m cl s 1133 1019 m 23 Y s 1133 1042 m cl s 1133 1019 m -24 Y s 1133 995 m cl s 1169
 1054 m -18 X s 1151 1054 m cl s 1169 1054 m 18 X s 1187 1054 m cl s 1169 1054 m 21 Y s 1169 1075 m cl s 1169 1054 m -20 Y s 1169 1034 m cl s 1205 1062 m -18 X s 1187 1062 m cl s 1205 1062 m 18 X s 1223 1062 m cl s 1205 1062 m 20 Y s 1205 1082 m cl s
 1205 1062 m -20 Y s 1205 1042 m cl s 1241 1076 m -18 X s 1223 1076 m cl s 1241 1076 m 18 X s 1259 1076 m cl s 1241 1076 m 19 Y s 1241 1095 m cl s 1241 1076 m -19 Y s 1241 1057 m cl s 1276 1155 m -17 X s 1259 1155 m cl s 1276 1155 m 18 X s 1294 1155
 m cl s 1276 1155 m 13 Y s 1276 1168 m cl s 1276 1155 m -14 Y s 1276 1141 m cl s 1312 1174 m -18 X s 1294 1174 m cl s 1312 1174 m 18 X s 1330 1174 m cl s 1312 1174 m 12 Y s 1312 1186 m cl s 1312 1174 m -13 Y s 1312 1161 m cl s 1348 1214 m -18 X s
 1330 1214 m cl s 1348 1214 m 18 X s 1366 1214 m cl s 1348 1214 m 11 Y s 1348 1225 m cl s 1348 1214 m -11 Y s 1348 1203 m cl s 1384 1251 m -18 X s 1366 1251 m cl s 1384 1251 m 18 X s 1402 1251 m cl s 1384 1251 m 9 Y s 1384 1260 m cl s 1384 1251 m -10
 Y s 1384 1241 m cl s 1420 1296 m -18 X s 1402 1296 m cl s 1420 1296 m 18 X s 1438 1296 m cl s 1420 1296 m 8 Y s 1420 1304 m cl s 1420 1296 m -8 Y s 1420 1288 m cl s 1456 1326 m -18 X s 1438 1326 m cl s 1456 1326 m 18 X s 1474 1326 m cl s 1456 1326 m
 7 Y s 1456 1333 m cl s 1456 1326 m -7 Y s 1456 1319 m cl s 1491 1358 m -17 X s 1474 1358 m cl s 1491 1358 m 18 X s 1509 1358 m cl s 1491 1358 m 7 Y s 1491 1365 m cl s 1491 1358 m -6 Y s 1491 1352 m cl s 1527 1372 m -18 X s 1509 1372 m cl s 1527 1372
 m 18 X s 1545 1372 m cl s 1527 1372 m 6 Y s 1527 1378 m cl s 1527 1372 m -6 Y s 1527 1366 m cl s 1563 1402 m -18 X s 1545 1402 m cl s 1563 1402 m 18 X s 1581 1402 m cl s 1563 1402 m 6 Y s 1563 1408 m cl s 1563 1402 m -5 Y s 1563 1397 m cl s 1599
 1410 m -18 X s 1581 1410 m cl s 1599 1410 m 18 X s 1617 1410 m cl s 1599 1410 m 6 Y s 1599 1416 m cl s 1599 1410 m -5 Y s 1599 1405 m cl s 1635 1404 m -18 X s 1617 1404 m cl s 1635 1404 m 18 X s 1653 1404 m cl s 1635 1404 m 6 Y s 1635 1410 m cl s
 1635 1404 m -5 Y s 1635 1399 m cl s 1671 1400 m -18 X s 1653 1400 m cl s 1671 1400 m 18 X s 1689 1400 m cl s 1671 1400 m 6 Y s 1671 1406 m cl s 1671 1400 m -5 Y s 1671 1395 m cl s 1706 1363 m -17 X s 1689 1363 m cl s 1706 1363 m 18 X s 1724 1363 m
 cl s 1706 1363 m 6 Y s 1706 1369 m cl s 1706 1363 m -6 Y s 1706 1357 m cl s 1742 1321 m -18 X s 1724 1321 m cl s 1742 1321 m 18 X s 1760 1321 m cl s 1742 1321 m 7 Y s 1742 1328 m cl s 1742 1321 m -8 Y s 1742 1313 m cl s 1778 1278 m -18 X s 1760 1278
 m cl s 1778 1278 m 18 X s 1796 1278 m cl s 1778 1278 m 9 Y s 1778 1287 m cl s 1778 1278 m -8 Y s 1778 1270 m cl s 1814 1208 m -18 X s 1796 1208 m cl s 1814 1208 m 18 X s 1832 1208 m cl s 1814 1208 m 11 Y s 1814 1219 m cl s 1814 1208 m -11 Y s 1814
 1197 m cl s 1850 1194 m -18 X s 1832 1194 m cl s 1850 1194 m 18 X s 1868 1194 m cl s 1850 1194 m 12 Y s 1850 1206 m cl s 1850 1194 m -11 Y s 1850 1183 m cl s 1886 1110 m -18 X s 1868 1110 m cl s 1886 1110 m 18 X s 1904 1110 m cl s 1886 1110 m 16 Y s
 1886 1126 m cl s 1886 1110 m -17 Y s 1886 1093 m cl s 1921 1085 m -17 X s 1904 1085 m cl s 1921 1085 m 18 X s 1939 1085 m cl s 1921 1085 m 18 Y s 1921 1103 m cl s 1921 1085 m -18 Y s 1921 1067 m cl s 1957 1038 m -18 X s 1939 1038 m cl s 1957 1038 m
 18 X s 1975 1038 m cl s 1957 1038 m 21 Y s 1957 1059 m cl s 1957 1038 m -22 Y s 1957 1016 m cl s 1993 925 m -18 X s 1975 925 m cl s 1993 925 m 18 X s 2011 925 m cl s 1993 925 m 34 Y s 1993 959 m cl s 1993 925 m -34 Y s 1993 891 m cl s 2029 869 m -18
 X s 2011 869 m cl s 2029 869 m 18 X s 2047 869 m cl s 2029 869 m 41 Y s 2029 910 m cl s 2029 869 m -43 Y s 2029 826 m cl s 2065 859 m -18 X s 2047 859 m cl s 2065 859 m 18 X s 2083 859 m cl s 2065 859 m 43 Y s 2065 902 m cl s 2065 859 m -45 Y s 2065
 814 m cl s 2101 848 m -18 X s 2083 848 m cl s 2101 848 m 18 X s 2119 848 m cl s 2101 848 m 44 Y s 2101 892 m cl s 2101 848 m -47 Y s 2101 801 m cl s 2136 726 m -17 X s 2119 726 m cl s 2136 726 m 18 X s 2154 726 m cl s 2136 726 m 72 Y s 2136 798 m cl
 s 2136 726 m -79 Y s 2136 647 m cl s 381 751 417 655 452 772 488 791 524 751 560 791 596 791 632 726 667 791 703 835 739 925 775 822 811 822 847 879 882 944 918 955 954 944 990 960 1026 965 1062 988 1097 1004 1133 1019 1169 1054 1205 1062 1241 1076
 1276 1155 1312 1174 1348 1214 1384 1251 1420 1296 1456 1326 1491 1358 1527 1372 1563 1402 1599 1410 1635 1404 1671 1400 1706 1363 1742 1321 1778 1278 1814 1208 1850 1194 1886 1110 1921 1085 1957 1038 1993 925 2029 869 2065 859 2101 848 2136 726 50 {
 m20} R 0.52 0.76 0.64 c[ 4 8] 0 sd 9 lw black 0.52 0.76 0.64 c 363 724 m 36 11 d 35 11 d 36 11 d 36 12 d 36 11 d 36 13 d 36 12 d 35 12 d 36 13 d 36 14 d 36 14 d 36 14 d 36 14 d 35 15 d 36 16 d 36 16 d 36 16 d 36 17 d 36 18 d 35 18 d 36 19 d 36 20 d
 36 21 d 36 22 d 18 11 d 18 11 d 17 12 d 18 12 d 18 12 d 18 13 d 18 13 d 18 13 d 18 14 d 18 14 d 36 26 d 18 10 d 18 10 d 17 8 d 18 7 d 18 6 d 9 2 d 9 2 d 9 2 d 9 1 d 9 1 d 9 1 d 27 X 9 -1 d 9 -1 d 9 -1 d 9 -2 d 9 -1 d 18 -5 d 18 -6 d 17 -8 d 18 -9 d
 18 -10 d 18 -11 d 36 -27 d 36 -31 d 18 -18 d 18 -19 d 18 -21 d 18 -22 d 17 -23 d 18 -24 d 18 -26 d 18 -27 d 18 -28 d 18 -30 d 18 -31 d 18 -32 d 18 -33 d 18 -35 d 36 -74 d 35 -79 d s 0.54 0.66 0.63 c black 0.54 0.66 0.63 c 1251 634 m 8 33 d s 1259
 667 m 17 69 d 18 66 d 18 61 d 18 58 d 18 54 d 9 26 d 9 25 d 9 23 d 9 23 d 9 22 d 9 21 d 9 20 d 9 19 d 9 18 d 9 17 d 9 16 d 9 15 d 18 28 d 35 44 d 9 8 d 9 8 d 9 7 d 9 6 d 9 4 d 9 4 d 9 3 d 9 2 d 9 1 d 18 X 9 -2 d 9 -3 d 9 -4 d 9 -4 d 9 -6 d 9 -6 d 9
 -8 d 9 -8 d 9 -9 d 35 -47 d 18 -29 d 9 -16 d 9 -17 d 9 -18 d 9 -19 d 9 -20 d 9 -20 d 9 -22 d 9 -22 d 9 -24 d 9 -24 d 9 -26 d 9 -26 d 18 -56 d 18 -59 d 18 -63 d 17 -67 d 18 -70 d 2 -6 d s black[  ] 0 sd 3 lw 363 634 m 1791 X s 363 659 m -25 Y s 442
 646 m -12 Y s 521 646 m -12 Y s 601 646 m -12 Y s 680 659 m -25 Y s 759 646 m -12 Y s 838 646 m -12 Y s 918 646 m -12 Y s 997 659 m -25 Y s 1076 646 m -12 Y s 1156 646 m -12 Y s 1235 646 m -12 Y s 1314 659 m -25 Y s 1393 646 m -12 Y s 1473 646 m -12
 Y s 1552 646 m -12 Y s 1631 659 m -25 Y s 1710 646 m -12 Y s 1790 646 m -12 Y s 1869 646 m -12 Y s 1948 659 m -25 Y s 1948 659 m -25 Y s 2027 646 m -12 Y s 2107 646 m -12 Y s 363 1484 m 1791 X s 363 1459 m 25 Y s 442 1471 m 13 Y s 521 1471 m 13 Y s
 601 1471 m 13 Y s 680 1459 m 25 Y s 759 1471 m 13 Y s 838 1471 m 13 Y s 918 1471 m 13 Y s 997 1459 m 25 Y s 1076 1471 m 13 Y s 1156 1471 m 13 Y s 1235 1471 m 13 Y s 1314 1459 m 25 Y s 1393 1471 m 13 Y s 1473 1471 m 13 Y s 1552 1471 m 13 Y s 1631
 1459 m 25 Y s 1710 1471 m 13 Y s 1790 1471 m 13 Y s 1869 1471 m 13 Y s 1948 1459 m 25 Y s 1948 1459 m 25 Y s 2027 1471 m 13 Y s 2107 1471 m 13 Y s 363 634 m 850 Y s 390 655 m -27 X s 390 695 m -27 X s 390 726 m -27 X s 390 751 m -27 X s 390 772 m
 -27 X s 390 791 m -27 X s 390 807 m -27 X s 417 822 m -54 X s 390 919 m -27 X s 390 975 m -27 X s 390 1015 m -27 X s 390 1046 m -27 X s 390 1072 m -27 X s 390 1093 m -27 X s 390 1112 m -27 X s 390 1128 m -27 X s 417 1143 m -54 X s 390 1239 m -27 X s
 390 1296 m -27 X s 390 1336 m -27 X s 390 1367 m -27 X s 390 1392 m -27 X s 390 1414 m -27 X s 390 1432 m -27 X s 390 1449 m -27 X s 417 1463 m -54 X s 2154 634 m 850 Y s 2127 655 m 27 X s 2127 695 m 27 X s 2127 726 m 27 X s 2127 751 m 27 X s 2127
 772 m 27 X s 2127 791 m 27 X s 2127 807 m 27 X s 2101 822 m 53 X s 2127 919 m 27 X s 2127 975 m 27 X s 2127 1015 m 27 X s 2127 1046 m 27 X s 2127 1072 m 27 X s 2127 1093 m 27 X s 2127 1112 m 27 X s 2127 1128 m 27 X s 2101 1143 m 53 X s 2127 1239 m
 27 X s 2127 1296 m 27 X s 2127 1336 m 27 X s 2127 1367 m 27 X s 2127 1392 m 27 X s 2127 1414 m 27 X s 2127 1432 m 27 X s 2127 1449 m 27 X s 2101 1463 m 53 X s
 gsave  2268 1077 0 461 C 677.708 1215.31 t 0 r /Helvetica findfont 58.7189 sf 0 0 m (4mu) show NC gr  1 1 1 c 453 161 454 1269 bf black
 gsave  2268 1077 0 461 C 566.929 1371.71 t 0 r /Helvetica-Bold findfont 48.9324 sf 0 0 m (MC15) show NC gr  510 1390 m20
 gsave  2268 1077 0 461 C 566.929 1293.51 t 0 r /Helvetica-Bold findfont 48.9324 sf 0 0 m (Projection of Signal pdf) show NC gr  0 0 1 c 9 lw 471 1309 m 79 X s black 3 lw 1 1 1 c 2268 461 0 0 bf black 1 1 1 c 1791 364 363 74 bf black 1791 364 363 74
 bl 363 74 m 1791 X s
 gsave  2268 461 0 0 C 1915.83 13.0329 t 0 r /Helvetica findfont 22.9045 sf 0 0 m (4l Invariant Mass \(GeV\)) show NC gr  363 85 m -11 Y s 442 79 m -5 Y s 521 79 m -5 Y s 601 79 m -5 Y s 680 85 m -11 Y s 759 79 m -5 Y s 838 79 m -5 Y s 918 79 m -5 Y
 s 997 85 m -11 Y s 1076 79 m -5 Y s 1156 79 m -5 Y s 1235 79 m -5 Y s 1314 85 m -11 Y s 1393 79 m -5 Y s 1473 79 m -5 Y s 1552 79 m -5 Y s 1631 85 m -11 Y s 1710 79 m -5 Y s 1790 79 m -5 Y s 1869 79 m -5 Y s 1948 85 m -11 Y s 1948 85 m -11 Y s 2027
 79 m -5 Y s 2107 79 m -5 Y s
 gsave  2268 461 0 0 C 342.112 55.3896 t 0 r /Helvetica findfont 22.9045 sf 0 0 m (420) show NC gr 
 gsave  2268 461 0 0 C 658.159 55.3896 t 0 r /Helvetica findfont 22.9045 sf 0 0 m (440) show NC gr 
 gsave  2268 461 0 0 C 974.206 55.3896 t 0 r /Helvetica findfont 22.9045 sf 0 0 m (460) show NC gr 
 gsave  2268 461 0 0 C 1293.51 55.3896 t 0 r /Helvetica findfont 22.9045 sf 0 0 m (480) show NC gr 
 gsave  2268 461 0 0 C 1609.56 55.3896 t 0 r /Helvetica findfont 22.9045 sf 0 0 m (500) show NC gr 
 gsave  2268 461 0 0 C 1925.6 55.3896 t 0 r /Helvetica findfont 22.9045 sf 0 0 m (520) show NC gr  363 438 m 1791 X s 363 427 m 11 Y s 442 433 m 5 Y s 521 433 m 5 Y s 601 433 m 5 Y s 680 427 m 11 Y s 759 433 m 5 Y s 838 433 m 5 Y s 918 433 m 5 Y s
 997 427 m 11 Y s 1076 433 m 5 Y s 1156 433 m 5 Y s 1235 433 m 5 Y s 1314 427 m 11 Y s 1393 433 m 5 Y s 1473 433 m 5 Y s 1552 433 m 5 Y s 1631 427 m 11 Y s 1710 433 m 5 Y s 1790 433 m 5 Y s 1869 433 m 5 Y s 1948 427 m 11 Y s 1948 427 m 11 Y s 2027
 433 m 5 Y s 2107 433 m 5 Y s 363 74 m 364 Y s 417 74 m -54 X s 390 81 m -27 X s 390 88 m -27 X s 390 96 m -27 X s 390 103 m -27 X s 417 110 m -54 X s 390 118 m -27 X s 390 125 m -27 X s 390 132 m -27 X s 390 139 m -27 X s 417 147 m -54 X s 390 154 m
 -27 X s 390 161 m -27 X s 390 169 m -27 X s 390 176 m -27 X s 417 183 m -54 X s 390 190 m -27 X s 390 198 m -27 X s 390 205 m -27 X s 390 212 m -27 X s 417 220 m -54 X s 390 227 m -27 X s 390 234 m -27 X s 390 241 m -27 X s 390 249 m -27 X s 417 256
 m -54 X s 390 263 m -27 X s 390 271 m -27 X s 390 278 m -27 X s 390 285 m -27 X s 417 293 m -54 X s 390 300 m -27 X s 390 307 m -27 X s 390 314 m -27 X s 390 322 m -27 X s 417 329 m -54 X s 390 336 m -27 X s 390 344 m -27 X s 390 351 m -27 X s 390
 358 m -27 X s 417 365 m -54 X s 390 373 m -27 X s 390 380 m -27 X s 390 387 m -27 X s 390 395 m -27 X s 417 402 m -54 X s 390 409 m -27 X s 390 416 m -27 X s 390 424 m -27 X s 390 431 m -27 X s 417 438 m -54 X s
 gsave  2268 461 0 0 C 329.08 65.1643 t 0 r /Helvetica findfont 22.9045 sf 0 0 m (\2555) show NC gr 
 gsave  2268 461 0 0 C 329.08 101.005 t 0 r /Helvetica findfont 22.9045 sf 0 0 m (\2554) show NC gr 
 gsave  2268 461 0 0 C 329.08 140.103 t 0 r /Helvetica findfont 22.9045 sf 0 0 m (\2553) show NC gr 
 gsave  2268 461 0 0 C 329.08 175.944 t 0 r /Helvetica findfont 22.9045 sf 0 0 m (\2552) show NC gr 
 gsave  2268 461 0 0 C 332.338 211.784 t 0 r /Helvetica findfont 22.9045 sf 0 0 m (\2551) show NC gr 
 gsave  2268 461 0 0 C 335.596 247.624 t 0 r /Helvetica findfont 22.9045 sf 0 0 m (0) show NC gr 
 gsave  2268 461 0 0 C 338.854 283.465 t 0 r /Helvetica findfont 22.9045 sf 0 0 m (1) show NC gr 
 gsave  2268 461 0 0 C 335.596 319.305 t 0 r /Helvetica findfont 22.9045 sf 0 0 m (2) show NC gr 
 gsave  2268 461 0 0 C 335.596 358.403 t 0 r /Helvetica findfont 22.9045 sf 0 0 m (3) show NC gr 
 gsave  2268 461 0 0 C 335.596 394.244 t 0 r /Helvetica findfont 22.9045 sf 0 0 m (4) show NC gr 
 gsave  2268 461 0 0 C 335.596 430.084 t 0 r /Helvetica findfont 22.9045 sf 0 0 m (5) show NC gr  2154 74 m 364 Y s 2101 74 m 53 X s 2127 81 m 27 X s 2127 88 m 27 X s 2127 96 m 27 X s 2127 103 m 27 X s 2101 110 m 53 X s 2127 118 m 27 X s 2127 125 m
 27 X s 2127 132 m 27 X s 2127 139 m 27 X s 2101 147 m 53 X s 2127 154 m 27 X s 2127 161 m 27 X s 2127 169 m 27 X s 2127 176 m 27 X s 2101 183 m 53 X s 2127 190 m 27 X s 2127 198 m 27 X s 2127 205 m 27 X s 2127 212 m 27 X s 2101 220 m 53 X s 2127 227
 m 27 X s 2127 234 m 27 X s 2127 241 m 27 X s 2127 249 m 27 X s 2101 256 m 53 X s 2127 263 m 27 X s 2127 271 m 27 X s 2127 278 m 27 X s 2127 285 m 27 X s 2101 293 m 53 X s 2127 300 m 27 X s 2127 307 m 27 X s 2127 314 m 27 X s 2127 322 m 27 X s 2101
 329 m 53 X s 2127 336 m 27 X s 2127 344 m 27 X s 2127 351 m 27 X s 2127 358 m 27 X s 2101 365 m 53 X s 2127 373 m 27 X s 2127 380 m 27 X s 2127 387 m 27 X s 2127 395 m 27 X s 2101 402 m 53 X s 2127 409 m 27 X s 2127 416 m 27 X s 2127 424 m 27 X s
 2127 431 m 27 X s 2101 438 m 53 X s 6 lw 0.2 0.8 0.2 c black 3 lw 0.2 0.8 0.2 c 363 256 m 13 Y 36 X -45 Y 35 X 46 Y 36 X 5 Y 36 X -30 Y 36 X 14 Y 36 X -7 Y 36 X -42 Y 35 X 26 Y 36 X 19 Y 36 X 71 Y 36 X -101 Y 36 X -12 Y 36 X 30 Y 35 X 53 Y 36 X -3 Y
 36 X -33 Y 36 X -1 Y 36 X -15 Y 36 X 6 Y 35 X -5 Y 36 X -9 Y 36 X 23 Y 36 X -26 Y 36 X -23 Y 36 X 119 Y 35 X -33 Y 36 X 10 Y 36 X -21 Y 36 X 2 Y 36 X -49 Y 36 X -14 Y 35 X -76 Y 36 X 92 Y 36 X 25 Y 36 X 2 Y 36 X 86 Y 36 X -67 Y 35 X -39 Y 36 X 1 Y
 36 X -80 Y 36 X 122 Y 36 X -85 Y 36 X 62 Y 35 X 12 Y 36 X -73 Y 36 X 16 Y 36 X 49 Y 36 X 39 Y 36 X -37 Y 35 X -17 Y f 6 lw black 0.2 0.8 0.2 c black 363 269 m 36 X -45 Y 35 X 46 Y 36 X 5 Y 36 X -30 Y 36 X 14 Y 36 X -7 Y 36 X -42 Y 35 X 26 Y 36 X 19
 Y 36 X 71 Y 36 X -101 Y 36 X -12 Y 36 X 30 Y 35 X 53 Y 36 X -3 Y 36 X -33 Y 36 X -1 Y 36 X -15 Y 36 X 6 Y 35 X -5 Y 36 X -9 Y 36 X 23 Y 36 X -26 Y 36 X -23 Y 36 X 119 Y 35 X -33 Y 36 X 10 Y 36 X -21 Y 36 X 2 Y 36 X -49 Y 36 X -14 Y 35 X -76 Y 36 X
 92 Y 36 X 25 Y 36 X 2 Y 36 X 86 Y 36 X -67 Y 35 X -39 Y 36 X 1 Y 36 X -80 Y 36 X 122 Y 36 X -85 Y 36 X 62 Y 35 X 12 Y 36 X -73 Y 36 X 16 Y 36 X 49 Y 36 X 39 Y 36 X -37 Y 35 X s 3 lw 363 74 m 1791 X s 363 85 m -11 Y s 442 79 m -5 Y s 521 79 m -5 Y s
 601 79 m -5 Y s 680 85 m -11 Y s 759 79 m -5 Y s 838 79 m -5 Y s 918 79 m -5 Y s 997 85 m -11 Y s 1076 79 m -5 Y s 1156 79 m -5 Y s 1235 79 m -5 Y s 1314 85 m -11 Y s 1393 79 m -5 Y s 1473 79 m -5 Y s 1552 79 m -5 Y s 1631 85 m -11 Y s 1710 79 m -5
 Y s 1790 79 m -5 Y s 1869 79 m -5 Y s 1948 85 m -11 Y s 1948 85 m -11 Y s 2027 79 m -5 Y s 2107 79 m -5 Y s 363 438 m 1791 X s 363 427 m 11 Y s 442 433 m 5 Y s 521 433 m 5 Y s 601 433 m 5 Y s 680 427 m 11 Y s 759 433 m 5 Y s 838 433 m 5 Y s 918 433
 m 5 Y s 997 427 m 11 Y s 1076 433 m 5 Y s 1156 433 m 5 Y s 1235 433 m 5 Y s 1314 427 m 11 Y s 1393 433 m 5 Y s 1473 433 m 5 Y s 1552 433 m 5 Y s 1631 427 m 11 Y s 1710 433 m 5 Y s 1790 433 m 5 Y s 1869 433 m 5 Y s 1948 427 m 11 Y s 1948 427 m 11 Y s
 2027 433 m 5 Y s 2107 433 m 5 Y s 363 74 m 364 Y s 417 74 m -54 X s 390 81 m -27 X s 390 88 m -27 X s 390 96 m -27 X s 390 103 m -27 X s 417 110 m -54 X s 390 118 m -27 X s 390 125 m -27 X s 390 132 m -27 X s 390 139 m -27 X s 417 147 m -54 X s 390
 154 m -27 X s 390 161 m -27 X s 390 169 m -27 X s 390 176 m -27 X s 417 183 m -54 X s 390 190 m -27 X s 390 198 m -27 X s 390 205 m -27 X s 390 212 m -27 X s 417 220 m -54 X s 390 227 m -27 X s 390 234 m -27 X s 390 241 m -27 X s 390 249 m -27 X s
 417 256 m -54 X s 390 263 m -27 X s 390 271 m -27 X s 390 278 m -27 X s 390 285 m -27 X s 417 293 m -54 X s 390 300 m -27 X s 390 307 m -27 X s 390 314 m -27 X s 390 322 m -27 X s 417 329 m -54 X s 390 336 m -27 X s 390 344 m -27 X s 390 351 m -27 X
 s 390 358 m -27 X s 417 365 m -54 X s 390 373 m -27 X s 390 380 m -27 X s 390 387 m -27 X s 390 395 m -27 X s 417 402 m -54 X s 390 409 m -27 X s 390 416 m -27 X s 390 424 m -27 X s 390 431 m -27 X s 417 438 m -54 X s 2154 74 m 364 Y s 2101 74 m 53
 X s 2127 81 m 27 X s 2127 88 m 27 X s 2127 96 m 27 X s 2127 103 m 27 X s 2101 110 m 53 X s 2127 118 m 27 X s 2127 125 m 27 X s 2127 132 m 27 X s 2127 139 m 27 X s 2101 147 m 53 X s 2127 154 m 27 X s 2127 161 m 27 X s 2127 169 m 27 X s 2127 176 m 27
 X s 2101 183 m 53 X s 2127 190 m 27 X s 2127 198 m 27 X s 2127 205 m 27 X s 2127 212 m 27 X s 2101 220 m 53 X s 2127 227 m 27 X s 2127 234 m 27 X s 2127 241 m 27 X s 2127 249 m 27 X s 2101 256 m 53 X s 2127 263 m 27 X s 2127 271 m 27 X s 2127 278 m
 27 X s 2127 285 m 27 X s 2101 293 m 53 X s 2127 300 m 27 X s 2127 307 m 27 X s 2127 314 m 27 X s 2127 322 m 27 X s 2101 329 m 53 X s 2127 336 m 27 X s 2127 344 m 27 X s 2127 351 m 27 X s 2127 358 m 27 X s 2101 365 m 53 X s 2127 373 m 27 X s 2127 380
 m 27 X s 2127 387 m 27 X s 2127 395 m 27 X s 2101 402 m 53 X s 2127 409 m 27 X s 2127 416 m 27 X s 2127 424 m 27 X s 2127 431 m 27 X s 2101 438 m 53 X s
 gr  gr showpage
end
%%EOF
