%!PS-Adobe-2.0 EPSF-2.0
%%BoundingBox:  0 0 567 384
%%Title: H4l2015_plotfit/gg_mass_signal_300_fixed_H4l_2mu2e.eps: 
%%Creator: ROOT Version 5.34/10
%%CreationDate: Thu Feb 16 15:43:02 2017
%%EndComments
%%BeginProlog
80 dict begin
/s {stroke} def /l {lineto} def /m {moveto} def /t {translate} def
/r {rotate} def /rl {roll}  def /R {repeat} def
/d {rlineto} def /rm {rmoveto} def /gr {grestore} def /f {eofill} def
/c {setrgbcolor} def /black {0 setgray} def /sd {setdash} def
/cl {closepath} def /sf {scalefont setfont} def /lw {setlinewidth} def
/box {m dup 0 exch d exch 0 d 0 exch neg d cl} def
/NC{systemdict begin initclip end}def/C{NC box clip newpath}def
/bl {box s} def /bf {box f} def /Y { 0 exch d} def /X { 0 d} def 
/K {{pop pop 0 moveto} exch kshow} bind def
/ita {/ang 15 def gsave [1 0 ang dup sin exch cos div 1 0 0] concat} def 
/mp {newpath /y exch def /x exch def} def
/side {[w .77 mul w .23 mul] .385 w mul sd w 0 l currentpoint t -144 r} def
/mr {mp x y w2 0 360 arc} def /m24 {mr s} def /m20 {mr f} def
/mb {mp x y w2 add m w2 neg 0 d 0 w neg d w 0 d 0 w d cl} def
/mt {mp x y w2 add m w2 neg w neg d w 0 d cl} def
/m21 {mb f} def /m25 {mb s} def /m22 {mt f} def /m26{mt s} def
/m23 {mp x y w2 sub m w2 w d w neg 0 d cl f} def
/m27 {mp x y w2 add m w3 neg w2 neg d w3 w2 neg d w3 w2 d cl s} def
/m28 {mp x w2 sub y w2 sub w3 add m w3 0 d  0 w3 neg d w3 0 d 0 w3 d w3 0 d  0 w3 d w3 neg 0 d 0 w3 d w3 neg 0 d 0 w3 neg d w3 neg 0 d cl s } def
/m29 {mp gsave x w2 sub y w2 add w3 sub m currentpoint t 4 {side} repeat cl fill gr} def
/m30 {mp gsave x w2 sub y w2 add w3 sub m currentpoint t 4 {side} repeat cl s gr} def
/m31 {mp x y w2 sub m 0 w d x w2 sub y m w 0 d x w2 sub y w2 add m w w neg d x w2 sub y w2 sub m w w d s} def
/m32 {mp x y w2 sub m w2 w d w neg 0 d cl s} def
/m33 {mp x y w2 add m w3 neg w2 neg d w3 w2 neg d w3 w2 d cl f} def
/m34 {mp x w2 sub y w2 sub w3 add m w3 0 d  0 w3 neg d w3 0 d 0 w3 d w3 0 d  0 w3 d w3 neg 0 d 0 w3 d w3 neg 0 d 0 w3 neg d w3 neg 0 d cl f } def
/m2 {mp x y w2 sub m 0 w d x w2 sub y m w 0 d s} def
/m5 {mp x w2 sub y w2 sub m w w d x w2 sub y w2 add m w w neg d s} def
/reEncode {exch findfont dup length dict begin {1 index /FID eq  {pop pop} {def} ifelse } forall /Encoding exch def currentdict end dup /FontName get exch definefont pop } def [/Times-Bold /Times-Italic /Times-BoldItalic /Helvetica /Helvetica-Oblique
 /Helvetica-Bold /Helvetica-BoldOblique /Courier /Courier-Oblique /Courier-Bold /Courier-BoldOblique /Times-Roman /AvantGarde-Book /AvantGarde-BookOblique /AvantGarde-Demi /AvantGarde-DemiOblique /Bookman-Demi /Bookman-DemiItalic /Bookman-Light
 /Bookman-LightItalic /Helvetica-Narrow /Helvetica-Narrow-Bold /Helvetica-Narrow-BoldOblique /Helvetica-Narrow-Oblique /NewCenturySchlbk-Roman /NewCenturySchlbk-Bold /NewCenturySchlbk-BoldItalic /NewCenturySchlbk-Italic /Palatino-Bold
 /Palatino-BoldItalic /Palatino-Italic /Palatino-Roman ] {ISOLatin1Encoding reEncode } forall
%%EndProlog
%%BeginSetup
%%EndSetup
newpath  gsave  .25 .25 scale  gsave  0 0 t black[  ] 0 sd 3 lw 1 1 1 c 2268 1538 0 0 bf black 1 1 1 c 2222 738 23 784 bf black 1 1 1 c 2222 739 23 15 bf black 1 1 1 c 2268 1077 0 461 bf black 1 1 1 c 1791 850 363 634 bf black 1791 850 363 634 bl 363
 634 m 1791 X s
 gsave  2268 1077 0 461 C 1642.14 498.507 t 0 r /Helvetica findfont 48.9324 sf 0 0 m (4l Invariant Mass \(GeV\)) show NC gr  475 659 m -25 Y s 512 646 m -12 Y s 549 646 m -12 Y s 587 646 m -12 Y s 624 646 m -12 Y s 661 659 m -25 Y s 699 646 m -12 Y s
 736 646 m -12 Y s 773 646 m -12 Y s 811 646 m -12 Y s 848 659 m -25 Y s 885 646 m -12 Y s 923 646 m -12 Y s 960 646 m -12 Y s 997 646 m -12 Y s 1035 659 m -25 Y s 1072 646 m -12 Y s 1109 646 m -12 Y s 1147 646 m -12 Y s 1184 646 m -12 Y s 1221 659 m
 -25 Y s 1259 646 m -12 Y s 1296 646 m -12 Y s 1333 646 m -12 Y s 1371 646 m -12 Y s 1408 659 m -25 Y s 1445 646 m -12 Y s 1483 646 m -12 Y s 1520 646 m -12 Y s 1557 646 m -12 Y s 1594 659 m -25 Y s 1632 646 m -12 Y s 1669 646 m -12 Y s 1706 646 m
 -12 Y s 1744 646 m -12 Y s 1781 659 m -25 Y s 1818 646 m -12 Y s 1856 646 m -12 Y s 1893 646 m -12 Y s 1930 646 m -12 Y s 1968 659 m -25 Y s 2005 646 m -12 Y s 2042 646 m -12 Y s 2080 646 m -12 Y s 2117 646 m -12 Y s 2154 659 m -25 Y s 475 659 m -25
 Y s 437 646 m -12 Y s 400 646 m -12 Y s 363 646 m -12 Y s
 gsave  2268 1077 0 461 C 430.084 586.478 t 0 r /Helvetica findfont 48.9324 sf 0 0 m (270) show NC gr 
 gsave  2268 1077 0 461 C 619.061 586.478 t 0 r /Helvetica findfont 48.9324 sf 0 0 m (275) show NC gr 
 gsave  2268 1077 0 461 C 804.779 586.478 t 0 r /Helvetica findfont 48.9324 sf 0 0 m (280) show NC gr 
 gsave  2268 1077 0 461 C 990.497 586.478 t 0 r /Helvetica findfont 48.9324 sf 0 0 m (285) show NC gr 
 gsave  2268 1077 0 461 C 1176.22 586.478 t 0 r /Helvetica findfont 48.9324 sf 0 0 m (290) show NC gr 
 gsave  2268 1077 0 461 C 1365.19 586.478 t 0 r /Helvetica findfont 48.9324 sf 0 0 m (295) show NC gr 
 gsave  2268 1077 0 461 C 1550.91 586.478 t 0 r /Helvetica findfont 48.9324 sf 0 0 m (300) show NC gr 
 gsave  2268 1077 0 461 C 1736.63 586.478 t 0 r /Helvetica findfont 48.9324 sf 0 0 m (305) show NC gr 
 gsave  2268 1077 0 461 C 1922.35 586.478 t 0 r /Helvetica findfont 48.9324 sf 0 0 m (310) show NC gr 
 gsave  2268 1077 0 461 C 2111.32 586.478 t 0 r /Helvetica findfont 48.9324 sf 0 0 m (315) show NC gr  363 1484 m 1791 X s 475 1459 m 25 Y s 512 1471 m 13 Y s 549 1471 m 13 Y s 587 1471 m 13 Y s 624 1471 m 13 Y s 661 1459 m 25 Y s 699 1471 m 13 Y s
 736 1471 m 13 Y s 773 1471 m 13 Y s 811 1471 m 13 Y s 848 1459 m 25 Y s 885 1471 m 13 Y s 923 1471 m 13 Y s 960 1471 m 13 Y s 997 1471 m 13 Y s 1035 1459 m 25 Y s 1072 1471 m 13 Y s 1109 1471 m 13 Y s 1147 1471 m 13 Y s 1184 1471 m 13 Y s 1221 1459
 m 25 Y s 1259 1471 m 13 Y s 1296 1471 m 13 Y s 1333 1471 m 13 Y s 1371 1471 m 13 Y s 1408 1459 m 25 Y s 1445 1471 m 13 Y s 1483 1471 m 13 Y s 1520 1471 m 13 Y s 1557 1471 m 13 Y s 1594 1459 m 25 Y s 1632 1471 m 13 Y s 1669 1471 m 13 Y s 1706 1471 m
 13 Y s 1744 1471 m 13 Y s 1781 1459 m 25 Y s 1818 1471 m 13 Y s 1856 1471 m 13 Y s 1893 1471 m 13 Y s 1930 1471 m 13 Y s 1968 1459 m 25 Y s 2005 1471 m 13 Y s 2042 1471 m 13 Y s 2080 1471 m 13 Y s 2117 1471 m 13 Y s 2154 1459 m 25 Y s 475 1459 m 25
 Y s 437 1471 m 13 Y s 400 1471 m 13 Y s 363 1471 m 13 Y s 363 634 m 850 Y s
 gsave  2268 1077 0 461 C 120.554 1032.85 t 90 r /Helvetica findfont 48.9324 sf 0 0 m (Events / \( 0.96 GeV \)) show NC gr  390 648 m -27 X s 390 686 m -27 X s 390 716 m -27 X s 390 740 m -27 X s 390 760 m -27 X s 390 778 m -27 X s 390 794 m -27 X s
 417 808 m -54 X s
 gsave  2268 1077 0 461 C 342.425 787.02 t 0 r  -55 0 t /Helvetica findfont 48.9324 sf 0 0 m (10) show NC gr  390 900 m -27 X s 390 954 m -27 X s 390 992 m -27 X s 390 1022 m -27 X s 390 1046 m -27 X s 390 1067 m -27 X s 390 1084 m -27 X s 390 1100 m
 -27 X s 417 1114 m -54 X s
 gsave  2268 1077 0 461 C 322.563 1111.05 t 0 r /Helvetica findfont 32.6216 sf 0 0 m (2) show NC gr 
 gsave  2268 1077 0 461 C 270.432 1091.5 t 0 r /Helvetica findfont 48.9324 sf 0 0 m (10) show NC gr  390 1206 m -27 X s 390 1260 m -27 X s 390 1298 m -27 X s 390 1328 m -27 X s 390 1352 m -27 X s 390 1373 m -27 X s 390 1390 m -27 X s 390 1406 m -27 X
 s 417 1420 m -54 X s
 gsave  2268 1077 0 461 C 322.563 1420.58 t 0 r /Helvetica findfont 32.6216 sf 0 0 m (3) show NC gr 
 gsave  2268 1077 0 461 C 270.432 1397.77 t 0 r /Helvetica findfont 48.9324 sf 0 0 m (10) show NC gr  2154 634 m 850 Y s 2127 648 m 27 X s 2127 686 m 27 X s 2127 716 m 27 X s 2127 740 m 27 X s 2127 760 m 27 X s 2127 778 m 27 X s 2127 794 m 27 X s
 2101 808 m 53 X s 2127 900 m 27 X s 2127 954 m 27 X s 2127 992 m 27 X s 2127 1022 m 27 X s 2127 1046 m 27 X s 2127 1067 m 27 X s 2127 1084 m 27 X s 2127 1100 m 27 X s 2101 1114 m 53 X s 2127 1206 m 27 X s 2127 1260 m 27 X s 2127 1298 m 27 X s 2127
 1328 m 27 X s 2127 1352 m 27 X s 2127 1373 m 27 X s 2127 1390 m 27 X s 2127 1406 m 27 X s 2101 1420 m 53 X s 381 794 m -18 X s 363 794 m cl s 381 794 m 18 X s 399 794 m cl s 381 794 m 50 Y s 381 844 m cl s 381 794 m -53 Y s 381 741 m cl s 417 878 m
 -18 X s 399 878 m cl s 417 878 m 17 X s 434 878 m cl s 417 878 m 36 Y s 417 914 m cl s 417 878 m -36 Y s 417 842 m cl s 452 808 m -18 X s 434 808 m cl s 452 808 m 18 X s 470 808 m cl s 452 808 m 47 Y s 452 855 m cl s 452 808 m -50 Y s 452 758 m cl s
 488 832 m -18 X s 470 832 m cl s 488 832 m 18 X s 506 832 m cl s 488 832 m 43 Y s 488 875 m cl s 488 832 m -44 Y s 488 788 m cl s 524 870 m -18 X s 506 870 m cl s 524 870 m 18 X s 542 870 m cl s 524 870 m 37 Y s 524 907 m cl s 524 870 m -37 Y s 524
 833 m cl s 560 853 m -18 X s 542 853 m cl s 560 853 m 18 X s 578 853 m cl s 560 853 m 39 Y s 560 892 m cl s 560 853 m -41 Y s 560 812 m cl s 596 878 m -18 X s 578 878 m cl s 596 878 m 18 X s 614 878 m cl s 596 878 m 36 Y s 596 914 m cl s 596 878 m
 -36 Y s 596 842 m cl s 632 870 m -18 X s 614 870 m cl s 632 870 m 17 X s 649 870 m cl s 632 870 m 37 Y s 632 907 m cl s 632 870 m -37 Y s 632 833 m cl s 667 913 m -18 X s 649 913 m cl s 667 913 m 18 X s 685 913 m cl s 667 913 m 31 Y s 667 944 m cl s
 667 913 m -32 Y s 667 881 m cl s 703 978 m -18 X s 685 978 m cl s 703 978 m 18 X s 721 978 m cl s 703 978 m 24 Y s 703 1002 m cl s 703 978 m -24 Y s 703 954 m cl s 739 958 m -18 X s 721 958 m cl s 739 958 m 18 X s 757 958 m cl s 739 958 m 26 Y s 739
 984 m cl s 739 958 m -26 Y s 739 932 m cl s 775 945 m -18 X s 757 945 m cl s 775 945 m 18 X s 793 945 m cl s 775 945 m 27 Y s 775 972 m cl s 775 945 m -28 Y s 775 917 m cl s 811 971 m -18 X s 793 971 m cl s 811 971 m 18 X s 829 971 m cl s 811 971 m
 24 Y s 811 995 m cl s 811 971 m -25 Y s 811 946 m cl s 847 995 m -18 X s 829 995 m cl s 847 995 m 17 X s 864 995 m cl s 847 995 m 23 Y s 847 1018 m cl s 847 995 m -22 Y s 847 973 m cl s 882 971 m -18 X s 864 971 m cl s 882 971 m 18 X s 900 971 m cl
 s 882 971 m 24 Y s 882 995 m cl s 882 971 m -25 Y s 882 946 m cl s 918 1014 m -18 X s 900 1014 m cl s 918 1014 m 18 X s 936 1014 m cl s 918 1014 m 20 Y s 918 1034 m cl s 918 1014 m -21 Y s 918 993 m cl s 954 1016 m -18 X s 936 1016 m cl s 954 1016 m
 18 X s 972 1016 m cl s 954 1016 m 21 Y s 954 1037 m cl s 954 1016 m -20 Y s 954 996 m cl s 990 978 m -18 X s 972 978 m cl s 990 978 m 18 X s 1008 978 m cl s 990 978 m 24 Y s 990 1002 m cl s 990 978 m -24 Y s 990 954 m cl s 1026 1046 m -18 X s 1008
 1046 m cl s 1026 1046 m 18 X s 1044 1046 m cl s 1026 1046 m 18 Y s 1026 1064 m cl s 1026 1046 m -18 Y s 1026 1028 m cl s 1062 1076 m -18 X s 1044 1076 m cl s 1062 1076 m 17 X s 1079 1076 m cl s 1062 1076 m 16 Y s 1062 1092 m cl s 1062 1076 m -17 Y s
 1062 1059 m cl s 1097 1131 m -18 X s 1079 1131 m cl s 1097 1131 m 18 X s 1115 1131 m cl s 1097 1131 m 13 Y s 1097 1144 m cl s 1097 1131 m -12 Y s 1097 1119 m cl s 1133 1114 m -18 X s 1115 1114 m cl s 1133 1114 m 18 X s 1151 1114 m cl s 1133 1114 m
 14 Y s 1133 1128 m cl s 1133 1114 m -14 Y s 1133 1100 m cl s 1169 1152 m -18 X s 1151 1152 m cl s 1169 1152 m 18 X s 1187 1152 m cl s 1169 1152 m 11 Y s 1169 1163 m cl s 1169 1152 m -12 Y s 1169 1140 m cl s 1205 1176 m -18 X s 1187 1176 m cl s 1205
 1176 m 18 X s 1223 1176 m cl s 1205 1176 m 10 Y s 1205 1186 m cl s 1205 1176 m -11 Y s 1205 1165 m cl s 1241 1200 m -18 X s 1223 1200 m cl s 1241 1200 m 18 X s 1259 1200 m cl s 1241 1200 m 10 Y s 1241 1210 m cl s 1241 1200 m -10 Y s 1241 1190 m cl s
 1276 1226 m -17 X s 1259 1226 m cl s 1276 1226 m 18 X s 1294 1226 m cl s 1276 1226 m 9 Y s 1276 1235 m cl s 1276 1226 m -8 Y s 1276 1218 m cl s 1312 1264 m -18 X s 1294 1264 m cl s 1312 1264 m 18 X s 1330 1264 m cl s 1312 1264 m 7 Y s 1312 1271 m cl
 s 1312 1264 m -8 Y s 1312 1256 m cl s 1348 1306 m -18 X s 1330 1306 m cl s 1348 1306 m 18 X s 1366 1306 m cl s 1348 1306 m 6 Y s 1348 1312 m cl s 1348 1306 m -7 Y s 1348 1299 m cl s 1384 1330 m -18 X s 1366 1330 m cl s 1384 1330 m 18 X s 1402 1330 m
 cl s 1384 1330 m 5 Y s 1384 1335 m cl s 1384 1330 m -6 Y s 1384 1324 m cl s 1420 1360 m -18 X s 1402 1360 m cl s 1420 1360 m 18 X s 1438 1360 m cl s 1420 1360 m 5 Y s 1420 1365 m cl s 1420 1360 m -5 Y s 1420 1355 m cl s 1456 1381 m -18 X s 1438 1381
 m cl s 1456 1381 m 18 X s 1474 1381 m cl s 1456 1381 m 5 Y s 1456 1386 m cl s 1456 1381 m -5 Y s 1456 1376 m cl s 1491 1405 m -17 X s 1474 1405 m cl s 1491 1405 m 18 X s 1509 1405 m cl s 1491 1405 m 4 Y s 1491 1409 m cl s 1491 1405 m -5 Y s 1491
 1400 m cl s 1527 1409 m -18 X s 1509 1409 m cl s 1527 1409 m 18 X s 1545 1409 m cl s 1527 1409 m 5 Y s 1527 1414 m cl s 1527 1409 m -4 Y s 1527 1405 m cl s 1563 1419 m -18 X s 1545 1419 m cl s 1563 1419 m 18 X s 1581 1419 m cl s 1563 1419 m 5 Y s
 1563 1424 m cl s 1563 1419 m -4 Y s 1563 1415 m cl s 1599 1419 m -18 X s 1581 1419 m cl s 1599 1419 m 18 X s 1617 1419 m cl s 1599 1419 m 5 Y s 1599 1424 m cl s 1599 1419 m -4 Y s 1599 1415 m cl s 1635 1394 m -18 X s 1617 1394 m cl s 1635 1394 m 18
 X s 1653 1394 m cl s 1635 1394 m 4 Y s 1635 1398 m cl s 1635 1394 m -5 Y s 1635 1389 m cl s 1671 1373 m -18 X s 1653 1373 m cl s 1671 1373 m 18 X s 1689 1373 m cl s 1671 1373 m 5 Y s 1671 1378 m cl s 1671 1373 m -6 Y s 1671 1367 m cl s 1706 1335 m
 -17 X s 1689 1335 m cl s 1706 1335 m 18 X s 1724 1335 m cl s 1706 1335 m 6 Y s 1706 1341 m cl s 1706 1335 m -6 Y s 1706 1329 m cl s 1742 1292 m -18 X s 1724 1292 m cl s 1742 1292 m 18 X s 1760 1292 m cl s 1742 1292 m 7 Y s 1742 1299 m cl s 1742 1292
 m -7 Y s 1742 1285 m cl s 1778 1240 m -18 X s 1760 1240 m cl s 1778 1240 m 18 X s 1796 1240 m cl s 1778 1240 m 8 Y s 1778 1248 m cl s 1778 1240 m -8 Y s 1778 1232 m cl s 1814 1203 m -18 X s 1796 1203 m cl s 1814 1203 m 18 X s 1832 1203 m cl s 1814
 1203 m 9 Y s 1814 1212 m cl s 1814 1203 m -10 Y s 1814 1193 m cl s 1850 1123 m -18 X s 1832 1123 m cl s 1850 1123 m 18 X s 1868 1123 m cl s 1850 1123 m 13 Y s 1850 1136 m cl s 1850 1123 m -13 Y s 1850 1110 m cl s 1886 1107 m -18 X s 1868 1107 m cl s
 1886 1107 m 18 X s 1904 1107 m cl s 1886 1107 m 14 Y s 1886 1121 m cl s 1886 1107 m -14 Y s 1886 1093 m cl s 1921 1022 m -17 X s 1904 1022 m cl s 1921 1022 m 18 X s 1939 1022 m cl s 1921 1022 m 20 Y s 1921 1042 m cl s 1921 1022 m -20 Y s 1921 1002 m
 cl s 1957 985 m -18 X s 1939 985 m cl s 1957 985 m 18 X s 1975 985 m cl s 1957 985 m 23 Y s 1957 1008 m cl s 1957 985 m -23 Y s 1957 962 m cl s 1993 971 m -18 X s 1975 971 m cl s 1993 971 m 18 X s 2011 971 m cl s 1993 971 m 24 Y s 1993 995 m cl s
 1993 971 m -25 Y s 1993 946 m cl s 2029 893 m -18 X s 2011 893 m cl s 2029 893 m 18 X s 2047 893 m cl s 2029 893 m 34 Y s 2029 927 m cl s 2029 893 m -34 Y s 2029 859 m cl s 2065 808 m -18 X s 2047 808 m cl s 2065 808 m 18 X s 2083 808 m cl s 2065
 808 m 47 Y s 2065 855 m cl s 2065 808 m -50 Y s 2065 758 m cl s 2101 853 m -18 X s 2083 853 m cl s 2101 853 m 18 X s 2119 853 m cl s 2101 853 m 39 Y s 2101 892 m cl s 2101 853 m -41 Y s 2101 812 m cl s 2136 686 m -17 X s 2119 686 m cl s 2136 686 m
 18 X s 2154 686 m cl s 2136 686 m 78 Y s 2136 764 m cl s 2136 686 m -52 Y s 2136 634 m cl s /w 31 def /w2 {w 2 div} def /w3 {w 3 div} def 381 794 417 878 452 808 488 832 524 870 560 853 596 878 632 870 667 913 703 978 739 958 775 945 811 971 847 995
 882 971 918 1014 954 1016 990 978 1026 1046 1062 1076 1097 1131 1133 1114 1169 1152 1205 1176 1241 1200 1276 1226 1312 1264 1348 1306 1384 1330 1420 1360 1456 1381 1491 1405 1527 1409 1563 1419 1599 1419 1635 1394 1671 1373 1706 1335 1742 1292 1778
 1240 1814 1203 1850 1123 1886 1107 1921 1022 1957 985 1993 971 2029 893 2065 808 2101 853 2136 686 50 { m20} R 0 1 1 c 1 1 0 c black 1 1 0 c 363 866 m 36 6 d 35 6 d 36 7 d 36 6 d 36 7 d 36 8 d 36 7 d 35 8 d 36 8 d 36 9 d 36 10 d 36 10 d 36 11 d 35
 12 d 36 14 d 36 16 d 36 17 d 36 19 d 36 21 d 35 23 d 36 24 d 36 25 d 36 26 d 36 26 d 18 13 d 18 13 d 17 14 d 18 13 d 18 14 d 18 13 d 18 15 d 18 15 d 9 7 d 9 8 d 9 9 d 9 9 d 36 34 d 18 14 d 18 11 d 9 5 d 8 5 d 9 4 d 9 3 d 9 3 d 9 2 d 9 2 d 9 1 d 18 X
 9 -1 d 9 -1 d 9 -3 d 9 -2 d 9 -3 d 9 -4 d 9 -5 d 9 -5 d 18 -11 d 18 -14 d 18 -16 d 17 -18 d 18 -19 d 18 -21 d 18 -22 d 18 -23 d 18 -24 d 18 -25 d 18 -24 d 18 -25 d 18 -24 d 18 -24 d 18 -23 d 17 -24 d 18 -23 d 36 -45 d 36 -47 d 36 -48 d 36 -51 d 36
 -54 d 35 -58 d -35 58 d -36 54 d -36 51 d -36 48 d -36 47 d -36 45 d -18 23 d -17 24 d -18 23 d -18 24 d -18 24 d -18 25 d -18 24 d -18 25 d -18 24 d -18 23 d -18 22 d -18 21 d -18 19 d -17 18 d -18 16 d -18 14 d -18 11 d -9 5 d -9 5 d -9 4 d -9 3 d
 -9 2 d -9 3 d -9 1 d -9 1 d -18 X -9 -1 d -9 -2 d -9 -2 d -9 -3 d -9 -3 d -9 -4 d -8 -5 d -9 -5 d -18 -11 d -18 -14 d -36 -34 d -9 -9 d -9 -9 d -9 -8 d -9 -7 d -18 -15 d -18 -15 d -18 -13 d -18 -14 d -18 -13 d -17 -14 d -18 -13 d -18 -13 d -36 -26 d
 -36 -26 d -36 -25 d -36 -24 d -35 -23 d -36 -21 d -36 -19 d -36 -17 d -36 -16 d -36 -14 d -35 -12 d -36 -11 d -36 -10 d -36 -10 d -36 -9 d -36 -8 d -35 -8 d -36 -7 d -36 -8 d -36 -7 d -36 -6 d -36 -7 d -35 -6 d -36 -6 d f 0 1 1 c 0 1 0 c black 0 1 0
 c 363 866 m 36 6 d 35 6 d 36 7 d 36 6 d 36 7 d 36 8 d 36 7 d 35 8 d 36 8 d 36 9 d 36 10 d 36 10 d 36 11 d 35 12 d 36 14 d 36 16 d 36 17 d 36 19 d 36 21 d 35 23 d 36 24 d 36 25 d 36 26 d 36 26 d 18 13 d 18 13 d 17 14 d 18 13 d 18 14 d 18 13 d 18 15 d
 18 15 d 9 7 d 9 8 d 9 9 d 9 9 d 36 34 d 18 14 d 18 11 d 9 5 d 8 5 d 9 4 d 9 3 d 9 3 d 9 2 d 9 2 d 9 1 d 18 X 9 -1 d 9 -1 d 9 -3 d 9 -2 d 9 -3 d 9 -4 d 9 -5 d 9 -5 d 18 -11 d 18 -14 d 18 -16 d 17 -18 d 18 -19 d 18 -21 d 18 -22 d 18 -23 d 18 -24 d 18
 -25 d 18 -24 d 18 -25 d 18 -24 d 18 -24 d 18 -23 d 17 -24 d 18 -23 d 36 -45 d 36 -47 d 36 -48 d 36 -51 d 36 -54 d 35 -58 d -35 58 d -36 54 d -36 51 d -36 48 d -36 47 d -36 45 d -18 23 d -17 24 d -18 23 d -18 24 d -18 24 d -18 25 d -18 24 d -18 25 d
 -18 24 d -18 23 d -18 22 d -18 21 d -18 19 d -17 18 d -18 16 d -18 14 d -18 11 d -9 5 d -9 5 d -9 4 d -9 3 d -9 2 d -9 3 d -9 1 d -9 1 d -18 X -9 -1 d -9 -2 d -9 -2 d -9 -3 d -9 -3 d -9 -4 d -8 -5 d -9 -5 d -18 -11 d -18 -14 d -36 -34 d -9 -9 d -9
 -9 d -9 -8 d -9 -7 d -18 -15 d -18 -15 d -18 -13 d -18 -14 d -18 -13 d -17 -14 d -18 -13 d -18 -13 d -36 -26 d -36 -26 d -36 -25 d -36 -24 d -35 -23 d -36 -21 d -36 -19 d -36 -17 d -36 -16 d -36 -14 d -35 -12 d -36 -11 d -36 -10 d -36 -10 d -36 -9 d
 -36 -8 d -35 -8 d -36 -7 d -36 -8 d -36 -7 d -36 -6 d -36 -7 d -35 -6 d -36 -6 d f 0 0 1 c 9 lw black 0 0 1 c 363 866 m 36 6 d 35 6 d 36 7 d 36 6 d 36 7 d 36 8 d 36 7 d 35 8 d 36 8 d 36 9 d 36 10 d 36 10 d 36 11 d 35 12 d 36 14 d 36 16 d 36 17 d 36
 19 d 36 21 d 35 23 d 36 24 d 36 25 d 36 26 d 36 26 d 18 13 d 18 13 d 17 14 d 18 13 d 18 14 d 18 13 d 18 15 d 18 15 d 9 7 d 9 8 d 9 9 d 9 9 d 36 34 d 18 14 d 18 11 d 9 5 d 8 5 d 9 4 d 9 3 d 9 3 d 9 2 d 9 2 d 9 1 d 18 X 9 -1 d 9 -1 d 9 -3 d 9 -2 d 9
 -3 d 9 -4 d 9 -5 d 9 -5 d 18 -11 d 18 -14 d 18 -16 d 17 -18 d 18 -19 d 18 -21 d 18 -22 d 18 -23 d 18 -24 d 18 -25 d 18 -24 d 18 -25 d 18 -24 d 18 -24 d 18 -23 d 17 -24 d 18 -23 d 36 -45 d 36 -47 d 36 -48 d 36 -51 d 36 -54 d 35 -58 d s black 3 lw 381
 794 m -18 X s 363 794 m cl s 381 794 m 18 X s 399 794 m cl s 381 794 m 50 Y s 381 844 m cl s 381 794 m -53 Y s 381 741 m cl s 417 878 m -18 X s 399 878 m cl s 417 878 m 17 X s 434 878 m cl s 417 878 m 36 Y s 417 914 m cl s 417 878 m -36 Y s 417 842
 m cl s 452 808 m -18 X s 434 808 m cl s 452 808 m 18 X s 470 808 m cl s 452 808 m 47 Y s 452 855 m cl s 452 808 m -50 Y s 452 758 m cl s 488 832 m -18 X s 470 832 m cl s 488 832 m 18 X s 506 832 m cl s 488 832 m 43 Y s 488 875 m cl s 488 832 m -44 Y
 s 488 788 m cl s 524 870 m -18 X s 506 870 m cl s 524 870 m 18 X s 542 870 m cl s 524 870 m 37 Y s 524 907 m cl s 524 870 m -37 Y s 524 833 m cl s 560 853 m -18 X s 542 853 m cl s 560 853 m 18 X s 578 853 m cl s 560 853 m 39 Y s 560 892 m cl s 560
 853 m -41 Y s 560 812 m cl s 596 878 m -18 X s 578 878 m cl s 596 878 m 18 X s 614 878 m cl s 596 878 m 36 Y s 596 914 m cl s 596 878 m -36 Y s 596 842 m cl s 632 870 m -18 X s 614 870 m cl s 632 870 m 17 X s 649 870 m cl s 632 870 m 37 Y s 632 907
 m cl s 632 870 m -37 Y s 632 833 m cl s 667 913 m -18 X s 649 913 m cl s 667 913 m 18 X s 685 913 m cl s 667 913 m 31 Y s 667 944 m cl s 667 913 m -32 Y s 667 881 m cl s 703 978 m -18 X s 685 978 m cl s 703 978 m 18 X s 721 978 m cl s 703 978 m 24 Y
 s 703 1002 m cl s 703 978 m -24 Y s 703 954 m cl s 739 958 m -18 X s 721 958 m cl s 739 958 m 18 X s 757 958 m cl s 739 958 m 26 Y s 739 984 m cl s 739 958 m -26 Y s 739 932 m cl s 775 945 m -18 X s 757 945 m cl s 775 945 m 18 X s 793 945 m cl s 775
 945 m 27 Y s 775 972 m cl s 775 945 m -28 Y s 775 917 m cl s 811 971 m -18 X s 793 971 m cl s 811 971 m 18 X s 829 971 m cl s 811 971 m 24 Y s 811 995 m cl s 811 971 m -25 Y s 811 946 m cl s 847 995 m -18 X s 829 995 m cl s 847 995 m 17 X s 864 995
 m cl s 847 995 m 23 Y s 847 1018 m cl s 847 995 m -22 Y s 847 973 m cl s 882 971 m -18 X s 864 971 m cl s 882 971 m 18 X s 900 971 m cl s 882 971 m 24 Y s 882 995 m cl s 882 971 m -25 Y s 882 946 m cl s 918 1014 m -18 X s 900 1014 m cl s 918 1014 m
 18 X s 936 1014 m cl s 918 1014 m 20 Y s 918 1034 m cl s 918 1014 m -21 Y s 918 993 m cl s 954 1016 m -18 X s 936 1016 m cl s 954 1016 m 18 X s 972 1016 m cl s 954 1016 m 21 Y s 954 1037 m cl s 954 1016 m -20 Y s 954 996 m cl s 990 978 m -18 X s 972
 978 m cl s 990 978 m 18 X s 1008 978 m cl s 990 978 m 24 Y s 990 1002 m cl s 990 978 m -24 Y s 990 954 m cl s 1026 1046 m -18 X s 1008 1046 m cl s 1026 1046 m 18 X s 1044 1046 m cl s 1026 1046 m 18 Y s 1026 1064 m cl s 1026 1046 m -18 Y s 1026 1028
 m cl s 1062 1076 m -18 X s 1044 1076 m cl s 1062 1076 m 17 X s 1079 1076 m cl s 1062 1076 m 16 Y s 1062 1092 m cl s 1062 1076 m -17 Y s 1062 1059 m cl s 1097 1131 m -18 X s 1079 1131 m cl s 1097 1131 m 18 X s 1115 1131 m cl s 1097 1131 m 13 Y s 1097
 1144 m cl s 1097 1131 m -12 Y s 1097 1119 m cl s 1133 1114 m -18 X s 1115 1114 m cl s 1133 1114 m 18 X s 1151 1114 m cl s 1133 1114 m 14 Y s 1133 1128 m cl s 1133 1114 m -14 Y s 1133 1100 m cl s 1169 1152 m -18 X s 1151 1152 m cl s 1169 1152 m 18 X
 s 1187 1152 m cl s 1169 1152 m 11 Y s 1169 1163 m cl s 1169 1152 m -12 Y s 1169 1140 m cl s 1205 1176 m -18 X s 1187 1176 m cl s 1205 1176 m 18 X s 1223 1176 m cl s 1205 1176 m 10 Y s 1205 1186 m cl s 1205 1176 m -11 Y s 1205 1165 m cl s 1241 1200 m
 -18 X s 1223 1200 m cl s 1241 1200 m 18 X s 1259 1200 m cl s 1241 1200 m 10 Y s 1241 1210 m cl s 1241 1200 m -10 Y s 1241 1190 m cl s 1276 1226 m -17 X s 1259 1226 m cl s 1276 1226 m 18 X s 1294 1226 m cl s 1276 1226 m 9 Y s 1276 1235 m cl s 1276
 1226 m -8 Y s 1276 1218 m cl s 1312 1264 m -18 X s 1294 1264 m cl s 1312 1264 m 18 X s 1330 1264 m cl s 1312 1264 m 7 Y s 1312 1271 m cl s 1312 1264 m -8 Y s 1312 1256 m cl s 1348 1306 m -18 X s 1330 1306 m cl s 1348 1306 m 18 X s 1366 1306 m cl s
 1348 1306 m 6 Y s 1348 1312 m cl s 1348 1306 m -7 Y s 1348 1299 m cl s 1384 1330 m -18 X s 1366 1330 m cl s 1384 1330 m 18 X s 1402 1330 m cl s 1384 1330 m 5 Y s 1384 1335 m cl s 1384 1330 m -6 Y s 1384 1324 m cl s 1420 1360 m -18 X s 1402 1360 m cl
 s 1420 1360 m 18 X s 1438 1360 m cl s 1420 1360 m 5 Y s 1420 1365 m cl s 1420 1360 m -5 Y s 1420 1355 m cl s 1456 1381 m -18 X s 1438 1381 m cl s 1456 1381 m 18 X s 1474 1381 m cl s 1456 1381 m 5 Y s 1456 1386 m cl s 1456 1381 m -5 Y s 1456 1376 m
 cl s 1491 1405 m -17 X s 1474 1405 m cl s 1491 1405 m 18 X s 1509 1405 m cl s 1491 1405 m 4 Y s 1491 1409 m cl s 1491 1405 m -5 Y s 1491 1400 m cl s 1527 1409 m -18 X s 1509 1409 m cl s 1527 1409 m 18 X s 1545 1409 m cl s 1527 1409 m 5 Y s 1527 1414
 m cl s 1527 1409 m -4 Y s 1527 1405 m cl s 1563 1419 m -18 X s 1545 1419 m cl s 1563 1419 m 18 X s 1581 1419 m cl s 1563 1419 m 5 Y s 1563 1424 m cl s 1563 1419 m -4 Y s 1563 1415 m cl s 1599 1419 m -18 X s 1581 1419 m cl s 1599 1419 m 18 X s 1617
 1419 m cl s 1599 1419 m 5 Y s 1599 1424 m cl s 1599 1419 m -4 Y s 1599 1415 m cl s 1635 1394 m -18 X s 1617 1394 m cl s 1635 1394 m 18 X s 1653 1394 m cl s 1635 1394 m 4 Y s 1635 1398 m cl s 1635 1394 m -5 Y s 1635 1389 m cl s 1671 1373 m -18 X s
 1653 1373 m cl s 1671 1373 m 18 X s 1689 1373 m cl s 1671 1373 m 5 Y s 1671 1378 m cl s 1671 1373 m -6 Y s 1671 1367 m cl s 1706 1335 m -17 X s 1689 1335 m cl s 1706 1335 m 18 X s 1724 1335 m cl s 1706 1335 m 6 Y s 1706 1341 m cl s 1706 1335 m -6 Y
 s 1706 1329 m cl s 1742 1292 m -18 X s 1724 1292 m cl s 1742 1292 m 18 X s 1760 1292 m cl s 1742 1292 m 7 Y s 1742 1299 m cl s 1742 1292 m -7 Y s 1742 1285 m cl s 1778 1240 m -18 X s 1760 1240 m cl s 1778 1240 m 18 X s 1796 1240 m cl s 1778 1240 m 8
 Y s 1778 1248 m cl s 1778 1240 m -8 Y s 1778 1232 m cl s 1814 1203 m -18 X s 1796 1203 m cl s 1814 1203 m 18 X s 1832 1203 m cl s 1814 1203 m 9 Y s 1814 1212 m cl s 1814 1203 m -10 Y s 1814 1193 m cl s 1850 1123 m -18 X s 1832 1123 m cl s 1850 1123
 m 18 X s 1868 1123 m cl s 1850 1123 m 13 Y s 1850 1136 m cl s 1850 1123 m -13 Y s 1850 1110 m cl s 1886 1107 m -18 X s 1868 1107 m cl s 1886 1107 m 18 X s 1904 1107 m cl s 1886 1107 m 14 Y s 1886 1121 m cl s 1886 1107 m -14 Y s 1886 1093 m cl s 1921
 1022 m -17 X s 1904 1022 m cl s 1921 1022 m 18 X s 1939 1022 m cl s 1921 1022 m 20 Y s 1921 1042 m cl s 1921 1022 m -20 Y s 1921 1002 m cl s 1957 985 m -18 X s 1939 985 m cl s 1957 985 m 18 X s 1975 985 m cl s 1957 985 m 23 Y s 1957 1008 m cl s 1957
 985 m -23 Y s 1957 962 m cl s 1993 971 m -18 X s 1975 971 m cl s 1993 971 m 18 X s 2011 971 m cl s 1993 971 m 24 Y s 1993 995 m cl s 1993 971 m -25 Y s 1993 946 m cl s 2029 893 m -18 X s 2011 893 m cl s 2029 893 m 18 X s 2047 893 m cl s 2029 893 m
 34 Y s 2029 927 m cl s 2029 893 m -34 Y s 2029 859 m cl s 2065 808 m -18 X s 2047 808 m cl s 2065 808 m 18 X s 2083 808 m cl s 2065 808 m 47 Y s 2065 855 m cl s 2065 808 m -50 Y s 2065 758 m cl s 2101 853 m -18 X s 2083 853 m cl s 2101 853 m 18 X s
 2119 853 m cl s 2101 853 m 39 Y s 2101 892 m cl s 2101 853 m -41 Y s 2101 812 m cl s 2136 686 m -17 X s 2119 686 m cl s 2136 686 m 18 X s 2154 686 m cl s 2136 686 m 78 Y s 2136 764 m cl s 2136 686 m -52 Y s 2136 634 m cl s 381 794 417 878 452 808
 488 832 524 870 560 853 596 878 632 870 667 913 703 978 739 958 775 945 811 971 847 995 882 971 918 1014 954 1016 990 978 1026 1046 1062 1076 1097 1131 1133 1114 1169 1152 1205 1176 1241 1200 1276 1226 1312 1264 1348 1306 1384 1330 1420 1360 1456
 1381 1491 1405 1527 1409 1563 1419 1599 1419 1635 1394 1671 1373 1706 1335 1742 1292 1778 1240 1814 1203 1850 1123 1886 1107 1921 1022 1957 985 1993 971 2029 893 2065 808 2101 853 2136 686 50 { m20} R 0.52 0.76 0.64 c[ 4 8] 0 sd 9 lw black 0.52 0.76
 0.64 c 363 866 m 36 6 d 35 6 d 36 7 d 36 6 d 36 7 d 36 8 d 36 7 d 35 8 d 36 8 d 36 8 d 36 9 d 36 9 d 36 10 d 35 10 d 36 11 d 36 11 d 36 12 d 36 13 d 36 13 d 35 15 d 36 16 d 36 17 d 36 18 d 36 21 d 36 23 d 17 12 d 18 14 d 18 14 d 18 16 d 18 17 d 9 8
 d 9 10 d 9 10 d 9 10 d 9 11 d 9 12 d 18 23 d 18 20 d 18 18 d 18 14 d 9 6 d 8 6 d 9 5 d 9 4 d 9 3 d 9 2 d 9 2 d 9 1 d 9 1 d 9 X 9 -1 d 9 -2 d 9 -3 d 9 -3 d 9 -4 d 9 -4 d 9 -6 d 9 -6 d 18 -14 d 36 -37 d 17 -23 d 18 -26 d 9 -14 d 9 -15 d 9 -15 d 9 -17
 d 9 -16 d 9 -18 d 9 -18 d 9 -19 d 9 -20 d 9 -21 d 18 -43 d 18 -46 d 18 -49 d 18 -52 d 18 -55 d 35 -118 d 24 -85 d s 0.54 0.66 0.63 c black 0.54 0.66 0.63 c 898 634 m 2 3 d s 900 637 m 36 63 d 36 59 d 36 55 d 36 52 d 18 25 d 17 24 d 18 23 d 18 22 d
 18 21 d 18 20 d 18 20 d 18 18 d 18 18 d 18 17 d 18 16 d 18 15 d 35 27 d 36 24 d 36 20 d 36 17 d 18 7 d 18 6 d 18 6 d 18 4 d 17 4 d 18 2 d 18 2 d 18 1 d 18 X 18 -1 d 18 -1 d 18 -3 d 18 -3 d 18 -5 d 18 -5 d 18 -6 d 17 -7 d 18 -8 d 36 -19 d 36 -21 d 36
 -26 d 18 -14 d 18 -15 d 18 -16 d 18 -16 d 17 -18 d 18 -18 d 18 -20 d 18 -20 d 18 -21 d 18 -22 d 18 -23 d 18 -24 d 36 -50 d 36 -53 d 35 -58 d s black[  ] 0 sd 3 lw 363 634 m 1791 X s 475 659 m -25 Y s 512 646 m -12 Y s 549 646 m -12 Y s 587 646 m -12
 Y s 624 646 m -12 Y s 661 659 m -25 Y s 699 646 m -12 Y s 736 646 m -12 Y s 773 646 m -12 Y s 811 646 m -12 Y s 848 659 m -25 Y s 885 646 m -12 Y s 923 646 m -12 Y s 960 646 m -12 Y s 997 646 m -12 Y s 1035 659 m -25 Y s 1072 646 m -12 Y s 1109 646
 m -12 Y s 1147 646 m -12 Y s 1184 646 m -12 Y s 1221 659 m -25 Y s 1259 646 m -12 Y s 1296 646 m -12 Y s 1333 646 m -12 Y s 1371 646 m -12 Y s 1408 659 m -25 Y s 1445 646 m -12 Y s 1483 646 m -12 Y s 1520 646 m -12 Y s 1557 646 m -12 Y s 1594 659 m
 -25 Y s 1632 646 m -12 Y s 1669 646 m -12 Y s 1706 646 m -12 Y s 1744 646 m -12 Y s 1781 659 m -25 Y s 1818 646 m -12 Y s 1856 646 m -12 Y s 1893 646 m -12 Y s 1930 646 m -12 Y s 1968 659 m -25 Y s 2005 646 m -12 Y s 2042 646 m -12 Y s 2080 646 m
 -12 Y s 2117 646 m -12 Y s 2154 659 m -25 Y s 475 659 m -25 Y s 437 646 m -12 Y s 400 646 m -12 Y s 363 646 m -12 Y s 363 1484 m 1791 X s 475 1459 m 25 Y s 512 1471 m 13 Y s 549 1471 m 13 Y s 587 1471 m 13 Y s 624 1471 m 13 Y s 661 1459 m 25 Y s 699
 1471 m 13 Y s 736 1471 m 13 Y s 773 1471 m 13 Y s 811 1471 m 13 Y s 848 1459 m 25 Y s 885 1471 m 13 Y s 923 1471 m 13 Y s 960 1471 m 13 Y s 997 1471 m 13 Y s 1035 1459 m 25 Y s 1072 1471 m 13 Y s 1109 1471 m 13 Y s 1147 1471 m 13 Y s 1184 1471 m 13
 Y s 1221 1459 m 25 Y s 1259 1471 m 13 Y s 1296 1471 m 13 Y s 1333 1471 m 13 Y s 1371 1471 m 13 Y s 1408 1459 m 25 Y s 1445 1471 m 13 Y s 1483 1471 m 13 Y s 1520 1471 m 13 Y s 1557 1471 m 13 Y s 1594 1459 m 25 Y s 1632 1471 m 13 Y s 1669 1471 m 13 Y
 s 1706 1471 m 13 Y s 1744 1471 m 13 Y s 1781 1459 m 25 Y s 1818 1471 m 13 Y s 1856 1471 m 13 Y s 1893 1471 m 13 Y s 1930 1471 m 13 Y s 1968 1459 m 25 Y s 2005 1471 m 13 Y s 2042 1471 m 13 Y s 2080 1471 m 13 Y s 2117 1471 m 13 Y s 2154 1459 m 25 Y s
 475 1459 m 25 Y s 437 1471 m 13 Y s 400 1471 m 13 Y s 363 1471 m 13 Y s 363 634 m 850 Y s 390 648 m -27 X s 390 686 m -27 X s 390 716 m -27 X s 390 740 m -27 X s 390 760 m -27 X s 390 778 m -27 X s 390 794 m -27 X s 417 808 m -54 X s 390 900 m -27 X
 s 390 954 m -27 X s 390 992 m -27 X s 390 1022 m -27 X s 390 1046 m -27 X s 390 1067 m -27 X s 390 1084 m -27 X s 390 1100 m -27 X s 417 1114 m -54 X s 390 1206 m -27 X s 390 1260 m -27 X s 390 1298 m -27 X s 390 1328 m -27 X s 390 1352 m -27 X s
 390 1373 m -27 X s 390 1390 m -27 X s 390 1406 m -27 X s 417 1420 m -54 X s 2154 634 m 850 Y s 2127 648 m 27 X s 2127 686 m 27 X s 2127 716 m 27 X s 2127 740 m 27 X s 2127 760 m 27 X s 2127 778 m 27 X s 2127 794 m 27 X s 2101 808 m 53 X s 2127 900 m
 27 X s 2127 954 m 27 X s 2127 992 m 27 X s 2127 1022 m 27 X s 2127 1046 m 27 X s 2127 1067 m 27 X s 2127 1084 m 27 X s 2127 1100 m 27 X s 2101 1114 m 53 X s 2127 1206 m 27 X s 2127 1260 m 27 X s 2127 1298 m 27 X s 2127 1328 m 27 X s 2127 1352 m 27 X
 s 2127 1373 m 27 X s 2127 1390 m 27 X s 2127 1406 m 27 X s 2101 1420 m 53 X s
 gsave  2268 1077 0 461 C 677.708 1215.31 t 0 r /Helvetica findfont 58.7189 sf 0 0 m (2mu2e) show NC gr  1 1 1 c 453 161 454 1269 bf black
 gsave  2268 1077 0 461 C 566.929 1371.71 t 0 r /Helvetica-Bold findfont 48.9324 sf 0 0 m (MC15) show NC gr  510 1390 m20
 gsave  2268 1077 0 461 C 566.929 1293.51 t 0 r /Helvetica-Bold findfont 48.9324 sf 0 0 m (Projection of Signal pdf) show NC gr  0 0 1 c 9 lw 471 1309 m 79 X s black 3 lw 1 1 1 c 2268 461 0 0 bf black 1 1 1 c 1791 364 363 74 bf black 1791 364 363 74
 bl 363 74 m 1791 X s
 gsave  2268 461 0 0 C 1915.83 13.0329 t 0 r /Helvetica findfont 22.9045 sf 0 0 m (4l Invariant Mass \(GeV\)) show NC gr  475 85 m -11 Y s 512 79 m -5 Y s 549 79 m -5 Y s 587 79 m -5 Y s 624 79 m -5 Y s 661 85 m -11 Y s 699 79 m -5 Y s 736 79 m -5 Y
 s 773 79 m -5 Y s 811 79 m -5 Y s 848 85 m -11 Y s 885 79 m -5 Y s 923 79 m -5 Y s 960 79 m -5 Y s 997 79 m -5 Y s 1035 85 m -11 Y s 1072 79 m -5 Y s 1109 79 m -5 Y s 1147 79 m -5 Y s 1184 79 m -5 Y s 1221 85 m -11 Y s 1259 79 m -5 Y s 1296 79 m -5
 Y s 1333 79 m -5 Y s 1371 79 m -5 Y s 1408 85 m -11 Y s 1445 79 m -5 Y s 1483 79 m -5 Y s 1520 79 m -5 Y s 1557 79 m -5 Y s 1594 85 m -11 Y s 1632 79 m -5 Y s 1669 79 m -5 Y s 1706 79 m -5 Y s 1744 79 m -5 Y s 1781 85 m -11 Y s 1818 79 m -5 Y s 1856
 79 m -5 Y s 1893 79 m -5 Y s 1930 79 m -5 Y s 1968 85 m -11 Y s 2005 79 m -5 Y s 2042 79 m -5 Y s 2080 79 m -5 Y s 2117 79 m -5 Y s 2154 85 m -11 Y s 475 85 m -11 Y s 437 79 m -5 Y s 400 79 m -5 Y s 363 79 m -5 Y s
 gsave  2268 461 0 0 C 452.892 55.3896 t 0 r /Helvetica findfont 22.9045 sf 0 0 m (270) show NC gr 
 gsave  2268 461 0 0 C 641.868 55.3896 t 0 r /Helvetica findfont 22.9045 sf 0 0 m (275) show NC gr 
 gsave  2268 461 0 0 C 827.586 55.3896 t 0 r /Helvetica findfont 22.9045 sf 0 0 m (280) show NC gr 
 gsave  2268 461 0 0 C 1013.3 55.3896 t 0 r /Helvetica findfont 22.9045 sf 0 0 m (285) show NC gr 
 gsave  2268 461 0 0 C 1199.02 55.3896 t 0 r /Helvetica findfont 22.9045 sf 0 0 m (290) show NC gr 
 gsave  2268 461 0 0 C 1388 55.3896 t 0 r /Helvetica findfont 22.9045 sf 0 0 m (295) show NC gr 
 gsave  2268 461 0 0 C 1573.72 55.3896 t 0 r /Helvetica findfont 22.9045 sf 0 0 m (300) show NC gr 
 gsave  2268 461 0 0 C 1759.44 55.3896 t 0 r /Helvetica findfont 22.9045 sf 0 0 m (305) show NC gr 
 gsave  2268 461 0 0 C 1945.15 55.3896 t 0 r /Helvetica findfont 22.9045 sf 0 0 m (310) show NC gr 
 gsave  2268 461 0 0 C 2134.13 55.3896 t 0 r /Helvetica findfont 22.9045 sf 0 0 m (315) show NC gr  363 438 m 1791 X s 475 427 m 11 Y s 512 433 m 5 Y s 549 433 m 5 Y s 587 433 m 5 Y s 624 433 m 5 Y s 661 427 m 11 Y s 699 433 m 5 Y s 736 433 m 5 Y s
 773 433 m 5 Y s 811 433 m 5 Y s 848 427 m 11 Y s 885 433 m 5 Y s 923 433 m 5 Y s 960 433 m 5 Y s 997 433 m 5 Y s 1035 427 m 11 Y s 1072 433 m 5 Y s 1109 433 m 5 Y s 1147 433 m 5 Y s 1184 433 m 5 Y s 1221 427 m 11 Y s 1259 433 m 5 Y s 1296 433 m 5 Y
 s 1333 433 m 5 Y s 1371 433 m 5 Y s 1408 427 m 11 Y s 1445 433 m 5 Y s 1483 433 m 5 Y s 1520 433 m 5 Y s 1557 433 m 5 Y s 1594 427 m 11 Y s 1632 433 m 5 Y s 1669 433 m 5 Y s 1706 433 m 5 Y s 1744 433 m 5 Y s 1781 427 m 11 Y s 1818 433 m 5 Y s 1856
 433 m 5 Y s 1893 433 m 5 Y s 1930 433 m 5 Y s 1968 427 m 11 Y s 2005 433 m 5 Y s 2042 433 m 5 Y s 2080 433 m 5 Y s 2117 433 m 5 Y s 2154 427 m 11 Y s 475 427 m 11 Y s 437 433 m 5 Y s 400 433 m 5 Y s 363 433 m 5 Y s 363 74 m 364 Y s 417 74 m -54 X s
 390 81 m -27 X s 390 88 m -27 X s 390 96 m -27 X s 390 103 m -27 X s 417 110 m -54 X s 390 118 m -27 X s 390 125 m -27 X s 390 132 m -27 X s 390 139 m -27 X s 417 147 m -54 X s 390 154 m -27 X s 390 161 m -27 X s 390 169 m -27 X s 390 176 m -27 X s
 417 183 m -54 X s 390 190 m -27 X s 390 198 m -27 X s 390 205 m -27 X s 390 212 m -27 X s 417 220 m -54 X s 390 227 m -27 X s 390 234 m -27 X s 390 241 m -27 X s 390 249 m -27 X s 417 256 m -54 X s 390 263 m -27 X s 390 271 m -27 X s 390 278 m -27 X
 s 390 285 m -27 X s 417 293 m -54 X s 390 300 m -27 X s 390 307 m -27 X s 390 314 m -27 X s 390 322 m -27 X s 417 329 m -54 X s 390 336 m -27 X s 390 344 m -27 X s 390 351 m -27 X s 390 358 m -27 X s 417 365 m -54 X s 390 373 m -27 X s 390 380 m -27
 X s 390 387 m -27 X s 390 395 m -27 X s 417 402 m -54 X s 390 409 m -27 X s 390 416 m -27 X s 390 424 m -27 X s 390 431 m -27 X s 417 438 m -54 X s
 gsave  2268 461 0 0 C 329.08 65.1643 t 0 r /Helvetica findfont 22.9045 sf 0 0 m (\2555) show NC gr 
 gsave  2268 461 0 0 C 329.08 101.005 t 0 r /Helvetica findfont 22.9045 sf 0 0 m (\2554) show NC gr 
 gsave  2268 461 0 0 C 329.08 140.103 t 0 r /Helvetica findfont 22.9045 sf 0 0 m (\2553) show NC gr 
 gsave  2268 461 0 0 C 329.08 175.944 t 0 r /Helvetica findfont 22.9045 sf 0 0 m (\2552) show NC gr 
 gsave  2268 461 0 0 C 332.338 211.784 t 0 r /Helvetica findfont 22.9045 sf 0 0 m (\2551) show NC gr 
 gsave  2268 461 0 0 C 335.596 247.624 t 0 r /Helvetica findfont 22.9045 sf 0 0 m (0) show NC gr 
 gsave  2268 461 0 0 C 338.854 283.465 t 0 r /Helvetica findfont 22.9045 sf 0 0 m (1) show NC gr 
 gsave  2268 461 0 0 C 335.596 319.305 t 0 r /Helvetica findfont 22.9045 sf 0 0 m (2) show NC gr 
 gsave  2268 461 0 0 C 335.596 358.403 t 0 r /Helvetica findfont 22.9045 sf 0 0 m (3) show NC gr 
 gsave  2268 461 0 0 C 335.596 394.244 t 0 r /Helvetica findfont 22.9045 sf 0 0 m (4) show NC gr 
 gsave  2268 461 0 0 C 335.596 430.084 t 0 r /Helvetica findfont 22.9045 sf 0 0 m (5) show NC gr  2154 74 m 364 Y s 2101 74 m 53 X s 2127 81 m 27 X s 2127 88 m 27 X s 2127 96 m 27 X s 2127 103 m 27 X s 2101 110 m 53 X s 2127 118 m 27 X s 2127 125 m
 27 X s 2127 132 m 27 X s 2127 139 m 27 X s 2101 147 m 53 X s 2127 154 m 27 X s 2127 161 m 27 X s 2127 169 m 27 X s 2127 176 m 27 X s 2101 183 m 53 X s 2127 190 m 27 X s 2127 198 m 27 X s 2127 205 m 27 X s 2127 212 m 27 X s 2101 220 m 53 X s 2127 227
 m 27 X s 2127 234 m 27 X s 2127 241 m 27 X s 2127 249 m 27 X s 2101 256 m 53 X s 2127 263 m 27 X s 2127 271 m 27 X s 2127 278 m 27 X s 2127 285 m 27 X s 2101 293 m 53 X s 2127 300 m 27 X s 2127 307 m 27 X s 2127 314 m 27 X s 2127 322 m 27 X s 2101
 329 m 53 X s 2127 336 m 27 X s 2127 344 m 27 X s 2127 351 m 27 X s 2127 358 m 27 X s 2101 365 m 53 X s 2127 373 m 27 X s 2127 380 m 27 X s 2127 387 m 27 X s 2127 395 m 27 X s 2101 402 m 53 X s 2127 409 m 27 X s 2127 416 m 27 X s 2127 424 m 27 X s
 2127 431 m 27 X s 2101 438 m 53 X s 6 lw 0.2 0.8 0.2 c black 3 lw 0.2 0.8 0.2 c 363 256 m -60 Y 36 X 64 Y 35 X -67 Y 36 X 13 Y 36 X 27 Y 36 X -25 Y 36 X 17 Y 36 X -17 Y 35 X 34 Y 36 X 76 Y 36 X -40 Y 36 X -32 Y 36 X 21 Y 36 X 22 Y 35 X -59 Y 36 X 45
 Y 36 X -24 Y 36 X -100 Y 36 X 82 Y 36 X 14 Y 35 X 86 Y 36 X -114 Y 36 X 31 Y 36 X -8 Y 36 X -6 Y 36 X -2 Y 35 X 46 Y 36 X 79 Y 36 X -30 Y 36 X -22 Y 36 X -60 Y 36 X 15 Y 35 X -63 Y 36 X 62 Y 36 X 59 Y 36 X -76 Y 36 X 31 Y 36 X -28 Y 35 X -11 Y 36 X
 -27 Y 36 X 49 Y 36 X -94 Y 36 X 97 Y 36 X -76 Y 35 X 24 Y 36 X 50 Y 36 X -33 Y 36 X -23 Y 36 X 83 Y 36 X -67 Y 35 X 37 Y f 6 lw black 0.2 0.8 0.2 c black 363 196 m 36 X 64 Y 35 X -67 Y 36 X 13 Y 36 X 27 Y 36 X -25 Y 36 X 17 Y 36 X -17 Y 35 X 34 Y 36
 X 76 Y 36 X -40 Y 36 X -32 Y 36 X 21 Y 36 X 22 Y 35 X -59 Y 36 X 45 Y 36 X -24 Y 36 X -100 Y 36 X 82 Y 36 X 14 Y 35 X 86 Y 36 X -114 Y 36 X 31 Y 36 X -8 Y 36 X -6 Y 36 X -2 Y 35 X 46 Y 36 X 79 Y 36 X -30 Y 36 X -22 Y 36 X -60 Y 36 X 15 Y 35 X -63 Y
 36 X 62 Y 36 X 59 Y 36 X -76 Y 36 X 31 Y 36 X -28 Y 35 X -11 Y 36 X -27 Y 36 X 49 Y 36 X -94 Y 36 X 97 Y 36 X -76 Y 35 X 24 Y 36 X 50 Y 36 X -33 Y 36 X -23 Y 36 X 83 Y 36 X -67 Y 35 X s 3 lw 363 74 m 1791 X s 475 85 m -11 Y s 512 79 m -5 Y s 549 79
 m -5 Y s 587 79 m -5 Y s 624 79 m -5 Y s 661 85 m -11 Y s 699 79 m -5 Y s 736 79 m -5 Y s 773 79 m -5 Y s 811 79 m -5 Y s 848 85 m -11 Y s 885 79 m -5 Y s 923 79 m -5 Y s 960 79 m -5 Y s 997 79 m -5 Y s 1035 85 m -11 Y s 1072 79 m -5 Y s 1109 79 m
 -5 Y s 1147 79 m -5 Y s 1184 79 m -5 Y s 1221 85 m -11 Y s 1259 79 m -5 Y s 1296 79 m -5 Y s 1333 79 m -5 Y s 1371 79 m -5 Y s 1408 85 m -11 Y s 1445 79 m -5 Y s 1483 79 m -5 Y s 1520 79 m -5 Y s 1557 79 m -5 Y s 1594 85 m -11 Y s 1632 79 m -5 Y s
 1669 79 m -5 Y s 1706 79 m -5 Y s 1744 79 m -5 Y s 1781 85 m -11 Y s 1818 79 m -5 Y s 1856 79 m -5 Y s 1893 79 m -5 Y s 1930 79 m -5 Y s 1968 85 m -11 Y s 2005 79 m -5 Y s 2042 79 m -5 Y s 2080 79 m -5 Y s 2117 79 m -5 Y s 2154 85 m -11 Y s 475 85 m
 -11 Y s 437 79 m -5 Y s 400 79 m -5 Y s 363 79 m -5 Y s 363 438 m 1791 X s 475 427 m 11 Y s 512 433 m 5 Y s 549 433 m 5 Y s 587 433 m 5 Y s 624 433 m 5 Y s 661 427 m 11 Y s 699 433 m 5 Y s 736 433 m 5 Y s 773 433 m 5 Y s 811 433 m 5 Y s 848 427 m 11
 Y s 885 433 m 5 Y s 923 433 m 5 Y s 960 433 m 5 Y s 997 433 m 5 Y s 1035 427 m 11 Y s 1072 433 m 5 Y s 1109 433 m 5 Y s 1147 433 m 5 Y s 1184 433 m 5 Y s 1221 427 m 11 Y s 1259 433 m 5 Y s 1296 433 m 5 Y s 1333 433 m 5 Y s 1371 433 m 5 Y s 1408 427
 m 11 Y s 1445 433 m 5 Y s 1483 433 m 5 Y s 1520 433 m 5 Y s 1557 433 m 5 Y s 1594 427 m 11 Y s 1632 433 m 5 Y s 1669 433 m 5 Y s 1706 433 m 5 Y s 1744 433 m 5 Y s 1781 427 m 11 Y s 1818 433 m 5 Y s 1856 433 m 5 Y s 1893 433 m 5 Y s 1930 433 m 5 Y s
 1968 427 m 11 Y s 2005 433 m 5 Y s 2042 433 m 5 Y s 2080 433 m 5 Y s 2117 433 m 5 Y s 2154 427 m 11 Y s 475 427 m 11 Y s 437 433 m 5 Y s 400 433 m 5 Y s 363 433 m 5 Y s 363 74 m 364 Y s 417 74 m -54 X s 390 81 m -27 X s 390 88 m -27 X s 390 96 m -27
 X s 390 103 m -27 X s 417 110 m -54 X s 390 118 m -27 X s 390 125 m -27 X s 390 132 m -27 X s 390 139 m -27 X s 417 147 m -54 X s 390 154 m -27 X s 390 161 m -27 X s 390 169 m -27 X s 390 176 m -27 X s 417 183 m -54 X s 390 190 m -27 X s 390 198 m
 -27 X s 390 205 m -27 X s 390 212 m -27 X s 417 220 m -54 X s 390 227 m -27 X s 390 234 m -27 X s 390 241 m -27 X s 390 249 m -27 X s 417 256 m -54 X s 390 263 m -27 X s 390 271 m -27 X s 390 278 m -27 X s 390 285 m -27 X s 417 293 m -54 X s 390 300
 m -27 X s 390 307 m -27 X s 390 314 m -27 X s 390 322 m -27 X s 417 329 m -54 X s 390 336 m -27 X s 390 344 m -27 X s 390 351 m -27 X s 390 358 m -27 X s 417 365 m -54 X s 390 373 m -27 X s 390 380 m -27 X s 390 387 m -27 X s 390 395 m -27 X s 417
 402 m -54 X s 390 409 m -27 X s 390 416 m -27 X s 390 424 m -27 X s 390 431 m -27 X s 417 438 m -54 X s 2154 74 m 364 Y s 2101 74 m 53 X s 2127 81 m 27 X s 2127 88 m 27 X s 2127 96 m 27 X s 2127 103 m 27 X s 2101 110 m 53 X s 2127 118 m 27 X s 2127
 125 m 27 X s 2127 132 m 27 X s 2127 139 m 27 X s 2101 147 m 53 X s 2127 154 m 27 X s 2127 161 m 27 X s 2127 169 m 27 X s 2127 176 m 27 X s 2101 183 m 53 X s 2127 190 m 27 X s 2127 198 m 27 X s 2127 205 m 27 X s 2127 212 m 27 X s 2101 220 m 53 X s
 2127 227 m 27 X s 2127 234 m 27 X s 2127 241 m 27 X s 2127 249 m 27 X s 2101 256 m 53 X s 2127 263 m 27 X s 2127 271 m 27 X s 2127 278 m 27 X s 2127 285 m 27 X s 2101 293 m 53 X s 2127 300 m 27 X s 2127 307 m 27 X s 2127 314 m 27 X s 2127 322 m 27 X
 s 2101 329 m 53 X s 2127 336 m 27 X s 2127 344 m 27 X s 2127 351 m 27 X s 2127 358 m 27 X s 2101 365 m 53 X s 2127 373 m 27 X s 2127 380 m 27 X s 2127 387 m 27 X s 2127 395 m 27 X s 2101 402 m 53 X s 2127 409 m 27 X s 2127 416 m 27 X s 2127 424 m 27
 X s 2127 431 m 27 X s 2101 438 m 53 X s
 gr  gr showpage
end
%%EOF
