%!PS-Adobe-2.0 EPSF-2.0
%%BoundingBox:  0 0 567 384
%%Title: H4l2015_plotfit/gg_mass_signal_900_H4l_2mu2e.eps: 
%%Creator: ROOT Version 5.34/10
%%CreationDate: Thu Feb 16 15:47:25 2017
%%EndComments
%%BeginProlog
80 dict begin
/s {stroke} def /l {lineto} def /m {moveto} def /t {translate} def
/r {rotate} def /rl {roll}  def /R {repeat} def
/d {rlineto} def /rm {rmoveto} def /gr {grestore} def /f {eofill} def
/c {setrgbcolor} def /black {0 setgray} def /sd {setdash} def
/cl {closepath} def /sf {scalefont setfont} def /lw {setlinewidth} def
/box {m dup 0 exch d exch 0 d 0 exch neg d cl} def
/NC{systemdict begin initclip end}def/C{NC box clip newpath}def
/bl {box s} def /bf {box f} def /Y { 0 exch d} def /X { 0 d} def 
/K {{pop pop 0 moveto} exch kshow} bind def
/ita {/ang 15 def gsave [1 0 ang dup sin exch cos div 1 0 0] concat} def 
/mp {newpath /y exch def /x exch def} def
/side {[w .77 mul w .23 mul] .385 w mul sd w 0 l currentpoint t -144 r} def
/mr {mp x y w2 0 360 arc} def /m24 {mr s} def /m20 {mr f} def
/mb {mp x y w2 add m w2 neg 0 d 0 w neg d w 0 d 0 w d cl} def
/mt {mp x y w2 add m w2 neg w neg d w 0 d cl} def
/m21 {mb f} def /m25 {mb s} def /m22 {mt f} def /m26{mt s} def
/m23 {mp x y w2 sub m w2 w d w neg 0 d cl f} def
/m27 {mp x y w2 add m w3 neg w2 neg d w3 w2 neg d w3 w2 d cl s} def
/m28 {mp x w2 sub y w2 sub w3 add m w3 0 d  0 w3 neg d w3 0 d 0 w3 d w3 0 d  0 w3 d w3 neg 0 d 0 w3 d w3 neg 0 d 0 w3 neg d w3 neg 0 d cl s } def
/m29 {mp gsave x w2 sub y w2 add w3 sub m currentpoint t 4 {side} repeat cl fill gr} def
/m30 {mp gsave x w2 sub y w2 add w3 sub m currentpoint t 4 {side} repeat cl s gr} def
/m31 {mp x y w2 sub m 0 w d x w2 sub y m w 0 d x w2 sub y w2 add m w w neg d x w2 sub y w2 sub m w w d s} def
/m32 {mp x y w2 sub m w2 w d w neg 0 d cl s} def
/m33 {mp x y w2 add m w3 neg w2 neg d w3 w2 neg d w3 w2 d cl f} def
/m34 {mp x w2 sub y w2 sub w3 add m w3 0 d  0 w3 neg d w3 0 d 0 w3 d w3 0 d  0 w3 d w3 neg 0 d 0 w3 d w3 neg 0 d 0 w3 neg d w3 neg 0 d cl f } def
/m2 {mp x y w2 sub m 0 w d x w2 sub y m w 0 d s} def
/m5 {mp x w2 sub y w2 sub m w w d x w2 sub y w2 add m w w neg d s} def
/reEncode {exch findfont dup length dict begin {1 index /FID eq  {pop pop} {def} ifelse } forall /Encoding exch def currentdict end dup /FontName get exch definefont pop } def [/Times-Bold /Times-Italic /Times-BoldItalic /Helvetica /Helvetica-Oblique
 /Helvetica-Bold /Helvetica-BoldOblique /Courier /Courier-Oblique /Courier-Bold /Courier-BoldOblique /Times-Roman /AvantGarde-Book /AvantGarde-BookOblique /AvantGarde-Demi /AvantGarde-DemiOblique /Bookman-Demi /Bookman-DemiItalic /Bookman-Light
 /Bookman-LightItalic /Helvetica-Narrow /Helvetica-Narrow-Bold /Helvetica-Narrow-BoldOblique /Helvetica-Narrow-Oblique /NewCenturySchlbk-Roman /NewCenturySchlbk-Bold /NewCenturySchlbk-BoldItalic /NewCenturySchlbk-Italic /Palatino-Bold
 /Palatino-BoldItalic /Palatino-Italic /Palatino-Roman ] {ISOLatin1Encoding reEncode } forall
%%EndProlog
%%BeginSetup
%%EndSetup
newpath  gsave  .25 .25 scale  gsave  0 0 t black[  ] 0 sd 3 lw 1 1 1 c 2268 1538 0 0 bf black 1 1 1 c 2222 738 23 784 bf black 1 1 1 c 2222 739 23 15 bf black 1 1 1 c 2268 1077 0 461 bf black 1 1 1 c 1791 850 363 634 bf black 1791 850 363 634 bl 363
 634 m 1791 X s
 gsave  2268 1077 0 461 C 1642.14 498.507 t 0 r /Helvetica findfont 48.9324 sf 0 0 m (4l Invariant Mass \(GeV\)) show NC gr  419 659 m -25 Y s 465 646 m -12 Y s 512 646 m -12 Y s 559 646 m -12 Y s 605 659 m -25 Y s 652 646 m -12 Y s 699 646 m -12 Y s
 745 646 m -12 Y s 792 659 m -25 Y s 839 646 m -12 Y s 885 646 m -12 Y s 932 646 m -12 Y s 979 659 m -25 Y s 1025 646 m -12 Y s 1072 646 m -12 Y s 1119 646 m -12 Y s 1165 659 m -25 Y s 1212 646 m -12 Y s 1259 646 m -12 Y s 1305 646 m -12 Y s 1352 659
 m -25 Y s 1399 646 m -12 Y s 1445 646 m -12 Y s 1492 646 m -12 Y s 1539 659 m -25 Y s 1585 646 m -12 Y s 1632 646 m -12 Y s 1678 646 m -12 Y s 1725 659 m -25 Y s 1772 646 m -12 Y s 1818 646 m -12 Y s 1865 646 m -12 Y s 1912 659 m -25 Y s 1958 646 m
 -12 Y s 2005 646 m -12 Y s 2052 646 m -12 Y s 2098 659 m -25 Y s 419 659 m -25 Y s 372 646 m -12 Y s 2098 659 m -25 Y s 2145 646 m -12 Y s
 gsave  2268 1077 0 461 C 374.695 586.478 t 0 r /Helvetica findfont 48.9324 sf 0 0 m (780) show NC gr 
 gsave  2268 1077 0 461 C 560.413 586.478 t 0 r /Helvetica findfont 48.9324 sf 0 0 m (800) show NC gr 
 gsave  2268 1077 0 461 C 749.389 586.478 t 0 r /Helvetica findfont 48.9324 sf 0 0 m (820) show NC gr 
 gsave  2268 1077 0 461 C 935.107 586.478 t 0 r /Helvetica findfont 48.9324 sf 0 0 m (840) show NC gr 
 gsave  2268 1077 0 461 C 1120.83 586.478 t 0 r /Helvetica findfont 48.9324 sf 0 0 m (860) show NC gr 
 gsave  2268 1077 0 461 C 1306.54 586.478 t 0 r /Helvetica findfont 48.9324 sf 0 0 m (880) show NC gr 
 gsave  2268 1077 0 461 C 1495.52 586.478 t 0 r /Helvetica findfont 48.9324 sf 0 0 m (900) show NC gr 
 gsave  2268 1077 0 461 C 1681.24 586.478 t 0 r /Helvetica findfont 48.9324 sf 0 0 m (920) show NC gr 
 gsave  2268 1077 0 461 C 1866.96 586.478 t 0 r /Helvetica findfont 48.9324 sf 0 0 m (940) show NC gr 
 gsave  2268 1077 0 461 C 2055.93 586.478 t 0 r /Helvetica findfont 48.9324 sf 0 0 m (960) show NC gr  363 1484 m 1791 X s 419 1459 m 25 Y s 465 1471 m 13 Y s 512 1471 m 13 Y s 559 1471 m 13 Y s 605 1459 m 25 Y s 652 1471 m 13 Y s 699 1471 m 13 Y s
 745 1471 m 13 Y s 792 1459 m 25 Y s 839 1471 m 13 Y s 885 1471 m 13 Y s 932 1471 m 13 Y s 979 1459 m 25 Y s 1025 1471 m 13 Y s 1072 1471 m 13 Y s 1119 1471 m 13 Y s 1165 1459 m 25 Y s 1212 1471 m 13 Y s 1259 1471 m 13 Y s 1305 1471 m 13 Y s 1352
 1459 m 25 Y s 1399 1471 m 13 Y s 1445 1471 m 13 Y s 1492 1471 m 13 Y s 1539 1459 m 25 Y s 1585 1471 m 13 Y s 1632 1471 m 13 Y s 1678 1471 m 13 Y s 1725 1459 m 25 Y s 1772 1471 m 13 Y s 1818 1471 m 13 Y s 1865 1471 m 13 Y s 1912 1459 m 25 Y s 1958
 1471 m 13 Y s 2005 1471 m 13 Y s 2052 1471 m 13 Y s 2098 1459 m 25 Y s 419 1459 m 25 Y s 372 1471 m 13 Y s 2098 1459 m 25 Y s 2145 1471 m 13 Y s 363 634 m 850 Y s
 gsave  2268 1077 0 461 C 120.554 1032.85 t 90 r /Helvetica findfont 48.9324 sf 0 0 m (Events / \( 3.84 GeV \)) show NC gr  390 653 m -27 X s 390 677 m -27 X s 390 697 m -27 X s 390 715 m -27 X s 390 731 m -27 X s 417 745 m -54 X s
 gsave  2268 1077 0 461 C 342.425 723.887 t 0 r  -55 0 t /Helvetica findfont 48.9324 sf 0 0 m (10) show NC gr  390 837 m -27 X s 390 891 m -27 X s 390 929 m -27 X s 390 959 m -27 X s 390 983 m -27 X s 390 1003 m -27 X s 390 1021 m -27 X s 390 1037 m
 -27 X s 417 1051 m -54 X s
 gsave  2268 1077 0 461 C 322.563 1049.14 t 0 r /Helvetica findfont 32.6216 sf 0 0 m (2) show NC gr 
 gsave  2268 1077 0 461 C 270.432 1029.6 t 0 r /Helvetica findfont 48.9324 sf 0 0 m (10) show NC gr  390 1143 m -27 X s 390 1197 m -27 X s 390 1235 m -27 X s 390 1265 m -27 X s 390 1289 m -27 X s 390 1310 m -27 X s 390 1327 m -27 X s 390 1343 m -27 X
 s 417 1357 m -54 X s
 gsave  2268 1077 0 461 C 322.563 1358.67 t 0 r /Helvetica findfont 32.6216 sf 0 0 m (3) show NC gr 
 gsave  2268 1077 0 461 C 270.432 1335.87 t 0 r /Helvetica findfont 48.9324 sf 0 0 m (10) show NC gr  390 1449 m -27 X s 2154 634 m 850 Y s 2127 653 m 27 X s 2127 677 m 27 X s 2127 697 m 27 X s 2127 715 m 27 X s 2127 731 m 27 X s 2101 745 m 53 X s
 2127 837 m 27 X s 2127 891 m 27 X s 2127 929 m 27 X s 2127 959 m 27 X s 2127 983 m 27 X s 2127 1003 m 27 X s 2127 1021 m 27 X s 2127 1037 m 27 X s 2101 1051 m 53 X s 2127 1143 m 27 X s 2127 1197 m 27 X s 2127 1235 m 27 X s 2127 1265 m 27 X s 2127
 1289 m 27 X s 2127 1310 m 27 X s 2127 1327 m 27 X s 2127 1343 m 27 X s 2101 1357 m 53 X s 2127 1449 m 27 X s 381 757 m -18 X s 363 757 m cl s 381 757 m 18 X s 399 757 m cl s 381 757 m 45 Y s 381 802 m cl s 381 757 m -46 Y s 381 711 m cl s 417 715 m
 -18 X s 399 715 m cl s 417 715 m 17 X s 434 715 m cl s 417 715 m 53 Y s 417 768 m cl s 417 715 m -56 Y s 417 659 m cl s 452 807 m -18 X s 434 807 m cl s 452 807 m 18 X s 470 807 m cl s 452 807 m 37 Y s 452 844 m cl s 452 807 m -38 Y s 452 769 m cl s
 488 799 m -18 X s 470 799 m cl s 488 799 m 18 X s 506 799 m cl s 488 799 m 38 Y s 488 837 m cl s 488 799 m -40 Y s 488 759 m cl s 524 780 m -18 X s 506 780 m cl s 524 780 m 18 X s 542 780 m cl s 524 780 m 41 Y s 524 821 m cl s 524 780 m -43 Y s 524
 737 m cl s 560 843 m -18 X s 542 843 m cl s 560 843 m 18 X s 578 843 m cl s 560 843 m 32 Y s 560 875 m cl s 560 843 m -32 Y s 560 811 m cl s 596 877 m -18 X s 578 877 m cl s 596 877 m 18 X s 614 877 m cl s 596 877 m 28 Y s 596 905 m cl s 596 877 m
 -28 Y s 596 849 m cl s 632 850 m -18 X s 614 850 m cl s 632 850 m 17 X s 649 850 m cl s 632 850 m 30 Y s 632 880 m cl s 632 850 m -32 Y s 632 818 m cl s 667 855 m -18 X s 649 855 m cl s 667 855 m 18 X s 685 855 m cl s 667 855 m 31 Y s 667 886 m cl s
 667 855 m -30 Y s 667 825 m cl s 703 837 m -18 X s 685 837 m cl s 703 837 m 18 X s 721 837 m cl s 703 837 m 32 Y s 703 869 m cl s 703 837 m -33 Y s 703 804 m cl s 739 899 m -18 X s 721 899 m cl s 739 899 m 18 X s 757 899 m cl s 739 899 m 26 Y s 739
 925 m cl s 739 899 m -25 Y s 739 874 m cl s 775 886 m -18 X s 757 886 m cl s 775 886 m 18 X s 793 886 m cl s 775 886 m 27 Y s 775 913 m cl s 775 886 m -27 Y s 775 859 m cl s 811 903 m -18 X s 793 903 m cl s 811 903 m 18 X s 829 903 m cl s 811 903 m
 25 Y s 811 928 m cl s 811 903 m -25 Y s 811 878 m cl s 847 942 m -18 X s 829 942 m cl s 847 942 m 17 X s 864 942 m cl s 847 942 m 21 Y s 847 963 m cl s 847 942 m -22 Y s 847 920 m cl s 882 936 m -18 X s 864 936 m cl s 882 936 m 18 X s 900 936 m cl s
 882 936 m 21 Y s 882 957 m cl s 882 936 m -23 Y s 882 913 m cl s 918 956 m -18 X s 900 956 m cl s 918 956 m 18 X s 936 956 m cl s 918 956 m 20 Y s 918 976 m cl s 918 956 m -20 Y s 918 936 m cl s 954 969 m -18 X s 936 969 m cl s 954 969 m 18 X s 972
 969 m cl s 954 969 m 19 Y s 954 988 m cl s 954 969 m -19 Y s 954 950 m cl s 990 1002 m -18 X s 972 1002 m cl s 990 1002 m 18 X s 1008 1002 m cl s 990 1002 m 16 Y s 990 1018 m cl s 990 1002 m -17 Y s 990 985 m cl s 1026 1023 m -18 X s 1008 1023 m cl
 s 1026 1023 m 18 X s 1044 1023 m cl s 1026 1023 m 15 Y s 1026 1038 m cl s 1026 1023 m -16 Y s 1026 1007 m cl s 1062 1029 m -18 X s 1044 1029 m cl s 1062 1029 m 17 X s 1079 1029 m cl s 1062 1029 m 15 Y s 1062 1044 m cl s 1062 1029 m -15 Y s 1062 1014
 m cl s 1097 1047 m -18 X s 1079 1047 m cl s 1097 1047 m 18 X s 1115 1047 m cl s 1097 1047 m 14 Y s 1097 1061 m cl s 1097 1047 m -14 Y s 1097 1033 m cl s 1133 1082 m -18 X s 1115 1082 m cl s 1133 1082 m 18 X s 1151 1082 m cl s 1133 1082 m 11 Y s 1133
 1093 m cl s 1133 1082 m -12 Y s 1133 1070 m cl s 1169 1118 m -18 X s 1151 1118 m cl s 1169 1118 m 18 X s 1187 1118 m cl s 1169 1118 m 11 Y s 1169 1129 m cl s 1169 1118 m -10 Y s 1169 1108 m cl s 1205 1142 m -18 X s 1187 1142 m cl s 1205 1142 m 18 X
 s 1223 1142 m cl s 1205 1142 m 9 Y s 1205 1151 m cl s 1205 1142 m -10 Y s 1205 1132 m cl s 1241 1179 m -18 X s 1223 1179 m cl s 1241 1179 m 18 X s 1259 1179 m cl s 1241 1179 m 8 Y s 1241 1187 m cl s 1241 1179 m -8 Y s 1241 1171 m cl s 1276 1207 m
 -17 X s 1259 1207 m cl s 1276 1207 m 18 X s 1294 1207 m cl s 1276 1207 m 7 Y s 1276 1214 m cl s 1276 1207 m -8 Y s 1276 1199 m cl s 1312 1240 m -18 X s 1294 1240 m cl s 1312 1240 m 18 X s 1330 1240 m cl s 1312 1240 m 7 Y s 1312 1247 m cl s 1312 1240
 m -6 Y s 1312 1234 m cl s 1348 1281 m -18 X s 1330 1281 m cl s 1348 1281 m 18 X s 1366 1281 m cl s 1348 1281 m 5 Y s 1348 1286 m cl s 1348 1281 m -6 Y s 1348 1275 m cl s 1384 1316 m -18 X s 1366 1316 m cl s 1384 1316 m 18 X s 1402 1316 m cl s 1384
 1316 m 5 Y s 1384 1321 m cl s 1384 1316 m -5 Y s 1384 1311 m cl s 1420 1352 m -18 X s 1402 1352 m cl s 1420 1352 m 18 X s 1438 1352 m cl s 1420 1352 m 4 Y s 1420 1356 m cl s 1420 1352 m -4 Y s 1420 1348 m cl s 1456 1384 m -18 X s 1438 1384 m cl s
 1456 1384 m 18 X s 1474 1384 m cl s 1456 1384 m 4 Y s 1456 1388 m cl s 1456 1384 m -4 Y s 1456 1380 m cl s 1491 1415 m -17 X s 1474 1415 m cl s 1491 1415 m 18 X s 1509 1415 m cl s 1491 1415 m 3 Y s 1491 1418 m cl s 1491 1415 m -4 Y s 1491 1411 m cl
 s 1527 1418 m -18 X s 1509 1418 m cl s 1527 1418 m 18 X s 1545 1418 m cl s 1527 1418 m 3 Y s 1527 1421 m cl s 1527 1418 m -3 Y s 1527 1415 m cl s 1563 1406 m -18 X s 1545 1406 m cl s 1563 1406 m 18 X s 1581 1406 m cl s 1563 1406 m 4 Y s 1563 1410 m
 cl s 1563 1406 m -3 Y s 1563 1403 m cl s 1599 1375 m -18 X s 1581 1375 m cl s 1599 1375 m 18 X s 1617 1375 m cl s 1599 1375 m 3 Y s 1599 1378 m cl s 1599 1375 m -4 Y s 1599 1371 m cl s 1635 1331 m -18 X s 1617 1331 m cl s 1635 1331 m 18 X s 1653
 1331 m cl s 1635 1331 m 4 Y s 1635 1335 m cl s 1635 1331 m -5 Y s 1635 1326 m cl s 1671 1279 m -18 X s 1653 1279 m cl s 1671 1279 m 18 X s 1689 1279 m cl s 1671 1279 m 6 Y s 1671 1285 m cl s 1671 1279 m -6 Y s 1671 1273 m cl s 1706 1224 m -17 X s
 1689 1224 m cl s 1706 1224 m 18 X s 1724 1224 m cl s 1706 1224 m 7 Y s 1706 1231 m cl s 1706 1224 m -7 Y s 1706 1217 m cl s 1742 1166 m -18 X s 1724 1166 m cl s 1742 1166 m 18 X s 1760 1166 m cl s 1742 1166 m 8 Y s 1742 1174 m cl s 1742 1166 m -9 Y
 s 1742 1157 m cl s 1778 1126 m -18 X s 1760 1126 m cl s 1778 1126 m 18 X s 1796 1126 m cl s 1778 1126 m 10 Y s 1778 1136 m cl s 1778 1126 m -10 Y s 1778 1116 m cl s 1814 1065 m -18 X s 1796 1065 m cl s 1814 1065 m 18 X s 1832 1065 m cl s 1814 1065 m
 12 Y s 1814 1077 m cl s 1814 1065 m -13 Y s 1814 1052 m cl s 1850 1038 m -18 X s 1832 1038 m cl s 1850 1038 m 18 X s 1868 1038 m cl s 1850 1038 m 15 Y s 1850 1053 m cl s 1850 1038 m -14 Y s 1850 1024 m cl s 1886 1007 m -18 X s 1868 1007 m cl s 1886
 1007 m 18 X s 1904 1007 m cl s 1886 1007 m 17 Y s 1886 1024 m cl s 1886 1007 m -16 Y s 1886 991 m cl s 1921 964 m -17 X s 1904 964 m cl s 1921 964 m 18 X s 1939 964 m cl s 1921 964 m 20 Y s 1921 984 m cl s 1921 964 m -20 Y s 1921 944 m cl s 1957 919
 m -18 X s 1939 919 m cl s 1957 919 m 18 X s 1975 919 m cl s 1957 919 m 23 Y s 1957 942 m cl s 1957 919 m -24 Y s 1957 895 m cl s 1993 799 m -18 X s 1975 799 m cl s 1993 799 m 18 X s 2011 799 m cl s 1993 799 m 38 Y s 1993 837 m cl s 1993 799 m -40 Y
 s 1993 759 m cl s 2029 872 m -18 X s 2011 872 m cl s 2029 872 m 18 X s 2047 872 m cl s 2029 872 m 28 Y s 2029 900 m cl s 2029 872 m -29 Y s 2029 843 m cl s 2065 823 m -18 X s 2047 823 m cl s 2065 823 m 18 X s 2083 823 m cl s 2065 823 m 34 Y s 2065
 857 m cl s 2065 823 m -35 Y s 2065 788 m cl s 2101 715 m -18 X s 2083 715 m cl s 2101 715 m 18 X s 2119 715 m cl s 2101 715 m 53 Y s 2101 768 m cl s 2101 715 m -56 Y s 2101 659 m cl s 2136 715 m -17 X s 2119 715 m cl s 2136 715 m 18 X s 2154 715 m
 cl s 2136 715 m 53 Y s 2136 768 m cl s 2136 715 m -56 Y s 2136 659 m cl s /w 31 def /w2 {w 2 div} def /w3 {w 3 div} def 381 757 417 715 452 807 488 799 524 780 560 843 596 877 632 850 667 855 703 837 739 899 775 886 811 903 847 942 882 936 918 956
 954 969 990 1002 1026 1023 1062 1029 1097 1047 1133 1082 1169 1118 1205 1142 1241 1179 1276 1207 1312 1240 1348 1281 1384 1316 1420 1352 1456 1384 1491 1415 1527 1418 1563 1406 1599 1375 1635 1331 1671 1279 1706 1224 1742 1166 1778 1126 1814 1065
 1850 1038 1886 1007 1921 964 1957 919 1993 799 2029 872 2065 823 2101 715 2136 715 50 { m20} R 0 1 1 c 1 1 0 c black 1 1 0 c 363 804 m 36 6 d 35 7 d 36 7 d 36 7 d 36 7 d 36 8 d 36 8 d 35 8 d 36 9 d 36 10 d 36 10 d 36 12 d 36 13 d 35 14 d 36 17 d 36
 19 d 36 21 d 36 23 d 36 24 d 35 26 d 36 26 d 36 27 d 36 28 d 36 28 d 36 28 d 17 14 d 18 15 d 18 14 d 18 16 d 9 8 d 9 8 d 9 9 d 9 10 d 9 11 d 9 13 d 4 6 d 5 7 d 9 12 d 36 40 d 9 8 d 9 7 d 9 6 d 9 6 d 9 5 d 8 4 d 9 2 d 9 2 d 9 1 d 9 -1 d 9 -1 d 9 -3 d
 9 -4 d 9 -5 d 9 -6 d 9 -6 d 9 -8 d 9 -9 d 18 -19 d 18 -22 d 9 -12 d 9 -13 d 9 -13 d 9 -14 d 9 -14 d 9 -14 d 8 -15 d 9 -14 d 9 -15 d 9 -14 d 9 -13 d 9 -14 d 18 -24 d 18 -23 d 18 -20 d 18 -18 d 18 -19 d 36 -36 d 36 -38 d 35 -39 d 36 -41 d 36 -43 d 36
 -46 d 36 -49 d 36 -53 d 35 -56 d -33 Y -30 X -5 10 d -36 67 d -36 62 d -36 57 d -36 53 d -36 47 d -35 42 d -36 38 d -36 37 d -18 19 d -18 21 d -18 22 d -18 24 d -18 26 d -9 14 d -9 13 d -9 14 d -9 15 d -9 14 d -8 15 d -9 15 d -9 14 d -9 15 d -9 14 d
 -9 13 d -9 13 d -18 24 d -18 21 d -9 8 d -9 8 d -9 6 d -9 6 d -9 5 d -9 3 d -9 3 d -9 2 d -18 X -9 -1 d -9 -3 d -8 -3 d -9 -5 d -9 -6 d -9 -7 d -9 -8 d -9 -9 d -36 -46 d -9 -13 d -5 -5 d -4 -5 d -9 -10 d -9 -10 d -9 -9 d -9 -10 d -9 -9 d -9 -8 d -18
 -17 d -18 -15 d -18 -14 d -17 -14 d -36 -28 d -36 -27 d -36 -28 d -36 -28 d -36 -29 d -35 -27 d -36 -26 d -36 -24 d -36 -22 d -36 -20 d -36 -17 d -35 -15 d -36 -14 d -36 -12 d -36 -11 d -36 -11 d -36 -9 d -35 -9 d -36 -8 d -36 -8 d -36 -7 d -36 -8 d
 -36 -6 d -35 -7 d -36 -7 d f 0 1 1 c 0 1 0 c black 0 1 0 c 363 798 m 36 7 d 35 6 d 36 7 d 36 7 d 36 7 d 36 8 d 36 8 d 35 9 d 36 9 d 36 9 d 36 11 d 36 12 d 36 13 d 35 15 d 36 17 d 36 19 d 36 21 d 36 23 d 36 25 d 35 26 d 36 27 d 36 27 d 36 28 d 36 28
 d 36 28 d 17 14 d 18 14 d 18 15 d 18 15 d 9 9 d 9 8 d 9 9 d 9 10 d 9 11 d 9 12 d 4 6 d 5 7 d 9 12 d 36 41 d 9 8 d 9 8 d 9 6 d 9 6 d 9 4 d 8 4 d 9 3 d 9 1 d 9 1 d 9 X 9 -2 d 9 -3 d 9 -3 d 9 -5 d 9 -6 d 9 -7 d 9 -8 d 9 -8 d 18 -20 d 18 -22 d 9 -13 d 9
 -13 d 9 -13 d 9 -14 d 9 -14 d 9 -14 d 8 -15 d 9 -14 d 9 -15 d 9 -14 d 9 -14 d 9 -13 d 18 -25 d 18 -22 d 18 -21 d 18 -19 d 18 -19 d 36 -36 d 36 -38 d 35 -40 d 36 -42 d 36 -45 d 36 -48 d 36 -52 d 36 -55 d 35 -58 d -15 Y -16 X -19 35 d -36 61 d -36 58
 d -36 54 d -36 49 d -36 46 d -35 41 d -36 38 d -36 37 d -18 18 d -18 21 d -18 22 d -18 23 d -18 26 d -9 13 d -9 14 d -9 14 d -9 14 d -9 15 d -8 14 d -9 15 d -9 14 d -9 15 d -9 13 d -9 14 d -9 13 d -18 23 d -18 20 d -9 9 d -9 7 d -9 7 d -9 6 d -9 4 d
 -9 4 d -9 3 d -9 1 d -9 1 d -9 -1 d -9 -1 d -9 -2 d -8 -4 d -9 -5 d -9 -5 d -9 -7 d -9 -8 d -9 -9 d -36 -44 d -9 -13 d -5 -6 d -4 -5 d -9 -11 d -9 -10 d -9 -10 d -9 -9 d -9 -9 d -9 -8 d -18 -16 d -18 -15 d -18 -15 d -17 -14 d -36 -27 d -36 -28 d -36
 -28 d -36 -28 d -36 -27 d -35 -27 d -36 -26 d -36 -24 d -36 -21 d -36 -20 d -36 -17 d -35 -15 d -36 -14 d -36 -12 d -36 -11 d -36 -10 d -36 -9 d -35 -8 d -36 -9 d -36 -7 d -36 -8 d -36 -7 d -36 -7 d -35 -7 d -36 -6 d f 0 0 1 c 9 lw black 0 0 1 c 363
 792 m 36 7 d 35 6 d 36 7 d 36 7 d 36 8 d 36 7 d 36 8 d 35 9 d 36 9 d 36 10 d 36 11 d 36 12 d 36 13 d 35 15 d 36 17 d 36 19 d 36 22 d 36 23 d 36 25 d 35 27 d 36 27 d 36 28 d 36 28 d 36 27 d 36 28 d 17 14 d 18 15 d 18 15 d 18 15 d 9 9 d 9 8 d 9 9 d 9
 10 d 9 11 d 9 11 d 4 6 d 5 6 d 9 13 d 36 42 d 9 9 d 9 7 d 9 7 d 9 6 d 9 4 d 8 4 d 9 2 d 9 2 d 18 X 9 -2 d 9 -2 d 9 -4 d 9 -5 d 9 -6 d 9 -6 d 9 -8 d 9 -9 d 18 -19 d 18 -23 d 9 -13 d 9 -13 d 9 -14 d 9 -14 d 9 -14 d 9 -14 d 8 -15 d 9 -15 d 9 -14 d 9
 -14 d 9 -14 d 9 -13 d 18 -25 d 18 -23 d 18 -22 d 18 -19 d 18 -19 d 36 -37 d 36 -37 d 35 -41 d 36 -44 d 36 -47 d 36 -50 d 36 -55 d 36 -58 d 32 -55 d s black 3 lw 381 757 m -18 X s 363 757 m cl s 381 757 m 18 X s 399 757 m cl s 381 757 m 45 Y s 381
 802 m cl s 381 757 m -46 Y s 381 711 m cl s 417 715 m -18 X s 399 715 m cl s 417 715 m 17 X s 434 715 m cl s 417 715 m 53 Y s 417 768 m cl s 417 715 m -56 Y s 417 659 m cl s 452 807 m -18 X s 434 807 m cl s 452 807 m 18 X s 470 807 m cl s 452 807 m
 37 Y s 452 844 m cl s 452 807 m -38 Y s 452 769 m cl s 488 799 m -18 X s 470 799 m cl s 488 799 m 18 X s 506 799 m cl s 488 799 m 38 Y s 488 837 m cl s 488 799 m -40 Y s 488 759 m cl s 524 780 m -18 X s 506 780 m cl s 524 780 m 18 X s 542 780 m cl s
 524 780 m 41 Y s 524 821 m cl s 524 780 m -43 Y s 524 737 m cl s 560 843 m -18 X s 542 843 m cl s 560 843 m 18 X s 578 843 m cl s 560 843 m 32 Y s 560 875 m cl s 560 843 m -32 Y s 560 811 m cl s 596 877 m -18 X s 578 877 m cl s 596 877 m 18 X s 614
 877 m cl s 596 877 m 28 Y s 596 905 m cl s 596 877 m -28 Y s 596 849 m cl s 632 850 m -18 X s 614 850 m cl s 632 850 m 17 X s 649 850 m cl s 632 850 m 30 Y s 632 880 m cl s 632 850 m -32 Y s 632 818 m cl s 667 855 m -18 X s 649 855 m cl s 667 855 m
 18 X s 685 855 m cl s 667 855 m 31 Y s 667 886 m cl s 667 855 m -30 Y s 667 825 m cl s 703 837 m -18 X s 685 837 m cl s 703 837 m 18 X s 721 837 m cl s 703 837 m 32 Y s 703 869 m cl s 703 837 m -33 Y s 703 804 m cl s 739 899 m -18 X s 721 899 m cl s
 739 899 m 18 X s 757 899 m cl s 739 899 m 26 Y s 739 925 m cl s 739 899 m -25 Y s 739 874 m cl s 775 886 m -18 X s 757 886 m cl s 775 886 m 18 X s 793 886 m cl s 775 886 m 27 Y s 775 913 m cl s 775 886 m -27 Y s 775 859 m cl s 811 903 m -18 X s 793
 903 m cl s 811 903 m 18 X s 829 903 m cl s 811 903 m 25 Y s 811 928 m cl s 811 903 m -25 Y s 811 878 m cl s 847 942 m -18 X s 829 942 m cl s 847 942 m 17 X s 864 942 m cl s 847 942 m 21 Y s 847 963 m cl s 847 942 m -22 Y s 847 920 m cl s 882 936 m
 -18 X s 864 936 m cl s 882 936 m 18 X s 900 936 m cl s 882 936 m 21 Y s 882 957 m cl s 882 936 m -23 Y s 882 913 m cl s 918 956 m -18 X s 900 956 m cl s 918 956 m 18 X s 936 956 m cl s 918 956 m 20 Y s 918 976 m cl s 918 956 m -20 Y s 918 936 m cl s
 954 969 m -18 X s 936 969 m cl s 954 969 m 18 X s 972 969 m cl s 954 969 m 19 Y s 954 988 m cl s 954 969 m -19 Y s 954 950 m cl s 990 1002 m -18 X s 972 1002 m cl s 990 1002 m 18 X s 1008 1002 m cl s 990 1002 m 16 Y s 990 1018 m cl s 990 1002 m -17
 Y s 990 985 m cl s 1026 1023 m -18 X s 1008 1023 m cl s 1026 1023 m 18 X s 1044 1023 m cl s 1026 1023 m 15 Y s 1026 1038 m cl s 1026 1023 m -16 Y s 1026 1007 m cl s 1062 1029 m -18 X s 1044 1029 m cl s 1062 1029 m 17 X s 1079 1029 m cl s 1062 1029 m
 15 Y s 1062 1044 m cl s 1062 1029 m -15 Y s 1062 1014 m cl s 1097 1047 m -18 X s 1079 1047 m cl s 1097 1047 m 18 X s 1115 1047 m cl s 1097 1047 m 14 Y s 1097 1061 m cl s 1097 1047 m -14 Y s 1097 1033 m cl s 1133 1082 m -18 X s 1115 1082 m cl s 1133
 1082 m 18 X s 1151 1082 m cl s 1133 1082 m 11 Y s 1133 1093 m cl s 1133 1082 m -12 Y s 1133 1070 m cl s 1169 1118 m -18 X s 1151 1118 m cl s 1169 1118 m 18 X s 1187 1118 m cl s 1169 1118 m 11 Y s 1169 1129 m cl s 1169 1118 m -10 Y s 1169 1108 m cl s
 1205 1142 m -18 X s 1187 1142 m cl s 1205 1142 m 18 X s 1223 1142 m cl s 1205 1142 m 9 Y s 1205 1151 m cl s 1205 1142 m -10 Y s 1205 1132 m cl s 1241 1179 m -18 X s 1223 1179 m cl s 1241 1179 m 18 X s 1259 1179 m cl s 1241 1179 m 8 Y s 1241 1187 m
 cl s 1241 1179 m -8 Y s 1241 1171 m cl s 1276 1207 m -17 X s 1259 1207 m cl s 1276 1207 m 18 X s 1294 1207 m cl s 1276 1207 m 7 Y s 1276 1214 m cl s 1276 1207 m -8 Y s 1276 1199 m cl s 1312 1240 m -18 X s 1294 1240 m cl s 1312 1240 m 18 X s 1330
 1240 m cl s 1312 1240 m 7 Y s 1312 1247 m cl s 1312 1240 m -6 Y s 1312 1234 m cl s 1348 1281 m -18 X s 1330 1281 m cl s 1348 1281 m 18 X s 1366 1281 m cl s 1348 1281 m 5 Y s 1348 1286 m cl s 1348 1281 m -6 Y s 1348 1275 m cl s 1384 1316 m -18 X s
 1366 1316 m cl s 1384 1316 m 18 X s 1402 1316 m cl s 1384 1316 m 5 Y s 1384 1321 m cl s 1384 1316 m -5 Y s 1384 1311 m cl s 1420 1352 m -18 X s 1402 1352 m cl s 1420 1352 m 18 X s 1438 1352 m cl s 1420 1352 m 4 Y s 1420 1356 m cl s 1420 1352 m -4 Y
 s 1420 1348 m cl s 1456 1384 m -18 X s 1438 1384 m cl s 1456 1384 m 18 X s 1474 1384 m cl s 1456 1384 m 4 Y s 1456 1388 m cl s 1456 1384 m -4 Y s 1456 1380 m cl s 1491 1415 m -17 X s 1474 1415 m cl s 1491 1415 m 18 X s 1509 1415 m cl s 1491 1415 m 3
 Y s 1491 1418 m cl s 1491 1415 m -4 Y s 1491 1411 m cl s 1527 1418 m -18 X s 1509 1418 m cl s 1527 1418 m 18 X s 1545 1418 m cl s 1527 1418 m 3 Y s 1527 1421 m cl s 1527 1418 m -3 Y s 1527 1415 m cl s 1563 1406 m -18 X s 1545 1406 m cl s 1563 1406 m
 18 X s 1581 1406 m cl s 1563 1406 m 4 Y s 1563 1410 m cl s 1563 1406 m -3 Y s 1563 1403 m cl s 1599 1375 m -18 X s 1581 1375 m cl s 1599 1375 m 18 X s 1617 1375 m cl s 1599 1375 m 3 Y s 1599 1378 m cl s 1599 1375 m -4 Y s 1599 1371 m cl s 1635 1331
 m -18 X s 1617 1331 m cl s 1635 1331 m 18 X s 1653 1331 m cl s 1635 1331 m 4 Y s 1635 1335 m cl s 1635 1331 m -5 Y s 1635 1326 m cl s 1671 1279 m -18 X s 1653 1279 m cl s 1671 1279 m 18 X s 1689 1279 m cl s 1671 1279 m 6 Y s 1671 1285 m cl s 1671
 1279 m -6 Y s 1671 1273 m cl s 1706 1224 m -17 X s 1689 1224 m cl s 1706 1224 m 18 X s 1724 1224 m cl s 1706 1224 m 7 Y s 1706 1231 m cl s 1706 1224 m -7 Y s 1706 1217 m cl s 1742 1166 m -18 X s 1724 1166 m cl s 1742 1166 m 18 X s 1760 1166 m cl s
 1742 1166 m 8 Y s 1742 1174 m cl s 1742 1166 m -9 Y s 1742 1157 m cl s 1778 1126 m -18 X s 1760 1126 m cl s 1778 1126 m 18 X s 1796 1126 m cl s 1778 1126 m 10 Y s 1778 1136 m cl s 1778 1126 m -10 Y s 1778 1116 m cl s 1814 1065 m -18 X s 1796 1065 m
 cl s 1814 1065 m 18 X s 1832 1065 m cl s 1814 1065 m 12 Y s 1814 1077 m cl s 1814 1065 m -13 Y s 1814 1052 m cl s 1850 1038 m -18 X s 1832 1038 m cl s 1850 1038 m 18 X s 1868 1038 m cl s 1850 1038 m 15 Y s 1850 1053 m cl s 1850 1038 m -14 Y s 1850
 1024 m cl s 1886 1007 m -18 X s 1868 1007 m cl s 1886 1007 m 18 X s 1904 1007 m cl s 1886 1007 m 17 Y s 1886 1024 m cl s 1886 1007 m -16 Y s 1886 991 m cl s 1921 964 m -17 X s 1904 964 m cl s 1921 964 m 18 X s 1939 964 m cl s 1921 964 m 20 Y s 1921
 984 m cl s 1921 964 m -20 Y s 1921 944 m cl s 1957 919 m -18 X s 1939 919 m cl s 1957 919 m 18 X s 1975 919 m cl s 1957 919 m 23 Y s 1957 942 m cl s 1957 919 m -24 Y s 1957 895 m cl s 1993 799 m -18 X s 1975 799 m cl s 1993 799 m 18 X s 2011 799 m
 cl s 1993 799 m 38 Y s 1993 837 m cl s 1993 799 m -40 Y s 1993 759 m cl s 2029 872 m -18 X s 2011 872 m cl s 2029 872 m 18 X s 2047 872 m cl s 2029 872 m 28 Y s 2029 900 m cl s 2029 872 m -29 Y s 2029 843 m cl s 2065 823 m -18 X s 2047 823 m cl s
 2065 823 m 18 X s 2083 823 m cl s 2065 823 m 34 Y s 2065 857 m cl s 2065 823 m -35 Y s 2065 788 m cl s 2101 715 m -18 X s 2083 715 m cl s 2101 715 m 18 X s 2119 715 m cl s 2101 715 m 53 Y s 2101 768 m cl s 2101 715 m -56 Y s 2101 659 m cl s 2136 715
 m -17 X s 2119 715 m cl s 2136 715 m 18 X s 2154 715 m cl s 2136 715 m 53 Y s 2136 768 m cl s 2136 715 m -56 Y s 2136 659 m cl s 381 757 417 715 452 807 488 799 524 780 560 843 596 877 632 850 667 855 703 837 739 899 775 886 811 903 847 942 882 936
 918 956 954 969 990 1002 1026 1023 1062 1029 1097 1047 1133 1082 1169 1118 1205 1142 1241 1179 1276 1207 1312 1240 1348 1281 1384 1316 1420 1352 1456 1384 1491 1415 1527 1418 1563 1406 1599 1375 1635 1331 1671 1279 1706 1224 1742 1166 1778 1126 1814
 1065 1850 1038 1886 1007 1921 964 1957 919 1993 799 2029 872 2065 823 2101 715 2136 715 50 { m20} R 0.52 0.76 0.64 c[ 4 8] 0 sd 9 lw black 0.52 0.76 0.64 c 363 792 m 36 7 d 35 6 d 36 7 d 36 7 d 36 8 d 36 7 d 36 8 d 35 8 d 36 9 d 36 9 d 36 9 d 36 10
 d 36 11 d 35 11 d 36 11 d 36 13 d 36 13 d 36 14 d 36 15 d 35 17 d 36 18 d 36 20 d 36 21 d 36 25 d 36 28 d 17 16 d 18 17 d 18 18 d 18 21 d 9 11 d 9 12 d 9 12 d 9 14 d 9 14 d 9 15 d 4 8 d 5 9 d 9 17 d 18 29 d 18 25 d 9 10 d 9 9 d 9 8 d 9 7 d 9 6 d 8 4
 d 5 1 d 4 2 d 5 1 d 4 1 d 18 X 5 -1 d 4 -1 d 5 -2 d 4 -1 d 9 -5 d 9 -5 d 9 -7 d 9 -8 d 9 -10 d 9 -10 d 18 -25 d 18 -30 d 9 -16 d 9 -18 d 9 -19 d 9 -21 d 9 -22 d 9 -22 d 8 -25 d 9 -25 d 9 -26 d 9 -28 d 9 -29 d 9 -31 d 9 -31 d 9 -33 d 18 -69 d 18 -74
 d 18 -79 d 18 -84 d s 0.54 0.66 0.63 c black 0.54 0.66 0.63 c 885 634 m 15 26 d s 900 660 m 36 60 d 36 56 d 36 52 d 18 25 d 18 24 d 18 23 d 17 22 d 18 22 d 18 20 d 18 20 d 18 18 d 18 18 d 18 17 d 18 16 d 18 15 d 36 28 d 35 24 d 36 20 d 36 17 d 18 7
 d 18 6 d 18 5 d 18 5 d 18 3 d 18 3 d 17 2 d 18 1 d 18 X 18 -1 d 18 -2 d 18 -3 d 18 -3 d 18 -5 d 18 -5 d 18 -6 d 18 -7 d 18 -9 d 35 -18 d 36 -22 d 36 -26 d 18 -15 d 18 -15 d 18 -16 d 18 -17 d 18 -17 d 18 -19 d 17 -20 d 18 -20 d 18 -21 d 18 -23 d 18
 -23 d 18 -24 d 36 -50 d 36 -55 d 36 -58 d 32 -55 d s black[  ] 0 sd 3 lw 363 634 m 1791 X s 419 659 m -25 Y s 465 646 m -12 Y s 512 646 m -12 Y s 559 646 m -12 Y s 605 659 m -25 Y s 652 646 m -12 Y s 699 646 m -12 Y s 745 646 m -12 Y s 792 659 m -25
 Y s 839 646 m -12 Y s 885 646 m -12 Y s 932 646 m -12 Y s 979 659 m -25 Y s 1025 646 m -12 Y s 1072 646 m -12 Y s 1119 646 m -12 Y s 1165 659 m -25 Y s 1212 646 m -12 Y s 1259 646 m -12 Y s 1305 646 m -12 Y s 1352 659 m -25 Y s 1399 646 m -12 Y s
 1445 646 m -12 Y s 1492 646 m -12 Y s 1539 659 m -25 Y s 1585 646 m -12 Y s 1632 646 m -12 Y s 1678 646 m -12 Y s 1725 659 m -25 Y s 1772 646 m -12 Y s 1818 646 m -12 Y s 1865 646 m -12 Y s 1912 659 m -25 Y s 1958 646 m -12 Y s 2005 646 m -12 Y s
 2052 646 m -12 Y s 2098 659 m -25 Y s 419 659 m -25 Y s 372 646 m -12 Y s 2098 659 m -25 Y s 2145 646 m -12 Y s 363 1484 m 1791 X s 419 1459 m 25 Y s 465 1471 m 13 Y s 512 1471 m 13 Y s 559 1471 m 13 Y s 605 1459 m 25 Y s 652 1471 m 13 Y s 699 1471
 m 13 Y s 745 1471 m 13 Y s 792 1459 m 25 Y s 839 1471 m 13 Y s 885 1471 m 13 Y s 932 1471 m 13 Y s 979 1459 m 25 Y s 1025 1471 m 13 Y s 1072 1471 m 13 Y s 1119 1471 m 13 Y s 1165 1459 m 25 Y s 1212 1471 m 13 Y s 1259 1471 m 13 Y s 1305 1471 m 13 Y s
 1352 1459 m 25 Y s 1399 1471 m 13 Y s 1445 1471 m 13 Y s 1492 1471 m 13 Y s 1539 1459 m 25 Y s 1585 1471 m 13 Y s 1632 1471 m 13 Y s 1678 1471 m 13 Y s 1725 1459 m 25 Y s 1772 1471 m 13 Y s 1818 1471 m 13 Y s 1865 1471 m 13 Y s 1912 1459 m 25 Y s
 1958 1471 m 13 Y s 2005 1471 m 13 Y s 2052 1471 m 13 Y s 2098 1459 m 25 Y s 419 1459 m 25 Y s 372 1471 m 13 Y s 2098 1459 m 25 Y s 2145 1471 m 13 Y s 363 634 m 850 Y s 390 653 m -27 X s 390 677 m -27 X s 390 697 m -27 X s 390 715 m -27 X s 390 731 m
 -27 X s 417 745 m -54 X s 390 837 m -27 X s 390 891 m -27 X s 390 929 m -27 X s 390 959 m -27 X s 390 983 m -27 X s 390 1003 m -27 X s 390 1021 m -27 X s 390 1037 m -27 X s 417 1051 m -54 X s 390 1143 m -27 X s 390 1197 m -27 X s 390 1235 m -27 X s
 390 1265 m -27 X s 390 1289 m -27 X s 390 1310 m -27 X s 390 1327 m -27 X s 390 1343 m -27 X s 417 1357 m -54 X s 390 1449 m -27 X s 2154 634 m 850 Y s 2127 653 m 27 X s 2127 677 m 27 X s 2127 697 m 27 X s 2127 715 m 27 X s 2127 731 m 27 X s 2101
 745 m 53 X s 2127 837 m 27 X s 2127 891 m 27 X s 2127 929 m 27 X s 2127 959 m 27 X s 2127 983 m 27 X s 2127 1003 m 27 X s 2127 1021 m 27 X s 2127 1037 m 27 X s 2101 1051 m 53 X s 2127 1143 m 27 X s 2127 1197 m 27 X s 2127 1235 m 27 X s 2127 1265 m
 27 X s 2127 1289 m 27 X s 2127 1310 m 27 X s 2127 1327 m 27 X s 2127 1343 m 27 X s 2101 1357 m 53 X s 2127 1449 m 27 X s
 gsave  2268 1077 0 461 C 677.708 1215.31 t 0 r /Helvetica findfont 58.7189 sf 0 0 m (2mu2e) show NC gr  1 1 1 c 453 161 454 1269 bf black
 gsave  2268 1077 0 461 C 566.929 1371.71 t 0 r /Helvetica-Bold findfont 48.9324 sf 0 0 m (MC15) show NC gr  510 1390 m20
 gsave  2268 1077 0 461 C 566.929 1293.51 t 0 r /Helvetica-Bold findfont 48.9324 sf 0 0 m (Projection of Signal pdf) show NC gr  0 0 1 c 9 lw 471 1309 m 79 X s black 3 lw 1 1 1 c 2268 461 0 0 bf black 1 1 1 c 1791 364 363 74 bf black 1791 364 363 74
 bl 363 74 m 1791 X s
 gsave  2268 461 0 0 C 1915.83 13.0329 t 0 r /Helvetica findfont 22.9045 sf 0 0 m (4l Invariant Mass \(GeV\)) show NC gr  419 85 m -11 Y s 465 79 m -5 Y s 512 79 m -5 Y s 559 79 m -5 Y s 605 85 m -11 Y s 652 79 m -5 Y s 699 79 m -5 Y s 745 79 m -5 Y
 s 792 85 m -11 Y s 839 79 m -5 Y s 885 79 m -5 Y s 932 79 m -5 Y s 979 85 m -11 Y s 1025 79 m -5 Y s 1072 79 m -5 Y s 1119 79 m -5 Y s 1165 85 m -11 Y s 1212 79 m -5 Y s 1259 79 m -5 Y s 1305 79 m -5 Y s 1352 85 m -11 Y s 1399 79 m -5 Y s 1445 79 m
 -5 Y s 1492 79 m -5 Y s 1539 85 m -11 Y s 1585 79 m -5 Y s 1632 79 m -5 Y s 1678 79 m -5 Y s 1725 85 m -11 Y s 1772 79 m -5 Y s 1818 79 m -5 Y s 1865 79 m -5 Y s 1912 85 m -11 Y s 1958 79 m -5 Y s 2005 79 m -5 Y s 2052 79 m -5 Y s 2098 85 m -11 Y s
 419 85 m -11 Y s 372 79 m -5 Y s 2098 85 m -11 Y s 2145 79 m -5 Y s
 gsave  2268 461 0 0 C 397.502 55.3896 t 0 r /Helvetica findfont 22.9045 sf 0 0 m (780) show NC gr 
 gsave  2268 461 0 0 C 583.22 55.3896 t 0 r /Helvetica findfont 22.9045 sf 0 0 m (800) show NC gr 
 gsave  2268 461 0 0 C 772.197 55.3896 t 0 r /Helvetica findfont 22.9045 sf 0 0 m (820) show NC gr 
 gsave  2268 461 0 0 C 957.915 55.3896 t 0 r /Helvetica findfont 22.9045 sf 0 0 m (840) show NC gr 
 gsave  2268 461 0 0 C 1143.63 55.3896 t 0 r /Helvetica findfont 22.9045 sf 0 0 m (860) show NC gr 
 gsave  2268 461 0 0 C 1329.35 55.3896 t 0 r /Helvetica findfont 22.9045 sf 0 0 m (880) show NC gr 
 gsave  2268 461 0 0 C 1518.33 55.3896 t 0 r /Helvetica findfont 22.9045 sf 0 0 m (900) show NC gr 
 gsave  2268 461 0 0 C 1704.05 55.3896 t 0 r /Helvetica findfont 22.9045 sf 0 0 m (920) show NC gr 
 gsave  2268 461 0 0 C 1889.76 55.3896 t 0 r /Helvetica findfont 22.9045 sf 0 0 m (940) show NC gr 
 gsave  2268 461 0 0 C 2078.74 55.3896 t 0 r /Helvetica findfont 22.9045 sf 0 0 m (960) show NC gr  363 438 m 1791 X s 419 427 m 11 Y s 465 433 m 5 Y s 512 433 m 5 Y s 559 433 m 5 Y s 605 427 m 11 Y s 652 433 m 5 Y s 699 433 m 5 Y s 745 433 m 5 Y s
 792 427 m 11 Y s 839 433 m 5 Y s 885 433 m 5 Y s 932 433 m 5 Y s 979 427 m 11 Y s 1025 433 m 5 Y s 1072 433 m 5 Y s 1119 433 m 5 Y s 1165 427 m 11 Y s 1212 433 m 5 Y s 1259 433 m 5 Y s 1305 433 m 5 Y s 1352 427 m 11 Y s 1399 433 m 5 Y s 1445 433 m 5
 Y s 1492 433 m 5 Y s 1539 427 m 11 Y s 1585 433 m 5 Y s 1632 433 m 5 Y s 1678 433 m 5 Y s 1725 427 m 11 Y s 1772 433 m 5 Y s 1818 433 m 5 Y s 1865 433 m 5 Y s 1912 427 m 11 Y s 1958 433 m 5 Y s 2005 433 m 5 Y s 2052 433 m 5 Y s 2098 427 m 11 Y s 419
 427 m 11 Y s 372 433 m 5 Y s 2098 427 m 11 Y s 2145 433 m 5 Y s 363 74 m 364 Y s 417 74 m -54 X s 390 81 m -27 X s 390 88 m -27 X s 390 96 m -27 X s 390 103 m -27 X s 417 110 m -54 X s 390 118 m -27 X s 390 125 m -27 X s 390 132 m -27 X s 390 139 m
 -27 X s 417 147 m -54 X s 390 154 m -27 X s 390 161 m -27 X s 390 169 m -27 X s 390 176 m -27 X s 417 183 m -54 X s 390 190 m -27 X s 390 198 m -27 X s 390 205 m -27 X s 390 212 m -27 X s 417 220 m -54 X s 390 227 m -27 X s 390 234 m -27 X s 390 241
 m -27 X s 390 249 m -27 X s 417 256 m -54 X s 390 263 m -27 X s 390 271 m -27 X s 390 278 m -27 X s 390 285 m -27 X s 417 293 m -54 X s 390 300 m -27 X s 390 307 m -27 X s 390 314 m -27 X s 390 322 m -27 X s 417 329 m -54 X s 390 336 m -27 X s 390
 344 m -27 X s 390 351 m -27 X s 390 358 m -27 X s 417 365 m -54 X s 390 373 m -27 X s 390 380 m -27 X s 390 387 m -27 X s 390 395 m -27 X s 417 402 m -54 X s 390 409 m -27 X s 390 416 m -27 X s 390 424 m -27 X s 390 431 m -27 X s 417 438 m -54 X s
 gsave  2268 461 0 0 C 329.08 65.1643 t 0 r /Helvetica findfont 22.9045 sf 0 0 m (\2555) show NC gr 
 gsave  2268 461 0 0 C 329.08 101.005 t 0 r /Helvetica findfont 22.9045 sf 0 0 m (\2554) show NC gr 
 gsave  2268 461 0 0 C 329.08 140.103 t 0 r /Helvetica findfont 22.9045 sf 0 0 m (\2553) show NC gr 
 gsave  2268 461 0 0 C 329.08 175.944 t 0 r /Helvetica findfont 22.9045 sf 0 0 m (\2552) show NC gr 
 gsave  2268 461 0 0 C 332.338 211.784 t 0 r /Helvetica findfont 22.9045 sf 0 0 m (\2551) show NC gr 
 gsave  2268 461 0 0 C 335.596 247.624 t 0 r /Helvetica findfont 22.9045 sf 0 0 m (0) show NC gr 
 gsave  2268 461 0 0 C 338.854 283.465 t 0 r /Helvetica findfont 22.9045 sf 0 0 m (1) show NC gr 
 gsave  2268 461 0 0 C 335.596 319.305 t 0 r /Helvetica findfont 22.9045 sf 0 0 m (2) show NC gr 
 gsave  2268 461 0 0 C 335.596 358.403 t 0 r /Helvetica findfont 22.9045 sf 0 0 m (3) show NC gr 
 gsave  2268 461 0 0 C 335.596 394.244 t 0 r /Helvetica findfont 22.9045 sf 0 0 m (4) show NC gr 
 gsave  2268 461 0 0 C 335.596 430.084 t 0 r /Helvetica findfont 22.9045 sf 0 0 m (5) show NC gr  2154 74 m 364 Y s 2101 74 m 53 X s 2127 81 m 27 X s 2127 88 m 27 X s 2127 96 m 27 X s 2127 103 m 27 X s 2101 110 m 53 X s 2127 118 m 27 X s 2127 125 m
 27 X s 2127 132 m 27 X s 2127 139 m 27 X s 2101 147 m 53 X s 2127 154 m 27 X s 2127 161 m 27 X s 2127 169 m 27 X s 2127 176 m 27 X s 2101 183 m 53 X s 2127 190 m 27 X s 2127 198 m 27 X s 2127 205 m 27 X s 2127 212 m 27 X s 2101 220 m 53 X s 2127 227
 m 27 X s 2127 234 m 27 X s 2127 241 m 27 X s 2127 249 m 27 X s 2101 256 m 53 X s 2127 263 m 27 X s 2127 271 m 27 X s 2127 278 m 27 X s 2127 285 m 27 X s 2101 293 m 53 X s 2127 300 m 27 X s 2127 307 m 27 X s 2127 314 m 27 X s 2127 322 m 27 X s 2101
 329 m 53 X s 2127 336 m 27 X s 2127 344 m 27 X s 2127 351 m 27 X s 2127 358 m 27 X s 2101 365 m 53 X s 2127 373 m 27 X s 2127 380 m 27 X s 2127 387 m 27 X s 2127 395 m 27 X s 2101 402 m 53 X s 2127 409 m 27 X s 2127 416 m 27 X s 2127 424 m 27 X s
 2127 431 m 27 X s 2101 438 m 53 X s 6 lw 0.2 0.8 0.2 c black 3 lw 0.2 0.8 0.2 c 363 256 m -30 Y 36 X -38 Y 35 X 67 Y 36 X -14 Y 36 X -24 Y 36 X 55 Y 36 X 32 Y 36 X -44 Y 35 X -4 Y 36 X -31 Y 36 X 65 Y 36 X -35 Y 36 X 7 Y 36 X 40 Y 35 X -36 Y 36 X 5
 Y 36 X -14 Y 36 X 22 Y 36 X -5 Y 36 X -46 Y 35 X -28 Y 36 X 12 Y 36 X 26 Y 36 X -18 Y 36 X 36 Y 36 X 3 Y 35 X 23 Y 36 X 54 Y 36 X -29 Y 36 X -89 Y 36 X -45 Y 36 X 103 Y 35 X -7 Y 36 X 11 Y 36 X -33 Y 36 X -6 Y 36 X 12 Y 36 X 15 Y 35 X -13 Y 36 X 32
 Y 36 X -66 Y 36 X 29 Y 36 X 14 Y 36 X -10 Y 35 X -4 Y 36 X -84 Y 36 X 141 Y 36 X -6 Y 36 X -49 Y 36 X 39 Y 35 X -35 Y f 6 lw black 0.2 0.8 0.2 c black 363 226 m 36 X -38 Y 35 X 67 Y 36 X -14 Y 36 X -24 Y 36 X 55 Y 36 X 32 Y 36 X -44 Y 35 X -4 Y 36 X
 -31 Y 36 X 65 Y 36 X -35 Y 36 X 7 Y 36 X 40 Y 35 X -36 Y 36 X 5 Y 36 X -14 Y 36 X 22 Y 36 X -5 Y 36 X -46 Y 35 X -28 Y 36 X 12 Y 36 X 26 Y 36 X -18 Y 36 X 36 Y 36 X 3 Y 35 X 23 Y 36 X 54 Y 36 X -29 Y 36 X -89 Y 36 X -45 Y 36 X 103 Y 35 X -7 Y 36 X
 11 Y 36 X -33 Y 36 X -6 Y 36 X 12 Y 36 X 15 Y 35 X -13 Y 36 X 32 Y 36 X -66 Y 36 X 29 Y 36 X 14 Y 36 X -10 Y 35 X -4 Y 36 X -84 Y 36 X 141 Y 36 X -6 Y 36 X -49 Y 36 X 39 Y 35 X s 3 lw 363 74 m 1791 X s 419 85 m -11 Y s 465 79 m -5 Y s 512 79 m -5 Y
 s 559 79 m -5 Y s 605 85 m -11 Y s 652 79 m -5 Y s 699 79 m -5 Y s 745 79 m -5 Y s 792 85 m -11 Y s 839 79 m -5 Y s 885 79 m -5 Y s 932 79 m -5 Y s 979 85 m -11 Y s 1025 79 m -5 Y s 1072 79 m -5 Y s 1119 79 m -5 Y s 1165 85 m -11 Y s 1212 79 m -5 Y
 s 1259 79 m -5 Y s 1305 79 m -5 Y s 1352 85 m -11 Y s 1399 79 m -5 Y s 1445 79 m -5 Y s 1492 79 m -5 Y s 1539 85 m -11 Y s 1585 79 m -5 Y s 1632 79 m -5 Y s 1678 79 m -5 Y s 1725 85 m -11 Y s 1772 79 m -5 Y s 1818 79 m -5 Y s 1865 79 m -5 Y s 1912
 85 m -11 Y s 1958 79 m -5 Y s 2005 79 m -5 Y s 2052 79 m -5 Y s 2098 85 m -11 Y s 419 85 m -11 Y s 372 79 m -5 Y s 2098 85 m -11 Y s 2145 79 m -5 Y s 363 438 m 1791 X s 419 427 m 11 Y s 465 433 m 5 Y s 512 433 m 5 Y s 559 433 m 5 Y s 605 427 m 11 Y
 s 652 433 m 5 Y s 699 433 m 5 Y s 745 433 m 5 Y s 792 427 m 11 Y s 839 433 m 5 Y s 885 433 m 5 Y s 932 433 m 5 Y s 979 427 m 11 Y s 1025 433 m 5 Y s 1072 433 m 5 Y s 1119 433 m 5 Y s 1165 427 m 11 Y s 1212 433 m 5 Y s 1259 433 m 5 Y s 1305 433 m 5 Y
 s 1352 427 m 11 Y s 1399 433 m 5 Y s 1445 433 m 5 Y s 1492 433 m 5 Y s 1539 427 m 11 Y s 1585 433 m 5 Y s 1632 433 m 5 Y s 1678 433 m 5 Y s 1725 427 m 11 Y s 1772 433 m 5 Y s 1818 433 m 5 Y s 1865 433 m 5 Y s 1912 427 m 11 Y s 1958 433 m 5 Y s 2005
 433 m 5 Y s 2052 433 m 5 Y s 2098 427 m 11 Y s 419 427 m 11 Y s 372 433 m 5 Y s 2098 427 m 11 Y s 2145 433 m 5 Y s 363 74 m 364 Y s 417 74 m -54 X s 390 81 m -27 X s 390 88 m -27 X s 390 96 m -27 X s 390 103 m -27 X s 417 110 m -54 X s 390 118 m -27
 X s 390 125 m -27 X s 390 132 m -27 X s 390 139 m -27 X s 417 147 m -54 X s 390 154 m -27 X s 390 161 m -27 X s 390 169 m -27 X s 390 176 m -27 X s 417 183 m -54 X s 390 190 m -27 X s 390 198 m -27 X s 390 205 m -27 X s 390 212 m -27 X s 417 220 m
 -54 X s 390 227 m -27 X s 390 234 m -27 X s 390 241 m -27 X s 390 249 m -27 X s 417 256 m -54 X s 390 263 m -27 X s 390 271 m -27 X s 390 278 m -27 X s 390 285 m -27 X s 417 293 m -54 X s 390 300 m -27 X s 390 307 m -27 X s 390 314 m -27 X s 390 322
 m -27 X s 417 329 m -54 X s 390 336 m -27 X s 390 344 m -27 X s 390 351 m -27 X s 390 358 m -27 X s 417 365 m -54 X s 390 373 m -27 X s 390 380 m -27 X s 390 387 m -27 X s 390 395 m -27 X s 417 402 m -54 X s 390 409 m -27 X s 390 416 m -27 X s 390
 424 m -27 X s 390 431 m -27 X s 417 438 m -54 X s 2154 74 m 364 Y s 2101 74 m 53 X s 2127 81 m 27 X s 2127 88 m 27 X s 2127 96 m 27 X s 2127 103 m 27 X s 2101 110 m 53 X s 2127 118 m 27 X s 2127 125 m 27 X s 2127 132 m 27 X s 2127 139 m 27 X s 2101
 147 m 53 X s 2127 154 m 27 X s 2127 161 m 27 X s 2127 169 m 27 X s 2127 176 m 27 X s 2101 183 m 53 X s 2127 190 m 27 X s 2127 198 m 27 X s 2127 205 m 27 X s 2127 212 m 27 X s 2101 220 m 53 X s 2127 227 m 27 X s 2127 234 m 27 X s 2127 241 m 27 X s
 2127 249 m 27 X s 2101 256 m 53 X s 2127 263 m 27 X s 2127 271 m 27 X s 2127 278 m 27 X s 2127 285 m 27 X s 2101 293 m 53 X s 2127 300 m 27 X s 2127 307 m 27 X s 2127 314 m 27 X s 2127 322 m 27 X s 2101 329 m 53 X s 2127 336 m 27 X s 2127 344 m 27 X
 s 2127 351 m 27 X s 2127 358 m 27 X s 2101 365 m 53 X s 2127 373 m 27 X s 2127 380 m 27 X s 2127 387 m 27 X s 2127 395 m 27 X s 2101 402 m 53 X s 2127 409 m 27 X s 2127 416 m 27 X s 2127 424 m 27 X s 2127 431 m 27 X s 2101 438 m 53 X s
 gr  gr showpage
end
%%EOF
