%!PS-Adobe-2.0 EPSF-2.0
%%BoundingBox:  0 0 567 384
%%Title: H4l2015_plotfit/gg_mass_signal_1400_fixed_H4l_4mu.eps: 
%%Creator: ROOT Version 5.34/10
%%CreationDate: Thu Feb 16 13:03:01 2017
%%EndComments
%%BeginProlog
80 dict begin
/s {stroke} def /l {lineto} def /m {moveto} def /t {translate} def
/r {rotate} def /rl {roll}  def /R {repeat} def
/d {rlineto} def /rm {rmoveto} def /gr {grestore} def /f {eofill} def
/c {setrgbcolor} def /black {0 setgray} def /sd {setdash} def
/cl {closepath} def /sf {scalefont setfont} def /lw {setlinewidth} def
/box {m dup 0 exch d exch 0 d 0 exch neg d cl} def
/NC{systemdict begin initclip end}def/C{NC box clip newpath}def
/bl {box s} def /bf {box f} def /Y { 0 exch d} def /X { 0 d} def 
/K {{pop pop 0 moveto} exch kshow} bind def
/ita {/ang 15 def gsave [1 0 ang dup sin exch cos div 1 0 0] concat} def 
/mp {newpath /y exch def /x exch def} def
/side {[w .77 mul w .23 mul] .385 w mul sd w 0 l currentpoint t -144 r} def
/mr {mp x y w2 0 360 arc} def /m24 {mr s} def /m20 {mr f} def
/mb {mp x y w2 add m w2 neg 0 d 0 w neg d w 0 d 0 w d cl} def
/mt {mp x y w2 add m w2 neg w neg d w 0 d cl} def
/m21 {mb f} def /m25 {mb s} def /m22 {mt f} def /m26{mt s} def
/m23 {mp x y w2 sub m w2 w d w neg 0 d cl f} def
/m27 {mp x y w2 add m w3 neg w2 neg d w3 w2 neg d w3 w2 d cl s} def
/m28 {mp x w2 sub y w2 sub w3 add m w3 0 d  0 w3 neg d w3 0 d 0 w3 d w3 0 d  0 w3 d w3 neg 0 d 0 w3 d w3 neg 0 d 0 w3 neg d w3 neg 0 d cl s } def
/m29 {mp gsave x w2 sub y w2 add w3 sub m currentpoint t 4 {side} repeat cl fill gr} def
/m30 {mp gsave x w2 sub y w2 add w3 sub m currentpoint t 4 {side} repeat cl s gr} def
/m31 {mp x y w2 sub m 0 w d x w2 sub y m w 0 d x w2 sub y w2 add m w w neg d x w2 sub y w2 sub m w w d s} def
/m32 {mp x y w2 sub m w2 w d w neg 0 d cl s} def
/m33 {mp x y w2 add m w3 neg w2 neg d w3 w2 neg d w3 w2 d cl f} def
/m34 {mp x w2 sub y w2 sub w3 add m w3 0 d  0 w3 neg d w3 0 d 0 w3 d w3 0 d  0 w3 d w3 neg 0 d 0 w3 d w3 neg 0 d 0 w3 neg d w3 neg 0 d cl f } def
/m2 {mp x y w2 sub m 0 w d x w2 sub y m w 0 d s} def
/m5 {mp x w2 sub y w2 sub m w w d x w2 sub y w2 add m w w neg d s} def
/reEncode {exch findfont dup length dict begin {1 index /FID eq  {pop pop} {def} ifelse } forall /Encoding exch def currentdict end dup /FontName get exch definefont pop } def [/Times-Bold /Times-Italic /Times-BoldItalic /Helvetica /Helvetica-Oblique
 /Helvetica-Bold /Helvetica-BoldOblique /Courier /Courier-Oblique /Courier-Bold /Courier-BoldOblique /Times-Roman /AvantGarde-Book /AvantGarde-BookOblique /AvantGarde-Demi /AvantGarde-DemiOblique /Bookman-Demi /Bookman-DemiItalic /Bookman-Light
 /Bookman-LightItalic /Helvetica-Narrow /Helvetica-Narrow-Bold /Helvetica-Narrow-BoldOblique /Helvetica-Narrow-Oblique /NewCenturySchlbk-Roman /NewCenturySchlbk-Bold /NewCenturySchlbk-BoldItalic /NewCenturySchlbk-Italic /Palatino-Bold
 /Palatino-BoldItalic /Palatino-Italic /Palatino-Roman ] {ISOLatin1Encoding reEncode } forall
%%EndProlog
%%BeginSetup
%%EndSetup
newpath  gsave  .25 .25 scale  gsave  0 0 t black[  ] 0 sd 3 lw 1 1 1 c 2268 1538 0 0 bf black 1 1 1 c 2222 738 23 784 bf black 1 1 1 c 2222 739 23 15 bf black 1 1 1 c 2268 1077 0 461 bf black 1 1 1 c 1791 850 363 634 bf black 1791 850 363 634 bl 363
 634 m 1791 X s
 gsave  2268 1077 0 461 C 1642.14 498.507 t 0 r /Helvetica findfont 48.9324 sf 0 0 m (4l Invariant Mass \(GeV\)) show NC gr  501 659 m -25 Y s 570 646 m -12 Y s 638 646 m -12 Y s 707 646 m -12 Y s 776 646 m -12 Y s 845 659 m -25 Y s 914 646 m -12 Y s
 983 646 m -12 Y s 1052 646 m -12 Y s 1121 646 m -12 Y s 1190 659 m -25 Y s 1259 646 m -12 Y s 1327 646 m -12 Y s 1396 646 m -12 Y s 1465 646 m -12 Y s 1534 659 m -25 Y s 1603 646 m -12 Y s 1672 646 m -12 Y s 1741 646 m -12 Y s 1810 646 m -12 Y s
 1879 659 m -25 Y s 501 659 m -25 Y s 432 646 m -12 Y s 363 646 m -12 Y s 1879 659 m -25 Y s 1948 646 m -12 Y s 2017 646 m -12 Y s 2085 646 m -12 Y s
 gsave  2268 1077 0 461 C 443.117 586.478 t 0 r /Helvetica findfont 48.9324 sf 0 0 m (1250) show NC gr 
 gsave  2268 1077 0 461 C 788.488 586.478 t 0 r /Helvetica findfont 48.9324 sf 0 0 m (1300) show NC gr 
 gsave  2268 1077 0 461 C 1133.86 586.478 t 0 r /Helvetica findfont 48.9324 sf 0 0 m (1350) show NC gr 
 gsave  2268 1077 0 461 C 1475.97 586.478 t 0 r /Helvetica findfont 48.9324 sf 0 0 m (1400) show NC gr 
 gsave  2268 1077 0 461 C 1821.34 586.478 t 0 r /Helvetica findfont 48.9324 sf 0 0 m (1450) show NC gr  363 1484 m 1791 X s 501 1459 m 25 Y s 570 1471 m 13 Y s 638 1471 m 13 Y s 707 1471 m 13 Y s 776 1471 m 13 Y s 845 1459 m 25 Y s 914 1471 m 13 Y s
 983 1471 m 13 Y s 1052 1471 m 13 Y s 1121 1471 m 13 Y s 1190 1459 m 25 Y s 1259 1471 m 13 Y s 1327 1471 m 13 Y s 1396 1471 m 13 Y s 1465 1471 m 13 Y s 1534 1459 m 25 Y s 1603 1471 m 13 Y s 1672 1471 m 13 Y s 1741 1471 m 13 Y s 1810 1471 m 13 Y s
 1879 1459 m 25 Y s 501 1459 m 25 Y s 432 1471 m 13 Y s 363 1471 m 13 Y s 1879 1459 m 25 Y s 1948 1471 m 13 Y s 2017 1471 m 13 Y s 2085 1471 m 13 Y s 363 634 m 850 Y s
 gsave  2268 1077 0 461 C 120.554 1058.92 t 90 r /Helvetica findfont 48.9324 sf 0 0 m (Events / \( 5.2 GeV \)) show NC gr  390 662 m -27 X s 390 718 m -27 X s 390 758 m -27 X s 390 789 m -27 X s 390 815 m -27 X s 390 836 m -27 X s 390 855 m -27 X s
 390 871 m -27 X s 417 886 m -54 X s
 gsave  2268 1077 0 461 C 342.425 865.009 t 0 r  -55 0 t /Helvetica findfont 48.9324 sf 0 0 m (10) show NC gr  390 982 m -27 X s 390 1039 m -27 X s 390 1079 m -27 X s 390 1110 m -27 X s 390 1135 m -27 X s 390 1157 m -27 X s 390 1175 m -27 X s 390
 1192 m -27 X s 417 1206 m -54 X s
 gsave  2268 1077 0 461 C 322.563 1205.54 t 0 r /Helvetica findfont 32.6216 sf 0 0 m (2) show NC gr 
 gsave  2268 1077 0 461 C 270.432 1185.99 t 0 r /Helvetica findfont 48.9324 sf 0 0 m (10) show NC gr  390 1303 m -27 X s 390 1359 m -27 X s 390 1399 m -27 X s 390 1430 m -27 X s 390 1456 m -27 X s 390 1477 m -27 X s 2154 634 m 850 Y s 2127 662 m 27 X
 s 2127 718 m 27 X s 2127 758 m 27 X s 2127 789 m 27 X s 2127 815 m 27 X s 2127 836 m 27 X s 2127 855 m 27 X s 2127 871 m 27 X s 2101 886 m 53 X s 2127 982 m 27 X s 2127 1039 m 27 X s 2127 1079 m 27 X s 2127 1110 m 27 X s 2127 1135 m 27 X s 2127 1157
 m 27 X s 2127 1175 m 27 X s 2127 1192 m 27 X s 2101 1206 m 53 X s 2127 1303 m 27 X s 2127 1359 m 27 X s 2127 1399 m 27 X s 2127 1430 m 27 X s 2127 1456 m 27 X s 2127 1477 m 27 X s 381 911 m -18 X s 363 911 m cl s 381 911 m 18 X s 399 911 m cl s 381
 911 m 45 Y s 381 956 m cl s 381 911 m -46 Y s 381 865 m cl s 417 996 m -18 X s 399 996 m cl s 417 996 m 17 X s 434 996 m cl s 417 996 m 32 Y s 417 1028 m cl s 417 996 m -33 Y s 417 963 m cl s 452 996 m -18 X s 434 996 m cl s 452 996 m 18 X s 470 996
 m cl s 452 996 m 32 Y s 452 1028 m cl s 452 996 m -33 Y s 452 963 m cl s 488 1024 m -18 X s 470 1024 m cl s 488 1024 m 18 X s 506 1024 m cl s 488 1024 m 29 Y s 488 1053 m cl s 488 1024 m -29 Y s 488 995 m cl s 524 1002 m -18 X s 506 1002 m cl s 524
 1002 m 18 X s 542 1002 m cl s 524 1002 m 31 Y s 524 1033 m cl s 524 1002 m -32 Y s 524 970 m cl s 560 1052 m -18 X s 542 1052 m cl s 560 1052 m 18 X s 578 1052 m cl s 560 1052 m 26 Y s 560 1078 m cl s 560 1052 m -26 Y s 560 1026 m cl s 596 1068 m
 -18 X s 578 1068 m cl s 596 1068 m 18 X s 614 1068 m cl s 596 1068 m 25 Y s 596 1093 m cl s 596 1068 m -25 Y s 596 1043 m cl s 632 1064 m -18 X s 614 1064 m cl s 632 1064 m 17 X s 649 1064 m cl s 632 1064 m 25 Y s 632 1089 m cl s 632 1064 m -25 Y s
 632 1039 m cl s 667 1107 m -18 X s 649 1107 m cl s 667 1107 m 18 X s 685 1107 m cl s 667 1107 m 21 Y s 667 1128 m cl s 667 1107 m -21 Y s 667 1086 m cl s 703 1072 m -18 X s 685 1072 m cl s 703 1072 m 18 X s 721 1072 m cl s 703 1072 m 24 Y s 703 1096
 m cl s 703 1072 m -25 Y s 703 1047 m cl s 739 1104 m -18 X s 721 1104 m cl s 739 1104 m 18 X s 757 1104 m cl s 739 1104 m 22 Y s 739 1126 m cl s 739 1104 m -21 Y s 739 1083 m cl s 775 1113 m -18 X s 757 1113 m cl s 775 1113 m 18 X s 793 1113 m cl s
 775 1113 m 20 Y s 775 1133 m cl s 775 1113 m -21 Y s 775 1092 m cl s 811 1104 m -18 X s 793 1104 m cl s 811 1104 m 18 X s 829 1104 m cl s 811 1104 m 22 Y s 811 1126 m cl s 811 1104 m -21 Y s 811 1083 m cl s 847 1146 m -18 X s 829 1146 m cl s 847
 1146 m 17 X s 864 1146 m cl s 847 1146 m 19 Y s 847 1165 m cl s 847 1146 m -18 Y s 847 1128 m cl s 882 1068 m -18 X s 864 1068 m cl s 882 1068 m 18 X s 900 1068 m cl s 882 1068 m 25 Y s 882 1093 m cl s 882 1068 m -25 Y s 882 1043 m cl s 918 1161 m
 -18 X s 900 1161 m cl s 918 1161 m 18 X s 936 1161 m cl s 918 1161 m 17 Y s 918 1178 m cl s 918 1161 m -18 Y s 918 1143 m cl s 954 1168 m -18 X s 936 1168 m cl s 954 1168 m 18 X s 972 1168 m cl s 954 1168 m 17 Y s 954 1185 m cl s 954 1168 m -17 Y s
 954 1151 m cl s 990 1202 m -18 X s 972 1202 m cl s 990 1202 m 18 X s 1008 1202 m cl s 990 1202 m 15 Y s 990 1217 m cl s 990 1202 m -15 Y s 990 1187 m cl s 1026 1193 m -18 X s 1008 1193 m cl s 1026 1193 m 18 X s 1044 1193 m cl s 1026 1193 m 16 Y s
 1026 1209 m cl s 1026 1193 m -15 Y s 1026 1178 m cl s 1062 1204 m -18 X s 1044 1204 m cl s 1062 1204 m 17 X s 1079 1204 m cl s 1062 1204 m 14 Y s 1062 1218 m cl s 1062 1204 m -15 Y s 1062 1189 m cl s 1097 1229 m -18 X s 1079 1229 m cl s 1097 1229 m
 18 X s 1115 1229 m cl s 1097 1229 m 13 Y s 1097 1242 m cl s 1097 1229 m -12 Y s 1097 1217 m cl s 1133 1235 m -18 X s 1115 1235 m cl s 1133 1235 m 18 X s 1151 1235 m cl s 1133 1235 m 13 Y s 1133 1248 m cl s 1133 1235 m -12 Y s 1133 1223 m cl s 1169
 1252 m -18 X s 1151 1252 m cl s 1169 1252 m 18 X s 1187 1252 m cl s 1169 1252 m 12 Y s 1169 1264 m cl s 1169 1252 m -12 Y s 1169 1240 m cl s 1205 1283 m -18 X s 1187 1283 m cl s 1205 1283 m 18 X s 1223 1283 m cl s 1205 1283 m 10 Y s 1205 1293 m cl s
 1205 1283 m -11 Y s 1205 1272 m cl s 1241 1291 m -18 X s 1223 1291 m cl s 1241 1291 m 18 X s 1259 1291 m cl s 1241 1291 m 10 Y s 1241 1301 m cl s 1241 1291 m -11 Y s 1241 1280 m cl s 1276 1304 m -17 X s 1259 1304 m cl s 1276 1304 m 18 X s 1294 1304
 m cl s 1276 1304 m 10 Y s 1276 1314 m cl s 1276 1304 m -10 Y s 1276 1294 m cl s 1312 1332 m -18 X s 1294 1332 m cl s 1312 1332 m 18 X s 1330 1332 m cl s 1312 1332 m 9 Y s 1312 1341 m cl s 1312 1332 m -9 Y s 1312 1323 m cl s 1348 1343 m -18 X s 1330
 1343 m cl s 1348 1343 m 18 X s 1366 1343 m cl s 1348 1343 m 9 Y s 1348 1352 m cl s 1348 1343 m -8 Y s 1348 1335 m cl s 1384 1367 m -18 X s 1366 1367 m cl s 1384 1367 m 18 X s 1402 1367 m cl s 1384 1367 m 8 Y s 1384 1375 m cl s 1384 1367 m -7 Y s
 1384 1360 m cl s 1420 1382 m -18 X s 1402 1382 m cl s 1420 1382 m 18 X s 1438 1382 m cl s 1420 1382 m 7 Y s 1420 1389 m cl s 1420 1382 m -8 Y s 1420 1374 m cl s 1456 1395 m -18 X s 1438 1395 m cl s 1456 1395 m 18 X s 1474 1395 m cl s 1456 1395 m 7 Y
 s 1456 1402 m cl s 1456 1395 m -7 Y s 1456 1388 m cl s 1491 1399 m -17 X s 1474 1399 m cl s 1491 1399 m 18 X s 1509 1399 m cl s 1491 1399 m 7 Y s 1491 1406 m cl s 1491 1399 m -7 Y s 1491 1392 m cl s 1527 1414 m -18 X s 1509 1414 m cl s 1527 1414 m
 18 X s 1545 1414 m cl s 1527 1414 m 7 Y s 1527 1421 m cl s 1527 1414 m -6 Y s 1527 1408 m cl s 1563 1402 m -18 X s 1545 1402 m cl s 1563 1402 m 18 X s 1581 1402 m cl s 1563 1402 m 7 Y s 1563 1409 m cl s 1563 1402 m -7 Y s 1563 1395 m cl s 1599 1398
 m -18 X s 1581 1398 m cl s 1599 1398 m 18 X s 1617 1398 m cl s 1599 1398 m 7 Y s 1599 1405 m cl s 1599 1398 m -7 Y s 1599 1391 m cl s 1635 1368 m -18 X s 1617 1368 m cl s 1635 1368 m 18 X s 1653 1368 m cl s 1635 1368 m 8 Y s 1635 1376 m cl s 1635
 1368 m -7 Y s 1635 1361 m cl s 1671 1343 m -18 X s 1653 1343 m cl s 1671 1343 m 18 X s 1689 1343 m cl s 1671 1343 m 8 Y s 1671 1351 m cl s 1671 1343 m -9 Y s 1671 1334 m cl s 1706 1325 m -17 X s 1689 1325 m cl s 1706 1325 m 18 X s 1724 1325 m cl s
 1706 1325 m 9 Y s 1706 1334 m cl s 1706 1325 m -9 Y s 1706 1316 m cl s 1742 1318 m -18 X s 1724 1318 m cl s 1742 1318 m 18 X s 1760 1318 m cl s 1742 1318 m 9 Y s 1742 1327 m cl s 1742 1318 m -9 Y s 1742 1309 m cl s 1778 1275 m -18 X s 1760 1275 m cl
 s 1778 1275 m 18 X s 1796 1275 m cl s 1778 1275 m 11 Y s 1778 1286 m cl s 1778 1275 m -11 Y s 1778 1264 m cl s 1814 1249 m -18 X s 1796 1249 m cl s 1814 1249 m 18 X s 1832 1249 m cl s 1814 1249 m 12 Y s 1814 1261 m cl s 1814 1249 m -12 Y s 1814 1237
 m cl s 1850 1213 m -18 X s 1832 1213 m cl s 1850 1213 m 18 X s 1868 1213 m cl s 1850 1213 m 14 Y s 1850 1227 m cl s 1850 1213 m -13 Y s 1850 1200 m cl s 1886 1180 m -18 X s 1868 1180 m cl s 1886 1180 m 18 X s 1904 1180 m cl s 1886 1180 m 17 Y s 1886
 1197 m cl s 1886 1180 m -16 Y s 1886 1164 m cl s 1921 1180 m -17 X s 1904 1180 m cl s 1921 1180 m 18 X s 1939 1180 m cl s 1921 1180 m 17 Y s 1921 1197 m cl s 1921 1180 m -16 Y s 1921 1164 m cl s 1957 1107 m -18 X s 1939 1107 m cl s 1957 1107 m 18 X
 s 1975 1107 m cl s 1957 1107 m 21 Y s 1957 1128 m cl s 1957 1107 m -21 Y s 1957 1086 m cl s 1993 1123 m -18 X s 1975 1123 m cl s 1993 1123 m 18 X s 2011 1123 m cl s 1993 1123 m 20 Y s 1993 1143 m cl s 1993 1123 m -20 Y s 1993 1103 m cl s 2029 1068 m
 -18 X s 2011 1068 m cl s 2029 1068 m 18 X s 2047 1068 m cl s 2029 1068 m 25 Y s 2029 1093 m cl s 2029 1068 m -25 Y s 2029 1043 m cl s 2065 1060 m -18 X s 2047 1060 m cl s 2065 1060 m 18 X s 2083 1060 m cl s 2065 1060 m 26 Y s 2065 1086 m cl s 2065
 1060 m -25 Y s 2065 1035 m cl s 2101 1013 m -18 X s 2083 1013 m cl s 2101 1013 m 18 X s 2119 1013 m cl s 2101 1013 m 31 Y s 2101 1044 m cl s 2101 1013 m -30 Y s 2101 983 m cl s 2136 1034 m -17 X s 2119 1034 m cl s 2136 1034 m 18 X s 2154 1034 m cl s
 2136 1034 m 28 Y s 2136 1062 m cl s 2136 1034 m -28 Y s 2136 1006 m cl s /w 31 def /w2 {w 2 div} def /w3 {w 3 div} def 381 911 417 996 452 996 488 1024 524 1002 560 1052 596 1068 632 1064 667 1107 703 1072 739 1104 775 1113 811 1104 847 1146 882
 1068 918 1161 954 1168 990 1202 1026 1193 1062 1204 1097 1229 1133 1235 1169 1252 1205 1283 1241 1291 1276 1304 1312 1332 1348 1343 1384 1367 1420 1382 1456 1395 1491 1399 1527 1414 1563 1402 1599 1398 1635 1368 1671 1343 1706 1325 1742 1318 1778
 1275 1814 1249 1850 1213 1886 1180 1921 1180 1957 1107 1993 1123 2029 1068 2065 1060 2101 1013 2136 1034 50 { m20} R 0 1 1 c 1 1 0 c black 1 1 0 c 363 994 m 36 9 d 35 9 d 36 9 d 36 10 d 36 9 d 36 10 d 36 10 d 35 10 d 36 11 d 36 10 d 36 11 d 36 11 d
 36 11 d 35 12 d 36 12 d 36 12 d 36 13 d 36 13 d 36 13 d 35 14 d 36 14 d 36 16 d 18 8 d 18 9 d 18 9 d 18 10 d 18 10 d 18 11 d 17 11 d 18 11 d 18 11 d 18 10 d 36 20 d 18 8 d 18 8 d 18 7 d 18 6 d 9 3 d 9 2 d 9 1 d 9 2 d 9 1 d 8 1 d 18 X 9 -1 d 9 X 9 -2
 d 9 -1 d 9 -2 d 9 -2 d 18 -5 d 18 -7 d 18 -8 d 36 -17 d 36 -20 d 17 -11 d 18 -11 d 18 -11 d 18 -11 d 18 -11 d 18 -12 d 18 -11 d 18 -12 d 36 -24 d 36 -26 d 35 -28 d 36 -29 d 36 -32 d 36 -34 d 36 -36 d 36 -39 d 35 -41 d -35 41 d -36 39 d -36 36 d -36
 34 d -36 32 d -36 29 d -35 28 d -36 26 d -36 24 d -18 12 d -18 11 d -18 12 d -18 11 d -18 11 d -18 11 d -18 11 d -17 11 d -36 20 d -36 17 d -18 8 d -18 7 d -18 5 d -9 2 d -9 2 d -9 1 d -9 2 d -9 X -9 1 d -18 X -8 -1 d -9 -1 d -9 -2 d -9 -1 d -9 -2 d
 -9 -3 d -18 -6 d -18 -7 d -18 -8 d -18 -8 d -36 -20 d -18 -10 d -18 -11 d -18 -11 d -17 -11 d -18 -11 d -18 -10 d -18 -10 d -18 -9 d -18 -9 d -18 -8 d -36 -16 d -36 -14 d -35 -14 d -36 -13 d -36 -13 d -36 -13 d -36 -12 d -36 -12 d -35 -12 d -36 -11
 d -36 -11 d -36 -11 d -36 -10 d -36 -11 d -35 -10 d -36 -10 d -36 -10 d -36 -9 d -36 -10 d -36 -9 d -35 -9 d -36 -9 d f 0 1 1 c 0 1 0 c black 0 1 0 c 363 994 m 36 9 d 35 9 d 36 9 d 36 10 d 36 9 d 36 10 d 36 10 d 35 10 d 36 11 d 36 10 d 36 11 d 36 11
 d 36 11 d 35 12 d 36 12 d 36 12 d 36 13 d 36 13 d 36 13 d 35 14 d 36 14 d 36 16 d 18 8 d 18 9 d 18 9 d 18 10 d 18 10 d 18 11 d 17 11 d 18 11 d 18 11 d 18 10 d 36 20 d 18 8 d 18 8 d 18 7 d 18 6 d 9 3 d 9 2 d 9 1 d 9 2 d 9 1 d 8 1 d 18 X 9 -1 d 9 X 9
 -2 d 9 -1 d 9 -2 d 9 -2 d 18 -5 d 18 -7 d 18 -8 d 36 -17 d 36 -20 d 17 -11 d 18 -11 d 18 -11 d 18 -11 d 18 -11 d 18 -12 d 18 -11 d 18 -12 d 36 -24 d 36 -26 d 35 -28 d 36 -29 d 36 -32 d 36 -34 d 36 -36 d 36 -39 d 35 -41 d -35 41 d -36 39 d -36 36 d
 -36 34 d -36 32 d -36 29 d -35 28 d -36 26 d -36 24 d -18 12 d -18 11 d -18 12 d -18 11 d -18 11 d -18 11 d -18 11 d -17 11 d -36 20 d -36 17 d -18 8 d -18 7 d -18 5 d -9 2 d -9 2 d -9 1 d -9 2 d -9 X -9 1 d -18 X -8 -1 d -9 -1 d -9 -2 d -9 -1 d -9
 -2 d -9 -3 d -18 -6 d -18 -7 d -18 -8 d -18 -8 d -36 -20 d -18 -10 d -18 -11 d -18 -11 d -17 -11 d -18 -11 d -18 -10 d -18 -10 d -18 -9 d -18 -9 d -18 -8 d -36 -16 d -36 -14 d -35 -14 d -36 -13 d -36 -13 d -36 -13 d -36 -12 d -36 -12 d -35 -12 d -36
 -11 d -36 -11 d -36 -11 d -36 -10 d -36 -11 d -35 -10 d -36 -10 d -36 -10 d -36 -9 d -36 -10 d -36 -9 d -35 -9 d -36 -9 d f 0 0 1 c 9 lw black 0 0 1 c 363 994 m 36 9 d 35 9 d 36 9 d 36 10 d 36 9 d 36 10 d 36 10 d 35 10 d 36 11 d 36 10 d 36 11 d 36
 11 d 36 11 d 35 12 d 36 12 d 36 12 d 36 13 d 36 13 d 36 13 d 35 14 d 36 14 d 36 16 d 18 8 d 18 9 d 18 9 d 18 10 d 18 10 d 18 11 d 17 11 d 18 11 d 18 11 d 18 10 d 36 20 d 18 8 d 18 8 d 18 7 d 18 6 d 9 3 d 9 2 d 9 1 d 9 2 d 9 1 d 8 1 d 18 X 9 -1 d 9 X
 9 -2 d 9 -1 d 9 -2 d 9 -2 d 18 -5 d 18 -7 d 18 -8 d 36 -17 d 36 -20 d 17 -11 d 18 -11 d 18 -11 d 18 -11 d 18 -11 d 18 -12 d 18 -11 d 18 -12 d 36 -24 d 36 -26 d 35 -28 d 36 -29 d 36 -32 d 36 -34 d 36 -36 d 36 -39 d 35 -41 d s black 3 lw 381 911 m -18
 X s 363 911 m cl s 381 911 m 18 X s 399 911 m cl s 381 911 m 45 Y s 381 956 m cl s 381 911 m -46 Y s 381 865 m cl s 417 996 m -18 X s 399 996 m cl s 417 996 m 17 X s 434 996 m cl s 417 996 m 32 Y s 417 1028 m cl s 417 996 m -33 Y s 417 963 m cl s
 452 996 m -18 X s 434 996 m cl s 452 996 m 18 X s 470 996 m cl s 452 996 m 32 Y s 452 1028 m cl s 452 996 m -33 Y s 452 963 m cl s 488 1024 m -18 X s 470 1024 m cl s 488 1024 m 18 X s 506 1024 m cl s 488 1024 m 29 Y s 488 1053 m cl s 488 1024 m -29
 Y s 488 995 m cl s 524 1002 m -18 X s 506 1002 m cl s 524 1002 m 18 X s 542 1002 m cl s 524 1002 m 31 Y s 524 1033 m cl s 524 1002 m -32 Y s 524 970 m cl s 560 1052 m -18 X s 542 1052 m cl s 560 1052 m 18 X s 578 1052 m cl s 560 1052 m 26 Y s 560
 1078 m cl s 560 1052 m -26 Y s 560 1026 m cl s 596 1068 m -18 X s 578 1068 m cl s 596 1068 m 18 X s 614 1068 m cl s 596 1068 m 25 Y s 596 1093 m cl s 596 1068 m -25 Y s 596 1043 m cl s 632 1064 m -18 X s 614 1064 m cl s 632 1064 m 17 X s 649 1064 m
 cl s 632 1064 m 25 Y s 632 1089 m cl s 632 1064 m -25 Y s 632 1039 m cl s 667 1107 m -18 X s 649 1107 m cl s 667 1107 m 18 X s 685 1107 m cl s 667 1107 m 21 Y s 667 1128 m cl s 667 1107 m -21 Y s 667 1086 m cl s 703 1072 m -18 X s 685 1072 m cl s
 703 1072 m 18 X s 721 1072 m cl s 703 1072 m 24 Y s 703 1096 m cl s 703 1072 m -25 Y s 703 1047 m cl s 739 1104 m -18 X s 721 1104 m cl s 739 1104 m 18 X s 757 1104 m cl s 739 1104 m 22 Y s 739 1126 m cl s 739 1104 m -21 Y s 739 1083 m cl s 775 1113
 m -18 X s 757 1113 m cl s 775 1113 m 18 X s 793 1113 m cl s 775 1113 m 20 Y s 775 1133 m cl s 775 1113 m -21 Y s 775 1092 m cl s 811 1104 m -18 X s 793 1104 m cl s 811 1104 m 18 X s 829 1104 m cl s 811 1104 m 22 Y s 811 1126 m cl s 811 1104 m -21 Y
 s 811 1083 m cl s 847 1146 m -18 X s 829 1146 m cl s 847 1146 m 17 X s 864 1146 m cl s 847 1146 m 19 Y s 847 1165 m cl s 847 1146 m -18 Y s 847 1128 m cl s 882 1068 m -18 X s 864 1068 m cl s 882 1068 m 18 X s 900 1068 m cl s 882 1068 m 25 Y s 882
 1093 m cl s 882 1068 m -25 Y s 882 1043 m cl s 918 1161 m -18 X s 900 1161 m cl s 918 1161 m 18 X s 936 1161 m cl s 918 1161 m 17 Y s 918 1178 m cl s 918 1161 m -18 Y s 918 1143 m cl s 954 1168 m -18 X s 936 1168 m cl s 954 1168 m 18 X s 972 1168 m
 cl s 954 1168 m 17 Y s 954 1185 m cl s 954 1168 m -17 Y s 954 1151 m cl s 990 1202 m -18 X s 972 1202 m cl s 990 1202 m 18 X s 1008 1202 m cl s 990 1202 m 15 Y s 990 1217 m cl s 990 1202 m -15 Y s 990 1187 m cl s 1026 1193 m -18 X s 1008 1193 m cl s
 1026 1193 m 18 X s 1044 1193 m cl s 1026 1193 m 16 Y s 1026 1209 m cl s 1026 1193 m -15 Y s 1026 1178 m cl s 1062 1204 m -18 X s 1044 1204 m cl s 1062 1204 m 17 X s 1079 1204 m cl s 1062 1204 m 14 Y s 1062 1218 m cl s 1062 1204 m -15 Y s 1062 1189 m
 cl s 1097 1229 m -18 X s 1079 1229 m cl s 1097 1229 m 18 X s 1115 1229 m cl s 1097 1229 m 13 Y s 1097 1242 m cl s 1097 1229 m -12 Y s 1097 1217 m cl s 1133 1235 m -18 X s 1115 1235 m cl s 1133 1235 m 18 X s 1151 1235 m cl s 1133 1235 m 13 Y s 1133
 1248 m cl s 1133 1235 m -12 Y s 1133 1223 m cl s 1169 1252 m -18 X s 1151 1252 m cl s 1169 1252 m 18 X s 1187 1252 m cl s 1169 1252 m 12 Y s 1169 1264 m cl s 1169 1252 m -12 Y s 1169 1240 m cl s 1205 1283 m -18 X s 1187 1283 m cl s 1205 1283 m 18 X
 s 1223 1283 m cl s 1205 1283 m 10 Y s 1205 1293 m cl s 1205 1283 m -11 Y s 1205 1272 m cl s 1241 1291 m -18 X s 1223 1291 m cl s 1241 1291 m 18 X s 1259 1291 m cl s 1241 1291 m 10 Y s 1241 1301 m cl s 1241 1291 m -11 Y s 1241 1280 m cl s 1276 1304 m
 -17 X s 1259 1304 m cl s 1276 1304 m 18 X s 1294 1304 m cl s 1276 1304 m 10 Y s 1276 1314 m cl s 1276 1304 m -10 Y s 1276 1294 m cl s 1312 1332 m -18 X s 1294 1332 m cl s 1312 1332 m 18 X s 1330 1332 m cl s 1312 1332 m 9 Y s 1312 1341 m cl s 1312
 1332 m -9 Y s 1312 1323 m cl s 1348 1343 m -18 X s 1330 1343 m cl s 1348 1343 m 18 X s 1366 1343 m cl s 1348 1343 m 9 Y s 1348 1352 m cl s 1348 1343 m -8 Y s 1348 1335 m cl s 1384 1367 m -18 X s 1366 1367 m cl s 1384 1367 m 18 X s 1402 1367 m cl s
 1384 1367 m 8 Y s 1384 1375 m cl s 1384 1367 m -7 Y s 1384 1360 m cl s 1420 1382 m -18 X s 1402 1382 m cl s 1420 1382 m 18 X s 1438 1382 m cl s 1420 1382 m 7 Y s 1420 1389 m cl s 1420 1382 m -8 Y s 1420 1374 m cl s 1456 1395 m -18 X s 1438 1395 m cl
 s 1456 1395 m 18 X s 1474 1395 m cl s 1456 1395 m 7 Y s 1456 1402 m cl s 1456 1395 m -7 Y s 1456 1388 m cl s 1491 1399 m -17 X s 1474 1399 m cl s 1491 1399 m 18 X s 1509 1399 m cl s 1491 1399 m 7 Y s 1491 1406 m cl s 1491 1399 m -7 Y s 1491 1392 m
 cl s 1527 1414 m -18 X s 1509 1414 m cl s 1527 1414 m 18 X s 1545 1414 m cl s 1527 1414 m 7 Y s 1527 1421 m cl s 1527 1414 m -6 Y s 1527 1408 m cl s 1563 1402 m -18 X s 1545 1402 m cl s 1563 1402 m 18 X s 1581 1402 m cl s 1563 1402 m 7 Y s 1563 1409
 m cl s 1563 1402 m -7 Y s 1563 1395 m cl s 1599 1398 m -18 X s 1581 1398 m cl s 1599 1398 m 18 X s 1617 1398 m cl s 1599 1398 m 7 Y s 1599 1405 m cl s 1599 1398 m -7 Y s 1599 1391 m cl s 1635 1368 m -18 X s 1617 1368 m cl s 1635 1368 m 18 X s 1653
 1368 m cl s 1635 1368 m 8 Y s 1635 1376 m cl s 1635 1368 m -7 Y s 1635 1361 m cl s 1671 1343 m -18 X s 1653 1343 m cl s 1671 1343 m 18 X s 1689 1343 m cl s 1671 1343 m 8 Y s 1671 1351 m cl s 1671 1343 m -9 Y s 1671 1334 m cl s 1706 1325 m -17 X s
 1689 1325 m cl s 1706 1325 m 18 X s 1724 1325 m cl s 1706 1325 m 9 Y s 1706 1334 m cl s 1706 1325 m -9 Y s 1706 1316 m cl s 1742 1318 m -18 X s 1724 1318 m cl s 1742 1318 m 18 X s 1760 1318 m cl s 1742 1318 m 9 Y s 1742 1327 m cl s 1742 1318 m -9 Y
 s 1742 1309 m cl s 1778 1275 m -18 X s 1760 1275 m cl s 1778 1275 m 18 X s 1796 1275 m cl s 1778 1275 m 11 Y s 1778 1286 m cl s 1778 1275 m -11 Y s 1778 1264 m cl s 1814 1249 m -18 X s 1796 1249 m cl s 1814 1249 m 18 X s 1832 1249 m cl s 1814 1249 m
 12 Y s 1814 1261 m cl s 1814 1249 m -12 Y s 1814 1237 m cl s 1850 1213 m -18 X s 1832 1213 m cl s 1850 1213 m 18 X s 1868 1213 m cl s 1850 1213 m 14 Y s 1850 1227 m cl s 1850 1213 m -13 Y s 1850 1200 m cl s 1886 1180 m -18 X s 1868 1180 m cl s 1886
 1180 m 18 X s 1904 1180 m cl s 1886 1180 m 17 Y s 1886 1197 m cl s 1886 1180 m -16 Y s 1886 1164 m cl s 1921 1180 m -17 X s 1904 1180 m cl s 1921 1180 m 18 X s 1939 1180 m cl s 1921 1180 m 17 Y s 1921 1197 m cl s 1921 1180 m -16 Y s 1921 1164 m cl s
 1957 1107 m -18 X s 1939 1107 m cl s 1957 1107 m 18 X s 1975 1107 m cl s 1957 1107 m 21 Y s 1957 1128 m cl s 1957 1107 m -21 Y s 1957 1086 m cl s 1993 1123 m -18 X s 1975 1123 m cl s 1993 1123 m 18 X s 2011 1123 m cl s 1993 1123 m 20 Y s 1993 1143 m
 cl s 1993 1123 m -20 Y s 1993 1103 m cl s 2029 1068 m -18 X s 2011 1068 m cl s 2029 1068 m 18 X s 2047 1068 m cl s 2029 1068 m 25 Y s 2029 1093 m cl s 2029 1068 m -25 Y s 2029 1043 m cl s 2065 1060 m -18 X s 2047 1060 m cl s 2065 1060 m 18 X s 2083
 1060 m cl s 2065 1060 m 26 Y s 2065 1086 m cl s 2065 1060 m -25 Y s 2065 1035 m cl s 2101 1013 m -18 X s 2083 1013 m cl s 2101 1013 m 18 X s 2119 1013 m cl s 2101 1013 m 31 Y s 2101 1044 m cl s 2101 1013 m -30 Y s 2101 983 m cl s 2136 1034 m -17 X s
 2119 1034 m cl s 2136 1034 m 18 X s 2154 1034 m cl s 2136 1034 m 28 Y s 2136 1062 m cl s 2136 1034 m -28 Y s 2136 1006 m cl s 381 911 417 996 452 996 488 1024 524 1002 560 1052 596 1068 632 1064 667 1107 703 1072 739 1104 775 1113 811 1104 847 1146
 882 1068 918 1161 954 1168 990 1202 1026 1193 1062 1204 1097 1229 1133 1235 1169 1252 1205 1283 1241 1291 1276 1304 1312 1332 1348 1343 1384 1367 1420 1382 1456 1395 1491 1399 1527 1414 1563 1402 1599 1398 1635 1368 1671 1343 1706 1325 1742 1318
 1778 1275 1814 1249 1850 1213 1886 1180 1921 1180 1957 1107 1993 1123 2029 1068 2065 1060 2101 1013 2136 1034 50 { m20} R 0.52 0.76 0.64 c[ 4 8] 0 sd 9 lw black 0.52 0.76 0.64 c 363 994 m 36 9 d 35 9 d 36 9 d 36 10 d 36 9 d 36 10 d 36 10 d 35 10 d
 36 11 d 36 10 d 36 11 d 36 11 d 36 11 d 35 12 d 36 12 d 36 12 d 36 13 d 36 12 d 36 14 d 35 13 d 36 14 d 36 14 d 36 15 d 18 8 d 18 7 d 18 8 d 18 8 d 35 15 d 36 12 d 18 6 d 18 4 d 18 4 d 18 4 d 18 3 d 18 2 d 18 2 d 18 2 d 53 X 18 -1 d 18 -2 d 18 -2 d
 18 -3 d 18 -3 d 18 -4 d 18 -5 d 18 -5 d 18 -5 d 35 -14 d 36 -15 d 36 -18 d 36 -20 d 36 -22 d 36 -25 d 35 -27 d 36 -29 d 36 -32 d 36 -34 d 36 -36 d 36 -39 d 35 -41 d s 0.54 0.66 0.63 c black 0.54 0.66 0.63 c 1143 634 m 8 28 d s 1151 662 m 18 59 d 18
 56 d 18 53 d 18 50 d 18 47 d 9 22 d 9 21 d 9 21 d 8 20 d 9 19 d 9 18 d 9 18 d 9 17 d 9 16 d 9 15 d 18 28 d 18 26 d 36 41 d 18 16 d 9 7 d 9 6 d 9 5 d 9 4 d 9 4 d 9 3 d 9 2 d 8 2 d 18 X 9 -1 d 9 -1 d 9 -3 d 9 -3 d 9 -4 d 9 -4 d 9 -6 d 9 -6 d 9 -7 d 9
 -8 d 18 -18 d 18 -21 d 18 -24 d 18 -27 d 9 -15 d 9 -15 d 8 -17 d 9 -17 d 9 -17 d 9 -19 d 9 -19 d 9 -20 d 9 -21 d 9 -22 d 18 -46 d 18 -48 d 18 -52 d 18 -55 d 18 -58 d 15 -50 d s black[  ] 0 sd 3 lw 363 634 m 1791 X s 501 659 m -25 Y s 570 646 m -12 Y
 s 638 646 m -12 Y s 707 646 m -12 Y s 776 646 m -12 Y s 845 659 m -25 Y s 914 646 m -12 Y s 983 646 m -12 Y s 1052 646 m -12 Y s 1121 646 m -12 Y s 1190 659 m -25 Y s 1259 646 m -12 Y s 1327 646 m -12 Y s 1396 646 m -12 Y s 1465 646 m -12 Y s 1534
 659 m -25 Y s 1603 646 m -12 Y s 1672 646 m -12 Y s 1741 646 m -12 Y s 1810 646 m -12 Y s 1879 659 m -25 Y s 501 659 m -25 Y s 432 646 m -12 Y s 363 646 m -12 Y s 1879 659 m -25 Y s 1948 646 m -12 Y s 2017 646 m -12 Y s 2085 646 m -12 Y s 363 1484 m
 1791 X s 501 1459 m 25 Y s 570 1471 m 13 Y s 638 1471 m 13 Y s 707 1471 m 13 Y s 776 1471 m 13 Y s 845 1459 m 25 Y s 914 1471 m 13 Y s 983 1471 m 13 Y s 1052 1471 m 13 Y s 1121 1471 m 13 Y s 1190 1459 m 25 Y s 1259 1471 m 13 Y s 1327 1471 m 13 Y s
 1396 1471 m 13 Y s 1465 1471 m 13 Y s 1534 1459 m 25 Y s 1603 1471 m 13 Y s 1672 1471 m 13 Y s 1741 1471 m 13 Y s 1810 1471 m 13 Y s 1879 1459 m 25 Y s 501 1459 m 25 Y s 432 1471 m 13 Y s 363 1471 m 13 Y s 1879 1459 m 25 Y s 1948 1471 m 13 Y s 2017
 1471 m 13 Y s 2085 1471 m 13 Y s 363 634 m 850 Y s 390 662 m -27 X s 390 718 m -27 X s 390 758 m -27 X s 390 789 m -27 X s 390 815 m -27 X s 390 836 m -27 X s 390 855 m -27 X s 390 871 m -27 X s 417 886 m -54 X s 390 982 m -27 X s 390 1039 m -27 X s
 390 1079 m -27 X s 390 1110 m -27 X s 390 1135 m -27 X s 390 1157 m -27 X s 390 1175 m -27 X s 390 1192 m -27 X s 417 1206 m -54 X s 390 1303 m -27 X s 390 1359 m -27 X s 390 1399 m -27 X s 390 1430 m -27 X s 390 1456 m -27 X s 390 1477 m -27 X s
 2154 634 m 850 Y s 2127 662 m 27 X s 2127 718 m 27 X s 2127 758 m 27 X s 2127 789 m 27 X s 2127 815 m 27 X s 2127 836 m 27 X s 2127 855 m 27 X s 2127 871 m 27 X s 2101 886 m 53 X s 2127 982 m 27 X s 2127 1039 m 27 X s 2127 1079 m 27 X s 2127 1110 m
 27 X s 2127 1135 m 27 X s 2127 1157 m 27 X s 2127 1175 m 27 X s 2127 1192 m 27 X s 2101 1206 m 53 X s 2127 1303 m 27 X s 2127 1359 m 27 X s 2127 1399 m 27 X s 2127 1430 m 27 X s 2127 1456 m 27 X s 2127 1477 m 27 X s
 gsave  2268 1077 0 461 C 677.708 1215.31 t 0 r /Helvetica findfont 58.7189 sf 0 0 m (4mu) show NC gr  1 1 1 c 453 161 454 1269 bf black
 gsave  2268 1077 0 461 C 566.929 1371.71 t 0 r /Helvetica-Bold findfont 48.9324 sf 0 0 m (MC15) show NC gr  510 1390 m20
 gsave  2268 1077 0 461 C 566.929 1293.51 t 0 r /Helvetica-Bold findfont 48.9324 sf 0 0 m (Projection of Signal pdf) show NC gr  0 0 1 c 9 lw 471 1309 m 79 X s black 3 lw 1 1 1 c 2268 461 0 0 bf black 1 1 1 c 1791 364 363 74 bf black 1791 364 363 74
 bl 363 74 m 1791 X s
 gsave  2268 461 0 0 C 1915.83 13.0329 t 0 r /Helvetica findfont 22.9045 sf 0 0 m (4l Invariant Mass \(GeV\)) show NC gr  501 85 m -11 Y s 570 79 m -5 Y s 638 79 m -5 Y s 707 79 m -5 Y s 776 79 m -5 Y s 845 85 m -11 Y s 914 79 m -5 Y s 983 79 m -5 Y
 s 1052 79 m -5 Y s 1121 79 m -5 Y s 1190 85 m -11 Y s 1259 79 m -5 Y s 1327 79 m -5 Y s 1396 79 m -5 Y s 1465 79 m -5 Y s 1534 85 m -11 Y s 1603 79 m -5 Y s 1672 79 m -5 Y s 1741 79 m -5 Y s 1810 79 m -5 Y s 1879 85 m -11 Y s 501 85 m -11 Y s 432 79
 m -5 Y s 363 79 m -5 Y s 1879 85 m -11 Y s 1948 79 m -5 Y s 2017 79 m -5 Y s 2085 79 m -5 Y s
 gsave  2268 461 0 0 C 472.441 55.3896 t 0 r /Helvetica findfont 22.9045 sf 0 0 m (1250) show NC gr 
 gsave  2268 461 0 0 C 817.812 55.3896 t 0 r /Helvetica findfont 22.9045 sf 0 0 m (1300) show NC gr 
 gsave  2268 461 0 0 C 1163.18 55.3896 t 0 r /Helvetica findfont 22.9045 sf 0 0 m (1350) show NC gr 
 gsave  2268 461 0 0 C 1505.29 55.3896 t 0 r /Helvetica findfont 22.9045 sf 0 0 m (1400) show NC gr 
 gsave  2268 461 0 0 C 1850.67 55.3896 t 0 r /Helvetica findfont 22.9045 sf 0 0 m (1450) show NC gr  363 438 m 1791 X s 501 427 m 11 Y s 570 433 m 5 Y s 638 433 m 5 Y s 707 433 m 5 Y s 776 433 m 5 Y s 845 427 m 11 Y s 914 433 m 5 Y s 983 433 m 5 Y s
 1052 433 m 5 Y s 1121 433 m 5 Y s 1190 427 m 11 Y s 1259 433 m 5 Y s 1327 433 m 5 Y s 1396 433 m 5 Y s 1465 433 m 5 Y s 1534 427 m 11 Y s 1603 433 m 5 Y s 1672 433 m 5 Y s 1741 433 m 5 Y s 1810 433 m 5 Y s 1879 427 m 11 Y s 501 427 m 11 Y s 432 433
 m 5 Y s 363 433 m 5 Y s 1879 427 m 11 Y s 1948 433 m 5 Y s 2017 433 m 5 Y s 2085 433 m 5 Y s 363 74 m 364 Y s 417 74 m -54 X s 390 81 m -27 X s 390 88 m -27 X s 390 96 m -27 X s 390 103 m -27 X s 417 110 m -54 X s 390 118 m -27 X s 390 125 m -27 X s
 390 132 m -27 X s 390 139 m -27 X s 417 147 m -54 X s 390 154 m -27 X s 390 161 m -27 X s 390 169 m -27 X s 390 176 m -27 X s 417 183 m -54 X s 390 190 m -27 X s 390 198 m -27 X s 390 205 m -27 X s 390 212 m -27 X s 417 220 m -54 X s 390 227 m -27 X
 s 390 234 m -27 X s 390 241 m -27 X s 390 249 m -27 X s 417 256 m -54 X s 390 263 m -27 X s 390 271 m -27 X s 390 278 m -27 X s 390 285 m -27 X s 417 293 m -54 X s 390 300 m -27 X s 390 307 m -27 X s 390 314 m -27 X s 390 322 m -27 X s 417 329 m -54
 X s 390 336 m -27 X s 390 344 m -27 X s 390 351 m -27 X s 390 358 m -27 X s 417 365 m -54 X s 390 373 m -27 X s 390 380 m -27 X s 390 387 m -27 X s 390 395 m -27 X s 417 402 m -54 X s 390 409 m -27 X s 390 416 m -27 X s 390 424 m -27 X s 390 431 m
 -27 X s 417 438 m -54 X s
 gsave  2268 461 0 0 C 329.08 65.1643 t 0 r /Helvetica findfont 22.9045 sf 0 0 m (\2555) show NC gr 
 gsave  2268 461 0 0 C 329.08 101.005 t 0 r /Helvetica findfont 22.9045 sf 0 0 m (\2554) show NC gr 
 gsave  2268 461 0 0 C 329.08 140.103 t 0 r /Helvetica findfont 22.9045 sf 0 0 m (\2553) show NC gr 
 gsave  2268 461 0 0 C 329.08 175.944 t 0 r /Helvetica findfont 22.9045 sf 0 0 m (\2552) show NC gr 
 gsave  2268 461 0 0 C 332.338 211.784 t 0 r /Helvetica findfont 22.9045 sf 0 0 m (\2551) show NC gr 
 gsave  2268 461 0 0 C 335.596 247.624 t 0 r /Helvetica findfont 22.9045 sf 0 0 m (0) show NC gr 
 gsave  2268 461 0 0 C 338.854 283.465 t 0 r /Helvetica findfont 22.9045 sf 0 0 m (1) show NC gr 
 gsave  2268 461 0 0 C 335.596 319.305 t 0 r /Helvetica findfont 22.9045 sf 0 0 m (2) show NC gr 
 gsave  2268 461 0 0 C 335.596 358.403 t 0 r /Helvetica findfont 22.9045 sf 0 0 m (3) show NC gr 
 gsave  2268 461 0 0 C 335.596 394.244 t 0 r /Helvetica findfont 22.9045 sf 0 0 m (4) show NC gr 
 gsave  2268 461 0 0 C 335.596 430.084 t 0 r /Helvetica findfont 22.9045 sf 0 0 m (5) show NC gr  2154 74 m 364 Y s 2101 74 m 53 X s 2127 81 m 27 X s 2127 88 m 27 X s 2127 96 m 27 X s 2127 103 m 27 X s 2101 110 m 53 X s 2127 118 m 27 X s 2127 125 m
 27 X s 2127 132 m 27 X s 2127 139 m 27 X s 2101 147 m 53 X s 2127 154 m 27 X s 2127 161 m 27 X s 2127 169 m 27 X s 2127 176 m 27 X s 2101 183 m 53 X s 2127 190 m 27 X s 2127 198 m 27 X s 2127 205 m 27 X s 2127 212 m 27 X s 2101 220 m 53 X s 2127 227
 m 27 X s 2127 234 m 27 X s 2127 241 m 27 X s 2127 249 m 27 X s 2101 256 m 53 X s 2127 263 m 27 X s 2127 271 m 27 X s 2127 278 m 27 X s 2127 285 m 27 X s 2101 293 m 53 X s 2127 300 m 27 X s 2127 307 m 27 X s 2127 314 m 27 X s 2127 322 m 27 X s 2101
 329 m 53 X s 2127 336 m 27 X s 2127 344 m 27 X s 2127 351 m 27 X s 2127 358 m 27 X s 2101 365 m 53 X s 2127 373 m 27 X s 2127 380 m 27 X s 2127 387 m 27 X s 2127 395 m 27 X s 2101 402 m 53 X s 2127 409 m 27 X s 2127 416 m 27 X s 2127 424 m 27 X s
 2127 431 m 27 X s 2101 438 m 53 X s 6 lw 0.2 0.8 0.2 c black 3 lw 0.2 0.8 0.2 c 363 256 m -84 Y 36 X 71 Y 35 X -10 Y 36 X 21 Y 36 X -37 Y 36 X 49 Y 36 X 10 Y 36 X -21 Y 35 X 53 Y 36 X -73 Y 36 X 34 Y 36 X -4 Y 36 X -33 Y 36 X 56 Y 35 X -165 Y 36 X
 147 Y 36 X -10 Y 36 X 51 Y 36 X -53 Y 36 X -7 Y 35 X 32 Y 36 X -26 Y 36 X 3 Y 36 X 43 Y 36 X -41 Y 36 X -31 Y 35 X 24 Y 36 X -43 Y 36 X 25 Y 36 X -4 Y 36 X 15 Y 36 X -3 Y 35 X 84 Y 36 X -32 Y 36 X 38 Y 36 X -67 Y 36 X -30 Y 36 X 14 Y 35 X 58 Y 36 X
 -75 Y 36 X -8 Y 36 X -32 Y 36 X -11 Y 36 X 65 Y 35 X -85 Y 36 X 89 Y 36 X -33 Y 36 X 41 Y 36 X -12 Y 36 X 70 Y 35 X -63 Y f 6 lw black 0.2 0.8 0.2 c black 363 172 m 36 X 71 Y 35 X -10 Y 36 X 21 Y 36 X -37 Y 36 X 49 Y 36 X 10 Y 36 X -21 Y 35 X 53 Y
 36 X -73 Y 36 X 34 Y 36 X -4 Y 36 X -33 Y 36 X 56 Y 35 X -165 Y 36 X 147 Y 36 X -10 Y 36 X 51 Y 36 X -53 Y 36 X -7 Y 35 X 32 Y 36 X -26 Y 36 X 3 Y 36 X 43 Y 36 X -41 Y 36 X -31 Y 35 X 24 Y 36 X -43 Y 36 X 25 Y 36 X -4 Y 36 X 15 Y 36 X -3 Y 35 X 84 Y
 36 X -32 Y 36 X 38 Y 36 X -67 Y 36 X -30 Y 36 X 14 Y 35 X 58 Y 36 X -75 Y 36 X -8 Y 36 X -32 Y 36 X -11 Y 36 X 65 Y 35 X -85 Y 36 X 89 Y 36 X -33 Y 36 X 41 Y 36 X -12 Y 36 X 70 Y 35 X s 3 lw 363 74 m 1791 X s 501 85 m -11 Y s 570 79 m -5 Y s 638 79
 m -5 Y s 707 79 m -5 Y s 776 79 m -5 Y s 845 85 m -11 Y s 914 79 m -5 Y s 983 79 m -5 Y s 1052 79 m -5 Y s 1121 79 m -5 Y s 1190 85 m -11 Y s 1259 79 m -5 Y s 1327 79 m -5 Y s 1396 79 m -5 Y s 1465 79 m -5 Y s 1534 85 m -11 Y s 1603 79 m -5 Y s 1672
 79 m -5 Y s 1741 79 m -5 Y s 1810 79 m -5 Y s 1879 85 m -11 Y s 501 85 m -11 Y s 432 79 m -5 Y s 363 79 m -5 Y s 1879 85 m -11 Y s 1948 79 m -5 Y s 2017 79 m -5 Y s 2085 79 m -5 Y s 363 438 m 1791 X s 501 427 m 11 Y s 570 433 m 5 Y s 638 433 m 5 Y s
 707 433 m 5 Y s 776 433 m 5 Y s 845 427 m 11 Y s 914 433 m 5 Y s 983 433 m 5 Y s 1052 433 m 5 Y s 1121 433 m 5 Y s 1190 427 m 11 Y s 1259 433 m 5 Y s 1327 433 m 5 Y s 1396 433 m 5 Y s 1465 433 m 5 Y s 1534 427 m 11 Y s 1603 433 m 5 Y s 1672 433 m 5
 Y s 1741 433 m 5 Y s 1810 433 m 5 Y s 1879 427 m 11 Y s 501 427 m 11 Y s 432 433 m 5 Y s 363 433 m 5 Y s 1879 427 m 11 Y s 1948 433 m 5 Y s 2017 433 m 5 Y s 2085 433 m 5 Y s 363 74 m 364 Y s 417 74 m -54 X s 390 81 m -27 X s 390 88 m -27 X s 390 96
 m -27 X s 390 103 m -27 X s 417 110 m -54 X s 390 118 m -27 X s 390 125 m -27 X s 390 132 m -27 X s 390 139 m -27 X s 417 147 m -54 X s 390 154 m -27 X s 390 161 m -27 X s 390 169 m -27 X s 390 176 m -27 X s 417 183 m -54 X s 390 190 m -27 X s 390
 198 m -27 X s 390 205 m -27 X s 390 212 m -27 X s 417 220 m -54 X s 390 227 m -27 X s 390 234 m -27 X s 390 241 m -27 X s 390 249 m -27 X s 417 256 m -54 X s 390 263 m -27 X s 390 271 m -27 X s 390 278 m -27 X s 390 285 m -27 X s 417 293 m -54 X s
 390 300 m -27 X s 390 307 m -27 X s 390 314 m -27 X s 390 322 m -27 X s 417 329 m -54 X s 390 336 m -27 X s 390 344 m -27 X s 390 351 m -27 X s 390 358 m -27 X s 417 365 m -54 X s 390 373 m -27 X s 390 380 m -27 X s 390 387 m -27 X s 390 395 m -27 X
 s 417 402 m -54 X s 390 409 m -27 X s 390 416 m -27 X s 390 424 m -27 X s 390 431 m -27 X s 417 438 m -54 X s 2154 74 m 364 Y s 2101 74 m 53 X s 2127 81 m 27 X s 2127 88 m 27 X s 2127 96 m 27 X s 2127 103 m 27 X s 2101 110 m 53 X s 2127 118 m 27 X s
 2127 125 m 27 X s 2127 132 m 27 X s 2127 139 m 27 X s 2101 147 m 53 X s 2127 154 m 27 X s 2127 161 m 27 X s 2127 169 m 27 X s 2127 176 m 27 X s 2101 183 m 53 X s 2127 190 m 27 X s 2127 198 m 27 X s 2127 205 m 27 X s 2127 212 m 27 X s 2101 220 m 53 X
 s 2127 227 m 27 X s 2127 234 m 27 X s 2127 241 m 27 X s 2127 249 m 27 X s 2101 256 m 53 X s 2127 263 m 27 X s 2127 271 m 27 X s 2127 278 m 27 X s 2127 285 m 27 X s 2101 293 m 53 X s 2127 300 m 27 X s 2127 307 m 27 X s 2127 314 m 27 X s 2127 322 m 27
 X s 2101 329 m 53 X s 2127 336 m 27 X s 2127 344 m 27 X s 2127 351 m 27 X s 2127 358 m 27 X s 2101 365 m 53 X s 2127 373 m 27 X s 2127 380 m 27 X s 2127 387 m 27 X s 2127 395 m 27 X s 2101 402 m 53 X s 2127 409 m 27 X s 2127 416 m 27 X s 2127 424 m
 27 X s 2127 431 m 27 X s 2101 438 m 53 X s
 gr  gr showpage
end
%%EOF
