%!PS-Adobe-2.0 EPSF-2.0
%%BoundingBox:  0 0 567 384
%%Title: H4l2015_plotfit/gg_mass_signal_1600_H4l_4e.eps: 
%%Creator: ROOT Version 5.34/10
%%CreationDate: Thu Feb 16 13:49:40 2017
%%EndComments
%%BeginProlog
80 dict begin
/s {stroke} def /l {lineto} def /m {moveto} def /t {translate} def
/r {rotate} def /rl {roll}  def /R {repeat} def
/d {rlineto} def /rm {rmoveto} def /gr {grestore} def /f {eofill} def
/c {setrgbcolor} def /black {0 setgray} def /sd {setdash} def
/cl {closepath} def /sf {scalefont setfont} def /lw {setlinewidth} def
/box {m dup 0 exch d exch 0 d 0 exch neg d cl} def
/NC{systemdict begin initclip end}def/C{NC box clip newpath}def
/bl {box s} def /bf {box f} def /Y { 0 exch d} def /X { 0 d} def 
/K {{pop pop 0 moveto} exch kshow} bind def
/ita {/ang 15 def gsave [1 0 ang dup sin exch cos div 1 0 0] concat} def 
/mp {newpath /y exch def /x exch def} def
/side {[w .77 mul w .23 mul] .385 w mul sd w 0 l currentpoint t -144 r} def
/mr {mp x y w2 0 360 arc} def /m24 {mr s} def /m20 {mr f} def
/mb {mp x y w2 add m w2 neg 0 d 0 w neg d w 0 d 0 w d cl} def
/mt {mp x y w2 add m w2 neg w neg d w 0 d cl} def
/m21 {mb f} def /m25 {mb s} def /m22 {mt f} def /m26{mt s} def
/m23 {mp x y w2 sub m w2 w d w neg 0 d cl f} def
/m27 {mp x y w2 add m w3 neg w2 neg d w3 w2 neg d w3 w2 d cl s} def
/m28 {mp x w2 sub y w2 sub w3 add m w3 0 d  0 w3 neg d w3 0 d 0 w3 d w3 0 d  0 w3 d w3 neg 0 d 0 w3 d w3 neg 0 d 0 w3 neg d w3 neg 0 d cl s } def
/m29 {mp gsave x w2 sub y w2 add w3 sub m currentpoint t 4 {side} repeat cl fill gr} def
/m30 {mp gsave x w2 sub y w2 add w3 sub m currentpoint t 4 {side} repeat cl s gr} def
/m31 {mp x y w2 sub m 0 w d x w2 sub y m w 0 d x w2 sub y w2 add m w w neg d x w2 sub y w2 sub m w w d s} def
/m32 {mp x y w2 sub m w2 w d w neg 0 d cl s} def
/m33 {mp x y w2 add m w3 neg w2 neg d w3 w2 neg d w3 w2 d cl f} def
/m34 {mp x w2 sub y w2 sub w3 add m w3 0 d  0 w3 neg d w3 0 d 0 w3 d w3 0 d  0 w3 d w3 neg 0 d 0 w3 d w3 neg 0 d 0 w3 neg d w3 neg 0 d cl f } def
/m2 {mp x y w2 sub m 0 w d x w2 sub y m w 0 d s} def
/m5 {mp x w2 sub y w2 sub m w w d x w2 sub y w2 add m w w neg d s} def
/reEncode {exch findfont dup length dict begin {1 index /FID eq  {pop pop} {def} ifelse } forall /Encoding exch def currentdict end dup /FontName get exch definefont pop } def [/Times-Bold /Times-Italic /Times-BoldItalic /Helvetica /Helvetica-Oblique
 /Helvetica-Bold /Helvetica-BoldOblique /Courier /Courier-Oblique /Courier-Bold /Courier-BoldOblique /Times-Roman /AvantGarde-Book /AvantGarde-BookOblique /AvantGarde-Demi /AvantGarde-DemiOblique /Bookman-Demi /Bookman-DemiItalic /Bookman-Light
 /Bookman-LightItalic /Helvetica-Narrow /Helvetica-Narrow-Bold /Helvetica-Narrow-BoldOblique /Helvetica-Narrow-Oblique /NewCenturySchlbk-Roman /NewCenturySchlbk-Bold /NewCenturySchlbk-BoldItalic /NewCenturySchlbk-Italic /Palatino-Bold
 /Palatino-BoldItalic /Palatino-Italic /Palatino-Roman ] {ISOLatin1Encoding reEncode } forall
%%EndProlog
%%BeginSetup
%%EndSetup
newpath  gsave  .25 .25 scale  gsave  0 0 t black[  ] 0 sd 3 lw 1 1 1 c 2268 1538 0 0 bf black 1 1 1 c 2222 738 23 784 bf black 1 1 1 c 2222 739 23 15 bf black 1 1 1 c 2268 1077 0 461 bf black 1 1 1 c 1791 850 363 634 bf black 1791 850 363 634 bl 363
 634 m 1791 X s
 gsave  2268 1077 0 461 C 1642.14 498.507 t 0 r /Helvetica findfont 48.9324 sf 0 0 m (4l Invariant Mass \(GeV\)) show NC gr  363 659 m -25 Y s 432 646 m -12 Y s 501 646 m -12 Y s 570 646 m -12 Y s 638 659 m -25 Y s 707 646 m -12 Y s 776 646 m -12 Y s
 845 646 m -12 Y s 914 659 m -25 Y s 983 646 m -12 Y s 1052 646 m -12 Y s 1121 646 m -12 Y s 1190 659 m -25 Y s 1259 646 m -12 Y s 1327 646 m -12 Y s 1396 646 m -12 Y s 1465 659 m -25 Y s 1534 646 m -12 Y s 1603 646 m -12 Y s 1672 646 m -12 Y s 1741
 659 m -25 Y s 1810 646 m -12 Y s 1879 646 m -12 Y s 1948 646 m -12 Y s 2017 659 m -25 Y s 2017 659 m -25 Y s 2085 646 m -12 Y s
 gsave  2268 1077 0 461 C 306.272 586.478 t 0 r /Helvetica findfont 48.9324 sf 0 0 m (1520) show NC gr 
 gsave  2268 1077 0 461 C 579.962 586.478 t 0 r /Helvetica findfont 48.9324 sf 0 0 m (1540) show NC gr 
 gsave  2268 1077 0 461 C 856.91 586.478 t 0 r /Helvetica findfont 48.9324 sf 0 0 m (1560) show NC gr 
 gsave  2268 1077 0 461 C 1133.86 586.478 t 0 r /Helvetica findfont 48.9324 sf 0 0 m (1580) show NC gr 
 gsave  2268 1077 0 461 C 1407.55 586.478 t 0 r /Helvetica findfont 48.9324 sf 0 0 m (1600) show NC gr 
 gsave  2268 1077 0 461 C 1684.5 586.478 t 0 r /Helvetica findfont 48.9324 sf 0 0 m (1620) show NC gr 
 gsave  2268 1077 0 461 C 1958.19 586.478 t 0 r /Helvetica findfont 48.9324 sf 0 0 m (1640) show NC gr  363 1484 m 1791 X s 363 1459 m 25 Y s 432 1471 m 13 Y s 501 1471 m 13 Y s 570 1471 m 13 Y s 638 1459 m 25 Y s 707 1471 m 13 Y s 776 1471 m 13 Y s
 845 1471 m 13 Y s 914 1459 m 25 Y s 983 1471 m 13 Y s 1052 1471 m 13 Y s 1121 1471 m 13 Y s 1190 1459 m 25 Y s 1259 1471 m 13 Y s 1327 1471 m 13 Y s 1396 1471 m 13 Y s 1465 1459 m 25 Y s 1534 1471 m 13 Y s 1603 1471 m 13 Y s 1672 1471 m 13 Y s 1741
 1459 m 25 Y s 1810 1471 m 13 Y s 1879 1471 m 13 Y s 1948 1471 m 13 Y s 2017 1459 m 25 Y s 2017 1459 m 25 Y s 2085 1471 m 13 Y s 363 634 m 850 Y s
 gsave  2268 1077 0 461 C 120.554 1058.92 t 90 r /Helvetica findfont 48.9324 sf 0 0 m (Events / \( 2.6 GeV \)) show NC gr  390 656 m -27 X s 390 710 m -27 X s 390 748 m -27 X s 390 777 m -27 X s 390 802 m -27 X s 390 822 m -27 X s 390 840 m -27 X s
 390 856 m -27 X s 417 870 m -54 X s
 gsave  2268 1077 0 461 C 342.425 848.782 t 0 r  -55 0 t /Helvetica findfont 48.9324 sf 0 0 m (10) show NC gr  390 962 m -27 X s 390 1016 m -27 X s 390 1054 m -27 X s 390 1084 m -27 X s 390 1108 m -27 X s 390 1128 m -27 X s 390 1146 m -27 X s 390
 1162 m -27 X s 417 1176 m -54 X s
 gsave  2268 1077 0 461 C 322.563 1172.96 t 0 r /Helvetica findfont 32.6216 sf 0 0 m (2) show NC gr 
 gsave  2268 1077 0 461 C 270.432 1153.41 t 0 r /Helvetica findfont 48.9324 sf 0 0 m (10) show NC gr  390 1268 m -27 X s 390 1322 m -27 X s 390 1360 m -27 X s 390 1390 m -27 X s 390 1414 m -27 X s 390 1434 m -27 X s 390 1452 m -27 X s 390 1468 m -27
 X s 417 1482 m -54 X s
 gsave  2268 1077 0 461 C 322.563 1482.49 t 0 r /Helvetica findfont 32.6216 sf 0 0 m (3) show NC gr 
 gsave  2268 1077 0 461 C 270.432 1459.68 t 0 r /Helvetica findfont 48.9324 sf 0 0 m (10) show NC gr  2154 634 m 850 Y s 2127 656 m 27 X s 2127 710 m 27 X s 2127 748 m 27 X s 2127 777 m 27 X s 2127 802 m 27 X s 2127 822 m 27 X s 2127 840 m 27 X s
 2127 856 m 27 X s 2101 870 m 53 X s 2127 962 m 27 X s 2127 1016 m 27 X s 2127 1054 m 27 X s 2127 1084 m 27 X s 2127 1108 m 27 X s 2127 1128 m 27 X s 2127 1146 m 27 X s 2127 1162 m 27 X s 2101 1176 m 53 X s 2127 1268 m 27 X s 2127 1322 m 27 X s 2127
 1360 m 27 X s 2127 1390 m 27 X s 2127 1414 m 27 X s 2127 1434 m 27 X s 2127 1452 m 27 X s 2127 1468 m 27 X s 2101 1482 m 53 X s 381 777 m -18 X s 363 777 m cl s 381 777 m 18 X s 399 777 m cl s 381 777 m 69 Y s 381 846 m cl s 381 777 m -75 Y s 381
 702 m cl s 417 840 m -18 X s 399 840 m cl s 417 840 m 17 X s 434 840 m cl s 417 840 m 53 Y s 417 893 m cl s 417 840 m -56 Y s 417 784 m cl s 452 856 m -18 X s 434 856 m cl s 452 856 m 18 X s 470 856 m cl s 452 856 m 50 Y s 452 906 m cl s 452 856 m
 -53 Y s 452 803 m cl s 488 840 m -18 X s 470 840 m cl s 488 840 m 18 X s 506 840 m cl s 488 840 m 53 Y s 488 893 m cl s 488 840 m -56 Y s 488 784 m cl s 524 822 m -18 X s 506 822 m cl s 524 822 m 18 X s 542 822 m cl s 524 822 m 58 Y s 524 880 m cl s
 524 822 m -61 Y s 524 761 m cl s 560 822 m -18 X s 542 822 m cl s 560 822 m 18 X s 578 822 m cl s 560 822 m 58 Y s 560 880 m cl s 560 822 m -61 Y s 560 761 m cl s 596 802 m -18 X s 578 802 m cl s 596 802 m 18 X s 614 802 m cl s 596 802 m 62 Y s 596
 864 m cl s 596 802 m -67 Y s 596 735 m cl s 632 870 m -18 X s 614 870 m cl s 632 870 m 17 X s 649 870 m cl s 632 870 m 47 Y s 632 917 m cl s 632 870 m -50 Y s 632 820 m cl s 667 882 m -18 X s 649 882 m cl s 667 882 m 18 X s 685 882 m cl s 667 882 m
 45 Y s 667 927 m cl s 667 882 m -47 Y s 667 835 m cl s 703 914 m -18 X s 685 914 m cl s 703 914 m 18 X s 721 914 m cl s 703 914 m 40 Y s 703 954 m cl s 703 914 m -40 Y s 703 874 m cl s 739 905 m -18 X s 721 905 m cl s 739 905 m 18 X s 757 905 m cl s
 739 905 m 41 Y s 739 946 m cl s 739 905 m -43 Y s 739 862 m cl s 775 924 m -18 X s 757 924 m cl s 775 924 m 18 X s 793 924 m cl s 775 924 m 38 Y s 775 962 m cl s 775 924 m -40 Y s 775 884 m cl s 811 948 m -18 X s 793 948 m cl s 811 948 m 18 X s 829
 948 m cl s 811 948 m 34 Y s 811 982 m cl s 811 948 m -36 Y s 811 912 m cl s 847 1007 m -18 X s 829 1007 m cl s 847 1007 m 17 X s 864 1007 m cl s 847 1007 m 27 Y s 847 1034 m cl s 847 1007 m -28 Y s 847 979 m cl s 882 986 m -18 X s 864 986 m cl s 882
 986 m 18 X s 900 986 m cl s 882 986 m 30 Y s 882 1016 m cl s 882 986 m -30 Y s 882 956 m cl s 918 1020 m -18 X s 900 1020 m cl s 918 1020 m 18 X s 936 1020 m cl s 918 1020 m 26 Y s 918 1046 m cl s 918 1020 m -26 Y s 918 994 m cl s 954 1036 m -18 X s
 936 1036 m cl s 954 1036 m 18 X s 972 1036 m cl s 954 1036 m 24 Y s 954 1060 m cl s 954 1036 m -24 Y s 954 1012 m cl s 990 1075 m -18 X s 972 1075 m cl s 990 1075 m 18 X s 1008 1075 m cl s 990 1075 m 21 Y s 990 1096 m cl s 990 1075 m -21 Y s 990
 1054 m cl s 1026 1108 m -18 X s 1008 1108 m cl s 1026 1108 m 18 X s 1044 1108 m cl s 1026 1108 m 18 Y s 1026 1126 m cl s 1026 1108 m -18 Y s 1026 1090 m cl s 1062 1091 m -18 X s 1044 1091 m cl s 1062 1091 m 17 X s 1079 1091 m cl s 1062 1091 m 20 Y s
 1062 1111 m cl s 1062 1091 m -19 Y s 1062 1072 m cl s 1097 1132 m -18 X s 1079 1132 m cl s 1097 1132 m 18 X s 1115 1132 m cl s 1097 1132 m 17 Y s 1097 1149 m cl s 1097 1132 m -17 Y s 1097 1115 m cl s 1133 1186 m -18 X s 1115 1186 m cl s 1133 1186 m
 18 X s 1151 1186 m cl s 1133 1186 m 13 Y s 1133 1199 m cl s 1133 1186 m -13 Y s 1133 1173 m cl s 1169 1202 m -18 X s 1151 1202 m cl s 1169 1202 m 18 X s 1187 1202 m cl s 1169 1202 m 12 Y s 1169 1214 m cl s 1169 1202 m -12 Y s 1169 1190 m cl s 1205
 1281 m -18 X s 1187 1281 m cl s 1205 1281 m 18 X s 1223 1281 m cl s 1205 1281 m 9 Y s 1205 1290 m cl s 1205 1281 m -9 Y s 1205 1272 m cl s 1241 1304 m -18 X s 1223 1304 m cl s 1241 1304 m 18 X s 1259 1304 m cl s 1241 1304 m 8 Y s 1241 1312 m cl s
 1241 1304 m -8 Y s 1241 1296 m cl s 1276 1329 m -17 X s 1259 1329 m cl s 1276 1329 m 18 X s 1294 1329 m cl s 1276 1329 m 7 Y s 1276 1336 m cl s 1276 1329 m -8 Y s 1276 1321 m cl s 1312 1377 m -18 X s 1294 1377 m cl s 1312 1377 m 18 X s 1330 1377 m
 cl s 1312 1377 m 6 Y s 1312 1383 m cl s 1312 1377 m -7 Y s 1312 1370 m cl s 1348 1393 m -18 X s 1330 1393 m cl s 1348 1393 m 18 X s 1366 1393 m cl s 1348 1393 m 6 Y s 1348 1399 m cl s 1348 1393 m -6 Y s 1348 1387 m cl s 1384 1410 m -18 X s 1366 1410
 m cl s 1384 1410 m 18 X s 1402 1410 m cl s 1384 1410 m 5 Y s 1384 1415 m cl s 1384 1410 m -6 Y s 1384 1404 m cl s 1420 1416 m -18 X s 1402 1416 m cl s 1420 1416 m 18 X s 1438 1416 m cl s 1420 1416 m 6 Y s 1420 1422 m cl s 1420 1416 m -5 Y s 1420
 1411 m cl s 1456 1418 m -18 X s 1438 1418 m cl s 1456 1418 m 18 X s 1474 1418 m cl s 1456 1418 m 6 Y s 1456 1424 m cl s 1456 1418 m -5 Y s 1456 1413 m cl s 1491 1407 m -17 X s 1474 1407 m cl s 1491 1407 m 18 X s 1509 1407 m cl s 1491 1407 m 5 Y s
 1491 1412 m cl s 1491 1407 m -6 Y s 1491 1401 m cl s 1527 1389 m -18 X s 1509 1389 m cl s 1527 1389 m 18 X s 1545 1389 m cl s 1527 1389 m 6 Y s 1527 1395 m cl s 1527 1389 m -6 Y s 1527 1383 m cl s 1563 1351 m -18 X s 1545 1351 m cl s 1563 1351 m 18
 X s 1581 1351 m cl s 1563 1351 m 7 Y s 1563 1358 m cl s 1563 1351 m -7 Y s 1563 1344 m cl s 1599 1331 m -18 X s 1581 1331 m cl s 1599 1331 m 18 X s 1617 1331 m cl s 1599 1331 m 7 Y s 1599 1338 m cl s 1599 1331 m -8 Y s 1599 1323 m cl s 1635 1279 m
 -18 X s 1617 1279 m cl s 1635 1279 m 18 X s 1653 1279 m cl s 1635 1279 m 9 Y s 1635 1288 m cl s 1635 1279 m -9 Y s 1635 1270 m cl s 1671 1221 m -18 X s 1653 1221 m cl s 1671 1221 m 18 X s 1689 1221 m cl s 1671 1221 m 12 Y s 1671 1233 m cl s 1671
 1221 m -11 Y s 1671 1210 m cl s 1706 1178 m -17 X s 1689 1178 m cl s 1706 1178 m 18 X s 1724 1178 m cl s 1706 1178 m 14 Y s 1706 1192 m cl s 1706 1178 m -13 Y s 1706 1165 m cl s 1742 1121 m -18 X s 1724 1121 m cl s 1742 1121 m 18 X s 1760 1121 m cl
 s 1742 1121 m 17 Y s 1742 1138 m cl s 1742 1121 m -18 Y s 1742 1103 m cl s 1778 1064 m -18 X s 1760 1064 m cl s 1778 1064 m 18 X s 1796 1064 m cl s 1778 1064 m 21 Y s 1778 1085 m cl s 1778 1064 m -22 Y s 1778 1042 m cl s 1814 991 m -18 X s 1796 991
 m cl s 1814 991 m 18 X s 1832 991 m cl s 1814 991 m 29 Y s 1814 1020 m cl s 1814 991 m -29 Y s 1814 962 m cl s 1850 940 m -18 X s 1832 940 m cl s 1850 940 m 18 X s 1868 940 m cl s 1850 940 m 36 Y s 1850 976 m cl s 1850 940 m -36 Y s 1850 904 m cl s
 1886 894 m -18 X s 1868 894 m cl s 1886 894 m 18 X s 1904 894 m cl s 1886 894 m 43 Y s 1886 937 m cl s 1886 894 m -45 Y s 1886 849 m cl s 1921 870 m -17 X s 1904 870 m cl s 1921 870 m 18 X s 1939 870 m cl s 1921 870 m 47 Y s 1921 917 m cl s 1921 870
 m -50 Y s 1921 820 m cl s 1957 840 m -18 X s 1939 840 m cl s 1957 840 m 18 X s 1975 840 m cl s 1957 840 m 53 Y s 1957 893 m cl s 1957 840 m -56 Y s 1957 784 m cl s 1993 840 m -18 X s 1975 840 m cl s 1993 840 m 18 X s 2011 840 m cl s 1993 840 m 53 Y
 s 1993 893 m cl s 1993 840 m -56 Y s 1993 784 m cl s 2029 856 m -18 X s 2011 856 m cl s 2029 856 m 18 X s 2047 856 m cl s 2029 856 m 50 Y s 2029 906 m cl s 2029 856 m -53 Y s 2029 803 m cl s 2065 822 m -18 X s 2047 822 m cl s 2065 822 m 18 X s 2083
 822 m cl s 2065 822 m 58 Y s 2065 880 m cl s 2065 822 m -61 Y s 2065 761 m cl s 2101 748 m -18 X s 2083 748 m cl s 2101 748 m 18 X s 2119 748 m cl s 2101 748 m 77 Y s 2101 825 m cl s 2101 748 m -87 Y s 2101 661 m cl s 2136 710 m -17 X s 2119 710 m
 cl s 2136 710 m 18 X s 2154 710 m cl s 2136 710 m 90 Y s 2136 800 m cl s 2136 710 m -76 Y s 2136 634 m cl s /w 31 def /w2 {w 2 div} def /w3 {w 3 div} def 381 777 417 840 452 856 488 840 524 822 560 822 596 802 632 870 667 882 703 914 739 905 775 924
 811 948 847 1007 882 986 918 1020 954 1036 990 1075 1026 1108 1062 1091 1097 1132 1133 1186 1169 1202 1205 1281 1241 1304 1276 1329 1312 1377 1348 1393 1384 1410 1420 1416 1456 1418 1491 1407 1527 1389 1563 1351 1599 1331 1635 1279 1671 1221 1706
 1178 1742 1121 1778 1064 1814 991 1850 940 1886 894 1921 870 1957 840 1993 840 2029 856 2065 822 2101 748 2136 710 50 { m20} R 0 1 1 c 1 1 0 c black 1 1 0 c 363 800 m 36 12 d 35 12 d 36 12 d 36 13 d 36 13 d 36 14 d 36 14 d 35 15 d 36 14 d 36 16 d 36
 15 d 36 17 d 36 17 d 35 17 d 36 19 d 36 20 d 36 21 d 36 22 d 36 24 d 35 26 d 18 14 d 18 15 d 18 17 d 18 18 d 9 10 d 9 12 d 9 12 d 9 13 d 18 25 d 18 23 d 18 21 d 18 19 d 35 32 d 18 14 d 18 12 d 18 10 d 9 4 d 9 4 d 9 3 d 9 3 d 9 2 d 9 2 d 9 1 d 9 1 d
 18 X 9 -1 d 9 -1 d 9 -2 d 9 -2 d 9 -3 d 8 -4 d 9 -4 d 9 -4 d 18 -10 d 18 -13 d 36 -30 d 18 -18 d 18 -19 d 18 -22 d 18 -22 d 18 -25 d 18 -26 d 17 -27 d 18 -29 d 18 -29 d 18 -29 d 18 -30 d 18 -28 d 18 -27 d 18 -25 d 36 -42 d 36 -33 d 35 -26 d 36 -22 d
 36 -20 d 36 -18 d 36 -17 d 36 -18 d 35 -17 d -126 Y -35 36 d -36 32 d -36 29 d -36 27 d -36 25 d -36 27 d -35 34 d -36 42 d -36 52 d -18 29 d -18 29 d -18 31 d -18 31 d -18 31 d -18 30 d -18 30 d -17 29 d -18 28 d -18 27 d -18 24 d -18 23 d -18 22 d
 -18 19 d -36 31 d -18 13 d -18 10 d -9 5 d -9 4 d -8 3 d -9 3 d -9 2 d -9 2 d -9 2 d -9 1 d -18 X -9 -1 d -9 -1 d -9 -2 d -9 -2 d -9 -3 d -9 -3 d -9 -4 d -9 -4 d -18 -11 d -18 -12 d -18 -15 d -35 -37 d -18 -21 d -18 -23 d -18 -25 d -18 -25 d -9 -11
 d -9 -11 d -9 -10 d -9 -10 d -18 -20 d -18 -18 d -18 -18 d -18 -15 d -35 -29 d -36 -24 d -36 -23 d -36 -20 d -36 -20 d -36 -19 d -35 -19 d -36 -19 d -36 -18 d -36 -18 d -36 -18 d -36 -18 d -35 -17 d -36 -16 d -36 -16 d -36 -15 d -36 -14 d -36 -14 d
 -35 -12 d -36 -13 d f 0 1 1 c 0 1 0 c black 0 1 0 c 363 790 m 36 11 d 35 13 d 36 12 d 36 14 d 36 13 d 36 15 d 36 14 d 35 15 d 36 15 d 36 16 d 36 16 d 36 16 d 36 18 d 35 18 d 36 19 d 36 19 d 36 21 d 36 23 d 36 24 d 35 26 d 18 15 d 18 15 d 18 17 d 18
 19 d 9 10 d 9 11 d 9 12 d 9 13 d 18 25 d 18 23 d 18 21 d 18 20 d 35 33 d 18 14 d 18 12 d 18 10 d 9 5 d 9 3 d 9 4 d 9 2 d 9 3 d 9 2 d 9 1 d 9 1 d 18 X 9 -1 d 9 -2 d 9 -2 d 9 -2 d 9 -3 d 8 -3 d 9 -4 d 9 -5 d 18 -10 d 18 -12 d 36 -31 d 18 -18 d 18 -20
 d 18 -22 d 18 -23 d 18 -25 d 18 -26 d 17 -28 d 18 -29 d 18 -29 d 18 -30 d 18 -30 d 18 -28 d 18 -28 d 18 -25 d 36 -44 d 36 -35 d 35 -28 d 36 -23 d 36 -21 d 36 -19 d 36 -18 d 36 -19 d 35 -19 d -66 Y -35 29 d -36 28 d -36 25 d -36 24 d -36 23 d -36 25
 d -35 31 d -36 39 d -36 49 d -18 28 d -18 29 d -18 30 d -18 30 d -18 31 d -18 30 d -18 30 d -17 28 d -18 28 d -18 26 d -18 24 d -18 22 d -18 21 d -18 19 d -36 31 d -18 13 d -18 10 d -9 5 d -9 3 d -8 4 d -9 3 d -9 2 d -9 2 d -9 1 d -9 1 d -9 1 d -9
 -1 d -9 X -9 -2 d -9 -1 d -9 -2 d -9 -3 d -9 -4 d -9 -3 d -9 -5 d -18 -10 d -18 -13 d -18 -14 d -35 -36 d -18 -20 d -18 -23 d -18 -24 d -18 -25 d -9 -12 d -9 -11 d -9 -10 d -9 -11 d -18 -19 d -18 -18 d -18 -17 d -18 -15 d -35 -28 d -36 -24 d -36 -22
 d -36 -21 d -36 -20 d -36 -19 d -35 -18 d -36 -18 d -36 -18 d -36 -18 d -36 -17 d -36 -17 d -35 -17 d -36 -15 d -36 -15 d -36 -15 d -36 -14 d -36 -13 d -35 -12 d -36 -11 d f 0 0 1 c 9 lw black 0 0 1 c 363 778 m 36 11 d 35 13 d 36 13 d 36 13 d 36 14
 d 36 15 d 36 15 d 35 15 d 36 16 d 36 17 d 36 17 d 36 17 d 36 17 d 35 19 d 36 19 d 36 19 d 36 21 d 36 22 d 36 25 d 35 27 d 18 15 d 18 16 d 18 17 d 18 19 d 9 11 d 9 10 d 9 12 d 9 12 d 18 25 d 18 24 d 18 22 d 18 20 d 35 34 d 18 14 d 18 13 d 18 10 d 9 4
 d 9 4 d 9 3 d 9 3 d 9 2 d 9 2 d 9 1 d 9 1 d 18 X 9 -1 d 9 -1 d 9 -2 d 9 -3 d 9 -2 d 8 -4 d 9 -4 d 9 -4 d 18 -11 d 18 -12 d 36 -31 d 18 -19 d 18 -20 d 18 -22 d 18 -24 d 18 -25 d 18 -27 d 17 -28 d 18 -29 d 18 -30 d 18 -30 d 18 -30 d 18 -30 d 18 -28 d
 18 -26 d 36 -46 d 36 -37 d 35 -29 d 36 -24 d 36 -22 d 36 -21 d 36 -22 d 36 -22 d 35 -23 d s black 3 lw 381 777 m -18 X s 363 777 m cl s 381 777 m 18 X s 399 777 m cl s 381 777 m 69 Y s 381 846 m cl s 381 777 m -75 Y s 381 702 m cl s 417 840 m -18 X
 s 399 840 m cl s 417 840 m 17 X s 434 840 m cl s 417 840 m 53 Y s 417 893 m cl s 417 840 m -56 Y s 417 784 m cl s 452 856 m -18 X s 434 856 m cl s 452 856 m 18 X s 470 856 m cl s 452 856 m 50 Y s 452 906 m cl s 452 856 m -53 Y s 452 803 m cl s 488
 840 m -18 X s 470 840 m cl s 488 840 m 18 X s 506 840 m cl s 488 840 m 53 Y s 488 893 m cl s 488 840 m -56 Y s 488 784 m cl s 524 822 m -18 X s 506 822 m cl s 524 822 m 18 X s 542 822 m cl s 524 822 m 58 Y s 524 880 m cl s 524 822 m -61 Y s 524 761
 m cl s 560 822 m -18 X s 542 822 m cl s 560 822 m 18 X s 578 822 m cl s 560 822 m 58 Y s 560 880 m cl s 560 822 m -61 Y s 560 761 m cl s 596 802 m -18 X s 578 802 m cl s 596 802 m 18 X s 614 802 m cl s 596 802 m 62 Y s 596 864 m cl s 596 802 m -67 Y
 s 596 735 m cl s 632 870 m -18 X s 614 870 m cl s 632 870 m 17 X s 649 870 m cl s 632 870 m 47 Y s 632 917 m cl s 632 870 m -50 Y s 632 820 m cl s 667 882 m -18 X s 649 882 m cl s 667 882 m 18 X s 685 882 m cl s 667 882 m 45 Y s 667 927 m cl s 667
 882 m -47 Y s 667 835 m cl s 703 914 m -18 X s 685 914 m cl s 703 914 m 18 X s 721 914 m cl s 703 914 m 40 Y s 703 954 m cl s 703 914 m -40 Y s 703 874 m cl s 739 905 m -18 X s 721 905 m cl s 739 905 m 18 X s 757 905 m cl s 739 905 m 41 Y s 739 946
 m cl s 739 905 m -43 Y s 739 862 m cl s 775 924 m -18 X s 757 924 m cl s 775 924 m 18 X s 793 924 m cl s 775 924 m 38 Y s 775 962 m cl s 775 924 m -40 Y s 775 884 m cl s 811 948 m -18 X s 793 948 m cl s 811 948 m 18 X s 829 948 m cl s 811 948 m 34 Y
 s 811 982 m cl s 811 948 m -36 Y s 811 912 m cl s 847 1007 m -18 X s 829 1007 m cl s 847 1007 m 17 X s 864 1007 m cl s 847 1007 m 27 Y s 847 1034 m cl s 847 1007 m -28 Y s 847 979 m cl s 882 986 m -18 X s 864 986 m cl s 882 986 m 18 X s 900 986 m cl
 s 882 986 m 30 Y s 882 1016 m cl s 882 986 m -30 Y s 882 956 m cl s 918 1020 m -18 X s 900 1020 m cl s 918 1020 m 18 X s 936 1020 m cl s 918 1020 m 26 Y s 918 1046 m cl s 918 1020 m -26 Y s 918 994 m cl s 954 1036 m -18 X s 936 1036 m cl s 954 1036
 m 18 X s 972 1036 m cl s 954 1036 m 24 Y s 954 1060 m cl s 954 1036 m -24 Y s 954 1012 m cl s 990 1075 m -18 X s 972 1075 m cl s 990 1075 m 18 X s 1008 1075 m cl s 990 1075 m 21 Y s 990 1096 m cl s 990 1075 m -21 Y s 990 1054 m cl s 1026 1108 m -18
 X s 1008 1108 m cl s 1026 1108 m 18 X s 1044 1108 m cl s 1026 1108 m 18 Y s 1026 1126 m cl s 1026 1108 m -18 Y s 1026 1090 m cl s 1062 1091 m -18 X s 1044 1091 m cl s 1062 1091 m 17 X s 1079 1091 m cl s 1062 1091 m 20 Y s 1062 1111 m cl s 1062 1091
 m -19 Y s 1062 1072 m cl s 1097 1132 m -18 X s 1079 1132 m cl s 1097 1132 m 18 X s 1115 1132 m cl s 1097 1132 m 17 Y s 1097 1149 m cl s 1097 1132 m -17 Y s 1097 1115 m cl s 1133 1186 m -18 X s 1115 1186 m cl s 1133 1186 m 18 X s 1151 1186 m cl s
 1133 1186 m 13 Y s 1133 1199 m cl s 1133 1186 m -13 Y s 1133 1173 m cl s 1169 1202 m -18 X s 1151 1202 m cl s 1169 1202 m 18 X s 1187 1202 m cl s 1169 1202 m 12 Y s 1169 1214 m cl s 1169 1202 m -12 Y s 1169 1190 m cl s 1205 1281 m -18 X s 1187 1281
 m cl s 1205 1281 m 18 X s 1223 1281 m cl s 1205 1281 m 9 Y s 1205 1290 m cl s 1205 1281 m -9 Y s 1205 1272 m cl s 1241 1304 m -18 X s 1223 1304 m cl s 1241 1304 m 18 X s 1259 1304 m cl s 1241 1304 m 8 Y s 1241 1312 m cl s 1241 1304 m -8 Y s 1241
 1296 m cl s 1276 1329 m -17 X s 1259 1329 m cl s 1276 1329 m 18 X s 1294 1329 m cl s 1276 1329 m 7 Y s 1276 1336 m cl s 1276 1329 m -8 Y s 1276 1321 m cl s 1312 1377 m -18 X s 1294 1377 m cl s 1312 1377 m 18 X s 1330 1377 m cl s 1312 1377 m 6 Y s
 1312 1383 m cl s 1312 1377 m -7 Y s 1312 1370 m cl s 1348 1393 m -18 X s 1330 1393 m cl s 1348 1393 m 18 X s 1366 1393 m cl s 1348 1393 m 6 Y s 1348 1399 m cl s 1348 1393 m -6 Y s 1348 1387 m cl s 1384 1410 m -18 X s 1366 1410 m cl s 1384 1410 m 18
 X s 1402 1410 m cl s 1384 1410 m 5 Y s 1384 1415 m cl s 1384 1410 m -6 Y s 1384 1404 m cl s 1420 1416 m -18 X s 1402 1416 m cl s 1420 1416 m 18 X s 1438 1416 m cl s 1420 1416 m 6 Y s 1420 1422 m cl s 1420 1416 m -5 Y s 1420 1411 m cl s 1456 1418 m
 -18 X s 1438 1418 m cl s 1456 1418 m 18 X s 1474 1418 m cl s 1456 1418 m 6 Y s 1456 1424 m cl s 1456 1418 m -5 Y s 1456 1413 m cl s 1491 1407 m -17 X s 1474 1407 m cl s 1491 1407 m 18 X s 1509 1407 m cl s 1491 1407 m 5 Y s 1491 1412 m cl s 1491 1407
 m -6 Y s 1491 1401 m cl s 1527 1389 m -18 X s 1509 1389 m cl s 1527 1389 m 18 X s 1545 1389 m cl s 1527 1389 m 6 Y s 1527 1395 m cl s 1527 1389 m -6 Y s 1527 1383 m cl s 1563 1351 m -18 X s 1545 1351 m cl s 1563 1351 m 18 X s 1581 1351 m cl s 1563
 1351 m 7 Y s 1563 1358 m cl s 1563 1351 m -7 Y s 1563 1344 m cl s 1599 1331 m -18 X s 1581 1331 m cl s 1599 1331 m 18 X s 1617 1331 m cl s 1599 1331 m 7 Y s 1599 1338 m cl s 1599 1331 m -8 Y s 1599 1323 m cl s 1635 1279 m -18 X s 1617 1279 m cl s
 1635 1279 m 18 X s 1653 1279 m cl s 1635 1279 m 9 Y s 1635 1288 m cl s 1635 1279 m -9 Y s 1635 1270 m cl s 1671 1221 m -18 X s 1653 1221 m cl s 1671 1221 m 18 X s 1689 1221 m cl s 1671 1221 m 12 Y s 1671 1233 m cl s 1671 1221 m -11 Y s 1671 1210 m
 cl s 1706 1178 m -17 X s 1689 1178 m cl s 1706 1178 m 18 X s 1724 1178 m cl s 1706 1178 m 14 Y s 1706 1192 m cl s 1706 1178 m -13 Y s 1706 1165 m cl s 1742 1121 m -18 X s 1724 1121 m cl s 1742 1121 m 18 X s 1760 1121 m cl s 1742 1121 m 17 Y s 1742
 1138 m cl s 1742 1121 m -18 Y s 1742 1103 m cl s 1778 1064 m -18 X s 1760 1064 m cl s 1778 1064 m 18 X s 1796 1064 m cl s 1778 1064 m 21 Y s 1778 1085 m cl s 1778 1064 m -22 Y s 1778 1042 m cl s 1814 991 m -18 X s 1796 991 m cl s 1814 991 m 18 X s
 1832 991 m cl s 1814 991 m 29 Y s 1814 1020 m cl s 1814 991 m -29 Y s 1814 962 m cl s 1850 940 m -18 X s 1832 940 m cl s 1850 940 m 18 X s 1868 940 m cl s 1850 940 m 36 Y s 1850 976 m cl s 1850 940 m -36 Y s 1850 904 m cl s 1886 894 m -18 X s 1868
 894 m cl s 1886 894 m 18 X s 1904 894 m cl s 1886 894 m 43 Y s 1886 937 m cl s 1886 894 m -45 Y s 1886 849 m cl s 1921 870 m -17 X s 1904 870 m cl s 1921 870 m 18 X s 1939 870 m cl s 1921 870 m 47 Y s 1921 917 m cl s 1921 870 m -50 Y s 1921 820 m cl
 s 1957 840 m -18 X s 1939 840 m cl s 1957 840 m 18 X s 1975 840 m cl s 1957 840 m 53 Y s 1957 893 m cl s 1957 840 m -56 Y s 1957 784 m cl s 1993 840 m -18 X s 1975 840 m cl s 1993 840 m 18 X s 2011 840 m cl s 1993 840 m 53 Y s 1993 893 m cl s 1993
 840 m -56 Y s 1993 784 m cl s 2029 856 m -18 X s 2011 856 m cl s 2029 856 m 18 X s 2047 856 m cl s 2029 856 m 50 Y s 2029 906 m cl s 2029 856 m -53 Y s 2029 803 m cl s 2065 822 m -18 X s 2047 822 m cl s 2065 822 m 18 X s 2083 822 m cl s 2065 822 m
 58 Y s 2065 880 m cl s 2065 822 m -61 Y s 2065 761 m cl s 2101 748 m -18 X s 2083 748 m cl s 2101 748 m 18 X s 2119 748 m cl s 2101 748 m 77 Y s 2101 825 m cl s 2101 748 m -87 Y s 2101 661 m cl s 2136 710 m -17 X s 2119 710 m cl s 2136 710 m 18 X s
 2154 710 m cl s 2136 710 m 90 Y s 2136 800 m cl s 2136 710 m -76 Y s 2136 634 m cl s 381 777 417 840 452 856 488 840 524 822 560 822 596 802 632 870 667 882 703 914 739 905 775 924 811 948 847 1007 882 986 918 1020 954 1036 990 1075 1026 1108 1062
 1091 1097 1132 1133 1186 1169 1202 1205 1281 1241 1304 1276 1329 1312 1377 1348 1393 1384 1410 1420 1416 1456 1418 1491 1407 1527 1389 1563 1351 1599 1331 1635 1279 1671 1221 1706 1178 1742 1121 1778 1064 1814 991 1850 940 1886 894 1921 870 1957 840
 1993 840 2029 856 2065 822 2101 748 2136 710 50 { m20} R 0.52 0.76 0.64 c[ 4 8] 0 sd 9 lw black 0.52 0.76 0.64 c 363 766 m 36 9 d 35 10 d 36 10 d 36 10 d 36 11 d 36 12 d 36 12 d 35 12 d 36 14 d 36 13 d 36 15 d 36 16 d 36 17 d 35 18 d 36 19 d 36 21 d
 36 23 d 36 25 d 36 28 d 35 31 d 18 17 d 18 19 d 18 20 d 18 21 d 9 12 d 9 12 d 9 13 d 9 13 d 9 14 d 9 14 d 18 25 d 18 24 d 18 21 d 35 36 d 18 15 d 18 13 d 9 5 d 9 5 d 9 5 d 9 4 d 9 3 d 9 3 d 9 3 d 9 1 d 9 2 d 9 X 9 1 d 9 -1 d 9 -1 d 9 -1 d 9 -2 d 9
 -2 d 9 -3 d 8 -4 d 9 -4 d 9 -5 d 18 -10 d 18 -13 d 36 -33 d 18 -19 d 18 -22 d 18 -23 d 18 -26 d 18 -28 d 18 -30 d 17 -32 d 18 -35 d 18 -36 d 18 -39 d 18 -41 d 18 -43 d 18 -45 d 18 -47 d 36 -101 d 36 -109 d 7 -24 d s 0.54 0.66 0.63 c black 0.54 0.66
 0.63 c 570 634 m 8 5 d s 578 639 m 36 28 d 35 26 d 36 24 d 36 24 d 36 22 d 36 22 d 36 20 d 35 19 d 36 18 d 36 16 d 36 16 d 36 14 d 36 13 d 35 12 d 36 11 d 36 10 d 36 8 d 36 7 d 36 6 d 35 5 d 36 4 d 18 2 d 18 1 d 18 1 d 72 X 18 -1 d 17 X 18 -2 d 18
 -1 d 18 -2 d 36 -4 d 36 -6 d 36 -7 d 36 -8 d 35 -9 d 36 -10 d 36 -11 d 36 -13 d 36 -14 d 36 -15 d 35 -16 d 36 -17 d 36 -18 d 36 -20 d 36 -21 d 36 -22 d 35 -23 d s black[  ] 0 sd 3 lw 363 634 m 1791 X s 363 659 m -25 Y s 432 646 m -12 Y s 501 646 m
 -12 Y s 570 646 m -12 Y s 638 659 m -25 Y s 707 646 m -12 Y s 776 646 m -12 Y s 845 646 m -12 Y s 914 659 m -25 Y s 983 646 m -12 Y s 1052 646 m -12 Y s 1121 646 m -12 Y s 1190 659 m -25 Y s 1259 646 m -12 Y s 1327 646 m -12 Y s 1396 646 m -12 Y s
 1465 659 m -25 Y s 1534 646 m -12 Y s 1603 646 m -12 Y s 1672 646 m -12 Y s 1741 659 m -25 Y s 1810 646 m -12 Y s 1879 646 m -12 Y s 1948 646 m -12 Y s 2017 659 m -25 Y s 2017 659 m -25 Y s 2085 646 m -12 Y s 363 1484 m 1791 X s 363 1459 m 25 Y s
 432 1471 m 13 Y s 501 1471 m 13 Y s 570 1471 m 13 Y s 638 1459 m 25 Y s 707 1471 m 13 Y s 776 1471 m 13 Y s 845 1471 m 13 Y s 914 1459 m 25 Y s 983 1471 m 13 Y s 1052 1471 m 13 Y s 1121 1471 m 13 Y s 1190 1459 m 25 Y s 1259 1471 m 13 Y s 1327 1471 m
 13 Y s 1396 1471 m 13 Y s 1465 1459 m 25 Y s 1534 1471 m 13 Y s 1603 1471 m 13 Y s 1672 1471 m 13 Y s 1741 1459 m 25 Y s 1810 1471 m 13 Y s 1879 1471 m 13 Y s 1948 1471 m 13 Y s 2017 1459 m 25 Y s 2017 1459 m 25 Y s 2085 1471 m 13 Y s 363 634 m 850
 Y s 390 656 m -27 X s 390 710 m -27 X s 390 748 m -27 X s 390 777 m -27 X s 390 802 m -27 X s 390 822 m -27 X s 390 840 m -27 X s 390 856 m -27 X s 417 870 m -54 X s 390 962 m -27 X s 390 1016 m -27 X s 390 1054 m -27 X s 390 1084 m -27 X s 390 1108
 m -27 X s 390 1128 m -27 X s 390 1146 m -27 X s 390 1162 m -27 X s 417 1176 m -54 X s 390 1268 m -27 X s 390 1322 m -27 X s 390 1360 m -27 X s 390 1390 m -27 X s 390 1414 m -27 X s 390 1434 m -27 X s 390 1452 m -27 X s 390 1468 m -27 X s 417 1482 m
 -54 X s 2154 634 m 850 Y s 2127 656 m 27 X s 2127 710 m 27 X s 2127 748 m 27 X s 2127 777 m 27 X s 2127 802 m 27 X s 2127 822 m 27 X s 2127 840 m 27 X s 2127 856 m 27 X s 2101 870 m 53 X s 2127 962 m 27 X s 2127 1016 m 27 X s 2127 1054 m 27 X s 2127
 1084 m 27 X s 2127 1108 m 27 X s 2127 1128 m 27 X s 2127 1146 m 27 X s 2127 1162 m 27 X s 2101 1176 m 53 X s 2127 1268 m 27 X s 2127 1322 m 27 X s 2127 1360 m 27 X s 2127 1390 m 27 X s 2127 1414 m 27 X s 2127 1434 m 27 X s 2127 1452 m 27 X s 2127
 1468 m 27 X s 2101 1482 m 53 X s
 gsave  2268 1077 0 461 C 677.708 1215.31 t 0 r /Helvetica findfont 58.7189 sf 0 0 m (4e) show NC gr  1 1 1 c 453 161 454 1269 bf black
 gsave  2268 1077 0 461 C 566.929 1371.71 t 0 r /Helvetica-Bold findfont 48.9324 sf 0 0 m (MC15) show NC gr  510 1390 m20
 gsave  2268 1077 0 461 C 566.929 1293.51 t 0 r /Helvetica-Bold findfont 48.9324 sf 0 0 m (Projection of Signal pdf) show NC gr  0 0 1 c 9 lw 471 1309 m 79 X s black 3 lw 1 1 1 c 2268 461 0 0 bf black 1 1 1 c 1791 364 363 74 bf black 1791 364 363 74
 bl 363 74 m 1791 X s
 gsave  2268 461 0 0 C 1915.83 13.0329 t 0 r /Helvetica findfont 22.9045 sf 0 0 m (4l Invariant Mass \(GeV\)) show NC gr  363 85 m -11 Y s 432 79 m -5 Y s 501 79 m -5 Y s 570 79 m -5 Y s 638 85 m -11 Y s 707 79 m -5 Y s 776 79 m -5 Y s 845 79 m -5 Y
 s 914 85 m -11 Y s 983 79 m -5 Y s 1052 79 m -5 Y s 1121 79 m -5 Y s 1190 85 m -11 Y s 1259 79 m -5 Y s 1327 79 m -5 Y s 1396 79 m -5 Y s 1465 85 m -11 Y s 1534 79 m -5 Y s 1603 79 m -5 Y s 1672 79 m -5 Y s 1741 85 m -11 Y s 1810 79 m -5 Y s 1879 79
 m -5 Y s 1948 79 m -5 Y s 2017 85 m -11 Y s 2017 85 m -11 Y s 2085 79 m -5 Y s
 gsave  2268 461 0 0 C 335.596 55.3896 t 0 r /Helvetica findfont 22.9045 sf 0 0 m (1520) show NC gr 
 gsave  2268 461 0 0 C 609.286 55.3896 t 0 r /Helvetica findfont 22.9045 sf 0 0 m (1540) show NC gr 
 gsave  2268 461 0 0 C 886.234 55.3896 t 0 r /Helvetica findfont 22.9045 sf 0 0 m (1560) show NC gr 
 gsave  2268 461 0 0 C 1163.18 55.3896 t 0 r /Helvetica findfont 22.9045 sf 0 0 m (1580) show NC gr 
 gsave  2268 461 0 0 C 1436.87 55.3896 t 0 r /Helvetica findfont 22.9045 sf 0 0 m (1600) show NC gr 
 gsave  2268 461 0 0 C 1713.82 55.3896 t 0 r /Helvetica findfont 22.9045 sf 0 0 m (1620) show NC gr 
 gsave  2268 461 0 0 C 1987.51 55.3896 t 0 r /Helvetica findfont 22.9045 sf 0 0 m (1640) show NC gr  363 438 m 1791 X s 363 427 m 11 Y s 432 433 m 5 Y s 501 433 m 5 Y s 570 433 m 5 Y s 638 427 m 11 Y s 707 433 m 5 Y s 776 433 m 5 Y s 845 433 m 5 Y s
 914 427 m 11 Y s 983 433 m 5 Y s 1052 433 m 5 Y s 1121 433 m 5 Y s 1190 427 m 11 Y s 1259 433 m 5 Y s 1327 433 m 5 Y s 1396 433 m 5 Y s 1465 427 m 11 Y s 1534 433 m 5 Y s 1603 433 m 5 Y s 1672 433 m 5 Y s 1741 427 m 11 Y s 1810 433 m 5 Y s 1879 433
 m 5 Y s 1948 433 m 5 Y s 2017 427 m 11 Y s 2017 427 m 11 Y s 2085 433 m 5 Y s 363 74 m 364 Y s 417 74 m -54 X s 390 81 m -27 X s 390 88 m -27 X s 390 96 m -27 X s 390 103 m -27 X s 417 110 m -54 X s 390 118 m -27 X s 390 125 m -27 X s 390 132 m -27
 X s 390 139 m -27 X s 417 147 m -54 X s 390 154 m -27 X s 390 161 m -27 X s 390 169 m -27 X s 390 176 m -27 X s 417 183 m -54 X s 390 190 m -27 X s 390 198 m -27 X s 390 205 m -27 X s 390 212 m -27 X s 417 220 m -54 X s 390 227 m -27 X s 390 234 m
 -27 X s 390 241 m -27 X s 390 249 m -27 X s 417 256 m -54 X s 390 263 m -27 X s 390 271 m -27 X s 390 278 m -27 X s 390 285 m -27 X s 417 293 m -54 X s 390 300 m -27 X s 390 307 m -27 X s 390 314 m -27 X s 390 322 m -27 X s 417 329 m -54 X s 390 336
 m -27 X s 390 344 m -27 X s 390 351 m -27 X s 390 358 m -27 X s 417 365 m -54 X s 390 373 m -27 X s 390 380 m -27 X s 390 387 m -27 X s 390 395 m -27 X s 417 402 m -54 X s 390 409 m -27 X s 390 416 m -27 X s 390 424 m -27 X s 390 431 m -27 X s 417
 438 m -54 X s
 gsave  2268 461 0 0 C 329.08 65.1643 t 0 r /Helvetica findfont 22.9045 sf 0 0 m (\2555) show NC gr 
 gsave  2268 461 0 0 C 329.08 101.005 t 0 r /Helvetica findfont 22.9045 sf 0 0 m (\2554) show NC gr 
 gsave  2268 461 0 0 C 329.08 140.103 t 0 r /Helvetica findfont 22.9045 sf 0 0 m (\2553) show NC gr 
 gsave  2268 461 0 0 C 329.08 175.944 t 0 r /Helvetica findfont 22.9045 sf 0 0 m (\2552) show NC gr 
 gsave  2268 461 0 0 C 332.338 211.784 t 0 r /Helvetica findfont 22.9045 sf 0 0 m (\2551) show NC gr 
 gsave  2268 461 0 0 C 335.596 247.624 t 0 r /Helvetica findfont 22.9045 sf 0 0 m (0) show NC gr 
 gsave  2268 461 0 0 C 338.854 283.465 t 0 r /Helvetica findfont 22.9045 sf 0 0 m (1) show NC gr 
 gsave  2268 461 0 0 C 335.596 319.305 t 0 r /Helvetica findfont 22.9045 sf 0 0 m (2) show NC gr 
 gsave  2268 461 0 0 C 335.596 358.403 t 0 r /Helvetica findfont 22.9045 sf 0 0 m (3) show NC gr 
 gsave  2268 461 0 0 C 335.596 394.244 t 0 r /Helvetica findfont 22.9045 sf 0 0 m (4) show NC gr 
 gsave  2268 461 0 0 C 335.596 430.084 t 0 r /Helvetica findfont 22.9045 sf 0 0 m (5) show NC gr  2154 74 m 364 Y s 2101 74 m 53 X s 2127 81 m 27 X s 2127 88 m 27 X s 2127 96 m 27 X s 2127 103 m 27 X s 2101 110 m 53 X s 2127 118 m 27 X s 2127 125 m
 27 X s 2127 132 m 27 X s 2127 139 m 27 X s 2101 147 m 53 X s 2127 154 m 27 X s 2127 161 m 27 X s 2127 169 m 27 X s 2127 176 m 27 X s 2101 183 m 53 X s 2127 190 m 27 X s 2127 198 m 27 X s 2127 205 m 27 X s 2127 212 m 27 X s 2101 220 m 53 X s 2127 227
 m 27 X s 2127 234 m 27 X s 2127 241 m 27 X s 2127 249 m 27 X s 2101 256 m 53 X s 2127 263 m 27 X s 2127 271 m 27 X s 2127 278 m 27 X s 2127 285 m 27 X s 2101 293 m 53 X s 2127 300 m 27 X s 2127 307 m 27 X s 2127 314 m 27 X s 2127 322 m 27 X s 2101
 329 m 53 X s 2127 336 m 27 X s 2127 344 m 27 X s 2127 351 m 27 X s 2127 358 m 27 X s 2101 365 m 53 X s 2127 373 m 27 X s 2127 380 m 27 X s 2127 387 m 27 X s 2127 395 m 27 X s 2101 402 m 53 X s 2127 409 m 27 X s 2127 416 m 27 X s 2127 424 m 27 X s
 2127 431 m 27 X s 2101 438 m 53 X s 6 lw 0.2 0.8 0.2 c black 3 lw 0.2 0.8 0.2 c 363 256 m -3 Y 36 X 33 Y 35 X 3 Y 36 X -19 Y 36 X -21 Y 36 X -8 Y 36 X -22 Y 36 X 30 Y 35 X -2 Y 36 X 12 Y 36 X -23 Y 72 X 5 Y 36 X 49 Y 35 X -50 Y 36 X 18 Y 36 X -6 Y
 36 X 30 Y 36 X 20 Y 36 X -81 Y 35 X 23 Y 36 X 54 Y 36 X -69 Y 36 X 109 Y 36 X -90 Y 36 X -68 Y 35 X 90 Y 36 X -38 Y 36 X 15 Y 36 X 3 Y 36 X 31 Y 36 X -8 Y 35 X 7 Y 36 X -64 Y 36 X 76 Y 36 X -45 Y 36 X -25 Y 36 X 39 Y 35 X 1 Y 36 X 4 Y 36 X -20 Y 36
 X -2 Y 36 X -1 Y 36 X 8 Y 35 X -1 Y 36 X 16 Y 36 X 25 Y 36 X -11 Y 36 X -29 Y 36 X -5 Y 35 X 10 Y f 6 lw black 0.2 0.8 0.2 c black 363 253 m 36 X 33 Y 35 X 3 Y 36 X -19 Y 36 X -21 Y 36 X -8 Y 36 X -22 Y 36 X 30 Y 35 X -2 Y 36 X 12 Y 36 X -23 Y 72 X
 5 Y 36 X 49 Y 35 X -50 Y 36 X 18 Y 36 X -6 Y 36 X 30 Y 36 X 20 Y 36 X -81 Y 35 X 23 Y 36 X 54 Y 36 X -69 Y 36 X 109 Y 36 X -90 Y 36 X -68 Y 35 X 90 Y 36 X -38 Y 36 X 15 Y 36 X 3 Y 36 X 31 Y 36 X -8 Y 35 X 7 Y 36 X -64 Y 36 X 76 Y 36 X -45 Y 36 X -25
 Y 36 X 39 Y 35 X 1 Y 36 X 4 Y 36 X -20 Y 36 X -2 Y 36 X -1 Y 36 X 8 Y 35 X -1 Y 36 X 16 Y 36 X 25 Y 36 X -11 Y 36 X -29 Y 36 X -5 Y 35 X s 3 lw 363 74 m 1791 X s 363 85 m -11 Y s 432 79 m -5 Y s 501 79 m -5 Y s 570 79 m -5 Y s 638 85 m -11 Y s 707
 79 m -5 Y s 776 79 m -5 Y s 845 79 m -5 Y s 914 85 m -11 Y s 983 79 m -5 Y s 1052 79 m -5 Y s 1121 79 m -5 Y s 1190 85 m -11 Y s 1259 79 m -5 Y s 1327 79 m -5 Y s 1396 79 m -5 Y s 1465 85 m -11 Y s 1534 79 m -5 Y s 1603 79 m -5 Y s 1672 79 m -5 Y s
 1741 85 m -11 Y s 1810 79 m -5 Y s 1879 79 m -5 Y s 1948 79 m -5 Y s 2017 85 m -11 Y s 2017 85 m -11 Y s 2085 79 m -5 Y s 363 438 m 1791 X s 363 427 m 11 Y s 432 433 m 5 Y s 501 433 m 5 Y s 570 433 m 5 Y s 638 427 m 11 Y s 707 433 m 5 Y s 776 433 m
 5 Y s 845 433 m 5 Y s 914 427 m 11 Y s 983 433 m 5 Y s 1052 433 m 5 Y s 1121 433 m 5 Y s 1190 427 m 11 Y s 1259 433 m 5 Y s 1327 433 m 5 Y s 1396 433 m 5 Y s 1465 427 m 11 Y s 1534 433 m 5 Y s 1603 433 m 5 Y s 1672 433 m 5 Y s 1741 427 m 11 Y s 1810
 433 m 5 Y s 1879 433 m 5 Y s 1948 433 m 5 Y s 2017 427 m 11 Y s 2017 427 m 11 Y s 2085 433 m 5 Y s 363 74 m 364 Y s 417 74 m -54 X s 390 81 m -27 X s 390 88 m -27 X s 390 96 m -27 X s 390 103 m -27 X s 417 110 m -54 X s 390 118 m -27 X s 390 125 m
 -27 X s 390 132 m -27 X s 390 139 m -27 X s 417 147 m -54 X s 390 154 m -27 X s 390 161 m -27 X s 390 169 m -27 X s 390 176 m -27 X s 417 183 m -54 X s 390 190 m -27 X s 390 198 m -27 X s 390 205 m -27 X s 390 212 m -27 X s 417 220 m -54 X s 390 227
 m -27 X s 390 234 m -27 X s 390 241 m -27 X s 390 249 m -27 X s 417 256 m -54 X s 390 263 m -27 X s 390 271 m -27 X s 390 278 m -27 X s 390 285 m -27 X s 417 293 m -54 X s 390 300 m -27 X s 390 307 m -27 X s 390 314 m -27 X s 390 322 m -27 X s 417
 329 m -54 X s 390 336 m -27 X s 390 344 m -27 X s 390 351 m -27 X s 390 358 m -27 X s 417 365 m -54 X s 390 373 m -27 X s 390 380 m -27 X s 390 387 m -27 X s 390 395 m -27 X s 417 402 m -54 X s 390 409 m -27 X s 390 416 m -27 X s 390 424 m -27 X s
 390 431 m -27 X s 417 438 m -54 X s 2154 74 m 364 Y s 2101 74 m 53 X s 2127 81 m 27 X s 2127 88 m 27 X s 2127 96 m 27 X s 2127 103 m 27 X s 2101 110 m 53 X s 2127 118 m 27 X s 2127 125 m 27 X s 2127 132 m 27 X s 2127 139 m 27 X s 2101 147 m 53 X s
 2127 154 m 27 X s 2127 161 m 27 X s 2127 169 m 27 X s 2127 176 m 27 X s 2101 183 m 53 X s 2127 190 m 27 X s 2127 198 m 27 X s 2127 205 m 27 X s 2127 212 m 27 X s 2101 220 m 53 X s 2127 227 m 27 X s 2127 234 m 27 X s 2127 241 m 27 X s 2127 249 m 27 X
 s 2101 256 m 53 X s 2127 263 m 27 X s 2127 271 m 27 X s 2127 278 m 27 X s 2127 285 m 27 X s 2101 293 m 53 X s 2127 300 m 27 X s 2127 307 m 27 X s 2127 314 m 27 X s 2127 322 m 27 X s 2101 329 m 53 X s 2127 336 m 27 X s 2127 344 m 27 X s 2127 351 m 27
 X s 2127 358 m 27 X s 2101 365 m 53 X s 2127 373 m 27 X s 2127 380 m 27 X s 2127 387 m 27 X s 2127 395 m 27 X s 2101 402 m 53 X s 2127 409 m 27 X s 2127 416 m 27 X s 2127 424 m 27 X s 2127 431 m 27 X s 2101 438 m 53 X s
 gr  gr showpage
end
%%EOF
