%!PS-Adobe-2.0 EPSF-2.0
%%BoundingBox:  0 0 567 384
%%Title: H4l2015_plotfit/gg_mass_signal_1200_fixed_H4l_4mu.eps: 
%%Creator: ROOT Version 5.34/10
%%CreationDate: Thu Feb 16 13:03:01 2017
%%EndComments
%%BeginProlog
80 dict begin
/s {stroke} def /l {lineto} def /m {moveto} def /t {translate} def
/r {rotate} def /rl {roll}  def /R {repeat} def
/d {rlineto} def /rm {rmoveto} def /gr {grestore} def /f {eofill} def
/c {setrgbcolor} def /black {0 setgray} def /sd {setdash} def
/cl {closepath} def /sf {scalefont setfont} def /lw {setlinewidth} def
/box {m dup 0 exch d exch 0 d 0 exch neg d cl} def
/NC{systemdict begin initclip end}def/C{NC box clip newpath}def
/bl {box s} def /bf {box f} def /Y { 0 exch d} def /X { 0 d} def 
/K {{pop pop 0 moveto} exch kshow} bind def
/ita {/ang 15 def gsave [1 0 ang dup sin exch cos div 1 0 0] concat} def 
/mp {newpath /y exch def /x exch def} def
/side {[w .77 mul w .23 mul] .385 w mul sd w 0 l currentpoint t -144 r} def
/mr {mp x y w2 0 360 arc} def /m24 {mr s} def /m20 {mr f} def
/mb {mp x y w2 add m w2 neg 0 d 0 w neg d w 0 d 0 w d cl} def
/mt {mp x y w2 add m w2 neg w neg d w 0 d cl} def
/m21 {mb f} def /m25 {mb s} def /m22 {mt f} def /m26{mt s} def
/m23 {mp x y w2 sub m w2 w d w neg 0 d cl f} def
/m27 {mp x y w2 add m w3 neg w2 neg d w3 w2 neg d w3 w2 d cl s} def
/m28 {mp x w2 sub y w2 sub w3 add m w3 0 d  0 w3 neg d w3 0 d 0 w3 d w3 0 d  0 w3 d w3 neg 0 d 0 w3 d w3 neg 0 d 0 w3 neg d w3 neg 0 d cl s } def
/m29 {mp gsave x w2 sub y w2 add w3 sub m currentpoint t 4 {side} repeat cl fill gr} def
/m30 {mp gsave x w2 sub y w2 add w3 sub m currentpoint t 4 {side} repeat cl s gr} def
/m31 {mp x y w2 sub m 0 w d x w2 sub y m w 0 d x w2 sub y w2 add m w w neg d x w2 sub y w2 sub m w w d s} def
/m32 {mp x y w2 sub m w2 w d w neg 0 d cl s} def
/m33 {mp x y w2 add m w3 neg w2 neg d w3 w2 neg d w3 w2 d cl f} def
/m34 {mp x w2 sub y w2 sub w3 add m w3 0 d  0 w3 neg d w3 0 d 0 w3 d w3 0 d  0 w3 d w3 neg 0 d 0 w3 d w3 neg 0 d 0 w3 neg d w3 neg 0 d cl f } def
/m2 {mp x y w2 sub m 0 w d x w2 sub y m w 0 d s} def
/m5 {mp x w2 sub y w2 sub m w w d x w2 sub y w2 add m w w neg d s} def
/reEncode {exch findfont dup length dict begin {1 index /FID eq  {pop pop} {def} ifelse } forall /Encoding exch def currentdict end dup /FontName get exch definefont pop } def [/Times-Bold /Times-Italic /Times-BoldItalic /Helvetica /Helvetica-Oblique
 /Helvetica-Bold /Helvetica-BoldOblique /Courier /Courier-Oblique /Courier-Bold /Courier-BoldOblique /Times-Roman /AvantGarde-Book /AvantGarde-BookOblique /AvantGarde-Demi /AvantGarde-DemiOblique /Bookman-Demi /Bookman-DemiItalic /Bookman-Light
 /Bookman-LightItalic /Helvetica-Narrow /Helvetica-Narrow-Bold /Helvetica-Narrow-BoldOblique /Helvetica-Narrow-Oblique /NewCenturySchlbk-Roman /NewCenturySchlbk-Bold /NewCenturySchlbk-BoldItalic /NewCenturySchlbk-Italic /Palatino-Bold
 /Palatino-BoldItalic /Palatino-Italic /Palatino-Roman ] {ISOLatin1Encoding reEncode } forall
%%EndProlog
%%BeginSetup
%%EndSetup
newpath  gsave  .25 .25 scale  gsave  0 0 t black[  ] 0 sd 3 lw 1 1 1 c 2268 1538 0 0 bf black 1 1 1 c 2222 738 23 784 bf black 1 1 1 c 2222 739 23 15 bf black 1 1 1 c 2268 1077 0 461 bf black 1 1 1 c 1791 850 363 634 bf black 1791 850 363 634 bl 363
 634 m 1791 X s
 gsave  2268 1077 0 461 C 1642.14 498.507 t 0 r /Helvetica findfont 48.9324 sf 0 0 m (4l Invariant Mass \(GeV\)) show NC gr  473 659 m -25 Y s 546 646 m -12 Y s 619 646 m -12 Y s 692 646 m -12 Y s 765 646 m -12 Y s 838 659 m -25 Y s 911 646 m -12 Y s
 984 646 m -12 Y s 1057 646 m -12 Y s 1131 646 m -12 Y s 1204 659 m -25 Y s 1277 646 m -12 Y s 1350 646 m -12 Y s 1423 646 m -12 Y s 1496 646 m -12 Y s 1569 659 m -25 Y s 1642 646 m -12 Y s 1716 646 m -12 Y s 1789 646 m -12 Y s 1862 646 m -12 Y s
 1935 659 m -25 Y s 473 659 m -25 Y s 399 646 m -12 Y s 1935 659 m -25 Y s 2008 646 m -12 Y s 2081 646 m -12 Y s 2154 646 m -12 Y s
 gsave  2268 1077 0 461 C 417.051 586.478 t 0 r /Helvetica findfont 48.9324 sf 0 0 m (1050) show NC gr 
 gsave  2268 1077 0 461 C 781.971 586.478 t 0 r /Helvetica findfont 48.9324 sf 0 0 m (1100) show NC gr 
 gsave  2268 1077 0 461 C 1146.89 586.478 t 0 r /Helvetica findfont 48.9324 sf 0 0 m (1150) show NC gr 
 gsave  2268 1077 0 461 C 1511.81 586.478 t 0 r /Helvetica findfont 48.9324 sf 0 0 m (1200) show NC gr 
 gsave  2268 1077 0 461 C 1876.73 586.478 t 0 r /Helvetica findfont 48.9324 sf 0 0 m (1250) show NC gr  363 1484 m 1791 X s 473 1459 m 25 Y s 546 1471 m 13 Y s 619 1471 m 13 Y s 692 1471 m 13 Y s 765 1471 m 13 Y s 838 1459 m 25 Y s 911 1471 m 13 Y s
 984 1471 m 13 Y s 1057 1471 m 13 Y s 1131 1471 m 13 Y s 1204 1459 m 25 Y s 1277 1471 m 13 Y s 1350 1471 m 13 Y s 1423 1471 m 13 Y s 1496 1471 m 13 Y s 1569 1459 m 25 Y s 1642 1471 m 13 Y s 1716 1471 m 13 Y s 1789 1471 m 13 Y s 1862 1471 m 13 Y s
 1935 1459 m 25 Y s 473 1459 m 25 Y s 399 1471 m 13 Y s 1935 1459 m 25 Y s 2008 1471 m 13 Y s 2081 1471 m 13 Y s 2154 1471 m 13 Y s 363 634 m 850 Y s
 gsave  2268 1077 0 461 C 120.554 1058.92 t 90 r /Helvetica findfont 48.9324 sf 0 0 m (Events / \( 4.9 GeV \)) show NC gr  390 639 m -27 X s 390 696 m -27 X s 390 736 m -27 X s 390 767 m -27 X s 390 792 m -27 X s 390 813 m -27 X s 390 832 m -27 X s
 390 848 m -27 X s 417 863 m -54 X s
 gsave  2268 1077 0 461 C 342.425 842.259 t 0 r  -55 0 t /Helvetica findfont 48.9324 sf 0 0 m (10) show NC gr  390 960 m -27 X s 390 1016 m -27 X s 390 1056 m -27 X s 390 1087 m -27 X s 390 1113 m -27 X s 390 1134 m -27 X s 390 1153 m -27 X s 390
 1169 m -27 X s 417 1184 m -54 X s
 gsave  2268 1077 0 461 C 322.563 1182.73 t 0 r /Helvetica findfont 32.6216 sf 0 0 m (2) show NC gr 
 gsave  2268 1077 0 461 C 270.432 1163.18 t 0 r /Helvetica findfont 48.9324 sf 0 0 m (10) show NC gr  390 1280 m -27 X s 390 1337 m -27 X s 390 1377 m -27 X s 390 1408 m -27 X s 390 1433 m -27 X s 390 1455 m -27 X s 390 1473 m -27 X s 2154 634 m 850
 Y s 2127 639 m 27 X s 2127 696 m 27 X s 2127 736 m 27 X s 2127 767 m 27 X s 2127 792 m 27 X s 2127 813 m 27 X s 2127 832 m 27 X s 2127 848 m 27 X s 2101 863 m 53 X s 2127 960 m 27 X s 2127 1016 m 27 X s 2127 1056 m 27 X s 2127 1087 m 27 X s 2127
 1113 m 27 X s 2127 1134 m 27 X s 2127 1153 m 27 X s 2127 1169 m 27 X s 2101 1184 m 53 X s 2127 1280 m 27 X s 2127 1337 m 27 X s 2127 1377 m 27 X s 2127 1408 m 27 X s 2127 1433 m 27 X s 2127 1455 m 27 X s 2127 1473 m 27 X s 381 929 m -18 X s 363 929
 m cl s 381 929 m 18 X s 399 929 m cl s 381 929 m 38 Y s 381 967 m cl s 381 929 m -40 Y s 381 889 m cl s 417 863 m -18 X s 399 863 m cl s 417 863 m 17 X s 434 863 m cl s 417 863 m 50 Y s 417 913 m cl s 417 863 m -52 Y s 417 811 m cl s 452 952 m -18 X
 s 434 952 m cl s 452 952 m 18 X s 470 952 m cl s 452 952 m 35 Y s 452 987 m cl s 452 952 m -35 Y s 452 917 m cl s 488 966 m -18 X s 470 966 m cl s 488 966 m 18 X s 506 966 m cl s 488 966 m 34 Y s 488 1000 m cl s 488 966 m -34 Y s 488 932 m cl s 524
 952 m -18 X s 506 952 m cl s 524 952 m 18 X s 542 952 m cl s 524 952 m 35 Y s 524 987 m cl s 524 952 m -35 Y s 524 917 m cl s 560 991 m -18 X s 542 991 m cl s 560 991 m 18 X s 578 991 m cl s 560 991 m 30 Y s 560 1021 m cl s 560 991 m -31 Y s 560 960
 m cl s 596 1016 m -18 X s 578 1016 m cl s 596 1016 m 18 X s 614 1016 m cl s 596 1016 m 27 Y s 596 1043 m cl s 596 1016 m -28 Y s 596 988 m cl s 632 1038 m -18 X s 614 1038 m cl s 632 1038 m 17 X s 649 1038 m cl s 632 1038 m 25 Y s 632 1063 m cl s
 632 1038 m -26 Y s 632 1012 m cl s 667 1025 m -18 X s 649 1025 m cl s 667 1025 m 18 X s 685 1025 m cl s 667 1025 m 27 Y s 667 1052 m cl s 667 1025 m -27 Y s 667 998 m cl s 703 1001 m -18 X s 685 1001 m cl s 703 1001 m 18 X s 721 1001 m cl s 703 1001
 m 29 Y s 703 1030 m cl s 703 1001 m -29 Y s 703 972 m cl s 739 1045 m -18 X s 721 1045 m cl s 739 1045 m 18 X s 757 1045 m cl s 739 1045 m 25 Y s 739 1070 m cl s 739 1045 m -25 Y s 739 1020 m cl s 775 1038 m -18 X s 757 1038 m cl s 775 1038 m 18 X s
 793 1038 m cl s 775 1038 m 25 Y s 775 1063 m cl s 775 1038 m -26 Y s 775 1012 m cl s 811 1063 m -18 X s 793 1063 m cl s 811 1063 m 18 X s 829 1063 m cl s 811 1063 m 23 Y s 811 1086 m cl s 811 1063 m -23 Y s 811 1040 m cl s 847 1066 m -18 X s 829
 1066 m cl s 847 1066 m 17 X s 864 1066 m cl s 847 1066 m 23 Y s 847 1089 m cl s 847 1066 m -23 Y s 847 1043 m cl s 882 1063 m -18 X s 864 1063 m cl s 882 1063 m 18 X s 900 1063 m cl s 882 1063 m 23 Y s 882 1086 m cl s 882 1063 m -23 Y s 882 1040 m
 cl s 918 1103 m -18 X s 900 1103 m cl s 918 1103 m 18 X s 936 1103 m cl s 918 1103 m 20 Y s 918 1123 m cl s 918 1103 m -20 Y s 918 1083 m cl s 954 1093 m -18 X s 936 1093 m cl s 954 1093 m 18 X s 972 1093 m cl s 954 1093 m 20 Y s 954 1113 m cl s 954
 1093 m -21 Y s 954 1072 m cl s 990 1140 m -18 X s 972 1140 m cl s 990 1140 m 18 X s 1008 1140 m cl s 990 1140 m 17 Y s 990 1157 m cl s 990 1140 m -17 Y s 990 1123 m cl s 1026 1128 m -18 X s 1008 1128 m cl s 1026 1128 m 18 X s 1044 1128 m cl s 1026
 1128 m 18 Y s 1026 1146 m cl s 1026 1128 m -18 Y s 1026 1110 m cl s 1062 1142 m -18 X s 1044 1142 m cl s 1062 1142 m 17 X s 1079 1142 m cl s 1062 1142 m 17 Y s 1062 1159 m cl s 1062 1142 m -17 Y s 1062 1125 m cl s 1097 1174 m -18 X s 1079 1174 m cl
 s 1097 1174 m 18 X s 1115 1174 m cl s 1097 1174 m 15 Y s 1097 1189 m cl s 1097 1174 m -16 Y s 1097 1158 m cl s 1133 1194 m -18 X s 1115 1194 m cl s 1133 1194 m 18 X s 1151 1194 m cl s 1133 1194 m 14 Y s 1133 1208 m cl s 1133 1194 m -13 Y s 1133 1181
 m cl s 1169 1212 m -18 X s 1151 1212 m cl s 1169 1212 m 18 X s 1187 1212 m cl s 1169 1212 m 13 Y s 1169 1225 m cl s 1169 1212 m -12 Y s 1169 1200 m cl s 1205 1243 m -18 X s 1187 1243 m cl s 1205 1243 m 18 X s 1223 1243 m cl s 1205 1243 m 11 Y s 1205
 1254 m cl s 1205 1243 m -11 Y s 1205 1232 m cl s 1241 1253 m -18 X s 1223 1253 m cl s 1241 1253 m 18 X s 1259 1253 m cl s 1241 1253 m 10 Y s 1241 1263 m cl s 1241 1253 m -11 Y s 1241 1242 m cl s 1276 1277 m -17 X s 1259 1277 m cl s 1276 1277 m 18 X
 s 1294 1277 m cl s 1276 1277 m 10 Y s 1276 1287 m cl s 1276 1277 m -10 Y s 1276 1267 m cl s 1312 1285 m -18 X s 1294 1285 m cl s 1312 1285 m 18 X s 1330 1285 m cl s 1312 1285 m 10 Y s 1312 1295 m cl s 1312 1285 m -10 Y s 1312 1275 m cl s 1348 1319 m
 -18 X s 1330 1319 m cl s 1348 1319 m 18 X s 1366 1319 m cl s 1348 1319 m 8 Y s 1348 1327 m cl s 1348 1319 m -9 Y s 1348 1310 m cl s 1384 1327 m -18 X s 1366 1327 m cl s 1384 1327 m 18 X s 1402 1327 m cl s 1384 1327 m 8 Y s 1384 1335 m cl s 1384 1327
 m -8 Y s 1384 1319 m cl s 1420 1371 m -18 X s 1402 1371 m cl s 1420 1371 m 18 X s 1438 1371 m cl s 1420 1371 m 7 Y s 1420 1378 m cl s 1420 1371 m -8 Y s 1420 1363 m cl s 1456 1373 m -18 X s 1438 1373 m cl s 1456 1373 m 18 X s 1474 1373 m cl s 1456
 1373 m 7 Y s 1456 1380 m cl s 1456 1373 m -7 Y s 1456 1366 m cl s 1491 1408 m -17 X s 1474 1408 m cl s 1491 1408 m 18 X s 1509 1408 m cl s 1491 1408 m 6 Y s 1491 1414 m cl s 1491 1408 m -6 Y s 1491 1402 m cl s 1527 1409 m -18 X s 1509 1409 m cl s
 1527 1409 m 18 X s 1545 1409 m cl s 1527 1409 m 6 Y s 1527 1415 m cl s 1527 1409 m -7 Y s 1527 1402 m cl s 1563 1415 m -18 X s 1545 1415 m cl s 1563 1415 m 18 X s 1581 1415 m cl s 1563 1415 m 6 Y s 1563 1421 m cl s 1563 1415 m -6 Y s 1563 1409 m cl
 s 1599 1396 m -18 X s 1581 1396 m cl s 1599 1396 m 18 X s 1617 1396 m cl s 1599 1396 m 7 Y s 1599 1403 m cl s 1599 1396 m -6 Y s 1599 1390 m cl s 1635 1386 m -18 X s 1617 1386 m cl s 1635 1386 m 18 X s 1653 1386 m cl s 1635 1386 m 7 Y s 1635 1393 m
 cl s 1635 1386 m -7 Y s 1635 1379 m cl s 1671 1362 m -18 X s 1653 1362 m cl s 1671 1362 m 18 X s 1689 1362 m cl s 1671 1362 m 8 Y s 1671 1370 m cl s 1671 1362 m -7 Y s 1671 1355 m cl s 1706 1342 m -17 X s 1689 1342 m cl s 1706 1342 m 18 X s 1724
 1342 m cl s 1706 1342 m 7 Y s 1706 1349 m cl s 1706 1342 m -8 Y s 1706 1334 m cl s 1742 1301 m -18 X s 1724 1301 m cl s 1742 1301 m 18 X s 1760 1301 m cl s 1742 1301 m 9 Y s 1742 1310 m cl s 1742 1301 m -9 Y s 1742 1292 m cl s 1778 1282 m -18 X s
 1760 1282 m cl s 1778 1282 m 18 X s 1796 1282 m cl s 1778 1282 m 10 Y s 1778 1292 m cl s 1778 1282 m -10 Y s 1778 1272 m cl s 1814 1243 m -18 X s 1796 1243 m cl s 1814 1243 m 18 X s 1832 1243 m cl s 1814 1243 m 11 Y s 1814 1254 m cl s 1814 1243 m
 -11 Y s 1814 1232 m cl s 1850 1214 m -18 X s 1832 1214 m cl s 1850 1214 m 18 X s 1868 1214 m cl s 1850 1214 m 12 Y s 1850 1226 m cl s 1850 1214 m -13 Y s 1850 1201 m cl s 1886 1185 m -18 X s 1868 1185 m cl s 1886 1185 m 18 X s 1904 1185 m cl s 1886
 1185 m 14 Y s 1886 1199 m cl s 1886 1185 m -14 Y s 1886 1171 m cl s 1921 1161 m -17 X s 1904 1161 m cl s 1921 1161 m 18 X s 1939 1161 m cl s 1921 1161 m 16 Y s 1921 1177 m cl s 1921 1161 m -16 Y s 1921 1145 m cl s 1957 1113 m -18 X s 1939 1113 m cl
 s 1957 1113 m 18 X s 1975 1113 m cl s 1957 1113 m 19 Y s 1957 1132 m cl s 1957 1113 m -20 Y s 1957 1093 m cl s 1993 1100 m -18 X s 1975 1100 m cl s 1993 1100 m 18 X s 2011 1100 m cl s 1993 1100 m 20 Y s 1993 1120 m cl s 1993 1100 m -20 Y s 1993 1080
 m cl s 2029 1063 m -18 X s 2011 1063 m cl s 2029 1063 m 18 X s 2047 1063 m cl s 2029 1063 m 23 Y s 2029 1086 m cl s 2029 1063 m -23 Y s 2029 1040 m cl s 2065 1041 m -18 X s 2047 1041 m cl s 2065 1041 m 18 X s 2083 1041 m cl s 2065 1041 m 25 Y s 2065
 1066 m cl s 2065 1041 m -25 Y s 2065 1016 m cl s 2101 1033 m -18 X s 2083 1033 m cl s 2101 1033 m 18 X s 2119 1033 m cl s 2101 1033 m 26 Y s 2101 1059 m cl s 2101 1033 m -26 Y s 2101 1007 m cl s 2136 979 m -17 X s 2119 979 m cl s 2136 979 m 18 X s
 2154 979 m cl s 2136 979 m 32 Y s 2136 1011 m cl s 2136 979 m -32 Y s 2136 947 m cl s /w 31 def /w2 {w 2 div} def /w3 {w 3 div} def 381 929 417 863 452 952 488 966 524 952 560 991 596 1016 632 1038 667 1025 703 1001 739 1045 775 1038 811 1063 847
 1066 882 1063 918 1103 954 1093 990 1140 1026 1128 1062 1142 1097 1174 1133 1194 1169 1212 1205 1243 1241 1253 1276 1277 1312 1285 1348 1319 1384 1327 1420 1371 1456 1373 1491 1408 1527 1409 1563 1415 1599 1396 1635 1386 1671 1362 1706 1342 1742
 1301 1778 1282 1814 1243 1850 1214 1886 1185 1921 1161 1957 1113 1993 1100 2029 1063 2065 1041 2101 1033 2136 979 50 { m20} R 0 1 1 c 1 1 0 c black 1 1 0 c 363 926 m 36 9 d 35 10 d 36 10 d 36 10 d 36 11 d 36 10 d 36 11 d 35 11 d 36 12 d 36 12 d 36
 11 d 36 13 d 36 12 d 35 13 d 36 14 d 36 13 d 36 14 d 36 15 d 36 15 d 35 15 d 36 16 d 36 17 d 36 18 d 18 9 d 18 10 d 18 10 d 18 11 d 17 11 d 18 13 d 18 12 d 18 13 d 18 13 d 18 13 d 36 23 d 36 21 d 18 8 d 18 7 d 9 3 d 8 3 d 9 2 d 9 2 d 9 1 d 9 1 d 27
 X 9 -1 d 9 -2 d 9 -1 d 9 -3 d 9 -2 d 9 -4 d 9 -3 d 18 -8 d 18 -10 d 36 -21 d 17 -12 d 18 -12 d 18 -13 d 18 -13 d 18 -13 d 18 -13 d 18 -14 d 18 -14 d 18 -14 d 18 -14 d 36 -31 d 35 -33 d 36 -35 d 36 -39 d 36 -41 d 36 -45 d 36 -48 d 35 -50 d -35 50 d
 -36 48 d -36 45 d -36 41 d -36 39 d -36 35 d -35 33 d -36 31 d -18 14 d -18 14 d -18 14 d -18 14 d -18 13 d -18 13 d -18 13 d -18 13 d -18 12 d -17 12 d -36 21 d -18 10 d -18 8 d -9 3 d -9 4 d -9 2 d -9 3 d -9 1 d -9 2 d -9 1 d -27 X -9 -1 d -9 -1 d
 -9 -2 d -9 -2 d -8 -3 d -9 -3 d -18 -7 d -18 -8 d -36 -21 d -36 -23 d -18 -13 d -18 -13 d -18 -13 d -18 -12 d -18 -13 d -17 -11 d -18 -11 d -18 -10 d -18 -10 d -18 -9 d -36 -18 d -36 -17 d -36 -16 d -35 -15 d -36 -15 d -36 -15 d -36 -14 d -36 -13 d
 -36 -14 d -35 -13 d -36 -12 d -36 -13 d -36 -11 d -36 -12 d -36 -12 d -35 -11 d -36 -11 d -36 -10 d -36 -11 d -36 -10 d -36 -10 d -35 -10 d -36 -9 d f 0 1 1 c 0 1 0 c black 0 1 0 c 363 926 m 36 9 d 35 10 d 36 10 d 36 10 d 36 11 d 36 10 d 36 11 d 35
 11 d 36 12 d 36 12 d 36 11 d 36 13 d 36 12 d 35 13 d 36 14 d 36 13 d 36 14 d 36 15 d 36 15 d 35 15 d 36 16 d 36 17 d 36 18 d 18 9 d 18 10 d 18 10 d 18 11 d 17 11 d 18 13 d 18 12 d 18 13 d 18 13 d 18 13 d 36 23 d 36 21 d 18 8 d 18 7 d 9 3 d 8 3 d 9 2
 d 9 2 d 9 1 d 9 1 d 27 X 9 -1 d 9 -2 d 9 -1 d 9 -3 d 9 -2 d 9 -4 d 9 -3 d 18 -8 d 18 -10 d 36 -21 d 17 -12 d 18 -12 d 18 -13 d 18 -13 d 18 -13 d 18 -13 d 18 -14 d 18 -14 d 18 -14 d 18 -14 d 36 -31 d 35 -33 d 36 -35 d 36 -39 d 36 -41 d 36 -45 d 36
 -48 d 35 -50 d -35 50 d -36 48 d -36 45 d -36 41 d -36 39 d -36 35 d -35 33 d -36 31 d -18 14 d -18 14 d -18 14 d -18 14 d -18 13 d -18 13 d -18 13 d -18 13 d -18 12 d -17 12 d -36 21 d -18 10 d -18 8 d -9 3 d -9 4 d -9 2 d -9 3 d -9 1 d -9 2 d -9 1
 d -27 X -9 -1 d -9 -1 d -9 -2 d -9 -2 d -8 -3 d -9 -3 d -18 -7 d -18 -8 d -36 -21 d -36 -23 d -18 -13 d -18 -13 d -18 -13 d -18 -12 d -18 -13 d -17 -11 d -18 -11 d -18 -10 d -18 -10 d -18 -9 d -36 -18 d -36 -17 d -36 -16 d -35 -15 d -36 -15 d -36
 -15 d -36 -14 d -36 -13 d -36 -14 d -35 -13 d -36 -12 d -36 -13 d -36 -11 d -36 -12 d -36 -12 d -35 -11 d -36 -11 d -36 -10 d -36 -11 d -36 -10 d -36 -10 d -35 -10 d -36 -9 d f 0 0 1 c 9 lw black 0 0 1 c 363 926 m 36 9 d 35 10 d 36 10 d 36 10 d 36
 11 d 36 10 d 36 11 d 35 11 d 36 12 d 36 12 d 36 11 d 36 13 d 36 12 d 35 13 d 36 14 d 36 13 d 36 14 d 36 15 d 36 15 d 35 15 d 36 16 d 36 17 d 36 18 d 18 9 d 18 10 d 18 10 d 18 11 d 17 11 d 18 13 d 18 12 d 18 13 d 18 13 d 18 13 d 36 23 d 36 21 d 18 8
 d 18 7 d 9 3 d 8 3 d 9 2 d 9 2 d 9 1 d 9 1 d 27 X 9 -1 d 9 -2 d 9 -1 d 9 -3 d 9 -2 d 9 -4 d 9 -3 d 18 -8 d 18 -10 d 36 -21 d 17 -12 d 18 -12 d 18 -13 d 18 -13 d 18 -13 d 18 -13 d 18 -14 d 18 -14 d 18 -14 d 18 -14 d 36 -31 d 35 -33 d 36 -35 d 36 -39
 d 36 -41 d 36 -45 d 36 -48 d 35 -50 d s black 3 lw 381 929 m -18 X s 363 929 m cl s 381 929 m 18 X s 399 929 m cl s 381 929 m 38 Y s 381 967 m cl s 381 929 m -40 Y s 381 889 m cl s 417 863 m -18 X s 399 863 m cl s 417 863 m 17 X s 434 863 m cl s 417
 863 m 50 Y s 417 913 m cl s 417 863 m -52 Y s 417 811 m cl s 452 952 m -18 X s 434 952 m cl s 452 952 m 18 X s 470 952 m cl s 452 952 m 35 Y s 452 987 m cl s 452 952 m -35 Y s 452 917 m cl s 488 966 m -18 X s 470 966 m cl s 488 966 m 18 X s 506 966
 m cl s 488 966 m 34 Y s 488 1000 m cl s 488 966 m -34 Y s 488 932 m cl s 524 952 m -18 X s 506 952 m cl s 524 952 m 18 X s 542 952 m cl s 524 952 m 35 Y s 524 987 m cl s 524 952 m -35 Y s 524 917 m cl s 560 991 m -18 X s 542 991 m cl s 560 991 m 18
 X s 578 991 m cl s 560 991 m 30 Y s 560 1021 m cl s 560 991 m -31 Y s 560 960 m cl s 596 1016 m -18 X s 578 1016 m cl s 596 1016 m 18 X s 614 1016 m cl s 596 1016 m 27 Y s 596 1043 m cl s 596 1016 m -28 Y s 596 988 m cl s 632 1038 m -18 X s 614 1038
 m cl s 632 1038 m 17 X s 649 1038 m cl s 632 1038 m 25 Y s 632 1063 m cl s 632 1038 m -26 Y s 632 1012 m cl s 667 1025 m -18 X s 649 1025 m cl s 667 1025 m 18 X s 685 1025 m cl s 667 1025 m 27 Y s 667 1052 m cl s 667 1025 m -27 Y s 667 998 m cl s
 703 1001 m -18 X s 685 1001 m cl s 703 1001 m 18 X s 721 1001 m cl s 703 1001 m 29 Y s 703 1030 m cl s 703 1001 m -29 Y s 703 972 m cl s 739 1045 m -18 X s 721 1045 m cl s 739 1045 m 18 X s 757 1045 m cl s 739 1045 m 25 Y s 739 1070 m cl s 739 1045
 m -25 Y s 739 1020 m cl s 775 1038 m -18 X s 757 1038 m cl s 775 1038 m 18 X s 793 1038 m cl s 775 1038 m 25 Y s 775 1063 m cl s 775 1038 m -26 Y s 775 1012 m cl s 811 1063 m -18 X s 793 1063 m cl s 811 1063 m 18 X s 829 1063 m cl s 811 1063 m 23 Y
 s 811 1086 m cl s 811 1063 m -23 Y s 811 1040 m cl s 847 1066 m -18 X s 829 1066 m cl s 847 1066 m 17 X s 864 1066 m cl s 847 1066 m 23 Y s 847 1089 m cl s 847 1066 m -23 Y s 847 1043 m cl s 882 1063 m -18 X s 864 1063 m cl s 882 1063 m 18 X s 900
 1063 m cl s 882 1063 m 23 Y s 882 1086 m cl s 882 1063 m -23 Y s 882 1040 m cl s 918 1103 m -18 X s 900 1103 m cl s 918 1103 m 18 X s 936 1103 m cl s 918 1103 m 20 Y s 918 1123 m cl s 918 1103 m -20 Y s 918 1083 m cl s 954 1093 m -18 X s 936 1093 m
 cl s 954 1093 m 18 X s 972 1093 m cl s 954 1093 m 20 Y s 954 1113 m cl s 954 1093 m -21 Y s 954 1072 m cl s 990 1140 m -18 X s 972 1140 m cl s 990 1140 m 18 X s 1008 1140 m cl s 990 1140 m 17 Y s 990 1157 m cl s 990 1140 m -17 Y s 990 1123 m cl s
 1026 1128 m -18 X s 1008 1128 m cl s 1026 1128 m 18 X s 1044 1128 m cl s 1026 1128 m 18 Y s 1026 1146 m cl s 1026 1128 m -18 Y s 1026 1110 m cl s 1062 1142 m -18 X s 1044 1142 m cl s 1062 1142 m 17 X s 1079 1142 m cl s 1062 1142 m 17 Y s 1062 1159 m
 cl s 1062 1142 m -17 Y s 1062 1125 m cl s 1097 1174 m -18 X s 1079 1174 m cl s 1097 1174 m 18 X s 1115 1174 m cl s 1097 1174 m 15 Y s 1097 1189 m cl s 1097 1174 m -16 Y s 1097 1158 m cl s 1133 1194 m -18 X s 1115 1194 m cl s 1133 1194 m 18 X s 1151
 1194 m cl s 1133 1194 m 14 Y s 1133 1208 m cl s 1133 1194 m -13 Y s 1133 1181 m cl s 1169 1212 m -18 X s 1151 1212 m cl s 1169 1212 m 18 X s 1187 1212 m cl s 1169 1212 m 13 Y s 1169 1225 m cl s 1169 1212 m -12 Y s 1169 1200 m cl s 1205 1243 m -18 X
 s 1187 1243 m cl s 1205 1243 m 18 X s 1223 1243 m cl s 1205 1243 m 11 Y s 1205 1254 m cl s 1205 1243 m -11 Y s 1205 1232 m cl s 1241 1253 m -18 X s 1223 1253 m cl s 1241 1253 m 18 X s 1259 1253 m cl s 1241 1253 m 10 Y s 1241 1263 m cl s 1241 1253 m
 -11 Y s 1241 1242 m cl s 1276 1277 m -17 X s 1259 1277 m cl s 1276 1277 m 18 X s 1294 1277 m cl s 1276 1277 m 10 Y s 1276 1287 m cl s 1276 1277 m -10 Y s 1276 1267 m cl s 1312 1285 m -18 X s 1294 1285 m cl s 1312 1285 m 18 X s 1330 1285 m cl s 1312
 1285 m 10 Y s 1312 1295 m cl s 1312 1285 m -10 Y s 1312 1275 m cl s 1348 1319 m -18 X s 1330 1319 m cl s 1348 1319 m 18 X s 1366 1319 m cl s 1348 1319 m 8 Y s 1348 1327 m cl s 1348 1319 m -9 Y s 1348 1310 m cl s 1384 1327 m -18 X s 1366 1327 m cl s
 1384 1327 m 18 X s 1402 1327 m cl s 1384 1327 m 8 Y s 1384 1335 m cl s 1384 1327 m -8 Y s 1384 1319 m cl s 1420 1371 m -18 X s 1402 1371 m cl s 1420 1371 m 18 X s 1438 1371 m cl s 1420 1371 m 7 Y s 1420 1378 m cl s 1420 1371 m -8 Y s 1420 1363 m cl
 s 1456 1373 m -18 X s 1438 1373 m cl s 1456 1373 m 18 X s 1474 1373 m cl s 1456 1373 m 7 Y s 1456 1380 m cl s 1456 1373 m -7 Y s 1456 1366 m cl s 1491 1408 m -17 X s 1474 1408 m cl s 1491 1408 m 18 X s 1509 1408 m cl s 1491 1408 m 6 Y s 1491 1414 m
 cl s 1491 1408 m -6 Y s 1491 1402 m cl s 1527 1409 m -18 X s 1509 1409 m cl s 1527 1409 m 18 X s 1545 1409 m cl s 1527 1409 m 6 Y s 1527 1415 m cl s 1527 1409 m -7 Y s 1527 1402 m cl s 1563 1415 m -18 X s 1545 1415 m cl s 1563 1415 m 18 X s 1581
 1415 m cl s 1563 1415 m 6 Y s 1563 1421 m cl s 1563 1415 m -6 Y s 1563 1409 m cl s 1599 1396 m -18 X s 1581 1396 m cl s 1599 1396 m 18 X s 1617 1396 m cl s 1599 1396 m 7 Y s 1599 1403 m cl s 1599 1396 m -6 Y s 1599 1390 m cl s 1635 1386 m -18 X s
 1617 1386 m cl s 1635 1386 m 18 X s 1653 1386 m cl s 1635 1386 m 7 Y s 1635 1393 m cl s 1635 1386 m -7 Y s 1635 1379 m cl s 1671 1362 m -18 X s 1653 1362 m cl s 1671 1362 m 18 X s 1689 1362 m cl s 1671 1362 m 8 Y s 1671 1370 m cl s 1671 1362 m -7 Y
 s 1671 1355 m cl s 1706 1342 m -17 X s 1689 1342 m cl s 1706 1342 m 18 X s 1724 1342 m cl s 1706 1342 m 7 Y s 1706 1349 m cl s 1706 1342 m -8 Y s 1706 1334 m cl s 1742 1301 m -18 X s 1724 1301 m cl s 1742 1301 m 18 X s 1760 1301 m cl s 1742 1301 m 9
 Y s 1742 1310 m cl s 1742 1301 m -9 Y s 1742 1292 m cl s 1778 1282 m -18 X s 1760 1282 m cl s 1778 1282 m 18 X s 1796 1282 m cl s 1778 1282 m 10 Y s 1778 1292 m cl s 1778 1282 m -10 Y s 1778 1272 m cl s 1814 1243 m -18 X s 1796 1243 m cl s 1814 1243
 m 18 X s 1832 1243 m cl s 1814 1243 m 11 Y s 1814 1254 m cl s 1814 1243 m -11 Y s 1814 1232 m cl s 1850 1214 m -18 X s 1832 1214 m cl s 1850 1214 m 18 X s 1868 1214 m cl s 1850 1214 m 12 Y s 1850 1226 m cl s 1850 1214 m -13 Y s 1850 1201 m cl s 1886
 1185 m -18 X s 1868 1185 m cl s 1886 1185 m 18 X s 1904 1185 m cl s 1886 1185 m 14 Y s 1886 1199 m cl s 1886 1185 m -14 Y s 1886 1171 m cl s 1921 1161 m -17 X s 1904 1161 m cl s 1921 1161 m 18 X s 1939 1161 m cl s 1921 1161 m 16 Y s 1921 1177 m cl s
 1921 1161 m -16 Y s 1921 1145 m cl s 1957 1113 m -18 X s 1939 1113 m cl s 1957 1113 m 18 X s 1975 1113 m cl s 1957 1113 m 19 Y s 1957 1132 m cl s 1957 1113 m -20 Y s 1957 1093 m cl s 1993 1100 m -18 X s 1975 1100 m cl s 1993 1100 m 18 X s 2011 1100
 m cl s 1993 1100 m 20 Y s 1993 1120 m cl s 1993 1100 m -20 Y s 1993 1080 m cl s 2029 1063 m -18 X s 2011 1063 m cl s 2029 1063 m 18 X s 2047 1063 m cl s 2029 1063 m 23 Y s 2029 1086 m cl s 2029 1063 m -23 Y s 2029 1040 m cl s 2065 1041 m -18 X s
 2047 1041 m cl s 2065 1041 m 18 X s 2083 1041 m cl s 2065 1041 m 25 Y s 2065 1066 m cl s 2065 1041 m -25 Y s 2065 1016 m cl s 2101 1033 m -18 X s 2083 1033 m cl s 2101 1033 m 18 X s 2119 1033 m cl s 2101 1033 m 26 Y s 2101 1059 m cl s 2101 1033 m
 -26 Y s 2101 1007 m cl s 2136 979 m -17 X s 2119 979 m cl s 2136 979 m 18 X s 2154 979 m cl s 2136 979 m 32 Y s 2136 1011 m cl s 2136 979 m -32 Y s 2136 947 m cl s 381 929 417 863 452 952 488 966 524 952 560 991 596 1016 632 1038 667 1025 703 1001
 739 1045 775 1038 811 1063 847 1066 882 1063 918 1103 954 1093 990 1140 1026 1128 1062 1142 1097 1174 1133 1194 1169 1212 1205 1243 1241 1253 1276 1277 1312 1285 1348 1319 1384 1327 1420 1371 1456 1373 1491 1408 1527 1409 1563 1415 1599 1396 1635
 1386 1671 1362 1706 1342 1742 1301 1778 1282 1814 1243 1850 1214 1886 1185 1921 1161 1957 1113 1993 1100 2029 1063 2065 1041 2101 1033 2136 979 50 { m20} R 0.52 0.76 0.64 c[ 4 8] 0 sd 9 lw black 0.52 0.76 0.64 c 363 926 m 36 9 d 35 10 d 36 10 d 36
 10 d 36 11 d 36 10 d 36 11 d 35 11 d 36 12 d 36 12 d 36 11 d 36 13 d 36 12 d 35 13 d 36 14 d 36 13 d 36 14 d 36 15 d 36 15 d 35 15 d 36 16 d 36 16 d 36 17 d 18 9 d 18 9 d 18 9 d 18 9 d 17 10 d 18 9 d 36 19 d 36 17 d 18 7 d 18 6 d 18 5 d 18 5 d 18 4
 d 18 3 d 17 2 d 18 2 d 18 1 d 18 X 18 -1 d 18 -1 d 18 -2 d 18 -3 d 18 -4 d 18 -4 d 18 -5 d 18 -6 d 17 -7 d 18 -7 d 36 -18 d 36 -20 d 36 -23 d 36 -26 d 18 -15 d 18 -15 d 17 -16 d 18 -16 d 18 -17 d 18 -19 d 18 -18 d 18 -20 d 18 -20 d 18 -22 d 18 -21 d
 18 -23 d 36 -48 d 35 -50 d s 0.54 0.66 0.63 c black 0.54 0.66 0.63 c 1212 634 m 11 42 d s 1223 676 m 18 64 d 18 61 d 17 57 d 18 53 d 9 26 d 9 24 d 9 23 d 9 23 d 9 21 d 9 21 d 9 19 d 9 19 d 9 18 d 9 16 d 9 16 d 9 15 d 18 27 d 18 23 d 18 20 d 9 8 d 9
 7 d 9 7 d 8 5 d 9 5 d 9 3 d 9 3 d 9 2 d 9 1 d 9 X 9 -2 d 9 -2 d 9 -3 d 9 -3 d 9 -5 d 9 -6 d 9 -7 d 9 -7 d 18 -19 d 18 -22 d 18 -25 d 18 -30 d 8 -16 d 9 -17 d 9 -18 d 9 -19 d 9 -20 d 9 -20 d 9 -22 d 9 -23 d 9 -24 d 9 -24 d 9 -26 d 9 -26 d 18 -56 d 18
 -59 d 18 -64 d 17 -64 d s black[  ] 0 sd 3 lw 363 634 m 1791 X s 473 659 m -25 Y s 546 646 m -12 Y s 619 646 m -12 Y s 692 646 m -12 Y s 765 646 m -12 Y s 838 659 m -25 Y s 911 646 m -12 Y s 984 646 m -12 Y s 1057 646 m -12 Y s 1131 646 m -12 Y s
 1204 659 m -25 Y s 1277 646 m -12 Y s 1350 646 m -12 Y s 1423 646 m -12 Y s 1496 646 m -12 Y s 1569 659 m -25 Y s 1642 646 m -12 Y s 1716 646 m -12 Y s 1789 646 m -12 Y s 1862 646 m -12 Y s 1935 659 m -25 Y s 473 659 m -25 Y s 399 646 m -12 Y s 1935
 659 m -25 Y s 2008 646 m -12 Y s 2081 646 m -12 Y s 2154 646 m -12 Y s 363 1484 m 1791 X s 473 1459 m 25 Y s 546 1471 m 13 Y s 619 1471 m 13 Y s 692 1471 m 13 Y s 765 1471 m 13 Y s 838 1459 m 25 Y s 911 1471 m 13 Y s 984 1471 m 13 Y s 1057 1471 m 13
 Y s 1131 1471 m 13 Y s 1204 1459 m 25 Y s 1277 1471 m 13 Y s 1350 1471 m 13 Y s 1423 1471 m 13 Y s 1496 1471 m 13 Y s 1569 1459 m 25 Y s 1642 1471 m 13 Y s 1716 1471 m 13 Y s 1789 1471 m 13 Y s 1862 1471 m 13 Y s 1935 1459 m 25 Y s 473 1459 m 25 Y s
 399 1471 m 13 Y s 1935 1459 m 25 Y s 2008 1471 m 13 Y s 2081 1471 m 13 Y s 2154 1471 m 13 Y s 363 634 m 850 Y s 390 639 m -27 X s 390 696 m -27 X s 390 736 m -27 X s 390 767 m -27 X s 390 792 m -27 X s 390 813 m -27 X s 390 832 m -27 X s 390 848 m
 -27 X s 417 863 m -54 X s 390 960 m -27 X s 390 1016 m -27 X s 390 1056 m -27 X s 390 1087 m -27 X s 390 1113 m -27 X s 390 1134 m -27 X s 390 1153 m -27 X s 390 1169 m -27 X s 417 1184 m -54 X s 390 1280 m -27 X s 390 1337 m -27 X s 390 1377 m -27
 X s 390 1408 m -27 X s 390 1433 m -27 X s 390 1455 m -27 X s 390 1473 m -27 X s 2154 634 m 850 Y s 2127 639 m 27 X s 2127 696 m 27 X s 2127 736 m 27 X s 2127 767 m 27 X s 2127 792 m 27 X s 2127 813 m 27 X s 2127 832 m 27 X s 2127 848 m 27 X s 2101
 863 m 53 X s 2127 960 m 27 X s 2127 1016 m 27 X s 2127 1056 m 27 X s 2127 1087 m 27 X s 2127 1113 m 27 X s 2127 1134 m 27 X s 2127 1153 m 27 X s 2127 1169 m 27 X s 2101 1184 m 53 X s 2127 1280 m 27 X s 2127 1337 m 27 X s 2127 1377 m 27 X s 2127 1408
 m 27 X s 2127 1433 m 27 X s 2127 1455 m 27 X s 2127 1473 m 27 X s
 gsave  2268 1077 0 461 C 677.708 1215.31 t 0 r /Helvetica findfont 58.7189 sf 0 0 m (4mu) show NC gr  1 1 1 c 453 161 454 1269 bf black
 gsave  2268 1077 0 461 C 566.929 1371.71 t 0 r /Helvetica-Bold findfont 48.9324 sf 0 0 m (MC15) show NC gr  510 1390 m20
 gsave  2268 1077 0 461 C 566.929 1293.51 t 0 r /Helvetica-Bold findfont 48.9324 sf 0 0 m (Projection of Signal pdf) show NC gr  0 0 1 c 9 lw 471 1309 m 79 X s black 3 lw 1 1 1 c 2268 461 0 0 bf black 1 1 1 c 1791 364 363 74 bf black 1791 364 363 74
 bl 363 74 m 1791 X s
 gsave  2268 461 0 0 C 1915.83 13.0329 t 0 r /Helvetica findfont 22.9045 sf 0 0 m (4l Invariant Mass \(GeV\)) show NC gr  473 85 m -11 Y s 546 79 m -5 Y s 619 79 m -5 Y s 692 79 m -5 Y s 765 79 m -5 Y s 838 85 m -11 Y s 911 79 m -5 Y s 984 79 m -5 Y
 s 1057 79 m -5 Y s 1131 79 m -5 Y s 1204 85 m -11 Y s 1277 79 m -5 Y s 1350 79 m -5 Y s 1423 79 m -5 Y s 1496 79 m -5 Y s 1569 85 m -11 Y s 1642 79 m -5 Y s 1716 79 m -5 Y s 1789 79 m -5 Y s 1862 79 m -5 Y s 1935 85 m -11 Y s 473 85 m -11 Y s 399 79
 m -5 Y s 1935 85 m -11 Y s 2008 79 m -5 Y s 2081 79 m -5 Y s 2154 79 m -5 Y s
 gsave  2268 461 0 0 C 446.375 55.3896 t 0 r /Helvetica findfont 22.9045 sf 0 0 m (1050) show NC gr 
 gsave  2268 461 0 0 C 811.295 55.3896 t 0 r /Helvetica findfont 22.9045 sf 0 0 m (1100) show NC gr 
 gsave  2268 461 0 0 C 1176.22 55.3896 t 0 r /Helvetica findfont 22.9045 sf 0 0 m (1150) show NC gr 
 gsave  2268 461 0 0 C 1541.13 55.3896 t 0 r /Helvetica findfont 22.9045 sf 0 0 m (1200) show NC gr 
 gsave  2268 461 0 0 C 1906.05 55.3896 t 0 r /Helvetica findfont 22.9045 sf 0 0 m (1250) show NC gr  363 438 m 1791 X s 473 427 m 11 Y s 546 433 m 5 Y s 619 433 m 5 Y s 692 433 m 5 Y s 765 433 m 5 Y s 838 427 m 11 Y s 911 433 m 5 Y s 984 433 m 5 Y s
 1057 433 m 5 Y s 1131 433 m 5 Y s 1204 427 m 11 Y s 1277 433 m 5 Y s 1350 433 m 5 Y s 1423 433 m 5 Y s 1496 433 m 5 Y s 1569 427 m 11 Y s 1642 433 m 5 Y s 1716 433 m 5 Y s 1789 433 m 5 Y s 1862 433 m 5 Y s 1935 427 m 11 Y s 473 427 m 11 Y s 399 433
 m 5 Y s 1935 427 m 11 Y s 2008 433 m 5 Y s 2081 433 m 5 Y s 2154 433 m 5 Y s 363 74 m 364 Y s 417 74 m -54 X s 390 81 m -27 X s 390 88 m -27 X s 390 96 m -27 X s 390 103 m -27 X s 417 110 m -54 X s 390 118 m -27 X s 390 125 m -27 X s 390 132 m -27 X
 s 390 139 m -27 X s 417 147 m -54 X s 390 154 m -27 X s 390 161 m -27 X s 390 169 m -27 X s 390 176 m -27 X s 417 183 m -54 X s 390 190 m -27 X s 390 198 m -27 X s 390 205 m -27 X s 390 212 m -27 X s 417 220 m -54 X s 390 227 m -27 X s 390 234 m -27
 X s 390 241 m -27 X s 390 249 m -27 X s 417 256 m -54 X s 390 263 m -27 X s 390 271 m -27 X s 390 278 m -27 X s 390 285 m -27 X s 417 293 m -54 X s 390 300 m -27 X s 390 307 m -27 X s 390 314 m -27 X s 390 322 m -27 X s 417 329 m -54 X s 390 336 m
 -27 X s 390 344 m -27 X s 390 351 m -27 X s 390 358 m -27 X s 417 365 m -54 X s 390 373 m -27 X s 390 380 m -27 X s 390 387 m -27 X s 390 395 m -27 X s 417 402 m -54 X s 390 409 m -27 X s 390 416 m -27 X s 390 424 m -27 X s 390 431 m -27 X s 417 438
 m -54 X s
 gsave  2268 461 0 0 C 329.08 65.1643 t 0 r /Helvetica findfont 22.9045 sf 0 0 m (\2555) show NC gr 
 gsave  2268 461 0 0 C 329.08 101.005 t 0 r /Helvetica findfont 22.9045 sf 0 0 m (\2554) show NC gr 
 gsave  2268 461 0 0 C 329.08 140.103 t 0 r /Helvetica findfont 22.9045 sf 0 0 m (\2553) show NC gr 
 gsave  2268 461 0 0 C 329.08 175.944 t 0 r /Helvetica findfont 22.9045 sf 0 0 m (\2552) show NC gr 
 gsave  2268 461 0 0 C 332.338 211.784 t 0 r /Helvetica findfont 22.9045 sf 0 0 m (\2551) show NC gr 
 gsave  2268 461 0 0 C 335.596 247.624 t 0 r /Helvetica findfont 22.9045 sf 0 0 m (0) show NC gr 
 gsave  2268 461 0 0 C 338.854 283.465 t 0 r /Helvetica findfont 22.9045 sf 0 0 m (1) show NC gr 
 gsave  2268 461 0 0 C 335.596 319.305 t 0 r /Helvetica findfont 22.9045 sf 0 0 m (2) show NC gr 
 gsave  2268 461 0 0 C 335.596 358.403 t 0 r /Helvetica findfont 22.9045 sf 0 0 m (3) show NC gr 
 gsave  2268 461 0 0 C 335.596 394.244 t 0 r /Helvetica findfont 22.9045 sf 0 0 m (4) show NC gr 
 gsave  2268 461 0 0 C 335.596 430.084 t 0 r /Helvetica findfont 22.9045 sf 0 0 m (5) show NC gr  2154 74 m 364 Y s 2101 74 m 53 X s 2127 81 m 27 X s 2127 88 m 27 X s 2127 96 m 27 X s 2127 103 m 27 X s 2101 110 m 53 X s 2127 118 m 27 X s 2127 125 m
 27 X s 2127 132 m 27 X s 2127 139 m 27 X s 2101 147 m 53 X s 2127 154 m 27 X s 2127 161 m 27 X s 2127 169 m 27 X s 2127 176 m 27 X s 2101 183 m 53 X s 2127 190 m 27 X s 2127 198 m 27 X s 2127 205 m 27 X s 2127 212 m 27 X s 2101 220 m 53 X s 2127 227
 m 27 X s 2127 234 m 27 X s 2127 241 m 27 X s 2127 249 m 27 X s 2101 256 m 53 X s 2127 263 m 27 X s 2127 271 m 27 X s 2127 278 m 27 X s 2127 285 m 27 X s 2101 293 m 53 X s 2127 300 m 27 X s 2127 307 m 27 X s 2127 314 m 27 X s 2127 322 m 27 X s 2101
 329 m 53 X s 2127 336 m 27 X s 2127 344 m 27 X s 2127 351 m 27 X s 2127 358 m 27 X s 2101 365 m 53 X s 2127 373 m 27 X s 2127 380 m 27 X s 2127 387 m 27 X s 2127 395 m 27 X s 2101 402 m 53 X s 2127 409 m 27 X s 2127 416 m 27 X s 2127 424 m 27 X s
 2127 431 m 27 X s 2101 438 m 53 X s 6 lw 0.2 0.8 0.2 c black 3 lw 0.2 0.8 0.2 c 363 256 m -1 Y 36 X -62 Y 35 X 66 Y 36 X 4 Y 36 X -25 Y 36 X 30 Y 36 X 20 Y 36 X 16 Y 35 X -32 Y 36 X -46 Y 36 X 42 Y 36 X -29 Y 36 X 18 Y 36 X -14 Y 35 X -27 Y 36 X 43
 Y 36 X -44 Y 36 X 63 Y 36 X -55 Y 36 X -5 Y 35 X 34 Y 36 X 11 Y 36 X 4 Y 36 X 40 Y 36 X -32 Y 36 X 8 Y 35 X -63 Y 36 X 30 Y 36 X -76 Y 36 X 101 Y 36 X -83 Y 36 X 123 Y 35 X -33 Y 36 X 44 Y 36 X -59 Y 36 X 23 Y 36 X -22 Y 36 X 10 Y 35 X -66 Y 36 X 31
 Y 36 X -40 Y 36 X 1 Y 36 X 6 Y 36 X 24 Y 35 X -25 Y 36 X 49 Y 36 X 3 Y 36 X 30 Y 36 X 42 Y 36 X -18 Y 35 X -59 Y f 6 lw black 0.2 0.8 0.2 c black 363 255 m 36 X -62 Y 35 X 66 Y 36 X 4 Y 36 X -25 Y 36 X 30 Y 36 X 20 Y 36 X 16 Y 35 X -32 Y 36 X -46 Y
 36 X 42 Y 36 X -29 Y 36 X 18 Y 36 X -14 Y 35 X -27 Y 36 X 43 Y 36 X -44 Y 36 X 63 Y 36 X -55 Y 36 X -5 Y 35 X 34 Y 36 X 11 Y 36 X 4 Y 36 X 40 Y 36 X -32 Y 36 X 8 Y 35 X -63 Y 36 X 30 Y 36 X -76 Y 36 X 101 Y 36 X -83 Y 36 X 123 Y 35 X -33 Y 36 X 44 Y
 36 X -59 Y 36 X 23 Y 36 X -22 Y 36 X 10 Y 35 X -66 Y 36 X 31 Y 36 X -40 Y 36 X 1 Y 36 X 6 Y 36 X 24 Y 35 X -25 Y 36 X 49 Y 36 X 3 Y 36 X 30 Y 36 X 42 Y 36 X -18 Y 35 X s 3 lw 363 74 m 1791 X s 473 85 m -11 Y s 546 79 m -5 Y s 619 79 m -5 Y s 692 79
 m -5 Y s 765 79 m -5 Y s 838 85 m -11 Y s 911 79 m -5 Y s 984 79 m -5 Y s 1057 79 m -5 Y s 1131 79 m -5 Y s 1204 85 m -11 Y s 1277 79 m -5 Y s 1350 79 m -5 Y s 1423 79 m -5 Y s 1496 79 m -5 Y s 1569 85 m -11 Y s 1642 79 m -5 Y s 1716 79 m -5 Y s
 1789 79 m -5 Y s 1862 79 m -5 Y s 1935 85 m -11 Y s 473 85 m -11 Y s 399 79 m -5 Y s 1935 85 m -11 Y s 2008 79 m -5 Y s 2081 79 m -5 Y s 2154 79 m -5 Y s 363 438 m 1791 X s 473 427 m 11 Y s 546 433 m 5 Y s 619 433 m 5 Y s 692 433 m 5 Y s 765 433 m 5
 Y s 838 427 m 11 Y s 911 433 m 5 Y s 984 433 m 5 Y s 1057 433 m 5 Y s 1131 433 m 5 Y s 1204 427 m 11 Y s 1277 433 m 5 Y s 1350 433 m 5 Y s 1423 433 m 5 Y s 1496 433 m 5 Y s 1569 427 m 11 Y s 1642 433 m 5 Y s 1716 433 m 5 Y s 1789 433 m 5 Y s 1862
 433 m 5 Y s 1935 427 m 11 Y s 473 427 m 11 Y s 399 433 m 5 Y s 1935 427 m 11 Y s 2008 433 m 5 Y s 2081 433 m 5 Y s 2154 433 m 5 Y s 363 74 m 364 Y s 417 74 m -54 X s 390 81 m -27 X s 390 88 m -27 X s 390 96 m -27 X s 390 103 m -27 X s 417 110 m -54
 X s 390 118 m -27 X s 390 125 m -27 X s 390 132 m -27 X s 390 139 m -27 X s 417 147 m -54 X s 390 154 m -27 X s 390 161 m -27 X s 390 169 m -27 X s 390 176 m -27 X s 417 183 m -54 X s 390 190 m -27 X s 390 198 m -27 X s 390 205 m -27 X s 390 212 m
 -27 X s 417 220 m -54 X s 390 227 m -27 X s 390 234 m -27 X s 390 241 m -27 X s 390 249 m -27 X s 417 256 m -54 X s 390 263 m -27 X s 390 271 m -27 X s 390 278 m -27 X s 390 285 m -27 X s 417 293 m -54 X s 390 300 m -27 X s 390 307 m -27 X s 390 314
 m -27 X s 390 322 m -27 X s 417 329 m -54 X s 390 336 m -27 X s 390 344 m -27 X s 390 351 m -27 X s 390 358 m -27 X s 417 365 m -54 X s 390 373 m -27 X s 390 380 m -27 X s 390 387 m -27 X s 390 395 m -27 X s 417 402 m -54 X s 390 409 m -27 X s 390
 416 m -27 X s 390 424 m -27 X s 390 431 m -27 X s 417 438 m -54 X s 2154 74 m 364 Y s 2101 74 m 53 X s 2127 81 m 27 X s 2127 88 m 27 X s 2127 96 m 27 X s 2127 103 m 27 X s 2101 110 m 53 X s 2127 118 m 27 X s 2127 125 m 27 X s 2127 132 m 27 X s 2127
 139 m 27 X s 2101 147 m 53 X s 2127 154 m 27 X s 2127 161 m 27 X s 2127 169 m 27 X s 2127 176 m 27 X s 2101 183 m 53 X s 2127 190 m 27 X s 2127 198 m 27 X s 2127 205 m 27 X s 2127 212 m 27 X s 2101 220 m 53 X s 2127 227 m 27 X s 2127 234 m 27 X s
 2127 241 m 27 X s 2127 249 m 27 X s 2101 256 m 53 X s 2127 263 m 27 X s 2127 271 m 27 X s 2127 278 m 27 X s 2127 285 m 27 X s 2101 293 m 53 X s 2127 300 m 27 X s 2127 307 m 27 X s 2127 314 m 27 X s 2127 322 m 27 X s 2101 329 m 53 X s 2127 336 m 27 X
 s 2127 344 m 27 X s 2127 351 m 27 X s 2127 358 m 27 X s 2101 365 m 53 X s 2127 373 m 27 X s 2127 380 m 27 X s 2127 387 m 27 X s 2127 395 m 27 X s 2101 402 m 53 X s 2127 409 m 27 X s 2127 416 m 27 X s 2127 424 m 27 X s 2127 431 m 27 X s 2101 438 m 53
 X s
 gr  gr showpage
end
%%EOF
