%!PS-Adobe-2.0 EPSF-2.0
%%BoundingBox:  0 0 567 384
%%Title: H4l2015_plotfit/gg_mass_signal_700_H4l_2mu2e.eps: 
%%Creator: ROOT Version 5.34/10
%%CreationDate: Thu Feb 16 15:47:17 2017
%%EndComments
%%BeginProlog
80 dict begin
/s {stroke} def /l {lineto} def /m {moveto} def /t {translate} def
/r {rotate} def /rl {roll}  def /R {repeat} def
/d {rlineto} def /rm {rmoveto} def /gr {grestore} def /f {eofill} def
/c {setrgbcolor} def /black {0 setgray} def /sd {setdash} def
/cl {closepath} def /sf {scalefont setfont} def /lw {setlinewidth} def
/box {m dup 0 exch d exch 0 d 0 exch neg d cl} def
/NC{systemdict begin initclip end}def/C{NC box clip newpath}def
/bl {box s} def /bf {box f} def /Y { 0 exch d} def /X { 0 d} def 
/K {{pop pop 0 moveto} exch kshow} bind def
/ita {/ang 15 def gsave [1 0 ang dup sin exch cos div 1 0 0] concat} def 
/mp {newpath /y exch def /x exch def} def
/side {[w .77 mul w .23 mul] .385 w mul sd w 0 l currentpoint t -144 r} def
/mr {mp x y w2 0 360 arc} def /m24 {mr s} def /m20 {mr f} def
/mb {mp x y w2 add m w2 neg 0 d 0 w neg d w 0 d 0 w d cl} def
/mt {mp x y w2 add m w2 neg w neg d w 0 d cl} def
/m21 {mb f} def /m25 {mb s} def /m22 {mt f} def /m26{mt s} def
/m23 {mp x y w2 sub m w2 w d w neg 0 d cl f} def
/m27 {mp x y w2 add m w3 neg w2 neg d w3 w2 neg d w3 w2 d cl s} def
/m28 {mp x w2 sub y w2 sub w3 add m w3 0 d  0 w3 neg d w3 0 d 0 w3 d w3 0 d  0 w3 d w3 neg 0 d 0 w3 d w3 neg 0 d 0 w3 neg d w3 neg 0 d cl s } def
/m29 {mp gsave x w2 sub y w2 add w3 sub m currentpoint t 4 {side} repeat cl fill gr} def
/m30 {mp gsave x w2 sub y w2 add w3 sub m currentpoint t 4 {side} repeat cl s gr} def
/m31 {mp x y w2 sub m 0 w d x w2 sub y m w 0 d x w2 sub y w2 add m w w neg d x w2 sub y w2 sub m w w d s} def
/m32 {mp x y w2 sub m w2 w d w neg 0 d cl s} def
/m33 {mp x y w2 add m w3 neg w2 neg d w3 w2 neg d w3 w2 d cl f} def
/m34 {mp x w2 sub y w2 sub w3 add m w3 0 d  0 w3 neg d w3 0 d 0 w3 d w3 0 d  0 w3 d w3 neg 0 d 0 w3 d w3 neg 0 d 0 w3 neg d w3 neg 0 d cl f } def
/m2 {mp x y w2 sub m 0 w d x w2 sub y m w 0 d s} def
/m5 {mp x w2 sub y w2 sub m w w d x w2 sub y w2 add m w w neg d s} def
/reEncode {exch findfont dup length dict begin {1 index /FID eq  {pop pop} {def} ifelse } forall /Encoding exch def currentdict end dup /FontName get exch definefont pop } def [/Times-Bold /Times-Italic /Times-BoldItalic /Helvetica /Helvetica-Oblique
 /Helvetica-Bold /Helvetica-BoldOblique /Courier /Courier-Oblique /Courier-Bold /Courier-BoldOblique /Times-Roman /AvantGarde-Book /AvantGarde-BookOblique /AvantGarde-Demi /AvantGarde-DemiOblique /Bookman-Demi /Bookman-DemiItalic /Bookman-Light
 /Bookman-LightItalic /Helvetica-Narrow /Helvetica-Narrow-Bold /Helvetica-Narrow-BoldOblique /Helvetica-Narrow-Oblique /NewCenturySchlbk-Roman /NewCenturySchlbk-Bold /NewCenturySchlbk-BoldItalic /NewCenturySchlbk-Italic /Palatino-Bold
 /Palatino-BoldItalic /Palatino-Italic /Palatino-Roman ] {ISOLatin1Encoding reEncode } forall
%%EndProlog
%%BeginSetup
%%EndSetup
newpath  gsave  .25 .25 scale  gsave  0 0 t black[  ] 0 sd 3 lw 1 1 1 c 2268 1538 0 0 bf black 1 1 1 c 2222 738 23 784 bf black 1 1 1 c 2222 739 23 15 bf black 1 1 1 c 2268 1077 0 461 bf black 1 1 1 c 1791 850 363 634 bf black 1791 850 363 634 bl 363
 634 m 1791 X s
 gsave  2268 1077 0 461 C 1642.14 498.507 t 0 r /Helvetica findfont 48.9324 sf 0 0 m (4l Invariant Mass \(GeV\)) show NC gr  363 659 m -25 Y s 423 646 m -12 Y s 482 646 m -12 Y s 542 646 m -12 Y s 602 659 m -25 Y s 661 646 m -12 Y s 721 646 m -12 Y s
 781 646 m -12 Y s 841 659 m -25 Y s 900 646 m -12 Y s 960 646 m -12 Y s 1020 646 m -12 Y s 1079 659 m -25 Y s 1139 646 m -12 Y s 1199 646 m -12 Y s 1259 646 m -12 Y s 1318 659 m -25 Y s 1378 646 m -12 Y s 1438 646 m -12 Y s 1497 646 m -12 Y s 1557
 659 m -25 Y s 1617 646 m -12 Y s 1677 646 m -12 Y s 1736 646 m -12 Y s 1796 659 m -25 Y s 1856 646 m -12 Y s 1915 646 m -12 Y s 1975 646 m -12 Y s 2035 659 m -25 Y s 2035 659 m -25 Y s 2095 646 m -12 Y s 2154 646 m -12 Y s
 gsave  2268 1077 0 461 C 319.305 586.478 t 0 r /Helvetica findfont 48.9324 sf 0 0 m (600) show NC gr 
 gsave  2268 1077 0 461 C 557.154 586.478 t 0 r /Helvetica findfont 48.9324 sf 0 0 m (620) show NC gr 
 gsave  2268 1077 0 461 C 795.004 586.478 t 0 r /Helvetica findfont 48.9324 sf 0 0 m (640) show NC gr 
 gsave  2268 1077 0 461 C 1036.11 586.478 t 0 r /Helvetica findfont 48.9324 sf 0 0 m (660) show NC gr 
 gsave  2268 1077 0 461 C 1273.96 586.478 t 0 r /Helvetica findfont 48.9324 sf 0 0 m (680) show NC gr 
 gsave  2268 1077 0 461 C 1511.81 586.478 t 0 r /Helvetica findfont 48.9324 sf 0 0 m (700) show NC gr 
 gsave  2268 1077 0 461 C 1752.92 586.478 t 0 r /Helvetica findfont 48.9324 sf 0 0 m (720) show NC gr 
 gsave  2268 1077 0 461 C 1990.77 586.478 t 0 r /Helvetica findfont 48.9324 sf 0 0 m (740) show NC gr  363 1484 m 1791 X s 363 1459 m 25 Y s 423 1471 m 13 Y s 482 1471 m 13 Y s 542 1471 m 13 Y s 602 1459 m 25 Y s 661 1471 m 13 Y s 721 1471 m 13 Y s
 781 1471 m 13 Y s 841 1459 m 25 Y s 900 1471 m 13 Y s 960 1471 m 13 Y s 1020 1471 m 13 Y s 1079 1459 m 25 Y s 1139 1471 m 13 Y s 1199 1471 m 13 Y s 1259 1471 m 13 Y s 1318 1459 m 25 Y s 1378 1471 m 13 Y s 1438 1471 m 13 Y s 1497 1471 m 13 Y s 1557
 1459 m 25 Y s 1617 1471 m 13 Y s 1677 1471 m 13 Y s 1736 1471 m 13 Y s 1796 1459 m 25 Y s 1856 1471 m 13 Y s 1915 1471 m 13 Y s 1975 1471 m 13 Y s 2035 1459 m 25 Y s 2035 1459 m 25 Y s 2095 1471 m 13 Y s 2154 1471 m 13 Y s 363 634 m 850 Y s
 gsave  2268 1077 0 461 C 120.554 1098.02 t 90 r /Helvetica findfont 48.9324 sf 0 0 m (Events / \( 3 GeV \)) show NC gr  390 657 m -27 X s 390 681 m -27 X s 390 701 m -27 X s 390 719 m -27 X s 390 735 m -27 X s 417 749 m -54 X s
 gsave  2268 1077 0 461 C 342.425 727.957 t 0 r  -55 0 t /Helvetica findfont 48.9324 sf 0 0 m (10) show NC gr  390 841 m -27 X s 390 895 m -27 X s 390 933 m -27 X s 390 963 m -27 X s 390 987 m -27 X s 390 1008 m -27 X s 390 1025 m -27 X s 390 1041 m
 -27 X s 417 1055 m -54 X s
 gsave  2268 1077 0 461 C 322.563 1052.4 t 0 r /Helvetica findfont 32.6216 sf 0 0 m (2) show NC gr 
 gsave  2268 1077 0 461 C 270.432 1032.85 t 0 r /Helvetica findfont 48.9324 sf 0 0 m (10) show NC gr  390 1147 m -27 X s 390 1201 m -27 X s 390 1239 m -27 X s 390 1269 m -27 X s 390 1293 m -27 X s 390 1314 m -27 X s 390 1331 m -27 X s 390 1347 m -27
 X s 417 1361 m -54 X s
 gsave  2268 1077 0 461 C 322.563 1361.93 t 0 r /Helvetica findfont 32.6216 sf 0 0 m (3) show NC gr 
 gsave  2268 1077 0 461 C 270.432 1339.13 t 0 r /Helvetica findfont 48.9324 sf 0 0 m (10) show NC gr  390 1453 m -27 X s 2154 634 m 850 Y s 2127 657 m 27 X s 2127 681 m 27 X s 2127 701 m 27 X s 2127 719 m 27 X s 2127 735 m 27 X s 2101 749 m 53 X s
 2127 841 m 27 X s 2127 895 m 27 X s 2127 933 m 27 X s 2127 963 m 27 X s 2127 987 m 27 X s 2127 1008 m 27 X s 2127 1025 m 27 X s 2127 1041 m 27 X s 2101 1055 m 53 X s 2127 1147 m 27 X s 2127 1201 m 27 X s 2127 1239 m 27 X s 2127 1269 m 27 X s 2127
 1293 m 27 X s 2127 1314 m 27 X s 2127 1331 m 27 X s 2127 1347 m 27 X s 2101 1361 m 53 X s 2127 1453 m 27 X s 381 761 m -18 X s 363 761 m cl s 381 761 m 18 X s 399 761 m cl s 381 761 m 45 Y s 381 806 m cl s 381 761 m -46 Y s 381 715 m cl s 417 749 m
 -18 X s 399 749 m cl s 417 749 m 17 X s 434 749 m cl s 417 749 m 47 Y s 417 796 m cl s 417 749 m -50 Y s 417 699 m cl s 452 749 m -18 X s 434 749 m cl s 452 749 m 18 X s 470 749 m cl s 452 749 m 47 Y s 452 796 m cl s 452 749 m -50 Y s 452 699 m cl s
 488 657 m -18 X s 470 657 m cl s 488 657 m 18 X s 506 657 m cl s 488 657 m 68 Y s 488 725 m cl s 488 657 m -23 Y s 488 634 m cl s 524 794 m -18 X s 506 794 m cl s 524 794 m 18 X s 542 794 m cl s 524 794 m 39 Y s 524 833 m cl s 524 794 m -41 Y s 524
 753 m cl s 560 860 m -18 X s 542 860 m cl s 560 860 m 18 X s 578 860 m cl s 560 860 m 30 Y s 560 890 m cl s 560 860 m -31 Y s 560 829 m cl s 596 761 m -18 X s 578 761 m cl s 596 761 m 18 X s 614 761 m cl s 596 761 m 45 Y s 596 806 m cl s 596 761 m
 -46 Y s 596 715 m cl s 632 761 m -18 X s 614 761 m cl s 632 761 m 17 X s 649 761 m cl s 632 761 m 45 Y s 632 806 m cl s 632 761 m -46 Y s 632 715 m cl s 667 847 m -18 X s 649 847 m cl s 667 847 m 18 X s 685 847 m cl s 667 847 m 32 Y s 667 879 m cl s
 667 847 m -32 Y s 667 815 m cl s 703 834 m -18 X s 685 834 m cl s 703 834 m 18 X s 721 834 m cl s 703 834 m 34 Y s 703 868 m cl s 703 834 m -34 Y s 703 800 m cl s 739 881 m -18 X s 721 881 m cl s 739 881 m 18 X s 757 881 m cl s 739 881 m 28 Y s 739
 909 m cl s 739 881 m -28 Y s 739 853 m cl s 775 860 m -18 X s 757 860 m cl s 775 860 m 18 X s 793 860 m cl s 775 860 m 30 Y s 775 890 m cl s 775 860 m -31 Y s 775 829 m cl s 811 871 m -18 X s 793 871 m cl s 811 871 m 18 X s 829 871 m cl s 811 871 m
 29 Y s 811 900 m cl s 811 871 m -30 Y s 811 841 m cl s 847 912 m -18 X s 829 912 m cl s 847 912 m 17 X s 864 912 m cl s 847 912 m 24 Y s 847 936 m cl s 847 912 m -25 Y s 847 887 m cl s 882 965 m -18 X s 864 965 m cl s 882 965 m 18 X s 900 965 m cl s
 882 965 m 20 Y s 882 985 m cl s 882 965 m -20 Y s 882 945 m cl s 918 960 m -18 X s 900 960 m cl s 918 960 m 18 X s 936 960 m cl s 918 960 m 20 Y s 918 980 m cl s 918 960 m -20 Y s 918 940 m cl s 954 973 m -18 X s 936 973 m cl s 954 973 m 18 X s 972
 973 m cl s 954 973 m 19 Y s 954 992 m cl s 954 973 m -19 Y s 954 954 m cl s 990 957 m -18 X s 972 957 m cl s 990 957 m 18 X s 1008 957 m cl s 990 957 m 21 Y s 990 978 m cl s 990 957 m -20 Y s 990 937 m cl s 1026 996 m -18 X s 1008 996 m cl s 1026
 996 m 18 X s 1044 996 m cl s 1026 996 m 17 Y s 1026 1013 m cl s 1026 996 m -18 Y s 1026 978 m cl s 1062 1011 m -18 X s 1044 1011 m cl s 1062 1011 m 17 X s 1079 1011 m cl s 1062 1011 m 17 Y s 1062 1028 m cl s 1062 1011 m -16 Y s 1062 995 m cl s 1097
 1074 m -18 X s 1079 1074 m cl s 1097 1074 m 18 X s 1115 1074 m cl s 1097 1074 m 12 Y s 1097 1086 m cl s 1097 1074 m -13 Y s 1097 1061 m cl s 1133 1050 m -18 X s 1115 1050 m cl s 1133 1050 m 18 X s 1151 1050 m cl s 1133 1050 m 14 Y s 1133 1064 m cl s
 1133 1050 m -15 Y s 1133 1035 m cl s 1169 1090 m -18 X s 1151 1090 m cl s 1169 1090 m 18 X s 1187 1090 m cl s 1169 1090 m 11 Y s 1169 1101 m cl s 1169 1090 m -12 Y s 1169 1078 m cl s 1205 1119 m -18 X s 1187 1119 m cl s 1205 1119 m 18 X s 1223 1119
 m cl s 1205 1119 m 11 Y s 1205 1130 m cl s 1205 1119 m -10 Y s 1205 1109 m cl s 1241 1160 m -18 X s 1223 1160 m cl s 1241 1160 m 18 X s 1259 1160 m cl s 1241 1160 m 9 Y s 1241 1169 m cl s 1241 1160 m -9 Y s 1241 1151 m cl s 1276 1191 m -17 X s 1259
 1191 m cl s 1276 1191 m 18 X s 1294 1191 m cl s 1276 1191 m 8 Y s 1276 1199 m cl s 1276 1191 m -8 Y s 1276 1183 m cl s 1312 1228 m -18 X s 1294 1228 m cl s 1312 1228 m 18 X s 1330 1228 m cl s 1312 1228 m 7 Y s 1312 1235 m cl s 1312 1228 m -7 Y s
 1312 1221 m cl s 1348 1261 m -18 X s 1330 1261 m cl s 1348 1261 m 18 X s 1366 1261 m cl s 1348 1261 m 6 Y s 1348 1267 m cl s 1348 1261 m -6 Y s 1348 1255 m cl s 1384 1296 m -18 X s 1366 1296 m cl s 1384 1296 m 18 X s 1402 1296 m cl s 1384 1296 m 5 Y
 s 1384 1301 m cl s 1384 1296 m -6 Y s 1384 1290 m cl s 1420 1343 m -18 X s 1402 1343 m cl s 1420 1343 m 18 X s 1438 1343 m cl s 1420 1343 m 4 Y s 1420 1347 m cl s 1420 1343 m -5 Y s 1420 1338 m cl s 1456 1379 m -18 X s 1438 1379 m cl s 1456 1379 m
 18 X s 1474 1379 m cl s 1456 1379 m 4 Y s 1456 1383 m cl s 1456 1379 m -4 Y s 1456 1375 m cl s 1491 1406 m -17 X s 1474 1406 m cl s 1491 1406 m 18 X s 1509 1406 m cl s 1491 1406 m 4 Y s 1491 1410 m cl s 1491 1406 m -3 Y s 1491 1403 m cl s 1527 1415
 m -18 X s 1509 1415 m cl s 1527 1415 m 18 X s 1545 1415 m cl s 1527 1415 m 3 Y s 1527 1418 m cl s 1527 1415 m -4 Y s 1527 1411 m cl s 1563 1414 m -18 X s 1545 1414 m cl s 1563 1414 m 18 X s 1581 1414 m cl s 1563 1414 m 3 Y s 1563 1417 m cl s 1563
 1414 m -4 Y s 1563 1410 m cl s 1599 1396 m -18 X s 1581 1396 m cl s 1599 1396 m 18 X s 1617 1396 m cl s 1599 1396 m 4 Y s 1599 1400 m cl s 1599 1396 m -4 Y s 1599 1392 m cl s 1635 1358 m -18 X s 1617 1358 m cl s 1635 1358 m 18 X s 1653 1358 m cl s
 1635 1358 m 4 Y s 1635 1362 m cl s 1635 1358 m -5 Y s 1635 1353 m cl s 1671 1303 m -18 X s 1653 1303 m cl s 1671 1303 m 18 X s 1689 1303 m cl s 1671 1303 m 5 Y s 1671 1308 m cl s 1671 1303 m -5 Y s 1671 1298 m cl s 1706 1253 m -17 X s 1689 1253 m cl
 s 1706 1253 m 18 X s 1724 1253 m cl s 1706 1253 m 6 Y s 1706 1259 m cl s 1706 1253 m -6 Y s 1706 1247 m cl s 1742 1200 m -18 X s 1724 1200 m cl s 1742 1200 m 18 X s 1760 1200 m cl s 1742 1200 m 8 Y s 1742 1208 m cl s 1742 1200 m -8 Y s 1742 1192 m
 cl s 1778 1137 m -18 X s 1760 1137 m cl s 1778 1137 m 18 X s 1796 1137 m cl s 1778 1137 m 9 Y s 1778 1146 m cl s 1778 1137 m -10 Y s 1778 1127 m cl s 1814 1079 m -18 X s 1796 1079 m cl s 1814 1079 m 18 X s 1832 1079 m cl s 1814 1079 m 12 Y s 1814
 1091 m cl s 1814 1079 m -12 Y s 1814 1067 m cl s 1850 1048 m -18 X s 1832 1048 m cl s 1850 1048 m 18 X s 1868 1048 m cl s 1850 1048 m 14 Y s 1850 1062 m cl s 1850 1048 m -14 Y s 1850 1034 m cl s 1886 963 m -18 X s 1868 963 m cl s 1886 963 m 18 X s
 1904 963 m cl s 1886 963 m 20 Y s 1886 983 m cl s 1886 963 m -20 Y s 1886 943 m cl s 1921 933 m -17 X s 1904 933 m cl s 1921 933 m 18 X s 1939 933 m cl s 1921 933 m 23 Y s 1921 956 m cl s 1921 933 m -23 Y s 1921 910 m cl s 1957 933 m -18 X s 1939
 933 m cl s 1957 933 m 18 X s 1975 933 m cl s 1957 933 m 23 Y s 1957 956 m cl s 1957 933 m -23 Y s 1957 910 m cl s 1993 854 m -18 X s 1975 854 m cl s 1993 854 m 18 X s 2011 854 m cl s 1993 854 m 31 Y s 1993 885 m cl s 1993 854 m -32 Y s 1993 822 m cl
 s 2029 834 m -18 X s 2011 834 m cl s 2029 834 m 18 X s 2047 834 m cl s 2029 834 m 34 Y s 2029 868 m cl s 2029 834 m -34 Y s 2029 800 m cl s 2065 749 m -18 X s 2047 749 m cl s 2065 749 m 18 X s 2083 749 m cl s 2065 749 m 47 Y s 2065 796 m cl s 2065
 749 m -50 Y s 2065 699 m cl s 2101 761 m -18 X s 2083 761 m cl s 2101 761 m 18 X s 2119 761 m cl s 2101 761 m 45 Y s 2101 806 m cl s 2101 761 m -46 Y s 2101 715 m cl s 2136 735 m -17 X s 2119 735 m cl s 2136 735 m 18 X s 2154 735 m cl s 2136 735 m
 50 Y s 2136 785 m cl s 2136 735 m -53 Y s 2136 682 m cl s /w 31 def /w2 {w 2 div} def /w3 {w 3 div} def 381 761 417 749 452 749 488 657 524 794 560 860 596 761 632 761 667 847 703 834 739 881 775 860 811 871 847 912 882 965 918 960 954 973 990 957
 1026 996 1062 1011 1097 1074 1133 1050 1169 1090 1205 1119 1241 1160 1276 1191 1312 1228 1348 1261 1384 1296 1420 1343 1456 1379 1491 1406 1527 1415 1563 1414 1599 1396 1635 1358 1671 1303 1706 1253 1742 1200 1778 1137 1814 1079 1850 1048 1886 963
 1921 933 1957 933 1993 854 2029 834 2065 749 2101 761 2136 735 50 { m20} R 0 1 1 c 1 1 0 c black 1 1 0 c 363 793 m 36 6 d 35 7 d 36 6 d 36 7 d 36 8 d 36 7 d 36 8 d 35 9 d 36 9 d 36 9 d 36 10 d 36 11 d 36 13 d 35 14 d 36 16 d 36 18 d 36 19 d 36 22 d
 36 23 d 35 25 d 36 26 d 36 26 d 36 28 d 36 28 d 36 29 d 17 15 d 18 15 d 18 15 d 18 16 d 9 9 d 9 9 d 9 9 d 9 11 d 9 11 d 9 13 d 9 14 d 9 13 d 18 22 d 18 20 d 18 17 d 9 7 d 9 7 d 9 5 d 8 5 d 9 4 d 9 3 d 9 3 d 9 1 d 9 X 9 -1 d 9 -2 d 9 -3 d 9 -4 d 9 -4
 d 9 -6 d 9 -7 d 9 -7 d 9 -8 d 36 -41 d 9 -12 d 9 -12 d 9 -13 d 9 -14 d 8 -14 d 9 -14 d 9 -15 d 9 -15 d 9 -15 d 9 -15 d 9 -15 d 9 -15 d 18 -27 d 18 -26 d 18 -24 d 18 -21 d 36 -41 d 36 -38 d 35 -40 d 36 -40 d 36 -42 d 36 -44 d 36 -47 d 36 -51 d 35 -53
 d -41 Y -31 X -4 10 d -36 67 d -36 61 d -36 56 d -36 51 d -36 46 d -35 41 d -36 40 d -36 44 d -18 24 d -18 25 d -18 28 d -18 29 d -9 14 d -9 15 d -9 16 d -9 15 d -9 15 d -9 15 d -9 15 d -8 15 d -9 14 d -9 14 d -9 14 d -9 12 d -36 43 d -9 8 d -9 8 d
 -9 6 d -9 6 d -9 5 d -9 3 d -9 3 d -9 2 d -9 1 d -9 X -9 -1 d -9 -2 d -9 -3 d -9 -3 d -8 -5 d -9 -6 d -9 -7 d -9 -8 d -18 -19 d -18 -22 d -18 -26 d -9 -13 d -9 -12 d -9 -11 d -9 -10 d -9 -10 d -9 -10 d -9 -10 d -9 -9 d -18 -17 d -18 -16 d -18 -15 d
 -17 -14 d -36 -28 d -36 -28 d -36 -28 d -36 -28 d -36 -28 d -35 -27 d -36 -25 d -36 -23 d -36 -20 d -36 -19 d -36 -16 d -35 -14 d -36 -13 d -36 -12 d -36 -11 d -36 -10 d -36 -9 d -35 -9 d -36 -8 d -36 -8 d -36 -7 d -36 -7 d -36 -7 d -35 -7 d -36 -7
 d f 0 1 1 c 0 1 0 c black 0 1 0 c 363 787 m 36 6 d 35 7 d 36 7 d 36 7 d 36 7 d 36 8 d 36 8 d 35 8 d 36 9 d 36 10 d 36 10 d 36 11 d 36 13 d 35 14 d 36 16 d 36 18 d 36 20 d 36 22 d 36 24 d 35 25 d 36 26 d 36 27 d 36 28 d 36 28 d 36 29 d 17 14 d 18 15
 d 18 16 d 18 16 d 9 9 d 9 9 d 9 9 d 9 10 d 9 12 d 9 12 d 9 14 d 9 12 d 18 24 d 18 20 d 18 17 d 9 8 d 9 7 d 9 5 d 8 5 d 9 4 d 9 3 d 9 2 d 9 1 d 18 X 9 -2 d 9 -3 d 9 -4 d 9 -5 d 9 -5 d 9 -7 d 9 -8 d 9 -8 d 36 -41 d 9 -12 d 9 -13 d 9 -13 d 9 -14 d 8
 -14 d 9 -14 d 9 -15 d 9 -15 d 9 -15 d 9 -15 d 9 -15 d 9 -15 d 18 -28 d 18 -26 d 18 -24 d 18 -22 d 36 -41 d 36 -39 d 35 -40 d 36 -41 d 36 -44 d 36 -47 d 36 -49 d 36 -53 d 35 -57 d -21 Y -15 X -20 36 d -36 61 d -36 56 d -36 53 d -36 48 d -36 44 d -35
 41 d -36 40 d -36 42 d -18 24 d -18 25 d -18 27 d -18 28 d -9 15 d -9 15 d -9 15 d -9 15 d -9 15 d -9 15 d -9 15 d -8 15 d -9 14 d -9 14 d -9 13 d -9 12 d -36 42 d -9 9 d -9 7 d -9 7 d -9 5 d -9 5 d -9 4 d -9 3 d -9 2 d -18 X -9 -1 d -9 -1 d -9 -3 d
 -9 -4 d -8 -5 d -9 -6 d -9 -7 d -9 -8 d -18 -18 d -18 -22 d -18 -24 d -9 -14 d -9 -12 d -9 -11 d -9 -11 d -9 -10 d -9 -10 d -9 -9 d -9 -9 d -18 -17 d -18 -16 d -18 -15 d -17 -14 d -36 -29 d -36 -28 d -36 -27 d -36 -28 d -36 -28 d -35 -26 d -36 -24 d
 -36 -23 d -36 -20 d -36 -18 d -36 -16 d -35 -15 d -36 -13 d -36 -11 d -36 -11 d -36 -10 d -36 -9 d -35 -8 d -36 -8 d -36 -8 d -36 -8 d -36 -7 d -36 -7 d -35 -6 d -36 -7 d f 0 0 1 c 9 lw black 0 0 1 c 363 781 m 36 6 d 35 7 d 36 7 d 36 7 d 36 7 d 36 8
 d 36 8 d 35 8 d 36 9 d 36 10 d 36 10 d 36 12 d 36 13 d 35 14 d 36 16 d 36 18 d 36 20 d 36 22 d 36 24 d 35 26 d 36 27 d 36 27 d 36 28 d 36 28 d 36 29 d 17 14 d 18 15 d 18 16 d 18 16 d 9 9 d 9 9 d 9 10 d 9 10 d 9 11 d 9 12 d 9 13 d 9 13 d 18 24 d 18
 21 d 18 18 d 9 8 d 9 6 d 9 6 d 8 5 d 9 4 d 9 3 d 9 2 d 9 1 d 9 X 9 -1 d 9 -2 d 9 -3 d 9 -3 d 9 -5 d 9 -6 d 9 -6 d 9 -8 d 9 -8 d 36 -42 d 9 -12 d 9 -13 d 9 -13 d 9 -14 d 8 -15 d 9 -14 d 9 -15 d 9 -15 d 9 -16 d 9 -15 d 9 -15 d 9 -14 d 18 -29 d 18 -26
 d 18 -25 d 18 -22 d 36 -42 d 36 -40 d 35 -40 d 36 -42 d 36 -46 d 36 -49 d 36 -53 d 36 -56 d 35 -59 d s black 3 lw 381 761 m -18 X s 363 761 m cl s 381 761 m 18 X s 399 761 m cl s 381 761 m 45 Y s 381 806 m cl s 381 761 m -46 Y s 381 715 m cl s 417
 749 m -18 X s 399 749 m cl s 417 749 m 17 X s 434 749 m cl s 417 749 m 47 Y s 417 796 m cl s 417 749 m -50 Y s 417 699 m cl s 452 749 m -18 X s 434 749 m cl s 452 749 m 18 X s 470 749 m cl s 452 749 m 47 Y s 452 796 m cl s 452 749 m -50 Y s 452 699
 m cl s 488 657 m -18 X s 470 657 m cl s 488 657 m 18 X s 506 657 m cl s 488 657 m 68 Y s 488 725 m cl s 488 657 m -23 Y s 488 634 m cl s 524 794 m -18 X s 506 794 m cl s 524 794 m 18 X s 542 794 m cl s 524 794 m 39 Y s 524 833 m cl s 524 794 m -41 Y
 s 524 753 m cl s 560 860 m -18 X s 542 860 m cl s 560 860 m 18 X s 578 860 m cl s 560 860 m 30 Y s 560 890 m cl s 560 860 m -31 Y s 560 829 m cl s 596 761 m -18 X s 578 761 m cl s 596 761 m 18 X s 614 761 m cl s 596 761 m 45 Y s 596 806 m cl s 596
 761 m -46 Y s 596 715 m cl s 632 761 m -18 X s 614 761 m cl s 632 761 m 17 X s 649 761 m cl s 632 761 m 45 Y s 632 806 m cl s 632 761 m -46 Y s 632 715 m cl s 667 847 m -18 X s 649 847 m cl s 667 847 m 18 X s 685 847 m cl s 667 847 m 32 Y s 667 879
 m cl s 667 847 m -32 Y s 667 815 m cl s 703 834 m -18 X s 685 834 m cl s 703 834 m 18 X s 721 834 m cl s 703 834 m 34 Y s 703 868 m cl s 703 834 m -34 Y s 703 800 m cl s 739 881 m -18 X s 721 881 m cl s 739 881 m 18 X s 757 881 m cl s 739 881 m 28 Y
 s 739 909 m cl s 739 881 m -28 Y s 739 853 m cl s 775 860 m -18 X s 757 860 m cl s 775 860 m 18 X s 793 860 m cl s 775 860 m 30 Y s 775 890 m cl s 775 860 m -31 Y s 775 829 m cl s 811 871 m -18 X s 793 871 m cl s 811 871 m 18 X s 829 871 m cl s 811
 871 m 29 Y s 811 900 m cl s 811 871 m -30 Y s 811 841 m cl s 847 912 m -18 X s 829 912 m cl s 847 912 m 17 X s 864 912 m cl s 847 912 m 24 Y s 847 936 m cl s 847 912 m -25 Y s 847 887 m cl s 882 965 m -18 X s 864 965 m cl s 882 965 m 18 X s 900 965
 m cl s 882 965 m 20 Y s 882 985 m cl s 882 965 m -20 Y s 882 945 m cl s 918 960 m -18 X s 900 960 m cl s 918 960 m 18 X s 936 960 m cl s 918 960 m 20 Y s 918 980 m cl s 918 960 m -20 Y s 918 940 m cl s 954 973 m -18 X s 936 973 m cl s 954 973 m 18 X
 s 972 973 m cl s 954 973 m 19 Y s 954 992 m cl s 954 973 m -19 Y s 954 954 m cl s 990 957 m -18 X s 972 957 m cl s 990 957 m 18 X s 1008 957 m cl s 990 957 m 21 Y s 990 978 m cl s 990 957 m -20 Y s 990 937 m cl s 1026 996 m -18 X s 1008 996 m cl s
 1026 996 m 18 X s 1044 996 m cl s 1026 996 m 17 Y s 1026 1013 m cl s 1026 996 m -18 Y s 1026 978 m cl s 1062 1011 m -18 X s 1044 1011 m cl s 1062 1011 m 17 X s 1079 1011 m cl s 1062 1011 m 17 Y s 1062 1028 m cl s 1062 1011 m -16 Y s 1062 995 m cl s
 1097 1074 m -18 X s 1079 1074 m cl s 1097 1074 m 18 X s 1115 1074 m cl s 1097 1074 m 12 Y s 1097 1086 m cl s 1097 1074 m -13 Y s 1097 1061 m cl s 1133 1050 m -18 X s 1115 1050 m cl s 1133 1050 m 18 X s 1151 1050 m cl s 1133 1050 m 14 Y s 1133 1064 m
 cl s 1133 1050 m -15 Y s 1133 1035 m cl s 1169 1090 m -18 X s 1151 1090 m cl s 1169 1090 m 18 X s 1187 1090 m cl s 1169 1090 m 11 Y s 1169 1101 m cl s 1169 1090 m -12 Y s 1169 1078 m cl s 1205 1119 m -18 X s 1187 1119 m cl s 1205 1119 m 18 X s 1223
 1119 m cl s 1205 1119 m 11 Y s 1205 1130 m cl s 1205 1119 m -10 Y s 1205 1109 m cl s 1241 1160 m -18 X s 1223 1160 m cl s 1241 1160 m 18 X s 1259 1160 m cl s 1241 1160 m 9 Y s 1241 1169 m cl s 1241 1160 m -9 Y s 1241 1151 m cl s 1276 1191 m -17 X s
 1259 1191 m cl s 1276 1191 m 18 X s 1294 1191 m cl s 1276 1191 m 8 Y s 1276 1199 m cl s 1276 1191 m -8 Y s 1276 1183 m cl s 1312 1228 m -18 X s 1294 1228 m cl s 1312 1228 m 18 X s 1330 1228 m cl s 1312 1228 m 7 Y s 1312 1235 m cl s 1312 1228 m -7 Y
 s 1312 1221 m cl s 1348 1261 m -18 X s 1330 1261 m cl s 1348 1261 m 18 X s 1366 1261 m cl s 1348 1261 m 6 Y s 1348 1267 m cl s 1348 1261 m -6 Y s 1348 1255 m cl s 1384 1296 m -18 X s 1366 1296 m cl s 1384 1296 m 18 X s 1402 1296 m cl s 1384 1296 m 5
 Y s 1384 1301 m cl s 1384 1296 m -6 Y s 1384 1290 m cl s 1420 1343 m -18 X s 1402 1343 m cl s 1420 1343 m 18 X s 1438 1343 m cl s 1420 1343 m 4 Y s 1420 1347 m cl s 1420 1343 m -5 Y s 1420 1338 m cl s 1456 1379 m -18 X s 1438 1379 m cl s 1456 1379 m
 18 X s 1474 1379 m cl s 1456 1379 m 4 Y s 1456 1383 m cl s 1456 1379 m -4 Y s 1456 1375 m cl s 1491 1406 m -17 X s 1474 1406 m cl s 1491 1406 m 18 X s 1509 1406 m cl s 1491 1406 m 4 Y s 1491 1410 m cl s 1491 1406 m -3 Y s 1491 1403 m cl s 1527 1415
 m -18 X s 1509 1415 m cl s 1527 1415 m 18 X s 1545 1415 m cl s 1527 1415 m 3 Y s 1527 1418 m cl s 1527 1415 m -4 Y s 1527 1411 m cl s 1563 1414 m -18 X s 1545 1414 m cl s 1563 1414 m 18 X s 1581 1414 m cl s 1563 1414 m 3 Y s 1563 1417 m cl s 1563
 1414 m -4 Y s 1563 1410 m cl s 1599 1396 m -18 X s 1581 1396 m cl s 1599 1396 m 18 X s 1617 1396 m cl s 1599 1396 m 4 Y s 1599 1400 m cl s 1599 1396 m -4 Y s 1599 1392 m cl s 1635 1358 m -18 X s 1617 1358 m cl s 1635 1358 m 18 X s 1653 1358 m cl s
 1635 1358 m 4 Y s 1635 1362 m cl s 1635 1358 m -5 Y s 1635 1353 m cl s 1671 1303 m -18 X s 1653 1303 m cl s 1671 1303 m 18 X s 1689 1303 m cl s 1671 1303 m 5 Y s 1671 1308 m cl s 1671 1303 m -5 Y s 1671 1298 m cl s 1706 1253 m -17 X s 1689 1253 m cl
 s 1706 1253 m 18 X s 1724 1253 m cl s 1706 1253 m 6 Y s 1706 1259 m cl s 1706 1253 m -6 Y s 1706 1247 m cl s 1742 1200 m -18 X s 1724 1200 m cl s 1742 1200 m 18 X s 1760 1200 m cl s 1742 1200 m 8 Y s 1742 1208 m cl s 1742 1200 m -8 Y s 1742 1192 m
 cl s 1778 1137 m -18 X s 1760 1137 m cl s 1778 1137 m 18 X s 1796 1137 m cl s 1778 1137 m 9 Y s 1778 1146 m cl s 1778 1137 m -10 Y s 1778 1127 m cl s 1814 1079 m -18 X s 1796 1079 m cl s 1814 1079 m 18 X s 1832 1079 m cl s 1814 1079 m 12 Y s 1814
 1091 m cl s 1814 1079 m -12 Y s 1814 1067 m cl s 1850 1048 m -18 X s 1832 1048 m cl s 1850 1048 m 18 X s 1868 1048 m cl s 1850 1048 m 14 Y s 1850 1062 m cl s 1850 1048 m -14 Y s 1850 1034 m cl s 1886 963 m -18 X s 1868 963 m cl s 1886 963 m 18 X s
 1904 963 m cl s 1886 963 m 20 Y s 1886 983 m cl s 1886 963 m -20 Y s 1886 943 m cl s 1921 933 m -17 X s 1904 933 m cl s 1921 933 m 18 X s 1939 933 m cl s 1921 933 m 23 Y s 1921 956 m cl s 1921 933 m -23 Y s 1921 910 m cl s 1957 933 m -18 X s 1939
 933 m cl s 1957 933 m 18 X s 1975 933 m cl s 1957 933 m 23 Y s 1957 956 m cl s 1957 933 m -23 Y s 1957 910 m cl s 1993 854 m -18 X s 1975 854 m cl s 1993 854 m 18 X s 2011 854 m cl s 1993 854 m 31 Y s 1993 885 m cl s 1993 854 m -32 Y s 1993 822 m cl
 s 2029 834 m -18 X s 2011 834 m cl s 2029 834 m 18 X s 2047 834 m cl s 2029 834 m 34 Y s 2029 868 m cl s 2029 834 m -34 Y s 2029 800 m cl s 2065 749 m -18 X s 2047 749 m cl s 2065 749 m 18 X s 2083 749 m cl s 2065 749 m 47 Y s 2065 796 m cl s 2065
 749 m -50 Y s 2065 699 m cl s 2101 761 m -18 X s 2083 761 m cl s 2101 761 m 18 X s 2119 761 m cl s 2101 761 m 45 Y s 2101 806 m cl s 2101 761 m -46 Y s 2101 715 m cl s 2136 735 m -17 X s 2119 735 m cl s 2136 735 m 18 X s 2154 735 m cl s 2136 735 m
 50 Y s 2136 785 m cl s 2136 735 m -53 Y s 2136 682 m cl s 381 761 417 749 452 749 488 657 524 794 560 860 596 761 632 761 667 847 703 834 739 881 775 860 811 871 847 912 882 965 918 960 954 973 990 957 1026 996 1062 1011 1097 1074 1133 1050 1169
 1090 1205 1119 1241 1160 1276 1191 1312 1228 1348 1261 1384 1296 1420 1343 1456 1379 1491 1406 1527 1415 1563 1414 1599 1396 1635 1358 1671 1303 1706 1253 1742 1200 1778 1137 1814 1079 1850 1048 1886 963 1921 933 1957 933 1993 854 2029 834 2065 749
 2101 761 2136 735 50 { m20} R 0.52 0.76 0.64 c[ 4 8] 0 sd 9 lw black 0.52 0.76 0.64 c 363 781 m 36 6 d 35 7 d 36 6 d 36 8 d 36 7 d 36 8 d 36 8 d 35 8 d 36 9 d 36 9 d 36 9 d 36 10 d 36 10 d 35 11 d 36 12 d 36 13 d 36 13 d 36 14 d 36 15 d 35 17 d 36
 18 d 36 20 d 36 22 d 36 24 d 36 29 d 17 16 d 18 17 d 18 18 d 18 21 d 9 11 d 9 12 d 9 13 d 9 14 d 9 14 d 9 16 d 4 8 d 5 9 d 9 16 d 9 16 d 9 14 d 18 26 d 18 21 d 9 9 d 9 7 d 9 7 d 8 6 d 9 4 d 9 4 d 9 2 d 5 1 d 18 X 4 -1 d 9 -2 d 9 -3 d 9 -5 d 9 -5 d 9
 -7 d 9 -7 d 9 -9 d 9 -10 d 36 -50 d 9 -16 d 9 -16 d 9 -18 d 9 -18 d 8 -20 d 9 -21 d 9 -22 d 9 -23 d 9 -24 d 9 -25 d 9 -27 d 9 -27 d 9 -29 d 9 -29 d 18 -63 d 18 -67 d 18 -72 d 34 -146 d s 0.54 0.66 0.63 c black 0.54 0.66 0.63 c 911 634 m 25 42 d s
 936 676 m 36 57 d 36 54 d 18 25 d 18 25 d 18 24 d 17 23 d 18 22 d 18 21 d 18 20 d 18 19 d 18 19 d 18 17 d 18 17 d 18 16 d 18 15 d 18 14 d 35 25 d 36 22 d 36 18 d 18 8 d 18 7 d 18 6 d 18 5 d 18 4 d 18 3 d 17 3 d 18 2 d 36 X 18 -1 d 18 -2 d 18 -3 d 18
 -4 d 18 -4 d 18 -6 d 18 -6 d 18 -7 d 35 -18 d 36 -20 d 36 -25 d 36 -28 d 18 -15 d 18 -16 d 18 -17 d 18 -18 d 17 -19 d 18 -20 d 18 -20 d 18 -22 d 18 -22 d 18 -23 d 18 -24 d 18 -25 d 36 -53 d 36 -56 d 35 -59 d s black[  ] 0 sd 3 lw 363 634 m 1791 X s
 363 659 m -25 Y s 423 646 m -12 Y s 482 646 m -12 Y s 542 646 m -12 Y s 602 659 m -25 Y s 661 646 m -12 Y s 721 646 m -12 Y s 781 646 m -12 Y s 841 659 m -25 Y s 900 646 m -12 Y s 960 646 m -12 Y s 1020 646 m -12 Y s 1079 659 m -25 Y s 1139 646 m
 -12 Y s 1199 646 m -12 Y s 1259 646 m -12 Y s 1318 659 m -25 Y s 1378 646 m -12 Y s 1438 646 m -12 Y s 1497 646 m -12 Y s 1557 659 m -25 Y s 1617 646 m -12 Y s 1677 646 m -12 Y s 1736 646 m -12 Y s 1796 659 m -25 Y s 1856 646 m -12 Y s 1915 646 m
 -12 Y s 1975 646 m -12 Y s 2035 659 m -25 Y s 2035 659 m -25 Y s 2095 646 m -12 Y s 2154 646 m -12 Y s 363 1484 m 1791 X s 363 1459 m 25 Y s 423 1471 m 13 Y s 482 1471 m 13 Y s 542 1471 m 13 Y s 602 1459 m 25 Y s 661 1471 m 13 Y s 721 1471 m 13 Y s
 781 1471 m 13 Y s 841 1459 m 25 Y s 900 1471 m 13 Y s 960 1471 m 13 Y s 1020 1471 m 13 Y s 1079 1459 m 25 Y s 1139 1471 m 13 Y s 1199 1471 m 13 Y s 1259 1471 m 13 Y s 1318 1459 m 25 Y s 1378 1471 m 13 Y s 1438 1471 m 13 Y s 1497 1471 m 13 Y s 1557
 1459 m 25 Y s 1617 1471 m 13 Y s 1677 1471 m 13 Y s 1736 1471 m 13 Y s 1796 1459 m 25 Y s 1856 1471 m 13 Y s 1915 1471 m 13 Y s 1975 1471 m 13 Y s 2035 1459 m 25 Y s 2035 1459 m 25 Y s 2095 1471 m 13 Y s 2154 1471 m 13 Y s 363 634 m 850 Y s 390 657
 m -27 X s 390 681 m -27 X s 390 701 m -27 X s 390 719 m -27 X s 390 735 m -27 X s 417 749 m -54 X s 390 841 m -27 X s 390 895 m -27 X s 390 933 m -27 X s 390 963 m -27 X s 390 987 m -27 X s 390 1008 m -27 X s 390 1025 m -27 X s 390 1041 m -27 X s
 417 1055 m -54 X s 390 1147 m -27 X s 390 1201 m -27 X s 390 1239 m -27 X s 390 1269 m -27 X s 390 1293 m -27 X s 390 1314 m -27 X s 390 1331 m -27 X s 390 1347 m -27 X s 417 1361 m -54 X s 390 1453 m -27 X s 2154 634 m 850 Y s 2127 657 m 27 X s
 2127 681 m 27 X s 2127 701 m 27 X s 2127 719 m 27 X s 2127 735 m 27 X s 2101 749 m 53 X s 2127 841 m 27 X s 2127 895 m 27 X s 2127 933 m 27 X s 2127 963 m 27 X s 2127 987 m 27 X s 2127 1008 m 27 X s 2127 1025 m 27 X s 2127 1041 m 27 X s 2101 1055 m
 53 X s 2127 1147 m 27 X s 2127 1201 m 27 X s 2127 1239 m 27 X s 2127 1269 m 27 X s 2127 1293 m 27 X s 2127 1314 m 27 X s 2127 1331 m 27 X s 2127 1347 m 27 X s 2101 1361 m 53 X s 2127 1453 m 27 X s
 gsave  2268 1077 0 461 C 677.708 1215.31 t 0 r /Helvetica findfont 58.7189 sf 0 0 m (2mu2e) show NC gr  1 1 1 c 453 161 454 1269 bf black
 gsave  2268 1077 0 461 C 566.929 1371.71 t 0 r /Helvetica-Bold findfont 48.9324 sf 0 0 m (MC15) show NC gr  510 1390 m20
 gsave  2268 1077 0 461 C 566.929 1293.51 t 0 r /Helvetica-Bold findfont 48.9324 sf 0 0 m (Projection of Signal pdf) show NC gr  0 0 1 c 9 lw 471 1309 m 79 X s black 3 lw 1 1 1 c 2268 461 0 0 bf black 1 1 1 c 1791 364 363 74 bf black 1791 364 363 74
 bl 363 74 m 1791 X s
 gsave  2268 461 0 0 C 1915.83 13.0329 t 0 r /Helvetica findfont 22.9045 sf 0 0 m (4l Invariant Mass \(GeV\)) show NC gr  363 85 m -11 Y s 423 79 m -5 Y s 482 79 m -5 Y s 542 79 m -5 Y s 602 85 m -11 Y s 661 79 m -5 Y s 721 79 m -5 Y s 781 79 m -5 Y
 s 841 85 m -11 Y s 900 79 m -5 Y s 960 79 m -5 Y s 1020 79 m -5 Y s 1079 85 m -11 Y s 1139 79 m -5 Y s 1199 79 m -5 Y s 1259 79 m -5 Y s 1318 85 m -11 Y s 1378 79 m -5 Y s 1438 79 m -5 Y s 1497 79 m -5 Y s 1557 85 m -11 Y s 1617 79 m -5 Y s 1677 79
 m -5 Y s 1736 79 m -5 Y s 1796 85 m -11 Y s 1856 79 m -5 Y s 1915 79 m -5 Y s 1975 79 m -5 Y s 2035 85 m -11 Y s 2035 85 m -11 Y s 2095 79 m -5 Y s 2154 79 m -5 Y s
 gsave  2268 461 0 0 C 342.112 55.3896 t 0 r /Helvetica findfont 22.9045 sf 0 0 m (600) show NC gr 
 gsave  2268 461 0 0 C 579.962 55.3896 t 0 r /Helvetica findfont 22.9045 sf 0 0 m (620) show NC gr 
 gsave  2268 461 0 0 C 817.812 55.3896 t 0 r /Helvetica findfont 22.9045 sf 0 0 m (640) show NC gr 
 gsave  2268 461 0 0 C 1058.92 55.3896 t 0 r /Helvetica findfont 22.9045 sf 0 0 m (660) show NC gr 
 gsave  2268 461 0 0 C 1296.77 55.3896 t 0 r /Helvetica findfont 22.9045 sf 0 0 m (680) show NC gr 
 gsave  2268 461 0 0 C 1534.62 55.3896 t 0 r /Helvetica findfont 22.9045 sf 0 0 m (700) show NC gr 
 gsave  2268 461 0 0 C 1775.73 55.3896 t 0 r /Helvetica findfont 22.9045 sf 0 0 m (720) show NC gr 
 gsave  2268 461 0 0 C 2013.58 55.3896 t 0 r /Helvetica findfont 22.9045 sf 0 0 m (740) show NC gr  363 438 m 1791 X s 363 427 m 11 Y s 423 433 m 5 Y s 482 433 m 5 Y s 542 433 m 5 Y s 602 427 m 11 Y s 661 433 m 5 Y s 721 433 m 5 Y s 781 433 m 5 Y s
 841 427 m 11 Y s 900 433 m 5 Y s 960 433 m 5 Y s 1020 433 m 5 Y s 1079 427 m 11 Y s 1139 433 m 5 Y s 1199 433 m 5 Y s 1259 433 m 5 Y s 1318 427 m 11 Y s 1378 433 m 5 Y s 1438 433 m 5 Y s 1497 433 m 5 Y s 1557 427 m 11 Y s 1617 433 m 5 Y s 1677 433 m
 5 Y s 1736 433 m 5 Y s 1796 427 m 11 Y s 1856 433 m 5 Y s 1915 433 m 5 Y s 1975 433 m 5 Y s 2035 427 m 11 Y s 2035 427 m 11 Y s 2095 433 m 5 Y s 2154 433 m 5 Y s 363 74 m 364 Y s 417 74 m -54 X s 390 81 m -27 X s 390 88 m -27 X s 390 96 m -27 X s
 390 103 m -27 X s 417 110 m -54 X s 390 118 m -27 X s 390 125 m -27 X s 390 132 m -27 X s 390 139 m -27 X s 417 147 m -54 X s 390 154 m -27 X s 390 161 m -27 X s 390 169 m -27 X s 390 176 m -27 X s 417 183 m -54 X s 390 190 m -27 X s 390 198 m -27 X
 s 390 205 m -27 X s 390 212 m -27 X s 417 220 m -54 X s 390 227 m -27 X s 390 234 m -27 X s 390 241 m -27 X s 390 249 m -27 X s 417 256 m -54 X s 390 263 m -27 X s 390 271 m -27 X s 390 278 m -27 X s 390 285 m -27 X s 417 293 m -54 X s 390 300 m -27
 X s 390 307 m -27 X s 390 314 m -27 X s 390 322 m -27 X s 417 329 m -54 X s 390 336 m -27 X s 390 344 m -27 X s 390 351 m -27 X s 390 358 m -27 X s 417 365 m -54 X s 390 373 m -27 X s 390 380 m -27 X s 390 387 m -27 X s 390 395 m -27 X s 417 402 m
 -54 X s 390 409 m -27 X s 390 416 m -27 X s 390 424 m -27 X s 390 431 m -27 X s 417 438 m -54 X s
 gsave  2268 461 0 0 C 329.08 65.1643 t 0 r /Helvetica findfont 22.9045 sf 0 0 m (\2555) show NC gr 
 gsave  2268 461 0 0 C 329.08 101.005 t 0 r /Helvetica findfont 22.9045 sf 0 0 m (\2554) show NC gr 
 gsave  2268 461 0 0 C 329.08 140.103 t 0 r /Helvetica findfont 22.9045 sf 0 0 m (\2553) show NC gr 
 gsave  2268 461 0 0 C 329.08 175.944 t 0 r /Helvetica findfont 22.9045 sf 0 0 m (\2552) show NC gr 
 gsave  2268 461 0 0 C 332.338 211.784 t 0 r /Helvetica findfont 22.9045 sf 0 0 m (\2551) show NC gr 
 gsave  2268 461 0 0 C 335.596 247.624 t 0 r /Helvetica findfont 22.9045 sf 0 0 m (0) show NC gr 
 gsave  2268 461 0 0 C 338.854 283.465 t 0 r /Helvetica findfont 22.9045 sf 0 0 m (1) show NC gr 
 gsave  2268 461 0 0 C 335.596 319.305 t 0 r /Helvetica findfont 22.9045 sf 0 0 m (2) show NC gr 
 gsave  2268 461 0 0 C 335.596 358.403 t 0 r /Helvetica findfont 22.9045 sf 0 0 m (3) show NC gr 
 gsave  2268 461 0 0 C 335.596 394.244 t 0 r /Helvetica findfont 22.9045 sf 0 0 m (4) show NC gr 
 gsave  2268 461 0 0 C 335.596 430.084 t 0 r /Helvetica findfont 22.9045 sf 0 0 m (5) show NC gr  2154 74 m 364 Y s 2101 74 m 53 X s 2127 81 m 27 X s 2127 88 m 27 X s 2127 96 m 27 X s 2127 103 m 27 X s 2101 110 m 53 X s 2127 118 m 27 X s 2127 125 m
 27 X s 2127 132 m 27 X s 2127 139 m 27 X s 2101 147 m 53 X s 2127 154 m 27 X s 2127 161 m 27 X s 2127 169 m 27 X s 2127 176 m 27 X s 2101 183 m 53 X s 2127 190 m 27 X s 2127 198 m 27 X s 2127 205 m 27 X s 2127 212 m 27 X s 2101 220 m 53 X s 2127 227
 m 27 X s 2127 234 m 27 X s 2127 241 m 27 X s 2127 249 m 27 X s 2101 256 m 53 X s 2127 263 m 27 X s 2127 271 m 27 X s 2127 278 m 27 X s 2127 285 m 27 X s 2101 293 m 53 X s 2127 300 m 27 X s 2127 307 m 27 X s 2127 314 m 27 X s 2127 322 m 27 X s 2101
 329 m 53 X s 2127 336 m 27 X s 2127 344 m 27 X s 2127 351 m 27 X s 2127 358 m 27 X s 2101 365 m 53 X s 2127 373 m 27 X s 2127 380 m 27 X s 2127 387 m 27 X s 2127 395 m 27 X s 2101 402 m 53 X s 2127 409 m 27 X s 2127 416 m 27 X s 2127 424 m 27 X s
 2127 431 m 27 X s 2101 438 m 53 X s 6 lw 0.2 0.8 0.2 c black 3 lw 0.2 0.8 0.2 c 363 256 m -17 Y 36 X -14 Y 35 X -6 Y 36 X -72 Y 36 X 94 Y 36 X 61 Y 36 X -104 Y 36 X -9 Y 35 X 71 Y 36 X -24 Y 36 X 44 Y 36 X -41 Y 36 X -2 Y 36 X 37 Y 35 X 64 Y 36 X
 -34 Y 36 X -8 Y 36 X -67 Y 36 X 26 Y 36 X -20 Y 35 X 95 Y 36 X -140 Y 36 X 28 Y 36 X 1 Y 36 X 46 Y 36 X 14 Y 35 X 33 Y 36 X 2 Y 36 X -47 Y 36 X -22 Y 36 X -25 Y 36 X 21 Y 35 X -17 Y 36 X 47 Y 36 X 30 Y 36 X -37 Y 36 X -51 Y 36 X 46 Y 35 X 34 Y 36 X
 -28 Y 36 X -21 Y 36 X 30 Y 36 X -92 Y 36 X 28 Y 35 X 68 Y 36 X -47 Y 36 X 32 Y 36 X -28 Y 36 X 51 Y 36 X 15 Y 35 X -45 Y f 6 lw black 0.2 0.8 0.2 c black 363 239 m 36 X -14 Y 35 X -6 Y 36 X -72 Y 36 X 94 Y 36 X 61 Y 36 X -104 Y 36 X -9 Y 35 X 71 Y
 36 X -24 Y 36 X 44 Y 36 X -41 Y 36 X -2 Y 36 X 37 Y 35 X 64 Y 36 X -34 Y 36 X -8 Y 36 X -67 Y 36 X 26 Y 36 X -20 Y 35 X 95 Y 36 X -140 Y 36 X 28 Y 36 X 1 Y 36 X 46 Y 36 X 14 Y 35 X 33 Y 36 X 2 Y 36 X -47 Y 36 X -22 Y 36 X -25 Y 36 X 21 Y 35 X -17 Y
 36 X 47 Y 36 X 30 Y 36 X -37 Y 36 X -51 Y 36 X 46 Y 35 X 34 Y 36 X -28 Y 36 X -21 Y 36 X 30 Y 36 X -92 Y 36 X 28 Y 35 X 68 Y 36 X -47 Y 36 X 32 Y 36 X -28 Y 36 X 51 Y 36 X 15 Y 35 X s 3 lw 363 74 m 1791 X s 363 85 m -11 Y s 423 79 m -5 Y s 482 79 m
 -5 Y s 542 79 m -5 Y s 602 85 m -11 Y s 661 79 m -5 Y s 721 79 m -5 Y s 781 79 m -5 Y s 841 85 m -11 Y s 900 79 m -5 Y s 960 79 m -5 Y s 1020 79 m -5 Y s 1079 85 m -11 Y s 1139 79 m -5 Y s 1199 79 m -5 Y s 1259 79 m -5 Y s 1318 85 m -11 Y s 1378 79
 m -5 Y s 1438 79 m -5 Y s 1497 79 m -5 Y s 1557 85 m -11 Y s 1617 79 m -5 Y s 1677 79 m -5 Y s 1736 79 m -5 Y s 1796 85 m -11 Y s 1856 79 m -5 Y s 1915 79 m -5 Y s 1975 79 m -5 Y s 2035 85 m -11 Y s 2035 85 m -11 Y s 2095 79 m -5 Y s 2154 79 m -5 Y
 s 363 438 m 1791 X s 363 427 m 11 Y s 423 433 m 5 Y s 482 433 m 5 Y s 542 433 m 5 Y s 602 427 m 11 Y s 661 433 m 5 Y s 721 433 m 5 Y s 781 433 m 5 Y s 841 427 m 11 Y s 900 433 m 5 Y s 960 433 m 5 Y s 1020 433 m 5 Y s 1079 427 m 11 Y s 1139 433 m 5 Y
 s 1199 433 m 5 Y s 1259 433 m 5 Y s 1318 427 m 11 Y s 1378 433 m 5 Y s 1438 433 m 5 Y s 1497 433 m 5 Y s 1557 427 m 11 Y s 1617 433 m 5 Y s 1677 433 m 5 Y s 1736 433 m 5 Y s 1796 427 m 11 Y s 1856 433 m 5 Y s 1915 433 m 5 Y s 1975 433 m 5 Y s 2035
 427 m 11 Y s 2035 427 m 11 Y s 2095 433 m 5 Y s 2154 433 m 5 Y s 363 74 m 364 Y s 417 74 m -54 X s 390 81 m -27 X s 390 88 m -27 X s 390 96 m -27 X s 390 103 m -27 X s 417 110 m -54 X s 390 118 m -27 X s 390 125 m -27 X s 390 132 m -27 X s 390 139 m
 -27 X s 417 147 m -54 X s 390 154 m -27 X s 390 161 m -27 X s 390 169 m -27 X s 390 176 m -27 X s 417 183 m -54 X s 390 190 m -27 X s 390 198 m -27 X s 390 205 m -27 X s 390 212 m -27 X s 417 220 m -54 X s 390 227 m -27 X s 390 234 m -27 X s 390 241
 m -27 X s 390 249 m -27 X s 417 256 m -54 X s 390 263 m -27 X s 390 271 m -27 X s 390 278 m -27 X s 390 285 m -27 X s 417 293 m -54 X s 390 300 m -27 X s 390 307 m -27 X s 390 314 m -27 X s 390 322 m -27 X s 417 329 m -54 X s 390 336 m -27 X s 390
 344 m -27 X s 390 351 m -27 X s 390 358 m -27 X s 417 365 m -54 X s 390 373 m -27 X s 390 380 m -27 X s 390 387 m -27 X s 390 395 m -27 X s 417 402 m -54 X s 390 409 m -27 X s 390 416 m -27 X s 390 424 m -27 X s 390 431 m -27 X s 417 438 m -54 X s
 2154 74 m 364 Y s 2101 74 m 53 X s 2127 81 m 27 X s 2127 88 m 27 X s 2127 96 m 27 X s 2127 103 m 27 X s 2101 110 m 53 X s 2127 118 m 27 X s 2127 125 m 27 X s 2127 132 m 27 X s 2127 139 m 27 X s 2101 147 m 53 X s 2127 154 m 27 X s 2127 161 m 27 X s
 2127 169 m 27 X s 2127 176 m 27 X s 2101 183 m 53 X s 2127 190 m 27 X s 2127 198 m 27 X s 2127 205 m 27 X s 2127 212 m 27 X s 2101 220 m 53 X s 2127 227 m 27 X s 2127 234 m 27 X s 2127 241 m 27 X s 2127 249 m 27 X s 2101 256 m 53 X s 2127 263 m 27 X
 s 2127 271 m 27 X s 2127 278 m 27 X s 2127 285 m 27 X s 2101 293 m 53 X s 2127 300 m 27 X s 2127 307 m 27 X s 2127 314 m 27 X s 2127 322 m 27 X s 2101 329 m 53 X s 2127 336 m 27 X s 2127 344 m 27 X s 2127 351 m 27 X s 2127 358 m 27 X s 2101 365 m 53
 X s 2127 373 m 27 X s 2127 380 m 27 X s 2127 387 m 27 X s 2127 395 m 27 X s 2101 402 m 53 X s 2127 409 m 27 X s 2127 416 m 27 X s 2127 424 m 27 X s 2127 431 m 27 X s 2101 438 m 53 X s
 gr  gr showpage
end
%%EOF
