%!PS-Adobe-2.0 EPSF-2.0
%%BoundingBox:  0 0 567 384
%%Title: H4l2015_plotfit/gg_mass_signal_800_H4l_2mu2e.eps: 
%%Creator: ROOT Version 5.34/10
%%CreationDate: Thu Feb 16 15:47:21 2017
%%EndComments
%%BeginProlog
80 dict begin
/s {stroke} def /l {lineto} def /m {moveto} def /t {translate} def
/r {rotate} def /rl {roll}  def /R {repeat} def
/d {rlineto} def /rm {rmoveto} def /gr {grestore} def /f {eofill} def
/c {setrgbcolor} def /black {0 setgray} def /sd {setdash} def
/cl {closepath} def /sf {scalefont setfont} def /lw {setlinewidth} def
/box {m dup 0 exch d exch 0 d 0 exch neg d cl} def
/NC{systemdict begin initclip end}def/C{NC box clip newpath}def
/bl {box s} def /bf {box f} def /Y { 0 exch d} def /X { 0 d} def 
/K {{pop pop 0 moveto} exch kshow} bind def
/ita {/ang 15 def gsave [1 0 ang dup sin exch cos div 1 0 0] concat} def 
/mp {newpath /y exch def /x exch def} def
/side {[w .77 mul w .23 mul] .385 w mul sd w 0 l currentpoint t -144 r} def
/mr {mp x y w2 0 360 arc} def /m24 {mr s} def /m20 {mr f} def
/mb {mp x y w2 add m w2 neg 0 d 0 w neg d w 0 d 0 w d cl} def
/mt {mp x y w2 add m w2 neg w neg d w 0 d cl} def
/m21 {mb f} def /m25 {mb s} def /m22 {mt f} def /m26{mt s} def
/m23 {mp x y w2 sub m w2 w d w neg 0 d cl f} def
/m27 {mp x y w2 add m w3 neg w2 neg d w3 w2 neg d w3 w2 d cl s} def
/m28 {mp x w2 sub y w2 sub w3 add m w3 0 d  0 w3 neg d w3 0 d 0 w3 d w3 0 d  0 w3 d w3 neg 0 d 0 w3 d w3 neg 0 d 0 w3 neg d w3 neg 0 d cl s } def
/m29 {mp gsave x w2 sub y w2 add w3 sub m currentpoint t 4 {side} repeat cl fill gr} def
/m30 {mp gsave x w2 sub y w2 add w3 sub m currentpoint t 4 {side} repeat cl s gr} def
/m31 {mp x y w2 sub m 0 w d x w2 sub y m w 0 d x w2 sub y w2 add m w w neg d x w2 sub y w2 sub m w w d s} def
/m32 {mp x y w2 sub m w2 w d w neg 0 d cl s} def
/m33 {mp x y w2 add m w3 neg w2 neg d w3 w2 neg d w3 w2 d cl f} def
/m34 {mp x w2 sub y w2 sub w3 add m w3 0 d  0 w3 neg d w3 0 d 0 w3 d w3 0 d  0 w3 d w3 neg 0 d 0 w3 d w3 neg 0 d 0 w3 neg d w3 neg 0 d cl f } def
/m2 {mp x y w2 sub m 0 w d x w2 sub y m w 0 d s} def
/m5 {mp x w2 sub y w2 sub m w w d x w2 sub y w2 add m w w neg d s} def
/reEncode {exch findfont dup length dict begin {1 index /FID eq  {pop pop} {def} ifelse } forall /Encoding exch def currentdict end dup /FontName get exch definefont pop } def [/Times-Bold /Times-Italic /Times-BoldItalic /Helvetica /Helvetica-Oblique
 /Helvetica-Bold /Helvetica-BoldOblique /Courier /Courier-Oblique /Courier-Bold /Courier-BoldOblique /Times-Roman /AvantGarde-Book /AvantGarde-BookOblique /AvantGarde-Demi /AvantGarde-DemiOblique /Bookman-Demi /Bookman-DemiItalic /Bookman-Light
 /Bookman-LightItalic /Helvetica-Narrow /Helvetica-Narrow-Bold /Helvetica-Narrow-BoldOblique /Helvetica-Narrow-Oblique /NewCenturySchlbk-Roman /NewCenturySchlbk-Bold /NewCenturySchlbk-BoldItalic /NewCenturySchlbk-Italic /Palatino-Bold
 /Palatino-BoldItalic /Palatino-Italic /Palatino-Roman ] {ISOLatin1Encoding reEncode } forall
%%EndProlog
%%BeginSetup
%%EndSetup
newpath  gsave  .25 .25 scale  gsave  0 0 t black[  ] 0 sd 3 lw 1 1 1 c 2268 1538 0 0 bf black 1 1 1 c 2222 738 23 784 bf black 1 1 1 c 2222 739 23 15 bf black 1 1 1 c 2268 1077 0 461 bf black 1 1 1 c 1791 850 363 634 bf black 1791 850 363 634 bl 363
 634 m 1791 X s
 gsave  2268 1077 0 461 C 1642.14 498.507 t 0 r /Helvetica findfont 48.9324 sf 0 0 m (4l Invariant Mass \(GeV\)) show NC gr  363 659 m -25 Y s 409 646 m -12 Y s 454 646 m -12 Y s 500 646 m -12 Y s 546 659 m -25 Y s 591 646 m -12 Y s 637 646 m -12 Y s
 683 646 m -12 Y s 728 659 m -25 Y s 774 646 m -12 Y s 820 646 m -12 Y s 866 646 m -12 Y s 911 659 m -25 Y s 957 646 m -12 Y s 1003 646 m -12 Y s 1048 646 m -12 Y s 1094 659 m -25 Y s 1140 646 m -12 Y s 1185 646 m -12 Y s 1231 646 m -12 Y s 1277 659
 m -25 Y s 1323 646 m -12 Y s 1368 646 m -12 Y s 1414 646 m -12 Y s 1460 659 m -25 Y s 1505 646 m -12 Y s 1551 646 m -12 Y s 1597 646 m -12 Y s 1642 659 m -25 Y s 1688 646 m -12 Y s 1734 646 m -12 Y s 1780 646 m -12 Y s 1825 659 m -25 Y s 1871 646 m
 -12 Y s 1917 646 m -12 Y s 1962 646 m -12 Y s 2008 659 m -25 Y s 2008 659 m -25 Y s 2054 646 m -12 Y s 2099 646 m -12 Y s 2145 646 m -12 Y s
 gsave  2268 1077 0 461 C 319.305 586.478 t 0 r /Helvetica findfont 48.9324 sf 0 0 m (660) show NC gr 
 gsave  2268 1077 0 461 C 501.765 586.478 t 0 r /Helvetica findfont 48.9324 sf 0 0 m (680) show NC gr 
 gsave  2268 1077 0 461 C 684.225 586.478 t 0 r /Helvetica findfont 48.9324 sf 0 0 m (700) show NC gr 
 gsave  2268 1077 0 461 C 866.685 586.478 t 0 r /Helvetica findfont 48.9324 sf 0 0 m (720) show NC gr 
 gsave  2268 1077 0 461 C 1049.14 586.478 t 0 r /Helvetica findfont 48.9324 sf 0 0 m (740) show NC gr 
 gsave  2268 1077 0 461 C 1231.6 586.478 t 0 r /Helvetica findfont 48.9324 sf 0 0 m (760) show NC gr 
 gsave  2268 1077 0 461 C 1414.06 586.478 t 0 r /Helvetica findfont 48.9324 sf 0 0 m (780) show NC gr 
 gsave  2268 1077 0 461 C 1599.78 586.478 t 0 r /Helvetica findfont 48.9324 sf 0 0 m (800) show NC gr 
 gsave  2268 1077 0 461 C 1782.24 586.478 t 0 r /Helvetica findfont 48.9324 sf 0 0 m (820) show NC gr 
 gsave  2268 1077 0 461 C 1964.7 586.478 t 0 r /Helvetica findfont 48.9324 sf 0 0 m (840) show NC gr  363 1484 m 1791 X s 363 1459 m 25 Y s 409 1471 m 13 Y s 454 1471 m 13 Y s 500 1471 m 13 Y s 546 1459 m 25 Y s 591 1471 m 13 Y s 637 1471 m 13 Y s
 683 1471 m 13 Y s 728 1459 m 25 Y s 774 1471 m 13 Y s 820 1471 m 13 Y s 866 1471 m 13 Y s 911 1459 m 25 Y s 957 1471 m 13 Y s 1003 1471 m 13 Y s 1048 1471 m 13 Y s 1094 1459 m 25 Y s 1140 1471 m 13 Y s 1185 1471 m 13 Y s 1231 1471 m 13 Y s 1277 1459
 m 25 Y s 1323 1471 m 13 Y s 1368 1471 m 13 Y s 1414 1471 m 13 Y s 1460 1459 m 25 Y s 1505 1471 m 13 Y s 1551 1471 m 13 Y s 1597 1471 m 13 Y s 1642 1459 m 25 Y s 1688 1471 m 13 Y s 1734 1471 m 13 Y s 1780 1471 m 13 Y s 1825 1459 m 25 Y s 1871 1471 m
 13 Y s 1917 1471 m 13 Y s 1962 1471 m 13 Y s 2008 1459 m 25 Y s 2008 1459 m 25 Y s 2054 1471 m 13 Y s 2099 1471 m 13 Y s 2145 1471 m 13 Y s 363 634 m 850 Y s
 gsave  2268 1077 0 461 C 120.554 1032.85 t 90 r /Helvetica findfont 48.9324 sf 0 0 m (Events / \( 3.92 GeV \)) show NC gr  390 640 m -27 X s 390 664 m -27 X s 390 685 m -27 X s 390 702 m -27 X s 390 718 m -27 X s 417 732 m -54 X s
 gsave  2268 1077 0 461 C 342.425 711.298 t 0 r  -55 0 t /Helvetica findfont 48.9324 sf 0 0 m (10) show NC gr  390 824 m -27 X s 390 878 m -27 X s 390 916 m -27 X s 390 946 m -27 X s 390 970 m -27 X s 390 991 m -27 X s 390 1009 m -27 X s 390 1024 m
 -27 X s 417 1038 m -54 X s
 gsave  2268 1077 0 461 C 322.563 1036.11 t 0 r /Helvetica findfont 32.6216 sf 0 0 m (2) show NC gr 
 gsave  2268 1077 0 461 C 270.432 1016.56 t 0 r /Helvetica findfont 48.9324 sf 0 0 m (10) show NC gr  390 1130 m -27 X s 390 1184 m -27 X s 390 1223 m -27 X s 390 1252 m -27 X s 390 1276 m -27 X s 390 1297 m -27 X s 390 1315 m -27 X s 390 1330 m -27
 X s 417 1344 m -54 X s
 gsave  2268 1077 0 461 C 322.563 1345.64 t 0 r /Helvetica findfont 32.6216 sf 0 0 m (3) show NC gr 
 gsave  2268 1077 0 461 C 270.432 1322.83 t 0 r /Helvetica findfont 48.9324 sf 0 0 m (10) show NC gr  390 1437 m -27 X s 2154 634 m 850 Y s 2127 640 m 27 X s 2127 664 m 27 X s 2127 685 m 27 X s 2127 702 m 27 X s 2127 718 m 27 X s 2101 732 m 53 X s
 2127 824 m 27 X s 2127 878 m 27 X s 2127 916 m 27 X s 2127 946 m 27 X s 2127 970 m 27 X s 2127 991 m 27 X s 2127 1009 m 27 X s 2127 1024 m 27 X s 2101 1038 m 53 X s 2127 1130 m 27 X s 2127 1184 m 27 X s 2127 1223 m 27 X s 2127 1252 m 27 X s 2127
 1276 m 27 X s 2127 1297 m 27 X s 2127 1315 m 27 X s 2127 1330 m 27 X s 2101 1344 m 53 X s 2127 1437 m 27 X s 381 664 m -18 X s 363 664 m cl s 381 664 m 18 X s 399 664 m cl s 381 664 m 62 Y s 381 726 m cl s 381 664 m -30 Y s 381 634 m cl s 417 767 m
 -18 X s 399 767 m cl s 417 767 m 17 X s 434 767 m cl s 417 767 m 41 Y s 417 808 m cl s 417 767 m -42 Y s 417 725 m cl s 452 718 m -18 X s 434 718 m cl s 452 718 m 18 X s 470 718 m cl s 452 718 m 50 Y s 452 768 m cl s 452 718 m -53 Y s 452 665 m cl s
 488 718 m -18 X s 470 718 m cl s 488 718 m 18 X s 506 718 m cl s 488 718 m 50 Y s 488 768 m cl s 488 718 m -53 Y s 488 665 m cl s 524 718 m -18 X s 506 718 m cl s 524 718 m 18 X s 542 718 m cl s 524 718 m 50 Y s 524 768 m cl s 524 718 m -53 Y s 524
 665 m cl s 560 756 m -18 X s 542 756 m cl s 560 756 m 18 X s 578 756 m cl s 560 756 m 43 Y s 560 799 m cl s 560 756 m -44 Y s 560 712 m cl s 596 702 m -18 X s 578 702 m cl s 596 702 m 18 X s 614 702 m cl s 596 702 m 54 Y s 596 756 m cl s 596 702 m
 -56 Y s 596 646 m cl s 632 685 m -18 X s 614 685 m cl s 632 685 m 17 X s 649 685 m cl s 632 685 m 57 Y s 632 742 m cl s 632 685 m -51 Y s 632 634 m cl s 703 854 m -18 X s 685 854 m cl s 703 854 m 18 X s 721 854 m cl s 703 854 m 29 Y s 703 883 m cl s
 703 854 m -29 Y s 703 825 m cl s 739 756 m -18 X s 721 756 m cl s 739 756 m 18 X s 757 756 m cl s 739 756 m 43 Y s 739 799 m cl s 739 756 m -44 Y s 739 712 m cl s 775 767 m -18 X s 757 767 m cl s 775 767 m 18 X s 793 767 m cl s 775 767 m 41 Y s 775
 808 m cl s 775 767 m -42 Y s 775 725 m cl s 811 803 m -18 X s 793 803 m cl s 811 803 m 18 X s 829 803 m cl s 811 803 m 35 Y s 811 838 m cl s 811 803 m -37 Y s 811 766 m cl s 847 874 m -18 X s 829 874 m cl s 847 874 m 17 X s 864 874 m cl s 847 874 m
 26 Y s 847 900 m cl s 847 874 m -27 Y s 847 847 m cl s 882 831 m -18 X s 864 831 m cl s 882 831 m 18 X s 900 831 m cl s 882 831 m 31 Y s 882 862 m cl s 882 831 m -33 Y s 882 798 m cl s 918 864 m -18 X s 900 864 m cl s 918 864 m 18 X s 936 864 m cl s
 918 864 m 28 Y s 918 892 m cl s 918 864 m -28 Y s 918 836 m cl s 954 883 m -18 X s 936 883 m cl s 954 883 m 18 X s 972 883 m cl s 954 883 m 25 Y s 954 908 m cl s 954 883 m -27 Y s 954 856 m cl s 990 869 m -18 X s 972 869 m cl s 990 869 m 18 X s 1008
 869 m cl s 990 869 m 27 Y s 990 896 m cl s 990 869 m -28 Y s 990 841 m cl s 1026 916 m -18 X s 1008 916 m cl s 1026 916 m 18 X s 1044 916 m cl s 1026 916 m 23 Y s 1026 939 m cl s 1026 916 m -22 Y s 1026 894 m cl s 1062 949 m -18 X s 1044 949 m cl s
 1062 949 m 17 X s 1079 949 m cl s 1062 949 m 20 Y s 1062 969 m cl s 1062 949 m -20 Y s 1062 929 m cl s 1097 920 m -18 X s 1079 920 m cl s 1097 920 m 18 X s 1115 920 m cl s 1097 920 m 22 Y s 1097 942 m cl s 1097 920 m -23 Y s 1097 897 m cl s 1133 966
 m -18 X s 1115 966 m cl s 1133 966 m 18 X s 1151 966 m cl s 1133 966 m 18 Y s 1133 984 m cl s 1133 966 m -19 Y s 1133 947 m cl s 1169 983 m -18 X s 1151 983 m cl s 1169 983 m 18 X s 1187 983 m cl s 1169 983 m 17 Y s 1169 1000 m cl s 1169 983 m -17 Y
 s 1169 966 m cl s 1205 1002 m -18 X s 1187 1002 m cl s 1205 1002 m 18 X s 1223 1002 m cl s 1205 1002 m 16 Y s 1205 1018 m cl s 1205 1002 m -16 Y s 1205 986 m cl s 1241 1033 m -18 X s 1223 1033 m cl s 1241 1033 m 18 X s 1259 1033 m cl s 1241 1033 m
 14 Y s 1241 1047 m cl s 1241 1033 m -14 Y s 1241 1019 m cl s 1276 1077 m -17 X s 1259 1077 m cl s 1276 1077 m 18 X s 1294 1077 m cl s 1276 1077 m 12 Y s 1276 1089 m cl s 1276 1077 m -11 Y s 1276 1066 m cl s 1312 1095 m -18 X s 1294 1095 m cl s 1312
 1095 m 18 X s 1330 1095 m cl s 1312 1095 m 11 Y s 1312 1106 m cl s 1312 1095 m -11 Y s 1312 1084 m cl s 1348 1139 m -18 X s 1330 1139 m cl s 1348 1139 m 18 X s 1366 1139 m cl s 1348 1139 m 10 Y s 1348 1149 m cl s 1348 1139 m -9 Y s 1348 1130 m cl s
 1384 1172 m -18 X s 1366 1172 m cl s 1384 1172 m 18 X s 1402 1172 m cl s 1384 1172 m 8 Y s 1384 1180 m cl s 1384 1172 m -8 Y s 1384 1164 m cl s 1420 1214 m -18 X s 1402 1214 m cl s 1420 1214 m 18 X s 1438 1214 m cl s 1420 1214 m 7 Y s 1420 1221 m cl
 s 1420 1214 m -7 Y s 1420 1207 m cl s 1456 1256 m -18 X s 1438 1256 m cl s 1456 1256 m 18 X s 1474 1256 m cl s 1456 1256 m 6 Y s 1456 1262 m cl s 1456 1256 m -6 Y s 1456 1250 m cl s 1491 1298 m -17 X s 1474 1298 m cl s 1491 1298 m 18 X s 1509 1298 m
 cl s 1491 1298 m 5 Y s 1491 1303 m cl s 1491 1298 m -5 Y s 1491 1293 m cl s 1527 1344 m -18 X s 1509 1344 m cl s 1527 1344 m 18 X s 1545 1344 m cl s 1527 1344 m 4 Y s 1527 1348 m cl s 1527 1344 m -4 Y s 1527 1340 m cl s 1563 1390 m -18 X s 1545 1390
 m cl s 1563 1390 m 18 X s 1581 1390 m cl s 1563 1390 m 4 Y s 1563 1394 m cl s 1563 1390 m -3 Y s 1563 1387 m cl s 1599 1410 m -18 X s 1581 1410 m cl s 1599 1410 m 18 X s 1617 1410 m cl s 1599 1410 m 3 Y s 1599 1413 m cl s 1599 1410 m -3 Y s 1599
 1407 m cl s 1635 1417 m -18 X s 1617 1417 m cl s 1635 1417 m 18 X s 1653 1417 m cl s 1635 1417 m 3 Y s 1635 1420 m cl s 1635 1417 m -3 Y s 1635 1414 m cl s 1671 1405 m -18 X s 1653 1405 m cl s 1671 1405 m 18 X s 1689 1405 m cl s 1671 1405 m 3 Y s
 1671 1408 m cl s 1671 1405 m -4 Y s 1671 1401 m cl s 1706 1358 m -17 X s 1689 1358 m cl s 1706 1358 m 18 X s 1724 1358 m cl s 1706 1358 m 4 Y s 1706 1362 m cl s 1706 1358 m -4 Y s 1706 1354 m cl s 1742 1312 m -18 X s 1724 1312 m cl s 1742 1312 m 18
 X s 1760 1312 m cl s 1742 1312 m 5 Y s 1742 1317 m cl s 1742 1312 m -5 Y s 1742 1307 m cl s 1778 1248 m -18 X s 1760 1248 m cl s 1778 1248 m 18 X s 1796 1248 m cl s 1778 1248 m 6 Y s 1778 1254 m cl s 1778 1248 m -6 Y s 1778 1242 m cl s 1814 1182 m
 -18 X s 1796 1182 m cl s 1814 1182 m 18 X s 1832 1182 m cl s 1814 1182 m 8 Y s 1814 1190 m cl s 1814 1182 m -8 Y s 1814 1174 m cl s 1850 1130 m -18 X s 1832 1130 m cl s 1850 1130 m 18 X s 1868 1130 m cl s 1850 1130 m 10 Y s 1850 1140 m cl s 1850
 1130 m -9 Y s 1850 1121 m cl s 1886 1066 m -18 X s 1868 1066 m cl s 1886 1066 m 18 X s 1904 1066 m cl s 1886 1066 m 12 Y s 1886 1078 m cl s 1886 1066 m -12 Y s 1886 1054 m cl s 1921 993 m -17 X s 1904 993 m cl s 1921 993 m 18 X s 1939 993 m cl s
 1921 993 m 16 Y s 1921 1009 m cl s 1921 993 m -17 Y s 1921 976 m cl s 1957 956 m -18 X s 1939 956 m cl s 1957 956 m 18 X s 1975 956 m cl s 1957 956 m 20 Y s 1957 976 m cl s 1957 956 m -19 Y s 1957 937 m cl s 1993 935 m -18 X s 1975 935 m cl s 1993
 935 m 18 X s 2011 935 m cl s 1993 935 m 21 Y s 1993 956 m cl s 1993 935 m -21 Y s 1993 914 m cl s 2029 878 m -18 X s 2011 878 m cl s 2029 878 m 18 X s 2047 878 m cl s 2029 878 m 26 Y s 2029 904 m cl s 2029 878 m -26 Y s 2029 852 m cl s 2065 854 m
 -18 X s 2047 854 m cl s 2065 854 m 18 X s 2083 854 m cl s 2065 854 m 29 Y s 2065 883 m cl s 2065 854 m -29 Y s 2065 825 m cl s 2101 756 m -18 X s 2083 756 m cl s 2101 756 m 18 X s 2119 756 m cl s 2101 756 m 43 Y s 2101 799 m cl s 2101 756 m -44 Y s
 2101 712 m cl s 2136 767 m -17 X s 2119 767 m cl s 2136 767 m 18 X s 2154 767 m cl s 2136 767 m 41 Y s 2136 808 m cl s 2136 767 m -42 Y s 2136 725 m cl s /w 31 def /w2 {w 2 div} def /w3 {w 3 div} def 381 664 417 767 452 718 488 718 524 718 560 756
 596 702 632 685 8 { m20} R 703 854 739 756 775 767 811 803 847 874 882 831 918 864 954 883 990 869 1026 916 1062 949 1097 920 1133 966 1169 983 1205 1002 1241 1033 1276 1077 1312 1095 1348 1139 1384 1172 1420 1214 1456 1256 1491 1298 1527 1344 1563
 1390 1599 1410 1635 1417 1671 1405 1706 1358 1742 1312 1778 1248 1814 1182 1850 1130 1886 1066 1921 993 1957 956 1993 935 2029 878 2065 854 2101 756 2136 767 41 { m20} R 0 1 1 c 1 1 0 c black 1 1 0 c 363 738 m 36 5 d 35 7 d 36 6 d 36 6 d 36 7 d 36 7
 d 36 7 d 35 7 d 36 8 d 36 8 d 36 9 d 36 8 d 36 10 d 35 10 d 36 10 d 36 12 d 36 13 d 36 15 d 36 17 d 35 20 d 36 22 d 36 25 d 36 28 d 36 29 d 36 30 d 35 32 d 36 32 d 36 34 d 18 17 d 18 17 d 18 17 d 18 18 d 9 9 d 9 10 d 9 10 d 9 12 d 9 13 d 8 15 d 9 15
 d 9 14 d 18 25 d 18 22 d 9 9 d 9 8 d 9 7 d 9 7 d 9 5 d 4 2 d 5 2 d 4 2 d 5 1 d 4 1 d 5 X 4 1 d 5 X 4 -1 d 5 -1 d 4 -1 d 5 -1 d 4 -2 d 5 -2 d 9 -5 d 9 -6 d 9 -7 d 9 -8 d 17 -20 d 18 -24 d 9 -13 d 9 -14 d 9 -14 d 9 -16 d 9 -15 d 9 -17 d 9 -16 d 9 -17
 d 9 -17 d 9 -16 d 9 -16 d 9 -16 d 9 -14 d 9 -15 d 18 -26 d 18 -24 d 18 -23 d 35 -44 d 36 -44 d 36 -46 d 36 -48 d 36 -51 d 36 -56 d 35 -59 d -72 Y -10 X -25 57 d -36 72 d -36 66 d -36 59 d -36 52 d -36 46 d -35 46 d -18 24 d -18 27 d -18 29 d -9 14 d
 -9 16 d -9 16 d -9 16 d -9 17 d -9 17 d -9 17 d -9 17 d -9 16 d -9 17 d -9 16 d -9 16 d -9 14 d -9 15 d -18 25 d -17 20 d -9 8 d -9 8 d -9 6 d -9 4 d -5 2 d -4 2 d -5 1 d -4 1 d -5 1 d -4 X -5 1 d -4 -1 d -5 X -4 -1 d -5 -1 d -4 -1 d -5 -2 d -4 -2 d
 -9 -5 d -9 -6 d -9 -8 d -9 -9 d -9 -11 d -18 -24 d -18 -28 d -9 -15 d -9 -14 d -8 -12 d -9 -12 d -9 -12 d -9 -11 d -9 -10 d -9 -10 d -18 -19 d -18 -18 d -18 -17 d -18 -16 d -36 -32 d -36 -32 d -35 -34 d -36 -33 d -36 -32 d -36 -29 d -36 -26 d -36
 -23 d -35 -20 d -36 -17 d -36 -15 d -36 -14 d -36 -12 d -36 -11 d -35 -11 d -36 -9 d -36 -9 d -36 -9 d -36 -8 d -36 -8 d -35 -8 d -36 -7 d -36 -7 d -36 -7 d -36 -6 d -36 -7 d -35 -6 d -36 -6 d f 0 1 1 c 0 1 0 c black 0 1 0 c 363 732 m 36 6 d 35 6 d
 36 6 d 36 6 d 36 7 d 36 7 d 36 7 d 35 8 d 36 8 d 36 8 d 36 8 d 36 9 d 36 9 d 35 10 d 36 11 d 36 12 d 36 13 d 36 15 d 36 17 d 35 20 d 36 22 d 36 26 d 36 28 d 36 29 d 36 31 d 35 32 d 36 33 d 36 33 d 18 17 d 18 17 d 18 17 d 18 18 d 9 10 d 9 9 d 9 11 d
 9 11 d 9 13 d 8 15 d 9 15 d 9 14 d 18 26 d 18 22 d 9 9 d 9 9 d 9 7 d 9 7 d 9 5 d 4 2 d 5 2 d 4 1 d 5 1 d 4 1 d 5 1 d 13 X 5 -1 d 4 -1 d 5 -1 d 4 -2 d 5 -2 d 9 -5 d 9 -6 d 9 -7 d 9 -9 d 17 -20 d 18 -24 d 9 -13 d 9 -14 d 9 -15 d 9 -15 d 9 -16 d 9 -17
 d 9 -16 d 9 -17 d 9 -17 d 9 -16 d 9 -17 d 9 -15 d 9 -15 d 9 -14 d 18 -27 d 18 -25 d 18 -23 d 35 -44 d 36 -45 d 36 -47 d 36 -50 d 36 -54 d 36 -59 d 35 -62 d -46 Y -35 71 d -36 67 d -36 61 d -36 56 d -36 50 d -36 46 d -35 45 d -18 24 d -18 26 d -18 28
 d -9 14 d -9 16 d -9 16 d -9 16 d -9 16 d -9 17 d -9 17 d -9 17 d -9 17 d -9 16 d -9 16 d -9 15 d -9 15 d -9 14 d -18 24 d -17 20 d -9 9 d -9 7 d -9 6 d -9 5 d -5 2 d -4 1 d -5 2 d -4 1 d -5 1 d -13 X -5 -1 d -4 X -5 -2 d -4 -1 d -5 -2 d -4 -2 d -9
 -5 d -9 -6 d -9 -8 d -9 -9 d -9 -10 d -18 -23 d -18 -28 d -9 -15 d -9 -14 d -8 -13 d -9 -12 d -9 -11 d -9 -11 d -9 -11 d -9 -10 d -18 -18 d -18 -18 d -18 -16 d -18 -17 d -36 -32 d -36 -33 d -35 -33 d -36 -32 d -36 -31 d -36 -29 d -36 -26 d -36 -22 d
 -35 -20 d -36 -18 d -36 -15 d -36 -13 d -36 -12 d -36 -11 d -35 -10 d -36 -10 d -36 -9 d -36 -8 d -36 -9 d -36 -7 d -35 -8 d -36 -7 d -36 -7 d -36 -7 d -36 -7 d -36 -6 d -35 -6 d -36 -6 d f 0 0 1 c 9 lw black 0 0 1 c 363 725 m 36 6 d 35 6 d 36 7 d
 36 6 d 36 7 d 36 7 d 36 7 d 35 8 d 36 8 d 36 8 d 36 8 d 36 9 d 36 10 d 35 10 d 36 11 d 36 11 d 36 14 d 36 15 d 36 17 d 35 20 d 36 23 d 36 25 d 36 28 d 36 31 d 36 31 d 35 33 d 36 32 d 36 33 d 18 17 d 18 17 d 18 17 d 18 18 d 9 10 d 9 10 d 9 11 d 9 11
 d 9 13 d 8 13 d 9 15 d 9 15 d 18 26 d 18 23 d 9 10 d 9 8 d 9 8 d 9 6 d 9 5 d 4 3 d 5 1 d 4 2 d 5 1 d 4 1 d 5 X 4 1 d 5 X 4 -1 d 5 -1 d 4 -1 d 5 -1 d 4 -2 d 5 -2 d 9 -4 d 9 -6 d 9 -8 d 9 -8 d 17 -20 d 18 -25 d 9 -13 d 9 -14 d 9 -16 d 9 -15 d 9 -16 d
 9 -17 d 9 -17 d 9 -16 d 9 -17 d 9 -17 d 9 -16 d 9 -16 d 9 -15 d 9 -14 d 18 -28 d 18 -25 d 18 -23 d 35 -45 d 36 -46 d 36 -48 d 36 -53 d 36 -57 d 36 -62 d 35 -66 d s black 3 lw 381 664 m -18 X s 363 664 m cl s 381 664 m 18 X s 399 664 m cl s 381 664 m
 62 Y s 381 726 m cl s 381 664 m -30 Y s 381 634 m cl s 417 767 m -18 X s 399 767 m cl s 417 767 m 17 X s 434 767 m cl s 417 767 m 41 Y s 417 808 m cl s 417 767 m -42 Y s 417 725 m cl s 452 718 m -18 X s 434 718 m cl s 452 718 m 18 X s 470 718 m cl s
 452 718 m 50 Y s 452 768 m cl s 452 718 m -53 Y s 452 665 m cl s 488 718 m -18 X s 470 718 m cl s 488 718 m 18 X s 506 718 m cl s 488 718 m 50 Y s 488 768 m cl s 488 718 m -53 Y s 488 665 m cl s 524 718 m -18 X s 506 718 m cl s 524 718 m 18 X s 542
 718 m cl s 524 718 m 50 Y s 524 768 m cl s 524 718 m -53 Y s 524 665 m cl s 560 756 m -18 X s 542 756 m cl s 560 756 m 18 X s 578 756 m cl s 560 756 m 43 Y s 560 799 m cl s 560 756 m -44 Y s 560 712 m cl s 596 702 m -18 X s 578 702 m cl s 596 702 m
 18 X s 614 702 m cl s 596 702 m 54 Y s 596 756 m cl s 596 702 m -56 Y s 596 646 m cl s 632 685 m -18 X s 614 685 m cl s 632 685 m 17 X s 649 685 m cl s 632 685 m 57 Y s 632 742 m cl s 632 685 m -51 Y s 632 634 m cl s 703 854 m -18 X s 685 854 m cl s
 703 854 m 18 X s 721 854 m cl s 703 854 m 29 Y s 703 883 m cl s 703 854 m -29 Y s 703 825 m cl s 739 756 m -18 X s 721 756 m cl s 739 756 m 18 X s 757 756 m cl s 739 756 m 43 Y s 739 799 m cl s 739 756 m -44 Y s 739 712 m cl s 775 767 m -18 X s 757
 767 m cl s 775 767 m 18 X s 793 767 m cl s 775 767 m 41 Y s 775 808 m cl s 775 767 m -42 Y s 775 725 m cl s 811 803 m -18 X s 793 803 m cl s 811 803 m 18 X s 829 803 m cl s 811 803 m 35 Y s 811 838 m cl s 811 803 m -37 Y s 811 766 m cl s 847 874 m
 -18 X s 829 874 m cl s 847 874 m 17 X s 864 874 m cl s 847 874 m 26 Y s 847 900 m cl s 847 874 m -27 Y s 847 847 m cl s 882 831 m -18 X s 864 831 m cl s 882 831 m 18 X s 900 831 m cl s 882 831 m 31 Y s 882 862 m cl s 882 831 m -33 Y s 882 798 m cl s
 918 864 m -18 X s 900 864 m cl s 918 864 m 18 X s 936 864 m cl s 918 864 m 28 Y s 918 892 m cl s 918 864 m -28 Y s 918 836 m cl s 954 883 m -18 X s 936 883 m cl s 954 883 m 18 X s 972 883 m cl s 954 883 m 25 Y s 954 908 m cl s 954 883 m -27 Y s 954
 856 m cl s 990 869 m -18 X s 972 869 m cl s 990 869 m 18 X s 1008 869 m cl s 990 869 m 27 Y s 990 896 m cl s 990 869 m -28 Y s 990 841 m cl s 1026 916 m -18 X s 1008 916 m cl s 1026 916 m 18 X s 1044 916 m cl s 1026 916 m 23 Y s 1026 939 m cl s 1026
 916 m -22 Y s 1026 894 m cl s 1062 949 m -18 X s 1044 949 m cl s 1062 949 m 17 X s 1079 949 m cl s 1062 949 m 20 Y s 1062 969 m cl s 1062 949 m -20 Y s 1062 929 m cl s 1097 920 m -18 X s 1079 920 m cl s 1097 920 m 18 X s 1115 920 m cl s 1097 920 m
 22 Y s 1097 942 m cl s 1097 920 m -23 Y s 1097 897 m cl s 1133 966 m -18 X s 1115 966 m cl s 1133 966 m 18 X s 1151 966 m cl s 1133 966 m 18 Y s 1133 984 m cl s 1133 966 m -19 Y s 1133 947 m cl s 1169 983 m -18 X s 1151 983 m cl s 1169 983 m 18 X s
 1187 983 m cl s 1169 983 m 17 Y s 1169 1000 m cl s 1169 983 m -17 Y s 1169 966 m cl s 1205 1002 m -18 X s 1187 1002 m cl s 1205 1002 m 18 X s 1223 1002 m cl s 1205 1002 m 16 Y s 1205 1018 m cl s 1205 1002 m -16 Y s 1205 986 m cl s 1241 1033 m -18 X
 s 1223 1033 m cl s 1241 1033 m 18 X s 1259 1033 m cl s 1241 1033 m 14 Y s 1241 1047 m cl s 1241 1033 m -14 Y s 1241 1019 m cl s 1276 1077 m -17 X s 1259 1077 m cl s 1276 1077 m 18 X s 1294 1077 m cl s 1276 1077 m 12 Y s 1276 1089 m cl s 1276 1077 m
 -11 Y s 1276 1066 m cl s 1312 1095 m -18 X s 1294 1095 m cl s 1312 1095 m 18 X s 1330 1095 m cl s 1312 1095 m 11 Y s 1312 1106 m cl s 1312 1095 m -11 Y s 1312 1084 m cl s 1348 1139 m -18 X s 1330 1139 m cl s 1348 1139 m 18 X s 1366 1139 m cl s 1348
 1139 m 10 Y s 1348 1149 m cl s 1348 1139 m -9 Y s 1348 1130 m cl s 1384 1172 m -18 X s 1366 1172 m cl s 1384 1172 m 18 X s 1402 1172 m cl s 1384 1172 m 8 Y s 1384 1180 m cl s 1384 1172 m -8 Y s 1384 1164 m cl s 1420 1214 m -18 X s 1402 1214 m cl s
 1420 1214 m 18 X s 1438 1214 m cl s 1420 1214 m 7 Y s 1420 1221 m cl s 1420 1214 m -7 Y s 1420 1207 m cl s 1456 1256 m -18 X s 1438 1256 m cl s 1456 1256 m 18 X s 1474 1256 m cl s 1456 1256 m 6 Y s 1456 1262 m cl s 1456 1256 m -6 Y s 1456 1250 m cl
 s 1491 1298 m -17 X s 1474 1298 m cl s 1491 1298 m 18 X s 1509 1298 m cl s 1491 1298 m 5 Y s 1491 1303 m cl s 1491 1298 m -5 Y s 1491 1293 m cl s 1527 1344 m -18 X s 1509 1344 m cl s 1527 1344 m 18 X s 1545 1344 m cl s 1527 1344 m 4 Y s 1527 1348 m
 cl s 1527 1344 m -4 Y s 1527 1340 m cl s 1563 1390 m -18 X s 1545 1390 m cl s 1563 1390 m 18 X s 1581 1390 m cl s 1563 1390 m 4 Y s 1563 1394 m cl s 1563 1390 m -3 Y s 1563 1387 m cl s 1599 1410 m -18 X s 1581 1410 m cl s 1599 1410 m 18 X s 1617
 1410 m cl s 1599 1410 m 3 Y s 1599 1413 m cl s 1599 1410 m -3 Y s 1599 1407 m cl s 1635 1417 m -18 X s 1617 1417 m cl s 1635 1417 m 18 X s 1653 1417 m cl s 1635 1417 m 3 Y s 1635 1420 m cl s 1635 1417 m -3 Y s 1635 1414 m cl s 1671 1405 m -18 X s
 1653 1405 m cl s 1671 1405 m 18 X s 1689 1405 m cl s 1671 1405 m 3 Y s 1671 1408 m cl s 1671 1405 m -4 Y s 1671 1401 m cl s 1706 1358 m -17 X s 1689 1358 m cl s 1706 1358 m 18 X s 1724 1358 m cl s 1706 1358 m 4 Y s 1706 1362 m cl s 1706 1358 m -4 Y
 s 1706 1354 m cl s 1742 1312 m -18 X s 1724 1312 m cl s 1742 1312 m 18 X s 1760 1312 m cl s 1742 1312 m 5 Y s 1742 1317 m cl s 1742 1312 m -5 Y s 1742 1307 m cl s 1778 1248 m -18 X s 1760 1248 m cl s 1778 1248 m 18 X s 1796 1248 m cl s 1778 1248 m 6
 Y s 1778 1254 m cl s 1778 1248 m -6 Y s 1778 1242 m cl s 1814 1182 m -18 X s 1796 1182 m cl s 1814 1182 m 18 X s 1832 1182 m cl s 1814 1182 m 8 Y s 1814 1190 m cl s 1814 1182 m -8 Y s 1814 1174 m cl s 1850 1130 m -18 X s 1832 1130 m cl s 1850 1130 m
 18 X s 1868 1130 m cl s 1850 1130 m 10 Y s 1850 1140 m cl s 1850 1130 m -9 Y s 1850 1121 m cl s 1886 1066 m -18 X s 1868 1066 m cl s 1886 1066 m 18 X s 1904 1066 m cl s 1886 1066 m 12 Y s 1886 1078 m cl s 1886 1066 m -12 Y s 1886 1054 m cl s 1921
 993 m -17 X s 1904 993 m cl s 1921 993 m 18 X s 1939 993 m cl s 1921 993 m 16 Y s 1921 1009 m cl s 1921 993 m -17 Y s 1921 976 m cl s 1957 956 m -18 X s 1939 956 m cl s 1957 956 m 18 X s 1975 956 m cl s 1957 956 m 20 Y s 1957 976 m cl s 1957 956 m
 -19 Y s 1957 937 m cl s 1993 935 m -18 X s 1975 935 m cl s 1993 935 m 18 X s 2011 935 m cl s 1993 935 m 21 Y s 1993 956 m cl s 1993 935 m -21 Y s 1993 914 m cl s 2029 878 m -18 X s 2011 878 m cl s 2029 878 m 18 X s 2047 878 m cl s 2029 878 m 26 Y s
 2029 904 m cl s 2029 878 m -26 Y s 2029 852 m cl s 2065 854 m -18 X s 2047 854 m cl s 2065 854 m 18 X s 2083 854 m cl s 2065 854 m 29 Y s 2065 883 m cl s 2065 854 m -29 Y s 2065 825 m cl s 2101 756 m -18 X s 2083 756 m cl s 2101 756 m 18 X s 2119
 756 m cl s 2101 756 m 43 Y s 2101 799 m cl s 2101 756 m -44 Y s 2101 712 m cl s 2136 767 m -17 X s 2119 767 m cl s 2136 767 m 18 X s 2154 767 m cl s 2136 767 m 41 Y s 2136 808 m cl s 2136 767 m -42 Y s 2136 725 m cl s 381 664 417 767 452 718 488 718
 524 718 560 756 596 702 632 685 8 { m20} R 703 854 739 756 775 767 811 803 847 874 882 831 918 864 954 883 990 869 1026 916 1062 949 1097 920 1133 966 1169 983 1205 1002 1241 1033 1276 1077 1312 1095 1348 1139 1384 1172 1420 1214 1456 1256 1491 1298
 1527 1344 1563 1390 1599 1410 1635 1417 1671 1405 1706 1358 1742 1312 1778 1248 1814 1182 1850 1130 1886 1066 1921 993 1957 956 1993 935 2029 878 2065 854 2101 756 2136 767 41 { m20} R 0.52 0.76 0.64 c[ 4 8] 0 sd 9 lw black 0.52 0.76 0.64 c 363 725
 m 36 6 d 35 6 d 36 7 d 36 6 d 36 7 d 36 7 d 36 7 d 35 8 d 36 8 d 36 8 d 36 8 d 36 9 d 36 9 d 35 10 d 36 10 d 36 11 d 36 11 d 36 12 d 36 13 d 35 14 d 36 14 d 36 16 d 36 17 d 36 19 d 36 21 d 35 23 d 36 27 d 36 30 d 18 17 d 18 19 d 18 21 d 18 23 d 9 12
 d 9 14 d 9 14 d 9 16 d 9 17 d 4 9 d 4 9 d 5 10 d 4 10 d 9 19 d 9 17 d 9 16 d 18 28 d 9 12 d 9 10 d 9 9 d 9 7 d 5 4 d 4 2 d 4 3 d 5 2 d 4 2 d 5 1 d 4 1 d 5 1 d 9 X 4 -1 d 5 -1 d 4 -1 d 5 -1 d 4 -2 d 5 -2 d 4 -3 d 5 -3 d 9 -7 d 9 -9 d 9 -10 d 35 -54 d
 9 -17 d 9 -19 d 9 -20 d 9 -21 d 9 -23 d 9 -25 d 9 -26 d 9 -27 d 9 -29 d 9 -30 d 9 -31 d 9 -34 d 9 -34 d 9 -36 d 18 -76 d 18 -82 d 18 -88 d 8 -48 d s 0.54 0.66 0.63 c black 0.54 0.66 0.63 c 1074 634 m 5 12 d s 1079 646 m 36 67 d 36 64 d 18 29 d 18 29
 d 18 28 d 18 26 d 18 25 d 18 24 d 17 23 d 18 22 d 18 21 d 18 19 d 18 18 d 18 18 d 18 16 d 18 14 d 36 27 d 36 21 d 17 9 d 18 8 d 18 7 d 18 5 d 18 5 d 18 3 d 9 1 d 9 1 d 9 1 d 27 X 9 -1 d 9 -1 d 9 -1 d 9 -1 d 18 -4 d 17 -5 d 18 -6 d 18 -7 d 18 -8 d 18
 -10 d 18 -10 d 36 -25 d 36 -29 d 18 -17 d 18 -17 d 17 -19 d 18 -20 d 18 -21 d 18 -22 d 18 -24 d 18 -24 d 18 -26 d 18 -27 d 18 -28 d 18 -29 d 18 -30 d 18 -32 d 35 -66 d s black[  ] 0 sd 3 lw 363 634 m 1791 X s 363 659 m -25 Y s 409 646 m -12 Y s 454
 646 m -12 Y s 500 646 m -12 Y s 546 659 m -25 Y s 591 646 m -12 Y s 637 646 m -12 Y s 683 646 m -12 Y s 728 659 m -25 Y s 774 646 m -12 Y s 820 646 m -12 Y s 866 646 m -12 Y s 911 659 m -25 Y s 957 646 m -12 Y s 1003 646 m -12 Y s 1048 646 m -12 Y s
 1094 659 m -25 Y s 1140 646 m -12 Y s 1185 646 m -12 Y s 1231 646 m -12 Y s 1277 659 m -25 Y s 1323 646 m -12 Y s 1368 646 m -12 Y s 1414 646 m -12 Y s 1460 659 m -25 Y s 1505 646 m -12 Y s 1551 646 m -12 Y s 1597 646 m -12 Y s 1642 659 m -25 Y s
 1688 646 m -12 Y s 1734 646 m -12 Y s 1780 646 m -12 Y s 1825 659 m -25 Y s 1871 646 m -12 Y s 1917 646 m -12 Y s 1962 646 m -12 Y s 2008 659 m -25 Y s 2008 659 m -25 Y s 2054 646 m -12 Y s 2099 646 m -12 Y s 2145 646 m -12 Y s 363 1484 m 1791 X s
 363 1459 m 25 Y s 409 1471 m 13 Y s 454 1471 m 13 Y s 500 1471 m 13 Y s 546 1459 m 25 Y s 591 1471 m 13 Y s 637 1471 m 13 Y s 683 1471 m 13 Y s 728 1459 m 25 Y s 774 1471 m 13 Y s 820 1471 m 13 Y s 866 1471 m 13 Y s 911 1459 m 25 Y s 957 1471 m 13 Y
 s 1003 1471 m 13 Y s 1048 1471 m 13 Y s 1094 1459 m 25 Y s 1140 1471 m 13 Y s 1185 1471 m 13 Y s 1231 1471 m 13 Y s 1277 1459 m 25 Y s 1323 1471 m 13 Y s 1368 1471 m 13 Y s 1414 1471 m 13 Y s 1460 1459 m 25 Y s 1505 1471 m 13 Y s 1551 1471 m 13 Y s
 1597 1471 m 13 Y s 1642 1459 m 25 Y s 1688 1471 m 13 Y s 1734 1471 m 13 Y s 1780 1471 m 13 Y s 1825 1459 m 25 Y s 1871 1471 m 13 Y s 1917 1471 m 13 Y s 1962 1471 m 13 Y s 2008 1459 m 25 Y s 2008 1459 m 25 Y s 2054 1471 m 13 Y s 2099 1471 m 13 Y s
 2145 1471 m 13 Y s 363 634 m 850 Y s 390 640 m -27 X s 390 664 m -27 X s 390 685 m -27 X s 390 702 m -27 X s 390 718 m -27 X s 417 732 m -54 X s 390 824 m -27 X s 390 878 m -27 X s 390 916 m -27 X s 390 946 m -27 X s 390 970 m -27 X s 390 991 m -27
 X s 390 1009 m -27 X s 390 1024 m -27 X s 417 1038 m -54 X s 390 1130 m -27 X s 390 1184 m -27 X s 390 1223 m -27 X s 390 1252 m -27 X s 390 1276 m -27 X s 390 1297 m -27 X s 390 1315 m -27 X s 390 1330 m -27 X s 417 1344 m -54 X s 390 1437 m -27 X
 s 2154 634 m 850 Y s 2127 640 m 27 X s 2127 664 m 27 X s 2127 685 m 27 X s 2127 702 m 27 X s 2127 718 m 27 X s 2101 732 m 53 X s 2127 824 m 27 X s 2127 878 m 27 X s 2127 916 m 27 X s 2127 946 m 27 X s 2127 970 m 27 X s 2127 991 m 27 X s 2127 1009 m
 27 X s 2127 1024 m 27 X s 2101 1038 m 53 X s 2127 1130 m 27 X s 2127 1184 m 27 X s 2127 1223 m 27 X s 2127 1252 m 27 X s 2127 1276 m 27 X s 2127 1297 m 27 X s 2127 1315 m 27 X s 2127 1330 m 27 X s 2101 1344 m 53 X s 2127 1437 m 27 X s
 gsave  2268 1077 0 461 C 677.708 1215.31 t 0 r /Helvetica findfont 58.7189 sf 0 0 m (2mu2e) show NC gr  1 1 1 c 453 161 454 1269 bf black
 gsave  2268 1077 0 461 C 566.929 1371.71 t 0 r /Helvetica-Bold findfont 48.9324 sf 0 0 m (MC15) show NC gr  510 1390 m20
 gsave  2268 1077 0 461 C 566.929 1293.51 t 0 r /Helvetica-Bold findfont 48.9324 sf 0 0 m (Projection of Signal pdf) show NC gr  0 0 1 c 9 lw 471 1309 m 79 X s black 3 lw 1 1 1 c 2268 461 0 0 bf black 1 1 1 c 1791 364 363 74 bf black 1791 364 363 74
 bl 363 74 m 1791 X s
 gsave  2268 461 0 0 C 1915.83 13.0329 t 0 r /Helvetica findfont 22.9045 sf 0 0 m (4l Invariant Mass \(GeV\)) show NC gr  363 85 m -11 Y s 409 79 m -5 Y s 454 79 m -5 Y s 500 79 m -5 Y s 546 85 m -11 Y s 591 79 m -5 Y s 637 79 m -5 Y s 683 79 m -5 Y
 s 728 85 m -11 Y s 774 79 m -5 Y s 820 79 m -5 Y s 866 79 m -5 Y s 911 85 m -11 Y s 957 79 m -5 Y s 1003 79 m -5 Y s 1048 79 m -5 Y s 1094 85 m -11 Y s 1140 79 m -5 Y s 1185 79 m -5 Y s 1231 79 m -5 Y s 1277 85 m -11 Y s 1323 79 m -5 Y s 1368 79 m
 -5 Y s 1414 79 m -5 Y s 1460 85 m -11 Y s 1505 79 m -5 Y s 1551 79 m -5 Y s 1597 79 m -5 Y s 1642 85 m -11 Y s 1688 79 m -5 Y s 1734 79 m -5 Y s 1780 79 m -5 Y s 1825 85 m -11 Y s 1871 79 m -5 Y s 1917 79 m -5 Y s 1962 79 m -5 Y s 2008 85 m -11 Y s
 2008 85 m -11 Y s 2054 79 m -5 Y s 2099 79 m -5 Y s 2145 79 m -5 Y s
 gsave  2268 461 0 0 C 342.112 55.3896 t 0 r /Helvetica findfont 22.9045 sf 0 0 m (660) show NC gr 
 gsave  2268 461 0 0 C 524.572 55.3896 t 0 r /Helvetica findfont 22.9045 sf 0 0 m (680) show NC gr 
 gsave  2268 461 0 0 C 707.032 55.3896 t 0 r /Helvetica findfont 22.9045 sf 0 0 m (700) show NC gr 
 gsave  2268 461 0 0 C 889.492 55.3896 t 0 r /Helvetica findfont 22.9045 sf 0 0 m (720) show NC gr 
 gsave  2268 461 0 0 C 1071.95 55.3896 t 0 r /Helvetica findfont 22.9045 sf 0 0 m (740) show NC gr 
 gsave  2268 461 0 0 C 1254.41 55.3896 t 0 r /Helvetica findfont 22.9045 sf 0 0 m (760) show NC gr 
 gsave  2268 461 0 0 C 1436.87 55.3896 t 0 r /Helvetica findfont 22.9045 sf 0 0 m (780) show NC gr 
 gsave  2268 461 0 0 C 1622.59 55.3896 t 0 r /Helvetica findfont 22.9045 sf 0 0 m (800) show NC gr 
 gsave  2268 461 0 0 C 1805.05 55.3896 t 0 r /Helvetica findfont 22.9045 sf 0 0 m (820) show NC gr 
 gsave  2268 461 0 0 C 1987.51 55.3896 t 0 r /Helvetica findfont 22.9045 sf 0 0 m (840) show NC gr  363 438 m 1791 X s 363 427 m 11 Y s 409 433 m 5 Y s 454 433 m 5 Y s 500 433 m 5 Y s 546 427 m 11 Y s 591 433 m 5 Y s 637 433 m 5 Y s 683 433 m 5 Y s
 728 427 m 11 Y s 774 433 m 5 Y s 820 433 m 5 Y s 866 433 m 5 Y s 911 427 m 11 Y s 957 433 m 5 Y s 1003 433 m 5 Y s 1048 433 m 5 Y s 1094 427 m 11 Y s 1140 433 m 5 Y s 1185 433 m 5 Y s 1231 433 m 5 Y s 1277 427 m 11 Y s 1323 433 m 5 Y s 1368 433 m 5
 Y s 1414 433 m 5 Y s 1460 427 m 11 Y s 1505 433 m 5 Y s 1551 433 m 5 Y s 1597 433 m 5 Y s 1642 427 m 11 Y s 1688 433 m 5 Y s 1734 433 m 5 Y s 1780 433 m 5 Y s 1825 427 m 11 Y s 1871 433 m 5 Y s 1917 433 m 5 Y s 1962 433 m 5 Y s 2008 427 m 11 Y s
 2008 427 m 11 Y s 2054 433 m 5 Y s 2099 433 m 5 Y s 2145 433 m 5 Y s 363 74 m 364 Y s 417 74 m -54 X s 390 81 m -27 X s 390 88 m -27 X s 390 96 m -27 X s 390 103 m -27 X s 417 110 m -54 X s 390 118 m -27 X s 390 125 m -27 X s 390 132 m -27 X s 390
 139 m -27 X s 417 147 m -54 X s 390 154 m -27 X s 390 161 m -27 X s 390 169 m -27 X s 390 176 m -27 X s 417 183 m -54 X s 390 190 m -27 X s 390 198 m -27 X s 390 205 m -27 X s 390 212 m -27 X s 417 220 m -54 X s 390 227 m -27 X s 390 234 m -27 X s
 390 241 m -27 X s 390 249 m -27 X s 417 256 m -54 X s 390 263 m -27 X s 390 271 m -27 X s 390 278 m -27 X s 390 285 m -27 X s 417 293 m -54 X s 390 300 m -27 X s 390 307 m -27 X s 390 314 m -27 X s 390 322 m -27 X s 417 329 m -54 X s 390 336 m -27 X
 s 390 344 m -27 X s 390 351 m -27 X s 390 358 m -27 X s 417 365 m -54 X s 390 373 m -27 X s 390 380 m -27 X s 390 387 m -27 X s 390 395 m -27 X s 417 402 m -54 X s 390 409 m -27 X s 390 416 m -27 X s 390 424 m -27 X s 390 431 m -27 X s 417 438 m -54
 X s
 gsave  2268 461 0 0 C 329.08 65.1643 t 0 r /Helvetica findfont 22.9045 sf 0 0 m (\2555) show NC gr 
 gsave  2268 461 0 0 C 329.08 101.005 t 0 r /Helvetica findfont 22.9045 sf 0 0 m (\2554) show NC gr 
 gsave  2268 461 0 0 C 329.08 140.103 t 0 r /Helvetica findfont 22.9045 sf 0 0 m (\2553) show NC gr 
 gsave  2268 461 0 0 C 329.08 175.944 t 0 r /Helvetica findfont 22.9045 sf 0 0 m (\2552) show NC gr 
 gsave  2268 461 0 0 C 332.338 211.784 t 0 r /Helvetica findfont 22.9045 sf 0 0 m (\2551) show NC gr 
 gsave  2268 461 0 0 C 335.596 247.624 t 0 r /Helvetica findfont 22.9045 sf 0 0 m (0) show NC gr 
 gsave  2268 461 0 0 C 338.854 283.465 t 0 r /Helvetica findfont 22.9045 sf 0 0 m (1) show NC gr 
 gsave  2268 461 0 0 C 335.596 319.305 t 0 r /Helvetica findfont 22.9045 sf 0 0 m (2) show NC gr 
 gsave  2268 461 0 0 C 335.596 358.403 t 0 r /Helvetica findfont 22.9045 sf 0 0 m (3) show NC gr 
 gsave  2268 461 0 0 C 335.596 394.244 t 0 r /Helvetica findfont 22.9045 sf 0 0 m (4) show NC gr 
 gsave  2268 461 0 0 C 335.596 430.084 t 0 r /Helvetica findfont 22.9045 sf 0 0 m (5) show NC gr  2154 74 m 364 Y s 2101 74 m 53 X s 2127 81 m 27 X s 2127 88 m 27 X s 2127 96 m 27 X s 2127 103 m 27 X s 2101 110 m 53 X s 2127 118 m 27 X s 2127 125 m
 27 X s 2127 132 m 27 X s 2127 139 m 27 X s 2101 147 m 53 X s 2127 154 m 27 X s 2127 161 m 27 X s 2127 169 m 27 X s 2127 176 m 27 X s 2101 183 m 53 X s 2127 190 m 27 X s 2127 198 m 27 X s 2127 205 m 27 X s 2127 212 m 27 X s 2101 220 m 53 X s 2127 227
 m 27 X s 2127 234 m 27 X s 2127 241 m 27 X s 2127 249 m 27 X s 2101 256 m 53 X s 2127 263 m 27 X s 2127 271 m 27 X s 2127 278 m 27 X s 2127 285 m 27 X s 2101 293 m 53 X s 2127 300 m 27 X s 2127 307 m 27 X s 2127 314 m 27 X s 2127 322 m 27 X s 2101
 329 m 53 X s 2127 336 m 27 X s 2127 344 m 27 X s 2127 351 m 27 X s 2127 358 m 27 X s 2101 365 m 53 X s 2127 373 m 27 X s 2127 380 m 27 X s 2127 387 m 27 X s 2127 395 m 27 X s 2101 402 m 53 X s 2127 409 m 27 X s 2127 416 m 27 X s 2127 424 m 27 X s
 2127 431 m 27 X s 2101 438 m 53 X s 6 lw 0.2 0.8 0.2 c black 3 lw 0.2 0.8 0.2 c 363 256 m -38 Y 36 X 67 Y 35 X -44 Y 36 X -4 Y 36 X -5 Y 36 X 21 Y 36 X -44 Y 36 X -19 Y 35 X -79 Y 36 X 215 Y 36 X -106 Y 72 X 23 Y 36 X 72 Y 35 X -66 Y 36 X 28 Y 36 X
 9 Y 36 X -38 Y 36 X 48 Y 36 X 26 Y 35 X -85 Y 36 X 39 Y 36 X -20 Y 36 X -24 Y 36 X -3 Y 36 X 32 Y 35 X -50 Y 36 X 40 Y 36 X 1 Y 36 X 41 Y 36 X 29 Y 36 X -32 Y 35 X -82 Y 36 X 48 Y 36 X -37 Y 36 X 44 Y 36 X 50 Y 36 X -109 Y 35 X 57 Y 36 X -4 Y 36 X 3
 Y 36 X 38 Y 36 X -46 Y 36 X -66 Y 35 X 29 Y 36 X 48 Y 36 X -11 Y 36 X 38 Y 36 X -42 Y 36 X 58 Y 35 X -50 Y f 6 lw black 0.2 0.8 0.2 c black 363 218 m 36 X 67 Y 35 X -44 Y 36 X -4 Y 36 X -5 Y 36 X 21 Y 36 X -44 Y 36 X -19 Y 35 X -79 Y 36 X 215 Y 36 X
 -106 Y 72 X 23 Y 36 X 72 Y 35 X -66 Y 36 X 28 Y 36 X 9 Y 36 X -38 Y 36 X 48 Y 36 X 26 Y 35 X -85 Y 36 X 39 Y 36 X -20 Y 36 X -24 Y 36 X -3 Y 36 X 32 Y 35 X -50 Y 36 X 40 Y 36 X 1 Y 36 X 41 Y 36 X 29 Y 36 X -32 Y 35 X -82 Y 36 X 48 Y 36 X -37 Y 36 X
 44 Y 36 X 50 Y 36 X -109 Y 35 X 57 Y 36 X -4 Y 36 X 3 Y 36 X 38 Y 36 X -46 Y 36 X -66 Y 35 X 29 Y 36 X 48 Y 36 X -11 Y 36 X 38 Y 36 X -42 Y 36 X 58 Y 35 X s 3 lw 363 74 m 1791 X s 363 85 m -11 Y s 409 79 m -5 Y s 454 79 m -5 Y s 500 79 m -5 Y s 546
 85 m -11 Y s 591 79 m -5 Y s 637 79 m -5 Y s 683 79 m -5 Y s 728 85 m -11 Y s 774 79 m -5 Y s 820 79 m -5 Y s 866 79 m -5 Y s 911 85 m -11 Y s 957 79 m -5 Y s 1003 79 m -5 Y s 1048 79 m -5 Y s 1094 85 m -11 Y s 1140 79 m -5 Y s 1185 79 m -5 Y s 1231
 79 m -5 Y s 1277 85 m -11 Y s 1323 79 m -5 Y s 1368 79 m -5 Y s 1414 79 m -5 Y s 1460 85 m -11 Y s 1505 79 m -5 Y s 1551 79 m -5 Y s 1597 79 m -5 Y s 1642 85 m -11 Y s 1688 79 m -5 Y s 1734 79 m -5 Y s 1780 79 m -5 Y s 1825 85 m -11 Y s 1871 79 m -5
 Y s 1917 79 m -5 Y s 1962 79 m -5 Y s 2008 85 m -11 Y s 2008 85 m -11 Y s 2054 79 m -5 Y s 2099 79 m -5 Y s 2145 79 m -5 Y s 363 438 m 1791 X s 363 427 m 11 Y s 409 433 m 5 Y s 454 433 m 5 Y s 500 433 m 5 Y s 546 427 m 11 Y s 591 433 m 5 Y s 637 433
 m 5 Y s 683 433 m 5 Y s 728 427 m 11 Y s 774 433 m 5 Y s 820 433 m 5 Y s 866 433 m 5 Y s 911 427 m 11 Y s 957 433 m 5 Y s 1003 433 m 5 Y s 1048 433 m 5 Y s 1094 427 m 11 Y s 1140 433 m 5 Y s 1185 433 m 5 Y s 1231 433 m 5 Y s 1277 427 m 11 Y s 1323
 433 m 5 Y s 1368 433 m 5 Y s 1414 433 m 5 Y s 1460 427 m 11 Y s 1505 433 m 5 Y s 1551 433 m 5 Y s 1597 433 m 5 Y s 1642 427 m 11 Y s 1688 433 m 5 Y s 1734 433 m 5 Y s 1780 433 m 5 Y s 1825 427 m 11 Y s 1871 433 m 5 Y s 1917 433 m 5 Y s 1962 433 m 5
 Y s 2008 427 m 11 Y s 2008 427 m 11 Y s 2054 433 m 5 Y s 2099 433 m 5 Y s 2145 433 m 5 Y s 363 74 m 364 Y s 417 74 m -54 X s 390 81 m -27 X s 390 88 m -27 X s 390 96 m -27 X s 390 103 m -27 X s 417 110 m -54 X s 390 118 m -27 X s 390 125 m -27 X s
 390 132 m -27 X s 390 139 m -27 X s 417 147 m -54 X s 390 154 m -27 X s 390 161 m -27 X s 390 169 m -27 X s 390 176 m -27 X s 417 183 m -54 X s 390 190 m -27 X s 390 198 m -27 X s 390 205 m -27 X s 390 212 m -27 X s 417 220 m -54 X s 390 227 m -27 X
 s 390 234 m -27 X s 390 241 m -27 X s 390 249 m -27 X s 417 256 m -54 X s 390 263 m -27 X s 390 271 m -27 X s 390 278 m -27 X s 390 285 m -27 X s 417 293 m -54 X s 390 300 m -27 X s 390 307 m -27 X s 390 314 m -27 X s 390 322 m -27 X s 417 329 m -54
 X s 390 336 m -27 X s 390 344 m -27 X s 390 351 m -27 X s 390 358 m -27 X s 417 365 m -54 X s 390 373 m -27 X s 390 380 m -27 X s 390 387 m -27 X s 390 395 m -27 X s 417 402 m -54 X s 390 409 m -27 X s 390 416 m -27 X s 390 424 m -27 X s 390 431 m
 -27 X s 417 438 m -54 X s 2154 74 m 364 Y s 2101 74 m 53 X s 2127 81 m 27 X s 2127 88 m 27 X s 2127 96 m 27 X s 2127 103 m 27 X s 2101 110 m 53 X s 2127 118 m 27 X s 2127 125 m 27 X s 2127 132 m 27 X s 2127 139 m 27 X s 2101 147 m 53 X s 2127 154 m
 27 X s 2127 161 m 27 X s 2127 169 m 27 X s 2127 176 m 27 X s 2101 183 m 53 X s 2127 190 m 27 X s 2127 198 m 27 X s 2127 205 m 27 X s 2127 212 m 27 X s 2101 220 m 53 X s 2127 227 m 27 X s 2127 234 m 27 X s 2127 241 m 27 X s 2127 249 m 27 X s 2101 256
 m 53 X s 2127 263 m 27 X s 2127 271 m 27 X s 2127 278 m 27 X s 2127 285 m 27 X s 2101 293 m 53 X s 2127 300 m 27 X s 2127 307 m 27 X s 2127 314 m 27 X s 2127 322 m 27 X s 2101 329 m 53 X s 2127 336 m 27 X s 2127 344 m 27 X s 2127 351 m 27 X s 2127
 358 m 27 X s 2101 365 m 53 X s 2127 373 m 27 X s 2127 380 m 27 X s 2127 387 m 27 X s 2127 395 m 27 X s 2101 402 m 53 X s 2127 409 m 27 X s 2127 416 m 27 X s 2127 424 m 27 X s 2127 431 m 27 X s 2101 438 m 53 X s
 gr  gr showpage
end
%%EOF
