%!PS-Adobe-2.0 EPSF-2.0
%%BoundingBox:  0 0 567 384
%%Title: H4l2015_plotfit/gg_mass_signal_300_fixed_H4l_4e.eps: 
%%Creator: ROOT Version 5.34/10
%%CreationDate: Thu Feb 16 13:48:31 2017
%%EndComments
%%BeginProlog
80 dict begin
/s {stroke} def /l {lineto} def /m {moveto} def /t {translate} def
/r {rotate} def /rl {roll}  def /R {repeat} def
/d {rlineto} def /rm {rmoveto} def /gr {grestore} def /f {eofill} def
/c {setrgbcolor} def /black {0 setgray} def /sd {setdash} def
/cl {closepath} def /sf {scalefont setfont} def /lw {setlinewidth} def
/box {m dup 0 exch d exch 0 d 0 exch neg d cl} def
/NC{systemdict begin initclip end}def/C{NC box clip newpath}def
/bl {box s} def /bf {box f} def /Y { 0 exch d} def /X { 0 d} def 
/K {{pop pop 0 moveto} exch kshow} bind def
/ita {/ang 15 def gsave [1 0 ang dup sin exch cos div 1 0 0] concat} def 
/mp {newpath /y exch def /x exch def} def
/side {[w .77 mul w .23 mul] .385 w mul sd w 0 l currentpoint t -144 r} def
/mr {mp x y w2 0 360 arc} def /m24 {mr s} def /m20 {mr f} def
/mb {mp x y w2 add m w2 neg 0 d 0 w neg d w 0 d 0 w d cl} def
/mt {mp x y w2 add m w2 neg w neg d w 0 d cl} def
/m21 {mb f} def /m25 {mb s} def /m22 {mt f} def /m26{mt s} def
/m23 {mp x y w2 sub m w2 w d w neg 0 d cl f} def
/m27 {mp x y w2 add m w3 neg w2 neg d w3 w2 neg d w3 w2 d cl s} def
/m28 {mp x w2 sub y w2 sub w3 add m w3 0 d  0 w3 neg d w3 0 d 0 w3 d w3 0 d  0 w3 d w3 neg 0 d 0 w3 d w3 neg 0 d 0 w3 neg d w3 neg 0 d cl s } def
/m29 {mp gsave x w2 sub y w2 add w3 sub m currentpoint t 4 {side} repeat cl fill gr} def
/m30 {mp gsave x w2 sub y w2 add w3 sub m currentpoint t 4 {side} repeat cl s gr} def
/m31 {mp x y w2 sub m 0 w d x w2 sub y m w 0 d x w2 sub y w2 add m w w neg d x w2 sub y w2 sub m w w d s} def
/m32 {mp x y w2 sub m w2 w d w neg 0 d cl s} def
/m33 {mp x y w2 add m w3 neg w2 neg d w3 w2 neg d w3 w2 d cl f} def
/m34 {mp x w2 sub y w2 sub w3 add m w3 0 d  0 w3 neg d w3 0 d 0 w3 d w3 0 d  0 w3 d w3 neg 0 d 0 w3 d w3 neg 0 d 0 w3 neg d w3 neg 0 d cl f } def
/m2 {mp x y w2 sub m 0 w d x w2 sub y m w 0 d s} def
/m5 {mp x w2 sub y w2 sub m w w d x w2 sub y w2 add m w w neg d s} def
/reEncode {exch findfont dup length dict begin {1 index /FID eq  {pop pop} {def} ifelse } forall /Encoding exch def currentdict end dup /FontName get exch definefont pop } def [/Times-Bold /Times-Italic /Times-BoldItalic /Helvetica /Helvetica-Oblique
 /Helvetica-Bold /Helvetica-BoldOblique /Courier /Courier-Oblique /Courier-Bold /Courier-BoldOblique /Times-Roman /AvantGarde-Book /AvantGarde-BookOblique /AvantGarde-Demi /AvantGarde-DemiOblique /Bookman-Demi /Bookman-DemiItalic /Bookman-Light
 /Bookman-LightItalic /Helvetica-Narrow /Helvetica-Narrow-Bold /Helvetica-Narrow-BoldOblique /Helvetica-Narrow-Oblique /NewCenturySchlbk-Roman /NewCenturySchlbk-Bold /NewCenturySchlbk-BoldItalic /NewCenturySchlbk-Italic /Palatino-Bold
 /Palatino-BoldItalic /Palatino-Italic /Palatino-Roman ] {ISOLatin1Encoding reEncode } forall
%%EndProlog
%%BeginSetup
%%EndSetup
newpath  gsave  .25 .25 scale  gsave  0 0 t black[  ] 0 sd 3 lw 1 1 1 c 2268 1538 0 0 bf black 1 1 1 c 2222 738 23 784 bf black 1 1 1 c 2222 739 23 15 bf black 1 1 1 c 2268 1077 0 461 bf black 1 1 1 c 1791 850 363 634 bf black 1791 850 363 634 bl 363
 634 m 1791 X s
 gsave  2268 1077 0 461 C 1642.14 498.507 t 0 r /Helvetica findfont 48.9324 sf 0 0 m (4l Invariant Mass \(GeV\)) show NC gr  363 659 m -25 Y s 400 646 m -12 Y s 437 646 m -12 Y s 475 646 m -12 Y s 512 646 m -12 Y s 549 659 m -25 Y s 587 646 m -12 Y s
 624 646 m -12 Y s 661 646 m -12 Y s 699 646 m -12 Y s 736 659 m -25 Y s 773 646 m -12 Y s 811 646 m -12 Y s 848 646 m -12 Y s 885 646 m -12 Y s 923 659 m -25 Y s 960 646 m -12 Y s 997 646 m -12 Y s 1035 646 m -12 Y s 1072 646 m -12 Y s 1109 659 m
 -25 Y s 1147 646 m -12 Y s 1184 646 m -12 Y s 1221 646 m -12 Y s 1259 646 m -12 Y s 1296 659 m -25 Y s 1333 646 m -12 Y s 1371 646 m -12 Y s 1408 646 m -12 Y s 1445 646 m -12 Y s 1483 659 m -25 Y s 1520 646 m -12 Y s 1557 646 m -12 Y s 1594 646 m
 -12 Y s 1632 646 m -12 Y s 1669 659 m -25 Y s 1706 646 m -12 Y s 1744 646 m -12 Y s 1781 646 m -12 Y s 1818 646 m -12 Y s 1856 659 m -25 Y s 1893 646 m -12 Y s 1930 646 m -12 Y s 1968 646 m -12 Y s 2005 646 m -12 Y s 2042 659 m -25 Y s 2042 659 m
 -25 Y s 2080 646 m -12 Y s 2117 646 m -12 Y s 2154 646 m -12 Y s
 gsave  2268 1077 0 461 C 319.305 586.478 t 0 r /Helvetica findfont 48.9324 sf 0 0 m (265) show NC gr 
 gsave  2268 1077 0 461 C 505.023 586.478 t 0 r /Helvetica findfont 48.9324 sf 0 0 m (270) show NC gr 
 gsave  2268 1077 0 461 C 690.741 586.478 t 0 r /Helvetica findfont 48.9324 sf 0 0 m (275) show NC gr 
 gsave  2268 1077 0 461 C 879.718 586.478 t 0 r /Helvetica findfont 48.9324 sf 0 0 m (280) show NC gr 
 gsave  2268 1077 0 461 C 1065.44 586.478 t 0 r /Helvetica findfont 48.9324 sf 0 0 m (285) show NC gr 
 gsave  2268 1077 0 461 C 1251.15 586.478 t 0 r /Helvetica findfont 48.9324 sf 0 0 m (290) show NC gr 
 gsave  2268 1077 0 461 C 1440.13 586.478 t 0 r /Helvetica findfont 48.9324 sf 0 0 m (295) show NC gr 
 gsave  2268 1077 0 461 C 1625.85 586.478 t 0 r /Helvetica findfont 48.9324 sf 0 0 m (300) show NC gr 
 gsave  2268 1077 0 461 C 1811.57 586.478 t 0 r /Helvetica findfont 48.9324 sf 0 0 m (305) show NC gr 
 gsave  2268 1077 0 461 C 1997.28 586.478 t 0 r /Helvetica findfont 48.9324 sf 0 0 m (310) show NC gr  363 1484 m 1791 X s 363 1459 m 25 Y s 400 1471 m 13 Y s 437 1471 m 13 Y s 475 1471 m 13 Y s 512 1471 m 13 Y s 549 1459 m 25 Y s 587 1471 m 13 Y s
 624 1471 m 13 Y s 661 1471 m 13 Y s 699 1471 m 13 Y s 736 1459 m 25 Y s 773 1471 m 13 Y s 811 1471 m 13 Y s 848 1471 m 13 Y s 885 1471 m 13 Y s 923 1459 m 25 Y s 960 1471 m 13 Y s 997 1471 m 13 Y s 1035 1471 m 13 Y s 1072 1471 m 13 Y s 1109 1459 m
 25 Y s 1147 1471 m 13 Y s 1184 1471 m 13 Y s 1221 1471 m 13 Y s 1259 1471 m 13 Y s 1296 1459 m 25 Y s 1333 1471 m 13 Y s 1371 1471 m 13 Y s 1408 1471 m 13 Y s 1445 1471 m 13 Y s 1483 1459 m 25 Y s 1520 1471 m 13 Y s 1557 1471 m 13 Y s 1594 1471 m 13
 Y s 1632 1471 m 13 Y s 1669 1459 m 25 Y s 1706 1471 m 13 Y s 1744 1471 m 13 Y s 1781 1471 m 13 Y s 1818 1471 m 13 Y s 1856 1459 m 25 Y s 1893 1471 m 13 Y s 1930 1471 m 13 Y s 1968 1471 m 13 Y s 2005 1471 m 13 Y s 2042 1459 m 25 Y s 2042 1459 m 25 Y
 s 2080 1471 m 13 Y s 2117 1471 m 13 Y s 2154 1471 m 13 Y s 363 634 m 850 Y s
 gsave  2268 1077 0 461 C 120.554 1032.85 t 90 r /Helvetica findfont 48.9324 sf 0 0 m (Events / \( 0.96 GeV \)) show NC gr  390 692 m -27 X s 390 746 m -27 X s 390 784 m -27 X s 390 814 m -27 X s 390 838 m -27 X s 390 859 m -27 X s 390 876 m -27 X s
 390 892 m -27 X s 417 906 m -54 X s
 gsave  2268 1077 0 461 C 342.425 885.09 t 0 r  -55 0 t /Helvetica findfont 48.9324 sf 0 0 m (10) show NC gr  390 998 m -27 X s 390 1052 m -27 X s 390 1090 m -27 X s 390 1120 m -27 X s 390 1144 m -27 X s 390 1165 m -27 X s 390 1182 m -27 X s 390 1198
 m -27 X s 417 1212 m -54 X s
 gsave  2268 1077 0 461 C 322.563 1212.06 t 0 r /Helvetica findfont 32.6216 sf 0 0 m (2) show NC gr 
 gsave  2268 1077 0 461 C 270.432 1192.51 t 0 r /Helvetica findfont 48.9324 sf 0 0 m (10) show NC gr  390 1304 m -27 X s 390 1358 m -27 X s 390 1396 m -27 X s 390 1426 m -27 X s 390 1450 m -27 X s 390 1471 m -27 X s 2154 634 m 850 Y s 2127 692 m 27 X
 s 2127 746 m 27 X s 2127 784 m 27 X s 2127 814 m 27 X s 2127 838 m 27 X s 2127 859 m 27 X s 2127 876 m 27 X s 2127 892 m 27 X s 2101 906 m 53 X s 2127 998 m 27 X s 2127 1052 m 27 X s 2127 1090 m 27 X s 2127 1120 m 27 X s 2127 1144 m 27 X s 2127 1165
 m 27 X s 2127 1182 m 27 X s 2127 1198 m 27 X s 2101 1212 m 53 X s 2127 1304 m 27 X s 2127 1358 m 27 X s 2127 1396 m 27 X s 2127 1426 m 27 X s 2127 1450 m 27 X s 2127 1471 m 27 X s 381 784 m -18 X s 363 784 m cl s 381 784 m 18 X s 399 784 m cl s 381
 784 m 78 Y s 381 862 m cl s 381 784 m -86 Y s 381 698 m cl s 417 814 m -18 X s 399 814 m cl s 417 814 m 17 X s 434 814 m cl s 417 814 m 68 Y s 417 882 m cl s 417 814 m -75 Y s 417 739 m cl s 452 814 m -18 X s 434 814 m cl s 452 814 m 18 X s 470 814
 m cl s 452 814 m 68 Y s 452 882 m cl s 452 814 m -75 Y s 452 739 m cl s 488 692 m -18 X s 470 692 m cl s 488 692 m 18 X s 506 692 m cl s 488 692 m 112 Y s 488 804 m cl s 488 692 m -58 Y s 488 634 m cl s 524 814 m -18 X s 506 814 m cl s 524 814 m 18
 X s 542 814 m cl s 524 814 m 68 Y s 524 882 m cl s 524 814 m -75 Y s 524 739 m cl s 560 814 m -18 X s 542 814 m cl s 560 814 m 18 X s 578 814 m cl s 560 814 m 68 Y s 560 882 m cl s 560 814 m -75 Y s 560 739 m cl s 596 838 m -18 X s 578 838 m cl s
 596 838 m 18 X s 614 838 m cl s 596 838 m 62 Y s 596 900 m cl s 596 838 m -67 Y s 596 771 m cl s 632 838 m -18 X s 614 838 m cl s 632 838 m 17 X s 649 838 m cl s 632 838 m 62 Y s 632 900 m cl s 632 838 m -67 Y s 632 771 m cl s 667 814 m -18 X s 649
 814 m cl s 667 814 m 18 X s 685 814 m cl s 667 814 m 68 Y s 667 882 m cl s 667 814 m -75 Y s 667 739 m cl s 703 838 m -18 X s 685 838 m cl s 703 838 m 18 X s 721 838 m cl s 703 838 m 62 Y s 703 900 m cl s 703 838 m -67 Y s 703 771 m cl s 739 859 m
 -18 X s 721 859 m cl s 739 859 m 18 X s 757 859 m cl s 739 859 m 57 Y s 739 916 m cl s 739 859 m -62 Y s 739 797 m cl s 775 746 m -18 X s 757 746 m cl s 775 746 m 18 X s 793 746 m cl s 775 746 m 90 Y s 775 836 m cl s 775 746 m -105 Y s 775 641 m cl
 s 811 859 m -18 X s 793 859 m cl s 811 859 m 18 X s 829 859 m cl s 811 859 m 57 Y s 811 916 m cl s 811 859 m -62 Y s 811 797 m cl s 847 859 m -18 X s 829 859 m cl s 847 859 m 17 X s 864 859 m cl s 847 859 m 57 Y s 847 916 m cl s 847 859 m -62 Y s
 847 797 m cl s 882 930 m -18 X s 864 930 m cl s 882 930 m 18 X s 900 930 m cl s 882 930 m 43 Y s 882 973 m cl s 882 930 m -44 Y s 882 886 m cl s 918 838 m -18 X s 900 838 m cl s 918 838 m 18 X s 936 838 m cl s 918 838 m 62 Y s 918 900 m cl s 918 838
 m -67 Y s 918 771 m cl s 954 906 m -18 X s 936 906 m cl s 954 906 m 18 X s 972 906 m cl s 954 906 m 47 Y s 954 953 m cl s 954 906 m -50 Y s 954 856 m cl s 990 976 m -18 X s 972 976 m cl s 990 976 m 18 X s 1008 976 m cl s 990 976 m 36 Y s 990 1012 m
 cl s 990 976 m -36 Y s 990 940 m cl s 1026 941 m -18 X s 1008 941 m cl s 1026 941 m 18 X s 1044 941 m cl s 1026 941 m 41 Y s 1026 982 m cl s 1026 941 m -43 Y s 1026 898 m cl s 1062 1069 m -18 X s 1044 1069 m cl s 1062 1069 m 17 X s 1079 1069 m cl s
 1062 1069 m 24 Y s 1062 1093 m cl s 1062 1069 m -25 Y s 1062 1044 m cl s 1097 1011 m -18 X s 1079 1011 m cl s 1097 1011 m 18 X s 1115 1011 m cl s 1097 1011 m 31 Y s 1097 1042 m cl s 1097 1011 m -32 Y s 1097 979 m cl s 1133 1017 m -18 X s 1115 1017 m
 cl s 1133 1017 m 18 X s 1151 1017 m cl s 1133 1017 m 30 Y s 1133 1047 m cl s 1133 1017 m -31 Y s 1133 986 m cl s 1169 1056 m -18 X s 1151 1056 m cl s 1169 1056 m 18 X s 1187 1056 m cl s 1169 1056 m 26 Y s 1169 1082 m cl s 1169 1056 m -26 Y s 1169
 1030 m cl s 1205 1097 m -18 X s 1187 1097 m cl s 1205 1097 m 18 X s 1223 1097 m cl s 1205 1097 m 22 Y s 1205 1119 m cl s 1205 1097 m -22 Y s 1205 1075 m cl s 1241 1087 m -18 X s 1223 1087 m cl s 1241 1087 m 18 X s 1259 1087 m cl s 1241 1087 m 23 Y s
 1241 1110 m cl s 1241 1087 m -23 Y s 1241 1064 m cl s 1276 1167 m -17 X s 1259 1167 m cl s 1276 1167 m 18 X s 1294 1167 m cl s 1276 1167 m 16 Y s 1276 1183 m cl s 1276 1167 m -17 Y s 1276 1150 m cl s 1312 1182 m -18 X s 1294 1182 m cl s 1312 1182 m
 18 X s 1330 1182 m cl s 1312 1182 m 16 Y s 1312 1198 m cl s 1312 1182 m -15 Y s 1312 1167 m cl s 1348 1226 m -18 X s 1330 1226 m cl s 1348 1226 m 18 X s 1366 1226 m cl s 1348 1226 m 13 Y s 1348 1239 m cl s 1348 1226 m -13 Y s 1348 1213 m cl s 1384
 1252 m -18 X s 1366 1252 m cl s 1384 1252 m 18 X s 1402 1252 m cl s 1384 1252 m 11 Y s 1384 1263 m cl s 1384 1252 m -11 Y s 1384 1241 m cl s 1420 1263 m -18 X s 1402 1263 m cl s 1420 1263 m 18 X s 1438 1263 m cl s 1420 1263 m 11 Y s 1420 1274 m cl s
 1420 1263 m -11 Y s 1420 1252 m cl s 1456 1297 m -18 X s 1438 1297 m cl s 1456 1297 m 18 X s 1474 1297 m cl s 1456 1297 m 9 Y s 1456 1306 m cl s 1456 1297 m -10 Y s 1456 1287 m cl s 1491 1337 m -17 X s 1474 1337 m cl s 1491 1337 m 18 X s 1509 1337 m
 cl s 1491 1337 m 8 Y s 1491 1345 m cl s 1491 1337 m -8 Y s 1491 1329 m cl s 1527 1364 m -18 X s 1509 1364 m cl s 1527 1364 m 18 X s 1545 1364 m cl s 1527 1364 m 8 Y s 1527 1372 m cl s 1527 1364 m -7 Y s 1527 1357 m cl s 1563 1401 m -18 X s 1545 1401
 m cl s 1563 1401 m 18 X s 1581 1401 m cl s 1563 1401 m 6 Y s 1563 1407 m cl s 1563 1401 m -7 Y s 1563 1394 m cl s 1599 1418 m -18 X s 1581 1418 m cl s 1599 1418 m 18 X s 1617 1418 m cl s 1599 1418 m 6 Y s 1599 1424 m cl s 1599 1418 m -7 Y s 1599
 1411 m cl s 1635 1416 m -18 X s 1617 1416 m cl s 1635 1416 m 18 X s 1653 1416 m cl s 1635 1416 m 7 Y s 1635 1423 m cl s 1635 1416 m -6 Y s 1635 1410 m cl s 1671 1407 m -18 X s 1653 1407 m cl s 1671 1407 m 18 X s 1689 1407 m cl s 1671 1407 m 6 Y s
 1671 1413 m cl s 1671 1407 m -7 Y s 1671 1400 m cl s 1706 1389 m -17 X s 1689 1389 m cl s 1706 1389 m 18 X s 1724 1389 m cl s 1706 1389 m 7 Y s 1706 1396 m cl s 1706 1389 m -7 Y s 1706 1382 m cl s 1742 1361 m -18 X s 1724 1361 m cl s 1742 1361 m 18
 X s 1760 1361 m cl s 1742 1361 m 7 Y s 1742 1368 m cl s 1742 1361 m -8 Y s 1742 1353 m cl s 1778 1299 m -18 X s 1760 1299 m cl s 1778 1299 m 18 X s 1796 1299 m cl s 1778 1299 m 10 Y s 1778 1309 m cl s 1778 1299 m -9 Y s 1778 1290 m cl s 1814 1252 m
 -18 X s 1796 1252 m cl s 1814 1252 m 18 X s 1832 1252 m cl s 1814 1252 m 11 Y s 1814 1263 m cl s 1814 1252 m -11 Y s 1814 1241 m cl s 1850 1194 m -18 X s 1832 1194 m cl s 1850 1194 m 18 X s 1868 1194 m cl s 1850 1194 m 15 Y s 1850 1209 m cl s 1850
 1194 m -15 Y s 1850 1179 m cl s 1886 1161 m -18 X s 1868 1161 m cl s 1886 1161 m 18 X s 1904 1161 m cl s 1886 1161 m 17 Y s 1886 1178 m cl s 1886 1161 m -17 Y s 1886 1144 m cl s 1921 1080 m -17 X s 1904 1080 m cl s 1921 1080 m 18 X s 1939 1080 m cl
 s 1921 1080 m 23 Y s 1921 1103 m cl s 1921 1080 m -24 Y s 1921 1056 m cl s 1957 1052 m -18 X s 1939 1052 m cl s 1957 1052 m 18 X s 1975 1052 m cl s 1957 1052 m 26 Y s 1957 1078 m cl s 1957 1052 m -27 Y s 1957 1025 m cl s 1993 991 m -18 X s 1975 991
 m cl s 1993 991 m 18 X s 2011 991 m cl s 1993 991 m 34 Y s 1993 1025 m cl s 1993 991 m -34 Y s 1993 957 m cl s 2029 876 m -18 X s 2011 876 m cl s 2029 876 m 18 X s 2047 876 m cl s 2029 876 m 54 Y s 2029 930 m cl s 2029 876 m -56 Y s 2029 820 m cl s
 2065 838 m -18 X s 2047 838 m cl s 2065 838 m 18 X s 2083 838 m cl s 2065 838 m 62 Y s 2065 900 m cl s 2065 838 m -67 Y s 2065 771 m cl s 2101 906 m -18 X s 2083 906 m cl s 2101 906 m 18 X s 2119 906 m cl s 2101 906 m 47 Y s 2101 953 m cl s 2101 906
 m -50 Y s 2101 856 m cl s 2136 892 m -17 X s 2119 892 m cl s 2136 892 m 18 X s 2154 892 m cl s 2136 892 m 50 Y s 2136 942 m cl s 2136 892 m -53 Y s 2136 839 m cl s /w 31 def /w2 {w 2 div} def /w3 {w 3 div} def 381 784 417 814 452 814 488 692 524 814
 560 814 596 838 632 838 667 814 703 838 739 859 775 746 811 859 847 859 882 930 918 838 954 906 990 976 1026 941 1062 1069 1097 1011 1133 1017 1169 1056 1205 1097 1241 1087 1276 1167 1312 1182 1348 1226 1384 1252 1420 1263 1456 1297 1491 1337 1527
 1364 1563 1401 1599 1418 1635 1416 1671 1407 1706 1389 1742 1361 1778 1299 1814 1252 1850 1194 1886 1161 1921 1080 1957 1052 1993 991 2029 876 2065 838 2101 906 2136 892 50 { m20} R 0 1 1 c 1 1 0 c black 1 1 0 c 363 787 m 36 7 d 35 7 d 36 7 d 36 8 d
 36 8 d 36 8 d 36 8 d 35 9 d 36 9 d 36 9 d 36 10 d 36 10 d 36 10 d 35 12 d 36 12 d 36 13 d 36 15 d 36 16 d 36 18 d 35 20 d 36 23 d 36 24 d 36 26 d 36 28 d 36 29 d 35 29 d 36 29 d 18 14 d 18 15 d 18 15 d 18 14 d 18 15 d 18 15 d 18 16 d 9 8 d 9 9 d 9 8
 d 8 9 d 9 10 d 9 9 d 36 36 d 9 7 d 9 7 d 9 5 d 9 5 d 9 4 d 9 3 d 9 3 d 9 1 d 9 1 d 9 X 9 -1 d 9 -2 d 9 -3 d 9 -4 d 9 -4 d 9 -5 d 8 -6 d 9 -7 d 18 -15 d 36 -40 d 18 -23 d 9 -12 d 9 -13 d 9 -13 d 9 -13 d 9 -14 d 9 -13 d 9 -14 d 9 -14 d 9 -13 d 9 -14 d
 18 -26 d 18 -26 d 17 -25 d 18 -24 d 18 -23 d 18 -23 d 36 -46 d 36 -48 d 36 -50 d 36 -55 d 35 -58 d -35 58 d -36 55 d -36 50 d -36 48 d -36 46 d -18 23 d -18 23 d -18 24 d -17 25 d -18 26 d -18 26 d -9 14 d -9 13 d -9 14 d -9 14 d -9 13 d -9 14 d -9
 13 d -9 13 d -9 13 d -9 12 d -18 23 d -36 40 d -18 15 d -9 7 d -8 6 d -9 5 d -9 4 d -9 4 d -9 3 d -9 2 d -9 1 d -9 X -9 -1 d -9 -1 d -9 -3 d -9 -3 d -9 -4 d -9 -5 d -9 -5 d -9 -7 d -9 -7 d -36 -36 d -9 -9 d -9 -10 d -8 -9 d -9 -8 d -9 -9 d -9 -8 d
 -18 -16 d -18 -15 d -18 -15 d -18 -14 d -18 -15 d -18 -15 d -18 -14 d -36 -29 d -35 -29 d -36 -29 d -36 -28 d -36 -26 d -36 -24 d -36 -23 d -35 -20 d -36 -18 d -36 -16 d -36 -15 d -36 -13 d -36 -12 d -35 -12 d -36 -10 d -36 -10 d -36 -10 d -36 -9 d
 -36 -9 d -35 -9 d -36 -8 d -36 -8 d -36 -8 d -36 -8 d -36 -7 d -35 -7 d -36 -7 d f 0 1 1 c 0 1 0 c black 0 1 0 c 363 787 m 36 7 d 35 7 d 36 7 d 36 8 d 36 8 d 36 8 d 36 8 d 35 9 d 36 9 d 36 9 d 36 10 d 36 10 d 36 10 d 35 12 d 36 12 d 36 13 d 36 15 d
 36 16 d 36 18 d 35 20 d 36 23 d 36 24 d 36 26 d 36 28 d 36 29 d 35 29 d 36 29 d 18 14 d 18 15 d 18 15 d 18 14 d 18 15 d 18 15 d 18 16 d 9 8 d 9 9 d 9 8 d 8 9 d 9 10 d 9 9 d 36 36 d 9 7 d 9 7 d 9 5 d 9 5 d 9 4 d 9 3 d 9 3 d 9 1 d 9 1 d 9 X 9 -1 d 9
 -2 d 9 -3 d 9 -4 d 9 -4 d 9 -5 d 8 -6 d 9 -7 d 18 -15 d 36 -40 d 18 -23 d 9 -12 d 9 -13 d 9 -13 d 9 -13 d 9 -14 d 9 -13 d 9 -14 d 9 -14 d 9 -13 d 9 -14 d 18 -26 d 18 -26 d 17 -25 d 18 -24 d 18 -23 d 18 -23 d 36 -46 d 36 -48 d 36 -50 d 36 -55 d 35
 -58 d -35 58 d -36 55 d -36 50 d -36 48 d -36 46 d -18 23 d -18 23 d -18 24 d -17 25 d -18 26 d -18 26 d -9 14 d -9 13 d -9 14 d -9 14 d -9 13 d -9 14 d -9 13 d -9 13 d -9 13 d -9 12 d -18 23 d -36 40 d -18 15 d -9 7 d -8 6 d -9 5 d -9 4 d -9 4 d -9
 3 d -9 2 d -9 1 d -9 X -9 -1 d -9 -1 d -9 -3 d -9 -3 d -9 -4 d -9 -5 d -9 -5 d -9 -7 d -9 -7 d -36 -36 d -9 -9 d -9 -10 d -8 -9 d -9 -8 d -9 -9 d -9 -8 d -18 -16 d -18 -15 d -18 -15 d -18 -14 d -18 -15 d -18 -15 d -18 -14 d -36 -29 d -35 -29 d -36
 -29 d -36 -28 d -36 -26 d -36 -24 d -36 -23 d -35 -20 d -36 -18 d -36 -16 d -36 -15 d -36 -13 d -36 -12 d -35 -12 d -36 -10 d -36 -10 d -36 -10 d -36 -9 d -36 -9 d -35 -9 d -36 -8 d -36 -8 d -36 -8 d -36 -8 d -36 -7 d -35 -7 d -36 -7 d f 0 0 1 c 9
 lw black 0 0 1 c 363 787 m 36 7 d 35 7 d 36 7 d 36 8 d 36 8 d 36 8 d 36 8 d 35 9 d 36 9 d 36 9 d 36 10 d 36 10 d 36 10 d 35 12 d 36 12 d 36 13 d 36 15 d 36 16 d 36 18 d 35 20 d 36 23 d 36 24 d 36 26 d 36 28 d 36 29 d 35 29 d 36 29 d 18 14 d 18 15 d
 18 15 d 18 14 d 18 15 d 18 15 d 18 16 d 9 8 d 9 9 d 9 8 d 8 9 d 9 10 d 9 9 d 36 36 d 9 7 d 9 7 d 9 5 d 9 5 d 9 4 d 9 3 d 9 3 d 9 1 d 9 1 d 9 X 9 -1 d 9 -2 d 9 -3 d 9 -4 d 9 -4 d 9 -5 d 8 -6 d 9 -7 d 18 -15 d 36 -40 d 18 -23 d 9 -12 d 9 -13 d 9 -13 d
 9 -13 d 9 -14 d 9 -13 d 9 -14 d 9 -14 d 9 -13 d 9 -14 d 18 -26 d 18 -26 d 17 -25 d 18 -24 d 18 -23 d 18 -23 d 36 -46 d 36 -48 d 36 -50 d 36 -55 d 35 -58 d s black 3 lw 381 784 m -18 X s 363 784 m cl s 381 784 m 18 X s 399 784 m cl s 381 784 m 78 Y s
 381 862 m cl s 381 784 m -86 Y s 381 698 m cl s 417 814 m -18 X s 399 814 m cl s 417 814 m 17 X s 434 814 m cl s 417 814 m 68 Y s 417 882 m cl s 417 814 m -75 Y s 417 739 m cl s 452 814 m -18 X s 434 814 m cl s 452 814 m 18 X s 470 814 m cl s 452
 814 m 68 Y s 452 882 m cl s 452 814 m -75 Y s 452 739 m cl s 488 692 m -18 X s 470 692 m cl s 488 692 m 18 X s 506 692 m cl s 488 692 m 112 Y s 488 804 m cl s 488 692 m -58 Y s 488 634 m cl s 524 814 m -18 X s 506 814 m cl s 524 814 m 18 X s 542 814
 m cl s 524 814 m 68 Y s 524 882 m cl s 524 814 m -75 Y s 524 739 m cl s 560 814 m -18 X s 542 814 m cl s 560 814 m 18 X s 578 814 m cl s 560 814 m 68 Y s 560 882 m cl s 560 814 m -75 Y s 560 739 m cl s 596 838 m -18 X s 578 838 m cl s 596 838 m 18 X
 s 614 838 m cl s 596 838 m 62 Y s 596 900 m cl s 596 838 m -67 Y s 596 771 m cl s 632 838 m -18 X s 614 838 m cl s 632 838 m 17 X s 649 838 m cl s 632 838 m 62 Y s 632 900 m cl s 632 838 m -67 Y s 632 771 m cl s 667 814 m -18 X s 649 814 m cl s 667
 814 m 18 X s 685 814 m cl s 667 814 m 68 Y s 667 882 m cl s 667 814 m -75 Y s 667 739 m cl s 703 838 m -18 X s 685 838 m cl s 703 838 m 18 X s 721 838 m cl s 703 838 m 62 Y s 703 900 m cl s 703 838 m -67 Y s 703 771 m cl s 739 859 m -18 X s 721 859
 m cl s 739 859 m 18 X s 757 859 m cl s 739 859 m 57 Y s 739 916 m cl s 739 859 m -62 Y s 739 797 m cl s 775 746 m -18 X s 757 746 m cl s 775 746 m 18 X s 793 746 m cl s 775 746 m 90 Y s 775 836 m cl s 775 746 m -105 Y s 775 641 m cl s 811 859 m -18
 X s 793 859 m cl s 811 859 m 18 X s 829 859 m cl s 811 859 m 57 Y s 811 916 m cl s 811 859 m -62 Y s 811 797 m cl s 847 859 m -18 X s 829 859 m cl s 847 859 m 17 X s 864 859 m cl s 847 859 m 57 Y s 847 916 m cl s 847 859 m -62 Y s 847 797 m cl s 882
 930 m -18 X s 864 930 m cl s 882 930 m 18 X s 900 930 m cl s 882 930 m 43 Y s 882 973 m cl s 882 930 m -44 Y s 882 886 m cl s 918 838 m -18 X s 900 838 m cl s 918 838 m 18 X s 936 838 m cl s 918 838 m 62 Y s 918 900 m cl s 918 838 m -67 Y s 918 771
 m cl s 954 906 m -18 X s 936 906 m cl s 954 906 m 18 X s 972 906 m cl s 954 906 m 47 Y s 954 953 m cl s 954 906 m -50 Y s 954 856 m cl s 990 976 m -18 X s 972 976 m cl s 990 976 m 18 X s 1008 976 m cl s 990 976 m 36 Y s 990 1012 m cl s 990 976 m -36
 Y s 990 940 m cl s 1026 941 m -18 X s 1008 941 m cl s 1026 941 m 18 X s 1044 941 m cl s 1026 941 m 41 Y s 1026 982 m cl s 1026 941 m -43 Y s 1026 898 m cl s 1062 1069 m -18 X s 1044 1069 m cl s 1062 1069 m 17 X s 1079 1069 m cl s 1062 1069 m 24 Y s
 1062 1093 m cl s 1062 1069 m -25 Y s 1062 1044 m cl s 1097 1011 m -18 X s 1079 1011 m cl s 1097 1011 m 18 X s 1115 1011 m cl s 1097 1011 m 31 Y s 1097 1042 m cl s 1097 1011 m -32 Y s 1097 979 m cl s 1133 1017 m -18 X s 1115 1017 m cl s 1133 1017 m
 18 X s 1151 1017 m cl s 1133 1017 m 30 Y s 1133 1047 m cl s 1133 1017 m -31 Y s 1133 986 m cl s 1169 1056 m -18 X s 1151 1056 m cl s 1169 1056 m 18 X s 1187 1056 m cl s 1169 1056 m 26 Y s 1169 1082 m cl s 1169 1056 m -26 Y s 1169 1030 m cl s 1205
 1097 m -18 X s 1187 1097 m cl s 1205 1097 m 18 X s 1223 1097 m cl s 1205 1097 m 22 Y s 1205 1119 m cl s 1205 1097 m -22 Y s 1205 1075 m cl s 1241 1087 m -18 X s 1223 1087 m cl s 1241 1087 m 18 X s 1259 1087 m cl s 1241 1087 m 23 Y s 1241 1110 m cl s
 1241 1087 m -23 Y s 1241 1064 m cl s 1276 1167 m -17 X s 1259 1167 m cl s 1276 1167 m 18 X s 1294 1167 m cl s 1276 1167 m 16 Y s 1276 1183 m cl s 1276 1167 m -17 Y s 1276 1150 m cl s 1312 1182 m -18 X s 1294 1182 m cl s 1312 1182 m 18 X s 1330 1182
 m cl s 1312 1182 m 16 Y s 1312 1198 m cl s 1312 1182 m -15 Y s 1312 1167 m cl s 1348 1226 m -18 X s 1330 1226 m cl s 1348 1226 m 18 X s 1366 1226 m cl s 1348 1226 m 13 Y s 1348 1239 m cl s 1348 1226 m -13 Y s 1348 1213 m cl s 1384 1252 m -18 X s
 1366 1252 m cl s 1384 1252 m 18 X s 1402 1252 m cl s 1384 1252 m 11 Y s 1384 1263 m cl s 1384 1252 m -11 Y s 1384 1241 m cl s 1420 1263 m -18 X s 1402 1263 m cl s 1420 1263 m 18 X s 1438 1263 m cl s 1420 1263 m 11 Y s 1420 1274 m cl s 1420 1263 m
 -11 Y s 1420 1252 m cl s 1456 1297 m -18 X s 1438 1297 m cl s 1456 1297 m 18 X s 1474 1297 m cl s 1456 1297 m 9 Y s 1456 1306 m cl s 1456 1297 m -10 Y s 1456 1287 m cl s 1491 1337 m -17 X s 1474 1337 m cl s 1491 1337 m 18 X s 1509 1337 m cl s 1491
 1337 m 8 Y s 1491 1345 m cl s 1491 1337 m -8 Y s 1491 1329 m cl s 1527 1364 m -18 X s 1509 1364 m cl s 1527 1364 m 18 X s 1545 1364 m cl s 1527 1364 m 8 Y s 1527 1372 m cl s 1527 1364 m -7 Y s 1527 1357 m cl s 1563 1401 m -18 X s 1545 1401 m cl s
 1563 1401 m 18 X s 1581 1401 m cl s 1563 1401 m 6 Y s 1563 1407 m cl s 1563 1401 m -7 Y s 1563 1394 m cl s 1599 1418 m -18 X s 1581 1418 m cl s 1599 1418 m 18 X s 1617 1418 m cl s 1599 1418 m 6 Y s 1599 1424 m cl s 1599 1418 m -7 Y s 1599 1411 m cl
 s 1635 1416 m -18 X s 1617 1416 m cl s 1635 1416 m 18 X s 1653 1416 m cl s 1635 1416 m 7 Y s 1635 1423 m cl s 1635 1416 m -6 Y s 1635 1410 m cl s 1671 1407 m -18 X s 1653 1407 m cl s 1671 1407 m 18 X s 1689 1407 m cl s 1671 1407 m 6 Y s 1671 1413 m
 cl s 1671 1407 m -7 Y s 1671 1400 m cl s 1706 1389 m -17 X s 1689 1389 m cl s 1706 1389 m 18 X s 1724 1389 m cl s 1706 1389 m 7 Y s 1706 1396 m cl s 1706 1389 m -7 Y s 1706 1382 m cl s 1742 1361 m -18 X s 1724 1361 m cl s 1742 1361 m 18 X s 1760
 1361 m cl s 1742 1361 m 7 Y s 1742 1368 m cl s 1742 1361 m -8 Y s 1742 1353 m cl s 1778 1299 m -18 X s 1760 1299 m cl s 1778 1299 m 18 X s 1796 1299 m cl s 1778 1299 m 10 Y s 1778 1309 m cl s 1778 1299 m -9 Y s 1778 1290 m cl s 1814 1252 m -18 X s
 1796 1252 m cl s 1814 1252 m 18 X s 1832 1252 m cl s 1814 1252 m 11 Y s 1814 1263 m cl s 1814 1252 m -11 Y s 1814 1241 m cl s 1850 1194 m -18 X s 1832 1194 m cl s 1850 1194 m 18 X s 1868 1194 m cl s 1850 1194 m 15 Y s 1850 1209 m cl s 1850 1194 m
 -15 Y s 1850 1179 m cl s 1886 1161 m -18 X s 1868 1161 m cl s 1886 1161 m 18 X s 1904 1161 m cl s 1886 1161 m 17 Y s 1886 1178 m cl s 1886 1161 m -17 Y s 1886 1144 m cl s 1921 1080 m -17 X s 1904 1080 m cl s 1921 1080 m 18 X s 1939 1080 m cl s 1921
 1080 m 23 Y s 1921 1103 m cl s 1921 1080 m -24 Y s 1921 1056 m cl s 1957 1052 m -18 X s 1939 1052 m cl s 1957 1052 m 18 X s 1975 1052 m cl s 1957 1052 m 26 Y s 1957 1078 m cl s 1957 1052 m -27 Y s 1957 1025 m cl s 1993 991 m -18 X s 1975 991 m cl s
 1993 991 m 18 X s 2011 991 m cl s 1993 991 m 34 Y s 1993 1025 m cl s 1993 991 m -34 Y s 1993 957 m cl s 2029 876 m -18 X s 2011 876 m cl s 2029 876 m 18 X s 2047 876 m cl s 2029 876 m 54 Y s 2029 930 m cl s 2029 876 m -56 Y s 2029 820 m cl s 2065
 838 m -18 X s 2047 838 m cl s 2065 838 m 18 X s 2083 838 m cl s 2065 838 m 62 Y s 2065 900 m cl s 2065 838 m -67 Y s 2065 771 m cl s 2101 906 m -18 X s 2083 906 m cl s 2101 906 m 18 X s 2119 906 m cl s 2101 906 m 47 Y s 2101 953 m cl s 2101 906 m
 -50 Y s 2101 856 m cl s 2136 892 m -17 X s 2119 892 m cl s 2136 892 m 18 X s 2154 892 m cl s 2136 892 m 50 Y s 2136 942 m cl s 2136 892 m -53 Y s 2136 839 m cl s 381 784 417 814 452 814 488 692 524 814 560 814 596 838 632 838 667 814 703 838 739 859
 775 746 811 859 847 859 882 930 918 838 954 906 990 976 1026 941 1062 1069 1097 1011 1133 1017 1169 1056 1205 1097 1241 1087 1276 1167 1312 1182 1348 1226 1384 1252 1420 1263 1456 1297 1491 1337 1527 1364 1563 1401 1599 1418 1635 1416 1671 1407 1706
 1389 1742 1361 1778 1299 1814 1252 1850 1194 1886 1161 1921 1080 1957 1052 1993 991 2029 876 2065 838 2101 906 2136 892 50 { m20} R 0.52 0.76 0.64 c[ 4 8] 0 sd 9 lw black 0.52 0.76 0.64 c 363 787 m 36 7 d 35 7 d 36 7 d 36 8 d 36 8 d 36 8 d 36 8 d 35
 9 d 36 9 d 36 9 d 36 9 d 36 10 d 36 11 d 35 11 d 36 11 d 36 12 d 36 12 d 36 13 d 36 14 d 35 14 d 36 16 d 36 16 d 36 18 d 36 19 d 36 20 d 35 23 d 36 24 d 18 13 d 18 14 d 18 15 d 18 15 d 18 17 d 18 18 d 9 9 d 9 10 d 9 10 d 9 11 d 9 11 d 8 11 d 9 12 d
 9 13 d 36 45 d 9 9 d 9 8 d 9 7 d 9 6 d 9 4 d 9 4 d 9 3 d 9 2 d 9 1 d 9 -1 d 9 -1 d 9 -2 d 9 -3 d 9 -5 d 9 -5 d 9 -6 d 8 -7 d 9 -8 d 18 -20 d 18 -23 d 18 -28 d 9 -15 d 9 -16 d 9 -18 d 9 -18 d 9 -19 d 9 -20 d 9 -22 d 9 -22 d 9 -23 d 9 -24 d 9 -26 d 9
 -26 d 9 -27 d 9 -29 d 18 -59 d 17 -64 d 18 -67 d 36 -148 d 1 -2 d s 0.54 0.66 0.63 c black 0.54 0.66 0.63 c 1026 634 m 18 34 d s 1044 668 m 35 65 d 36 61 d 36 57 d 18 27 d 18 25 d 18 25 d 18 24 d 18 23 d 18 21 d 17 21 d 18 20 d 18 18 d 18 18 d 18 17
 d 18 15 d 36 28 d 36 24 d 36 20 d 17 8 d 18 8 d 18 6 d 18 5 d 18 5 d 18 3 d 18 2 d 18 1 d 18 X 18 -1 d 18 -1 d 18 -3 d 17 -4 d 18 -5 d 18 -6 d 18 -7 d 18 -8 d 18 -10 d 36 -21 d 36 -25 d 18 -14 d 18 -16 d 17 -16 d 18 -17 d 18 -19 d 18 -19 d 18 -20 d
 18 -22 d 18 -22 d 18 -24 d 18 -24 d 18 -26 d 18 -26 d 18 -28 d 35 -58 d s black[  ] 0 sd 3 lw 363 634 m 1791 X s 363 659 m -25 Y s 400 646 m -12 Y s 437 646 m -12 Y s 475 646 m -12 Y s 512 646 m -12 Y s 549 659 m -25 Y s 587 646 m -12 Y s 624 646 m
 -12 Y s 661 646 m -12 Y s 699 646 m -12 Y s 736 659 m -25 Y s 773 646 m -12 Y s 811 646 m -12 Y s 848 646 m -12 Y s 885 646 m -12 Y s 923 659 m -25 Y s 960 646 m -12 Y s 997 646 m -12 Y s 1035 646 m -12 Y s 1072 646 m -12 Y s 1109 659 m -25 Y s 1147
 646 m -12 Y s 1184 646 m -12 Y s 1221 646 m -12 Y s 1259 646 m -12 Y s 1296 659 m -25 Y s 1333 646 m -12 Y s 1371 646 m -12 Y s 1408 646 m -12 Y s 1445 646 m -12 Y s 1483 659 m -25 Y s 1520 646 m -12 Y s 1557 646 m -12 Y s 1594 646 m -12 Y s 1632
 646 m -12 Y s 1669 659 m -25 Y s 1706 646 m -12 Y s 1744 646 m -12 Y s 1781 646 m -12 Y s 1818 646 m -12 Y s 1856 659 m -25 Y s 1893 646 m -12 Y s 1930 646 m -12 Y s 1968 646 m -12 Y s 2005 646 m -12 Y s 2042 659 m -25 Y s 2042 659 m -25 Y s 2080
 646 m -12 Y s 2117 646 m -12 Y s 2154 646 m -12 Y s 363 1484 m 1791 X s 363 1459 m 25 Y s 400 1471 m 13 Y s 437 1471 m 13 Y s 475 1471 m 13 Y s 512 1471 m 13 Y s 549 1459 m 25 Y s 587 1471 m 13 Y s 624 1471 m 13 Y s 661 1471 m 13 Y s 699 1471 m 13 Y
 s 736 1459 m 25 Y s 773 1471 m 13 Y s 811 1471 m 13 Y s 848 1471 m 13 Y s 885 1471 m 13 Y s 923 1459 m 25 Y s 960 1471 m 13 Y s 997 1471 m 13 Y s 1035 1471 m 13 Y s 1072 1471 m 13 Y s 1109 1459 m 25 Y s 1147 1471 m 13 Y s 1184 1471 m 13 Y s 1221
 1471 m 13 Y s 1259 1471 m 13 Y s 1296 1459 m 25 Y s 1333 1471 m 13 Y s 1371 1471 m 13 Y s 1408 1471 m 13 Y s 1445 1471 m 13 Y s 1483 1459 m 25 Y s 1520 1471 m 13 Y s 1557 1471 m 13 Y s 1594 1471 m 13 Y s 1632 1471 m 13 Y s 1669 1459 m 25 Y s 1706
 1471 m 13 Y s 1744 1471 m 13 Y s 1781 1471 m 13 Y s 1818 1471 m 13 Y s 1856 1459 m 25 Y s 1893 1471 m 13 Y s 1930 1471 m 13 Y s 1968 1471 m 13 Y s 2005 1471 m 13 Y s 2042 1459 m 25 Y s 2042 1459 m 25 Y s 2080 1471 m 13 Y s 2117 1471 m 13 Y s 2154
 1471 m 13 Y s 363 634 m 850 Y s 390 692 m -27 X s 390 746 m -27 X s 390 784 m -27 X s 390 814 m -27 X s 390 838 m -27 X s 390 859 m -27 X s 390 876 m -27 X s 390 892 m -27 X s 417 906 m -54 X s 390 998 m -27 X s 390 1052 m -27 X s 390 1090 m -27 X s
 390 1120 m -27 X s 390 1144 m -27 X s 390 1165 m -27 X s 390 1182 m -27 X s 390 1198 m -27 X s 417 1212 m -54 X s 390 1304 m -27 X s 390 1358 m -27 X s 390 1396 m -27 X s 390 1426 m -27 X s 390 1450 m -27 X s 390 1471 m -27 X s 2154 634 m 850 Y s
 2127 692 m 27 X s 2127 746 m 27 X s 2127 784 m 27 X s 2127 814 m 27 X s 2127 838 m 27 X s 2127 859 m 27 X s 2127 876 m 27 X s 2127 892 m 27 X s 2101 906 m 53 X s 2127 998 m 27 X s 2127 1052 m 27 X s 2127 1090 m 27 X s 2127 1120 m 27 X s 2127 1144 m
 27 X s 2127 1165 m 27 X s 2127 1182 m 27 X s 2127 1198 m 27 X s 2101 1212 m 53 X s 2127 1304 m 27 X s 2127 1358 m 27 X s 2127 1396 m 27 X s 2127 1426 m 27 X s 2127 1450 m 27 X s 2127 1471 m 27 X s
 gsave  2268 1077 0 461 C 677.708 1215.31 t 0 r /Helvetica findfont 58.7189 sf 0 0 m (4e) show NC gr  1 1 1 c 453 161 454 1269 bf black
 gsave  2268 1077 0 461 C 566.929 1371.71 t 0 r /Helvetica-Bold findfont 48.9324 sf 0 0 m (MC15) show NC gr  510 1390 m20
 gsave  2268 1077 0 461 C 566.929 1293.51 t 0 r /Helvetica-Bold findfont 48.9324 sf 0 0 m (Projection of Signal pdf) show NC gr  0 0 1 c 9 lw 471 1309 m 79 X s black 3 lw 1 1 1 c 2268 461 0 0 bf black 1 1 1 c 1791 364 363 74 bf black 1791 364 363 74
 bl 363 74 m 1791 X s
 gsave  2268 461 0 0 C 1915.83 13.0329 t 0 r /Helvetica findfont 22.9045 sf 0 0 m (4l Invariant Mass \(GeV\)) show NC gr  363 85 m -11 Y s 400 79 m -5 Y s 437 79 m -5 Y s 475 79 m -5 Y s 512 79 m -5 Y s 549 85 m -11 Y s 587 79 m -5 Y s 624 79 m -5 Y
 s 661 79 m -5 Y s 699 79 m -5 Y s 736 85 m -11 Y s 773 79 m -5 Y s 811 79 m -5 Y s 848 79 m -5 Y s 885 79 m -5 Y s 923 85 m -11 Y s 960 79 m -5 Y s 997 79 m -5 Y s 1035 79 m -5 Y s 1072 79 m -5 Y s 1109 85 m -11 Y s 1147 79 m -5 Y s 1184 79 m -5 Y s
 1221 79 m -5 Y s 1259 79 m -5 Y s 1296 85 m -11 Y s 1333 79 m -5 Y s 1371 79 m -5 Y s 1408 79 m -5 Y s 1445 79 m -5 Y s 1483 85 m -11 Y s 1520 79 m -5 Y s 1557 79 m -5 Y s 1594 79 m -5 Y s 1632 79 m -5 Y s 1669 85 m -11 Y s 1706 79 m -5 Y s 1744 79
 m -5 Y s 1781 79 m -5 Y s 1818 79 m -5 Y s 1856 85 m -11 Y s 1893 79 m -5 Y s 1930 79 m -5 Y s 1968 79 m -5 Y s 2005 79 m -5 Y s 2042 85 m -11 Y s 2042 85 m -11 Y s 2080 79 m -5 Y s 2117 79 m -5 Y s 2154 79 m -5 Y s
 gsave  2268 461 0 0 C 342.112 55.3896 t 0 r /Helvetica findfont 22.9045 sf 0 0 m (265) show NC gr 
 gsave  2268 461 0 0 C 527.831 55.3896 t 0 r /Helvetica findfont 22.9045 sf 0 0 m (270) show NC gr 
 gsave  2268 461 0 0 C 713.549 55.3896 t 0 r /Helvetica findfont 22.9045 sf 0 0 m (275) show NC gr 
 gsave  2268 461 0 0 C 902.525 55.3896 t 0 r /Helvetica findfont 22.9045 sf 0 0 m (280) show NC gr 
 gsave  2268 461 0 0 C 1088.24 55.3896 t 0 r /Helvetica findfont 22.9045 sf 0 0 m (285) show NC gr 
 gsave  2268 461 0 0 C 1273.96 55.3896 t 0 r /Helvetica findfont 22.9045 sf 0 0 m (290) show NC gr 
 gsave  2268 461 0 0 C 1462.94 55.3896 t 0 r /Helvetica findfont 22.9045 sf 0 0 m (295) show NC gr 
 gsave  2268 461 0 0 C 1648.66 55.3896 t 0 r /Helvetica findfont 22.9045 sf 0 0 m (300) show NC gr 
 gsave  2268 461 0 0 C 1834.37 55.3896 t 0 r /Helvetica findfont 22.9045 sf 0 0 m (305) show NC gr 
 gsave  2268 461 0 0 C 2020.09 55.3896 t 0 r /Helvetica findfont 22.9045 sf 0 0 m (310) show NC gr  363 438 m 1791 X s 363 427 m 11 Y s 400 433 m 5 Y s 437 433 m 5 Y s 475 433 m 5 Y s 512 433 m 5 Y s 549 427 m 11 Y s 587 433 m 5 Y s 624 433 m 5 Y s
 661 433 m 5 Y s 699 433 m 5 Y s 736 427 m 11 Y s 773 433 m 5 Y s 811 433 m 5 Y s 848 433 m 5 Y s 885 433 m 5 Y s 923 427 m 11 Y s 960 433 m 5 Y s 997 433 m 5 Y s 1035 433 m 5 Y s 1072 433 m 5 Y s 1109 427 m 11 Y s 1147 433 m 5 Y s 1184 433 m 5 Y s
 1221 433 m 5 Y s 1259 433 m 5 Y s 1296 427 m 11 Y s 1333 433 m 5 Y s 1371 433 m 5 Y s 1408 433 m 5 Y s 1445 433 m 5 Y s 1483 427 m 11 Y s 1520 433 m 5 Y s 1557 433 m 5 Y s 1594 433 m 5 Y s 1632 433 m 5 Y s 1669 427 m 11 Y s 1706 433 m 5 Y s 1744 433
 m 5 Y s 1781 433 m 5 Y s 1818 433 m 5 Y s 1856 427 m 11 Y s 1893 433 m 5 Y s 1930 433 m 5 Y s 1968 433 m 5 Y s 2005 433 m 5 Y s 2042 427 m 11 Y s 2042 427 m 11 Y s 2080 433 m 5 Y s 2117 433 m 5 Y s 2154 433 m 5 Y s 363 74 m 364 Y s 417 74 m -54 X s
 390 81 m -27 X s 390 88 m -27 X s 390 96 m -27 X s 390 103 m -27 X s 417 110 m -54 X s 390 118 m -27 X s 390 125 m -27 X s 390 132 m -27 X s 390 139 m -27 X s 417 147 m -54 X s 390 154 m -27 X s 390 161 m -27 X s 390 169 m -27 X s 390 176 m -27 X s
 417 183 m -54 X s 390 190 m -27 X s 390 198 m -27 X s 390 205 m -27 X s 390 212 m -27 X s 417 220 m -54 X s 390 227 m -27 X s 390 234 m -27 X s 390 241 m -27 X s 390 249 m -27 X s 417 256 m -54 X s 390 263 m -27 X s 390 271 m -27 X s 390 278 m -27 X
 s 390 285 m -27 X s 417 293 m -54 X s 390 300 m -27 X s 390 307 m -27 X s 390 314 m -27 X s 390 322 m -27 X s 417 329 m -54 X s 390 336 m -27 X s 390 344 m -27 X s 390 351 m -27 X s 390 358 m -27 X s 417 365 m -54 X s 390 373 m -27 X s 390 380 m -27
 X s 390 387 m -27 X s 390 395 m -27 X s 417 402 m -54 X s 390 409 m -27 X s 390 416 m -27 X s 390 424 m -27 X s 390 431 m -27 X s 417 438 m -54 X s
 gsave  2268 461 0 0 C 329.08 65.1643 t 0 r /Helvetica findfont 22.9045 sf 0 0 m (\2555) show NC gr 
 gsave  2268 461 0 0 C 329.08 101.005 t 0 r /Helvetica findfont 22.9045 sf 0 0 m (\2554) show NC gr 
 gsave  2268 461 0 0 C 329.08 140.103 t 0 r /Helvetica findfont 22.9045 sf 0 0 m (\2553) show NC gr 
 gsave  2268 461 0 0 C 329.08 175.944 t 0 r /Helvetica findfont 22.9045 sf 0 0 m (\2552) show NC gr 
 gsave  2268 461 0 0 C 332.338 211.784 t 0 r /Helvetica findfont 22.9045 sf 0 0 m (\2551) show NC gr 
 gsave  2268 461 0 0 C 335.596 247.624 t 0 r /Helvetica findfont 22.9045 sf 0 0 m (0) show NC gr 
 gsave  2268 461 0 0 C 338.854 283.465 t 0 r /Helvetica findfont 22.9045 sf 0 0 m (1) show NC gr 
 gsave  2268 461 0 0 C 335.596 319.305 t 0 r /Helvetica findfont 22.9045 sf 0 0 m (2) show NC gr 
 gsave  2268 461 0 0 C 335.596 358.403 t 0 r /Helvetica findfont 22.9045 sf 0 0 m (3) show NC gr 
 gsave  2268 461 0 0 C 335.596 394.244 t 0 r /Helvetica findfont 22.9045 sf 0 0 m (4) show NC gr 
 gsave  2268 461 0 0 C 335.596 430.084 t 0 r /Helvetica findfont 22.9045 sf 0 0 m (5) show NC gr  2154 74 m 364 Y s 2101 74 m 53 X s 2127 81 m 27 X s 2127 88 m 27 X s 2127 96 m 27 X s 2127 103 m 27 X s 2101 110 m 53 X s 2127 118 m 27 X s 2127 125 m
 27 X s 2127 132 m 27 X s 2127 139 m 27 X s 2101 147 m 53 X s 2127 154 m 27 X s 2127 161 m 27 X s 2127 169 m 27 X s 2127 176 m 27 X s 2101 183 m 53 X s 2127 190 m 27 X s 2127 198 m 27 X s 2127 205 m 27 X s 2127 212 m 27 X s 2101 220 m 53 X s 2127 227
 m 27 X s 2127 234 m 27 X s 2127 241 m 27 X s 2127 249 m 27 X s 2101 256 m 53 X s 2127 263 m 27 X s 2127 271 m 27 X s 2127 278 m 27 X s 2127 285 m 27 X s 2101 293 m 53 X s 2127 300 m 27 X s 2127 307 m 27 X s 2127 314 m 27 X s 2127 322 m 27 X s 2101
 329 m 53 X s 2127 336 m 27 X s 2127 344 m 27 X s 2127 351 m 27 X s 2127 358 m 27 X s 2101 365 m 53 X s 2127 373 m 27 X s 2127 380 m 27 X s 2127 387 m 27 X s 2127 395 m 27 X s 2101 402 m 53 X s 2127 409 m 27 X s 2127 416 m 27 X s 2127 424 m 27 X s
 2127 431 m 27 X s 2101 438 m 53 X s 6 lw 0.2 0.8 0.2 c black 3 lw 0.2 0.8 0.2 c 363 256 m -2 Y 36 X 12 Y 35 X -4 Y 36 X -47 Y 36 X 39 Y 36 X -4 Y 36 X 8 Y 36 X -5 Y 35 X -16 Y 36 X 7 Y 36 X 5 Y 36 X -60 Y 36 X 48 Y 36 X -8 Y 35 X 41 Y 36 X -73 Y 36
 X 33 Y 36 X 47 Y 36 X -50 Y 36 X 121 Y 35 X -96 Y 36 X -21 Y 36 X 15 Y 36 X 20 Y 36 X -63 Y 36 X 93 Y 35 X -27 Y 36 X 45 Y 36 X -4 Y 36 X -57 Y 36 X 9 Y 36 X 28 Y 35 X -49 Y 36 X 32 Y 36 X -3 Y 36 X -33 Y 36 X -3 Y 36 X 27 Y 35 X 25 Y 36 X -70 Y 36
 X 19 Y 36 X -5 Y 36 X 48 Y 36 X -53 Y 35 X 30 Y 36 X -17 Y 36 X -49 Y 36 X 21 Y 36 X 80 Y 36 X 19 Y 35 X -53 Y f 6 lw black 0.2 0.8 0.2 c black 363 254 m 36 X 12 Y 35 X -4 Y 36 X -47 Y 36 X 39 Y 36 X -4 Y 36 X 8 Y 36 X -5 Y 35 X -16 Y 36 X 7 Y 36 X
 5 Y 36 X -60 Y 36 X 48 Y 36 X -8 Y 35 X 41 Y 36 X -73 Y 36 X 33 Y 36 X 47 Y 36 X -50 Y 36 X 121 Y 35 X -96 Y 36 X -21 Y 36 X 15 Y 36 X 20 Y 36 X -63 Y 36 X 93 Y 35 X -27 Y 36 X 45 Y 36 X -4 Y 36 X -57 Y 36 X 9 Y 36 X 28 Y 35 X -49 Y 36 X 32 Y 36 X
 -3 Y 36 X -33 Y 36 X -3 Y 36 X 27 Y 35 X 25 Y 36 X -70 Y 36 X 19 Y 36 X -5 Y 36 X 48 Y 36 X -53 Y 35 X 30 Y 36 X -17 Y 36 X -49 Y 36 X 21 Y 36 X 80 Y 36 X 19 Y 35 X s 3 lw 363 74 m 1791 X s 363 85 m -11 Y s 400 79 m -5 Y s 437 79 m -5 Y s 475 79 m
 -5 Y s 512 79 m -5 Y s 549 85 m -11 Y s 587 79 m -5 Y s 624 79 m -5 Y s 661 79 m -5 Y s 699 79 m -5 Y s 736 85 m -11 Y s 773 79 m -5 Y s 811 79 m -5 Y s 848 79 m -5 Y s 885 79 m -5 Y s 923 85 m -11 Y s 960 79 m -5 Y s 997 79 m -5 Y s 1035 79 m -5 Y
 s 1072 79 m -5 Y s 1109 85 m -11 Y s 1147 79 m -5 Y s 1184 79 m -5 Y s 1221 79 m -5 Y s 1259 79 m -5 Y s 1296 85 m -11 Y s 1333 79 m -5 Y s 1371 79 m -5 Y s 1408 79 m -5 Y s 1445 79 m -5 Y s 1483 85 m -11 Y s 1520 79 m -5 Y s 1557 79 m -5 Y s 1594
 79 m -5 Y s 1632 79 m -5 Y s 1669 85 m -11 Y s 1706 79 m -5 Y s 1744 79 m -5 Y s 1781 79 m -5 Y s 1818 79 m -5 Y s 1856 85 m -11 Y s 1893 79 m -5 Y s 1930 79 m -5 Y s 1968 79 m -5 Y s 2005 79 m -5 Y s 2042 85 m -11 Y s 2042 85 m -11 Y s 2080 79 m -5
 Y s 2117 79 m -5 Y s 2154 79 m -5 Y s 363 438 m 1791 X s 363 427 m 11 Y s 400 433 m 5 Y s 437 433 m 5 Y s 475 433 m 5 Y s 512 433 m 5 Y s 549 427 m 11 Y s 587 433 m 5 Y s 624 433 m 5 Y s 661 433 m 5 Y s 699 433 m 5 Y s 736 427 m 11 Y s 773 433 m 5 Y
 s 811 433 m 5 Y s 848 433 m 5 Y s 885 433 m 5 Y s 923 427 m 11 Y s 960 433 m 5 Y s 997 433 m 5 Y s 1035 433 m 5 Y s 1072 433 m 5 Y s 1109 427 m 11 Y s 1147 433 m 5 Y s 1184 433 m 5 Y s 1221 433 m 5 Y s 1259 433 m 5 Y s 1296 427 m 11 Y s 1333 433 m 5
 Y s 1371 433 m 5 Y s 1408 433 m 5 Y s 1445 433 m 5 Y s 1483 427 m 11 Y s 1520 433 m 5 Y s 1557 433 m 5 Y s 1594 433 m 5 Y s 1632 433 m 5 Y s 1669 427 m 11 Y s 1706 433 m 5 Y s 1744 433 m 5 Y s 1781 433 m 5 Y s 1818 433 m 5 Y s 1856 427 m 11 Y s 1893
 433 m 5 Y s 1930 433 m 5 Y s 1968 433 m 5 Y s 2005 433 m 5 Y s 2042 427 m 11 Y s 2042 427 m 11 Y s 2080 433 m 5 Y s 2117 433 m 5 Y s 2154 433 m 5 Y s 363 74 m 364 Y s 417 74 m -54 X s 390 81 m -27 X s 390 88 m -27 X s 390 96 m -27 X s 390 103 m -27
 X s 417 110 m -54 X s 390 118 m -27 X s 390 125 m -27 X s 390 132 m -27 X s 390 139 m -27 X s 417 147 m -54 X s 390 154 m -27 X s 390 161 m -27 X s 390 169 m -27 X s 390 176 m -27 X s 417 183 m -54 X s 390 190 m -27 X s 390 198 m -27 X s 390 205 m
 -27 X s 390 212 m -27 X s 417 220 m -54 X s 390 227 m -27 X s 390 234 m -27 X s 390 241 m -27 X s 390 249 m -27 X s 417 256 m -54 X s 390 263 m -27 X s 390 271 m -27 X s 390 278 m -27 X s 390 285 m -27 X s 417 293 m -54 X s 390 300 m -27 X s 390 307
 m -27 X s 390 314 m -27 X s 390 322 m -27 X s 417 329 m -54 X s 390 336 m -27 X s 390 344 m -27 X s 390 351 m -27 X s 390 358 m -27 X s 417 365 m -54 X s 390 373 m -27 X s 390 380 m -27 X s 390 387 m -27 X s 390 395 m -27 X s 417 402 m -54 X s 390
 409 m -27 X s 390 416 m -27 X s 390 424 m -27 X s 390 431 m -27 X s 417 438 m -54 X s 2154 74 m 364 Y s 2101 74 m 53 X s 2127 81 m 27 X s 2127 88 m 27 X s 2127 96 m 27 X s 2127 103 m 27 X s 2101 110 m 53 X s 2127 118 m 27 X s 2127 125 m 27 X s 2127
 132 m 27 X s 2127 139 m 27 X s 2101 147 m 53 X s 2127 154 m 27 X s 2127 161 m 27 X s 2127 169 m 27 X s 2127 176 m 27 X s 2101 183 m 53 X s 2127 190 m 27 X s 2127 198 m 27 X s 2127 205 m 27 X s 2127 212 m 27 X s 2101 220 m 53 X s 2127 227 m 27 X s
 2127 234 m 27 X s 2127 241 m 27 X s 2127 249 m 27 X s 2101 256 m 53 X s 2127 263 m 27 X s 2127 271 m 27 X s 2127 278 m 27 X s 2127 285 m 27 X s 2101 293 m 53 X s 2127 300 m 27 X s 2127 307 m 27 X s 2127 314 m 27 X s 2127 322 m 27 X s 2101 329 m 53 X
 s 2127 336 m 27 X s 2127 344 m 27 X s 2127 351 m 27 X s 2127 358 m 27 X s 2101 365 m 53 X s 2127 373 m 27 X s 2127 380 m 27 X s 2127 387 m 27 X s 2127 395 m 27 X s 2101 402 m 53 X s 2127 409 m 27 X s 2127 416 m 27 X s 2127 424 m 27 X s 2127 431 m 27
 X s 2101 438 m 53 X s
 gr  gr showpage
end
%%EOF
