%!PS-Adobe-2.0 EPSF-2.0
%%BoundingBox:  0 0 567 384
%%Title: H4l2015_plotfit/gg_mass_signal_1000_fixed_H4l_4e.eps: 
%%Creator: ROOT Version 5.34/10
%%CreationDate: Thu Feb 16 13:48:34 2017
%%EndComments
%%BeginProlog
80 dict begin
/s {stroke} def /l {lineto} def /m {moveto} def /t {translate} def
/r {rotate} def /rl {roll}  def /R {repeat} def
/d {rlineto} def /rm {rmoveto} def /gr {grestore} def /f {eofill} def
/c {setrgbcolor} def /black {0 setgray} def /sd {setdash} def
/cl {closepath} def /sf {scalefont setfont} def /lw {setlinewidth} def
/box {m dup 0 exch d exch 0 d 0 exch neg d cl} def
/NC{systemdict begin initclip end}def/C{NC box clip newpath}def
/bl {box s} def /bf {box f} def /Y { 0 exch d} def /X { 0 d} def 
/K {{pop pop 0 moveto} exch kshow} bind def
/ita {/ang 15 def gsave [1 0 ang dup sin exch cos div 1 0 0] concat} def 
/mp {newpath /y exch def /x exch def} def
/side {[w .77 mul w .23 mul] .385 w mul sd w 0 l currentpoint t -144 r} def
/mr {mp x y w2 0 360 arc} def /m24 {mr s} def /m20 {mr f} def
/mb {mp x y w2 add m w2 neg 0 d 0 w neg d w 0 d 0 w d cl} def
/mt {mp x y w2 add m w2 neg w neg d w 0 d cl} def
/m21 {mb f} def /m25 {mb s} def /m22 {mt f} def /m26{mt s} def
/m23 {mp x y w2 sub m w2 w d w neg 0 d cl f} def
/m27 {mp x y w2 add m w3 neg w2 neg d w3 w2 neg d w3 w2 d cl s} def
/m28 {mp x w2 sub y w2 sub w3 add m w3 0 d  0 w3 neg d w3 0 d 0 w3 d w3 0 d  0 w3 d w3 neg 0 d 0 w3 d w3 neg 0 d 0 w3 neg d w3 neg 0 d cl s } def
/m29 {mp gsave x w2 sub y w2 add w3 sub m currentpoint t 4 {side} repeat cl fill gr} def
/m30 {mp gsave x w2 sub y w2 add w3 sub m currentpoint t 4 {side} repeat cl s gr} def
/m31 {mp x y w2 sub m 0 w d x w2 sub y m w 0 d x w2 sub y w2 add m w w neg d x w2 sub y w2 sub m w w d s} def
/m32 {mp x y w2 sub m w2 w d w neg 0 d cl s} def
/m33 {mp x y w2 add m w3 neg w2 neg d w3 w2 neg d w3 w2 d cl f} def
/m34 {mp x w2 sub y w2 sub w3 add m w3 0 d  0 w3 neg d w3 0 d 0 w3 d w3 0 d  0 w3 d w3 neg 0 d 0 w3 d w3 neg 0 d 0 w3 neg d w3 neg 0 d cl f } def
/m2 {mp x y w2 sub m 0 w d x w2 sub y m w 0 d s} def
/m5 {mp x w2 sub y w2 sub m w w d x w2 sub y w2 add m w w neg d s} def
/reEncode {exch findfont dup length dict begin {1 index /FID eq  {pop pop} {def} ifelse } forall /Encoding exch def currentdict end dup /FontName get exch definefont pop } def [/Times-Bold /Times-Italic /Times-BoldItalic /Helvetica /Helvetica-Oblique
 /Helvetica-Bold /Helvetica-BoldOblique /Courier /Courier-Oblique /Courier-Bold /Courier-BoldOblique /Times-Roman /AvantGarde-Book /AvantGarde-BookOblique /AvantGarde-Demi /AvantGarde-DemiOblique /Bookman-Demi /Bookman-DemiItalic /Bookman-Light
 /Bookman-LightItalic /Helvetica-Narrow /Helvetica-Narrow-Bold /Helvetica-Narrow-BoldOblique /Helvetica-Narrow-Oblique /NewCenturySchlbk-Roman /NewCenturySchlbk-Bold /NewCenturySchlbk-BoldItalic /NewCenturySchlbk-Italic /Palatino-Bold
 /Palatino-BoldItalic /Palatino-Italic /Palatino-Roman ] {ISOLatin1Encoding reEncode } forall
%%EndProlog
%%BeginSetup
%%EndSetup
newpath  gsave  .25 .25 scale  gsave  0 0 t black[  ] 0 sd 3 lw 1 1 1 c 2268 1538 0 0 bf black 1 1 1 c 2222 738 23 784 bf black 1 1 1 c 2222 739 23 15 bf black 1 1 1 c 2268 1077 0 461 bf black 1 1 1 c 1791 850 363 634 bf black 1791 850 363 634 bl 363
 634 m 1791 X s
 gsave  2268 1077 0 461 C 1642.14 498.507 t 0 r /Helvetica findfont 48.9324 sf 0 0 m (4l Invariant Mass \(GeV\)) show NC gr  363 659 m -25 Y s 404 646 m -12 Y s 445 646 m -12 Y s 486 646 m -12 Y s 528 646 m -12 Y s 569 659 m -25 Y s 610 646 m -12 Y s
 651 646 m -12 Y s 692 646 m -12 Y s 733 646 m -12 Y s 775 659 m -25 Y s 816 646 m -12 Y s 857 646 m -12 Y s 898 646 m -12 Y s 939 646 m -12 Y s 981 659 m -25 Y s 1022 646 m -12 Y s 1063 646 m -12 Y s 1104 646 m -12 Y s 1145 646 m -12 Y s 1187 659 m
 -25 Y s 1228 646 m -12 Y s 1269 646 m -12 Y s 1310 646 m -12 Y s 1351 646 m -12 Y s 1392 659 m -25 Y s 1434 646 m -12 Y s 1475 646 m -12 Y s 1516 646 m -12 Y s 1557 646 m -12 Y s 1598 659 m -25 Y s 1640 646 m -12 Y s 1681 646 m -12 Y s 1722 646 m
 -12 Y s 1763 646 m -12 Y s 1804 659 m -25 Y s 1845 646 m -12 Y s 1887 646 m -12 Y s 1928 646 m -12 Y s 1969 646 m -12 Y s 2010 659 m -25 Y s 2010 659 m -25 Y s 2051 646 m -12 Y s 2093 646 m -12 Y s 2134 646 m -12 Y s
 gsave  2268 1077 0 461 C 319.305 586.478 t 0 r /Helvetica findfont 48.9324 sf 0 0 m (940) show NC gr 
 gsave  2268 1077 0 461 C 524.572 586.478 t 0 r /Helvetica findfont 48.9324 sf 0 0 m (950) show NC gr 
 gsave  2268 1077 0 461 C 729.84 586.478 t 0 r /Helvetica findfont 48.9324 sf 0 0 m (960) show NC gr 
 gsave  2268 1077 0 461 C 935.107 586.478 t 0 r /Helvetica findfont 48.9324 sf 0 0 m (970) show NC gr 
 gsave  2268 1077 0 461 C 1143.63 586.478 t 0 r /Helvetica findfont 48.9324 sf 0 0 m (980) show NC gr 
 gsave  2268 1077 0 461 C 1348.9 586.478 t 0 r /Helvetica findfont 48.9324 sf 0 0 m (990) show NC gr 
 gsave  2268 1077 0 461 C 1541.13 586.478 t 0 r /Helvetica findfont 48.9324 sf 0 0 m (1000) show NC gr 
 gsave  2268 1077 0 461 C 1746.4 586.478 t 0 r /Helvetica findfont 48.9324 sf 0 0 m (1010) show NC gr 
 gsave  2268 1077 0 461 C 1951.67 586.478 t 0 r /Helvetica findfont 48.9324 sf 0 0 m (1020) show NC gr  363 1484 m 1791 X s 363 1459 m 25 Y s 404 1471 m 13 Y s 445 1471 m 13 Y s 486 1471 m 13 Y s 528 1471 m 13 Y s 569 1459 m 25 Y s 610 1471 m 13 Y s
 651 1471 m 13 Y s 692 1471 m 13 Y s 733 1471 m 13 Y s 775 1459 m 25 Y s 816 1471 m 13 Y s 857 1471 m 13 Y s 898 1471 m 13 Y s 939 1471 m 13 Y s 981 1459 m 25 Y s 1022 1471 m 13 Y s 1063 1471 m 13 Y s 1104 1471 m 13 Y s 1145 1471 m 13 Y s 1187 1459 m
 25 Y s 1228 1471 m 13 Y s 1269 1471 m 13 Y s 1310 1471 m 13 Y s 1351 1471 m 13 Y s 1392 1459 m 25 Y s 1434 1471 m 13 Y s 1475 1471 m 13 Y s 1516 1471 m 13 Y s 1557 1471 m 13 Y s 1598 1459 m 25 Y s 1640 1471 m 13 Y s 1681 1471 m 13 Y s 1722 1471 m 13
 Y s 1763 1471 m 13 Y s 1804 1459 m 25 Y s 1845 1471 m 13 Y s 1887 1471 m 13 Y s 1928 1471 m 13 Y s 1969 1471 m 13 Y s 2010 1459 m 25 Y s 2010 1459 m 25 Y s 2051 1471 m 13 Y s 2093 1471 m 13 Y s 2134 1471 m 13 Y s 363 634 m 850 Y s
 gsave  2268 1077 0 461 C 120.554 1032.85 t 90 r /Helvetica findfont 48.9324 sf 0 0 m (Events / \( 1.74 GeV \)) show NC gr  390 666 m -27 X s 390 720 m -27 X s 390 758 m -27 X s 390 788 m -27 X s 390 812 m -27 X s 390 832 m -27 X s 390 850 m -27 X s
 390 866 m -27 X s 417 880 m -54 X s
 gsave  2268 1077 0 461 C 342.425 858.821 t 0 r  -55 0 t /Helvetica findfont 48.9324 sf 0 0 m (10) show NC gr  390 972 m -27 X s 390 1026 m -27 X s 390 1064 m -27 X s 390 1094 m -27 X s 390 1118 m -27 X s 390 1138 m -27 X s 390 1156 m -27 X s 390
 1172 m -27 X s 417 1186 m -54 X s
 gsave  2268 1077 0 461 C 322.563 1182.73 t 0 r /Helvetica findfont 32.6216 sf 0 0 m (2) show NC gr 
 gsave  2268 1077 0 461 C 270.432 1163.18 t 0 r /Helvetica findfont 48.9324 sf 0 0 m (10) show NC gr  390 1278 m -27 X s 390 1332 m -27 X s 390 1370 m -27 X s 390 1400 m -27 X s 390 1424 m -27 X s 390 1444 m -27 X s 390 1462 m -27 X s 390 1478 m -27
 X s 2154 634 m 850 Y s 2127 666 m 27 X s 2127 720 m 27 X s 2127 758 m 27 X s 2127 788 m 27 X s 2127 812 m 27 X s 2127 832 m 27 X s 2127 850 m 27 X s 2127 866 m 27 X s 2101 880 m 53 X s 2127 972 m 27 X s 2127 1026 m 27 X s 2127 1064 m 27 X s 2127
 1094 m 27 X s 2127 1118 m 27 X s 2127 1138 m 27 X s 2127 1156 m 27 X s 2127 1172 m 27 X s 2101 1186 m 53 X s 2127 1278 m 27 X s 2127 1332 m 27 X s 2127 1370 m 27 X s 2127 1400 m 27 X s 2127 1424 m 27 X s 2127 1444 m 27 X s 2127 1462 m 27 X s 2127
 1478 m 27 X s 381 720 m -18 X s 363 720 m cl s 381 720 m 18 X s 399 720 m cl s 381 720 m 90 Y s 381 810 m cl s 381 720 m -86 Y s 381 634 m cl s 417 758 m -18 X s 399 758 m cl s 417 758 m 17 X s 434 758 m cl s 417 758 m 77 Y s 417 835 m cl s 417 758
 m -87 Y s 417 671 m cl s 452 832 m -18 X s 434 832 m cl s 452 832 m 18 X s 470 832 m cl s 452 832 m 58 Y s 452 890 m cl s 452 832 m -61 Y s 452 771 m cl s 524 866 m -18 X s 506 866 m cl s 524 866 m 18 X s 542 866 m cl s 524 866 m 50 Y s 524 916 m cl
 s 524 866 m -53 Y s 524 813 m cl s 560 850 m -18 X s 542 850 m cl s 560 850 m 18 X s 578 850 m cl s 560 850 m 53 Y s 560 903 m cl s 560 850 m -56 Y s 560 794 m cl s 596 892 m -18 X s 578 892 m cl s 596 892 m 18 X s 614 892 m cl s 596 892 m 45 Y s
 596 937 m cl s 596 892 m -46 Y s 596 846 m cl s 632 850 m -18 X s 614 850 m cl s 632 850 m 17 X s 649 850 m cl s 632 850 m 53 Y s 632 903 m cl s 632 850 m -56 Y s 632 794 m cl s 667 832 m -18 X s 649 832 m cl s 667 832 m 18 X s 685 832 m cl s 667
 832 m 58 Y s 667 890 m cl s 667 832 m -61 Y s 667 771 m cl s 703 924 m -18 X s 685 924 m cl s 703 924 m 18 X s 721 924 m cl s 703 924 m 40 Y s 703 964 m cl s 703 924 m -40 Y s 703 884 m cl s 739 812 m -18 X s 721 812 m cl s 739 812 m 18 X s 757 812
 m cl s 739 812 m 62 Y s 739 874 m cl s 739 812 m -67 Y s 739 745 m cl s 775 904 m -18 X s 757 904 m cl s 775 904 m 18 X s 793 904 m cl s 775 904 m 43 Y s 775 947 m cl s 775 904 m -45 Y s 775 859 m cl s 811 934 m -18 X s 793 934 m cl s 811 934 m 18 X
 s 829 934 m cl s 811 934 m 38 Y s 811 972 m cl s 811 934 m -40 Y s 811 894 m cl s 847 892 m -18 X s 829 892 m cl s 847 892 m 17 X s 864 892 m cl s 847 892 m 45 Y s 847 937 m cl s 847 892 m -46 Y s 847 846 m cl s 882 965 m -18 X s 864 965 m cl s 882
 965 m 18 X s 900 965 m cl s 882 965 m 33 Y s 882 998 m cl s 882 965 m -34 Y s 882 931 m cl s 918 950 m -18 X s 900 950 m cl s 918 950 m 18 X s 936 950 m cl s 918 950 m 36 Y s 918 986 m cl s 918 950 m -36 Y s 918 914 m cl s 954 990 m -18 X s 936 990
 m cl s 954 990 m 18 X s 972 990 m cl s 954 990 m 31 Y s 954 1021 m cl s 954 990 m -30 Y s 954 960 m cl s 990 996 m -18 X s 972 996 m cl s 990 996 m 18 X s 1008 996 m cl s 990 996 m 30 Y s 990 1026 m cl s 990 996 m -30 Y s 990 966 m cl s 1026 1057 m
 -18 X s 1008 1057 m cl s 1026 1057 m 18 X s 1044 1057 m cl s 1026 1057 m 23 Y s 1026 1080 m cl s 1026 1057 m -23 Y s 1026 1034 m cl s 1062 1038 m -18 X s 1044 1038 m cl s 1062 1038 m 17 X s 1079 1038 m cl s 1062 1038 m 25 Y s 1062 1063 m cl s 1062
 1038 m -25 Y s 1062 1013 m cl s 1097 1091 m -18 X s 1079 1091 m cl s 1097 1091 m 18 X s 1115 1091 m cl s 1097 1091 m 20 Y s 1097 1111 m cl s 1097 1091 m -20 Y s 1097 1071 m cl s 1133 1080 m -18 X s 1115 1080 m cl s 1133 1080 m 18 X s 1151 1080 m cl
 s 1133 1080 m 21 Y s 1133 1101 m cl s 1133 1080 m -22 Y s 1133 1058 m cl s 1169 1153 m -18 X s 1151 1153 m cl s 1169 1153 m 18 X s 1187 1153 m cl s 1169 1153 m 16 Y s 1169 1169 m cl s 1169 1153 m -16 Y s 1169 1137 m cl s 1205 1196 m -18 X s 1187
 1196 m cl s 1205 1196 m 18 X s 1223 1196 m cl s 1205 1196 m 13 Y s 1205 1209 m cl s 1205 1196 m -13 Y s 1205 1183 m cl s 1241 1196 m -18 X s 1223 1196 m cl s 1241 1196 m 18 X s 1259 1196 m cl s 1241 1196 m 13 Y s 1241 1209 m cl s 1241 1196 m -13 Y s
 1241 1183 m cl s 1276 1234 m -17 X s 1259 1234 m cl s 1276 1234 m 18 X s 1294 1234 m cl s 1276 1234 m 11 Y s 1276 1245 m cl s 1276 1234 m -11 Y s 1276 1223 m cl s 1312 1264 m -18 X s 1294 1264 m cl s 1312 1264 m 18 X s 1330 1264 m cl s 1312 1264 m
 10 Y s 1312 1274 m cl s 1312 1264 m -10 Y s 1312 1254 m cl s 1348 1298 m -18 X s 1330 1298 m cl s 1348 1298 m 18 X s 1366 1298 m cl s 1348 1298 m 8 Y s 1348 1306 m cl s 1348 1298 m -9 Y s 1348 1289 m cl s 1384 1337 m -18 X s 1366 1337 m cl s 1384
 1337 m 18 X s 1402 1337 m cl s 1384 1337 m 8 Y s 1384 1345 m cl s 1384 1337 m -7 Y s 1384 1330 m cl s 1420 1352 m -18 X s 1402 1352 m cl s 1420 1352 m 18 X s 1438 1352 m cl s 1420 1352 m 7 Y s 1420 1359 m cl s 1420 1352 m -8 Y s 1420 1344 m cl s
 1456 1386 m -18 X s 1438 1386 m cl s 1456 1386 m 18 X s 1474 1386 m cl s 1456 1386 m 6 Y s 1456 1392 m cl s 1456 1386 m -6 Y s 1456 1380 m cl s 1491 1402 m -17 X s 1474 1402 m cl s 1491 1402 m 18 X s 1509 1402 m cl s 1491 1402 m 6 Y s 1491 1408 m cl
 s 1491 1402 m -6 Y s 1491 1396 m cl s 1527 1418 m -18 X s 1509 1418 m cl s 1527 1418 m 18 X s 1545 1418 m cl s 1527 1418 m 6 Y s 1527 1424 m cl s 1527 1418 m -5 Y s 1527 1413 m cl s 1563 1412 m -18 X s 1545 1412 m cl s 1563 1412 m 18 X s 1581 1412 m
 cl s 1563 1412 m 5 Y s 1563 1417 m cl s 1563 1412 m -6 Y s 1563 1406 m cl s 1599 1414 m -18 X s 1581 1414 m cl s 1599 1414 m 18 X s 1617 1414 m cl s 1599 1414 m 6 Y s 1599 1420 m cl s 1599 1414 m -6 Y s 1599 1408 m cl s 1635 1394 m -18 X s 1617 1394
 m cl s 1635 1394 m 18 X s 1653 1394 m cl s 1635 1394 m 6 Y s 1635 1400 m cl s 1635 1394 m -6 Y s 1635 1388 m cl s 1671 1367 m -18 X s 1653 1367 m cl s 1671 1367 m 18 X s 1689 1367 m cl s 1671 1367 m 7 Y s 1671 1374 m cl s 1671 1367 m -6 Y s 1671
 1361 m cl s 1706 1343 m -17 X s 1689 1343 m cl s 1706 1343 m 18 X s 1724 1343 m cl s 1706 1343 m 7 Y s 1706 1350 m cl s 1706 1343 m -7 Y s 1706 1336 m cl s 1742 1294 m -18 X s 1724 1294 m cl s 1742 1294 m 18 X s 1760 1294 m cl s 1742 1294 m 9 Y s
 1742 1303 m cl s 1742 1294 m -9 Y s 1742 1285 m cl s 1778 1258 m -18 X s 1760 1258 m cl s 1778 1258 m 18 X s 1796 1258 m cl s 1778 1258 m 10 Y s 1778 1268 m cl s 1778 1258 m -10 Y s 1778 1248 m cl s 1814 1172 m -18 X s 1796 1172 m cl s 1814 1172 m
 18 X s 1832 1172 m cl s 1814 1172 m 14 Y s 1814 1186 m cl s 1814 1172 m -15 Y s 1814 1157 m cl s 1850 1144 m -18 X s 1832 1144 m cl s 1850 1144 m 18 X s 1868 1144 m cl s 1850 1144 m 16 Y s 1850 1160 m cl s 1850 1144 m -17 Y s 1850 1127 m cl s 1886
 1077 m -18 X s 1868 1077 m cl s 1886 1077 m 18 X s 1904 1077 m cl s 1886 1077 m 21 Y s 1886 1098 m cl s 1886 1077 m -22 Y s 1886 1055 m cl s 1921 1012 m -17 X s 1904 1012 m cl s 1921 1012 m 18 X s 1939 1012 m cl s 1921 1012 m 27 Y s 1921 1039 m cl s
 1921 1012 m -28 Y s 1921 984 m cl s 1957 1026 m -18 X s 1939 1026 m cl s 1957 1026 m 18 X s 1975 1026 m cl s 1957 1026 m 26 Y s 1957 1052 m cl s 1957 1026 m -27 Y s 1957 999 m cl s 1993 942 m -18 X s 1975 942 m cl s 1993 942 m 18 X s 2011 942 m cl s
 1993 942 m 37 Y s 1993 979 m cl s 1993 942 m -38 Y s 1993 904 m cl s 2029 950 m -18 X s 2011 950 m cl s 2029 950 m 18 X s 2047 950 m cl s 2029 950 m 36 Y s 2029 986 m cl s 2029 950 m -36 Y s 2029 914 m cl s 2065 880 m -18 X s 2047 880 m cl s 2065
 880 m 18 X s 2083 880 m cl s 2065 880 m 47 Y s 2065 927 m cl s 2065 880 m -50 Y s 2065 830 m cl s 2101 758 m -18 X s 2083 758 m cl s 2101 758 m 18 X s 2119 758 m cl s 2101 758 m 77 Y s 2101 835 m cl s 2101 758 m -87 Y s 2101 671 m cl s 2136 812 m
 -17 X s 2119 812 m cl s 2136 812 m 18 X s 2154 812 m cl s 2136 812 m 62 Y s 2136 874 m cl s 2136 812 m -67 Y s 2136 745 m cl s /w 31 def /w2 {w 2 div} def /w3 {w 3 div} def 381 720 417 758 452 832 3 { m20} R 524 866 560 850 596 892 632 850 667 832
 703 924 739 812 775 904 811 934 847 892 882 965 918 950 954 990 990 996 1026 1057 1062 1038 1097 1091 1133 1080 1169 1153 1205 1196 1241 1196 1276 1234 1312 1264 1348 1298 1384 1337 1420 1352 1456 1386 1491 1402 1527 1418 1563 1412 1599 1414 1635
 1394 1671 1367 1706 1343 1742 1294 1778 1258 1814 1172 1850 1144 1886 1077 1921 1012 1957 1026 1993 942 2029 950 2065 880 2101 758 2136 812 46 { m20} R 0 1 1 c 1 1 0 c black 1 1 0 c 363 798 m 36 8 d 35 8 d 36 8 d 36 9 d 36 9 d 36 9 d 36 10 d 35 10 d
 36 11 d 36 12 d 36 12 d 36 13 d 36 15 d 35 16 d 36 17 d 36 19 d 36 20 d 36 22 d 36 23 d 35 24 d 36 25 d 36 25 d 36 26 d 36 27 d 18 14 d 18 14 d 17 15 d 18 16 d 18 16 d 18 17 d 9 9 d 9 9 d 9 10 d 9 11 d 18 20 d 18 19 d 36 32 d 18 13 d 9 5 d 9 5 d 9 5
 d 8 4 d 9 3 d 9 3 d 9 2 d 9 2 d 9 1 d 18 X 9 -1 d 9 -1 d 9 -2 d 9 -2 d 9 -3 d 9 -3 d 9 -4 d 9 -5 d 9 -5 d 18 -12 d 36 -30 d 17 -19 d 18 -20 d 18 -21 d 18 -24 d 18 -24 d 18 -26 d 18 -27 d 18 -28 d 18 -27 d 18 -28 d 18 -27 d 18 -27 d 17 -26 d 18 -25 d
 36 -48 d 36 -45 d 36 -45 d 36 -45 d 36 -46 d 35 -49 d -35 49 d -36 46 d -36 45 d -36 45 d -36 45 d -36 48 d -18 25 d -17 26 d -18 27 d -18 27 d -18 28 d -18 27 d -18 28 d -18 27 d -18 26 d -18 24 d -18 24 d -18 21 d -18 20 d -17 19 d -36 30 d -18 12
 d -9 5 d -9 5 d -9 4 d -9 3 d -9 3 d -9 2 d -9 2 d -9 1 d -9 1 d -18 X -9 -1 d -9 -2 d -9 -2 d -9 -3 d -9 -3 d -8 -4 d -9 -5 d -9 -5 d -9 -5 d -18 -13 d -36 -32 d -18 -19 d -18 -20 d -9 -11 d -9 -10 d -9 -9 d -9 -9 d -18 -17 d -18 -16 d -18 -16 d
 -17 -15 d -18 -14 d -18 -14 d -36 -27 d -36 -26 d -36 -25 d -36 -25 d -35 -24 d -36 -23 d -36 -22 d -36 -20 d -36 -19 d -36 -17 d -35 -16 d -36 -15 d -36 -13 d -36 -12 d -36 -12 d -36 -11 d -35 -10 d -36 -10 d -36 -9 d -36 -9 d -36 -9 d -36 -8 d -35
 -8 d -36 -8 d f 0 1 1 c 0 1 0 c black 0 1 0 c 363 798 m 36 8 d 35 8 d 36 8 d 36 9 d 36 9 d 36 9 d 36 10 d 35 10 d 36 11 d 36 12 d 36 12 d 36 13 d 36 15 d 35 16 d 36 17 d 36 19 d 36 20 d 36 22 d 36 23 d 35 24 d 36 25 d 36 25 d 36 26 d 36 27 d 18 14 d
 18 14 d 17 15 d 18 16 d 18 16 d 18 17 d 9 9 d 9 9 d 9 10 d 9 11 d 18 20 d 18 19 d 36 32 d 18 13 d 9 5 d 9 5 d 9 5 d 8 4 d 9 3 d 9 3 d 9 2 d 9 2 d 9 1 d 18 X 9 -1 d 9 -1 d 9 -2 d 9 -2 d 9 -3 d 9 -3 d 9 -4 d 9 -5 d 9 -5 d 18 -12 d 36 -30 d 17 -19 d 18
 -20 d 18 -21 d 18 -24 d 18 -24 d 18 -26 d 18 -27 d 18 -28 d 18 -27 d 18 -28 d 18 -27 d 18 -27 d 17 -26 d 18 -25 d 36 -48 d 36 -45 d 36 -45 d 36 -45 d 36 -46 d 35 -49 d -35 49 d -36 46 d -36 45 d -36 45 d -36 45 d -36 48 d -18 25 d -17 26 d -18 27 d
 -18 27 d -18 28 d -18 27 d -18 28 d -18 27 d -18 26 d -18 24 d -18 24 d -18 21 d -18 20 d -17 19 d -36 30 d -18 12 d -9 5 d -9 5 d -9 4 d -9 3 d -9 3 d -9 2 d -9 2 d -9 1 d -9 1 d -18 X -9 -1 d -9 -2 d -9 -2 d -9 -3 d -9 -3 d -8 -4 d -9 -5 d -9 -5 d
 -9 -5 d -18 -13 d -36 -32 d -18 -19 d -18 -20 d -9 -11 d -9 -10 d -9 -9 d -9 -9 d -18 -17 d -18 -16 d -18 -16 d -17 -15 d -18 -14 d -18 -14 d -36 -27 d -36 -26 d -36 -25 d -36 -25 d -35 -24 d -36 -23 d -36 -22 d -36 -20 d -36 -19 d -36 -17 d -35 -16
 d -36 -15 d -36 -13 d -36 -12 d -36 -12 d -36 -11 d -35 -10 d -36 -10 d -36 -9 d -36 -9 d -36 -9 d -36 -8 d -35 -8 d -36 -8 d f 0 0 1 c 9 lw black 0 0 1 c 363 798 m 36 8 d 35 8 d 36 8 d 36 9 d 36 9 d 36 9 d 36 10 d 35 10 d 36 11 d 36 12 d 36 12 d 36
 13 d 36 15 d 35 16 d 36 17 d 36 19 d 36 20 d 36 22 d 36 23 d 35 24 d 36 25 d 36 25 d 36 26 d 36 27 d 18 14 d 18 14 d 17 15 d 18 16 d 18 16 d 18 17 d 9 9 d 9 9 d 9 10 d 9 11 d 18 20 d 18 19 d 36 32 d 18 13 d 9 5 d 9 5 d 9 5 d 8 4 d 9 3 d 9 3 d 9 2 d
 9 2 d 9 1 d 18 X 9 -1 d 9 -1 d 9 -2 d 9 -2 d 9 -3 d 9 -3 d 9 -4 d 9 -5 d 9 -5 d 18 -12 d 36 -30 d 17 -19 d 18 -20 d 18 -21 d 18 -24 d 18 -24 d 18 -26 d 18 -27 d 18 -28 d 18 -27 d 18 -28 d 18 -27 d 18 -27 d 17 -26 d 18 -25 d 36 -48 d 36 -45 d 36 -45
 d 36 -45 d 36 -46 d 35 -49 d s black 3 lw 381 720 m -18 X s 363 720 m cl s 381 720 m 18 X s 399 720 m cl s 381 720 m 90 Y s 381 810 m cl s 381 720 m -86 Y s 381 634 m cl s 417 758 m -18 X s 399 758 m cl s 417 758 m 17 X s 434 758 m cl s 417 758 m 77
 Y s 417 835 m cl s 417 758 m -87 Y s 417 671 m cl s 452 832 m -18 X s 434 832 m cl s 452 832 m 18 X s 470 832 m cl s 452 832 m 58 Y s 452 890 m cl s 452 832 m -61 Y s 452 771 m cl s 524 866 m -18 X s 506 866 m cl s 524 866 m 18 X s 542 866 m cl s
 524 866 m 50 Y s 524 916 m cl s 524 866 m -53 Y s 524 813 m cl s 560 850 m -18 X s 542 850 m cl s 560 850 m 18 X s 578 850 m cl s 560 850 m 53 Y s 560 903 m cl s 560 850 m -56 Y s 560 794 m cl s 596 892 m -18 X s 578 892 m cl s 596 892 m 18 X s 614
 892 m cl s 596 892 m 45 Y s 596 937 m cl s 596 892 m -46 Y s 596 846 m cl s 632 850 m -18 X s 614 850 m cl s 632 850 m 17 X s 649 850 m cl s 632 850 m 53 Y s 632 903 m cl s 632 850 m -56 Y s 632 794 m cl s 667 832 m -18 X s 649 832 m cl s 667 832 m
 18 X s 685 832 m cl s 667 832 m 58 Y s 667 890 m cl s 667 832 m -61 Y s 667 771 m cl s 703 924 m -18 X s 685 924 m cl s 703 924 m 18 X s 721 924 m cl s 703 924 m 40 Y s 703 964 m cl s 703 924 m -40 Y s 703 884 m cl s 739 812 m -18 X s 721 812 m cl s
 739 812 m 18 X s 757 812 m cl s 739 812 m 62 Y s 739 874 m cl s 739 812 m -67 Y s 739 745 m cl s 775 904 m -18 X s 757 904 m cl s 775 904 m 18 X s 793 904 m cl s 775 904 m 43 Y s 775 947 m cl s 775 904 m -45 Y s 775 859 m cl s 811 934 m -18 X s 793
 934 m cl s 811 934 m 18 X s 829 934 m cl s 811 934 m 38 Y s 811 972 m cl s 811 934 m -40 Y s 811 894 m cl s 847 892 m -18 X s 829 892 m cl s 847 892 m 17 X s 864 892 m cl s 847 892 m 45 Y s 847 937 m cl s 847 892 m -46 Y s 847 846 m cl s 882 965 m
 -18 X s 864 965 m cl s 882 965 m 18 X s 900 965 m cl s 882 965 m 33 Y s 882 998 m cl s 882 965 m -34 Y s 882 931 m cl s 918 950 m -18 X s 900 950 m cl s 918 950 m 18 X s 936 950 m cl s 918 950 m 36 Y s 918 986 m cl s 918 950 m -36 Y s 918 914 m cl s
 954 990 m -18 X s 936 990 m cl s 954 990 m 18 X s 972 990 m cl s 954 990 m 31 Y s 954 1021 m cl s 954 990 m -30 Y s 954 960 m cl s 990 996 m -18 X s 972 996 m cl s 990 996 m 18 X s 1008 996 m cl s 990 996 m 30 Y s 990 1026 m cl s 990 996 m -30 Y s
 990 966 m cl s 1026 1057 m -18 X s 1008 1057 m cl s 1026 1057 m 18 X s 1044 1057 m cl s 1026 1057 m 23 Y s 1026 1080 m cl s 1026 1057 m -23 Y s 1026 1034 m cl s 1062 1038 m -18 X s 1044 1038 m cl s 1062 1038 m 17 X s 1079 1038 m cl s 1062 1038 m 25
 Y s 1062 1063 m cl s 1062 1038 m -25 Y s 1062 1013 m cl s 1097 1091 m -18 X s 1079 1091 m cl s 1097 1091 m 18 X s 1115 1091 m cl s 1097 1091 m 20 Y s 1097 1111 m cl s 1097 1091 m -20 Y s 1097 1071 m cl s 1133 1080 m -18 X s 1115 1080 m cl s 1133
 1080 m 18 X s 1151 1080 m cl s 1133 1080 m 21 Y s 1133 1101 m cl s 1133 1080 m -22 Y s 1133 1058 m cl s 1169 1153 m -18 X s 1151 1153 m cl s 1169 1153 m 18 X s 1187 1153 m cl s 1169 1153 m 16 Y s 1169 1169 m cl s 1169 1153 m -16 Y s 1169 1137 m cl s
 1205 1196 m -18 X s 1187 1196 m cl s 1205 1196 m 18 X s 1223 1196 m cl s 1205 1196 m 13 Y s 1205 1209 m cl s 1205 1196 m -13 Y s 1205 1183 m cl s 1241 1196 m -18 X s 1223 1196 m cl s 1241 1196 m 18 X s 1259 1196 m cl s 1241 1196 m 13 Y s 1241 1209 m
 cl s 1241 1196 m -13 Y s 1241 1183 m cl s 1276 1234 m -17 X s 1259 1234 m cl s 1276 1234 m 18 X s 1294 1234 m cl s 1276 1234 m 11 Y s 1276 1245 m cl s 1276 1234 m -11 Y s 1276 1223 m cl s 1312 1264 m -18 X s 1294 1264 m cl s 1312 1264 m 18 X s 1330
 1264 m cl s 1312 1264 m 10 Y s 1312 1274 m cl s 1312 1264 m -10 Y s 1312 1254 m cl s 1348 1298 m -18 X s 1330 1298 m cl s 1348 1298 m 18 X s 1366 1298 m cl s 1348 1298 m 8 Y s 1348 1306 m cl s 1348 1298 m -9 Y s 1348 1289 m cl s 1384 1337 m -18 X s
 1366 1337 m cl s 1384 1337 m 18 X s 1402 1337 m cl s 1384 1337 m 8 Y s 1384 1345 m cl s 1384 1337 m -7 Y s 1384 1330 m cl s 1420 1352 m -18 X s 1402 1352 m cl s 1420 1352 m 18 X s 1438 1352 m cl s 1420 1352 m 7 Y s 1420 1359 m cl s 1420 1352 m -8 Y
 s 1420 1344 m cl s 1456 1386 m -18 X s 1438 1386 m cl s 1456 1386 m 18 X s 1474 1386 m cl s 1456 1386 m 6 Y s 1456 1392 m cl s 1456 1386 m -6 Y s 1456 1380 m cl s 1491 1402 m -17 X s 1474 1402 m cl s 1491 1402 m 18 X s 1509 1402 m cl s 1491 1402 m 6
 Y s 1491 1408 m cl s 1491 1402 m -6 Y s 1491 1396 m cl s 1527 1418 m -18 X s 1509 1418 m cl s 1527 1418 m 18 X s 1545 1418 m cl s 1527 1418 m 6 Y s 1527 1424 m cl s 1527 1418 m -5 Y s 1527 1413 m cl s 1563 1412 m -18 X s 1545 1412 m cl s 1563 1412 m
 18 X s 1581 1412 m cl s 1563 1412 m 5 Y s 1563 1417 m cl s 1563 1412 m -6 Y s 1563 1406 m cl s 1599 1414 m -18 X s 1581 1414 m cl s 1599 1414 m 18 X s 1617 1414 m cl s 1599 1414 m 6 Y s 1599 1420 m cl s 1599 1414 m -6 Y s 1599 1408 m cl s 1635 1394
 m -18 X s 1617 1394 m cl s 1635 1394 m 18 X s 1653 1394 m cl s 1635 1394 m 6 Y s 1635 1400 m cl s 1635 1394 m -6 Y s 1635 1388 m cl s 1671 1367 m -18 X s 1653 1367 m cl s 1671 1367 m 18 X s 1689 1367 m cl s 1671 1367 m 7 Y s 1671 1374 m cl s 1671
 1367 m -6 Y s 1671 1361 m cl s 1706 1343 m -17 X s 1689 1343 m cl s 1706 1343 m 18 X s 1724 1343 m cl s 1706 1343 m 7 Y s 1706 1350 m cl s 1706 1343 m -7 Y s 1706 1336 m cl s 1742 1294 m -18 X s 1724 1294 m cl s 1742 1294 m 18 X s 1760 1294 m cl s
 1742 1294 m 9 Y s 1742 1303 m cl s 1742 1294 m -9 Y s 1742 1285 m cl s 1778 1258 m -18 X s 1760 1258 m cl s 1778 1258 m 18 X s 1796 1258 m cl s 1778 1258 m 10 Y s 1778 1268 m cl s 1778 1258 m -10 Y s 1778 1248 m cl s 1814 1172 m -18 X s 1796 1172 m
 cl s 1814 1172 m 18 X s 1832 1172 m cl s 1814 1172 m 14 Y s 1814 1186 m cl s 1814 1172 m -15 Y s 1814 1157 m cl s 1850 1144 m -18 X s 1832 1144 m cl s 1850 1144 m 18 X s 1868 1144 m cl s 1850 1144 m 16 Y s 1850 1160 m cl s 1850 1144 m -17 Y s 1850
 1127 m cl s 1886 1077 m -18 X s 1868 1077 m cl s 1886 1077 m 18 X s 1904 1077 m cl s 1886 1077 m 21 Y s 1886 1098 m cl s 1886 1077 m -22 Y s 1886 1055 m cl s 1921 1012 m -17 X s 1904 1012 m cl s 1921 1012 m 18 X s 1939 1012 m cl s 1921 1012 m 27 Y s
 1921 1039 m cl s 1921 1012 m -28 Y s 1921 984 m cl s 1957 1026 m -18 X s 1939 1026 m cl s 1957 1026 m 18 X s 1975 1026 m cl s 1957 1026 m 26 Y s 1957 1052 m cl s 1957 1026 m -27 Y s 1957 999 m cl s 1993 942 m -18 X s 1975 942 m cl s 1993 942 m 18 X
 s 2011 942 m cl s 1993 942 m 37 Y s 1993 979 m cl s 1993 942 m -38 Y s 1993 904 m cl s 2029 950 m -18 X s 2011 950 m cl s 2029 950 m 18 X s 2047 950 m cl s 2029 950 m 36 Y s 2029 986 m cl s 2029 950 m -36 Y s 2029 914 m cl s 2065 880 m -18 X s 2047
 880 m cl s 2065 880 m 18 X s 2083 880 m cl s 2065 880 m 47 Y s 2065 927 m cl s 2065 880 m -50 Y s 2065 830 m cl s 2101 758 m -18 X s 2083 758 m cl s 2101 758 m 18 X s 2119 758 m cl s 2101 758 m 77 Y s 2101 835 m cl s 2101 758 m -87 Y s 2101 671 m cl
 s 2136 812 m -17 X s 2119 812 m cl s 2136 812 m 18 X s 2154 812 m cl s 2136 812 m 62 Y s 2136 874 m cl s 2136 812 m -67 Y s 2136 745 m cl s 381 720 417 758 452 832 3 { m20} R 524 866 560 850 596 892 632 850 667 832 703 924 739 812 775 904 811 934
 847 892 882 965 918 950 954 990 990 996 1026 1057 1062 1038 1097 1091 1133 1080 1169 1153 1205 1196 1241 1196 1276 1234 1312 1264 1348 1298 1384 1337 1420 1352 1456 1386 1491 1402 1527 1418 1563 1412 1599 1414 1635 1394 1671 1367 1706 1343 1742 1294
 1778 1258 1814 1172 1850 1144 1886 1077 1921 1012 1957 1026 1993 942 2029 950 2065 880 2101 758 2136 812 46 { m20} R 0.52 0.76 0.64 c[ 4 8] 0 sd 9 lw black 0.52 0.76 0.64 c 363 798 m 36 8 d 35 8 d 36 8 d 36 9 d 36 8 d 36 10 d 36 9 d 35 10 d 36 10 d
 36 11 d 36 11 d 36 12 d 36 12 d 35 13 d 36 14 d 36 14 d 36 15 d 36 17 d 36 17 d 35 19 d 36 20 d 36 22 d 36 24 d 36 26 d 18 15 d 18 15 d 17 16 d 18 17 d 18 19 d 9 10 d 9 10 d 9 11 d 9 11 d 9 12 d 9 12 d 18 24 d 18 22 d 36 36 d 18 15 d 9 6 d 9 5 d 9 5
 d 8 5 d 9 3 d 9 3 d 9 3 d 9 2 d 9 1 d 27 X 9 -2 d 9 -2 d 9 -2 d 9 -4 d 9 -3 d 9 -5 d 9 -5 d 9 -6 d 18 -13 d 36 -34 d 17 -21 d 18 -24 d 18 -26 d 9 -14 d 9 -14 d 9 -15 d 9 -16 d 9 -17 d 9 -17 d 18 -36 d 18 -38 d 18 -41 d 18 -44 d 18 -46 d 18 -49 d 17
 -51 d 18 -53 d 36 -115 d 16 -56 d s 0.54 0.66 0.63 c black 0.54 0.66 0.63 c 880 634 m 20 31 d s 900 665 m 36 51 d 36 49 d 36 46 d 36 43 d 18 20 d 17 20 d 18 18 d 18 19 d 18 17 d 18 17 d 18 16 d 18 15 d 18 14 d 18 14 d 36 25 d 35 22 d 36 20 d 36 16 d
 18 7 d 18 7 d 18 5 d 18 5 d 18 4 d 18 4 d 17 3 d 18 2 d 18 1 d 36 X 18 -1 d 18 -2 d 18 -2 d 18 -3 d 18 -4 d 18 -5 d 18 -5 d 17 -6 d 18 -7 d 36 -16 d 36 -19 d 36 -22 d 36 -24 d 36 -28 d 17 -15 d 18 -15 d 18 -17 d 18 -17 d 18 -18 d 18 -18 d 18 -20 d
 18 -20 d 36 -42 d 36 -45 d 35 -48 d s black[  ] 0 sd 3 lw 363 634 m 1791 X s 363 659 m -25 Y s 404 646 m -12 Y s 445 646 m -12 Y s 486 646 m -12 Y s 528 646 m -12 Y s 569 659 m -25 Y s 610 646 m -12 Y s 651 646 m -12 Y s 692 646 m -12 Y s 733 646 m
 -12 Y s 775 659 m -25 Y s 816 646 m -12 Y s 857 646 m -12 Y s 898 646 m -12 Y s 939 646 m -12 Y s 981 659 m -25 Y s 1022 646 m -12 Y s 1063 646 m -12 Y s 1104 646 m -12 Y s 1145 646 m -12 Y s 1187 659 m -25 Y s 1228 646 m -12 Y s 1269 646 m -12 Y s
 1310 646 m -12 Y s 1351 646 m -12 Y s 1392 659 m -25 Y s 1434 646 m -12 Y s 1475 646 m -12 Y s 1516 646 m -12 Y s 1557 646 m -12 Y s 1598 659 m -25 Y s 1640 646 m -12 Y s 1681 646 m -12 Y s 1722 646 m -12 Y s 1763 646 m -12 Y s 1804 659 m -25 Y s
 1845 646 m -12 Y s 1887 646 m -12 Y s 1928 646 m -12 Y s 1969 646 m -12 Y s 2010 659 m -25 Y s 2010 659 m -25 Y s 2051 646 m -12 Y s 2093 646 m -12 Y s 2134 646 m -12 Y s 363 1484 m 1791 X s 363 1459 m 25 Y s 404 1471 m 13 Y s 445 1471 m 13 Y s 486
 1471 m 13 Y s 528 1471 m 13 Y s 569 1459 m 25 Y s 610 1471 m 13 Y s 651 1471 m 13 Y s 692 1471 m 13 Y s 733 1471 m 13 Y s 775 1459 m 25 Y s 816 1471 m 13 Y s 857 1471 m 13 Y s 898 1471 m 13 Y s 939 1471 m 13 Y s 981 1459 m 25 Y s 1022 1471 m 13 Y s
 1063 1471 m 13 Y s 1104 1471 m 13 Y s 1145 1471 m 13 Y s 1187 1459 m 25 Y s 1228 1471 m 13 Y s 1269 1471 m 13 Y s 1310 1471 m 13 Y s 1351 1471 m 13 Y s 1392 1459 m 25 Y s 1434 1471 m 13 Y s 1475 1471 m 13 Y s 1516 1471 m 13 Y s 1557 1471 m 13 Y s
 1598 1459 m 25 Y s 1640 1471 m 13 Y s 1681 1471 m 13 Y s 1722 1471 m 13 Y s 1763 1471 m 13 Y s 1804 1459 m 25 Y s 1845 1471 m 13 Y s 1887 1471 m 13 Y s 1928 1471 m 13 Y s 1969 1471 m 13 Y s 2010 1459 m 25 Y s 2010 1459 m 25 Y s 2051 1471 m 13 Y s
 2093 1471 m 13 Y s 2134 1471 m 13 Y s 363 634 m 850 Y s 390 666 m -27 X s 390 720 m -27 X s 390 758 m -27 X s 390 788 m -27 X s 390 812 m -27 X s 390 832 m -27 X s 390 850 m -27 X s 390 866 m -27 X s 417 880 m -54 X s 390 972 m -27 X s 390 1026 m
 -27 X s 390 1064 m -27 X s 390 1094 m -27 X s 390 1118 m -27 X s 390 1138 m -27 X s 390 1156 m -27 X s 390 1172 m -27 X s 417 1186 m -54 X s 390 1278 m -27 X s 390 1332 m -27 X s 390 1370 m -27 X s 390 1400 m -27 X s 390 1424 m -27 X s 390 1444 m
 -27 X s 390 1462 m -27 X s 390 1478 m -27 X s 2154 634 m 850 Y s 2127 666 m 27 X s 2127 720 m 27 X s 2127 758 m 27 X s 2127 788 m 27 X s 2127 812 m 27 X s 2127 832 m 27 X s 2127 850 m 27 X s 2127 866 m 27 X s 2101 880 m 53 X s 2127 972 m 27 X s 2127
 1026 m 27 X s 2127 1064 m 27 X s 2127 1094 m 27 X s 2127 1118 m 27 X s 2127 1138 m 27 X s 2127 1156 m 27 X s 2127 1172 m 27 X s 2101 1186 m 53 X s 2127 1278 m 27 X s 2127 1332 m 27 X s 2127 1370 m 27 X s 2127 1400 m 27 X s 2127 1424 m 27 X s 2127
 1444 m 27 X s 2127 1462 m 27 X s 2127 1478 m 27 X s
 gsave  2268 1077 0 461 C 677.708 1215.31 t 0 r /Helvetica findfont 58.7189 sf 0 0 m (4e) show NC gr  1 1 1 c 453 161 454 1269 bf black
 gsave  2268 1077 0 461 C 566.929 1371.71 t 0 r /Helvetica-Bold findfont 48.9324 sf 0 0 m (MC15) show NC gr  510 1390 m20
 gsave  2268 1077 0 461 C 566.929 1293.51 t 0 r /Helvetica-Bold findfont 48.9324 sf 0 0 m (Projection of Signal pdf) show NC gr  0 0 1 c 9 lw 471 1309 m 79 X s black 3 lw 1 1 1 c 2268 461 0 0 bf black 1 1 1 c 1791 364 363 74 bf black 1791 364 363 74
 bl 363 74 m 1791 X s
 gsave  2268 461 0 0 C 1915.83 13.0329 t 0 r /Helvetica findfont 22.9045 sf 0 0 m (4l Invariant Mass \(GeV\)) show NC gr  363 85 m -11 Y s 404 79 m -5 Y s 445 79 m -5 Y s 486 79 m -5 Y s 528 79 m -5 Y s 569 85 m -11 Y s 610 79 m -5 Y s 651 79 m -5 Y
 s 692 79 m -5 Y s 733 79 m -5 Y s 775 85 m -11 Y s 816 79 m -5 Y s 857 79 m -5 Y s 898 79 m -5 Y s 939 79 m -5 Y s 981 85 m -11 Y s 1022 79 m -5 Y s 1063 79 m -5 Y s 1104 79 m -5 Y s 1145 79 m -5 Y s 1187 85 m -11 Y s 1228 79 m -5 Y s 1269 79 m -5 Y
 s 1310 79 m -5 Y s 1351 79 m -5 Y s 1392 85 m -11 Y s 1434 79 m -5 Y s 1475 79 m -5 Y s 1516 79 m -5 Y s 1557 79 m -5 Y s 1598 85 m -11 Y s 1640 79 m -5 Y s 1681 79 m -5 Y s 1722 79 m -5 Y s 1763 79 m -5 Y s 1804 85 m -11 Y s 1845 79 m -5 Y s 1887
 79 m -5 Y s 1928 79 m -5 Y s 1969 79 m -5 Y s 2010 85 m -11 Y s 2010 85 m -11 Y s 2051 79 m -5 Y s 2093 79 m -5 Y s 2134 79 m -5 Y s
 gsave  2268 461 0 0 C 342.112 55.3896 t 0 r /Helvetica findfont 22.9045 sf 0 0 m (940) show NC gr 
 gsave  2268 461 0 0 C 547.38 55.3896 t 0 r /Helvetica findfont 22.9045 sf 0 0 m (950) show NC gr 
 gsave  2268 461 0 0 C 752.647 55.3896 t 0 r /Helvetica findfont 22.9045 sf 0 0 m (960) show NC gr 
 gsave  2268 461 0 0 C 957.915 55.3896 t 0 r /Helvetica findfont 22.9045 sf 0 0 m (970) show NC gr 
 gsave  2268 461 0 0 C 1166.44 55.3896 t 0 r /Helvetica findfont 22.9045 sf 0 0 m (980) show NC gr 
 gsave  2268 461 0 0 C 1371.71 55.3896 t 0 r /Helvetica findfont 22.9045 sf 0 0 m (990) show NC gr 
 gsave  2268 461 0 0 C 1570.46 55.3896 t 0 r /Helvetica findfont 22.9045 sf 0 0 m (1000) show NC gr 
 gsave  2268 461 0 0 C 1775.73 55.3896 t 0 r /Helvetica findfont 22.9045 sf 0 0 m (1010) show NC gr 
 gsave  2268 461 0 0 C 1980.99 55.3896 t 0 r /Helvetica findfont 22.9045 sf 0 0 m (1020) show NC gr  363 438 m 1791 X s 363 427 m 11 Y s 404 433 m 5 Y s 445 433 m 5 Y s 486 433 m 5 Y s 528 433 m 5 Y s 569 427 m 11 Y s 610 433 m 5 Y s 651 433 m 5 Y s
 692 433 m 5 Y s 733 433 m 5 Y s 775 427 m 11 Y s 816 433 m 5 Y s 857 433 m 5 Y s 898 433 m 5 Y s 939 433 m 5 Y s 981 427 m 11 Y s 1022 433 m 5 Y s 1063 433 m 5 Y s 1104 433 m 5 Y s 1145 433 m 5 Y s 1187 427 m 11 Y s 1228 433 m 5 Y s 1269 433 m 5 Y s
 1310 433 m 5 Y s 1351 433 m 5 Y s 1392 427 m 11 Y s 1434 433 m 5 Y s 1475 433 m 5 Y s 1516 433 m 5 Y s 1557 433 m 5 Y s 1598 427 m 11 Y s 1640 433 m 5 Y s 1681 433 m 5 Y s 1722 433 m 5 Y s 1763 433 m 5 Y s 1804 427 m 11 Y s 1845 433 m 5 Y s 1887 433
 m 5 Y s 1928 433 m 5 Y s 1969 433 m 5 Y s 2010 427 m 11 Y s 2010 427 m 11 Y s 2051 433 m 5 Y s 2093 433 m 5 Y s 2134 433 m 5 Y s 363 74 m 364 Y s 417 74 m -54 X s 390 81 m -27 X s 390 88 m -27 X s 390 96 m -27 X s 390 103 m -27 X s 417 110 m -54 X s
 390 118 m -27 X s 390 125 m -27 X s 390 132 m -27 X s 390 139 m -27 X s 417 147 m -54 X s 390 154 m -27 X s 390 161 m -27 X s 390 169 m -27 X s 390 176 m -27 X s 417 183 m -54 X s 390 190 m -27 X s 390 198 m -27 X s 390 205 m -27 X s 390 212 m -27 X
 s 417 220 m -54 X s 390 227 m -27 X s 390 234 m -27 X s 390 241 m -27 X s 390 249 m -27 X s 417 256 m -54 X s 390 263 m -27 X s 390 271 m -27 X s 390 278 m -27 X s 390 285 m -27 X s 417 293 m -54 X s 390 300 m -27 X s 390 307 m -27 X s 390 314 m -27
 X s 390 322 m -27 X s 417 329 m -54 X s 390 336 m -27 X s 390 344 m -27 X s 390 351 m -27 X s 390 358 m -27 X s 417 365 m -54 X s 390 373 m -27 X s 390 380 m -27 X s 390 387 m -27 X s 390 395 m -27 X s 417 402 m -54 X s 390 409 m -27 X s 390 416 m
 -27 X s 390 424 m -27 X s 390 431 m -27 X s 417 438 m -54 X s
 gsave  2268 461 0 0 C 329.08 65.1643 t 0 r /Helvetica findfont 22.9045 sf 0 0 m (\2555) show NC gr 
 gsave  2268 461 0 0 C 329.08 101.005 t 0 r /Helvetica findfont 22.9045 sf 0 0 m (\2554) show NC gr 
 gsave  2268 461 0 0 C 329.08 140.103 t 0 r /Helvetica findfont 22.9045 sf 0 0 m (\2553) show NC gr 
 gsave  2268 461 0 0 C 329.08 175.944 t 0 r /Helvetica findfont 22.9045 sf 0 0 m (\2552) show NC gr 
 gsave  2268 461 0 0 C 332.338 211.784 t 0 r /Helvetica findfont 22.9045 sf 0 0 m (\2551) show NC gr 
 gsave  2268 461 0 0 C 335.596 247.624 t 0 r /Helvetica findfont 22.9045 sf 0 0 m (0) show NC gr 
 gsave  2268 461 0 0 C 338.854 283.465 t 0 r /Helvetica findfont 22.9045 sf 0 0 m (1) show NC gr 
 gsave  2268 461 0 0 C 335.596 319.305 t 0 r /Helvetica findfont 22.9045 sf 0 0 m (2) show NC gr 
 gsave  2268 461 0 0 C 335.596 358.403 t 0 r /Helvetica findfont 22.9045 sf 0 0 m (3) show NC gr 
 gsave  2268 461 0 0 C 335.596 394.244 t 0 r /Helvetica findfont 22.9045 sf 0 0 m (4) show NC gr 
 gsave  2268 461 0 0 C 335.596 430.084 t 0 r /Helvetica findfont 22.9045 sf 0 0 m (5) show NC gr  2154 74 m 364 Y s 2101 74 m 53 X s 2127 81 m 27 X s 2127 88 m 27 X s 2127 96 m 27 X s 2127 103 m 27 X s 2101 110 m 53 X s 2127 118 m 27 X s 2127 125 m
 27 X s 2127 132 m 27 X s 2127 139 m 27 X s 2101 147 m 53 X s 2127 154 m 27 X s 2127 161 m 27 X s 2127 169 m 27 X s 2127 176 m 27 X s 2101 183 m 53 X s 2127 190 m 27 X s 2127 198 m 27 X s 2127 205 m 27 X s 2127 212 m 27 X s 2101 220 m 53 X s 2127 227
 m 27 X s 2127 234 m 27 X s 2127 241 m 27 X s 2127 249 m 27 X s 2101 256 m 53 X s 2127 263 m 27 X s 2127 271 m 27 X s 2127 278 m 27 X s 2127 285 m 27 X s 2101 293 m 53 X s 2127 300 m 27 X s 2127 307 m 27 X s 2127 314 m 27 X s 2127 322 m 27 X s 2101
 329 m 53 X s 2127 336 m 27 X s 2127 344 m 27 X s 2127 351 m 27 X s 2127 358 m 27 X s 2101 365 m 53 X s 2127 373 m 27 X s 2127 380 m 27 X s 2127 387 m 27 X s 2127 395 m 27 X s 2101 402 m 53 X s 2127 409 m 27 X s 2127 416 m 27 X s 2127 424 m 27 X s
 2127 431 m 27 X s 2101 438 m 53 X s 6 lw 0.2 0.8 0.2 c black 3 lw 0.2 0.8 0.2 c 363 256 m -32 Y 36 X 10 Y 35 X 32 Y 36 X -100 Y 36 X 113 Y 36 X -19 Y 36 X 27 Y 36 X -39 Y 35 X -17 Y 36 X 60 Y 36 X -91 Y 36 X 51 Y 36 X 14 Y 36 X -48 Y 35 X 48 Y 36 X
 -33 Y 36 X 19 Y 36 X -18 Y 36 X 53 Y 36 X -63 Y 35 X 43 Y 36 X -66 Y 36 X 93 Y 36 X 50 Y 36 X -70 Y 36 X 32 Y 35 X -1 Y 36 X -1 Y 72 X -106 Y 36 X 32 Y 36 X -23 Y 35 X 40 Y 36 X -47 Y 36 X 70 Y 36 X -19 Y 72 X 48 Y 35 X -35 Y 36 X 41 Y 36 X -99 Y 36
 X 67 Y 36 X -24 Y 36 X -14 Y 35 X 78 Y 36 X -49 Y 36 X 48 Y 36 X -29 Y 36 X -43 Y 36 X 50 Y 35 X -33 Y f 6 lw black 0.2 0.8 0.2 c black 363 224 m 36 X 10 Y 35 X 32 Y 36 X -100 Y 36 X 113 Y 36 X -19 Y 36 X 27 Y 36 X -39 Y 35 X -17 Y 36 X 60 Y 36 X
 -91 Y 36 X 51 Y 36 X 14 Y 36 X -48 Y 35 X 48 Y 36 X -33 Y 36 X 19 Y 36 X -18 Y 36 X 53 Y 36 X -63 Y 35 X 43 Y 36 X -66 Y 36 X 93 Y 36 X 50 Y 36 X -70 Y 36 X 32 Y 35 X -1 Y 36 X -1 Y 72 X -106 Y 36 X 32 Y 36 X -23 Y 35 X 40 Y 36 X -47 Y 36 X 70 Y 36
 X -19 Y 72 X 48 Y 35 X -35 Y 36 X 41 Y 36 X -99 Y 36 X 67 Y 36 X -24 Y 36 X -14 Y 35 X 78 Y 36 X -49 Y 36 X 48 Y 36 X -29 Y 36 X -43 Y 36 X 50 Y 35 X s 3 lw 363 74 m 1791 X s 363 85 m -11 Y s 404 79 m -5 Y s 445 79 m -5 Y s 486 79 m -5 Y s 528 79 m
 -5 Y s 569 85 m -11 Y s 610 79 m -5 Y s 651 79 m -5 Y s 692 79 m -5 Y s 733 79 m -5 Y s 775 85 m -11 Y s 816 79 m -5 Y s 857 79 m -5 Y s 898 79 m -5 Y s 939 79 m -5 Y s 981 85 m -11 Y s 1022 79 m -5 Y s 1063 79 m -5 Y s 1104 79 m -5 Y s 1145 79 m -5
 Y s 1187 85 m -11 Y s 1228 79 m -5 Y s 1269 79 m -5 Y s 1310 79 m -5 Y s 1351 79 m -5 Y s 1392 85 m -11 Y s 1434 79 m -5 Y s 1475 79 m -5 Y s 1516 79 m -5 Y s 1557 79 m -5 Y s 1598 85 m -11 Y s 1640 79 m -5 Y s 1681 79 m -5 Y s 1722 79 m -5 Y s 1763
 79 m -5 Y s 1804 85 m -11 Y s 1845 79 m -5 Y s 1887 79 m -5 Y s 1928 79 m -5 Y s 1969 79 m -5 Y s 2010 85 m -11 Y s 2010 85 m -11 Y s 2051 79 m -5 Y s 2093 79 m -5 Y s 2134 79 m -5 Y s 363 438 m 1791 X s 363 427 m 11 Y s 404 433 m 5 Y s 445 433 m 5
 Y s 486 433 m 5 Y s 528 433 m 5 Y s 569 427 m 11 Y s 610 433 m 5 Y s 651 433 m 5 Y s 692 433 m 5 Y s 733 433 m 5 Y s 775 427 m 11 Y s 816 433 m 5 Y s 857 433 m 5 Y s 898 433 m 5 Y s 939 433 m 5 Y s 981 427 m 11 Y s 1022 433 m 5 Y s 1063 433 m 5 Y s
 1104 433 m 5 Y s 1145 433 m 5 Y s 1187 427 m 11 Y s 1228 433 m 5 Y s 1269 433 m 5 Y s 1310 433 m 5 Y s 1351 433 m 5 Y s 1392 427 m 11 Y s 1434 433 m 5 Y s 1475 433 m 5 Y s 1516 433 m 5 Y s 1557 433 m 5 Y s 1598 427 m 11 Y s 1640 433 m 5 Y s 1681 433
 m 5 Y s 1722 433 m 5 Y s 1763 433 m 5 Y s 1804 427 m 11 Y s 1845 433 m 5 Y s 1887 433 m 5 Y s 1928 433 m 5 Y s 1969 433 m 5 Y s 2010 427 m 11 Y s 2010 427 m 11 Y s 2051 433 m 5 Y s 2093 433 m 5 Y s 2134 433 m 5 Y s 363 74 m 364 Y s 417 74 m -54 X s
 390 81 m -27 X s 390 88 m -27 X s 390 96 m -27 X s 390 103 m -27 X s 417 110 m -54 X s 390 118 m -27 X s 390 125 m -27 X s 390 132 m -27 X s 390 139 m -27 X s 417 147 m -54 X s 390 154 m -27 X s 390 161 m -27 X s 390 169 m -27 X s 390 176 m -27 X s
 417 183 m -54 X s 390 190 m -27 X s 390 198 m -27 X s 390 205 m -27 X s 390 212 m -27 X s 417 220 m -54 X s 390 227 m -27 X s 390 234 m -27 X s 390 241 m -27 X s 390 249 m -27 X s 417 256 m -54 X s 390 263 m -27 X s 390 271 m -27 X s 390 278 m -27 X
 s 390 285 m -27 X s 417 293 m -54 X s 390 300 m -27 X s 390 307 m -27 X s 390 314 m -27 X s 390 322 m -27 X s 417 329 m -54 X s 390 336 m -27 X s 390 344 m -27 X s 390 351 m -27 X s 390 358 m -27 X s 417 365 m -54 X s 390 373 m -27 X s 390 380 m -27
 X s 390 387 m -27 X s 390 395 m -27 X s 417 402 m -54 X s 390 409 m -27 X s 390 416 m -27 X s 390 424 m -27 X s 390 431 m -27 X s 417 438 m -54 X s 2154 74 m 364 Y s 2101 74 m 53 X s 2127 81 m 27 X s 2127 88 m 27 X s 2127 96 m 27 X s 2127 103 m 27 X
 s 2101 110 m 53 X s 2127 118 m 27 X s 2127 125 m 27 X s 2127 132 m 27 X s 2127 139 m 27 X s 2101 147 m 53 X s 2127 154 m 27 X s 2127 161 m 27 X s 2127 169 m 27 X s 2127 176 m 27 X s 2101 183 m 53 X s 2127 190 m 27 X s 2127 198 m 27 X s 2127 205 m 27
 X s 2127 212 m 27 X s 2101 220 m 53 X s 2127 227 m 27 X s 2127 234 m 27 X s 2127 241 m 27 X s 2127 249 m 27 X s 2101 256 m 53 X s 2127 263 m 27 X s 2127 271 m 27 X s 2127 278 m 27 X s 2127 285 m 27 X s 2101 293 m 53 X s 2127 300 m 27 X s 2127 307 m
 27 X s 2127 314 m 27 X s 2127 322 m 27 X s 2101 329 m 53 X s 2127 336 m 27 X s 2127 344 m 27 X s 2127 351 m 27 X s 2127 358 m 27 X s 2101 365 m 53 X s 2127 373 m 27 X s 2127 380 m 27 X s 2127 387 m 27 X s 2127 395 m 27 X s 2101 402 m 53 X s 2127 409
 m 27 X s 2127 416 m 27 X s 2127 424 m 27 X s 2127 431 m 27 X s 2101 438 m 53 X s
 gr  gr showpage
end
%%EOF
