%!PS-Adobe-2.0 EPSF-2.0
%%BoundingBox:  0 0 567 384
%%Title: H4l2015_plotfit/gg_mass_signal_400_H4l_4e.eps: 
%%Creator: ROOT Version 5.34/10
%%CreationDate: Thu Feb 16 13:49:26 2017
%%EndComments
%%BeginProlog
80 dict begin
/s {stroke} def /l {lineto} def /m {moveto} def /t {translate} def
/r {rotate} def /rl {roll}  def /R {repeat} def
/d {rlineto} def /rm {rmoveto} def /gr {grestore} def /f {eofill} def
/c {setrgbcolor} def /black {0 setgray} def /sd {setdash} def
/cl {closepath} def /sf {scalefont setfont} def /lw {setlinewidth} def
/box {m dup 0 exch d exch 0 d 0 exch neg d cl} def
/NC{systemdict begin initclip end}def/C{NC box clip newpath}def
/bl {box s} def /bf {box f} def /Y { 0 exch d} def /X { 0 d} def 
/K {{pop pop 0 moveto} exch kshow} bind def
/ita {/ang 15 def gsave [1 0 ang dup sin exch cos div 1 0 0] concat} def 
/mp {newpath /y exch def /x exch def} def
/side {[w .77 mul w .23 mul] .385 w mul sd w 0 l currentpoint t -144 r} def
/mr {mp x y w2 0 360 arc} def /m24 {mr s} def /m20 {mr f} def
/mb {mp x y w2 add m w2 neg 0 d 0 w neg d w 0 d 0 w d cl} def
/mt {mp x y w2 add m w2 neg w neg d w 0 d cl} def
/m21 {mb f} def /m25 {mb s} def /m22 {mt f} def /m26{mt s} def
/m23 {mp x y w2 sub m w2 w d w neg 0 d cl f} def
/m27 {mp x y w2 add m w3 neg w2 neg d w3 w2 neg d w3 w2 d cl s} def
/m28 {mp x w2 sub y w2 sub w3 add m w3 0 d  0 w3 neg d w3 0 d 0 w3 d w3 0 d  0 w3 d w3 neg 0 d 0 w3 d w3 neg 0 d 0 w3 neg d w3 neg 0 d cl s } def
/m29 {mp gsave x w2 sub y w2 add w3 sub m currentpoint t 4 {side} repeat cl fill gr} def
/m30 {mp gsave x w2 sub y w2 add w3 sub m currentpoint t 4 {side} repeat cl s gr} def
/m31 {mp x y w2 sub m 0 w d x w2 sub y m w 0 d x w2 sub y w2 add m w w neg d x w2 sub y w2 sub m w w d s} def
/m32 {mp x y w2 sub m w2 w d w neg 0 d cl s} def
/m33 {mp x y w2 add m w3 neg w2 neg d w3 w2 neg d w3 w2 d cl f} def
/m34 {mp x w2 sub y w2 sub w3 add m w3 0 d  0 w3 neg d w3 0 d 0 w3 d w3 0 d  0 w3 d w3 neg 0 d 0 w3 d w3 neg 0 d 0 w3 neg d w3 neg 0 d cl f } def
/m2 {mp x y w2 sub m 0 w d x w2 sub y m w 0 d s} def
/m5 {mp x w2 sub y w2 sub m w w d x w2 sub y w2 add m w w neg d s} def
/reEncode {exch findfont dup length dict begin {1 index /FID eq  {pop pop} {def} ifelse } forall /Encoding exch def currentdict end dup /FontName get exch definefont pop } def [/Times-Bold /Times-Italic /Times-BoldItalic /Helvetica /Helvetica-Oblique
 /Helvetica-Bold /Helvetica-BoldOblique /Courier /Courier-Oblique /Courier-Bold /Courier-BoldOblique /Times-Roman /AvantGarde-Book /AvantGarde-BookOblique /AvantGarde-Demi /AvantGarde-DemiOblique /Bookman-Demi /Bookman-DemiItalic /Bookman-Light
 /Bookman-LightItalic /Helvetica-Narrow /Helvetica-Narrow-Bold /Helvetica-Narrow-BoldOblique /Helvetica-Narrow-Oblique /NewCenturySchlbk-Roman /NewCenturySchlbk-Bold /NewCenturySchlbk-BoldItalic /NewCenturySchlbk-Italic /Palatino-Bold
 /Palatino-BoldItalic /Palatino-Italic /Palatino-Roman ] {ISOLatin1Encoding reEncode } forall
%%EndProlog
%%BeginSetup
%%EndSetup
newpath  gsave  .25 .25 scale  gsave  0 0 t black[  ] 0 sd 3 lw 1 1 1 c 2268 1538 0 0 bf black 1 1 1 c 2222 738 23 784 bf black 1 1 1 c 2222 739 23 15 bf black 1 1 1 c 2268 1077 0 461 bf black 1 1 1 c 1791 850 363 634 bf black 1791 850 363 634 bl 363
 634 m 1791 X s
 gsave  2268 1077 0 461 C 1642.14 498.507 t 0 r /Helvetica findfont 48.9324 sf 0 0 m (4l Invariant Mass \(GeV\)) show NC gr  363 659 m -25 Y s 429 646 m -12 Y s 496 646 m -12 Y s 562 646 m -12 Y s 628 646 m -12 Y s 695 659 m -25 Y s 761 646 m -12 Y s
 827 646 m -12 Y s 894 646 m -12 Y s 960 646 m -12 Y s 1026 659 m -25 Y s 1093 646 m -12 Y s 1159 646 m -12 Y s 1225 646 m -12 Y s 1292 646 m -12 Y s 1358 659 m -25 Y s 1424 646 m -12 Y s 1491 646 m -12 Y s 1557 646 m -12 Y s 1624 646 m -12 Y s 1690
 659 m -25 Y s 1756 646 m -12 Y s 1823 646 m -12 Y s 1889 646 m -12 Y s 1955 646 m -12 Y s 2022 659 m -25 Y s 2022 659 m -25 Y s 2088 646 m -12 Y s 2154 646 m -12 Y s
 gsave  2268 1077 0 461 C 319.305 586.478 t 0 r /Helvetica findfont 48.9324 sf 0 0 m (360) show NC gr 
 gsave  2268 1077 0 461 C 651.643 586.478 t 0 r /Helvetica findfont 48.9324 sf 0 0 m (370) show NC gr 
 gsave  2268 1077 0 461 C 983.98 586.478 t 0 r /Helvetica findfont 48.9324 sf 0 0 m (380) show NC gr 
 gsave  2268 1077 0 461 C 1313.06 586.478 t 0 r /Helvetica findfont 48.9324 sf 0 0 m (390) show NC gr 
 gsave  2268 1077 0 461 C 1645.4 586.478 t 0 r /Helvetica findfont 48.9324 sf 0 0 m (400) show NC gr 
 gsave  2268 1077 0 461 C 1977.74 586.478 t 0 r /Helvetica findfont 48.9324 sf 0 0 m (410) show NC gr  363 1484 m 1791 X s 363 1459 m 25 Y s 429 1471 m 13 Y s 496 1471 m 13 Y s 562 1471 m 13 Y s 628 1471 m 13 Y s 695 1459 m 25 Y s 761 1471 m 13 Y s
 827 1471 m 13 Y s 894 1471 m 13 Y s 960 1471 m 13 Y s 1026 1459 m 25 Y s 1093 1471 m 13 Y s 1159 1471 m 13 Y s 1225 1471 m 13 Y s 1292 1471 m 13 Y s 1358 1459 m 25 Y s 1424 1471 m 13 Y s 1491 1471 m 13 Y s 1557 1471 m 13 Y s 1624 1471 m 13 Y s 1690
 1459 m 25 Y s 1756 1471 m 13 Y s 1823 1471 m 13 Y s 1889 1471 m 13 Y s 1955 1471 m 13 Y s 2022 1459 m 25 Y s 2022 1459 m 25 Y s 2088 1471 m 13 Y s 2154 1471 m 13 Y s 363 634 m 850 Y s
 gsave  2268 1077 0 461 C 120.554 1032.85 t 90 r /Helvetica findfont 48.9324 sf 0 0 m (Events / \( 1.08 GeV \)) show NC gr  390 680 m -27 X s 390 734 m -27 X s 390 772 m -27 X s 390 802 m -27 X s 390 826 m -27 X s 390 846 m -27 X s 390 864 m -27 X s
 390 880 m -27 X s 417 894 m -54 X s
 gsave  2268 1077 0 461 C 342.425 872.999 t 0 r  -55 0 t /Helvetica findfont 48.9324 sf 0 0 m (10) show NC gr  390 986 m -27 X s 390 1040 m -27 X s 390 1078 m -27 X s 390 1108 m -27 X s 390 1132 m -27 X s 390 1153 m -27 X s 390 1170 m -27 X s 390
 1186 m -27 X s 417 1200 m -54 X s
 gsave  2268 1077 0 461 C 322.563 1199.02 t 0 r /Helvetica findfont 32.6216 sf 0 0 m (2) show NC gr 
 gsave  2268 1077 0 461 C 270.432 1179.47 t 0 r /Helvetica findfont 48.9324 sf 0 0 m (10) show NC gr  390 1292 m -27 X s 390 1346 m -27 X s 390 1384 m -27 X s 390 1414 m -27 X s 390 1438 m -27 X s 390 1459 m -27 X s 390 1476 m -27 X s 2154 634 m 850
 Y s 2127 680 m 27 X s 2127 734 m 27 X s 2127 772 m 27 X s 2127 802 m 27 X s 2127 826 m 27 X s 2127 846 m 27 X s 2127 864 m 27 X s 2127 880 m 27 X s 2101 894 m 53 X s 2127 986 m 27 X s 2127 1040 m 27 X s 2127 1078 m 27 X s 2127 1108 m 27 X s 2127
 1132 m 27 X s 2127 1153 m 27 X s 2127 1170 m 27 X s 2127 1186 m 27 X s 2101 1200 m 53 X s 2127 1292 m 27 X s 2127 1346 m 27 X s 2127 1384 m 27 X s 2127 1414 m 27 X s 2127 1438 m 27 X s 2127 1459 m 27 X s 2127 1476 m 27 X s 381 680 m -18 X s 363 680
 m cl s 381 680 m 18 X s 399 680 m cl s 381 680 m 112 Y s 381 792 m cl s 381 680 m -46 Y s 381 634 m cl s 417 734 m -18 X s 399 734 m cl s 417 734 m 17 X s 434 734 m cl s 417 734 m 90 Y s 417 824 m cl s 417 734 m -100 Y s 417 634 m cl s 452 802 m -18
 X s 434 802 m cl s 452 802 m 18 X s 470 802 m cl s 452 802 m 68 Y s 452 870 m cl s 452 802 m -75 Y s 452 727 m cl s 488 734 m -18 X s 470 734 m cl s 488 734 m 18 X s 506 734 m cl s 488 734 m 90 Y s 488 824 m cl s 488 734 m -100 Y s 488 634 m cl s
 524 772 m -18 X s 506 772 m cl s 524 772 m 18 X s 542 772 m cl s 524 772 m 77 Y s 524 849 m cl s 524 772 m -87 Y s 524 685 m cl s 560 680 m -18 X s 542 680 m cl s 560 680 m 18 X s 578 680 m cl s 560 680 m 112 Y s 560 792 m cl s 560 680 m -46 Y s 560
 634 m cl s 596 864 m -18 X s 578 864 m cl s 596 864 m 18 X s 614 864 m cl s 596 864 m 53 Y s 596 917 m cl s 596 864 m -56 Y s 596 808 m cl s 632 734 m -18 X s 614 734 m cl s 632 734 m 17 X s 649 734 m cl s 632 734 m 90 Y s 632 824 m cl s 632 734 m
 -100 Y s 632 634 m cl s 667 846 m -18 X s 649 846 m cl s 667 846 m 18 X s 685 846 m cl s 667 846 m 58 Y s 667 904 m cl s 667 846 m -61 Y s 667 785 m cl s 703 864 m -18 X s 685 864 m cl s 703 864 m 18 X s 721 864 m cl s 703 864 m 53 Y s 703 917 m cl
 s 703 864 m -56 Y s 703 808 m cl s 739 802 m -18 X s 721 802 m cl s 739 802 m 18 X s 757 802 m cl s 739 802 m 68 Y s 739 870 m cl s 739 802 m -75 Y s 739 727 m cl s 775 826 m -18 X s 757 826 m cl s 775 826 m 18 X s 793 826 m cl s 775 826 m 62 Y s
 775 888 m cl s 775 826 m -67 Y s 775 759 m cl s 811 826 m -18 X s 793 826 m cl s 811 826 m 18 X s 829 826 m cl s 811 826 m 62 Y s 811 888 m cl s 811 826 m -67 Y s 811 759 m cl s 847 880 m -18 X s 829 880 m cl s 847 880 m 17 X s 864 880 m cl s 847
 880 m 50 Y s 847 930 m cl s 847 880 m -53 Y s 847 827 m cl s 882 939 m -18 X s 864 939 m cl s 882 939 m 18 X s 900 939 m cl s 882 939 m 39 Y s 882 978 m cl s 882 939 m -41 Y s 882 898 m cl s 918 929 m -18 X s 900 929 m cl s 918 929 m 18 X s 936 929
 m cl s 918 929 m 41 Y s 918 970 m cl s 918 929 m -43 Y s 918 886 m cl s 954 948 m -18 X s 936 948 m cl s 954 948 m 18 X s 972 948 m cl s 954 948 m 38 Y s 954 986 m cl s 954 948 m -39 Y s 954 909 m cl s 990 964 m -18 X s 972 964 m cl s 990 964 m 18 X
 s 1008 964 m cl s 990 964 m 36 Y s 990 1000 m cl s 990 964 m -36 Y s 990 928 m cl s 1026 979 m -18 X s 1008 979 m cl s 1026 979 m 18 X s 1044 979 m cl s 1026 979 m 34 Y s 1026 1013 m cl s 1026 979 m -34 Y s 1026 945 m cl s 1062 1005 m -18 X s 1044
 1005 m cl s 1062 1005 m 17 X s 1079 1005 m cl s 1062 1005 m 30 Y s 1062 1035 m cl s 1062 1005 m -31 Y s 1062 974 m cl s 1097 1044 m -18 X s 1079 1044 m cl s 1097 1044 m 18 X s 1115 1044 m cl s 1097 1044 m 26 Y s 1097 1070 m cl s 1097 1044 m -26 Y s
 1097 1018 m cl s 1133 1026 m -18 X s 1115 1026 m cl s 1133 1026 m 18 X s 1151 1026 m cl s 1133 1026 m 28 Y s 1133 1054 m cl s 1133 1026 m -28 Y s 1133 998 m cl s 1169 1040 m -18 X s 1151 1040 m cl s 1169 1040 m 18 X s 1187 1040 m cl s 1169 1040 m 26
 Y s 1169 1066 m cl s 1169 1040 m -27 Y s 1169 1013 m cl s 1205 1108 m -18 X s 1187 1108 m cl s 1205 1108 m 18 X s 1223 1108 m cl s 1205 1108 m 20 Y s 1205 1128 m cl s 1205 1108 m -20 Y s 1205 1088 m cl s 1241 1136 m -18 X s 1223 1136 m cl s 1241
 1136 m 18 X s 1259 1136 m cl s 1241 1136 m 18 Y s 1241 1154 m cl s 1241 1136 m -18 Y s 1241 1118 m cl s 1276 1125 m -17 X s 1259 1125 m cl s 1276 1125 m 18 X s 1294 1125 m cl s 1276 1125 m 19 Y s 1276 1144 m cl s 1276 1125 m -19 Y s 1276 1106 m cl s
 1312 1170 m -18 X s 1294 1170 m cl s 1312 1170 m 18 X s 1330 1170 m cl s 1312 1170 m 16 Y s 1312 1186 m cl s 1312 1170 m -15 Y s 1312 1155 m cl s 1348 1192 m -18 X s 1330 1192 m cl s 1348 1192 m 18 X s 1366 1192 m cl s 1348 1192 m 14 Y s 1348 1206 m
 cl s 1348 1192 m -15 Y s 1348 1177 m cl s 1384 1222 m -18 X s 1366 1222 m cl s 1384 1222 m 18 X s 1402 1222 m cl s 1384 1222 m 12 Y s 1384 1234 m cl s 1384 1222 m -12 Y s 1384 1210 m cl s 1420 1276 m -18 X s 1402 1276 m cl s 1420 1276 m 18 X s 1438
 1276 m cl s 1420 1276 m 10 Y s 1420 1286 m cl s 1420 1276 m -10 Y s 1420 1266 m cl s 1456 1299 m -18 X s 1438 1299 m cl s 1456 1299 m 18 X s 1474 1299 m cl s 1456 1299 m 9 Y s 1456 1308 m cl s 1456 1299 m -9 Y s 1456 1290 m cl s 1491 1325 m -17 X s
 1474 1325 m cl s 1491 1325 m 18 X s 1509 1325 m cl s 1491 1325 m 8 Y s 1491 1333 m cl s 1491 1325 m -8 Y s 1491 1317 m cl s 1527 1357 m -18 X s 1509 1357 m cl s 1527 1357 m 18 X s 1545 1357 m cl s 1527 1357 m 8 Y s 1527 1365 m cl s 1527 1357 m -7 Y
 s 1527 1350 m cl s 1563 1384 m -18 X s 1545 1384 m cl s 1563 1384 m 18 X s 1581 1384 m cl s 1563 1384 m 6 Y s 1563 1390 m cl s 1563 1384 m -7 Y s 1563 1377 m cl s 1599 1401 m -18 X s 1581 1401 m cl s 1599 1401 m 18 X s 1617 1401 m cl s 1599 1401 m 7
 Y s 1599 1408 m cl s 1599 1401 m -6 Y s 1599 1395 m cl s 1635 1415 m -18 X s 1617 1415 m cl s 1635 1415 m 18 X s 1653 1415 m cl s 1635 1415 m 6 Y s 1635 1421 m cl s 1635 1415 m -6 Y s 1635 1409 m cl s 1671 1405 m -18 X s 1653 1405 m cl s 1671 1405 m
 18 X s 1689 1405 m cl s 1671 1405 m 6 Y s 1671 1411 m cl s 1671 1405 m -7 Y s 1671 1398 m cl s 1706 1399 m -17 X s 1689 1399 m cl s 1706 1399 m 18 X s 1724 1399 m cl s 1706 1399 m 6 Y s 1706 1405 m cl s 1706 1399 m -7 Y s 1706 1392 m cl s 1742 1366
 m -18 X s 1724 1366 m cl s 1742 1366 m 18 X s 1760 1366 m cl s 1742 1366 m 7 Y s 1742 1373 m cl s 1742 1366 m -7 Y s 1742 1359 m cl s 1778 1344 m -18 X s 1760 1344 m cl s 1778 1344 m 18 X s 1796 1344 m cl s 1778 1344 m 8 Y s 1778 1352 m cl s 1778
 1344 m -7 Y s 1778 1337 m cl s 1814 1285 m -18 X s 1796 1285 m cl s 1814 1285 m 18 X s 1832 1285 m cl s 1814 1285 m 10 Y s 1814 1295 m cl s 1814 1285 m -9 Y s 1814 1276 m cl s 1850 1239 m -18 X s 1832 1239 m cl s 1850 1239 m 18 X s 1868 1239 m cl s
 1850 1239 m 11 Y s 1850 1250 m cl s 1850 1239 m -12 Y s 1850 1227 m cl s 1886 1163 m -18 X s 1868 1163 m cl s 1886 1163 m 18 X s 1904 1163 m cl s 1886 1163 m 17 Y s 1886 1180 m cl s 1886 1163 m -16 Y s 1886 1147 m cl s 1921 1094 m -17 X s 1904 1094
 m cl s 1921 1094 m 18 X s 1939 1094 m cl s 1921 1094 m 21 Y s 1921 1115 m cl s 1921 1094 m -22 Y s 1921 1072 m cl s 1957 1088 m -18 X s 1939 1088 m cl s 1957 1088 m 18 X s 1975 1088 m cl s 1957 1088 m 21 Y s 1957 1109 m cl s 1957 1088 m -22 Y s 1957
 1066 m cl s 1993 948 m -18 X s 1975 948 m cl s 1993 948 m 18 X s 2011 948 m cl s 1993 948 m 38 Y s 1993 986 m cl s 1993 948 m -39 Y s 1993 909 m cl s 2029 972 m -18 X s 2011 972 m cl s 2029 972 m 18 X s 2047 972 m cl s 2029 972 m 34 Y s 2029 1006 m
 cl s 2029 972 m -35 Y s 2029 937 m cl s 2065 802 m -18 X s 2047 802 m cl s 2065 802 m 18 X s 2083 802 m cl s 2065 802 m 68 Y s 2065 870 m cl s 2065 802 m -75 Y s 2065 727 m cl s 2101 880 m -18 X s 2083 880 m cl s 2101 880 m 18 X s 2119 880 m cl s
 2101 880 m 50 Y s 2101 930 m cl s 2101 880 m -53 Y s 2101 827 m cl s 2136 826 m -17 X s 2119 826 m cl s 2136 826 m 18 X s 2154 826 m cl s 2136 826 m 62 Y s 2136 888 m cl s 2136 826 m -67 Y s 2136 759 m cl s /w 31 def /w2 {w 2 div} def /w3 {w 3 div}
 def 381 680 417 734 452 802 488 734 524 772 560 680 596 864 632 734 667 846 703 864 739 802 775 826 811 826 847 880 882 939 918 929 954 948 990 964 1026 979 1062 1005 1097 1044 1133 1026 1169 1040 1205 1108 1241 1136 1276 1125 1312 1170 1348 1192
 1384 1222 1420 1276 1456 1299 1491 1325 1527 1357 1563 1384 1599 1401 1635 1415 1671 1405 1706 1399 1742 1366 1778 1344 1814 1285 1850 1239 1886 1163 1921 1094 1957 1088 1993 948 2029 972 2065 802 2101 880 2136 826 50 { m20} R 0 1 1 c 1 1 0 c black
 1 1 0 c 363 800 m 36 7 d 35 7 d 36 7 d 36 8 d 36 7 d 36 8 d 36 9 d 35 8 d 36 9 d 36 9 d 36 10 d 36 10 d 36 11 d 35 12 d 36 13 d 36 13 d 36 16 d 36 16 d 36 18 d 35 19 d 36 20 d 36 22 d 36 22 d 36 24 d 36 25 d 35 28 d 36 29 d 18 15 d 18 14 d 18 15 d
 18 15 d 18 15 d 9 8 d 9 9 d 9 9 d 9 10 d 9 12 d 9 11 d 17 21 d 18 17 d 18 14 d 18 13 d 9 5 d 9 5 d 9 5 d 9 4 d 9 4 d 9 3 d 9 2 d 9 2 d 9 1 d 9 1 d 9 X 9 -1 d 9 -2 d 9 -2 d 9 -3 d 9 -3 d 8 -5 d 9 -5 d 9 -5 d 9 -6 d 18 -15 d 18 -16 d 18 -18 d 18 -20 d
 18 -21 d 18 -24 d 9 -13 d 9 -13 d 9 -13 d 9 -13 d 18 -28 d 18 -29 d 17 -29 d 18 -28 d 18 -27 d 18 -26 d 18 -25 d 18 -24 d 36 -46 d 36 -43 d 36 -41 d 35 -39 d -130 Y -35 74 d -36 63 d -36 57 d -36 58 d -18 29 d -18 30 d -18 31 d -18 31 d -18 31 d -17
 30 d -18 30 d -18 29 d -9 15 d -9 14 d -9 14 d -9 13 d -18 26 d -18 24 d -18 22 d -18 20 d -18 16 d -18 15 d -9 6 d -9 5 d -9 5 d -8 4 d -9 3 d -9 3 d -9 2 d -9 2 d -9 1 d -9 1 d -9 X -9 -1 d -9 -2 d -9 -2 d -9 -2 d -9 -4 d -9 -4 d -9 -6 d -9 -6 d
 -9 -6 d -18 -16 d -18 -19 d -18 -21 d -17 -21 d -9 -9 d -9 -8 d -9 -9 d -9 -9 d -9 -10 d -9 -9 d -18 -17 d -18 -17 d -18 -15 d -18 -15 d -18 -14 d -36 -26 d -35 -26 d -36 -27 d -36 -27 d -36 -26 d -36 -25 d -36 -22 d -35 -21 d -36 -19 d -36 -16 d
 -36 -16 d -36 -14 d -36 -13 d -35 -12 d -36 -12 d -36 -11 d -36 -11 d -36 -10 d -36 -10 d -35 -9 d -36 -9 d -36 -9 d -36 -8 d -36 -8 d -36 -8 d -35 -7 d -36 -8 d f 0 1 1 c 0 1 0 c black 0 1 0 c 363 790 m 36 7 d 35 7 d 36 8 d 36 7 d 36 8 d 36 8 d 36
 9 d 35 9 d 36 9 d 36 9 d 36 10 d 36 10 d 36 11 d 35 12 d 36 13 d 36 14 d 36 15 d 36 17 d 36 18 d 35 20 d 36 21 d 36 22 d 36 23 d 36 24 d 36 25 d 35 28 d 36 28 d 18 15 d 18 15 d 18 15 d 18 15 d 18 16 d 9 8 d 9 8 d 9 9 d 9 10 d 9 11 d 9 11 d 17 21 d
 18 17 d 18 16 d 18 13 d 9 6 d 9 5 d 9 5 d 9 4 d 9 4 d 9 3 d 9 2 d 9 2 d 9 1 d 9 1 d 9 -1 d 9 X 9 -2 d 9 -2 d 9 -3 d 9 -4 d 8 -4 d 9 -5 d 9 -6 d 9 -6 d 18 -14 d 18 -16 d 18 -18 d 18 -21 d 18 -22 d 18 -24 d 9 -13 d 9 -13 d 9 -14 d 9 -13 d 18 -29 d 18
 -28 d 17 -29 d 18 -29 d 18 -28 d 18 -27 d 18 -26 d 18 -25 d 36 -48 d 36 -44 d 36 -43 d 35 -42 d -73 Y -35 62 d -36 57 d -36 53 d -36 54 d -18 27 d -18 30 d -18 29 d -18 29 d -18 30 d -17 30 d -18 30 d -18 29 d -9 14 d -9 14 d -9 14 d -9 13 d -18 25
 d -18 24 d -18 21 d -18 19 d -18 17 d -18 14 d -9 6 d -9 5 d -9 5 d -8 4 d -9 4 d -9 3 d -9 2 d -9 2 d -9 1 d -18 X -9 -1 d -9 -2 d -9 -2 d -9 -3 d -9 -3 d -9 -5 d -9 -5 d -9 -5 d -9 -7 d -18 -15 d -18 -17 d -18 -20 d -17 -21 d -9 -10 d -9 -9 d -9
 -9 d -9 -9 d -9 -10 d -9 -8 d -18 -18 d -18 -16 d -18 -15 d -18 -14 d -18 -14 d -36 -27 d -35 -27 d -36 -26 d -36 -27 d -36 -25 d -36 -24 d -36 -22 d -35 -20 d -36 -18 d -36 -16 d -36 -15 d -36 -15 d -36 -13 d -35 -12 d -36 -11 d -36 -11 d -36 -11 d
 -36 -9 d -36 -10 d -35 -9 d -36 -9 d -36 -8 d -36 -8 d -36 -8 d -36 -8 d -35 -7 d -36 -7 d f 0 0 1 c 9 lw black 0 0 1 c 363 780 m 36 7 d 35 7 d 36 8 d 36 7 d 36 8 d 36 9 d 36 8 d 35 9 d 36 9 d 36 10 d 36 10 d 36 11 d 36 11 d 35 12 d 36 13 d 36 14 d
 36 15 d 36 17 d 36 18 d 35 20 d 36 21 d 36 23 d 36 24 d 36 25 d 36 26 d 35 27 d 36 28 d 18 14 d 18 15 d 18 15 d 18 16 d 18 16 d 9 9 d 9 9 d 9 9 d 9 9 d 9 10 d 9 10 d 17 21 d 18 19 d 18 17 d 18 14 d 9 6 d 9 5 d 9 5 d 9 5 d 9 3 d 9 3 d 9 2 d 9 2 d 9 1
 d 18 X 9 -1 d 9 -1 d 9 -3 d 9 -3 d 9 -3 d 8 -4 d 9 -5 d 9 -6 d 9 -6 d 18 -14 d 18 -16 d 18 -19 d 18 -21 d 18 -23 d 18 -25 d 9 -13 d 9 -13 d 9 -14 d 9 -14 d 18 -28 d 18 -29 d 17 -30 d 18 -29 d 18 -29 d 18 -28 d 18 -27 d 18 -27 d 36 -50 d 36 -48 d 36
 -49 d 35 -50 d s black 3 lw 381 680 m -18 X s 363 680 m cl s 381 680 m 18 X s 399 680 m cl s 381 680 m 112 Y s 381 792 m cl s 381 680 m -46 Y s 381 634 m cl s 417 734 m -18 X s 399 734 m cl s 417 734 m 17 X s 434 734 m cl s 417 734 m 90 Y s 417 824
 m cl s 417 734 m -100 Y s 417 634 m cl s 452 802 m -18 X s 434 802 m cl s 452 802 m 18 X s 470 802 m cl s 452 802 m 68 Y s 452 870 m cl s 452 802 m -75 Y s 452 727 m cl s 488 734 m -18 X s 470 734 m cl s 488 734 m 18 X s 506 734 m cl s 488 734 m 90
 Y s 488 824 m cl s 488 734 m -100 Y s 488 634 m cl s 524 772 m -18 X s 506 772 m cl s 524 772 m 18 X s 542 772 m cl s 524 772 m 77 Y s 524 849 m cl s 524 772 m -87 Y s 524 685 m cl s 560 680 m -18 X s 542 680 m cl s 560 680 m 18 X s 578 680 m cl s
 560 680 m 112 Y s 560 792 m cl s 560 680 m -46 Y s 560 634 m cl s 596 864 m -18 X s 578 864 m cl s 596 864 m 18 X s 614 864 m cl s 596 864 m 53 Y s 596 917 m cl s 596 864 m -56 Y s 596 808 m cl s 632 734 m -18 X s 614 734 m cl s 632 734 m 17 X s 649
 734 m cl s 632 734 m 90 Y s 632 824 m cl s 632 734 m -100 Y s 632 634 m cl s 667 846 m -18 X s 649 846 m cl s 667 846 m 18 X s 685 846 m cl s 667 846 m 58 Y s 667 904 m cl s 667 846 m -61 Y s 667 785 m cl s 703 864 m -18 X s 685 864 m cl s 703 864 m
 18 X s 721 864 m cl s 703 864 m 53 Y s 703 917 m cl s 703 864 m -56 Y s 703 808 m cl s 739 802 m -18 X s 721 802 m cl s 739 802 m 18 X s 757 802 m cl s 739 802 m 68 Y s 739 870 m cl s 739 802 m -75 Y s 739 727 m cl s 775 826 m -18 X s 757 826 m cl s
 775 826 m 18 X s 793 826 m cl s 775 826 m 62 Y s 775 888 m cl s 775 826 m -67 Y s 775 759 m cl s 811 826 m -18 X s 793 826 m cl s 811 826 m 18 X s 829 826 m cl s 811 826 m 62 Y s 811 888 m cl s 811 826 m -67 Y s 811 759 m cl s 847 880 m -18 X s 829
 880 m cl s 847 880 m 17 X s 864 880 m cl s 847 880 m 50 Y s 847 930 m cl s 847 880 m -53 Y s 847 827 m cl s 882 939 m -18 X s 864 939 m cl s 882 939 m 18 X s 900 939 m cl s 882 939 m 39 Y s 882 978 m cl s 882 939 m -41 Y s 882 898 m cl s 918 929 m
 -18 X s 900 929 m cl s 918 929 m 18 X s 936 929 m cl s 918 929 m 41 Y s 918 970 m cl s 918 929 m -43 Y s 918 886 m cl s 954 948 m -18 X s 936 948 m cl s 954 948 m 18 X s 972 948 m cl s 954 948 m 38 Y s 954 986 m cl s 954 948 m -39 Y s 954 909 m cl s
 990 964 m -18 X s 972 964 m cl s 990 964 m 18 X s 1008 964 m cl s 990 964 m 36 Y s 990 1000 m cl s 990 964 m -36 Y s 990 928 m cl s 1026 979 m -18 X s 1008 979 m cl s 1026 979 m 18 X s 1044 979 m cl s 1026 979 m 34 Y s 1026 1013 m cl s 1026 979 m
 -34 Y s 1026 945 m cl s 1062 1005 m -18 X s 1044 1005 m cl s 1062 1005 m 17 X s 1079 1005 m cl s 1062 1005 m 30 Y s 1062 1035 m cl s 1062 1005 m -31 Y s 1062 974 m cl s 1097 1044 m -18 X s 1079 1044 m cl s 1097 1044 m 18 X s 1115 1044 m cl s 1097
 1044 m 26 Y s 1097 1070 m cl s 1097 1044 m -26 Y s 1097 1018 m cl s 1133 1026 m -18 X s 1115 1026 m cl s 1133 1026 m 18 X s 1151 1026 m cl s 1133 1026 m 28 Y s 1133 1054 m cl s 1133 1026 m -28 Y s 1133 998 m cl s 1169 1040 m -18 X s 1151 1040 m cl s
 1169 1040 m 18 X s 1187 1040 m cl s 1169 1040 m 26 Y s 1169 1066 m cl s 1169 1040 m -27 Y s 1169 1013 m cl s 1205 1108 m -18 X s 1187 1108 m cl s 1205 1108 m 18 X s 1223 1108 m cl s 1205 1108 m 20 Y s 1205 1128 m cl s 1205 1108 m -20 Y s 1205 1088 m
 cl s 1241 1136 m -18 X s 1223 1136 m cl s 1241 1136 m 18 X s 1259 1136 m cl s 1241 1136 m 18 Y s 1241 1154 m cl s 1241 1136 m -18 Y s 1241 1118 m cl s 1276 1125 m -17 X s 1259 1125 m cl s 1276 1125 m 18 X s 1294 1125 m cl s 1276 1125 m 19 Y s 1276
 1144 m cl s 1276 1125 m -19 Y s 1276 1106 m cl s 1312 1170 m -18 X s 1294 1170 m cl s 1312 1170 m 18 X s 1330 1170 m cl s 1312 1170 m 16 Y s 1312 1186 m cl s 1312 1170 m -15 Y s 1312 1155 m cl s 1348 1192 m -18 X s 1330 1192 m cl s 1348 1192 m 18 X
 s 1366 1192 m cl s 1348 1192 m 14 Y s 1348 1206 m cl s 1348 1192 m -15 Y s 1348 1177 m cl s 1384 1222 m -18 X s 1366 1222 m cl s 1384 1222 m 18 X s 1402 1222 m cl s 1384 1222 m 12 Y s 1384 1234 m cl s 1384 1222 m -12 Y s 1384 1210 m cl s 1420 1276 m
 -18 X s 1402 1276 m cl s 1420 1276 m 18 X s 1438 1276 m cl s 1420 1276 m 10 Y s 1420 1286 m cl s 1420 1276 m -10 Y s 1420 1266 m cl s 1456 1299 m -18 X s 1438 1299 m cl s 1456 1299 m 18 X s 1474 1299 m cl s 1456 1299 m 9 Y s 1456 1308 m cl s 1456
 1299 m -9 Y s 1456 1290 m cl s 1491 1325 m -17 X s 1474 1325 m cl s 1491 1325 m 18 X s 1509 1325 m cl s 1491 1325 m 8 Y s 1491 1333 m cl s 1491 1325 m -8 Y s 1491 1317 m cl s 1527 1357 m -18 X s 1509 1357 m cl s 1527 1357 m 18 X s 1545 1357 m cl s
 1527 1357 m 8 Y s 1527 1365 m cl s 1527 1357 m -7 Y s 1527 1350 m cl s 1563 1384 m -18 X s 1545 1384 m cl s 1563 1384 m 18 X s 1581 1384 m cl s 1563 1384 m 6 Y s 1563 1390 m cl s 1563 1384 m -7 Y s 1563 1377 m cl s 1599 1401 m -18 X s 1581 1401 m cl
 s 1599 1401 m 18 X s 1617 1401 m cl s 1599 1401 m 7 Y s 1599 1408 m cl s 1599 1401 m -6 Y s 1599 1395 m cl s 1635 1415 m -18 X s 1617 1415 m cl s 1635 1415 m 18 X s 1653 1415 m cl s 1635 1415 m 6 Y s 1635 1421 m cl s 1635 1415 m -6 Y s 1635 1409 m
 cl s 1671 1405 m -18 X s 1653 1405 m cl s 1671 1405 m 18 X s 1689 1405 m cl s 1671 1405 m 6 Y s 1671 1411 m cl s 1671 1405 m -7 Y s 1671 1398 m cl s 1706 1399 m -17 X s 1689 1399 m cl s 1706 1399 m 18 X s 1724 1399 m cl s 1706 1399 m 6 Y s 1706 1405
 m cl s 1706 1399 m -7 Y s 1706 1392 m cl s 1742 1366 m -18 X s 1724 1366 m cl s 1742 1366 m 18 X s 1760 1366 m cl s 1742 1366 m 7 Y s 1742 1373 m cl s 1742 1366 m -7 Y s 1742 1359 m cl s 1778 1344 m -18 X s 1760 1344 m cl s 1778 1344 m 18 X s 1796
 1344 m cl s 1778 1344 m 8 Y s 1778 1352 m cl s 1778 1344 m -7 Y s 1778 1337 m cl s 1814 1285 m -18 X s 1796 1285 m cl s 1814 1285 m 18 X s 1832 1285 m cl s 1814 1285 m 10 Y s 1814 1295 m cl s 1814 1285 m -9 Y s 1814 1276 m cl s 1850 1239 m -18 X s
 1832 1239 m cl s 1850 1239 m 18 X s 1868 1239 m cl s 1850 1239 m 11 Y s 1850 1250 m cl s 1850 1239 m -12 Y s 1850 1227 m cl s 1886 1163 m -18 X s 1868 1163 m cl s 1886 1163 m 18 X s 1904 1163 m cl s 1886 1163 m 17 Y s 1886 1180 m cl s 1886 1163 m
 -16 Y s 1886 1147 m cl s 1921 1094 m -17 X s 1904 1094 m cl s 1921 1094 m 18 X s 1939 1094 m cl s 1921 1094 m 21 Y s 1921 1115 m cl s 1921 1094 m -22 Y s 1921 1072 m cl s 1957 1088 m -18 X s 1939 1088 m cl s 1957 1088 m 18 X s 1975 1088 m cl s 1957
 1088 m 21 Y s 1957 1109 m cl s 1957 1088 m -22 Y s 1957 1066 m cl s 1993 948 m -18 X s 1975 948 m cl s 1993 948 m 18 X s 2011 948 m cl s 1993 948 m 38 Y s 1993 986 m cl s 1993 948 m -39 Y s 1993 909 m cl s 2029 972 m -18 X s 2011 972 m cl s 2029 972
 m 18 X s 2047 972 m cl s 2029 972 m 34 Y s 2029 1006 m cl s 2029 972 m -35 Y s 2029 937 m cl s 2065 802 m -18 X s 2047 802 m cl s 2065 802 m 18 X s 2083 802 m cl s 2065 802 m 68 Y s 2065 870 m cl s 2065 802 m -75 Y s 2065 727 m cl s 2101 880 m -18 X
 s 2083 880 m cl s 2101 880 m 18 X s 2119 880 m cl s 2101 880 m 50 Y s 2101 930 m cl s 2101 880 m -53 Y s 2101 827 m cl s 2136 826 m -17 X s 2119 826 m cl s 2136 826 m 18 X s 2154 826 m cl s 2136 826 m 62 Y s 2136 888 m cl s 2136 826 m -67 Y s 2136
 759 m cl s 381 680 417 734 452 802 488 734 524 772 560 680 596 864 632 734 667 846 703 864 739 802 775 826 811 826 847 880 882 939 918 929 954 948 990 964 1026 979 1062 1005 1097 1044 1133 1026 1169 1040 1205 1108 1241 1136 1276 1125 1312 1170 1348
 1192 1384 1222 1420 1276 1456 1299 1491 1325 1527 1357 1563 1384 1599 1401 1635 1415 1671 1405 1706 1399 1742 1366 1778 1344 1814 1285 1850 1239 1886 1163 1921 1094 1957 1088 1993 948 2029 972 2065 802 2101 880 2136 826 50 { m20} R 0.52 0.76 0.64 c[
 4 8] 0 sd 9 lw black 0.52 0.76 0.64 c 363 780 m 36 7 d 35 7 d 36 8 d 36 7 d 36 8 d 36 9 d 36 8 d 35 9 d 36 9 d 36 10 d 36 10 d 36 10 d 36 11 d 35 11 d 36 12 d 36 12 d 36 13 d 36 14 d 36 14 d 35 15 d 36 16 d 36 18 d 36 19 d 36 20 d 36 22 d 35 24 d 36
 26 d 18 14 d 18 16 d 18 16 d 18 17 d 18 19 d 9 10 d 9 10 d 9 11 d 9 11 d 9 11 d 9 13 d 17 24 d 18 22 d 18 19 d 18 15 d 9 7 d 9 6 d 9 6 d 9 5 d 9 4 d 9 3 d 9 2 d 9 2 d 9 1 d 9 1 d 9 -1 d 9 -1 d 9 -1 d 9 -3 d 9 -3 d 9 -4 d 8 -5 d 9 -5 d 9 -6 d 9 -7 d
 18 -16 d 18 -19 d 18 -21 d 18 -25 d 18 -27 d 9 -15 d 9 -15 d 9 -17 d 9 -17 d 9 -17 d 9 -19 d 9 -19 d 9 -20 d 18 -41 d 17 -45 d 18 -48 d 18 -50 d 18 -54 d 18 -56 d 18 -59 d 35 -124 d s 0.54 0.66 0.63 c black 0.54 0.66 0.63 c 1017 634 m 27 42 d s 1044
 676 m 35 55 d 36 51 d 18 25 d 18 23 d 18 23 d 18 22 d 18 21 d 18 20 d 18 19 d 18 18 d 17 18 d 18 17 d 18 15 d 18 15 d 36 28 d 36 24 d 36 20 d 36 17 d 17 8 d 18 6 d 18 6 d 18 4 d 18 4 d 18 3 d 18 2 d 18 2 d 36 X 18 -1 d 18 -3 d 17 -3 d 18 -3 d 18 -5
 d 18 -6 d 18 -6 d 18 -7 d 36 -17 d 36 -21 d 36 -24 d 35 -27 d 18 -15 d 18 -16 d 18 -17 d 18 -17 d 18 -18 d 18 -20 d 18 -20 d 18 -21 d 18 -21 d 18 -23 d 17 -24 d 18 -24 d s black[  ] 0 sd 3 lw 363 634 m 1791 X s 363 659 m -25 Y s 429 646 m -12 Y s
 496 646 m -12 Y s 562 646 m -12 Y s 628 646 m -12 Y s 695 659 m -25 Y s 761 646 m -12 Y s 827 646 m -12 Y s 894 646 m -12 Y s 960 646 m -12 Y s 1026 659 m -25 Y s 1093 646 m -12 Y s 1159 646 m -12 Y s 1225 646 m -12 Y s 1292 646 m -12 Y s 1358 659 m
 -25 Y s 1424 646 m -12 Y s 1491 646 m -12 Y s 1557 646 m -12 Y s 1624 646 m -12 Y s 1690 659 m -25 Y s 1756 646 m -12 Y s 1823 646 m -12 Y s 1889 646 m -12 Y s 1955 646 m -12 Y s 2022 659 m -25 Y s 2022 659 m -25 Y s 2088 646 m -12 Y s 2154 646 m
 -12 Y s 363 1484 m 1791 X s 363 1459 m 25 Y s 429 1471 m 13 Y s 496 1471 m 13 Y s 562 1471 m 13 Y s 628 1471 m 13 Y s 695 1459 m 25 Y s 761 1471 m 13 Y s 827 1471 m 13 Y s 894 1471 m 13 Y s 960 1471 m 13 Y s 1026 1459 m 25 Y s 1093 1471 m 13 Y s
 1159 1471 m 13 Y s 1225 1471 m 13 Y s 1292 1471 m 13 Y s 1358 1459 m 25 Y s 1424 1471 m 13 Y s 1491 1471 m 13 Y s 1557 1471 m 13 Y s 1624 1471 m 13 Y s 1690 1459 m 25 Y s 1756 1471 m 13 Y s 1823 1471 m 13 Y s 1889 1471 m 13 Y s 1955 1471 m 13 Y s
 2022 1459 m 25 Y s 2022 1459 m 25 Y s 2088 1471 m 13 Y s 2154 1471 m 13 Y s 363 634 m 850 Y s 390 680 m -27 X s 390 734 m -27 X s 390 772 m -27 X s 390 802 m -27 X s 390 826 m -27 X s 390 846 m -27 X s 390 864 m -27 X s 390 880 m -27 X s 417 894 m
 -54 X s 390 986 m -27 X s 390 1040 m -27 X s 390 1078 m -27 X s 390 1108 m -27 X s 390 1132 m -27 X s 390 1153 m -27 X s 390 1170 m -27 X s 390 1186 m -27 X s 417 1200 m -54 X s 390 1292 m -27 X s 390 1346 m -27 X s 390 1384 m -27 X s 390 1414 m -27
 X s 390 1438 m -27 X s 390 1459 m -27 X s 390 1476 m -27 X s 2154 634 m 850 Y s 2127 680 m 27 X s 2127 734 m 27 X s 2127 772 m 27 X s 2127 802 m 27 X s 2127 826 m 27 X s 2127 846 m 27 X s 2127 864 m 27 X s 2127 880 m 27 X s 2101 894 m 53 X s 2127
 986 m 27 X s 2127 1040 m 27 X s 2127 1078 m 27 X s 2127 1108 m 27 X s 2127 1132 m 27 X s 2127 1153 m 27 X s 2127 1170 m 27 X s 2127 1186 m 27 X s 2101 1200 m 53 X s 2127 1292 m 27 X s 2127 1346 m 27 X s 2127 1384 m 27 X s 2127 1414 m 27 X s 2127
 1438 m 27 X s 2127 1459 m 27 X s 2127 1476 m 27 X s
 gsave  2268 1077 0 461 C 677.708 1215.31 t 0 r /Helvetica findfont 58.7189 sf 0 0 m (4e) show NC gr  1 1 1 c 453 161 454 1269 bf black
 gsave  2268 1077 0 461 C 566.929 1371.71 t 0 r /Helvetica-Bold findfont 48.9324 sf 0 0 m (MC15) show NC gr  510 1390 m20
 gsave  2268 1077 0 461 C 566.929 1293.51 t 0 r /Helvetica-Bold findfont 48.9324 sf 0 0 m (Projection of Signal pdf) show NC gr  0 0 1 c 9 lw 471 1309 m 79 X s black 3 lw 1 1 1 c 2268 461 0 0 bf black 1 1 1 c 1791 364 363 74 bf black 1791 364 363 74
 bl 363 74 m 1791 X s
 gsave  2268 461 0 0 C 1915.83 13.0329 t 0 r /Helvetica findfont 22.9045 sf 0 0 m (4l Invariant Mass \(GeV\)) show NC gr  363 85 m -11 Y s 429 79 m -5 Y s 496 79 m -5 Y s 562 79 m -5 Y s 628 79 m -5 Y s 695 85 m -11 Y s 761 79 m -5 Y s 827 79 m -5 Y
 s 894 79 m -5 Y s 960 79 m -5 Y s 1026 85 m -11 Y s 1093 79 m -5 Y s 1159 79 m -5 Y s 1225 79 m -5 Y s 1292 79 m -5 Y s 1358 85 m -11 Y s 1424 79 m -5 Y s 1491 79 m -5 Y s 1557 79 m -5 Y s 1624 79 m -5 Y s 1690 85 m -11 Y s 1756 79 m -5 Y s 1823 79
 m -5 Y s 1889 79 m -5 Y s 1955 79 m -5 Y s 2022 85 m -11 Y s 2022 85 m -11 Y s 2088 79 m -5 Y s 2154 79 m -5 Y s
 gsave  2268 461 0 0 C 342.112 55.3896 t 0 r /Helvetica findfont 22.9045 sf 0 0 m (360) show NC gr 
 gsave  2268 461 0 0 C 674.45 55.3896 t 0 r /Helvetica findfont 22.9045 sf 0 0 m (370) show NC gr 
 gsave  2268 461 0 0 C 1006.79 55.3896 t 0 r /Helvetica findfont 22.9045 sf 0 0 m (380) show NC gr 
 gsave  2268 461 0 0 C 1335.87 55.3896 t 0 r /Helvetica findfont 22.9045 sf 0 0 m (390) show NC gr 
 gsave  2268 461 0 0 C 1668.21 55.3896 t 0 r /Helvetica findfont 22.9045 sf 0 0 m (400) show NC gr 
 gsave  2268 461 0 0 C 2000.54 55.3896 t 0 r /Helvetica findfont 22.9045 sf 0 0 m (410) show NC gr  363 438 m 1791 X s 363 427 m 11 Y s 429 433 m 5 Y s 496 433 m 5 Y s 562 433 m 5 Y s 628 433 m 5 Y s 695 427 m 11 Y s 761 433 m 5 Y s 827 433 m 5 Y s
 894 433 m 5 Y s 960 433 m 5 Y s 1026 427 m 11 Y s 1093 433 m 5 Y s 1159 433 m 5 Y s 1225 433 m 5 Y s 1292 433 m 5 Y s 1358 427 m 11 Y s 1424 433 m 5 Y s 1491 433 m 5 Y s 1557 433 m 5 Y s 1624 433 m 5 Y s 1690 427 m 11 Y s 1756 433 m 5 Y s 1823 433 m
 5 Y s 1889 433 m 5 Y s 1955 433 m 5 Y s 2022 427 m 11 Y s 2022 427 m 11 Y s 2088 433 m 5 Y s 2154 433 m 5 Y s 363 74 m 364 Y s 417 74 m -54 X s 390 81 m -27 X s 390 88 m -27 X s 390 96 m -27 X s 390 103 m -27 X s 417 110 m -54 X s 390 118 m -27 X s
 390 125 m -27 X s 390 132 m -27 X s 390 139 m -27 X s 417 147 m -54 X s 390 154 m -27 X s 390 161 m -27 X s 390 169 m -27 X s 390 176 m -27 X s 417 183 m -54 X s 390 190 m -27 X s 390 198 m -27 X s 390 205 m -27 X s 390 212 m -27 X s 417 220 m -54 X
 s 390 227 m -27 X s 390 234 m -27 X s 390 241 m -27 X s 390 249 m -27 X s 417 256 m -54 X s 390 263 m -27 X s 390 271 m -27 X s 390 278 m -27 X s 390 285 m -27 X s 417 293 m -54 X s 390 300 m -27 X s 390 307 m -27 X s 390 314 m -27 X s 390 322 m -27
 X s 417 329 m -54 X s 390 336 m -27 X s 390 344 m -27 X s 390 351 m -27 X s 390 358 m -27 X s 417 365 m -54 X s 390 373 m -27 X s 390 380 m -27 X s 390 387 m -27 X s 390 395 m -27 X s 417 402 m -54 X s 390 409 m -27 X s 390 416 m -27 X s 390 424 m
 -27 X s 390 431 m -27 X s 417 438 m -54 X s
 gsave  2268 461 0 0 C 329.08 65.1643 t 0 r /Helvetica findfont 22.9045 sf 0 0 m (\2555) show NC gr 
 gsave  2268 461 0 0 C 329.08 101.005 t 0 r /Helvetica findfont 22.9045 sf 0 0 m (\2554) show NC gr 
 gsave  2268 461 0 0 C 329.08 140.103 t 0 r /Helvetica findfont 22.9045 sf 0 0 m (\2553) show NC gr 
 gsave  2268 461 0 0 C 329.08 175.944 t 0 r /Helvetica findfont 22.9045 sf 0 0 m (\2552) show NC gr 
 gsave  2268 461 0 0 C 332.338 211.784 t 0 r /Helvetica findfont 22.9045 sf 0 0 m (\2551) show NC gr 
 gsave  2268 461 0 0 C 335.596 247.624 t 0 r /Helvetica findfont 22.9045 sf 0 0 m (0) show NC gr 
 gsave  2268 461 0 0 C 338.854 283.465 t 0 r /Helvetica findfont 22.9045 sf 0 0 m (1) show NC gr 
 gsave  2268 461 0 0 C 335.596 319.305 t 0 r /Helvetica findfont 22.9045 sf 0 0 m (2) show NC gr 
 gsave  2268 461 0 0 C 335.596 358.403 t 0 r /Helvetica findfont 22.9045 sf 0 0 m (3) show NC gr 
 gsave  2268 461 0 0 C 335.596 394.244 t 0 r /Helvetica findfont 22.9045 sf 0 0 m (4) show NC gr 
 gsave  2268 461 0 0 C 335.596 430.084 t 0 r /Helvetica findfont 22.9045 sf 0 0 m (5) show NC gr  2154 74 m 364 Y s 2101 74 m 53 X s 2127 81 m 27 X s 2127 88 m 27 X s 2127 96 m 27 X s 2127 103 m 27 X s 2101 110 m 53 X s 2127 118 m 27 X s 2127 125 m
 27 X s 2127 132 m 27 X s 2127 139 m 27 X s 2101 147 m 53 X s 2127 154 m 27 X s 2127 161 m 27 X s 2127 169 m 27 X s 2127 176 m 27 X s 2101 183 m 53 X s 2127 190 m 27 X s 2127 198 m 27 X s 2127 205 m 27 X s 2127 212 m 27 X s 2101 220 m 53 X s 2127 227
 m 27 X s 2127 234 m 27 X s 2127 241 m 27 X s 2127 249 m 27 X s 2101 256 m 53 X s 2127 263 m 27 X s 2127 271 m 27 X s 2127 278 m 27 X s 2127 285 m 27 X s 2101 293 m 53 X s 2127 300 m 27 X s 2127 307 m 27 X s 2127 314 m 27 X s 2127 322 m 27 X s 2101
 329 m 53 X s 2127 336 m 27 X s 2127 344 m 27 X s 2127 351 m 27 X s 2127 358 m 27 X s 2101 365 m 53 X s 2127 373 m 27 X s 2127 380 m 27 X s 2127 387 m 27 X s 2127 395 m 27 X s 2101 402 m 53 X s 2127 409 m 27 X s 2127 416 m 27 X s 2127 424 m 27 X s
 2127 431 m 27 X s 2101 438 m 53 X s 6 lw 0.2 0.8 0.2 c black 3 lw 0.2 0.8 0.2 c 363 256 m -32 Y 36 X 12 Y 35 X 22 Y 36 X -29 Y 36 X 10 Y 36 X -36 Y 36 X 77 Y 36 X -69 Y 35 X 44 Y 36 X 6 Y 36 X -39 Y 36 X 5 Y 36 X -8 Y 36 X 24 Y 35 X 38 Y 36 X -22 Y
 36 X 4 Y 36 X 2 Y 36 X -3 Y 36 X 9 Y 35 X 27 Y 36 X -54 Y 36 X -14 Y 36 X 68 Y 36 X 10 Y 36 X -73 Y 35 X 36 Y 36 X -14 Y 36 X 2 Y 36 X 76 Y 36 X -39 Y 36 X -63 Y 35 X -18 Y 36 X -2 Y 36 X 10 Y 36 X 48 Y 36 X -31 Y 36 X 57 Y 35 X -41 Y 36 X 62 Y 36 X
 -68 Y 36 X 16 Y 36 X -47 Y 36 X -11 Y 35 X 89 Y 36 X -104 Y 36 X 78 Y 36 X -82 Y 36 X 82 Y 36 X -6 Y 35 X -9 Y f 6 lw black 0.2 0.8 0.2 c black 363 224 m 36 X 12 Y 35 X 22 Y 36 X -29 Y 36 X 10 Y 36 X -36 Y 36 X 77 Y 36 X -69 Y 35 X 44 Y 36 X 6 Y 36
 X -39 Y 36 X 5 Y 36 X -8 Y 36 X 24 Y 35 X 38 Y 36 X -22 Y 36 X 4 Y 36 X 2 Y 36 X -3 Y 36 X 9 Y 35 X 27 Y 36 X -54 Y 36 X -14 Y 36 X 68 Y 36 X 10 Y 36 X -73 Y 35 X 36 Y 36 X -14 Y 36 X 2 Y 36 X 76 Y 36 X -39 Y 36 X -63 Y 35 X -18 Y 36 X -2 Y 36 X 10
 Y 36 X 48 Y 36 X -31 Y 36 X 57 Y 35 X -41 Y 36 X 62 Y 36 X -68 Y 36 X 16 Y 36 X -47 Y 36 X -11 Y 35 X 89 Y 36 X -104 Y 36 X 78 Y 36 X -82 Y 36 X 82 Y 36 X -6 Y 35 X s 3 lw 363 74 m 1791 X s 363 85 m -11 Y s 429 79 m -5 Y s 496 79 m -5 Y s 562 79 m
 -5 Y s 628 79 m -5 Y s 695 85 m -11 Y s 761 79 m -5 Y s 827 79 m -5 Y s 894 79 m -5 Y s 960 79 m -5 Y s 1026 85 m -11 Y s 1093 79 m -5 Y s 1159 79 m -5 Y s 1225 79 m -5 Y s 1292 79 m -5 Y s 1358 85 m -11 Y s 1424 79 m -5 Y s 1491 79 m -5 Y s 1557 79
 m -5 Y s 1624 79 m -5 Y s 1690 85 m -11 Y s 1756 79 m -5 Y s 1823 79 m -5 Y s 1889 79 m -5 Y s 1955 79 m -5 Y s 2022 85 m -11 Y s 2022 85 m -11 Y s 2088 79 m -5 Y s 2154 79 m -5 Y s 363 438 m 1791 X s 363 427 m 11 Y s 429 433 m 5 Y s 496 433 m 5 Y s
 562 433 m 5 Y s 628 433 m 5 Y s 695 427 m 11 Y s 761 433 m 5 Y s 827 433 m 5 Y s 894 433 m 5 Y s 960 433 m 5 Y s 1026 427 m 11 Y s 1093 433 m 5 Y s 1159 433 m 5 Y s 1225 433 m 5 Y s 1292 433 m 5 Y s 1358 427 m 11 Y s 1424 433 m 5 Y s 1491 433 m 5 Y
 s 1557 433 m 5 Y s 1624 433 m 5 Y s 1690 427 m 11 Y s 1756 433 m 5 Y s 1823 433 m 5 Y s 1889 433 m 5 Y s 1955 433 m 5 Y s 2022 427 m 11 Y s 2022 427 m 11 Y s 2088 433 m 5 Y s 2154 433 m 5 Y s 363 74 m 364 Y s 417 74 m -54 X s 390 81 m -27 X s 390 88
 m -27 X s 390 96 m -27 X s 390 103 m -27 X s 417 110 m -54 X s 390 118 m -27 X s 390 125 m -27 X s 390 132 m -27 X s 390 139 m -27 X s 417 147 m -54 X s 390 154 m -27 X s 390 161 m -27 X s 390 169 m -27 X s 390 176 m -27 X s 417 183 m -54 X s 390
 190 m -27 X s 390 198 m -27 X s 390 205 m -27 X s 390 212 m -27 X s 417 220 m -54 X s 390 227 m -27 X s 390 234 m -27 X s 390 241 m -27 X s 390 249 m -27 X s 417 256 m -54 X s 390 263 m -27 X s 390 271 m -27 X s 390 278 m -27 X s 390 285 m -27 X s
 417 293 m -54 X s 390 300 m -27 X s 390 307 m -27 X s 390 314 m -27 X s 390 322 m -27 X s 417 329 m -54 X s 390 336 m -27 X s 390 344 m -27 X s 390 351 m -27 X s 390 358 m -27 X s 417 365 m -54 X s 390 373 m -27 X s 390 380 m -27 X s 390 387 m -27 X
 s 390 395 m -27 X s 417 402 m -54 X s 390 409 m -27 X s 390 416 m -27 X s 390 424 m -27 X s 390 431 m -27 X s 417 438 m -54 X s 2154 74 m 364 Y s 2101 74 m 53 X s 2127 81 m 27 X s 2127 88 m 27 X s 2127 96 m 27 X s 2127 103 m 27 X s 2101 110 m 53 X s
 2127 118 m 27 X s 2127 125 m 27 X s 2127 132 m 27 X s 2127 139 m 27 X s 2101 147 m 53 X s 2127 154 m 27 X s 2127 161 m 27 X s 2127 169 m 27 X s 2127 176 m 27 X s 2101 183 m 53 X s 2127 190 m 27 X s 2127 198 m 27 X s 2127 205 m 27 X s 2127 212 m 27 X
 s 2101 220 m 53 X s 2127 227 m 27 X s 2127 234 m 27 X s 2127 241 m 27 X s 2127 249 m 27 X s 2101 256 m 53 X s 2127 263 m 27 X s 2127 271 m 27 X s 2127 278 m 27 X s 2127 285 m 27 X s 2101 293 m 53 X s 2127 300 m 27 X s 2127 307 m 27 X s 2127 314 m 27
 X s 2127 322 m 27 X s 2101 329 m 53 X s 2127 336 m 27 X s 2127 344 m 27 X s 2127 351 m 27 X s 2127 358 m 27 X s 2101 365 m 53 X s 2127 373 m 27 X s 2127 380 m 27 X s 2127 387 m 27 X s 2127 395 m 27 X s 2101 402 m 53 X s 2127 409 m 27 X s 2127 416 m
 27 X s 2127 424 m 27 X s 2127 431 m 27 X s 2101 438 m 53 X s
 gr  gr showpage
end
%%EOF
