%!PS-Adobe-2.0 EPSF-2.0
%%BoundingBox:  0 0 567 384
%%Title: H4l2015_plotfit/gg_mass_signal_600_fixed_H4l_4mu.eps: 
%%Creator: ROOT Version 5.34/10
%%CreationDate: Thu Feb 16 13:02:59 2017
%%EndComments
%%BeginProlog
80 dict begin
/s {stroke} def /l {lineto} def /m {moveto} def /t {translate} def
/r {rotate} def /rl {roll}  def /R {repeat} def
/d {rlineto} def /rm {rmoveto} def /gr {grestore} def /f {eofill} def
/c {setrgbcolor} def /black {0 setgray} def /sd {setdash} def
/cl {closepath} def /sf {scalefont setfont} def /lw {setlinewidth} def
/box {m dup 0 exch d exch 0 d 0 exch neg d cl} def
/NC{systemdict begin initclip end}def/C{NC box clip newpath}def
/bl {box s} def /bf {box f} def /Y { 0 exch d} def /X { 0 d} def 
/K {{pop pop 0 moveto} exch kshow} bind def
/ita {/ang 15 def gsave [1 0 ang dup sin exch cos div 1 0 0] concat} def 
/mp {newpath /y exch def /x exch def} def
/side {[w .77 mul w .23 mul] .385 w mul sd w 0 l currentpoint t -144 r} def
/mr {mp x y w2 0 360 arc} def /m24 {mr s} def /m20 {mr f} def
/mb {mp x y w2 add m w2 neg 0 d 0 w neg d w 0 d 0 w d cl} def
/mt {mp x y w2 add m w2 neg w neg d w 0 d cl} def
/m21 {mb f} def /m25 {mb s} def /m22 {mt f} def /m26{mt s} def
/m23 {mp x y w2 sub m w2 w d w neg 0 d cl f} def
/m27 {mp x y w2 add m w3 neg w2 neg d w3 w2 neg d w3 w2 d cl s} def
/m28 {mp x w2 sub y w2 sub w3 add m w3 0 d  0 w3 neg d w3 0 d 0 w3 d w3 0 d  0 w3 d w3 neg 0 d 0 w3 d w3 neg 0 d 0 w3 neg d w3 neg 0 d cl s } def
/m29 {mp gsave x w2 sub y w2 add w3 sub m currentpoint t 4 {side} repeat cl fill gr} def
/m30 {mp gsave x w2 sub y w2 add w3 sub m currentpoint t 4 {side} repeat cl s gr} def
/m31 {mp x y w2 sub m 0 w d x w2 sub y m w 0 d x w2 sub y w2 add m w w neg d x w2 sub y w2 sub m w w d s} def
/m32 {mp x y w2 sub m w2 w d w neg 0 d cl s} def
/m33 {mp x y w2 add m w3 neg w2 neg d w3 w2 neg d w3 w2 d cl f} def
/m34 {mp x w2 sub y w2 sub w3 add m w3 0 d  0 w3 neg d w3 0 d 0 w3 d w3 0 d  0 w3 d w3 neg 0 d 0 w3 d w3 neg 0 d 0 w3 neg d w3 neg 0 d cl f } def
/m2 {mp x y w2 sub m 0 w d x w2 sub y m w 0 d s} def
/m5 {mp x w2 sub y w2 sub m w w d x w2 sub y w2 add m w w neg d s} def
/reEncode {exch findfont dup length dict begin {1 index /FID eq  {pop pop} {def} ifelse } forall /Encoding exch def currentdict end dup /FontName get exch definefont pop } def [/Times-Bold /Times-Italic /Times-BoldItalic /Helvetica /Helvetica-Oblique
 /Helvetica-Bold /Helvetica-BoldOblique /Courier /Courier-Oblique /Courier-Bold /Courier-BoldOblique /Times-Roman /AvantGarde-Book /AvantGarde-BookOblique /AvantGarde-Demi /AvantGarde-DemiOblique /Bookman-Demi /Bookman-DemiItalic /Bookman-Light
 /Bookman-LightItalic /Helvetica-Narrow /Helvetica-Narrow-Bold /Helvetica-Narrow-BoldOblique /Helvetica-Narrow-Oblique /NewCenturySchlbk-Roman /NewCenturySchlbk-Bold /NewCenturySchlbk-BoldItalic /NewCenturySchlbk-Italic /Palatino-Bold
 /Palatino-BoldItalic /Palatino-Italic /Palatino-Roman ] {ISOLatin1Encoding reEncode } forall
%%EndProlog
%%BeginSetup
%%EndSetup
newpath  gsave  .25 .25 scale  gsave  0 0 t black[  ] 0 sd 3 lw 1 1 1 c 2268 1538 0 0 bf black 1 1 1 c 2222 738 23 784 bf black 1 1 1 c 2222 739 23 15 bf black 1 1 1 c 2268 1077 0 461 bf black 1 1 1 c 1791 850 363 634 bf black 1791 850 363 634 bl 363
 634 m 1791 X s
 gsave  2268 1077 0 461 C 1642.14 498.507 t 0 r /Helvetica findfont 48.9324 sf 0 0 m (4l Invariant Mass \(GeV\)) show NC gr  434 659 m -25 Y s 506 646 m -12 Y s 578 646 m -12 Y s 649 646 m -12 Y s 721 659 m -25 Y s 793 646 m -12 Y s 864 646 m -12 Y s
 936 646 m -12 Y s 1008 659 m -25 Y s 1079 646 m -12 Y s 1151 646 m -12 Y s 1223 646 m -12 Y s 1294 659 m -25 Y s 1366 646 m -12 Y s 1438 646 m -12 Y s 1509 646 m -12 Y s 1581 659 m -25 Y s 1653 646 m -12 Y s 1724 646 m -12 Y s 1796 646 m -12 Y s
 1868 659 m -25 Y s 1939 646 m -12 Y s 2011 646 m -12 Y s 2083 646 m -12 Y s 2154 659 m -25 Y s 434 659 m -25 Y s 363 646 m -12 Y s
 gsave  2268 1077 0 461 C 390.986 586.478 t 0 r /Helvetica findfont 48.9324 sf 0 0 m (520) show NC gr 
 gsave  2268 1077 0 461 C 677.708 586.478 t 0 r /Helvetica findfont 48.9324 sf 0 0 m (540) show NC gr 
 gsave  2268 1077 0 461 C 964.431 586.478 t 0 r /Helvetica findfont 48.9324 sf 0 0 m (560) show NC gr 
 gsave  2268 1077 0 461 C 1251.15 586.478 t 0 r /Helvetica findfont 48.9324 sf 0 0 m (580) show NC gr 
 gsave  2268 1077 0 461 C 1537.88 586.478 t 0 r /Helvetica findfont 48.9324 sf 0 0 m (600) show NC gr 
 gsave  2268 1077 0 461 C 1824.6 586.478 t 0 r /Helvetica findfont 48.9324 sf 0 0 m (620) show NC gr 
 gsave  2268 1077 0 461 C 2111.32 586.478 t 0 r /Helvetica findfont 48.9324 sf 0 0 m (640) show NC gr  363 1484 m 1791 X s 434 1459 m 25 Y s 506 1471 m 13 Y s 578 1471 m 13 Y s 649 1471 m 13 Y s 721 1459 m 25 Y s 793 1471 m 13 Y s 864 1471 m 13 Y s
 936 1471 m 13 Y s 1008 1459 m 25 Y s 1079 1471 m 13 Y s 1151 1471 m 13 Y s 1223 1471 m 13 Y s 1294 1459 m 25 Y s 1366 1471 m 13 Y s 1438 1471 m 13 Y s 1509 1471 m 13 Y s 1581 1459 m 25 Y s 1653 1471 m 13 Y s 1724 1471 m 13 Y s 1796 1471 m 13 Y s
 1868 1459 m 25 Y s 1939 1471 m 13 Y s 2011 1471 m 13 Y s 2083 1471 m 13 Y s 2154 1459 m 25 Y s 434 1459 m 25 Y s 363 1471 m 13 Y s 363 634 m 850 Y s
 gsave  2268 1077 0 461 C 120.554 1058.92 t 90 r /Helvetica findfont 48.9324 sf 0 0 m (Events / \( 2.5 GeV \)) show NC gr  390 665 m -27 X s 390 705 m -27 X s 390 736 m -27 X s 390 761 m -27 X s 390 783 m -27 X s 390 801 m -27 X s 390 818 m -27 X s
 417 832 m -54 X s
 gsave  2268 1077 0 461 C 342.425 811.525 t 0 r  -55 0 t /Helvetica findfont 48.9324 sf 0 0 m (10) show NC gr  390 929 m -27 X s 390 985 m -27 X s 390 1025 m -27 X s 390 1056 m -27 X s 390 1082 m -27 X s 390 1103 m -27 X s 390 1122 m -27 X s 390 1138
 m -27 X s 417 1153 m -54 X s
 gsave  2268 1077 0 461 C 322.563 1150.15 t 0 r /Helvetica findfont 32.6216 sf 0 0 m (2) show NC gr 
 gsave  2268 1077 0 461 C 270.432 1130.6 t 0 r /Helvetica findfont 48.9324 sf 0 0 m (10) show NC gr  390 1249 m -27 X s 390 1306 m -27 X s 390 1346 m -27 X s 390 1377 m -27 X s 390 1402 m -27 X s 390 1424 m -27 X s 390 1442 m -27 X s 390 1459 m -27 X
 s 417 1473 m -54 X s
 gsave  2268 1077 0 461 C 322.563 1475.97 t 0 r /Helvetica findfont 32.6216 sf 0 0 m (3) show NC gr 
 gsave  2268 1077 0 461 C 270.432 1453.16 t 0 r /Helvetica findfont 48.9324 sf 0 0 m (10) show NC gr  2154 634 m 850 Y s 2127 665 m 27 X s 2127 705 m 27 X s 2127 736 m 27 X s 2127 761 m 27 X s 2127 783 m 27 X s 2127 801 m 27 X s 2127 818 m 27 X s
 2101 832 m 53 X s 2127 929 m 27 X s 2127 985 m 27 X s 2127 1025 m 27 X s 2127 1056 m 27 X s 2127 1082 m 27 X s 2127 1103 m 27 X s 2127 1122 m 27 X s 2127 1138 m 27 X s 2101 1153 m 53 X s 2127 1249 m 27 X s 2127 1306 m 27 X s 2127 1346 m 27 X s 2127
 1377 m 27 X s 2127 1402 m 27 X s 2127 1424 m 27 X s 2127 1442 m 27 X s 2127 1459 m 27 X s 2101 1473 m 53 X s 381 858 m -18 X s 363 858 m cl s 381 858 m 18 X s 399 858 m cl s 381 858 m 45 Y s 381 903 m cl s 381 858 m -47 Y s 381 811 m cl s 417 818 m
 -18 X s 399 818 m cl s 417 818 m 17 X s 434 818 m cl s 417 818 m 52 Y s 417 870 m cl s 417 818 m -55 Y s 417 763 m cl s 452 705 m -18 X s 434 705 m cl s 452 705 m 18 X s 470 705 m cl s 452 705 m 81 Y s 452 786 m cl s 452 705 m -71 Y s 452 634 m cl s
 488 846 m -18 X s 470 846 m cl s 488 846 m 18 X s 506 846 m cl s 488 846 m 47 Y s 488 893 m cl s 488 846 m -49 Y s 488 797 m cl s 524 818 m -18 X s 506 818 m cl s 524 818 m 18 X s 542 818 m cl s 524 818 m 52 Y s 524 870 m cl s 524 818 m -55 Y s 524
 763 m cl s 560 801 m -18 X s 542 801 m cl s 560 801 m 18 X s 578 801 m cl s 560 801 m 56 Y s 560 857 m cl s 560 801 m -59 Y s 560 742 m cl s 596 705 m -18 X s 578 705 m cl s 596 705 m 18 X s 614 705 m cl s 596 705 m 81 Y s 596 786 m cl s 596 705 m
 -71 Y s 596 634 m cl s 632 936 m -18 X s 614 936 m cl s 632 936 m 17 X s 649 936 m cl s 632 936 m 33 Y s 632 969 m cl s 632 936 m -34 Y s 632 902 m cl s 667 869 m -18 X s 649 869 m cl s 667 869 m 18 X s 685 869 m cl s 667 869 m 43 Y s 667 912 m cl s
 667 869 m -45 Y s 667 824 m cl s 703 906 m -18 X s 685 906 m cl s 703 906 m 18 X s 721 906 m cl s 703 906 m 37 Y s 703 943 m cl s 703 906 m -38 Y s 703 868 m cl s 739 922 m -18 X s 721 922 m cl s 739 922 m 18 X s 757 922 m cl s 739 922 m 35 Y s 739
 957 m cl s 739 922 m -36 Y s 739 886 m cl s 775 965 m -18 X s 757 965 m cl s 775 965 m 18 X s 793 965 m cl s 775 965 m 30 Y s 775 995 m cl s 775 965 m -30 Y s 775 935 m cl s 811 936 m -18 X s 793 936 m cl s 811 936 m 18 X s 829 936 m cl s 811 936 m
 33 Y s 811 969 m cl s 811 936 m -34 Y s 811 902 m cl s 847 954 m -18 X s 829 954 m cl s 847 954 m 17 X s 864 954 m cl s 847 954 m 31 Y s 847 985 m cl s 847 954 m -31 Y s 847 923 m cl s 882 1015 m -18 X s 864 1015 m cl s 882 1015 m 18 X s 900 1015 m
 cl s 882 1015 m 24 Y s 882 1039 m cl s 882 1015 m -25 Y s 882 990 m cl s 918 999 m -18 X s 900 999 m cl s 918 999 m 18 X s 936 999 m cl s 918 999 m 26 Y s 918 1025 m cl s 918 999 m -27 Y s 918 972 m cl s 954 1025 m -18 X s 936 1025 m cl s 954 1025 m
 18 X s 972 1025 m cl s 954 1025 m 24 Y s 954 1049 m cl s 954 1025 m -23 Y s 954 1002 m cl s 990 1011 m -18 X s 972 1011 m cl s 990 1011 m 18 X s 1008 1011 m cl s 990 1011 m 25 Y s 990 1036 m cl s 990 1011 m -26 Y s 990 985 m cl s 1026 1029 m -18 X s
 1008 1029 m cl s 1026 1029 m 18 X s 1044 1029 m cl s 1026 1029 m 23 Y s 1026 1052 m cl s 1026 1029 m -24 Y s 1026 1005 m cl s 1062 1039 m -18 X s 1044 1039 m cl s 1062 1039 m 17 X s 1079 1039 m cl s 1062 1039 m 22 Y s 1062 1061 m cl s 1062 1039 m
 -23 Y s 1062 1016 m cl s 1097 1103 m -18 X s 1079 1103 m cl s 1097 1103 m 18 X s 1115 1103 m cl s 1097 1103 m 18 Y s 1097 1121 m cl s 1097 1103 m -17 Y s 1097 1086 m cl s 1133 1109 m -18 X s 1115 1109 m cl s 1133 1109 m 18 X s 1151 1109 m cl s 1133
 1109 m 17 Y s 1133 1126 m cl s 1133 1109 m -17 Y s 1133 1092 m cl s 1169 1140 m -18 X s 1151 1140 m cl s 1169 1140 m 18 X s 1187 1140 m cl s 1169 1140 m 15 Y s 1169 1155 m cl s 1169 1140 m -16 Y s 1169 1124 m cl s 1205 1157 m -18 X s 1187 1157 m cl
 s 1205 1157 m 18 X s 1223 1157 m cl s 1205 1157 m 14 Y s 1205 1171 m cl s 1205 1157 m -14 Y s 1205 1143 m cl s 1241 1205 m -18 X s 1223 1205 m cl s 1241 1205 m 18 X s 1259 1205 m cl s 1241 1205 m 11 Y s 1241 1216 m cl s 1241 1205 m -12 Y s 1241 1193
 m cl s 1276 1221 m -17 X s 1259 1221 m cl s 1276 1221 m 18 X s 1294 1221 m cl s 1276 1221 m 11 Y s 1276 1232 m cl s 1276 1221 m -11 Y s 1276 1210 m cl s 1312 1273 m -18 X s 1294 1273 m cl s 1312 1273 m 18 X s 1330 1273 m cl s 1312 1273 m 9 Y s 1312
 1282 m cl s 1312 1273 m -9 Y s 1312 1264 m cl s 1348 1286 m -18 X s 1330 1286 m cl s 1348 1286 m 18 X s 1366 1286 m cl s 1348 1286 m 9 Y s 1348 1295 m cl s 1348 1286 m -9 Y s 1348 1277 m cl s 1384 1304 m -18 X s 1366 1304 m cl s 1384 1304 m 18 X s
 1402 1304 m cl s 1384 1304 m 8 Y s 1384 1312 m cl s 1384 1304 m -9 Y s 1384 1295 m cl s 1420 1346 m -18 X s 1402 1346 m cl s 1420 1346 m 18 X s 1438 1346 m cl s 1420 1346 m 7 Y s 1420 1353 m cl s 1420 1346 m -7 Y s 1420 1339 m cl s 1456 1361 m -18 X
 s 1438 1361 m cl s 1456 1361 m 18 X s 1474 1361 m cl s 1456 1361 m 7 Y s 1456 1368 m cl s 1456 1361 m -7 Y s 1456 1354 m cl s 1491 1381 m -17 X s 1474 1381 m cl s 1491 1381 m 18 X s 1509 1381 m cl s 1491 1381 m 6 Y s 1491 1387 m cl s 1491 1381 m -6
 Y s 1491 1375 m cl s 1527 1406 m -18 X s 1509 1406 m cl s 1527 1406 m 18 X s 1545 1406 m cl s 1527 1406 m 5 Y s 1527 1411 m cl s 1527 1406 m -6 Y s 1527 1400 m cl s 1563 1415 m -18 X s 1545 1415 m cl s 1563 1415 m 18 X s 1581 1415 m cl s 1563 1415 m
 6 Y s 1563 1421 m cl s 1563 1415 m -5 Y s 1563 1410 m cl s 1599 1399 m -18 X s 1581 1399 m cl s 1599 1399 m 18 X s 1617 1399 m cl s 1599 1399 m 6 Y s 1599 1405 m cl s 1599 1399 m -6 Y s 1599 1393 m cl s 1635 1383 m -18 X s 1617 1383 m cl s 1635 1383
 m 18 X s 1653 1383 m cl s 1635 1383 m 7 Y s 1635 1390 m cl s 1635 1383 m -6 Y s 1635 1377 m cl s 1671 1356 m -18 X s 1653 1356 m cl s 1671 1356 m 18 X s 1689 1356 m cl s 1671 1356 m 7 Y s 1671 1363 m cl s 1671 1356 m -7 Y s 1671 1349 m cl s 1706
 1318 m -17 X s 1689 1318 m cl s 1706 1318 m 18 X s 1724 1318 m cl s 1706 1318 m 8 Y s 1706 1326 m cl s 1706 1318 m -7 Y s 1706 1311 m cl s 1742 1300 m -18 X s 1724 1300 m cl s 1742 1300 m 18 X s 1760 1300 m cl s 1742 1300 m 8 Y s 1742 1308 m cl s
 1742 1300 m -9 Y s 1742 1291 m cl s 1778 1237 m -18 X s 1760 1237 m cl s 1778 1237 m 18 X s 1796 1237 m cl s 1778 1237 m 10 Y s 1778 1247 m cl s 1778 1237 m -10 Y s 1778 1227 m cl s 1814 1215 m -18 X s 1796 1215 m cl s 1814 1215 m 18 X s 1832 1215 m
 cl s 1814 1215 m 11 Y s 1814 1226 m cl s 1814 1215 m -11 Y s 1814 1204 m cl s 1850 1183 m -18 X s 1832 1183 m cl s 1850 1183 m 18 X s 1868 1183 m cl s 1850 1183 m 12 Y s 1850 1195 m cl s 1850 1183 m -13 Y s 1850 1170 m cl s 1886 1097 m -18 X s 1868
 1097 m cl s 1886 1097 m 18 X s 1904 1097 m cl s 1886 1097 m 18 Y s 1886 1115 m cl s 1886 1097 m -18 Y s 1886 1079 m cl s 1921 1079 m -17 X s 1904 1079 m cl s 1921 1079 m 18 X s 1939 1079 m cl s 1921 1079 m 20 Y s 1921 1099 m cl s 1921 1079 m -19 Y s
 1921 1060 m cl s 1957 1015 m -18 X s 1939 1015 m cl s 1957 1015 m 18 X s 1975 1015 m cl s 1957 1015 m 24 Y s 1957 1039 m cl s 1957 1015 m -25 Y s 1957 990 m cl s 1993 1015 m -18 X s 1975 1015 m cl s 1993 1015 m 18 X s 2011 1015 m cl s 1993 1015 m 24
 Y s 1993 1039 m cl s 1993 1015 m -25 Y s 1993 990 m cl s 2029 936 m -18 X s 2011 936 m cl s 2029 936 m 18 X s 2047 936 m cl s 2029 936 m 33 Y s 2029 969 m cl s 2029 936 m -34 Y s 2029 902 m cl s 2065 879 m -18 X s 2047 879 m cl s 2065 879 m 18 X s
 2083 879 m cl s 2065 879 m 41 Y s 2065 920 m cl s 2065 879 m -42 Y s 2065 837 m cl s 2101 858 m -18 X s 2083 858 m cl s 2101 858 m 18 X s 2119 858 m cl s 2101 858 m 45 Y s 2101 903 m cl s 2101 858 m -47 Y s 2101 811 m cl s 2136 783 m -17 X s 2119
 783 m cl s 2136 783 m 18 X s 2154 783 m cl s 2136 783 m 60 Y s 2136 843 m cl s 2136 783 m -64 Y s 2136 719 m cl s /w 31 def /w2 {w 2 div} def /w3 {w 3 div} def 381 858 417 818 452 705 488 846 524 818 560 801 596 705 632 936 667 869 703 906 739 922
 775 965 811 936 847 954 882 1015 918 999 954 1025 990 1011 1026 1029 1062 1039 1097 1103 1133 1109 1169 1140 1205 1157 1241 1205 1276 1221 1312 1273 1348 1286 1384 1304 1420 1346 1456 1361 1491 1381 1527 1406 1563 1415 1599 1399 1635 1383 1671 1356
 1706 1318 1742 1300 1778 1237 1814 1215 1850 1183 1886 1097 1921 1079 1957 1015 1993 1015 2029 936 2065 879 2101 858 2136 783 50 { m20} R 0 1 1 c 1 1 0 c black 1 1 0 c 363 777 m 36 12 d 35 11 d 36 12 d 36 12 d 36 12 d 36 12 d 36 13 d 35 14 d 36 13 d
 36 14 d 36 15 d 36 15 d 36 15 d 35 16 d 36 16 d 36 17 d 36 18 d 36 18 d 36 19 d 35 19 d 36 21 d 36 22 d 36 23 d 36 25 d 18 14 d 18 15 d 17 16 d 18 17 d 18 18 d 18 20 d 18 19 d 18 19 d 18 18 d 18 18 d 36 31 d 18 14 d 18 11 d 9 5 d 8 4 d 9 4 d 9 3 d 9
 2 d 9 2 d 9 1 d 9 1 d 9 X 9 -1 d 9 -2 d 9 -2 d 9 -3 d 9 -3 d 9 -5 d 9 -4 d 18 -11 d 18 -13 d 36 -31 d 17 -18 d 18 -18 d 18 -19 d 18 -19 d 18 -20 d 18 -19 d 18 -20 d 18 -20 d 18 -21 d 18 -20 d 18 -22 d 18 -22 d 35 -47 d 36 -51 d 36 -55 d 36 -59 d 36
 -63 d 36 -68 d 35 -72 d -35 72 d -36 68 d -36 63 d -36 59 d -36 55 d -36 51 d -35 47 d -18 22 d -18 22 d -18 20 d -18 21 d -18 20 d -18 20 d -18 19 d -18 20 d -18 19 d -18 19 d -18 18 d -17 18 d -36 31 d -18 13 d -18 11 d -9 4 d -9 5 d -9 3 d -9 3 d
 -9 2 d -9 2 d -9 1 d -9 X -9 -1 d -9 -1 d -9 -2 d -9 -2 d -9 -3 d -9 -4 d -8 -4 d -9 -5 d -18 -11 d -18 -14 d -36 -31 d -18 -18 d -18 -18 d -18 -19 d -18 -19 d -18 -20 d -18 -18 d -18 -17 d -17 -16 d -18 -15 d -18 -14 d -36 -25 d -36 -23 d -36 -22 d
 -36 -21 d -35 -19 d -36 -19 d -36 -18 d -36 -18 d -36 -17 d -36 -16 d -35 -16 d -36 -15 d -36 -15 d -36 -15 d -36 -14 d -36 -13 d -35 -14 d -36 -13 d -36 -12 d -36 -12 d -36 -12 d -36 -12 d -35 -11 d -36 -12 d f 0 1 1 c 0 1 0 c black 0 1 0 c 363 777
 m 36 12 d 35 11 d 36 12 d 36 12 d 36 12 d 36 12 d 36 13 d 35 14 d 36 13 d 36 14 d 36 15 d 36 15 d 36 15 d 35 16 d 36 16 d 36 17 d 36 18 d 36 18 d 36 19 d 35 19 d 36 21 d 36 22 d 36 23 d 36 25 d 18 14 d 18 15 d 17 16 d 18 17 d 18 18 d 18 20 d 18 19 d
 18 19 d 18 18 d 18 18 d 36 31 d 18 14 d 18 11 d 9 5 d 8 4 d 9 4 d 9 3 d 9 2 d 9 2 d 9 1 d 9 1 d 9 X 9 -1 d 9 -2 d 9 -2 d 9 -3 d 9 -3 d 9 -5 d 9 -4 d 18 -11 d 18 -13 d 36 -31 d 17 -18 d 18 -18 d 18 -19 d 18 -19 d 18 -20 d 18 -19 d 18 -20 d 18 -20 d
 18 -21 d 18 -20 d 18 -22 d 18 -22 d 35 -47 d 36 -51 d 36 -55 d 36 -59 d 36 -63 d 36 -68 d 35 -72 d -35 72 d -36 68 d -36 63 d -36 59 d -36 55 d -36 51 d -35 47 d -18 22 d -18 22 d -18 20 d -18 21 d -18 20 d -18 20 d -18 19 d -18 20 d -18 19 d -18 19
 d -18 18 d -17 18 d -36 31 d -18 13 d -18 11 d -9 4 d -9 5 d -9 3 d -9 3 d -9 2 d -9 2 d -9 1 d -9 X -9 -1 d -9 -1 d -9 -2 d -9 -2 d -9 -3 d -9 -4 d -8 -4 d -9 -5 d -18 -11 d -18 -14 d -36 -31 d -18 -18 d -18 -18 d -18 -19 d -18 -19 d -18 -20 d -18
 -18 d -18 -17 d -17 -16 d -18 -15 d -18 -14 d -36 -25 d -36 -23 d -36 -22 d -36 -21 d -35 -19 d -36 -19 d -36 -18 d -36 -18 d -36 -17 d -36 -16 d -35 -16 d -36 -15 d -36 -15 d -36 -15 d -36 -14 d -36 -13 d -35 -14 d -36 -13 d -36 -12 d -36 -12 d -36
 -12 d -36 -12 d -35 -11 d -36 -12 d f 0 0 1 c 9 lw black 0 0 1 c 363 777 m 36 12 d 35 11 d 36 12 d 36 12 d 36 12 d 36 12 d 36 13 d 35 14 d 36 13 d 36 14 d 36 15 d 36 15 d 36 15 d 35 16 d 36 16 d 36 17 d 36 18 d 36 18 d 36 19 d 35 19 d 36 21 d 36 22
 d 36 23 d 36 25 d 18 14 d 18 15 d 17 16 d 18 17 d 18 18 d 18 20 d 18 19 d 18 19 d 18 18 d 18 18 d 36 31 d 18 14 d 18 11 d 9 5 d 8 4 d 9 4 d 9 3 d 9 2 d 9 2 d 9 1 d 9 1 d 9 X 9 -1 d 9 -2 d 9 -2 d 9 -3 d 9 -3 d 9 -5 d 9 -4 d 18 -11 d 18 -13 d 36 -31 d
 17 -18 d 18 -18 d 18 -19 d 18 -19 d 18 -20 d 18 -19 d 18 -20 d 18 -20 d 18 -21 d 18 -20 d 18 -22 d 18 -22 d 35 -47 d 36 -51 d 36 -55 d 36 -59 d 36 -63 d 36 -68 d 35 -72 d s black 3 lw 381 858 m -18 X s 363 858 m cl s 381 858 m 18 X s 399 858 m cl s
 381 858 m 45 Y s 381 903 m cl s 381 858 m -47 Y s 381 811 m cl s 417 818 m -18 X s 399 818 m cl s 417 818 m 17 X s 434 818 m cl s 417 818 m 52 Y s 417 870 m cl s 417 818 m -55 Y s 417 763 m cl s 452 705 m -18 X s 434 705 m cl s 452 705 m 18 X s 470
 705 m cl s 452 705 m 81 Y s 452 786 m cl s 452 705 m -71 Y s 452 634 m cl s 488 846 m -18 X s 470 846 m cl s 488 846 m 18 X s 506 846 m cl s 488 846 m 47 Y s 488 893 m cl s 488 846 m -49 Y s 488 797 m cl s 524 818 m -18 X s 506 818 m cl s 524 818 m
 18 X s 542 818 m cl s 524 818 m 52 Y s 524 870 m cl s 524 818 m -55 Y s 524 763 m cl s 560 801 m -18 X s 542 801 m cl s 560 801 m 18 X s 578 801 m cl s 560 801 m 56 Y s 560 857 m cl s 560 801 m -59 Y s 560 742 m cl s 596 705 m -18 X s 578 705 m cl s
 596 705 m 18 X s 614 705 m cl s 596 705 m 81 Y s 596 786 m cl s 596 705 m -71 Y s 596 634 m cl s 632 936 m -18 X s 614 936 m cl s 632 936 m 17 X s 649 936 m cl s 632 936 m 33 Y s 632 969 m cl s 632 936 m -34 Y s 632 902 m cl s 667 869 m -18 X s 649
 869 m cl s 667 869 m 18 X s 685 869 m cl s 667 869 m 43 Y s 667 912 m cl s 667 869 m -45 Y s 667 824 m cl s 703 906 m -18 X s 685 906 m cl s 703 906 m 18 X s 721 906 m cl s 703 906 m 37 Y s 703 943 m cl s 703 906 m -38 Y s 703 868 m cl s 739 922 m
 -18 X s 721 922 m cl s 739 922 m 18 X s 757 922 m cl s 739 922 m 35 Y s 739 957 m cl s 739 922 m -36 Y s 739 886 m cl s 775 965 m -18 X s 757 965 m cl s 775 965 m 18 X s 793 965 m cl s 775 965 m 30 Y s 775 995 m cl s 775 965 m -30 Y s 775 935 m cl s
 811 936 m -18 X s 793 936 m cl s 811 936 m 18 X s 829 936 m cl s 811 936 m 33 Y s 811 969 m cl s 811 936 m -34 Y s 811 902 m cl s 847 954 m -18 X s 829 954 m cl s 847 954 m 17 X s 864 954 m cl s 847 954 m 31 Y s 847 985 m cl s 847 954 m -31 Y s 847
 923 m cl s 882 1015 m -18 X s 864 1015 m cl s 882 1015 m 18 X s 900 1015 m cl s 882 1015 m 24 Y s 882 1039 m cl s 882 1015 m -25 Y s 882 990 m cl s 918 999 m -18 X s 900 999 m cl s 918 999 m 18 X s 936 999 m cl s 918 999 m 26 Y s 918 1025 m cl s 918
 999 m -27 Y s 918 972 m cl s 954 1025 m -18 X s 936 1025 m cl s 954 1025 m 18 X s 972 1025 m cl s 954 1025 m 24 Y s 954 1049 m cl s 954 1025 m -23 Y s 954 1002 m cl s 990 1011 m -18 X s 972 1011 m cl s 990 1011 m 18 X s 1008 1011 m cl s 990 1011 m
 25 Y s 990 1036 m cl s 990 1011 m -26 Y s 990 985 m cl s 1026 1029 m -18 X s 1008 1029 m cl s 1026 1029 m 18 X s 1044 1029 m cl s 1026 1029 m 23 Y s 1026 1052 m cl s 1026 1029 m -24 Y s 1026 1005 m cl s 1062 1039 m -18 X s 1044 1039 m cl s 1062 1039
 m 17 X s 1079 1039 m cl s 1062 1039 m 22 Y s 1062 1061 m cl s 1062 1039 m -23 Y s 1062 1016 m cl s 1097 1103 m -18 X s 1079 1103 m cl s 1097 1103 m 18 X s 1115 1103 m cl s 1097 1103 m 18 Y s 1097 1121 m cl s 1097 1103 m -17 Y s 1097 1086 m cl s 1133
 1109 m -18 X s 1115 1109 m cl s 1133 1109 m 18 X s 1151 1109 m cl s 1133 1109 m 17 Y s 1133 1126 m cl s 1133 1109 m -17 Y s 1133 1092 m cl s 1169 1140 m -18 X s 1151 1140 m cl s 1169 1140 m 18 X s 1187 1140 m cl s 1169 1140 m 15 Y s 1169 1155 m cl s
 1169 1140 m -16 Y s 1169 1124 m cl s 1205 1157 m -18 X s 1187 1157 m cl s 1205 1157 m 18 X s 1223 1157 m cl s 1205 1157 m 14 Y s 1205 1171 m cl s 1205 1157 m -14 Y s 1205 1143 m cl s 1241 1205 m -18 X s 1223 1205 m cl s 1241 1205 m 18 X s 1259 1205
 m cl s 1241 1205 m 11 Y s 1241 1216 m cl s 1241 1205 m -12 Y s 1241 1193 m cl s 1276 1221 m -17 X s 1259 1221 m cl s 1276 1221 m 18 X s 1294 1221 m cl s 1276 1221 m 11 Y s 1276 1232 m cl s 1276 1221 m -11 Y s 1276 1210 m cl s 1312 1273 m -18 X s
 1294 1273 m cl s 1312 1273 m 18 X s 1330 1273 m cl s 1312 1273 m 9 Y s 1312 1282 m cl s 1312 1273 m -9 Y s 1312 1264 m cl s 1348 1286 m -18 X s 1330 1286 m cl s 1348 1286 m 18 X s 1366 1286 m cl s 1348 1286 m 9 Y s 1348 1295 m cl s 1348 1286 m -9 Y
 s 1348 1277 m cl s 1384 1304 m -18 X s 1366 1304 m cl s 1384 1304 m 18 X s 1402 1304 m cl s 1384 1304 m 8 Y s 1384 1312 m cl s 1384 1304 m -9 Y s 1384 1295 m cl s 1420 1346 m -18 X s 1402 1346 m cl s 1420 1346 m 18 X s 1438 1346 m cl s 1420 1346 m 7
 Y s 1420 1353 m cl s 1420 1346 m -7 Y s 1420 1339 m cl s 1456 1361 m -18 X s 1438 1361 m cl s 1456 1361 m 18 X s 1474 1361 m cl s 1456 1361 m 7 Y s 1456 1368 m cl s 1456 1361 m -7 Y s 1456 1354 m cl s 1491 1381 m -17 X s 1474 1381 m cl s 1491 1381 m
 18 X s 1509 1381 m cl s 1491 1381 m 6 Y s 1491 1387 m cl s 1491 1381 m -6 Y s 1491 1375 m cl s 1527 1406 m -18 X s 1509 1406 m cl s 1527 1406 m 18 X s 1545 1406 m cl s 1527 1406 m 5 Y s 1527 1411 m cl s 1527 1406 m -6 Y s 1527 1400 m cl s 1563 1415
 m -18 X s 1545 1415 m cl s 1563 1415 m 18 X s 1581 1415 m cl s 1563 1415 m 6 Y s 1563 1421 m cl s 1563 1415 m -5 Y s 1563 1410 m cl s 1599 1399 m -18 X s 1581 1399 m cl s 1599 1399 m 18 X s 1617 1399 m cl s 1599 1399 m 6 Y s 1599 1405 m cl s 1599
 1399 m -6 Y s 1599 1393 m cl s 1635 1383 m -18 X s 1617 1383 m cl s 1635 1383 m 18 X s 1653 1383 m cl s 1635 1383 m 7 Y s 1635 1390 m cl s 1635 1383 m -6 Y s 1635 1377 m cl s 1671 1356 m -18 X s 1653 1356 m cl s 1671 1356 m 18 X s 1689 1356 m cl s
 1671 1356 m 7 Y s 1671 1363 m cl s 1671 1356 m -7 Y s 1671 1349 m cl s 1706 1318 m -17 X s 1689 1318 m cl s 1706 1318 m 18 X s 1724 1318 m cl s 1706 1318 m 8 Y s 1706 1326 m cl s 1706 1318 m -7 Y s 1706 1311 m cl s 1742 1300 m -18 X s 1724 1300 m cl
 s 1742 1300 m 18 X s 1760 1300 m cl s 1742 1300 m 8 Y s 1742 1308 m cl s 1742 1300 m -9 Y s 1742 1291 m cl s 1778 1237 m -18 X s 1760 1237 m cl s 1778 1237 m 18 X s 1796 1237 m cl s 1778 1237 m 10 Y s 1778 1247 m cl s 1778 1237 m -10 Y s 1778 1227 m
 cl s 1814 1215 m -18 X s 1796 1215 m cl s 1814 1215 m 18 X s 1832 1215 m cl s 1814 1215 m 11 Y s 1814 1226 m cl s 1814 1215 m -11 Y s 1814 1204 m cl s 1850 1183 m -18 X s 1832 1183 m cl s 1850 1183 m 18 X s 1868 1183 m cl s 1850 1183 m 12 Y s 1850
 1195 m cl s 1850 1183 m -13 Y s 1850 1170 m cl s 1886 1097 m -18 X s 1868 1097 m cl s 1886 1097 m 18 X s 1904 1097 m cl s 1886 1097 m 18 Y s 1886 1115 m cl s 1886 1097 m -18 Y s 1886 1079 m cl s 1921 1079 m -17 X s 1904 1079 m cl s 1921 1079 m 18 X
 s 1939 1079 m cl s 1921 1079 m 20 Y s 1921 1099 m cl s 1921 1079 m -19 Y s 1921 1060 m cl s 1957 1015 m -18 X s 1939 1015 m cl s 1957 1015 m 18 X s 1975 1015 m cl s 1957 1015 m 24 Y s 1957 1039 m cl s 1957 1015 m -25 Y s 1957 990 m cl s 1993 1015 m
 -18 X s 1975 1015 m cl s 1993 1015 m 18 X s 2011 1015 m cl s 1993 1015 m 24 Y s 1993 1039 m cl s 1993 1015 m -25 Y s 1993 990 m cl s 2029 936 m -18 X s 2011 936 m cl s 2029 936 m 18 X s 2047 936 m cl s 2029 936 m 33 Y s 2029 969 m cl s 2029 936 m
 -34 Y s 2029 902 m cl s 2065 879 m -18 X s 2047 879 m cl s 2065 879 m 18 X s 2083 879 m cl s 2065 879 m 41 Y s 2065 920 m cl s 2065 879 m -42 Y s 2065 837 m cl s 2101 858 m -18 X s 2083 858 m cl s 2101 858 m 18 X s 2119 858 m cl s 2101 858 m 45 Y s
 2101 903 m cl s 2101 858 m -47 Y s 2101 811 m cl s 2136 783 m -17 X s 2119 783 m cl s 2136 783 m 18 X s 2154 783 m cl s 2136 783 m 60 Y s 2136 843 m cl s 2136 783 m -64 Y s 2136 719 m cl s 381 858 417 818 452 705 488 846 524 818 560 801 596 705 632
 936 667 869 703 906 739 922 775 965 811 936 847 954 882 1015 918 999 954 1025 990 1011 1026 1029 1062 1039 1097 1103 1133 1109 1169 1140 1205 1157 1241 1205 1276 1221 1312 1273 1348 1286 1384 1304 1420 1346 1456 1361 1491 1381 1527 1406 1563 1415
 1599 1399 1635 1383 1671 1356 1706 1318 1742 1300 1778 1237 1814 1215 1850 1183 1886 1097 1921 1079 1957 1015 1993 1015 2029 936 2065 879 2101 858 2136 783 50 { m20} R 0.52 0.76 0.64 c[ 4 8] 0 sd 9 lw black 0.52 0.76 0.64 c 363 777 m 36 12 d 35 11 d
 36 12 d 36 12 d 36 12 d 36 12 d 36 13 d 35 14 d 36 13 d 36 14 d 36 15 d 36 15 d 36 15 d 35 16 d 36 16 d 36 17 d 36 18 d 36 18 d 36 19 d 35 19 d 36 21 d 36 21 d 18 11 d 18 12 d 18 11 d 18 12 d 18 12 d 18 13 d 17 13 d 18 13 d 18 13 d 18 14 d 36 24 d
 18 11 d 18 9 d 18 9 d 18 7 d 18 6 d 18 5 d 17 4 d 18 3 d 18 2 d 36 X 18 -2 d 18 -3 d 18 -3 d 18 -5 d 18 -6 d 18 -7 d 18 -8 d 17 -10 d 18 -10 d 36 -24 d 36 -28 d 18 -16 d 18 -17 d 18 -18 d 18 -19 d 18 -20 d 18 -22 d 17 -22 d 18 -24 d 18 -24 d 18 -26
 d 18 -27 d 18 -28 d 18 -29 d 18 -30 d 36 -63 d 36 -68 d 35 -72 d s 0.54 0.66 0.63 c black 0.54 0.66 0.63 c 1225 634 m 16 66 d s 1241 700 m 18 70 d 17 66 d 18 61 d 9 30 d 9 28 d 9 27 d 9 26 d 9 25 d 9 24 d 9 23 d 9 22 d 9 20 d 9 20 d 9 19 d 9 17 d 9
 17 d 9 15 d 18 28 d 18 24 d 9 10 d 9 9 d 9 8 d 8 7 d 9 6 d 9 5 d 9 4 d 9 3 d 9 2 d 18 X 9 -1 d 9 -3 d 9 -3 d 9 -5 d 9 -6 d 9 -6 d 9 -8 d 9 -9 d 9 -10 d 18 -23 d 18 -27 d 9 -15 d 9 -16 d 8 -17 d 9 -19 d 9 -19 d 9 -20 d 9 -22 d 9 -23 d 9 -23 d 9 -25 d
 9 -25 d 9 -27 d 9 -28 d 9 -29 d 18 -61 d 18 -65 d 18 -69 d 18 -74 d 1 -4 d s black[  ] 0 sd 3 lw 363 634 m 1791 X s 434 659 m -25 Y s 506 646 m -12 Y s 578 646 m -12 Y s 649 646 m -12 Y s 721 659 m -25 Y s 793 646 m -12 Y s 864 646 m -12 Y s 936 646
 m -12 Y s 1008 659 m -25 Y s 1079 646 m -12 Y s 1151 646 m -12 Y s 1223 646 m -12 Y s 1294 659 m -25 Y s 1366 646 m -12 Y s 1438 646 m -12 Y s 1509 646 m -12 Y s 1581 659 m -25 Y s 1653 646 m -12 Y s 1724 646 m -12 Y s 1796 646 m -12 Y s 1868 659 m
 -25 Y s 1939 646 m -12 Y s 2011 646 m -12 Y s 2083 646 m -12 Y s 2154 659 m -25 Y s 434 659 m -25 Y s 363 646 m -12 Y s 363 1484 m 1791 X s 434 1459 m 25 Y s 506 1471 m 13 Y s 578 1471 m 13 Y s 649 1471 m 13 Y s 721 1459 m 25 Y s 793 1471 m 13 Y s
 864 1471 m 13 Y s 936 1471 m 13 Y s 1008 1459 m 25 Y s 1079 1471 m 13 Y s 1151 1471 m 13 Y s 1223 1471 m 13 Y s 1294 1459 m 25 Y s 1366 1471 m 13 Y s 1438 1471 m 13 Y s 1509 1471 m 13 Y s 1581 1459 m 25 Y s 1653 1471 m 13 Y s 1724 1471 m 13 Y s 1796
 1471 m 13 Y s 1868 1459 m 25 Y s 1939 1471 m 13 Y s 2011 1471 m 13 Y s 2083 1471 m 13 Y s 2154 1459 m 25 Y s 434 1459 m 25 Y s 363 1471 m 13 Y s 363 634 m 850 Y s 390 665 m -27 X s 390 705 m -27 X s 390 736 m -27 X s 390 761 m -27 X s 390 783 m -27
 X s 390 801 m -27 X s 390 818 m -27 X s 417 832 m -54 X s 390 929 m -27 X s 390 985 m -27 X s 390 1025 m -27 X s 390 1056 m -27 X s 390 1082 m -27 X s 390 1103 m -27 X s 390 1122 m -27 X s 390 1138 m -27 X s 417 1153 m -54 X s 390 1249 m -27 X s 390
 1306 m -27 X s 390 1346 m -27 X s 390 1377 m -27 X s 390 1402 m -27 X s 390 1424 m -27 X s 390 1442 m -27 X s 390 1459 m -27 X s 417 1473 m -54 X s 2154 634 m 850 Y s 2127 665 m 27 X s 2127 705 m 27 X s 2127 736 m 27 X s 2127 761 m 27 X s 2127 783 m
 27 X s 2127 801 m 27 X s 2127 818 m 27 X s 2101 832 m 53 X s 2127 929 m 27 X s 2127 985 m 27 X s 2127 1025 m 27 X s 2127 1056 m 27 X s 2127 1082 m 27 X s 2127 1103 m 27 X s 2127 1122 m 27 X s 2127 1138 m 27 X s 2101 1153 m 53 X s 2127 1249 m 27 X s
 2127 1306 m 27 X s 2127 1346 m 27 X s 2127 1377 m 27 X s 2127 1402 m 27 X s 2127 1424 m 27 X s 2127 1442 m 27 X s 2127 1459 m 27 X s 2101 1473 m 53 X s
 gsave  2268 1077 0 461 C 677.708 1215.31 t 0 r /Helvetica findfont 58.7189 sf 0 0 m (4mu) show NC gr  1 1 1 c 453 161 454 1269 bf black
 gsave  2268 1077 0 461 C 566.929 1371.71 t 0 r /Helvetica-Bold findfont 48.9324 sf 0 0 m (MC15) show NC gr  510 1390 m20
 gsave  2268 1077 0 461 C 566.929 1293.51 t 0 r /Helvetica-Bold findfont 48.9324 sf 0 0 m (Projection of Signal pdf) show NC gr  0 0 1 c 9 lw 471 1309 m 79 X s black 3 lw 1 1 1 c 2268 461 0 0 bf black 1 1 1 c 1791 364 363 74 bf black 1791 364 363 74
 bl 363 74 m 1791 X s
 gsave  2268 461 0 0 C 1915.83 13.0329 t 0 r /Helvetica findfont 22.9045 sf 0 0 m (4l Invariant Mass \(GeV\)) show NC gr  434 85 m -11 Y s 506 79 m -5 Y s 578 79 m -5 Y s 649 79 m -5 Y s 721 85 m -11 Y s 793 79 m -5 Y s 864 79 m -5 Y s 936 79 m -5 Y
 s 1008 85 m -11 Y s 1079 79 m -5 Y s 1151 79 m -5 Y s 1223 79 m -5 Y s 1294 85 m -11 Y s 1366 79 m -5 Y s 1438 79 m -5 Y s 1509 79 m -5 Y s 1581 85 m -11 Y s 1653 79 m -5 Y s 1724 79 m -5 Y s 1796 79 m -5 Y s 1868 85 m -11 Y s 1939 79 m -5 Y s 2011
 79 m -5 Y s 2083 79 m -5 Y s 2154 85 m -11 Y s 434 85 m -11 Y s 363 79 m -5 Y s
 gsave  2268 461 0 0 C 413.793 55.3896 t 0 r /Helvetica findfont 22.9045 sf 0 0 m (520) show NC gr 
 gsave  2268 461 0 0 C 700.516 55.3896 t 0 r /Helvetica findfont 22.9045 sf 0 0 m (540) show NC gr 
 gsave  2268 461 0 0 C 987.239 55.3896 t 0 r /Helvetica findfont 22.9045 sf 0 0 m (560) show NC gr 
 gsave  2268 461 0 0 C 1273.96 55.3896 t 0 r /Helvetica findfont 22.9045 sf 0 0 m (580) show NC gr 
 gsave  2268 461 0 0 C 1560.68 55.3896 t 0 r /Helvetica findfont 22.9045 sf 0 0 m (600) show NC gr 
 gsave  2268 461 0 0 C 1847.41 55.3896 t 0 r /Helvetica findfont 22.9045 sf 0 0 m (620) show NC gr 
 gsave  2268 461 0 0 C 2134.13 55.3896 t 0 r /Helvetica findfont 22.9045 sf 0 0 m (640) show NC gr  363 438 m 1791 X s 434 427 m 11 Y s 506 433 m 5 Y s 578 433 m 5 Y s 649 433 m 5 Y s 721 427 m 11 Y s 793 433 m 5 Y s 864 433 m 5 Y s 936 433 m 5 Y s
 1008 427 m 11 Y s 1079 433 m 5 Y s 1151 433 m 5 Y s 1223 433 m 5 Y s 1294 427 m 11 Y s 1366 433 m 5 Y s 1438 433 m 5 Y s 1509 433 m 5 Y s 1581 427 m 11 Y s 1653 433 m 5 Y s 1724 433 m 5 Y s 1796 433 m 5 Y s 1868 427 m 11 Y s 1939 433 m 5 Y s 2011
 433 m 5 Y s 2083 433 m 5 Y s 2154 427 m 11 Y s 434 427 m 11 Y s 363 433 m 5 Y s 363 74 m 364 Y s 417 74 m -54 X s 390 81 m -27 X s 390 88 m -27 X s 390 96 m -27 X s 390 103 m -27 X s 417 110 m -54 X s 390 118 m -27 X s 390 125 m -27 X s 390 132 m
 -27 X s 390 139 m -27 X s 417 147 m -54 X s 390 154 m -27 X s 390 161 m -27 X s 390 169 m -27 X s 390 176 m -27 X s 417 183 m -54 X s 390 190 m -27 X s 390 198 m -27 X s 390 205 m -27 X s 390 212 m -27 X s 417 220 m -54 X s 390 227 m -27 X s 390 234
 m -27 X s 390 241 m -27 X s 390 249 m -27 X s 417 256 m -54 X s 390 263 m -27 X s 390 271 m -27 X s 390 278 m -27 X s 390 285 m -27 X s 417 293 m -54 X s 390 300 m -27 X s 390 307 m -27 X s 390 314 m -27 X s 390 322 m -27 X s 417 329 m -54 X s 390
 336 m -27 X s 390 344 m -27 X s 390 351 m -27 X s 390 358 m -27 X s 417 365 m -54 X s 390 373 m -27 X s 390 380 m -27 X s 390 387 m -27 X s 390 395 m -27 X s 417 402 m -54 X s 390 409 m -27 X s 390 416 m -27 X s 390 424 m -27 X s 390 431 m -27 X s
 417 438 m -54 X s
 gsave  2268 461 0 0 C 329.08 65.1643 t 0 r /Helvetica findfont 22.9045 sf 0 0 m (\2555) show NC gr 
 gsave  2268 461 0 0 C 329.08 101.005 t 0 r /Helvetica findfont 22.9045 sf 0 0 m (\2554) show NC gr 
 gsave  2268 461 0 0 C 329.08 140.103 t 0 r /Helvetica findfont 22.9045 sf 0 0 m (\2553) show NC gr 
 gsave  2268 461 0 0 C 329.08 175.944 t 0 r /Helvetica findfont 22.9045 sf 0 0 m (\2552) show NC gr 
 gsave  2268 461 0 0 C 332.338 211.784 t 0 r /Helvetica findfont 22.9045 sf 0 0 m (\2551) show NC gr 
 gsave  2268 461 0 0 C 335.596 247.624 t 0 r /Helvetica findfont 22.9045 sf 0 0 m (0) show NC gr 
 gsave  2268 461 0 0 C 338.854 283.465 t 0 r /Helvetica findfont 22.9045 sf 0 0 m (1) show NC gr 
 gsave  2268 461 0 0 C 335.596 319.305 t 0 r /Helvetica findfont 22.9045 sf 0 0 m (2) show NC gr 
 gsave  2268 461 0 0 C 335.596 358.403 t 0 r /Helvetica findfont 22.9045 sf 0 0 m (3) show NC gr 
 gsave  2268 461 0 0 C 335.596 394.244 t 0 r /Helvetica findfont 22.9045 sf 0 0 m (4) show NC gr 
 gsave  2268 461 0 0 C 335.596 430.084 t 0 r /Helvetica findfont 22.9045 sf 0 0 m (5) show NC gr  2154 74 m 364 Y s 2101 74 m 53 X s 2127 81 m 27 X s 2127 88 m 27 X s 2127 96 m 27 X s 2127 103 m 27 X s 2101 110 m 53 X s 2127 118 m 27 X s 2127 125 m
 27 X s 2127 132 m 27 X s 2127 139 m 27 X s 2101 147 m 53 X s 2127 154 m 27 X s 2127 161 m 27 X s 2127 169 m 27 X s 2127 176 m 27 X s 2101 183 m 53 X s 2127 190 m 27 X s 2127 198 m 27 X s 2127 205 m 27 X s 2127 212 m 27 X s 2101 220 m 53 X s 2127 227
 m 27 X s 2127 234 m 27 X s 2127 241 m 27 X s 2127 249 m 27 X s 2101 256 m 53 X s 2127 263 m 27 X s 2127 271 m 27 X s 2127 278 m 27 X s 2127 285 m 27 X s 2101 293 m 53 X s 2127 300 m 27 X s 2127 307 m 27 X s 2127 314 m 27 X s 2127 322 m 27 X s 2101
 329 m 53 X s 2127 336 m 27 X s 2127 344 m 27 X s 2127 351 m 27 X s 2127 358 m 27 X s 2101 365 m 53 X s 2127 373 m 27 X s 2127 380 m 27 X s 2127 387 m 27 X s 2127 395 m 27 X s 2101 402 m 53 X s 2127 409 m 27 X s 2127 416 m 27 X s 2127 424 m 27 X s
 2127 431 m 27 X s 2101 438 m 53 X s 6 lw 0.2 0.8 0.2 c black 3 lw 0.2 0.8 0.2 c 363 256 m 53 Y 36 X -36 Y 35 X -66 Y 36 X 71 Y 36 X -29 Y 36 X -18 Y 36 X -64 Y 36 X 154 Y 35 X -75 Y 36 X 21 Y 36 X 2 Y 36 X 35 Y 36 X -52 Y 36 X 3 Y 35 X 61 Y 36 X -44
 Y 36 X 15 Y 36 X -48 Y 36 X -2 Y 36 X -17 Y 35 X 81 Y 36 X -30 Y 36 X 21 Y 36 X -14 Y 36 X 66 Y 36 X -38 Y 35 X 68 Y 36 X -93 Y 36 X -88 Y 36 X 32 Y 36 X -77 Y 36 X -10 Y 35 X 82 Y 36 X 62 Y 36 X -43 Y 36 X 27 Y 72 X -19 Y 35 X 80 Y 36 X -97 Y 36 X
 58 Y 36 X 21 Y 36 X -105 Y 36 X 54 Y 35 X -24 Y 36 X 74 Y 36 X -35 Y 36 X 1 Y 36 X 29 Y 36 X -14 Y 35 X -33 Y f 6 lw black 0.2 0.8 0.2 c black 363 309 m 36 X -36 Y 35 X -66 Y 36 X 71 Y 36 X -29 Y 36 X -18 Y 36 X -64 Y 36 X 154 Y 35 X -75 Y 36 X 21 Y
 36 X 2 Y 36 X 35 Y 36 X -52 Y 36 X 3 Y 35 X 61 Y 36 X -44 Y 36 X 15 Y 36 X -48 Y 36 X -2 Y 36 X -17 Y 35 X 81 Y 36 X -30 Y 36 X 21 Y 36 X -14 Y 36 X 66 Y 36 X -38 Y 35 X 68 Y 36 X -93 Y 36 X -88 Y 36 X 32 Y 36 X -77 Y 36 X -10 Y 35 X 82 Y 36 X 62 Y
 36 X -43 Y 36 X 27 Y 72 X -19 Y 35 X 80 Y 36 X -97 Y 36 X 58 Y 36 X 21 Y 36 X -105 Y 36 X 54 Y 35 X -24 Y 36 X 74 Y 36 X -35 Y 36 X 1 Y 36 X 29 Y 36 X -14 Y 35 X s 3 lw 363 74 m 1791 X s 434 85 m -11 Y s 506 79 m -5 Y s 578 79 m -5 Y s 649 79 m -5 Y
 s 721 85 m -11 Y s 793 79 m -5 Y s 864 79 m -5 Y s 936 79 m -5 Y s 1008 85 m -11 Y s 1079 79 m -5 Y s 1151 79 m -5 Y s 1223 79 m -5 Y s 1294 85 m -11 Y s 1366 79 m -5 Y s 1438 79 m -5 Y s 1509 79 m -5 Y s 1581 85 m -11 Y s 1653 79 m -5 Y s 1724 79 m
 -5 Y s 1796 79 m -5 Y s 1868 85 m -11 Y s 1939 79 m -5 Y s 2011 79 m -5 Y s 2083 79 m -5 Y s 2154 85 m -11 Y s 434 85 m -11 Y s 363 79 m -5 Y s 363 438 m 1791 X s 434 427 m 11 Y s 506 433 m 5 Y s 578 433 m 5 Y s 649 433 m 5 Y s 721 427 m 11 Y s 793
 433 m 5 Y s 864 433 m 5 Y s 936 433 m 5 Y s 1008 427 m 11 Y s 1079 433 m 5 Y s 1151 433 m 5 Y s 1223 433 m 5 Y s 1294 427 m 11 Y s 1366 433 m 5 Y s 1438 433 m 5 Y s 1509 433 m 5 Y s 1581 427 m 11 Y s 1653 433 m 5 Y s 1724 433 m 5 Y s 1796 433 m 5 Y
 s 1868 427 m 11 Y s 1939 433 m 5 Y s 2011 433 m 5 Y s 2083 433 m 5 Y s 2154 427 m 11 Y s 434 427 m 11 Y s 363 433 m 5 Y s 363 74 m 364 Y s 417 74 m -54 X s 390 81 m -27 X s 390 88 m -27 X s 390 96 m -27 X s 390 103 m -27 X s 417 110 m -54 X s 390
 118 m -27 X s 390 125 m -27 X s 390 132 m -27 X s 390 139 m -27 X s 417 147 m -54 X s 390 154 m -27 X s 390 161 m -27 X s 390 169 m -27 X s 390 176 m -27 X s 417 183 m -54 X s 390 190 m -27 X s 390 198 m -27 X s 390 205 m -27 X s 390 212 m -27 X s
 417 220 m -54 X s 390 227 m -27 X s 390 234 m -27 X s 390 241 m -27 X s 390 249 m -27 X s 417 256 m -54 X s 390 263 m -27 X s 390 271 m -27 X s 390 278 m -27 X s 390 285 m -27 X s 417 293 m -54 X s 390 300 m -27 X s 390 307 m -27 X s 390 314 m -27 X
 s 390 322 m -27 X s 417 329 m -54 X s 390 336 m -27 X s 390 344 m -27 X s 390 351 m -27 X s 390 358 m -27 X s 417 365 m -54 X s 390 373 m -27 X s 390 380 m -27 X s 390 387 m -27 X s 390 395 m -27 X s 417 402 m -54 X s 390 409 m -27 X s 390 416 m -27
 X s 390 424 m -27 X s 390 431 m -27 X s 417 438 m -54 X s 2154 74 m 364 Y s 2101 74 m 53 X s 2127 81 m 27 X s 2127 88 m 27 X s 2127 96 m 27 X s 2127 103 m 27 X s 2101 110 m 53 X s 2127 118 m 27 X s 2127 125 m 27 X s 2127 132 m 27 X s 2127 139 m 27 X
 s 2101 147 m 53 X s 2127 154 m 27 X s 2127 161 m 27 X s 2127 169 m 27 X s 2127 176 m 27 X s 2101 183 m 53 X s 2127 190 m 27 X s 2127 198 m 27 X s 2127 205 m 27 X s 2127 212 m 27 X s 2101 220 m 53 X s 2127 227 m 27 X s 2127 234 m 27 X s 2127 241 m 27
 X s 2127 249 m 27 X s 2101 256 m 53 X s 2127 263 m 27 X s 2127 271 m 27 X s 2127 278 m 27 X s 2127 285 m 27 X s 2101 293 m 53 X s 2127 300 m 27 X s 2127 307 m 27 X s 2127 314 m 27 X s 2127 322 m 27 X s 2101 329 m 53 X s 2127 336 m 27 X s 2127 344 m
 27 X s 2127 351 m 27 X s 2127 358 m 27 X s 2101 365 m 53 X s 2127 373 m 27 X s 2127 380 m 27 X s 2127 387 m 27 X s 2127 395 m 27 X s 2101 402 m 53 X s 2127 409 m 27 X s 2127 416 m 27 X s 2127 424 m 27 X s 2127 431 m 27 X s 2101 438 m 53 X s
 gr  gr showpage
end
%%EOF
