%!PS-Adobe-2.0 EPSF-2.0
%%BoundingBox:  0 0 567 384
%%Title: H4l2015_plotfit/gg_mass_signal_400_fixed_H4l_4e.eps: 
%%Creator: ROOT Version 5.34/10
%%CreationDate: Thu Feb 16 13:48:31 2017
%%EndComments
%%BeginProlog
80 dict begin
/s {stroke} def /l {lineto} def /m {moveto} def /t {translate} def
/r {rotate} def /rl {roll}  def /R {repeat} def
/d {rlineto} def /rm {rmoveto} def /gr {grestore} def /f {eofill} def
/c {setrgbcolor} def /black {0 setgray} def /sd {setdash} def
/cl {closepath} def /sf {scalefont setfont} def /lw {setlinewidth} def
/box {m dup 0 exch d exch 0 d 0 exch neg d cl} def
/NC{systemdict begin initclip end}def/C{NC box clip newpath}def
/bl {box s} def /bf {box f} def /Y { 0 exch d} def /X { 0 d} def 
/K {{pop pop 0 moveto} exch kshow} bind def
/ita {/ang 15 def gsave [1 0 ang dup sin exch cos div 1 0 0] concat} def 
/mp {newpath /y exch def /x exch def} def
/side {[w .77 mul w .23 mul] .385 w mul sd w 0 l currentpoint t -144 r} def
/mr {mp x y w2 0 360 arc} def /m24 {mr s} def /m20 {mr f} def
/mb {mp x y w2 add m w2 neg 0 d 0 w neg d w 0 d 0 w d cl} def
/mt {mp x y w2 add m w2 neg w neg d w 0 d cl} def
/m21 {mb f} def /m25 {mb s} def /m22 {mt f} def /m26{mt s} def
/m23 {mp x y w2 sub m w2 w d w neg 0 d cl f} def
/m27 {mp x y w2 add m w3 neg w2 neg d w3 w2 neg d w3 w2 d cl s} def
/m28 {mp x w2 sub y w2 sub w3 add m w3 0 d  0 w3 neg d w3 0 d 0 w3 d w3 0 d  0 w3 d w3 neg 0 d 0 w3 d w3 neg 0 d 0 w3 neg d w3 neg 0 d cl s } def
/m29 {mp gsave x w2 sub y w2 add w3 sub m currentpoint t 4 {side} repeat cl fill gr} def
/m30 {mp gsave x w2 sub y w2 add w3 sub m currentpoint t 4 {side} repeat cl s gr} def
/m31 {mp x y w2 sub m 0 w d x w2 sub y m w 0 d x w2 sub y w2 add m w w neg d x w2 sub y w2 sub m w w d s} def
/m32 {mp x y w2 sub m w2 w d w neg 0 d cl s} def
/m33 {mp x y w2 add m w3 neg w2 neg d w3 w2 neg d w3 w2 d cl f} def
/m34 {mp x w2 sub y w2 sub w3 add m w3 0 d  0 w3 neg d w3 0 d 0 w3 d w3 0 d  0 w3 d w3 neg 0 d 0 w3 d w3 neg 0 d 0 w3 neg d w3 neg 0 d cl f } def
/m2 {mp x y w2 sub m 0 w d x w2 sub y m w 0 d s} def
/m5 {mp x w2 sub y w2 sub m w w d x w2 sub y w2 add m w w neg d s} def
/reEncode {exch findfont dup length dict begin {1 index /FID eq  {pop pop} {def} ifelse } forall /Encoding exch def currentdict end dup /FontName get exch definefont pop } def [/Times-Bold /Times-Italic /Times-BoldItalic /Helvetica /Helvetica-Oblique
 /Helvetica-Bold /Helvetica-BoldOblique /Courier /Courier-Oblique /Courier-Bold /Courier-BoldOblique /Times-Roman /AvantGarde-Book /AvantGarde-BookOblique /AvantGarde-Demi /AvantGarde-DemiOblique /Bookman-Demi /Bookman-DemiItalic /Bookman-Light
 /Bookman-LightItalic /Helvetica-Narrow /Helvetica-Narrow-Bold /Helvetica-Narrow-BoldOblique /Helvetica-Narrow-Oblique /NewCenturySchlbk-Roman /NewCenturySchlbk-Bold /NewCenturySchlbk-BoldItalic /NewCenturySchlbk-Italic /Palatino-Bold
 /Palatino-BoldItalic /Palatino-Italic /Palatino-Roman ] {ISOLatin1Encoding reEncode } forall
%%EndProlog
%%BeginSetup
%%EndSetup
newpath  gsave  .25 .25 scale  gsave  0 0 t black[  ] 0 sd 3 lw 1 1 1 c 2268 1538 0 0 bf black 1 1 1 c 2222 738 23 784 bf black 1 1 1 c 2222 739 23 15 bf black 1 1 1 c 2268 1077 0 461 bf black 1 1 1 c 1791 850 363 634 bf black 1791 850 363 634 bl 363
 634 m 1791 X s
 gsave  2268 1077 0 461 C 1642.14 498.507 t 0 r /Helvetica findfont 48.9324 sf 0 0 m (4l Invariant Mass \(GeV\)) show NC gr  363 659 m -25 Y s 429 646 m -12 Y s 496 646 m -12 Y s 562 646 m -12 Y s 628 646 m -12 Y s 695 659 m -25 Y s 761 646 m -12 Y s
 827 646 m -12 Y s 894 646 m -12 Y s 960 646 m -12 Y s 1026 659 m -25 Y s 1093 646 m -12 Y s 1159 646 m -12 Y s 1225 646 m -12 Y s 1292 646 m -12 Y s 1358 659 m -25 Y s 1424 646 m -12 Y s 1491 646 m -12 Y s 1557 646 m -12 Y s 1624 646 m -12 Y s 1690
 659 m -25 Y s 1756 646 m -12 Y s 1823 646 m -12 Y s 1889 646 m -12 Y s 1955 646 m -12 Y s 2022 659 m -25 Y s 2022 659 m -25 Y s 2088 646 m -12 Y s 2154 646 m -12 Y s
 gsave  2268 1077 0 461 C 319.305 586.478 t 0 r /Helvetica findfont 48.9324 sf 0 0 m (360) show NC gr 
 gsave  2268 1077 0 461 C 651.643 586.478 t 0 r /Helvetica findfont 48.9324 sf 0 0 m (370) show NC gr 
 gsave  2268 1077 0 461 C 983.98 586.478 t 0 r /Helvetica findfont 48.9324 sf 0 0 m (380) show NC gr 
 gsave  2268 1077 0 461 C 1313.06 586.478 t 0 r /Helvetica findfont 48.9324 sf 0 0 m (390) show NC gr 
 gsave  2268 1077 0 461 C 1645.4 586.478 t 0 r /Helvetica findfont 48.9324 sf 0 0 m (400) show NC gr 
 gsave  2268 1077 0 461 C 1977.74 586.478 t 0 r /Helvetica findfont 48.9324 sf 0 0 m (410) show NC gr  363 1484 m 1791 X s 363 1459 m 25 Y s 429 1471 m 13 Y s 496 1471 m 13 Y s 562 1471 m 13 Y s 628 1471 m 13 Y s 695 1459 m 25 Y s 761 1471 m 13 Y s
 827 1471 m 13 Y s 894 1471 m 13 Y s 960 1471 m 13 Y s 1026 1459 m 25 Y s 1093 1471 m 13 Y s 1159 1471 m 13 Y s 1225 1471 m 13 Y s 1292 1471 m 13 Y s 1358 1459 m 25 Y s 1424 1471 m 13 Y s 1491 1471 m 13 Y s 1557 1471 m 13 Y s 1624 1471 m 13 Y s 1690
 1459 m 25 Y s 1756 1471 m 13 Y s 1823 1471 m 13 Y s 1889 1471 m 13 Y s 1955 1471 m 13 Y s 2022 1459 m 25 Y s 2022 1459 m 25 Y s 2088 1471 m 13 Y s 2154 1471 m 13 Y s 363 634 m 850 Y s
 gsave  2268 1077 0 461 C 120.554 1032.85 t 90 r /Helvetica findfont 48.9324 sf 0 0 m (Events / \( 1.08 GeV \)) show NC gr  390 683 m -27 X s 390 737 m -27 X s 390 775 m -27 X s 390 805 m -27 X s 390 829 m -27 X s 390 849 m -27 X s 390 867 m -27 X s
 390 883 m -27 X s 417 897 m -54 X s
 gsave  2268 1077 0 461 C 342.425 875.997 t 0 r  -55 0 t /Helvetica findfont 48.9324 sf 0 0 m (10) show NC gr  390 989 m -27 X s 390 1043 m -27 X s 390 1081 m -27 X s 390 1111 m -27 X s 390 1135 m -27 X s 390 1156 m -27 X s 390 1173 m -27 X s 390
 1189 m -27 X s 417 1203 m -54 X s
 gsave  2268 1077 0 461 C 322.563 1202.28 t 0 r /Helvetica findfont 32.6216 sf 0 0 m (2) show NC gr 
 gsave  2268 1077 0 461 C 270.432 1182.73 t 0 r /Helvetica findfont 48.9324 sf 0 0 m (10) show NC gr  390 1295 m -27 X s 390 1349 m -27 X s 390 1387 m -27 X s 390 1417 m -27 X s 390 1441 m -27 X s 390 1462 m -27 X s 390 1479 m -27 X s 2154 634 m 850
 Y s 2127 683 m 27 X s 2127 737 m 27 X s 2127 775 m 27 X s 2127 805 m 27 X s 2127 829 m 27 X s 2127 849 m 27 X s 2127 867 m 27 X s 2127 883 m 27 X s 2101 897 m 53 X s 2127 989 m 27 X s 2127 1043 m 27 X s 2127 1081 m 27 X s 2127 1111 m 27 X s 2127
 1135 m 27 X s 2127 1156 m 27 X s 2127 1173 m 27 X s 2127 1189 m 27 X s 2101 1203 m 53 X s 2127 1295 m 27 X s 2127 1349 m 27 X s 2127 1387 m 27 X s 2127 1417 m 27 X s 2127 1441 m 27 X s 2127 1462 m 27 X s 2127 1479 m 27 X s 381 683 m -18 X s 363 683
 m cl s 381 683 m 18 X s 399 683 m cl s 381 683 m 112 Y s 381 795 m cl s 381 683 m -49 Y s 381 634 m cl s 417 737 m -18 X s 399 737 m cl s 417 737 m 17 X s 434 737 m cl s 417 737 m 90 Y s 417 827 m cl s 417 737 m -103 Y s 417 634 m cl s 452 805 m -18
 X s 434 805 m cl s 452 805 m 18 X s 470 805 m cl s 452 805 m 68 Y s 452 873 m cl s 452 805 m -75 Y s 452 730 m cl s 488 737 m -18 X s 470 737 m cl s 488 737 m 18 X s 506 737 m cl s 488 737 m 90 Y s 488 827 m cl s 488 737 m -103 Y s 488 634 m cl s
 524 775 m -18 X s 506 775 m cl s 524 775 m 18 X s 542 775 m cl s 524 775 m 77 Y s 524 852 m cl s 524 775 m -87 Y s 524 688 m cl s 560 683 m -18 X s 542 683 m cl s 560 683 m 18 X s 578 683 m cl s 560 683 m 112 Y s 560 795 m cl s 560 683 m -49 Y s 560
 634 m cl s 596 867 m -18 X s 578 867 m cl s 596 867 m 18 X s 614 867 m cl s 596 867 m 53 Y s 596 920 m cl s 596 867 m -56 Y s 596 811 m cl s 632 737 m -18 X s 614 737 m cl s 632 737 m 17 X s 649 737 m cl s 632 737 m 90 Y s 632 827 m cl s 632 737 m
 -103 Y s 632 634 m cl s 667 849 m -18 X s 649 849 m cl s 667 849 m 18 X s 685 849 m cl s 667 849 m 58 Y s 667 907 m cl s 667 849 m -61 Y s 667 788 m cl s 703 867 m -18 X s 685 867 m cl s 703 867 m 18 X s 721 867 m cl s 703 867 m 53 Y s 703 920 m cl
 s 703 867 m -56 Y s 703 811 m cl s 739 805 m -18 X s 721 805 m cl s 739 805 m 18 X s 757 805 m cl s 739 805 m 68 Y s 739 873 m cl s 739 805 m -75 Y s 739 730 m cl s 775 829 m -18 X s 757 829 m cl s 775 829 m 18 X s 793 829 m cl s 775 829 m 62 Y s
 775 891 m cl s 775 829 m -67 Y s 775 762 m cl s 811 829 m -18 X s 793 829 m cl s 811 829 m 18 X s 829 829 m cl s 811 829 m 62 Y s 811 891 m cl s 811 829 m -67 Y s 811 762 m cl s 847 883 m -18 X s 829 883 m cl s 847 883 m 17 X s 864 883 m cl s 847
 883 m 50 Y s 847 933 m cl s 847 883 m -53 Y s 847 830 m cl s 882 942 m -18 X s 864 942 m cl s 882 942 m 18 X s 900 942 m cl s 882 942 m 39 Y s 882 981 m cl s 882 942 m -41 Y s 882 901 m cl s 918 932 m -18 X s 900 932 m cl s 918 932 m 18 X s 936 932
 m cl s 918 932 m 41 Y s 918 973 m cl s 918 932 m -43 Y s 918 889 m cl s 954 951 m -18 X s 936 951 m cl s 954 951 m 18 X s 972 951 m cl s 954 951 m 38 Y s 954 989 m cl s 954 951 m -39 Y s 954 912 m cl s 990 967 m -18 X s 972 967 m cl s 990 967 m 18 X
 s 1008 967 m cl s 990 967 m 36 Y s 990 1003 m cl s 990 967 m -36 Y s 990 931 m cl s 1026 982 m -18 X s 1008 982 m cl s 1026 982 m 18 X s 1044 982 m cl s 1026 982 m 34 Y s 1026 1016 m cl s 1026 982 m -34 Y s 1026 948 m cl s 1062 1008 m -18 X s 1044
 1008 m cl s 1062 1008 m 17 X s 1079 1008 m cl s 1062 1008 m 30 Y s 1062 1038 m cl s 1062 1008 m -31 Y s 1062 977 m cl s 1097 1047 m -18 X s 1079 1047 m cl s 1097 1047 m 18 X s 1115 1047 m cl s 1097 1047 m 26 Y s 1097 1073 m cl s 1097 1047 m -26 Y s
 1097 1021 m cl s 1133 1029 m -18 X s 1115 1029 m cl s 1133 1029 m 18 X s 1151 1029 m cl s 1133 1029 m 28 Y s 1133 1057 m cl s 1133 1029 m -28 Y s 1133 1001 m cl s 1169 1043 m -18 X s 1151 1043 m cl s 1169 1043 m 18 X s 1187 1043 m cl s 1169 1043 m
 26 Y s 1169 1069 m cl s 1169 1043 m -27 Y s 1169 1016 m cl s 1205 1111 m -18 X s 1187 1111 m cl s 1205 1111 m 18 X s 1223 1111 m cl s 1205 1111 m 20 Y s 1205 1131 m cl s 1205 1111 m -20 Y s 1205 1091 m cl s 1241 1139 m -18 X s 1223 1139 m cl s 1241
 1139 m 18 X s 1259 1139 m cl s 1241 1139 m 18 Y s 1241 1157 m cl s 1241 1139 m -18 Y s 1241 1121 m cl s 1276 1128 m -17 X s 1259 1128 m cl s 1276 1128 m 18 X s 1294 1128 m cl s 1276 1128 m 19 Y s 1276 1147 m cl s 1276 1128 m -19 Y s 1276 1109 m cl s
 1312 1173 m -18 X s 1294 1173 m cl s 1312 1173 m 18 X s 1330 1173 m cl s 1312 1173 m 16 Y s 1312 1189 m cl s 1312 1173 m -15 Y s 1312 1158 m cl s 1348 1195 m -18 X s 1330 1195 m cl s 1348 1195 m 18 X s 1366 1195 m cl s 1348 1195 m 14 Y s 1348 1209 m
 cl s 1348 1195 m -15 Y s 1348 1180 m cl s 1384 1225 m -18 X s 1366 1225 m cl s 1384 1225 m 18 X s 1402 1225 m cl s 1384 1225 m 12 Y s 1384 1237 m cl s 1384 1225 m -12 Y s 1384 1213 m cl s 1420 1279 m -18 X s 1402 1279 m cl s 1420 1279 m 18 X s 1438
 1279 m cl s 1420 1279 m 10 Y s 1420 1289 m cl s 1420 1279 m -10 Y s 1420 1269 m cl s 1456 1302 m -18 X s 1438 1302 m cl s 1456 1302 m 18 X s 1474 1302 m cl s 1456 1302 m 9 Y s 1456 1311 m cl s 1456 1302 m -9 Y s 1456 1293 m cl s 1491 1328 m -17 X s
 1474 1328 m cl s 1491 1328 m 18 X s 1509 1328 m cl s 1491 1328 m 8 Y s 1491 1336 m cl s 1491 1328 m -8 Y s 1491 1320 m cl s 1527 1360 m -18 X s 1509 1360 m cl s 1527 1360 m 18 X s 1545 1360 m cl s 1527 1360 m 8 Y s 1527 1368 m cl s 1527 1360 m -7 Y
 s 1527 1353 m cl s 1563 1387 m -18 X s 1545 1387 m cl s 1563 1387 m 18 X s 1581 1387 m cl s 1563 1387 m 6 Y s 1563 1393 m cl s 1563 1387 m -7 Y s 1563 1380 m cl s 1599 1404 m -18 X s 1581 1404 m cl s 1599 1404 m 18 X s 1617 1404 m cl s 1599 1404 m 7
 Y s 1599 1411 m cl s 1599 1404 m -6 Y s 1599 1398 m cl s 1635 1418 m -18 X s 1617 1418 m cl s 1635 1418 m 18 X s 1653 1418 m cl s 1635 1418 m 6 Y s 1635 1424 m cl s 1635 1418 m -6 Y s 1635 1412 m cl s 1671 1408 m -18 X s 1653 1408 m cl s 1671 1408 m
 18 X s 1689 1408 m cl s 1671 1408 m 6 Y s 1671 1414 m cl s 1671 1408 m -7 Y s 1671 1401 m cl s 1706 1402 m -17 X s 1689 1402 m cl s 1706 1402 m 18 X s 1724 1402 m cl s 1706 1402 m 6 Y s 1706 1408 m cl s 1706 1402 m -7 Y s 1706 1395 m cl s 1742 1369
 m -18 X s 1724 1369 m cl s 1742 1369 m 18 X s 1760 1369 m cl s 1742 1369 m 7 Y s 1742 1376 m cl s 1742 1369 m -7 Y s 1742 1362 m cl s 1778 1347 m -18 X s 1760 1347 m cl s 1778 1347 m 18 X s 1796 1347 m cl s 1778 1347 m 8 Y s 1778 1355 m cl s 1778
 1347 m -7 Y s 1778 1340 m cl s 1814 1288 m -18 X s 1796 1288 m cl s 1814 1288 m 18 X s 1832 1288 m cl s 1814 1288 m 10 Y s 1814 1298 m cl s 1814 1288 m -9 Y s 1814 1279 m cl s 1850 1242 m -18 X s 1832 1242 m cl s 1850 1242 m 18 X s 1868 1242 m cl s
 1850 1242 m 11 Y s 1850 1253 m cl s 1850 1242 m -12 Y s 1850 1230 m cl s 1886 1166 m -18 X s 1868 1166 m cl s 1886 1166 m 18 X s 1904 1166 m cl s 1886 1166 m 17 Y s 1886 1183 m cl s 1886 1166 m -16 Y s 1886 1150 m cl s 1921 1097 m -17 X s 1904 1097
 m cl s 1921 1097 m 18 X s 1939 1097 m cl s 1921 1097 m 21 Y s 1921 1118 m cl s 1921 1097 m -22 Y s 1921 1075 m cl s 1957 1091 m -18 X s 1939 1091 m cl s 1957 1091 m 18 X s 1975 1091 m cl s 1957 1091 m 21 Y s 1957 1112 m cl s 1957 1091 m -22 Y s 1957
 1069 m cl s 1993 951 m -18 X s 1975 951 m cl s 1993 951 m 18 X s 2011 951 m cl s 1993 951 m 38 Y s 1993 989 m cl s 1993 951 m -39 Y s 1993 912 m cl s 2029 975 m -18 X s 2011 975 m cl s 2029 975 m 18 X s 2047 975 m cl s 2029 975 m 34 Y s 2029 1009 m
 cl s 2029 975 m -35 Y s 2029 940 m cl s 2065 805 m -18 X s 2047 805 m cl s 2065 805 m 18 X s 2083 805 m cl s 2065 805 m 68 Y s 2065 873 m cl s 2065 805 m -75 Y s 2065 730 m cl s 2101 883 m -18 X s 2083 883 m cl s 2101 883 m 18 X s 2119 883 m cl s
 2101 883 m 50 Y s 2101 933 m cl s 2101 883 m -53 Y s 2101 830 m cl s 2136 829 m -17 X s 2119 829 m cl s 2136 829 m 18 X s 2154 829 m cl s 2136 829 m 62 Y s 2136 891 m cl s 2136 829 m -67 Y s 2136 762 m cl s /w 31 def /w2 {w 2 div} def /w3 {w 3 div}
 def 381 683 417 737 452 805 488 737 524 775 560 683 596 867 632 737 667 849 703 867 739 805 775 829 811 829 847 883 882 942 918 932 954 951 990 967 1026 982 1062 1008 1097 1047 1133 1029 1169 1043 1205 1111 1241 1139 1276 1128 1312 1173 1348 1195
 1384 1225 1420 1279 1456 1302 1491 1328 1527 1360 1563 1387 1599 1404 1635 1418 1671 1408 1706 1402 1742 1369 1778 1347 1814 1288 1850 1242 1886 1166 1921 1097 1957 1091 1993 951 2029 975 2065 805 2101 883 2136 829 50 { m20} R 0 1 1 c 1 1 0 c black
 1 1 0 c 363 777 m 36 7 d 35 7 d 36 8 d 36 7 d 36 8 d 36 8 d 36 8 d 35 9 d 36 9 d 36 9 d 36 10 d 36 11 d 36 11 d 35 12 d 36 13 d 36 14 d 36 15 d 36 18 d 36 19 d 35 21 d 36 23 d 36 24 d 36 26 d 36 26 d 36 28 d 35 27 d 36 28 d 18 13 d 18 14 d 18 14 d
 18 15 d 18 14 d 18 15 d 18 15 d 9 8 d 9 9 d 9 8 d 8 9 d 9 10 d 9 10 d 36 35 d 18 14 d 9 6 d 9 6 d 9 4 d 9 4 d 9 4 d 9 2 d 9 2 d 9 1 d 9 1 d 9 X 9 -1 d 9 -2 d 9 -3 d 9 -3 d 8 -3 d 9 -5 d 9 -5 d 9 -6 d 18 -14 d 18 -16 d 18 -19 d 18 -20 d 18 -23 d 9
 -11 d 9 -13 d 9 -12 d 9 -13 d 9 -12 d 9 -13 d 9 -13 d 9 -13 d 18 -26 d 17 -25 d 18 -25 d 18 -24 d 18 -22 d 18 -23 d 18 -21 d 36 -43 d 36 -43 d 36 -44 d 35 -48 d -35 48 d -36 44 d -36 43 d -36 43 d -18 21 d -18 23 d -18 22 d -18 24 d -18 25 d -17 25
 d -18 26 d -9 13 d -9 13 d -9 13 d -9 12 d -9 13 d -9 12 d -9 13 d -9 11 d -18 23 d -18 20 d -18 19 d -18 16 d -18 14 d -9 6 d -9 5 d -9 5 d -8 3 d -9 3 d -9 3 d -9 2 d -9 1 d -9 X -9 -1 d -9 -1 d -9 -2 d -9 -2 d -9 -4 d -9 -4 d -9 -4 d -9 -6 d -9
 -6 d -18 -14 d -36 -35 d -9 -10 d -9 -10 d -8 -9 d -9 -8 d -9 -9 d -9 -8 d -18 -15 d -18 -15 d -18 -14 d -18 -15 d -18 -14 d -18 -14 d -18 -13 d -36 -28 d -35 -27 d -36 -28 d -36 -26 d -36 -26 d -36 -24 d -36 -23 d -35 -21 d -36 -19 d -36 -18 d -36
 -15 d -36 -14 d -36 -13 d -35 -12 d -36 -11 d -36 -11 d -36 -10 d -36 -9 d -36 -9 d -35 -9 d -36 -8 d -36 -8 d -36 -8 d -36 -7 d -36 -8 d -35 -7 d -36 -7 d f 0 1 1 c 0 1 0 c black 0 1 0 c 363 777 m 36 7 d 35 7 d 36 8 d 36 7 d 36 8 d 36 8 d 36 8 d 35
 9 d 36 9 d 36 9 d 36 10 d 36 11 d 36 11 d 35 12 d 36 13 d 36 14 d 36 15 d 36 18 d 36 19 d 35 21 d 36 23 d 36 24 d 36 26 d 36 26 d 36 28 d 35 27 d 36 28 d 18 13 d 18 14 d 18 14 d 18 15 d 18 14 d 18 15 d 18 15 d 9 8 d 9 9 d 9 8 d 8 9 d 9 10 d 9 10 d
 36 35 d 18 14 d 9 6 d 9 6 d 9 4 d 9 4 d 9 4 d 9 2 d 9 2 d 9 1 d 9 1 d 9 X 9 -1 d 9 -2 d 9 -3 d 9 -3 d 8 -3 d 9 -5 d 9 -5 d 9 -6 d 18 -14 d 18 -16 d 18 -19 d 18 -20 d 18 -23 d 9 -11 d 9 -13 d 9 -12 d 9 -13 d 9 -12 d 9 -13 d 9 -13 d 9 -13 d 18 -26 d
 17 -25 d 18 -25 d 18 -24 d 18 -22 d 18 -23 d 18 -21 d 36 -43 d 36 -43 d 36 -44 d 35 -48 d -35 48 d -36 44 d -36 43 d -36 43 d -18 21 d -18 23 d -18 22 d -18 24 d -18 25 d -17 25 d -18 26 d -9 13 d -9 13 d -9 13 d -9 12 d -9 13 d -9 12 d -9 13 d -9
 11 d -18 23 d -18 20 d -18 19 d -18 16 d -18 14 d -9 6 d -9 5 d -9 5 d -8 3 d -9 3 d -9 3 d -9 2 d -9 1 d -9 X -9 -1 d -9 -1 d -9 -2 d -9 -2 d -9 -4 d -9 -4 d -9 -4 d -9 -6 d -9 -6 d -18 -14 d -36 -35 d -9 -10 d -9 -10 d -8 -9 d -9 -8 d -9 -9 d -9
 -8 d -18 -15 d -18 -15 d -18 -14 d -18 -15 d -18 -14 d -18 -14 d -18 -13 d -36 -28 d -35 -27 d -36 -28 d -36 -26 d -36 -26 d -36 -24 d -36 -23 d -35 -21 d -36 -19 d -36 -18 d -36 -15 d -36 -14 d -36 -13 d -35 -12 d -36 -11 d -36 -11 d -36 -10 d -36
 -9 d -36 -9 d -35 -9 d -36 -8 d -36 -8 d -36 -8 d -36 -7 d -36 -8 d -35 -7 d -36 -7 d f 0 0 1 c 9 lw black 0 0 1 c 363 777 m 36 7 d 35 7 d 36 8 d 36 7 d 36 8 d 36 8 d 36 8 d 35 9 d 36 9 d 36 9 d 36 10 d 36 11 d 36 11 d 35 12 d 36 13 d 36 14 d 36 15
 d 36 18 d 36 19 d 35 21 d 36 23 d 36 24 d 36 26 d 36 26 d 36 28 d 35 27 d 36 28 d 18 13 d 18 14 d 18 14 d 18 15 d 18 14 d 18 15 d 18 15 d 9 8 d 9 9 d 9 8 d 8 9 d 9 10 d 9 10 d 36 35 d 18 14 d 9 6 d 9 6 d 9 4 d 9 4 d 9 4 d 9 2 d 9 2 d 9 1 d 9 1 d 9 X
 9 -1 d 9 -2 d 9 -3 d 9 -3 d 8 -3 d 9 -5 d 9 -5 d 9 -6 d 18 -14 d 18 -16 d 18 -19 d 18 -20 d 18 -23 d 9 -11 d 9 -13 d 9 -12 d 9 -13 d 9 -12 d 9 -13 d 9 -13 d 9 -13 d 18 -26 d 17 -25 d 18 -25 d 18 -24 d 18 -22 d 18 -23 d 18 -21 d 36 -43 d 36 -43 d 36
 -44 d 35 -48 d s black 3 lw 381 683 m -18 X s 363 683 m cl s 381 683 m 18 X s 399 683 m cl s 381 683 m 112 Y s 381 795 m cl s 381 683 m -49 Y s 381 634 m cl s 417 737 m -18 X s 399 737 m cl s 417 737 m 17 X s 434 737 m cl s 417 737 m 90 Y s 417 827
 m cl s 417 737 m -103 Y s 417 634 m cl s 452 805 m -18 X s 434 805 m cl s 452 805 m 18 X s 470 805 m cl s 452 805 m 68 Y s 452 873 m cl s 452 805 m -75 Y s 452 730 m cl s 488 737 m -18 X s 470 737 m cl s 488 737 m 18 X s 506 737 m cl s 488 737 m 90
 Y s 488 827 m cl s 488 737 m -103 Y s 488 634 m cl s 524 775 m -18 X s 506 775 m cl s 524 775 m 18 X s 542 775 m cl s 524 775 m 77 Y s 524 852 m cl s 524 775 m -87 Y s 524 688 m cl s 560 683 m -18 X s 542 683 m cl s 560 683 m 18 X s 578 683 m cl s
 560 683 m 112 Y s 560 795 m cl s 560 683 m -49 Y s 560 634 m cl s 596 867 m -18 X s 578 867 m cl s 596 867 m 18 X s 614 867 m cl s 596 867 m 53 Y s 596 920 m cl s 596 867 m -56 Y s 596 811 m cl s 632 737 m -18 X s 614 737 m cl s 632 737 m 17 X s 649
 737 m cl s 632 737 m 90 Y s 632 827 m cl s 632 737 m -103 Y s 632 634 m cl s 667 849 m -18 X s 649 849 m cl s 667 849 m 18 X s 685 849 m cl s 667 849 m 58 Y s 667 907 m cl s 667 849 m -61 Y s 667 788 m cl s 703 867 m -18 X s 685 867 m cl s 703 867 m
 18 X s 721 867 m cl s 703 867 m 53 Y s 703 920 m cl s 703 867 m -56 Y s 703 811 m cl s 739 805 m -18 X s 721 805 m cl s 739 805 m 18 X s 757 805 m cl s 739 805 m 68 Y s 739 873 m cl s 739 805 m -75 Y s 739 730 m cl s 775 829 m -18 X s 757 829 m cl s
 775 829 m 18 X s 793 829 m cl s 775 829 m 62 Y s 775 891 m cl s 775 829 m -67 Y s 775 762 m cl s 811 829 m -18 X s 793 829 m cl s 811 829 m 18 X s 829 829 m cl s 811 829 m 62 Y s 811 891 m cl s 811 829 m -67 Y s 811 762 m cl s 847 883 m -18 X s 829
 883 m cl s 847 883 m 17 X s 864 883 m cl s 847 883 m 50 Y s 847 933 m cl s 847 883 m -53 Y s 847 830 m cl s 882 942 m -18 X s 864 942 m cl s 882 942 m 18 X s 900 942 m cl s 882 942 m 39 Y s 882 981 m cl s 882 942 m -41 Y s 882 901 m cl s 918 932 m
 -18 X s 900 932 m cl s 918 932 m 18 X s 936 932 m cl s 918 932 m 41 Y s 918 973 m cl s 918 932 m -43 Y s 918 889 m cl s 954 951 m -18 X s 936 951 m cl s 954 951 m 18 X s 972 951 m cl s 954 951 m 38 Y s 954 989 m cl s 954 951 m -39 Y s 954 912 m cl s
 990 967 m -18 X s 972 967 m cl s 990 967 m 18 X s 1008 967 m cl s 990 967 m 36 Y s 990 1003 m cl s 990 967 m -36 Y s 990 931 m cl s 1026 982 m -18 X s 1008 982 m cl s 1026 982 m 18 X s 1044 982 m cl s 1026 982 m 34 Y s 1026 1016 m cl s 1026 982 m
 -34 Y s 1026 948 m cl s 1062 1008 m -18 X s 1044 1008 m cl s 1062 1008 m 17 X s 1079 1008 m cl s 1062 1008 m 30 Y s 1062 1038 m cl s 1062 1008 m -31 Y s 1062 977 m cl s 1097 1047 m -18 X s 1079 1047 m cl s 1097 1047 m 18 X s 1115 1047 m cl s 1097
 1047 m 26 Y s 1097 1073 m cl s 1097 1047 m -26 Y s 1097 1021 m cl s 1133 1029 m -18 X s 1115 1029 m cl s 1133 1029 m 18 X s 1151 1029 m cl s 1133 1029 m 28 Y s 1133 1057 m cl s 1133 1029 m -28 Y s 1133 1001 m cl s 1169 1043 m -18 X s 1151 1043 m cl
 s 1169 1043 m 18 X s 1187 1043 m cl s 1169 1043 m 26 Y s 1169 1069 m cl s 1169 1043 m -27 Y s 1169 1016 m cl s 1205 1111 m -18 X s 1187 1111 m cl s 1205 1111 m 18 X s 1223 1111 m cl s 1205 1111 m 20 Y s 1205 1131 m cl s 1205 1111 m -20 Y s 1205 1091
 m cl s 1241 1139 m -18 X s 1223 1139 m cl s 1241 1139 m 18 X s 1259 1139 m cl s 1241 1139 m 18 Y s 1241 1157 m cl s 1241 1139 m -18 Y s 1241 1121 m cl s 1276 1128 m -17 X s 1259 1128 m cl s 1276 1128 m 18 X s 1294 1128 m cl s 1276 1128 m 19 Y s 1276
 1147 m cl s 1276 1128 m -19 Y s 1276 1109 m cl s 1312 1173 m -18 X s 1294 1173 m cl s 1312 1173 m 18 X s 1330 1173 m cl s 1312 1173 m 16 Y s 1312 1189 m cl s 1312 1173 m -15 Y s 1312 1158 m cl s 1348 1195 m -18 X s 1330 1195 m cl s 1348 1195 m 18 X
 s 1366 1195 m cl s 1348 1195 m 14 Y s 1348 1209 m cl s 1348 1195 m -15 Y s 1348 1180 m cl s 1384 1225 m -18 X s 1366 1225 m cl s 1384 1225 m 18 X s 1402 1225 m cl s 1384 1225 m 12 Y s 1384 1237 m cl s 1384 1225 m -12 Y s 1384 1213 m cl s 1420 1279 m
 -18 X s 1402 1279 m cl s 1420 1279 m 18 X s 1438 1279 m cl s 1420 1279 m 10 Y s 1420 1289 m cl s 1420 1279 m -10 Y s 1420 1269 m cl s 1456 1302 m -18 X s 1438 1302 m cl s 1456 1302 m 18 X s 1474 1302 m cl s 1456 1302 m 9 Y s 1456 1311 m cl s 1456
 1302 m -9 Y s 1456 1293 m cl s 1491 1328 m -17 X s 1474 1328 m cl s 1491 1328 m 18 X s 1509 1328 m cl s 1491 1328 m 8 Y s 1491 1336 m cl s 1491 1328 m -8 Y s 1491 1320 m cl s 1527 1360 m -18 X s 1509 1360 m cl s 1527 1360 m 18 X s 1545 1360 m cl s
 1527 1360 m 8 Y s 1527 1368 m cl s 1527 1360 m -7 Y s 1527 1353 m cl s 1563 1387 m -18 X s 1545 1387 m cl s 1563 1387 m 18 X s 1581 1387 m cl s 1563 1387 m 6 Y s 1563 1393 m cl s 1563 1387 m -7 Y s 1563 1380 m cl s 1599 1404 m -18 X s 1581 1404 m cl
 s 1599 1404 m 18 X s 1617 1404 m cl s 1599 1404 m 7 Y s 1599 1411 m cl s 1599 1404 m -6 Y s 1599 1398 m cl s 1635 1418 m -18 X s 1617 1418 m cl s 1635 1418 m 18 X s 1653 1418 m cl s 1635 1418 m 6 Y s 1635 1424 m cl s 1635 1418 m -6 Y s 1635 1412 m
 cl s 1671 1408 m -18 X s 1653 1408 m cl s 1671 1408 m 18 X s 1689 1408 m cl s 1671 1408 m 6 Y s 1671 1414 m cl s 1671 1408 m -7 Y s 1671 1401 m cl s 1706 1402 m -17 X s 1689 1402 m cl s 1706 1402 m 18 X s 1724 1402 m cl s 1706 1402 m 6 Y s 1706 1408
 m cl s 1706 1402 m -7 Y s 1706 1395 m cl s 1742 1369 m -18 X s 1724 1369 m cl s 1742 1369 m 18 X s 1760 1369 m cl s 1742 1369 m 7 Y s 1742 1376 m cl s 1742 1369 m -7 Y s 1742 1362 m cl s 1778 1347 m -18 X s 1760 1347 m cl s 1778 1347 m 18 X s 1796
 1347 m cl s 1778 1347 m 8 Y s 1778 1355 m cl s 1778 1347 m -7 Y s 1778 1340 m cl s 1814 1288 m -18 X s 1796 1288 m cl s 1814 1288 m 18 X s 1832 1288 m cl s 1814 1288 m 10 Y s 1814 1298 m cl s 1814 1288 m -9 Y s 1814 1279 m cl s 1850 1242 m -18 X s
 1832 1242 m cl s 1850 1242 m 18 X s 1868 1242 m cl s 1850 1242 m 11 Y s 1850 1253 m cl s 1850 1242 m -12 Y s 1850 1230 m cl s 1886 1166 m -18 X s 1868 1166 m cl s 1886 1166 m 18 X s 1904 1166 m cl s 1886 1166 m 17 Y s 1886 1183 m cl s 1886 1166 m
 -16 Y s 1886 1150 m cl s 1921 1097 m -17 X s 1904 1097 m cl s 1921 1097 m 18 X s 1939 1097 m cl s 1921 1097 m 21 Y s 1921 1118 m cl s 1921 1097 m -22 Y s 1921 1075 m cl s 1957 1091 m -18 X s 1939 1091 m cl s 1957 1091 m 18 X s 1975 1091 m cl s 1957
 1091 m 21 Y s 1957 1112 m cl s 1957 1091 m -22 Y s 1957 1069 m cl s 1993 951 m -18 X s 1975 951 m cl s 1993 951 m 18 X s 2011 951 m cl s 1993 951 m 38 Y s 1993 989 m cl s 1993 951 m -39 Y s 1993 912 m cl s 2029 975 m -18 X s 2011 975 m cl s 2029 975
 m 18 X s 2047 975 m cl s 2029 975 m 34 Y s 2029 1009 m cl s 2029 975 m -35 Y s 2029 940 m cl s 2065 805 m -18 X s 2047 805 m cl s 2065 805 m 18 X s 2083 805 m cl s 2065 805 m 68 Y s 2065 873 m cl s 2065 805 m -75 Y s 2065 730 m cl s 2101 883 m -18 X
 s 2083 883 m cl s 2101 883 m 18 X s 2119 883 m cl s 2101 883 m 50 Y s 2101 933 m cl s 2101 883 m -53 Y s 2101 830 m cl s 2136 829 m -17 X s 2119 829 m cl s 2136 829 m 18 X s 2154 829 m cl s 2136 829 m 62 Y s 2136 891 m cl s 2136 829 m -67 Y s 2136
 762 m cl s 381 683 417 737 452 805 488 737 524 775 560 683 596 867 632 737 667 849 703 867 739 805 775 829 811 829 847 883 882 942 918 932 954 951 990 967 1026 982 1062 1008 1097 1047 1133 1029 1169 1043 1205 1111 1241 1139 1276 1128 1312 1173 1348
 1195 1384 1225 1420 1279 1456 1302 1491 1328 1527 1360 1563 1387 1599 1404 1635 1418 1671 1408 1706 1402 1742 1369 1778 1347 1814 1288 1850 1242 1886 1166 1921 1097 1957 1091 1993 951 2029 975 2065 805 2101 883 2136 829 50 { m20} R 0.52 0.76 0.64 c[
 4 8] 0 sd 9 lw black 0.52 0.76 0.64 c 363 777 m 36 7 d 35 7 d 36 8 d 36 7 d 36 8 d 36 8 d 36 8 d 35 9 d 36 9 d 36 9 d 36 10 d 36 10 d 36 10 d 35 11 d 36 11 d 36 12 d 36 12 d 36 14 d 36 13 d 35 15 d 36 15 d 36 17 d 36 18 d 36 18 d 36 21 d 35 22 d 36
 25 d 18 13 d 18 14 d 18 15 d 18 15 d 18 17 d 18 18 d 9 9 d 9 10 d 9 10 d 9 11 d 9 11 d 8 11 d 9 12 d 9 13 d 36 44 d 18 18 d 9 7 d 9 6 d 9 6 d 9 5 d 9 4 d 9 3 d 9 2 d 9 1 d 9 1 d 9 -1 d 9 -1 d 9 -2 d 9 -3 d 9 -3 d 8 -5 d 9 -5 d 9 -6 d 9 -7 d 18 -17 d
 18 -20 d 18 -23 d 18 -27 d 9 -15 d 9 -15 d 9 -17 d 9 -17 d 9 -18 d 9 -19 d 9 -20 d 9 -20 d 9 -21 d 9 -23 d 9 -23 d 9 -24 d 17 -50 d 18 -54 d 18 -57 d 18 -61 d 36 -131 d 12 -48 d s 0.54 0.66 0.63 c black 0.54 0.66 0.63 c 995 634 m 13 21 d s 1008 655
 m 36 60 d 35 56 d 36 52 d 36 49 d 18 24 d 18 22 d 18 22 d 18 20 d 18 20 d 18 19 d 17 18 d 18 18 d 18 16 d 18 16 d 18 14 d 18 14 d 36 25 d 36 22 d 36 18 d 17 8 d 18 7 d 18 6 d 18 5 d 18 4 d 18 4 d 18 3 d 18 1 d 18 1 d 36 X 18 -2 d 17 -3 d 18 -3 d 18
 -4 d 18 -5 d 18 -6 d 18 -7 d 18 -8 d 18 -8 d 36 -20 d 36 -23 d 35 -27 d 18 -14 d 18 -16 d 18 -16 d 18 -17 d 18 -18 d 18 -19 d 18 -20 d 18 -20 d 18 -22 d 18 -22 d 17 -23 d 18 -24 d s black[  ] 0 sd 3 lw 363 634 m 1791 X s 363 659 m -25 Y s 429 646 m
 -12 Y s 496 646 m -12 Y s 562 646 m -12 Y s 628 646 m -12 Y s 695 659 m -25 Y s 761 646 m -12 Y s 827 646 m -12 Y s 894 646 m -12 Y s 960 646 m -12 Y s 1026 659 m -25 Y s 1093 646 m -12 Y s 1159 646 m -12 Y s 1225 646 m -12 Y s 1292 646 m -12 Y s
 1358 659 m -25 Y s 1424 646 m -12 Y s 1491 646 m -12 Y s 1557 646 m -12 Y s 1624 646 m -12 Y s 1690 659 m -25 Y s 1756 646 m -12 Y s 1823 646 m -12 Y s 1889 646 m -12 Y s 1955 646 m -12 Y s 2022 659 m -25 Y s 2022 659 m -25 Y s 2088 646 m -12 Y s
 2154 646 m -12 Y s 363 1484 m 1791 X s 363 1459 m 25 Y s 429 1471 m 13 Y s 496 1471 m 13 Y s 562 1471 m 13 Y s 628 1471 m 13 Y s 695 1459 m 25 Y s 761 1471 m 13 Y s 827 1471 m 13 Y s 894 1471 m 13 Y s 960 1471 m 13 Y s 1026 1459 m 25 Y s 1093 1471 m
 13 Y s 1159 1471 m 13 Y s 1225 1471 m 13 Y s 1292 1471 m 13 Y s 1358 1459 m 25 Y s 1424 1471 m 13 Y s 1491 1471 m 13 Y s 1557 1471 m 13 Y s 1624 1471 m 13 Y s 1690 1459 m 25 Y s 1756 1471 m 13 Y s 1823 1471 m 13 Y s 1889 1471 m 13 Y s 1955 1471 m 13
 Y s 2022 1459 m 25 Y s 2022 1459 m 25 Y s 2088 1471 m 13 Y s 2154 1471 m 13 Y s 363 634 m 850 Y s 390 683 m -27 X s 390 737 m -27 X s 390 775 m -27 X s 390 805 m -27 X s 390 829 m -27 X s 390 849 m -27 X s 390 867 m -27 X s 390 883 m -27 X s 417 897
 m -54 X s 390 989 m -27 X s 390 1043 m -27 X s 390 1081 m -27 X s 390 1111 m -27 X s 390 1135 m -27 X s 390 1156 m -27 X s 390 1173 m -27 X s 390 1189 m -27 X s 417 1203 m -54 X s 390 1295 m -27 X s 390 1349 m -27 X s 390 1387 m -27 X s 390 1417 m
 -27 X s 390 1441 m -27 X s 390 1462 m -27 X s 390 1479 m -27 X s 2154 634 m 850 Y s 2127 683 m 27 X s 2127 737 m 27 X s 2127 775 m 27 X s 2127 805 m 27 X s 2127 829 m 27 X s 2127 849 m 27 X s 2127 867 m 27 X s 2127 883 m 27 X s 2101 897 m 53 X s
 2127 989 m 27 X s 2127 1043 m 27 X s 2127 1081 m 27 X s 2127 1111 m 27 X s 2127 1135 m 27 X s 2127 1156 m 27 X s 2127 1173 m 27 X s 2127 1189 m 27 X s 2101 1203 m 53 X s 2127 1295 m 27 X s 2127 1349 m 27 X s 2127 1387 m 27 X s 2127 1417 m 27 X s
 2127 1441 m 27 X s 2127 1462 m 27 X s 2127 1479 m 27 X s
 gsave  2268 1077 0 461 C 677.708 1215.31 t 0 r /Helvetica findfont 58.7189 sf 0 0 m (4e) show NC gr  1 1 1 c 453 161 454 1269 bf black
 gsave  2268 1077 0 461 C 566.929 1371.71 t 0 r /Helvetica-Bold findfont 48.9324 sf 0 0 m (MC15) show NC gr  510 1390 m20
 gsave  2268 1077 0 461 C 566.929 1293.51 t 0 r /Helvetica-Bold findfont 48.9324 sf 0 0 m (Projection of Signal pdf) show NC gr  0 0 1 c 9 lw 471 1309 m 79 X s black 3 lw 1 1 1 c 2268 461 0 0 bf black 1 1 1 c 1791 364 363 74 bf black 1791 364 363 74
 bl 363 74 m 1791 X s
 gsave  2268 461 0 0 C 1915.83 13.0329 t 0 r /Helvetica findfont 22.9045 sf 0 0 m (4l Invariant Mass \(GeV\)) show NC gr  363 85 m -11 Y s 429 79 m -5 Y s 496 79 m -5 Y s 562 79 m -5 Y s 628 79 m -5 Y s 695 85 m -11 Y s 761 79 m -5 Y s 827 79 m -5 Y
 s 894 79 m -5 Y s 960 79 m -5 Y s 1026 85 m -11 Y s 1093 79 m -5 Y s 1159 79 m -5 Y s 1225 79 m -5 Y s 1292 79 m -5 Y s 1358 85 m -11 Y s 1424 79 m -5 Y s 1491 79 m -5 Y s 1557 79 m -5 Y s 1624 79 m -5 Y s 1690 85 m -11 Y s 1756 79 m -5 Y s 1823 79
 m -5 Y s 1889 79 m -5 Y s 1955 79 m -5 Y s 2022 85 m -11 Y s 2022 85 m -11 Y s 2088 79 m -5 Y s 2154 79 m -5 Y s
 gsave  2268 461 0 0 C 342.112 55.3896 t 0 r /Helvetica findfont 22.9045 sf 0 0 m (360) show NC gr 
 gsave  2268 461 0 0 C 674.45 55.3896 t 0 r /Helvetica findfont 22.9045 sf 0 0 m (370) show NC gr 
 gsave  2268 461 0 0 C 1006.79 55.3896 t 0 r /Helvetica findfont 22.9045 sf 0 0 m (380) show NC gr 
 gsave  2268 461 0 0 C 1335.87 55.3896 t 0 r /Helvetica findfont 22.9045 sf 0 0 m (390) show NC gr 
 gsave  2268 461 0 0 C 1668.21 55.3896 t 0 r /Helvetica findfont 22.9045 sf 0 0 m (400) show NC gr 
 gsave  2268 461 0 0 C 2000.54 55.3896 t 0 r /Helvetica findfont 22.9045 sf 0 0 m (410) show NC gr  363 438 m 1791 X s 363 427 m 11 Y s 429 433 m 5 Y s 496 433 m 5 Y s 562 433 m 5 Y s 628 433 m 5 Y s 695 427 m 11 Y s 761 433 m 5 Y s 827 433 m 5 Y s
 894 433 m 5 Y s 960 433 m 5 Y s 1026 427 m 11 Y s 1093 433 m 5 Y s 1159 433 m 5 Y s 1225 433 m 5 Y s 1292 433 m 5 Y s 1358 427 m 11 Y s 1424 433 m 5 Y s 1491 433 m 5 Y s 1557 433 m 5 Y s 1624 433 m 5 Y s 1690 427 m 11 Y s 1756 433 m 5 Y s 1823 433 m
 5 Y s 1889 433 m 5 Y s 1955 433 m 5 Y s 2022 427 m 11 Y s 2022 427 m 11 Y s 2088 433 m 5 Y s 2154 433 m 5 Y s 363 74 m 364 Y s 417 74 m -54 X s 390 81 m -27 X s 390 88 m -27 X s 390 96 m -27 X s 390 103 m -27 X s 417 110 m -54 X s 390 118 m -27 X s
 390 125 m -27 X s 390 132 m -27 X s 390 139 m -27 X s 417 147 m -54 X s 390 154 m -27 X s 390 161 m -27 X s 390 169 m -27 X s 390 176 m -27 X s 417 183 m -54 X s 390 190 m -27 X s 390 198 m -27 X s 390 205 m -27 X s 390 212 m -27 X s 417 220 m -54 X
 s 390 227 m -27 X s 390 234 m -27 X s 390 241 m -27 X s 390 249 m -27 X s 417 256 m -54 X s 390 263 m -27 X s 390 271 m -27 X s 390 278 m -27 X s 390 285 m -27 X s 417 293 m -54 X s 390 300 m -27 X s 390 307 m -27 X s 390 314 m -27 X s 390 322 m -27
 X s 417 329 m -54 X s 390 336 m -27 X s 390 344 m -27 X s 390 351 m -27 X s 390 358 m -27 X s 417 365 m -54 X s 390 373 m -27 X s 390 380 m -27 X s 390 387 m -27 X s 390 395 m -27 X s 417 402 m -54 X s 390 409 m -27 X s 390 416 m -27 X s 390 424 m
 -27 X s 390 431 m -27 X s 417 438 m -54 X s
 gsave  2268 461 0 0 C 329.08 65.1643 t 0 r /Helvetica findfont 22.9045 sf 0 0 m (\2555) show NC gr 
 gsave  2268 461 0 0 C 329.08 101.005 t 0 r /Helvetica findfont 22.9045 sf 0 0 m (\2554) show NC gr 
 gsave  2268 461 0 0 C 329.08 140.103 t 0 r /Helvetica findfont 22.9045 sf 0 0 m (\2553) show NC gr 
 gsave  2268 461 0 0 C 329.08 175.944 t 0 r /Helvetica findfont 22.9045 sf 0 0 m (\2552) show NC gr 
 gsave  2268 461 0 0 C 332.338 211.784 t 0 r /Helvetica findfont 22.9045 sf 0 0 m (\2551) show NC gr 
 gsave  2268 461 0 0 C 335.596 247.624 t 0 r /Helvetica findfont 22.9045 sf 0 0 m (0) show NC gr 
 gsave  2268 461 0 0 C 338.854 283.465 t 0 r /Helvetica findfont 22.9045 sf 0 0 m (1) show NC gr 
 gsave  2268 461 0 0 C 335.596 319.305 t 0 r /Helvetica findfont 22.9045 sf 0 0 m (2) show NC gr 
 gsave  2268 461 0 0 C 335.596 358.403 t 0 r /Helvetica findfont 22.9045 sf 0 0 m (3) show NC gr 
 gsave  2268 461 0 0 C 335.596 394.244 t 0 r /Helvetica findfont 22.9045 sf 0 0 m (4) show NC gr 
 gsave  2268 461 0 0 C 335.596 430.084 t 0 r /Helvetica findfont 22.9045 sf 0 0 m (5) show NC gr  2154 74 m 364 Y s 2101 74 m 53 X s 2127 81 m 27 X s 2127 88 m 27 X s 2127 96 m 27 X s 2127 103 m 27 X s 2101 110 m 53 X s 2127 118 m 27 X s 2127 125 m
 27 X s 2127 132 m 27 X s 2127 139 m 27 X s 2101 147 m 53 X s 2127 154 m 27 X s 2127 161 m 27 X s 2127 169 m 27 X s 2127 176 m 27 X s 2101 183 m 53 X s 2127 190 m 27 X s 2127 198 m 27 X s 2127 205 m 27 X s 2127 212 m 27 X s 2101 220 m 53 X s 2127 227
 m 27 X s 2127 234 m 27 X s 2127 241 m 27 X s 2127 249 m 27 X s 2101 256 m 53 X s 2127 263 m 27 X s 2127 271 m 27 X s 2127 278 m 27 X s 2127 285 m 27 X s 2101 293 m 53 X s 2127 300 m 27 X s 2127 307 m 27 X s 2127 314 m 27 X s 2127 322 m 27 X s 2101
 329 m 53 X s 2127 336 m 27 X s 2127 344 m 27 X s 2127 351 m 27 X s 2127 358 m 27 X s 2101 365 m 53 X s 2127 373 m 27 X s 2127 380 m 27 X s 2127 387 m 27 X s 2127 395 m 27 X s 2101 402 m 53 X s 2127 409 m 27 X s 2127 416 m 27 X s 2127 424 m 27 X s
 2127 431 m 27 X s 2101 438 m 53 X s 6 lw 0.2 0.8 0.2 c black 3 lw 0.2 0.8 0.2 c 363 256 m -30 Y 36 X 13 Y 35 X 23 Y 36 X -30 Y 36 X 10 Y 36 X -35 Y 36 X 77 Y 36 X -69 Y 35 X 45 Y 36 X 7 Y 36 X -40 Y 36 X 5 Y 36 X -7 Y 36 X 24 Y 35 X 38 Y 36 X -20 Y
 36 X 4 Y 36 X 1 Y 36 X -3 Y 36 X 8 Y 35 X 26 Y 36 X -56 Y 36 X -16 Y 36 X 66 Y 36 X 8 Y 36 X -76 Y 35 X 36 Y 36 X -13 Y 36 X 6 Y 36 X 87 Y 36 X -17 Y 36 X -26 Y 35 X -22 Y 36 X -22 Y 36 X -13 Y 36 X 26 Y 36 X -46 Y 36 X 47 Y 35 X -42 Y 36 X 63 Y 36
 X -67 Y 36 X 13 Y 36 X -53 Y 36 X -21 Y 35 X 82 Y 36 X -116 Y 36 X 87 Y 36 X -92 Y 36 X 101 Y 36 X 2 Y 35 X 27 Y f 6 lw black 0.2 0.8 0.2 c black 363 226 m 36 X 13 Y 35 X 23 Y 36 X -30 Y 36 X 10 Y 36 X -35 Y 36 X 77 Y 36 X -69 Y 35 X 45 Y 36 X 7 Y
 36 X -40 Y 36 X 5 Y 36 X -7 Y 36 X 24 Y 35 X 38 Y 36 X -20 Y 36 X 4 Y 36 X 1 Y 36 X -3 Y 36 X 8 Y 35 X 26 Y 36 X -56 Y 36 X -16 Y 36 X 66 Y 36 X 8 Y 36 X -76 Y 35 X 36 Y 36 X -13 Y 36 X 6 Y 36 X 87 Y 36 X -17 Y 36 X -26 Y 35 X -22 Y 36 X -22 Y 36 X
 -13 Y 36 X 26 Y 36 X -46 Y 36 X 47 Y 35 X -42 Y 36 X 63 Y 36 X -67 Y 36 X 13 Y 36 X -53 Y 36 X -21 Y 35 X 82 Y 36 X -116 Y 36 X 87 Y 36 X -92 Y 36 X 101 Y 36 X 2 Y 35 X s 3 lw 363 74 m 1791 X s 363 85 m -11 Y s 429 79 m -5 Y s 496 79 m -5 Y s 562 79
 m -5 Y s 628 79 m -5 Y s 695 85 m -11 Y s 761 79 m -5 Y s 827 79 m -5 Y s 894 79 m -5 Y s 960 79 m -5 Y s 1026 85 m -11 Y s 1093 79 m -5 Y s 1159 79 m -5 Y s 1225 79 m -5 Y s 1292 79 m -5 Y s 1358 85 m -11 Y s 1424 79 m -5 Y s 1491 79 m -5 Y s 1557
 79 m -5 Y s 1624 79 m -5 Y s 1690 85 m -11 Y s 1756 79 m -5 Y s 1823 79 m -5 Y s 1889 79 m -5 Y s 1955 79 m -5 Y s 2022 85 m -11 Y s 2022 85 m -11 Y s 2088 79 m -5 Y s 2154 79 m -5 Y s 363 438 m 1791 X s 363 427 m 11 Y s 429 433 m 5 Y s 496 433 m 5
 Y s 562 433 m 5 Y s 628 433 m 5 Y s 695 427 m 11 Y s 761 433 m 5 Y s 827 433 m 5 Y s 894 433 m 5 Y s 960 433 m 5 Y s 1026 427 m 11 Y s 1093 433 m 5 Y s 1159 433 m 5 Y s 1225 433 m 5 Y s 1292 433 m 5 Y s 1358 427 m 11 Y s 1424 433 m 5 Y s 1491 433 m
 5 Y s 1557 433 m 5 Y s 1624 433 m 5 Y s 1690 427 m 11 Y s 1756 433 m 5 Y s 1823 433 m 5 Y s 1889 433 m 5 Y s 1955 433 m 5 Y s 2022 427 m 11 Y s 2022 427 m 11 Y s 2088 433 m 5 Y s 2154 433 m 5 Y s 363 74 m 364 Y s 417 74 m -54 X s 390 81 m -27 X s
 390 88 m -27 X s 390 96 m -27 X s 390 103 m -27 X s 417 110 m -54 X s 390 118 m -27 X s 390 125 m -27 X s 390 132 m -27 X s 390 139 m -27 X s 417 147 m -54 X s 390 154 m -27 X s 390 161 m -27 X s 390 169 m -27 X s 390 176 m -27 X s 417 183 m -54 X s
 390 190 m -27 X s 390 198 m -27 X s 390 205 m -27 X s 390 212 m -27 X s 417 220 m -54 X s 390 227 m -27 X s 390 234 m -27 X s 390 241 m -27 X s 390 249 m -27 X s 417 256 m -54 X s 390 263 m -27 X s 390 271 m -27 X s 390 278 m -27 X s 390 285 m -27 X
 s 417 293 m -54 X s 390 300 m -27 X s 390 307 m -27 X s 390 314 m -27 X s 390 322 m -27 X s 417 329 m -54 X s 390 336 m -27 X s 390 344 m -27 X s 390 351 m -27 X s 390 358 m -27 X s 417 365 m -54 X s 390 373 m -27 X s 390 380 m -27 X s 390 387 m -27
 X s 390 395 m -27 X s 417 402 m -54 X s 390 409 m -27 X s 390 416 m -27 X s 390 424 m -27 X s 390 431 m -27 X s 417 438 m -54 X s 2154 74 m 364 Y s 2101 74 m 53 X s 2127 81 m 27 X s 2127 88 m 27 X s 2127 96 m 27 X s 2127 103 m 27 X s 2101 110 m 53 X
 s 2127 118 m 27 X s 2127 125 m 27 X s 2127 132 m 27 X s 2127 139 m 27 X s 2101 147 m 53 X s 2127 154 m 27 X s 2127 161 m 27 X s 2127 169 m 27 X s 2127 176 m 27 X s 2101 183 m 53 X s 2127 190 m 27 X s 2127 198 m 27 X s 2127 205 m 27 X s 2127 212 m 27
 X s 2101 220 m 53 X s 2127 227 m 27 X s 2127 234 m 27 X s 2127 241 m 27 X s 2127 249 m 27 X s 2101 256 m 53 X s 2127 263 m 27 X s 2127 271 m 27 X s 2127 278 m 27 X s 2127 285 m 27 X s 2101 293 m 53 X s 2127 300 m 27 X s 2127 307 m 27 X s 2127 314 m
 27 X s 2127 322 m 27 X s 2101 329 m 53 X s 2127 336 m 27 X s 2127 344 m 27 X s 2127 351 m 27 X s 2127 358 m 27 X s 2101 365 m 53 X s 2127 373 m 27 X s 2127 380 m 27 X s 2127 387 m 27 X s 2127 395 m 27 X s 2101 402 m 53 X s 2127 409 m 27 X s 2127 416
 m 27 X s 2127 424 m 27 X s 2127 431 m 27 X s 2101 438 m 53 X s
 gr  gr showpage
end
%%EOF
