%!PS-Adobe-2.0 EPSF-2.0
%%BoundingBox:  0 0 567 384
%%Title: H4l2015_plotfit/gg_mass_signal_400_H4l_4mu.eps: 
%%Creator: ROOT Version 5.34/10
%%CreationDate: Thu Feb 16 12:42:14 2017
%%EndComments
%%BeginProlog
80 dict begin
/s {stroke} def /l {lineto} def /m {moveto} def /t {translate} def
/r {rotate} def /rl {roll}  def /R {repeat} def
/d {rlineto} def /rm {rmoveto} def /gr {grestore} def /f {eofill} def
/c {setrgbcolor} def /black {0 setgray} def /sd {setdash} def
/cl {closepath} def /sf {scalefont setfont} def /lw {setlinewidth} def
/box {m dup 0 exch d exch 0 d 0 exch neg d cl} def
/NC{systemdict begin initclip end}def/C{NC box clip newpath}def
/bl {box s} def /bf {box f} def /Y { 0 exch d} def /X { 0 d} def 
/K {{pop pop 0 moveto} exch kshow} bind def
/ita {/ang 15 def gsave [1 0 ang dup sin exch cos div 1 0 0] concat} def 
/mp {newpath /y exch def /x exch def} def
/side {[w .77 mul w .23 mul] .385 w mul sd w 0 l currentpoint t -144 r} def
/mr {mp x y w2 0 360 arc} def /m24 {mr s} def /m20 {mr f} def
/mb {mp x y w2 add m w2 neg 0 d 0 w neg d w 0 d 0 w d cl} def
/mt {mp x y w2 add m w2 neg w neg d w 0 d cl} def
/m21 {mb f} def /m25 {mb s} def /m22 {mt f} def /m26{mt s} def
/m23 {mp x y w2 sub m w2 w d w neg 0 d cl f} def
/m27 {mp x y w2 add m w3 neg w2 neg d w3 w2 neg d w3 w2 d cl s} def
/m28 {mp x w2 sub y w2 sub w3 add m w3 0 d  0 w3 neg d w3 0 d 0 w3 d w3 0 d  0 w3 d w3 neg 0 d 0 w3 d w3 neg 0 d 0 w3 neg d w3 neg 0 d cl s } def
/m29 {mp gsave x w2 sub y w2 add w3 sub m currentpoint t 4 {side} repeat cl fill gr} def
/m30 {mp gsave x w2 sub y w2 add w3 sub m currentpoint t 4 {side} repeat cl s gr} def
/m31 {mp x y w2 sub m 0 w d x w2 sub y m w 0 d x w2 sub y w2 add m w w neg d x w2 sub y w2 sub m w w d s} def
/m32 {mp x y w2 sub m w2 w d w neg 0 d cl s} def
/m33 {mp x y w2 add m w3 neg w2 neg d w3 w2 neg d w3 w2 d cl f} def
/m34 {mp x w2 sub y w2 sub w3 add m w3 0 d  0 w3 neg d w3 0 d 0 w3 d w3 0 d  0 w3 d w3 neg 0 d 0 w3 d w3 neg 0 d 0 w3 neg d w3 neg 0 d cl f } def
/m2 {mp x y w2 sub m 0 w d x w2 sub y m w 0 d s} def
/m5 {mp x w2 sub y w2 sub m w w d x w2 sub y w2 add m w w neg d s} def
/reEncode {exch findfont dup length dict begin {1 index /FID eq  {pop pop} {def} ifelse } forall /Encoding exch def currentdict end dup /FontName get exch definefont pop } def [/Times-Bold /Times-Italic /Times-BoldItalic /Helvetica /Helvetica-Oblique
 /Helvetica-Bold /Helvetica-BoldOblique /Courier /Courier-Oblique /Courier-Bold /Courier-BoldOblique /Times-Roman /AvantGarde-Book /AvantGarde-BookOblique /AvantGarde-Demi /AvantGarde-DemiOblique /Bookman-Demi /Bookman-DemiItalic /Bookman-Light
 /Bookman-LightItalic /Helvetica-Narrow /Helvetica-Narrow-Bold /Helvetica-Narrow-BoldOblique /Helvetica-Narrow-Oblique /NewCenturySchlbk-Roman /NewCenturySchlbk-Bold /NewCenturySchlbk-BoldItalic /NewCenturySchlbk-Italic /Palatino-Bold
 /Palatino-BoldItalic /Palatino-Italic /Palatino-Roman ] {ISOLatin1Encoding reEncode } forall
%%EndProlog
%%BeginSetup
%%EndSetup
newpath  gsave  .25 .25 scale  gsave  0 0 t black[  ] 0 sd 3 lw 1 1 1 c 2268 1538 0 0 bf black 1 1 1 c 2222 738 23 784 bf black 1 1 1 c 2222 739 23 15 bf black 1 1 1 c 2268 1077 0 461 bf black 1 1 1 c 1791 850 363 634 bf black 1791 850 363 634 bl 363
 634 m 1791 X s
 gsave  2268 1077 0 461 C 1642.14 498.507 t 0 r /Helvetica findfont 48.9324 sf 0 0 m (4l Invariant Mass \(GeV\)) show NC gr  363 659 m -25 Y s 404 646 m -12 Y s 444 646 m -12 Y s 485 646 m -12 Y s 526 646 m -12 Y s 566 659 m -25 Y s 607 646 m -12 Y s
 648 646 m -12 Y s 689 646 m -12 Y s 729 646 m -12 Y s 770 659 m -25 Y s 811 646 m -12 Y s 851 646 m -12 Y s 892 646 m -12 Y s 933 646 m -12 Y s 974 659 m -25 Y s 1014 646 m -12 Y s 1055 646 m -12 Y s 1096 646 m -12 Y s 1136 646 m -12 Y s 1177 659 m
 -25 Y s 1218 646 m -12 Y s 1259 646 m -12 Y s 1299 646 m -12 Y s 1340 646 m -12 Y s 1381 659 m -25 Y s 1421 646 m -12 Y s 1462 646 m -12 Y s 1503 646 m -12 Y s 1544 646 m -12 Y s 1584 659 m -25 Y s 1625 646 m -12 Y s 1666 646 m -12 Y s 1706 646 m
 -12 Y s 1747 646 m -12 Y s 1788 659 m -25 Y s 1829 646 m -12 Y s 1869 646 m -12 Y s 1910 646 m -12 Y s 1951 646 m -12 Y s 1991 659 m -25 Y s 1991 659 m -25 Y s 2032 646 m -12 Y s 2073 646 m -12 Y s 2114 646 m -12 Y s
 gsave  2268 1077 0 461 C 319.305 586.478 t 0 r /Helvetica findfont 48.9324 sf 0 0 m (340) show NC gr 
 gsave  2268 1077 0 461 C 521.314 586.478 t 0 r /Helvetica findfont 48.9324 sf 0 0 m (350) show NC gr 
 gsave  2268 1077 0 461 C 726.582 586.478 t 0 r /Helvetica findfont 48.9324 sf 0 0 m (360) show NC gr 
 gsave  2268 1077 0 461 C 928.591 586.478 t 0 r /Helvetica findfont 48.9324 sf 0 0 m (370) show NC gr 
 gsave  2268 1077 0 461 C 1133.86 586.478 t 0 r /Helvetica findfont 48.9324 sf 0 0 m (380) show NC gr 
 gsave  2268 1077 0 461 C 1335.87 586.478 t 0 r /Helvetica findfont 48.9324 sf 0 0 m (390) show NC gr 
 gsave  2268 1077 0 461 C 1541.13 586.478 t 0 r /Helvetica findfont 48.9324 sf 0 0 m (400) show NC gr 
 gsave  2268 1077 0 461 C 1743.14 586.478 t 0 r /Helvetica findfont 48.9324 sf 0 0 m (410) show NC gr 
 gsave  2268 1077 0 461 C 1948.41 586.478 t 0 r /Helvetica findfont 48.9324 sf 0 0 m (420) show NC gr  363 1484 m 1791 X s 363 1459 m 25 Y s 404 1471 m 13 Y s 444 1471 m 13 Y s 485 1471 m 13 Y s 526 1471 m 13 Y s 566 1459 m 25 Y s 607 1471 m 13 Y s
 648 1471 m 13 Y s 689 1471 m 13 Y s 729 1471 m 13 Y s 770 1459 m 25 Y s 811 1471 m 13 Y s 851 1471 m 13 Y s 892 1471 m 13 Y s 933 1471 m 13 Y s 974 1459 m 25 Y s 1014 1471 m 13 Y s 1055 1471 m 13 Y s 1096 1471 m 13 Y s 1136 1471 m 13 Y s 1177 1459 m
 25 Y s 1218 1471 m 13 Y s 1259 1471 m 13 Y s 1299 1471 m 13 Y s 1340 1471 m 13 Y s 1381 1459 m 25 Y s 1421 1471 m 13 Y s 1462 1471 m 13 Y s 1503 1471 m 13 Y s 1544 1471 m 13 Y s 1584 1459 m 25 Y s 1625 1471 m 13 Y s 1666 1471 m 13 Y s 1706 1471 m 13
 Y s 1747 1471 m 13 Y s 1788 1459 m 25 Y s 1829 1471 m 13 Y s 1869 1471 m 13 Y s 1910 1471 m 13 Y s 1951 1471 m 13 Y s 1991 1459 m 25 Y s 1991 1459 m 25 Y s 2032 1471 m 13 Y s 2073 1471 m 13 Y s 2114 1471 m 13 Y s 363 634 m 850 Y s
 gsave  2268 1077 0 461 C 120.554 1032.85 t 90 r /Helvetica findfont 48.9324 sf 0 0 m (Events / \( 1.76 GeV \)) show NC gr  390 656 m -27 X s 390 696 m -27 X s 390 727 m -27 X s 390 752 m -27 X s 390 774 m -27 X s 390 792 m -27 X s 390 809 m -27 X s
 417 824 m -54 X s
 gsave  2268 1077 0 461 C 342.425 802.677 t 0 r  -55 0 t /Helvetica findfont 48.9324 sf 0 0 m (10) show NC gr  390 920 m -27 X s 390 976 m -27 X s 390 1017 m -27 X s 390 1048 m -27 X s 390 1073 m -27 X s 390 1094 m -27 X s 390 1113 m -27 X s 390 1129
 m -27 X s 417 1144 m -54 X s
 gsave  2268 1077 0 461 C 322.563 1143.63 t 0 r /Helvetica findfont 32.6216 sf 0 0 m (2) show NC gr 
 gsave  2268 1077 0 461 C 270.432 1124.08 t 0 r /Helvetica findfont 48.9324 sf 0 0 m (10) show NC gr  390 1241 m -27 X s 390 1297 m -27 X s 390 1337 m -27 X s 390 1368 m -27 X s 390 1393 m -27 X s 390 1415 m -27 X s 390 1434 m -27 X s 390 1450 m -27
 X s 417 1465 m -54 X s
 gsave  2268 1077 0 461 C 322.563 1466.2 t 0 r /Helvetica findfont 32.6216 sf 0 0 m (3) show NC gr 
 gsave  2268 1077 0 461 C 270.432 1443.39 t 0 r /Helvetica findfont 48.9324 sf 0 0 m (10) show NC gr  2154 634 m 850 Y s 2127 656 m 27 X s 2127 696 m 27 X s 2127 727 m 27 X s 2127 752 m 27 X s 2127 774 m 27 X s 2127 792 m 27 X s 2127 809 m 27 X s
 2101 824 m 53 X s 2127 920 m 27 X s 2127 976 m 27 X s 2127 1017 m 27 X s 2127 1048 m 27 X s 2127 1073 m 27 X s 2127 1094 m 27 X s 2127 1113 m 27 X s 2127 1129 m 27 X s 2101 1144 m 53 X s 2127 1241 m 27 X s 2127 1297 m 27 X s 2127 1337 m 27 X s 2127
 1368 m 27 X s 2127 1393 m 27 X s 2127 1415 m 27 X s 2127 1434 m 27 X s 2127 1450 m 27 X s 2101 1465 m 53 X s 381 752 m -18 X s 363 752 m cl s 381 752 m 18 X s 399 752 m cl s 381 752 m 66 Y s 381 818 m cl s 381 752 m -70 Y s 381 682 m cl s 417 696 m
 -18 X s 399 696 m cl s 417 696 m 17 X s 434 696 m cl s 417 696 m 81 Y s 417 777 m cl s 417 696 m -62 Y s 417 634 m cl s 452 774 m -18 X s 434 774 m cl s 452 774 m 18 X s 470 774 m cl s 452 774 m 60 Y s 452 834 m cl s 452 774 m -64 Y s 452 710 m cl s
 488 837 m -18 X s 470 837 m cl s 488 837 m 18 X s 506 837 m cl s 488 837 m 47 Y s 488 884 m cl s 488 837 m -49 Y s 488 788 m cl s 524 837 m -18 X s 506 837 m cl s 524 837 m 18 X s 542 837 m cl s 524 837 m 47 Y s 524 884 m cl s 524 837 m -49 Y s 524
 788 m cl s 560 774 m -18 X s 542 774 m cl s 560 774 m 18 X s 578 774 m cl s 560 774 m 60 Y s 560 834 m cl s 560 774 m -64 Y s 560 710 m cl s 596 824 m -18 X s 578 824 m cl s 596 824 m 18 X s 614 824 m cl s 596 824 m 49 Y s 596 873 m cl s 596 824 m
 -52 Y s 596 772 m cl s 632 860 m -18 X s 614 860 m cl s 632 860 m 17 X s 649 860 m cl s 632 860 m 43 Y s 632 903 m cl s 632 860 m -44 Y s 632 816 m cl s 667 849 m -18 X s 649 849 m cl s 667 849 m 18 X s 685 849 m cl s 667 849 m 45 Y s 667 894 m cl s
 667 849 m -47 Y s 667 802 m cl s 703 870 m -18 X s 685 870 m cl s 703 870 m 18 X s 721 870 m cl s 703 870 m 42 Y s 703 912 m cl s 703 870 m -42 Y s 703 828 m cl s 739 860 m -18 X s 721 860 m cl s 739 860 m 18 X s 757 860 m cl s 739 860 m 43 Y s 739
 903 m cl s 739 860 m -44 Y s 739 816 m cl s 775 889 m -18 X s 757 889 m cl s 775 889 m 18 X s 793 889 m cl s 775 889 m 38 Y s 775 927 m cl s 775 889 m -40 Y s 775 849 m cl s 811 824 m -18 X s 793 824 m cl s 811 824 m 18 X s 829 824 m cl s 811 824 m
 49 Y s 811 873 m cl s 811 824 m -52 Y s 811 772 m cl s 847 905 m -18 X s 829 905 m cl s 847 905 m 17 X s 864 905 m cl s 847 905 m 36 Y s 847 941 m cl s 847 905 m -37 Y s 847 868 m cl s 882 927 m -18 X s 864 927 m cl s 882 927 m 18 X s 900 927 m cl s
 882 927 m 33 Y s 882 960 m cl s 882 927 m -34 Y s 882 893 m cl s 918 927 m -18 X s 900 927 m cl s 918 927 m 18 X s 936 927 m cl s 918 927 m 33 Y s 918 960 m cl s 918 927 m -34 Y s 918 893 m cl s 954 967 m -18 X s 936 967 m cl s 954 967 m 18 X s 972
 967 m cl s 954 967 m 28 Y s 954 995 m cl s 954 967 m -29 Y s 954 938 m cl s 990 985 m -18 X s 972 985 m cl s 990 985 m 18 X s 1008 985 m cl s 990 985 m 27 Y s 990 1012 m cl s 990 985 m -26 Y s 990 959 m cl s 1026 981 m -18 X s 1008 981 m cl s 1026
 981 m 18 X s 1044 981 m cl s 1026 981 m 27 Y s 1026 1008 m cl s 1026 981 m -27 Y s 1026 954 m cl s 1062 1027 m -18 X s 1044 1027 m cl s 1062 1027 m 17 X s 1079 1027 m cl s 1062 1027 m 22 Y s 1062 1049 m cl s 1062 1027 m -23 Y s 1062 1004 m cl s 1097
 1030 m -18 X s 1079 1030 m cl s 1097 1030 m 18 X s 1115 1030 m cl s 1097 1030 m 22 Y s 1097 1052 m cl s 1097 1030 m -23 Y s 1097 1007 m cl s 1133 1084 m -18 X s 1115 1084 m cl s 1133 1084 m 18 X s 1151 1084 m cl s 1133 1084 m 18 Y s 1133 1102 m cl s
 1133 1084 m -18 Y s 1133 1066 m cl s 1169 1073 m -18 X s 1151 1073 m cl s 1169 1073 m 18 X s 1187 1073 m cl s 1169 1073 m 19 Y s 1169 1092 m cl s 1169 1073 m -19 Y s 1169 1054 m cl s 1205 1118 m -18 X s 1187 1118 m cl s 1205 1118 m 18 X s 1223 1118
 m cl s 1205 1118 m 16 Y s 1205 1134 m cl s 1205 1118 m -16 Y s 1205 1102 m cl s 1241 1116 m -18 X s 1223 1116 m cl s 1241 1116 m 18 X s 1259 1116 m cl s 1241 1116 m 17 Y s 1241 1133 m cl s 1241 1116 m -16 Y s 1241 1100 m cl s 1276 1165 m -17 X s
 1259 1165 m cl s 1276 1165 m 18 X s 1294 1165 m cl s 1276 1165 m 13 Y s 1276 1178 m cl s 1276 1165 m -13 Y s 1276 1152 m cl s 1312 1209 m -18 X s 1294 1209 m cl s 1312 1209 m 18 X s 1330 1209 m cl s 1312 1209 m 11 Y s 1312 1220 m cl s 1312 1209 m
 -11 Y s 1312 1198 m cl s 1348 1231 m -18 X s 1330 1231 m cl s 1348 1231 m 18 X s 1366 1231 m cl s 1348 1231 m 10 Y s 1348 1241 m cl s 1348 1231 m -10 Y s 1348 1221 m cl s 1384 1274 m -18 X s 1366 1274 m cl s 1384 1274 m 18 X s 1402 1274 m cl s 1384
 1274 m 9 Y s 1384 1283 m cl s 1384 1274 m -8 Y s 1384 1266 m cl s 1420 1324 m -18 X s 1402 1324 m cl s 1420 1324 m 18 X s 1438 1324 m cl s 1420 1324 m 8 Y s 1420 1332 m cl s 1420 1324 m -7 Y s 1420 1317 m cl s 1456 1369 m -18 X s 1438 1369 m cl s
 1456 1369 m 18 X s 1474 1369 m cl s 1456 1369 m 6 Y s 1456 1375 m cl s 1456 1369 m -7 Y s 1456 1362 m cl s 1491 1379 m -17 X s 1474 1379 m cl s 1491 1379 m 18 X s 1509 1379 m cl s 1491 1379 m 6 Y s 1491 1385 m cl s 1491 1379 m -6 Y s 1491 1373 m cl
 s 1527 1401 m -18 X s 1509 1401 m cl s 1527 1401 m 18 X s 1545 1401 m cl s 1527 1401 m 5 Y s 1527 1406 m cl s 1527 1401 m -6 Y s 1527 1395 m cl s 1563 1414 m -18 X s 1545 1414 m cl s 1563 1414 m 18 X s 1581 1414 m cl s 1563 1414 m 5 Y s 1563 1419 m
 cl s 1563 1414 m -6 Y s 1563 1408 m cl s 1599 1404 m -18 X s 1581 1404 m cl s 1599 1404 m 18 X s 1617 1404 m cl s 1599 1404 m 6 Y s 1599 1410 m cl s 1599 1404 m -5 Y s 1599 1399 m cl s 1635 1392 m -18 X s 1617 1392 m cl s 1635 1392 m 18 X s 1653
 1392 m cl s 1635 1392 m 6 Y s 1635 1398 m cl s 1635 1392 m -6 Y s 1635 1386 m cl s 1671 1342 m -18 X s 1653 1342 m cl s 1671 1342 m 18 X s 1689 1342 m cl s 1671 1342 m 7 Y s 1671 1349 m cl s 1671 1342 m -7 Y s 1671 1335 m cl s 1706 1303 m -17 X s
 1689 1303 m cl s 1706 1303 m 18 X s 1724 1303 m cl s 1706 1303 m 8 Y s 1706 1311 m cl s 1706 1303 m -8 Y s 1706 1295 m cl s 1742 1256 m -18 X s 1724 1256 m cl s 1742 1256 m 18 X s 1760 1256 m cl s 1742 1256 m 10 Y s 1742 1266 m cl s 1742 1256 m -9 Y
 s 1742 1247 m cl s 1778 1200 m -18 X s 1760 1200 m cl s 1778 1200 m 18 X s 1796 1200 m cl s 1778 1200 m 11 Y s 1778 1211 m cl s 1778 1200 m -12 Y s 1778 1188 m cl s 1814 1132 m -18 X s 1796 1132 m cl s 1814 1132 m 18 X s 1832 1132 m cl s 1814 1132 m
 16 Y s 1814 1148 m cl s 1814 1132 m -15 Y s 1814 1117 m cl s 1850 1075 m -18 X s 1832 1075 m cl s 1850 1075 m 18 X s 1868 1075 m cl s 1850 1075 m 19 Y s 1850 1094 m cl s 1850 1075 m -19 Y s 1850 1056 m cl s 1886 1017 m -18 X s 1868 1017 m cl s 1886
 1017 m 18 X s 1904 1017 m cl s 1886 1017 m 23 Y s 1886 1040 m cl s 1886 1017 m -24 Y s 1886 993 m cl s 1921 967 m -17 X s 1904 967 m cl s 1921 967 m 18 X s 1939 967 m cl s 1921 967 m 28 Y s 1921 995 m cl s 1921 967 m -29 Y s 1921 938 m cl s 1957 913
 m -18 X s 1939 913 m cl s 1957 913 m 18 X s 1975 913 m cl s 1957 913 m 35 Y s 1957 948 m cl s 1957 913 m -36 Y s 1957 877 m cl s 1993 809 m -18 X s 1975 809 m cl s 1993 809 m 18 X s 2011 809 m cl s 1993 809 m 52 Y s 1993 861 m cl s 1993 809 m -55 Y
 s 1993 754 m cl s 2029 824 m -18 X s 2011 824 m cl s 2029 824 m 18 X s 2047 824 m cl s 2029 824 m 49 Y s 2029 873 m cl s 2029 824 m -52 Y s 2029 772 m cl s 2065 727 m -18 X s 2047 727 m cl s 2065 727 m 18 X s 2083 727 m cl s 2065 727 m 72 Y s 2065
 799 m cl s 2065 727 m -79 Y s 2065 648 m cl s 2101 656 m -18 X s 2083 656 m cl s 2101 656 m 18 X s 2119 656 m cl s 2101 656 m 95 Y s 2101 751 m cl s 2101 656 m -22 Y s 2101 634 m cl s /w 31 def /w2 {w 2 div} def /w3 {w 3 div} def 381 752 417 696 452
 774 488 837 524 837 560 774 596 824 632 860 667 849 703 870 739 860 775 889 811 824 847 905 882 927 918 927 954 967 990 985 1026 981 1062 1027 1097 1030 1133 1084 1169 1073 1205 1118 1241 1116 1276 1165 1312 1209 1348 1231 1384 1274 1420 1324 1456
 1369 1491 1379 1527 1401 1563 1414 1599 1404 1635 1392 1671 1342 1706 1303 1742 1256 1778 1200 1814 1132 1850 1075 1886 1017 1921 967 1957 913 1993 809 2029 824 2065 727 2101 656 49 { m20} R 0 1 1 c 1 1 0 c black 1 1 0 c 363 771 m 36 10 d 35 11 d 36
 10 d 36 11 d 36 11 d 36 12 d 36 12 d 35 12 d 36 12 d 36 13 d 36 13 d 36 13 d 36 14 d 35 14 d 36 15 d 36 15 d 36 16 d 36 17 d 36 17 d 35 18 d 36 20 d 36 20 d 36 22 d 36 23 d 18 13 d 18 13 d 17 15 d 18 16 d 18 18 d 18 20 d 9 11 d 9 11 d 9 12 d 9 12 d
 9 12 d 9 12 d 9 12 d 9 11 d 18 21 d 18 19 d 18 18 d 18 14 d 9 7 d 8 6 d 9 5 d 9 5 d 9 4 d 9 3 d 9 2 d 9 1 d 9 1 d 9 X 9 -2 d 9 -2 d 9 -3 d 9 -3 d 9 -5 d 9 -5 d 9 -6 d 9 -7 d 18 -15 d 36 -36 d 17 -21 d 9 -12 d 9 -12 d 9 -12 d 9 -12 d 9 -13 d 9 -13 d
 18 -26 d 18 -26 d 18 -27 d 18 -27 d 18 -27 d 18 -27 d 18 -28 d 18 -29 d 35 -59 d 36 -65 d 36 -68 d 36 -74 d 36 -80 d 17 -40 d -44 X -9 25 d -36 94 d -36 85 d -36 78 d -35 70 d -18 33 d -18 31 d -18 31 d -18 29 d -18 29 d -18 28 d -18 28 d -18 26 d
 -9 13 d -9 13 d -9 13 d -9 13 d -9 12 d -9 12 d -17 23 d -36 40 d -18 15 d -9 7 d -9 6 d -9 5 d -9 4 d -9 4 d -9 3 d -9 2 d -9 1 d -18 X -9 -2 d -9 -2 d -9 -2 d -9 -4 d -9 -4 d -9 -6 d -8 -6 d -9 -7 d -18 -16 d -18 -19 d -18 -21 d -18 -24 d -9 -12 d
 -9 -12 d -9 -12 d -9 -12 d -9 -11 d -9 -12 d -9 -11 d -9 -10 d -18 -21 d -18 -19 d -18 -17 d -17 -16 d -18 -15 d -18 -13 d -36 -24 d -36 -21 d -36 -19 d -36 -19 d -35 -19 d -36 -18 d -36 -18 d -36 -17 d -36 -17 d -36 -16 d -35 -16 d -36 -16 d -36
 -15 d -36 -15 d -36 -14 d -36 -14 d -35 -13 d -36 -13 d -36 -13 d -36 -13 d -36 -12 d -36 -12 d -35 -12 d -36 -11 d f 0 1 1 c 0 1 0 c black 0 1 0 c 363 760 m 36 11 d 35 11 d 36 11 d 36 11 d 36 11 d 36 12 d 36 12 d 35 12 d 36 13 d 36 13 d 36 13 d 36
 14 d 36 14 d 35 15 d 36 15 d 36 16 d 36 16 d 36 17 d 36 17 d 35 19 d 36 19 d 36 20 d 36 22 d 36 23 d 18 13 d 18 14 d 17 14 d 18 17 d 18 18 d 18 21 d 9 10 d 9 12 d 9 11 d 9 12 d 9 12 d 9 12 d 9 12 d 9 11 d 18 22 d 18 20 d 18 17 d 18 15 d 9 7 d 8 6 d
 9 5 d 9 5 d 9 4 d 9 3 d 9 2 d 9 1 d 9 1 d 9 -1 d 9 -1 d 9 -2 d 9 -3 d 9 -3 d 9 -5 d 9 -5 d 9 -6 d 9 -7 d 18 -15 d 36 -37 d 17 -22 d 9 -11 d 9 -12 d 9 -12 d 9 -13 d 9 -13 d 9 -12 d 18 -27 d 18 -27 d 18 -26 d 18 -28 d 18 -27 d 18 -28 d 18 -29 d 18 -29
 d 35 -62 d 36 -67 d 36 -71 d 36 -78 d 36 -82 d 7 -19 d -22 X -21 56 d -36 86 d -36 79 d -36 73 d -35 67 d -18 32 d -18 30 d -18 30 d -18 29 d -18 28 d -18 28 d -18 27 d -18 27 d -9 13 d -9 12 d -9 13 d -9 12 d -9 12 d -9 12 d -17 23 d -36 39 d -18
 15 d -9 7 d -9 6 d -9 5 d -9 5 d -9 3 d -9 3 d -9 2 d -9 1 d -18 X -9 -1 d -9 -2 d -9 -3 d -9 -4 d -9 -4 d -9 -6 d -8 -6 d -9 -7 d -18 -16 d -18 -18 d -18 -21 d -18 -23 d -9 -12 d -9 -12 d -9 -12 d -9 -12 d -9 -11 d -9 -11 d -9 -11 d -9 -11 d -18
 -20 d -18 -19 d -18 -18 d -17 -15 d -18 -15 d -18 -13 d -36 -23 d -36 -21 d -36 -20 d -36 -19 d -35 -19 d -36 -18 d -36 -17 d -36 -17 d -36 -16 d -36 -16 d -35 -16 d -36 -15 d -36 -14 d -36 -14 d -36 -14 d -36 -14 d -35 -13 d -36 -12 d -36 -13 d -36
 -12 d -36 -12 d -36 -11 d -35 -12 d -36 -11 d f 0 0 1 c 9 lw black 0 0 1 c 363 749 m 36 11 d 35 11 d 36 11 d 36 12 d 36 12 d 36 12 d 36 12 d 35 13 d 36 13 d 36 13 d 36 14 d 36 14 d 36 14 d 35 15 d 36 16 d 36 16 d 36 17 d 36 17 d 36 17 d 35 19 d 36
 19 d 36 20 d 36 22 d 36 23 d 18 13 d 18 14 d 17 15 d 18 17 d 18 18 d 18 21 d 9 11 d 9 11 d 9 11 d 9 12 d 9 12 d 9 12 d 9 12 d 9 11 d 18 22 d 18 21 d 18 18 d 18 15 d 9 7 d 8 6 d 9 5 d 9 5 d 9 4 d 9 3 d 9 2 d 9 1 d 9 1 d 9 -1 d 9 -1 d 9 -2 d 9 -3 d 9
 -3 d 9 -5 d 9 -5 d 9 -6 d 9 -7 d 18 -15 d 36 -38 d 17 -22 d 9 -12 d 9 -12 d 9 -12 d 9 -13 d 9 -12 d 9 -13 d 18 -27 d 18 -27 d 18 -27 d 18 -28 d 18 -28 d 18 -29 d 18 -29 d 18 -31 d 35 -64 d 36 -70 d 36 -75 d 36 -81 d 33 -80 d s black 3 lw 381 752 m
 -18 X s 363 752 m cl s 381 752 m 18 X s 399 752 m cl s 381 752 m 66 Y s 381 818 m cl s 381 752 m -70 Y s 381 682 m cl s 417 696 m -18 X s 399 696 m cl s 417 696 m 17 X s 434 696 m cl s 417 696 m 81 Y s 417 777 m cl s 417 696 m -62 Y s 417 634 m cl s
 452 774 m -18 X s 434 774 m cl s 452 774 m 18 X s 470 774 m cl s 452 774 m 60 Y s 452 834 m cl s 452 774 m -64 Y s 452 710 m cl s 488 837 m -18 X s 470 837 m cl s 488 837 m 18 X s 506 837 m cl s 488 837 m 47 Y s 488 884 m cl s 488 837 m -49 Y s 488
 788 m cl s 524 837 m -18 X s 506 837 m cl s 524 837 m 18 X s 542 837 m cl s 524 837 m 47 Y s 524 884 m cl s 524 837 m -49 Y s 524 788 m cl s 560 774 m -18 X s 542 774 m cl s 560 774 m 18 X s 578 774 m cl s 560 774 m 60 Y s 560 834 m cl s 560 774 m
 -64 Y s 560 710 m cl s 596 824 m -18 X s 578 824 m cl s 596 824 m 18 X s 614 824 m cl s 596 824 m 49 Y s 596 873 m cl s 596 824 m -52 Y s 596 772 m cl s 632 860 m -18 X s 614 860 m cl s 632 860 m 17 X s 649 860 m cl s 632 860 m 43 Y s 632 903 m cl s
 632 860 m -44 Y s 632 816 m cl s 667 849 m -18 X s 649 849 m cl s 667 849 m 18 X s 685 849 m cl s 667 849 m 45 Y s 667 894 m cl s 667 849 m -47 Y s 667 802 m cl s 703 870 m -18 X s 685 870 m cl s 703 870 m 18 X s 721 870 m cl s 703 870 m 42 Y s 703
 912 m cl s 703 870 m -42 Y s 703 828 m cl s 739 860 m -18 X s 721 860 m cl s 739 860 m 18 X s 757 860 m cl s 739 860 m 43 Y s 739 903 m cl s 739 860 m -44 Y s 739 816 m cl s 775 889 m -18 X s 757 889 m cl s 775 889 m 18 X s 793 889 m cl s 775 889 m
 38 Y s 775 927 m cl s 775 889 m -40 Y s 775 849 m cl s 811 824 m -18 X s 793 824 m cl s 811 824 m 18 X s 829 824 m cl s 811 824 m 49 Y s 811 873 m cl s 811 824 m -52 Y s 811 772 m cl s 847 905 m -18 X s 829 905 m cl s 847 905 m 17 X s 864 905 m cl s
 847 905 m 36 Y s 847 941 m cl s 847 905 m -37 Y s 847 868 m cl s 882 927 m -18 X s 864 927 m cl s 882 927 m 18 X s 900 927 m cl s 882 927 m 33 Y s 882 960 m cl s 882 927 m -34 Y s 882 893 m cl s 918 927 m -18 X s 900 927 m cl s 918 927 m 18 X s 936
 927 m cl s 918 927 m 33 Y s 918 960 m cl s 918 927 m -34 Y s 918 893 m cl s 954 967 m -18 X s 936 967 m cl s 954 967 m 18 X s 972 967 m cl s 954 967 m 28 Y s 954 995 m cl s 954 967 m -29 Y s 954 938 m cl s 990 985 m -18 X s 972 985 m cl s 990 985 m
 18 X s 1008 985 m cl s 990 985 m 27 Y s 990 1012 m cl s 990 985 m -26 Y s 990 959 m cl s 1026 981 m -18 X s 1008 981 m cl s 1026 981 m 18 X s 1044 981 m cl s 1026 981 m 27 Y s 1026 1008 m cl s 1026 981 m -27 Y s 1026 954 m cl s 1062 1027 m -18 X s
 1044 1027 m cl s 1062 1027 m 17 X s 1079 1027 m cl s 1062 1027 m 22 Y s 1062 1049 m cl s 1062 1027 m -23 Y s 1062 1004 m cl s 1097 1030 m -18 X s 1079 1030 m cl s 1097 1030 m 18 X s 1115 1030 m cl s 1097 1030 m 22 Y s 1097 1052 m cl s 1097 1030 m
 -23 Y s 1097 1007 m cl s 1133 1084 m -18 X s 1115 1084 m cl s 1133 1084 m 18 X s 1151 1084 m cl s 1133 1084 m 18 Y s 1133 1102 m cl s 1133 1084 m -18 Y s 1133 1066 m cl s 1169 1073 m -18 X s 1151 1073 m cl s 1169 1073 m 18 X s 1187 1073 m cl s 1169
 1073 m 19 Y s 1169 1092 m cl s 1169 1073 m -19 Y s 1169 1054 m cl s 1205 1118 m -18 X s 1187 1118 m cl s 1205 1118 m 18 X s 1223 1118 m cl s 1205 1118 m 16 Y s 1205 1134 m cl s 1205 1118 m -16 Y s 1205 1102 m cl s 1241 1116 m -18 X s 1223 1116 m cl
 s 1241 1116 m 18 X s 1259 1116 m cl s 1241 1116 m 17 Y s 1241 1133 m cl s 1241 1116 m -16 Y s 1241 1100 m cl s 1276 1165 m -17 X s 1259 1165 m cl s 1276 1165 m 18 X s 1294 1165 m cl s 1276 1165 m 13 Y s 1276 1178 m cl s 1276 1165 m -13 Y s 1276 1152
 m cl s 1312 1209 m -18 X s 1294 1209 m cl s 1312 1209 m 18 X s 1330 1209 m cl s 1312 1209 m 11 Y s 1312 1220 m cl s 1312 1209 m -11 Y s 1312 1198 m cl s 1348 1231 m -18 X s 1330 1231 m cl s 1348 1231 m 18 X s 1366 1231 m cl s 1348 1231 m 10 Y s 1348
 1241 m cl s 1348 1231 m -10 Y s 1348 1221 m cl s 1384 1274 m -18 X s 1366 1274 m cl s 1384 1274 m 18 X s 1402 1274 m cl s 1384 1274 m 9 Y s 1384 1283 m cl s 1384 1274 m -8 Y s 1384 1266 m cl s 1420 1324 m -18 X s 1402 1324 m cl s 1420 1324 m 18 X s
 1438 1324 m cl s 1420 1324 m 8 Y s 1420 1332 m cl s 1420 1324 m -7 Y s 1420 1317 m cl s 1456 1369 m -18 X s 1438 1369 m cl s 1456 1369 m 18 X s 1474 1369 m cl s 1456 1369 m 6 Y s 1456 1375 m cl s 1456 1369 m -7 Y s 1456 1362 m cl s 1491 1379 m -17 X
 s 1474 1379 m cl s 1491 1379 m 18 X s 1509 1379 m cl s 1491 1379 m 6 Y s 1491 1385 m cl s 1491 1379 m -6 Y s 1491 1373 m cl s 1527 1401 m -18 X s 1509 1401 m cl s 1527 1401 m 18 X s 1545 1401 m cl s 1527 1401 m 5 Y s 1527 1406 m cl s 1527 1401 m -6
 Y s 1527 1395 m cl s 1563 1414 m -18 X s 1545 1414 m cl s 1563 1414 m 18 X s 1581 1414 m cl s 1563 1414 m 5 Y s 1563 1419 m cl s 1563 1414 m -6 Y s 1563 1408 m cl s 1599 1404 m -18 X s 1581 1404 m cl s 1599 1404 m 18 X s 1617 1404 m cl s 1599 1404 m
 6 Y s 1599 1410 m cl s 1599 1404 m -5 Y s 1599 1399 m cl s 1635 1392 m -18 X s 1617 1392 m cl s 1635 1392 m 18 X s 1653 1392 m cl s 1635 1392 m 6 Y s 1635 1398 m cl s 1635 1392 m -6 Y s 1635 1386 m cl s 1671 1342 m -18 X s 1653 1342 m cl s 1671 1342
 m 18 X s 1689 1342 m cl s 1671 1342 m 7 Y s 1671 1349 m cl s 1671 1342 m -7 Y s 1671 1335 m cl s 1706 1303 m -17 X s 1689 1303 m cl s 1706 1303 m 18 X s 1724 1303 m cl s 1706 1303 m 8 Y s 1706 1311 m cl s 1706 1303 m -8 Y s 1706 1295 m cl s 1742
 1256 m -18 X s 1724 1256 m cl s 1742 1256 m 18 X s 1760 1256 m cl s 1742 1256 m 10 Y s 1742 1266 m cl s 1742 1256 m -9 Y s 1742 1247 m cl s 1778 1200 m -18 X s 1760 1200 m cl s 1778 1200 m 18 X s 1796 1200 m cl s 1778 1200 m 11 Y s 1778 1211 m cl s
 1778 1200 m -12 Y s 1778 1188 m cl s 1814 1132 m -18 X s 1796 1132 m cl s 1814 1132 m 18 X s 1832 1132 m cl s 1814 1132 m 16 Y s 1814 1148 m cl s 1814 1132 m -15 Y s 1814 1117 m cl s 1850 1075 m -18 X s 1832 1075 m cl s 1850 1075 m 18 X s 1868 1075
 m cl s 1850 1075 m 19 Y s 1850 1094 m cl s 1850 1075 m -19 Y s 1850 1056 m cl s 1886 1017 m -18 X s 1868 1017 m cl s 1886 1017 m 18 X s 1904 1017 m cl s 1886 1017 m 23 Y s 1886 1040 m cl s 1886 1017 m -24 Y s 1886 993 m cl s 1921 967 m -17 X s 1904
 967 m cl s 1921 967 m 18 X s 1939 967 m cl s 1921 967 m 28 Y s 1921 995 m cl s 1921 967 m -29 Y s 1921 938 m cl s 1957 913 m -18 X s 1939 913 m cl s 1957 913 m 18 X s 1975 913 m cl s 1957 913 m 35 Y s 1957 948 m cl s 1957 913 m -36 Y s 1957 877 m cl
 s 1993 809 m -18 X s 1975 809 m cl s 1993 809 m 18 X s 2011 809 m cl s 1993 809 m 52 Y s 1993 861 m cl s 1993 809 m -55 Y s 1993 754 m cl s 2029 824 m -18 X s 2011 824 m cl s 2029 824 m 18 X s 2047 824 m cl s 2029 824 m 49 Y s 2029 873 m cl s 2029
 824 m -52 Y s 2029 772 m cl s 2065 727 m -18 X s 2047 727 m cl s 2065 727 m 18 X s 2083 727 m cl s 2065 727 m 72 Y s 2065 799 m cl s 2065 727 m -79 Y s 2065 648 m cl s 2101 656 m -18 X s 2083 656 m cl s 2101 656 m 18 X s 2119 656 m cl s 2101 656 m
 95 Y s 2101 751 m cl s 2101 656 m -22 Y s 2101 634 m cl s 381 752 417 696 452 774 488 837 524 837 560 774 596 824 632 860 667 849 703 870 739 860 775 889 811 824 847 905 882 927 918 927 954 967 990 985 1026 981 1062 1027 1097 1030 1133 1084 1169
 1073 1205 1118 1241 1116 1276 1165 1312 1209 1348 1231 1384 1274 1420 1324 1456 1369 1491 1379 1527 1401 1563 1414 1599 1404 1635 1392 1671 1342 1706 1303 1742 1256 1778 1200 1814 1132 1850 1075 1886 1017 1921 967 1957 913 1993 809 2029 824 2065 727
 2101 656 49 { m20} R 0.52 0.76 0.64 c[ 4 8] 0 sd 9 lw black 0.52 0.76 0.64 c 363 749 m 36 11 d 35 11 d 36 11 d 36 12 d 36 12 d 36 12 d 36 12 d 35 13 d 36 13 d 36 13 d 36 14 d 36 14 d 36 14 d 35 15 d 36 16 d 36 16 d 36 17 d 36 17 d 36 17 d 35 19 d 36
 19 d 36 20 d 36 21 d 36 22 d 18 11 d 18 11 d 17 12 d 18 12 d 18 12 d 18 13 d 18 13 d 18 14 d 18 13 d 18 14 d 18 12 d 18 11 d 18 9 d 18 8 d 9 3 d 8 3 d 9 3 d 9 2 d 9 2 d 9 1 d 9 1 d 9 1 d 18 X 9 -1 d 9 -1 d 9 -1 d 9 -2 d 9 -2 d 9 -2 d 9 -3 d 9 -3 d
 18 -8 d 18 -9 d 18 -11 d 35 -26 d 36 -32 d 18 -18 d 18 -20 d 18 -21 d 18 -23 d 18 -24 d 18 -26 d 18 -28 d 18 -29 d 17 -30 d 18 -32 d 18 -34 d 18 -35 d 18 -37 d 18 -38 d 36 -81 d 33 -80 d s 0.54 0.66 0.63 c black 0.54 0.66 0.63 c 1242 634 m 17 74 d s
 1259 708 m 17 74 d 18 69 d 18 64 d 9 31 d 9 29 d 9 28 d 9 27 d 9 26 d 9 25 d 9 24 d 9 22 d 9 21 d 9 21 d 9 19 d 9 17 d 9 17 d 9 16 d 36 51 d 9 9 d 8 9 d 9 8 d 9 6 d 9 5 d 9 4 d 9 3 d 5 1 d 4 1 d 5 1 d 9 X 4 -1 d 5 X 4 -1 d 9 -3 d 9 -4 d 9 -5 d 9 -6
 d 9 -8 d 9 -8 d 9 -10 d 18 -23 d 18 -27 d 9 -16 d 9 -16 d 8 -18 d 9 -19 d 9 -20 d 9 -21 d 9 -22 d 9 -24 d 9 -24 d 9 -26 d 9 -27 d 9 -28 d 9 -29 d 9 -30 d 18 -64 d 18 -69 d 18 -73 d 18 -78 d -2 Y s black[  ] 0 sd 3 lw 363 634 m 1791 X s 363 659 m -25
 Y s 404 646 m -12 Y s 444 646 m -12 Y s 485 646 m -12 Y s 526 646 m -12 Y s 566 659 m -25 Y s 607 646 m -12 Y s 648 646 m -12 Y s 689 646 m -12 Y s 729 646 m -12 Y s 770 659 m -25 Y s 811 646 m -12 Y s 851 646 m -12 Y s 892 646 m -12 Y s 933 646 m
 -12 Y s 974 659 m -25 Y s 1014 646 m -12 Y s 1055 646 m -12 Y s 1096 646 m -12 Y s 1136 646 m -12 Y s 1177 659 m -25 Y s 1218 646 m -12 Y s 1259 646 m -12 Y s 1299 646 m -12 Y s 1340 646 m -12 Y s 1381 659 m -25 Y s 1421 646 m -12 Y s 1462 646 m -12
 Y s 1503 646 m -12 Y s 1544 646 m -12 Y s 1584 659 m -25 Y s 1625 646 m -12 Y s 1666 646 m -12 Y s 1706 646 m -12 Y s 1747 646 m -12 Y s 1788 659 m -25 Y s 1829 646 m -12 Y s 1869 646 m -12 Y s 1910 646 m -12 Y s 1951 646 m -12 Y s 1991 659 m -25 Y
 s 1991 659 m -25 Y s 2032 646 m -12 Y s 2073 646 m -12 Y s 2114 646 m -12 Y s 363 1484 m 1791 X s 363 1459 m 25 Y s 404 1471 m 13 Y s 444 1471 m 13 Y s 485 1471 m 13 Y s 526 1471 m 13 Y s 566 1459 m 25 Y s 607 1471 m 13 Y s 648 1471 m 13 Y s 689
 1471 m 13 Y s 729 1471 m 13 Y s 770 1459 m 25 Y s 811 1471 m 13 Y s 851 1471 m 13 Y s 892 1471 m 13 Y s 933 1471 m 13 Y s 974 1459 m 25 Y s 1014 1471 m 13 Y s 1055 1471 m 13 Y s 1096 1471 m 13 Y s 1136 1471 m 13 Y s 1177 1459 m 25 Y s 1218 1471 m 13
 Y s 1259 1471 m 13 Y s 1299 1471 m 13 Y s 1340 1471 m 13 Y s 1381 1459 m 25 Y s 1421 1471 m 13 Y s 1462 1471 m 13 Y s 1503 1471 m 13 Y s 1544 1471 m 13 Y s 1584 1459 m 25 Y s 1625 1471 m 13 Y s 1666 1471 m 13 Y s 1706 1471 m 13 Y s 1747 1471 m 13 Y
 s 1788 1459 m 25 Y s 1829 1471 m 13 Y s 1869 1471 m 13 Y s 1910 1471 m 13 Y s 1951 1471 m 13 Y s 1991 1459 m 25 Y s 1991 1459 m 25 Y s 2032 1471 m 13 Y s 2073 1471 m 13 Y s 2114 1471 m 13 Y s 363 634 m 850 Y s 390 656 m -27 X s 390 696 m -27 X s 390
 727 m -27 X s 390 752 m -27 X s 390 774 m -27 X s 390 792 m -27 X s 390 809 m -27 X s 417 824 m -54 X s 390 920 m -27 X s 390 976 m -27 X s 390 1017 m -27 X s 390 1048 m -27 X s 390 1073 m -27 X s 390 1094 m -27 X s 390 1113 m -27 X s 390 1129 m -27
 X s 417 1144 m -54 X s 390 1241 m -27 X s 390 1297 m -27 X s 390 1337 m -27 X s 390 1368 m -27 X s 390 1393 m -27 X s 390 1415 m -27 X s 390 1434 m -27 X s 390 1450 m -27 X s 417 1465 m -54 X s 2154 634 m 850 Y s 2127 656 m 27 X s 2127 696 m 27 X s
 2127 727 m 27 X s 2127 752 m 27 X s 2127 774 m 27 X s 2127 792 m 27 X s 2127 809 m 27 X s 2101 824 m 53 X s 2127 920 m 27 X s 2127 976 m 27 X s 2127 1017 m 27 X s 2127 1048 m 27 X s 2127 1073 m 27 X s 2127 1094 m 27 X s 2127 1113 m 27 X s 2127 1129
 m 27 X s 2101 1144 m 53 X s 2127 1241 m 27 X s 2127 1297 m 27 X s 2127 1337 m 27 X s 2127 1368 m 27 X s 2127 1393 m 27 X s 2127 1415 m 27 X s 2127 1434 m 27 X s 2127 1450 m 27 X s 2101 1465 m 53 X s
 gsave  2268 1077 0 461 C 677.708 1215.31 t 0 r /Helvetica findfont 58.7189 sf 0 0 m (4mu) show NC gr  1 1 1 c 453 161 454 1269 bf black
 gsave  2268 1077 0 461 C 566.929 1371.71 t 0 r /Helvetica-Bold findfont 48.9324 sf 0 0 m (MC15) show NC gr  510 1390 m20
 gsave  2268 1077 0 461 C 566.929 1293.51 t 0 r /Helvetica-Bold findfont 48.9324 sf 0 0 m (Projection of Signal pdf) show NC gr  0 0 1 c 9 lw 471 1309 m 79 X s black 3 lw 1 1 1 c 2268 461 0 0 bf black 1 1 1 c 1791 364 363 74 bf black 1791 364 363 74
 bl 363 74 m 1791 X s
 gsave  2268 461 0 0 C 1915.83 13.0329 t 0 r /Helvetica findfont 22.9045 sf 0 0 m (4l Invariant Mass \(GeV\)) show NC gr  363 85 m -11 Y s 404 79 m -5 Y s 444 79 m -5 Y s 485 79 m -5 Y s 526 79 m -5 Y s 566 85 m -11 Y s 607 79 m -5 Y s 648 79 m -5 Y
 s 689 79 m -5 Y s 729 79 m -5 Y s 770 85 m -11 Y s 811 79 m -5 Y s 851 79 m -5 Y s 892 79 m -5 Y s 933 79 m -5 Y s 974 85 m -11 Y s 1014 79 m -5 Y s 1055 79 m -5 Y s 1096 79 m -5 Y s 1136 79 m -5 Y s 1177 85 m -11 Y s 1218 79 m -5 Y s 1259 79 m -5 Y
 s 1299 79 m -5 Y s 1340 79 m -5 Y s 1381 85 m -11 Y s 1421 79 m -5 Y s 1462 79 m -5 Y s 1503 79 m -5 Y s 1544 79 m -5 Y s 1584 85 m -11 Y s 1625 79 m -5 Y s 1666 79 m -5 Y s 1706 79 m -5 Y s 1747 79 m -5 Y s 1788 85 m -11 Y s 1829 79 m -5 Y s 1869
 79 m -5 Y s 1910 79 m -5 Y s 1951 79 m -5 Y s 1991 85 m -11 Y s 1991 85 m -11 Y s 2032 79 m -5 Y s 2073 79 m -5 Y s 2114 79 m -5 Y s
 gsave  2268 461 0 0 C 342.112 55.3896 t 0 r /Helvetica findfont 22.9045 sf 0 0 m (340) show NC gr 
 gsave  2268 461 0 0 C 544.122 55.3896 t 0 r /Helvetica findfont 22.9045 sf 0 0 m (350) show NC gr 
 gsave  2268 461 0 0 C 749.389 55.3896 t 0 r /Helvetica findfont 22.9045 sf 0 0 m (360) show NC gr 
 gsave  2268 461 0 0 C 951.398 55.3896 t 0 r /Helvetica findfont 22.9045 sf 0 0 m (370) show NC gr 
 gsave  2268 461 0 0 C 1156.67 55.3896 t 0 r /Helvetica findfont 22.9045 sf 0 0 m (380) show NC gr 
 gsave  2268 461 0 0 C 1358.68 55.3896 t 0 r /Helvetica findfont 22.9045 sf 0 0 m (390) show NC gr 
 gsave  2268 461 0 0 C 1563.94 55.3896 t 0 r /Helvetica findfont 22.9045 sf 0 0 m (400) show NC gr 
 gsave  2268 461 0 0 C 1765.95 55.3896 t 0 r /Helvetica findfont 22.9045 sf 0 0 m (410) show NC gr 
 gsave  2268 461 0 0 C 1971.22 55.3896 t 0 r /Helvetica findfont 22.9045 sf 0 0 m (420) show NC gr  363 438 m 1791 X s 363 427 m 11 Y s 404 433 m 5 Y s 444 433 m 5 Y s 485 433 m 5 Y s 526 433 m 5 Y s 566 427 m 11 Y s 607 433 m 5 Y s 648 433 m 5 Y s
 689 433 m 5 Y s 729 433 m 5 Y s 770 427 m 11 Y s 811 433 m 5 Y s 851 433 m 5 Y s 892 433 m 5 Y s 933 433 m 5 Y s 974 427 m 11 Y s 1014 433 m 5 Y s 1055 433 m 5 Y s 1096 433 m 5 Y s 1136 433 m 5 Y s 1177 427 m 11 Y s 1218 433 m 5 Y s 1259 433 m 5 Y s
 1299 433 m 5 Y s 1340 433 m 5 Y s 1381 427 m 11 Y s 1421 433 m 5 Y s 1462 433 m 5 Y s 1503 433 m 5 Y s 1544 433 m 5 Y s 1584 427 m 11 Y s 1625 433 m 5 Y s 1666 433 m 5 Y s 1706 433 m 5 Y s 1747 433 m 5 Y s 1788 427 m 11 Y s 1829 433 m 5 Y s 1869 433
 m 5 Y s 1910 433 m 5 Y s 1951 433 m 5 Y s 1991 427 m 11 Y s 1991 427 m 11 Y s 2032 433 m 5 Y s 2073 433 m 5 Y s 2114 433 m 5 Y s 363 74 m 364 Y s 417 74 m -54 X s 390 81 m -27 X s 390 88 m -27 X s 390 96 m -27 X s 390 103 m -27 X s 417 110 m -54 X s
 390 118 m -27 X s 390 125 m -27 X s 390 132 m -27 X s 390 139 m -27 X s 417 147 m -54 X s 390 154 m -27 X s 390 161 m -27 X s 390 169 m -27 X s 390 176 m -27 X s 417 183 m -54 X s 390 190 m -27 X s 390 198 m -27 X s 390 205 m -27 X s 390 212 m -27 X
 s 417 220 m -54 X s 390 227 m -27 X s 390 234 m -27 X s 390 241 m -27 X s 390 249 m -27 X s 417 256 m -54 X s 390 263 m -27 X s 390 271 m -27 X s 390 278 m -27 X s 390 285 m -27 X s 417 293 m -54 X s 390 300 m -27 X s 390 307 m -27 X s 390 314 m -27
 X s 390 322 m -27 X s 417 329 m -54 X s 390 336 m -27 X s 390 344 m -27 X s 390 351 m -27 X s 390 358 m -27 X s 417 365 m -54 X s 390 373 m -27 X s 390 380 m -27 X s 390 387 m -27 X s 390 395 m -27 X s 417 402 m -54 X s 390 409 m -27 X s 390 416 m
 -27 X s 390 424 m -27 X s 390 431 m -27 X s 417 438 m -54 X s
 gsave  2268 461 0 0 C 329.08 65.1643 t 0 r /Helvetica findfont 22.9045 sf 0 0 m (\2555) show NC gr 
 gsave  2268 461 0 0 C 329.08 101.005 t 0 r /Helvetica findfont 22.9045 sf 0 0 m (\2554) show NC gr 
 gsave  2268 461 0 0 C 329.08 140.103 t 0 r /Helvetica findfont 22.9045 sf 0 0 m (\2553) show NC gr 
 gsave  2268 461 0 0 C 329.08 175.944 t 0 r /Helvetica findfont 22.9045 sf 0 0 m (\2552) show NC gr 
 gsave  2268 461 0 0 C 332.338 211.784 t 0 r /Helvetica findfont 22.9045 sf 0 0 m (\2551) show NC gr 
 gsave  2268 461 0 0 C 335.596 247.624 t 0 r /Helvetica findfont 22.9045 sf 0 0 m (0) show NC gr 
 gsave  2268 461 0 0 C 338.854 283.465 t 0 r /Helvetica findfont 22.9045 sf 0 0 m (1) show NC gr 
 gsave  2268 461 0 0 C 335.596 319.305 t 0 r /Helvetica findfont 22.9045 sf 0 0 m (2) show NC gr 
 gsave  2268 461 0 0 C 335.596 358.403 t 0 r /Helvetica findfont 22.9045 sf 0 0 m (3) show NC gr 
 gsave  2268 461 0 0 C 335.596 394.244 t 0 r /Helvetica findfont 22.9045 sf 0 0 m (4) show NC gr 
 gsave  2268 461 0 0 C 335.596 430.084 t 0 r /Helvetica findfont 22.9045 sf 0 0 m (5) show NC gr  2154 74 m 364 Y s 2101 74 m 53 X s 2127 81 m 27 X s 2127 88 m 27 X s 2127 96 m 27 X s 2127 103 m 27 X s 2101 110 m 53 X s 2127 118 m 27 X s 2127 125 m
 27 X s 2127 132 m 27 X s 2127 139 m 27 X s 2101 147 m 53 X s 2127 154 m 27 X s 2127 161 m 27 X s 2127 169 m 27 X s 2127 176 m 27 X s 2101 183 m 53 X s 2127 190 m 27 X s 2127 198 m 27 X s 2127 205 m 27 X s 2127 212 m 27 X s 2101 220 m 53 X s 2127 227
 m 27 X s 2127 234 m 27 X s 2127 241 m 27 X s 2127 249 m 27 X s 2101 256 m 53 X s 2127 263 m 27 X s 2127 271 m 27 X s 2127 278 m 27 X s 2127 285 m 27 X s 2101 293 m 53 X s 2127 300 m 27 X s 2127 307 m 27 X s 2127 314 m 27 X s 2127 322 m 27 X s 2101
 329 m 53 X s 2127 336 m 27 X s 2127 344 m 27 X s 2127 351 m 27 X s 2127 358 m 27 X s 2101 365 m 53 X s 2127 373 m 27 X s 2127 380 m 27 X s 2127 387 m 27 X s 2127 395 m 27 X s 2101 402 m 53 X s 2127 409 m 27 X s 2127 416 m 27 X s 2127 424 m 27 X s
 2127 431 m 27 X s 2101 438 m 53 X s 6 lw 0.2 0.8 0.2 c black 3 lw 0.2 0.8 0.2 c 363 256 m -1 Y 36 X -29 Y 35 X 29 Y 36 X 37 Y 36 X -7 Y 36 X -50 Y 36 X 21 Y 36 X 21 Y 35 X -21 Y 36 X 8 Y 36 X -20 Y 36 X 11 Y 36 X -66 Y 36 X 54 Y 35 X 5 Y 36 X -17 Y
 36 X 26 Y 36 X 2 Y 36 X -29 Y 36 X 39 Y 35 X -25 Y 36 X 63 Y 36 X -61 Y 36 X 49 Y 36 X -57 Y 36 X 49 Y 35 X 33 Y 36 X -65 Y 36 X -16 Y 36 X 16 Y 36 X 35 Y 36 X -110 Y 35 X 32 Y 36 X 62 Y 36 X 1 Y 36 X 60 Y 36 X -103 Y 36 X 22 Y 35 X 6 Y 36 X -15 Y
 36 X -29 Y 36 X 6 Y 36 X 6 Y 36 X 17 Y 35 X 15 Y 36 X -22 Y 36 X 61 Y 36 X -18 Y 36 X 1 Y 36 X 4 Y 35 X -30 Y f 6 lw black 0.2 0.8 0.2 c black 363 255 m 36 X -29 Y 35 X 29 Y 36 X 37 Y 36 X -7 Y 36 X -50 Y 36 X 21 Y 36 X 21 Y 35 X -21 Y 36 X 8 Y 36 X
 -20 Y 36 X 11 Y 36 X -66 Y 36 X 54 Y 35 X 5 Y 36 X -17 Y 36 X 26 Y 36 X 2 Y 36 X -29 Y 36 X 39 Y 35 X -25 Y 36 X 63 Y 36 X -61 Y 36 X 49 Y 36 X -57 Y 36 X 49 Y 35 X 33 Y 36 X -65 Y 36 X -16 Y 36 X 16 Y 36 X 35 Y 36 X -110 Y 35 X 32 Y 36 X 62 Y 36 X
 1 Y 36 X 60 Y 36 X -103 Y 36 X 22 Y 35 X 6 Y 36 X -15 Y 36 X -29 Y 36 X 6 Y 36 X 6 Y 36 X 17 Y 35 X 15 Y 36 X -22 Y 36 X 61 Y 36 X -18 Y 36 X 1 Y 36 X 4 Y 35 X s 3 lw 363 74 m 1791 X s 363 85 m -11 Y s 404 79 m -5 Y s 444 79 m -5 Y s 485 79 m -5 Y s
 526 79 m -5 Y s 566 85 m -11 Y s 607 79 m -5 Y s 648 79 m -5 Y s 689 79 m -5 Y s 729 79 m -5 Y s 770 85 m -11 Y s 811 79 m -5 Y s 851 79 m -5 Y s 892 79 m -5 Y s 933 79 m -5 Y s 974 85 m -11 Y s 1014 79 m -5 Y s 1055 79 m -5 Y s 1096 79 m -5 Y s
 1136 79 m -5 Y s 1177 85 m -11 Y s 1218 79 m -5 Y s 1259 79 m -5 Y s 1299 79 m -5 Y s 1340 79 m -5 Y s 1381 85 m -11 Y s 1421 79 m -5 Y s 1462 79 m -5 Y s 1503 79 m -5 Y s 1544 79 m -5 Y s 1584 85 m -11 Y s 1625 79 m -5 Y s 1666 79 m -5 Y s 1706 79
 m -5 Y s 1747 79 m -5 Y s 1788 85 m -11 Y s 1829 79 m -5 Y s 1869 79 m -5 Y s 1910 79 m -5 Y s 1951 79 m -5 Y s 1991 85 m -11 Y s 1991 85 m -11 Y s 2032 79 m -5 Y s 2073 79 m -5 Y s 2114 79 m -5 Y s 363 438 m 1791 X s 363 427 m 11 Y s 404 433 m 5 Y
 s 444 433 m 5 Y s 485 433 m 5 Y s 526 433 m 5 Y s 566 427 m 11 Y s 607 433 m 5 Y s 648 433 m 5 Y s 689 433 m 5 Y s 729 433 m 5 Y s 770 427 m 11 Y s 811 433 m 5 Y s 851 433 m 5 Y s 892 433 m 5 Y s 933 433 m 5 Y s 974 427 m 11 Y s 1014 433 m 5 Y s
 1055 433 m 5 Y s 1096 433 m 5 Y s 1136 433 m 5 Y s 1177 427 m 11 Y s 1218 433 m 5 Y s 1259 433 m 5 Y s 1299 433 m 5 Y s 1340 433 m 5 Y s 1381 427 m 11 Y s 1421 433 m 5 Y s 1462 433 m 5 Y s 1503 433 m 5 Y s 1544 433 m 5 Y s 1584 427 m 11 Y s 1625 433
 m 5 Y s 1666 433 m 5 Y s 1706 433 m 5 Y s 1747 433 m 5 Y s 1788 427 m 11 Y s 1829 433 m 5 Y s 1869 433 m 5 Y s 1910 433 m 5 Y s 1951 433 m 5 Y s 1991 427 m 11 Y s 1991 427 m 11 Y s 2032 433 m 5 Y s 2073 433 m 5 Y s 2114 433 m 5 Y s 363 74 m 364 Y s
 417 74 m -54 X s 390 81 m -27 X s 390 88 m -27 X s 390 96 m -27 X s 390 103 m -27 X s 417 110 m -54 X s 390 118 m -27 X s 390 125 m -27 X s 390 132 m -27 X s 390 139 m -27 X s 417 147 m -54 X s 390 154 m -27 X s 390 161 m -27 X s 390 169 m -27 X s
 390 176 m -27 X s 417 183 m -54 X s 390 190 m -27 X s 390 198 m -27 X s 390 205 m -27 X s 390 212 m -27 X s 417 220 m -54 X s 390 227 m -27 X s 390 234 m -27 X s 390 241 m -27 X s 390 249 m -27 X s 417 256 m -54 X s 390 263 m -27 X s 390 271 m -27 X
 s 390 278 m -27 X s 390 285 m -27 X s 417 293 m -54 X s 390 300 m -27 X s 390 307 m -27 X s 390 314 m -27 X s 390 322 m -27 X s 417 329 m -54 X s 390 336 m -27 X s 390 344 m -27 X s 390 351 m -27 X s 390 358 m -27 X s 417 365 m -54 X s 390 373 m -27
 X s 390 380 m -27 X s 390 387 m -27 X s 390 395 m -27 X s 417 402 m -54 X s 390 409 m -27 X s 390 416 m -27 X s 390 424 m -27 X s 390 431 m -27 X s 417 438 m -54 X s 2154 74 m 364 Y s 2101 74 m 53 X s 2127 81 m 27 X s 2127 88 m 27 X s 2127 96 m 27 X
 s 2127 103 m 27 X s 2101 110 m 53 X s 2127 118 m 27 X s 2127 125 m 27 X s 2127 132 m 27 X s 2127 139 m 27 X s 2101 147 m 53 X s 2127 154 m 27 X s 2127 161 m 27 X s 2127 169 m 27 X s 2127 176 m 27 X s 2101 183 m 53 X s 2127 190 m 27 X s 2127 198 m 27
 X s 2127 205 m 27 X s 2127 212 m 27 X s 2101 220 m 53 X s 2127 227 m 27 X s 2127 234 m 27 X s 2127 241 m 27 X s 2127 249 m 27 X s 2101 256 m 53 X s 2127 263 m 27 X s 2127 271 m 27 X s 2127 278 m 27 X s 2127 285 m 27 X s 2101 293 m 53 X s 2127 300 m
 27 X s 2127 307 m 27 X s 2127 314 m 27 X s 2127 322 m 27 X s 2101 329 m 53 X s 2127 336 m 27 X s 2127 344 m 27 X s 2127 351 m 27 X s 2127 358 m 27 X s 2101 365 m 53 X s 2127 373 m 27 X s 2127 380 m 27 X s 2127 387 m 27 X s 2127 395 m 27 X s 2101 402
 m 53 X s 2127 409 m 27 X s 2127 416 m 27 X s 2127 424 m 27 X s 2127 431 m 27 X s 2101 438 m 53 X s
 gr  gr showpage
end
%%EOF
