%!PS-Adobe-2.0 EPSF-2.0
%%BoundingBox:  0 0 567 384
%%Title: H4l2015_plotfit/gg_mass_signal_700_fixed_H4l_4mu.eps: 
%%Creator: ROOT Version 5.34/10
%%CreationDate: Thu Feb 16 13:03:00 2017
%%EndComments
%%BeginProlog
80 dict begin
/s {stroke} def /l {lineto} def /m {moveto} def /t {translate} def
/r {rotate} def /rl {roll}  def /R {repeat} def
/d {rlineto} def /rm {rmoveto} def /gr {grestore} def /f {eofill} def
/c {setrgbcolor} def /black {0 setgray} def /sd {setdash} def
/cl {closepath} def /sf {scalefont setfont} def /lw {setlinewidth} def
/box {m dup 0 exch d exch 0 d 0 exch neg d cl} def
/NC{systemdict begin initclip end}def/C{NC box clip newpath}def
/bl {box s} def /bf {box f} def /Y { 0 exch d} def /X { 0 d} def 
/K {{pop pop 0 moveto} exch kshow} bind def
/ita {/ang 15 def gsave [1 0 ang dup sin exch cos div 1 0 0] concat} def 
/mp {newpath /y exch def /x exch def} def
/side {[w .77 mul w .23 mul] .385 w mul sd w 0 l currentpoint t -144 r} def
/mr {mp x y w2 0 360 arc} def /m24 {mr s} def /m20 {mr f} def
/mb {mp x y w2 add m w2 neg 0 d 0 w neg d w 0 d 0 w d cl} def
/mt {mp x y w2 add m w2 neg w neg d w 0 d cl} def
/m21 {mb f} def /m25 {mb s} def /m22 {mt f} def /m26{mt s} def
/m23 {mp x y w2 sub m w2 w d w neg 0 d cl f} def
/m27 {mp x y w2 add m w3 neg w2 neg d w3 w2 neg d w3 w2 d cl s} def
/m28 {mp x w2 sub y w2 sub w3 add m w3 0 d  0 w3 neg d w3 0 d 0 w3 d w3 0 d  0 w3 d w3 neg 0 d 0 w3 d w3 neg 0 d 0 w3 neg d w3 neg 0 d cl s } def
/m29 {mp gsave x w2 sub y w2 add w3 sub m currentpoint t 4 {side} repeat cl fill gr} def
/m30 {mp gsave x w2 sub y w2 add w3 sub m currentpoint t 4 {side} repeat cl s gr} def
/m31 {mp x y w2 sub m 0 w d x w2 sub y m w 0 d x w2 sub y w2 add m w w neg d x w2 sub y w2 sub m w w d s} def
/m32 {mp x y w2 sub m w2 w d w neg 0 d cl s} def
/m33 {mp x y w2 add m w3 neg w2 neg d w3 w2 neg d w3 w2 d cl f} def
/m34 {mp x w2 sub y w2 sub w3 add m w3 0 d  0 w3 neg d w3 0 d 0 w3 d w3 0 d  0 w3 d w3 neg 0 d 0 w3 d w3 neg 0 d 0 w3 neg d w3 neg 0 d cl f } def
/m2 {mp x y w2 sub m 0 w d x w2 sub y m w 0 d s} def
/m5 {mp x w2 sub y w2 sub m w w d x w2 sub y w2 add m w w neg d s} def
/reEncode {exch findfont dup length dict begin {1 index /FID eq  {pop pop} {def} ifelse } forall /Encoding exch def currentdict end dup /FontName get exch definefont pop } def [/Times-Bold /Times-Italic /Times-BoldItalic /Helvetica /Helvetica-Oblique
 /Helvetica-Bold /Helvetica-BoldOblique /Courier /Courier-Oblique /Courier-Bold /Courier-BoldOblique /Times-Roman /AvantGarde-Book /AvantGarde-BookOblique /AvantGarde-Demi /AvantGarde-DemiOblique /Bookman-Demi /Bookman-DemiItalic /Bookman-Light
 /Bookman-LightItalic /Helvetica-Narrow /Helvetica-Narrow-Bold /Helvetica-Narrow-BoldOblique /Helvetica-Narrow-Oblique /NewCenturySchlbk-Roman /NewCenturySchlbk-Bold /NewCenturySchlbk-BoldItalic /NewCenturySchlbk-Italic /Palatino-Bold
 /Palatino-BoldItalic /Palatino-Italic /Palatino-Roman ] {ISOLatin1Encoding reEncode } forall
%%EndProlog
%%BeginSetup
%%EndSetup
newpath  gsave  .25 .25 scale  gsave  0 0 t black[  ] 0 sd 3 lw 1 1 1 c 2268 1538 0 0 bf black 1 1 1 c 2222 738 23 784 bf black 1 1 1 c 2222 739 23 15 bf black 1 1 1 c 2268 1077 0 461 bf black 1 1 1 c 1791 850 363 634 bf black 1791 850 363 634 bl 363
 634 m 1791 X s
 gsave  2268 1077 0 461 C 1642.14 498.507 t 0 r /Helvetica findfont 48.9324 sf 0 0 m (4l Invariant Mass \(GeV\)) show NC gr  363 659 m -25 Y s 436 646 m -12 Y s 508 646 m -12 Y s 581 646 m -12 Y s 654 659 m -25 Y s 727 646 m -12 Y s 800 646 m -12 Y s
 873 646 m -12 Y s 945 659 m -25 Y s 1018 646 m -12 Y s 1091 646 m -12 Y s 1164 646 m -12 Y s 1237 659 m -25 Y s 1310 646 m -12 Y s 1382 646 m -12 Y s 1455 646 m -12 Y s 1528 659 m -25 Y s 1601 646 m -12 Y s 1674 646 m -12 Y s 1747 646 m -12 Y s 1819
 659 m -25 Y s 1892 646 m -12 Y s 1965 646 m -12 Y s 2038 646 m -12 Y s 2111 659 m -25 Y s 2111 659 m -25 Y s
 gsave  2268 1077 0 461 C 319.305 586.478 t 0 r /Helvetica findfont 48.9324 sf 0 0 m (620) show NC gr 
 gsave  2268 1077 0 461 C 609.286 586.478 t 0 r /Helvetica findfont 48.9324 sf 0 0 m (640) show NC gr 
 gsave  2268 1077 0 461 C 902.525 586.478 t 0 r /Helvetica findfont 48.9324 sf 0 0 m (660) show NC gr 
 gsave  2268 1077 0 461 C 1192.51 586.478 t 0 r /Helvetica findfont 48.9324 sf 0 0 m (680) show NC gr 
 gsave  2268 1077 0 461 C 1482.49 586.478 t 0 r /Helvetica findfont 48.9324 sf 0 0 m (700) show NC gr 
 gsave  2268 1077 0 461 C 1775.73 586.478 t 0 r /Helvetica findfont 48.9324 sf 0 0 m (720) show NC gr 
 gsave  2268 1077 0 461 C 2065.71 586.478 t 0 r /Helvetica findfont 48.9324 sf 0 0 m (740) show NC gr  363 1484 m 1791 X s 363 1459 m 25 Y s 436 1471 m 13 Y s 508 1471 m 13 Y s 581 1471 m 13 Y s 654 1459 m 25 Y s 727 1471 m 13 Y s 800 1471 m 13 Y s
 873 1471 m 13 Y s 945 1459 m 25 Y s 1018 1471 m 13 Y s 1091 1471 m 13 Y s 1164 1471 m 13 Y s 1237 1459 m 25 Y s 1310 1471 m 13 Y s 1382 1471 m 13 Y s 1455 1471 m 13 Y s 1528 1459 m 25 Y s 1601 1471 m 13 Y s 1674 1471 m 13 Y s 1747 1471 m 13 Y s 1819
 1459 m 25 Y s 1892 1471 m 13 Y s 1965 1471 m 13 Y s 2038 1471 m 13 Y s 2111 1459 m 25 Y s 2111 1459 m 25 Y s 363 634 m 850 Y s
 gsave  2268 1077 0 461 C 120.554 1032.85 t 90 r /Helvetica findfont 48.9324 sf 0 0 m (Events / \( 2.46 GeV \)) show NC gr  390 642 m -27 X s 390 698 m -27 X s 390 738 m -27 X s 390 769 m -27 X s 390 795 m -27 X s 390 816 m -27 X s 390 835 m -27 X s
 390 851 m -27 X s 417 866 m -54 X s
 gsave  2268 1077 0 461 C 342.425 844.872 t 0 r  -55 0 t /Helvetica findfont 48.9324 sf 0 0 m (10) show NC gr  390 962 m -27 X s 390 1019 m -27 X s 390 1059 m -27 X s 390 1090 m -27 X s 390 1115 m -27 X s 390 1137 m -27 X s 390 1155 m -27 X s 390
 1172 m -27 X s 417 1186 m -54 X s
 gsave  2268 1077 0 461 C 322.563 1185.99 t 0 r /Helvetica findfont 32.6216 sf 0 0 m (2) show NC gr 
 gsave  2268 1077 0 461 C 270.432 1166.44 t 0 r /Helvetica findfont 48.9324 sf 0 0 m (10) show NC gr  390 1283 m -27 X s 390 1339 m -27 X s 390 1379 m -27 X s 390 1410 m -27 X s 390 1436 m -27 X s 390 1457 m -27 X s 390 1476 m -27 X s 2154 634 m 850
 Y s 2127 642 m 27 X s 2127 698 m 27 X s 2127 738 m 27 X s 2127 769 m 27 X s 2127 795 m 27 X s 2127 816 m 27 X s 2127 835 m 27 X s 2127 851 m 27 X s 2101 866 m 53 X s 2127 962 m 27 X s 2127 1019 m 27 X s 2127 1059 m 27 X s 2127 1090 m 27 X s 2127
 1115 m 27 X s 2127 1137 m 27 X s 2127 1155 m 27 X s 2127 1172 m 27 X s 2101 1186 m 53 X s 2127 1283 m 27 X s 2127 1339 m 27 X s 2127 1379 m 27 X s 2127 1410 m 27 X s 2127 1436 m 27 X s 2127 1457 m 27 X s 2127 1476 m 27 X s 381 913 m -18 X s 363 913
 m cl s 381 913 m 18 X s 399 913 m cl s 381 913 m 41 Y s 381 954 m cl s 381 913 m -43 Y s 381 870 m cl s 417 879 m -18 X s 399 879 m cl s 417 879 m 17 X s 434 879 m cl s 417 879 m 47 Y s 417 926 m cl s 417 879 m -49 Y s 417 830 m cl s 452 940 m -18 X
 s 434 940 m cl s 452 940 m 18 X s 470 940 m cl s 452 940 m 37 Y s 452 977 m cl s 452 940 m -39 Y s 452 901 m cl s 488 922 m -18 X s 470 922 m cl s 488 922 m 18 X s 506 922 m cl s 488 922 m 40 Y s 488 962 m cl s 488 922 m -41 Y s 488 881 m cl s 524
 902 m -18 X s 506 902 m cl s 524 902 m 18 X s 542 902 m cl s 524 902 m 43 Y s 524 945 m cl s 524 902 m -44 Y s 524 858 m cl s 560 969 m -18 X s 542 969 m cl s 560 969 m 18 X s 578 969 m cl s 560 969 m 33 Y s 560 1002 m cl s 560 969 m -34 Y s 560 935
 m cl s 596 988 m -18 X s 578 988 m cl s 596 988 m 18 X s 614 988 m cl s 596 988 m 31 Y s 596 1019 m cl s 596 988 m -32 Y s 596 956 m cl s 632 913 m -18 X s 614 913 m cl s 632 913 m 17 X s 649 913 m cl s 632 913 m 41 Y s 632 954 m cl s 632 913 m -43
 Y s 632 870 m cl s 667 962 m -18 X s 649 962 m cl s 667 962 m 18 X s 685 962 m cl s 667 962 m 34 Y s 667 996 m cl s 667 962 m -35 Y s 667 927 m cl s 703 975 m -18 X s 685 975 m cl s 703 975 m 18 X s 721 975 m cl s 703 975 m 33 Y s 703 1008 m cl s
 703 975 m -33 Y s 703 942 m cl s 739 1028 m -18 X s 721 1028 m cl s 739 1028 m 18 X s 757 1028 m cl s 739 1028 m 26 Y s 739 1054 m cl s 739 1028 m -27 Y s 739 1001 m cl s 775 982 m -18 X s 757 982 m cl s 775 982 m 18 X s 793 982 m cl s 775 982 m 31
 Y s 775 1013 m cl s 775 982 m -33 Y s 775 949 m cl s 811 1055 m -18 X s 793 1055 m cl s 811 1055 m 18 X s 829 1055 m cl s 811 1055 m 24 Y s 811 1079 m cl s 811 1055 m -24 Y s 811 1031 m cl s 847 1055 m -18 X s 829 1055 m cl s 847 1055 m 17 X s 864
 1055 m cl s 847 1055 m 24 Y s 847 1079 m cl s 847 1055 m -24 Y s 847 1031 m cl s 882 1062 m -18 X s 864 1062 m cl s 882 1062 m 18 X s 900 1062 m cl s 882 1062 m 23 Y s 882 1085 m cl s 882 1062 m -23 Y s 882 1039 m cl s 918 1084 m -18 X s 900 1084 m
 cl s 918 1084 m 18 X s 936 1084 m cl s 918 1084 m 21 Y s 918 1105 m cl s 918 1084 m -22 Y s 918 1062 m cl s 954 1113 m -18 X s 936 1113 m cl s 954 1113 m 18 X s 972 1113 m cl s 954 1113 m 19 Y s 954 1132 m cl s 954 1113 m -20 Y s 954 1093 m cl s 990
 1117 m -18 X s 972 1117 m cl s 990 1117 m 18 X s 1008 1117 m cl s 990 1117 m 19 Y s 990 1136 m cl s 990 1117 m -19 Y s 990 1098 m cl s 1026 1155 m -18 X s 1008 1155 m cl s 1026 1155 m 18 X s 1044 1155 m cl s 1026 1155 m 17 Y s 1026 1172 m cl s 1026
 1155 m -16 Y s 1026 1139 m cl s 1062 1194 m -18 X s 1044 1194 m cl s 1062 1194 m 17 X s 1079 1194 m cl s 1062 1194 m 14 Y s 1062 1208 m cl s 1062 1194 m -13 Y s 1062 1181 m cl s 1097 1183 m -18 X s 1079 1183 m cl s 1097 1183 m 18 X s 1115 1183 m cl
 s 1097 1183 m 15 Y s 1097 1198 m cl s 1097 1183 m -14 Y s 1097 1169 m cl s 1133 1208 m -18 X s 1115 1208 m cl s 1133 1208 m 18 X s 1151 1208 m cl s 1133 1208 m 13 Y s 1133 1221 m cl s 1133 1208 m -13 Y s 1133 1195 m cl s 1169 1250 m -18 X s 1151
 1250 m cl s 1169 1250 m 18 X s 1187 1250 m cl s 1169 1250 m 11 Y s 1169 1261 m cl s 1169 1250 m -11 Y s 1169 1239 m cl s 1205 1270 m -18 X s 1187 1270 m cl s 1205 1270 m 18 X s 1223 1270 m cl s 1205 1270 m 10 Y s 1205 1280 m cl s 1205 1270 m -11 Y s
 1205 1259 m cl s 1241 1289 m -18 X s 1223 1289 m cl s 1241 1289 m 18 X s 1259 1289 m cl s 1241 1289 m 10 Y s 1241 1299 m cl s 1241 1289 m -10 Y s 1241 1279 m cl s 1276 1316 m -17 X s 1259 1316 m cl s 1276 1316 m 18 X s 1294 1316 m cl s 1276 1316 m 9
 Y s 1276 1325 m cl s 1276 1316 m -9 Y s 1276 1307 m cl s 1312 1330 m -18 X s 1294 1330 m cl s 1312 1330 m 18 X s 1330 1330 m cl s 1312 1330 m 8 Y s 1312 1338 m cl s 1312 1330 m -8 Y s 1312 1322 m cl s 1348 1357 m -18 X s 1330 1357 m cl s 1348 1357 m
 18 X s 1366 1357 m cl s 1348 1357 m 7 Y s 1348 1364 m cl s 1348 1357 m -8 Y s 1348 1349 m cl s 1384 1376 m -18 X s 1366 1376 m cl s 1384 1376 m 18 X s 1402 1376 m cl s 1384 1376 m 7 Y s 1384 1383 m cl s 1384 1376 m -7 Y s 1384 1369 m cl s 1420 1402
 m -18 X s 1402 1402 m cl s 1420 1402 m 18 X s 1438 1402 m cl s 1420 1402 m 6 Y s 1420 1408 m cl s 1420 1402 m -7 Y s 1420 1395 m cl s 1456 1397 m -18 X s 1438 1397 m cl s 1456 1397 m 18 X s 1474 1397 m cl s 1456 1397 m 7 Y s 1456 1404 m cl s 1456
 1397 m -6 Y s 1456 1391 m cl s 1491 1415 m -17 X s 1474 1415 m cl s 1491 1415 m 18 X s 1509 1415 m cl s 1491 1415 m 6 Y s 1491 1421 m cl s 1491 1415 m -6 Y s 1491 1409 m cl s 1527 1411 m -18 X s 1509 1411 m cl s 1527 1411 m 18 X s 1545 1411 m cl s
 1527 1411 m 6 Y s 1527 1417 m cl s 1527 1411 m -6 Y s 1527 1405 m cl s 1563 1398 m -18 X s 1545 1398 m cl s 1563 1398 m 18 X s 1581 1398 m cl s 1563 1398 m 7 Y s 1563 1405 m cl s 1563 1398 m -6 Y s 1563 1392 m cl s 1599 1395 m -18 X s 1581 1395 m cl
 s 1599 1395 m 18 X s 1617 1395 m cl s 1599 1395 m 7 Y s 1599 1402 m cl s 1599 1395 m -6 Y s 1599 1389 m cl s 1635 1367 m -18 X s 1617 1367 m cl s 1635 1367 m 18 X s 1653 1367 m cl s 1635 1367 m 8 Y s 1635 1375 m cl s 1635 1367 m -7 Y s 1635 1360 m
 cl s 1671 1342 m -18 X s 1653 1342 m cl s 1671 1342 m 18 X s 1689 1342 m cl s 1671 1342 m 8 Y s 1671 1350 m cl s 1671 1342 m -8 Y s 1671 1334 m cl s 1706 1311 m -17 X s 1689 1311 m cl s 1706 1311 m 18 X s 1724 1311 m cl s 1706 1311 m 9 Y s 1706 1320
 m cl s 1706 1311 m -9 Y s 1706 1302 m cl s 1742 1287 m -18 X s 1724 1287 m cl s 1742 1287 m 18 X s 1760 1287 m cl s 1742 1287 m 10 Y s 1742 1297 m cl s 1742 1287 m -10 Y s 1742 1277 m cl s 1778 1239 m -18 X s 1760 1239 m cl s 1778 1239 m 18 X s 1796
 1239 m cl s 1778 1239 m 11 Y s 1778 1250 m cl s 1778 1239 m -12 Y s 1778 1227 m cl s 1814 1196 m -18 X s 1796 1196 m cl s 1814 1196 m 18 X s 1832 1196 m cl s 1814 1196 m 13 Y s 1814 1209 m cl s 1814 1196 m -14 Y s 1814 1182 m cl s 1850 1157 m -18 X
 s 1832 1157 m cl s 1850 1157 m 18 X s 1868 1157 m cl s 1850 1157 m 16 Y s 1850 1173 m cl s 1850 1157 m -16 Y s 1850 1141 m cl s 1886 1124 m -18 X s 1868 1124 m cl s 1886 1124 m 18 X s 1904 1124 m cl s 1886 1124 m 19 Y s 1886 1143 m cl s 1886 1124 m
 -18 Y s 1886 1106 m cl s 1921 1081 m -17 X s 1904 1081 m cl s 1921 1081 m 18 X s 1939 1081 m cl s 1921 1081 m 22 Y s 1921 1103 m cl s 1921 1081 m -22 Y s 1921 1059 m cl s 1957 1095 m -18 X s 1939 1095 m cl s 1957 1095 m 18 X s 1975 1095 m cl s 1957
 1095 m 21 Y s 1957 1116 m cl s 1957 1095 m -20 Y s 1957 1075 m cl s 1993 1040 m -18 X s 1975 1040 m cl s 1993 1040 m 18 X s 2011 1040 m cl s 1993 1040 m 25 Y s 1993 1065 m cl s 1993 1040 m -26 Y s 1993 1014 m cl s 2029 999 m -18 X s 2011 999 m cl s
 2029 999 m 18 X s 2047 999 m cl s 2029 999 m 29 Y s 2029 1028 m cl s 2029 999 m -30 Y s 2029 969 m cl s 2065 962 m -18 X s 2047 962 m cl s 2065 962 m 18 X s 2083 962 m cl s 2065 962 m 34 Y s 2065 996 m cl s 2065 962 m -35 Y s 2065 927 m cl s 2101
 891 m -18 X s 2083 891 m cl s 2101 891 m 18 X s 2119 891 m cl s 2101 891 m 45 Y s 2101 936 m cl s 2101 891 m -47 Y s 2101 844 m cl s 2136 891 m -17 X s 2119 891 m cl s 2136 891 m 18 X s 2154 891 m cl s 2136 891 m 45 Y s 2136 936 m cl s 2136 891 m
 -47 Y s 2136 844 m cl s /w 31 def /w2 {w 2 div} def /w3 {w 3 div} def 381 913 417 879 452 940 488 922 524 902 560 969 596 988 632 913 667 962 703 975 739 1028 775 982 811 1055 847 1055 882 1062 918 1084 954 1113 990 1117 1026 1155 1062 1194 1097
 1183 1133 1208 1169 1250 1205 1270 1241 1289 1276 1316 1312 1330 1348 1357 1384 1376 1420 1402 1456 1397 1491 1415 1527 1411 1563 1398 1599 1395 1635 1367 1671 1342 1706 1311 1742 1287 1778 1239 1814 1196 1850 1157 1886 1124 1921 1081 1957 1095 1993
 1040 2029 999 2065 962 2101 891 2136 891 50 { m20} R 0 1 1 c 1 1 0 c black 1 1 0 c 363 876 m 36 11 d 35 12 d 36 11 d 36 12 d 36 12 d 36 12 d 36 13 d 35 13 d 36 13 d 36 14 d 36 14 d 36 15 d 36 15 d 35 16 d 36 16 d 36 16 d 36 17 d 36 18 d 36 19 d 35
 20 d 36 22 d 18 12 d 18 12 d 18 14 d 18 13 d 18 15 d 18 15 d 18 15 d 18 15 d 17 15 d 18 14 d 18 14 d 18 13 d 36 23 d 18 10 d 18 9 d 18 7 d 9 3 d 9 3 d 9 2 d 9 2 d 9 1 d 9 1 d 26 X 9 -1 d 9 -1 d 9 -2 d 9 -2 d 9 -2 d 9 -3 d 9 -4 d 18 -7 d 18 -10 d 18
 -10 d 36 -24 d 18 -14 d 18 -14 d 17 -14 d 18 -15 d 18 -15 d 18 -15 d 18 -15 d 18 -15 d 18 -16 d 18 -16 d 18 -15 d 18 -17 d 36 -34 d 35 -36 d 36 -38 d 36 -42 d 36 -44 d 36 -46 d 36 -50 d 35 -53 d -35 53 d -36 50 d -36 46 d -36 44 d -36 42 d -36 38 d
 -35 36 d -36 34 d -18 17 d -18 15 d -18 16 d -18 16 d -18 15 d -18 15 d -18 15 d -18 15 d -18 15 d -17 14 d -18 14 d -18 14 d -36 24 d -18 10 d -18 10 d -18 7 d -9 4 d -9 3 d -9 2 d -9 2 d -9 2 d -9 1 d -9 1 d -26 X -9 -1 d -9 -1 d -9 -2 d -9 -2 d
 -9 -3 d -9 -3 d -18 -7 d -18 -9 d -18 -10 d -36 -23 d -18 -13 d -18 -14 d -18 -14 d -17 -15 d -18 -15 d -18 -15 d -18 -15 d -18 -15 d -18 -13 d -18 -14 d -18 -12 d -18 -12 d -36 -22 d -35 -20 d -36 -19 d -36 -18 d -36 -17 d -36 -16 d -36 -16 d -35
 -16 d -36 -15 d -36 -15 d -36 -14 d -36 -14 d -36 -13 d -35 -13 d -36 -13 d -36 -12 d -36 -12 d -36 -12 d -36 -11 d -35 -12 d -36 -11 d f 0 1 1 c 0 1 0 c black 0 1 0 c 363 876 m 36 11 d 35 12 d 36 11 d 36 12 d 36 12 d 36 12 d 36 13 d 35 13 d 36 13 d
 36 14 d 36 14 d 36 15 d 36 15 d 35 16 d 36 16 d 36 16 d 36 17 d 36 18 d 36 19 d 35 20 d 36 22 d 18 12 d 18 12 d 18 14 d 18 13 d 18 15 d 18 15 d 18 15 d 18 15 d 17 15 d 18 14 d 18 14 d 18 13 d 36 23 d 18 10 d 18 9 d 18 7 d 9 3 d 9 3 d 9 2 d 9 2 d 9 1
 d 9 1 d 26 X 9 -1 d 9 -1 d 9 -2 d 9 -2 d 9 -2 d 9 -3 d 9 -4 d 18 -7 d 18 -10 d 18 -10 d 36 -24 d 18 -14 d 18 -14 d 17 -14 d 18 -15 d 18 -15 d 18 -15 d 18 -15 d 18 -15 d 18 -16 d 18 -16 d 18 -15 d 18 -17 d 36 -34 d 35 -36 d 36 -38 d 36 -42 d 36 -44 d
 36 -46 d 36 -50 d 35 -53 d -35 53 d -36 50 d -36 46 d -36 44 d -36 42 d -36 38 d -35 36 d -36 34 d -18 17 d -18 15 d -18 16 d -18 16 d -18 15 d -18 15 d -18 15 d -18 15 d -18 15 d -17 14 d -18 14 d -18 14 d -36 24 d -18 10 d -18 10 d -18 7 d -9 4 d
 -9 3 d -9 2 d -9 2 d -9 2 d -9 1 d -9 1 d -26 X -9 -1 d -9 -1 d -9 -2 d -9 -2 d -9 -3 d -9 -3 d -18 -7 d -18 -9 d -18 -10 d -36 -23 d -18 -13 d -18 -14 d -18 -14 d -17 -15 d -18 -15 d -18 -15 d -18 -15 d -18 -15 d -18 -13 d -18 -14 d -18 -12 d -18
 -12 d -36 -22 d -35 -20 d -36 -19 d -36 -18 d -36 -17 d -36 -16 d -36 -16 d -35 -16 d -36 -15 d -36 -15 d -36 -14 d -36 -14 d -36 -13 d -35 -13 d -36 -13 d -36 -12 d -36 -12 d -36 -12 d -36 -11 d -35 -12 d -36 -11 d f 0 0 1 c 9 lw black 0 0 1 c 363
 876 m 36 11 d 35 12 d 36 11 d 36 12 d 36 12 d 36 12 d 36 13 d 35 13 d 36 13 d 36 14 d 36 14 d 36 15 d 36 15 d 35 16 d 36 16 d 36 16 d 36 17 d 36 18 d 36 19 d 35 20 d 36 22 d 18 12 d 18 12 d 18 14 d 18 13 d 18 15 d 18 15 d 18 15 d 18 15 d 17 15 d 18
 14 d 18 14 d 18 13 d 36 23 d 18 10 d 18 9 d 18 7 d 9 3 d 9 3 d 9 2 d 9 2 d 9 1 d 9 1 d 26 X 9 -1 d 9 -1 d 9 -2 d 9 -2 d 9 -2 d 9 -3 d 9 -4 d 18 -7 d 18 -10 d 18 -10 d 36 -24 d 18 -14 d 18 -14 d 17 -14 d 18 -15 d 18 -15 d 18 -15 d 18 -15 d 18 -15 d
 18 -16 d 18 -16 d 18 -15 d 18 -17 d 36 -34 d 35 -36 d 36 -38 d 36 -42 d 36 -44 d 36 -46 d 36 -50 d 35 -53 d s black 3 lw 381 913 m -18 X s 363 913 m cl s 381 913 m 18 X s 399 913 m cl s 381 913 m 41 Y s 381 954 m cl s 381 913 m -43 Y s 381 870 m cl
 s 417 879 m -18 X s 399 879 m cl s 417 879 m 17 X s 434 879 m cl s 417 879 m 47 Y s 417 926 m cl s 417 879 m -49 Y s 417 830 m cl s 452 940 m -18 X s 434 940 m cl s 452 940 m 18 X s 470 940 m cl s 452 940 m 37 Y s 452 977 m cl s 452 940 m -39 Y s
 452 901 m cl s 488 922 m -18 X s 470 922 m cl s 488 922 m 18 X s 506 922 m cl s 488 922 m 40 Y s 488 962 m cl s 488 922 m -41 Y s 488 881 m cl s 524 902 m -18 X s 506 902 m cl s 524 902 m 18 X s 542 902 m cl s 524 902 m 43 Y s 524 945 m cl s 524 902
 m -44 Y s 524 858 m cl s 560 969 m -18 X s 542 969 m cl s 560 969 m 18 X s 578 969 m cl s 560 969 m 33 Y s 560 1002 m cl s 560 969 m -34 Y s 560 935 m cl s 596 988 m -18 X s 578 988 m cl s 596 988 m 18 X s 614 988 m cl s 596 988 m 31 Y s 596 1019 m
 cl s 596 988 m -32 Y s 596 956 m cl s 632 913 m -18 X s 614 913 m cl s 632 913 m 17 X s 649 913 m cl s 632 913 m 41 Y s 632 954 m cl s 632 913 m -43 Y s 632 870 m cl s 667 962 m -18 X s 649 962 m cl s 667 962 m 18 X s 685 962 m cl s 667 962 m 34 Y s
 667 996 m cl s 667 962 m -35 Y s 667 927 m cl s 703 975 m -18 X s 685 975 m cl s 703 975 m 18 X s 721 975 m cl s 703 975 m 33 Y s 703 1008 m cl s 703 975 m -33 Y s 703 942 m cl s 739 1028 m -18 X s 721 1028 m cl s 739 1028 m 18 X s 757 1028 m cl s
 739 1028 m 26 Y s 739 1054 m cl s 739 1028 m -27 Y s 739 1001 m cl s 775 982 m -18 X s 757 982 m cl s 775 982 m 18 X s 793 982 m cl s 775 982 m 31 Y s 775 1013 m cl s 775 982 m -33 Y s 775 949 m cl s 811 1055 m -18 X s 793 1055 m cl s 811 1055 m 18
 X s 829 1055 m cl s 811 1055 m 24 Y s 811 1079 m cl s 811 1055 m -24 Y s 811 1031 m cl s 847 1055 m -18 X s 829 1055 m cl s 847 1055 m 17 X s 864 1055 m cl s 847 1055 m 24 Y s 847 1079 m cl s 847 1055 m -24 Y s 847 1031 m cl s 882 1062 m -18 X s 864
 1062 m cl s 882 1062 m 18 X s 900 1062 m cl s 882 1062 m 23 Y s 882 1085 m cl s 882 1062 m -23 Y s 882 1039 m cl s 918 1084 m -18 X s 900 1084 m cl s 918 1084 m 18 X s 936 1084 m cl s 918 1084 m 21 Y s 918 1105 m cl s 918 1084 m -22 Y s 918 1062 m
 cl s 954 1113 m -18 X s 936 1113 m cl s 954 1113 m 18 X s 972 1113 m cl s 954 1113 m 19 Y s 954 1132 m cl s 954 1113 m -20 Y s 954 1093 m cl s 990 1117 m -18 X s 972 1117 m cl s 990 1117 m 18 X s 1008 1117 m cl s 990 1117 m 19 Y s 990 1136 m cl s
 990 1117 m -19 Y s 990 1098 m cl s 1026 1155 m -18 X s 1008 1155 m cl s 1026 1155 m 18 X s 1044 1155 m cl s 1026 1155 m 17 Y s 1026 1172 m cl s 1026 1155 m -16 Y s 1026 1139 m cl s 1062 1194 m -18 X s 1044 1194 m cl s 1062 1194 m 17 X s 1079 1194 m
 cl s 1062 1194 m 14 Y s 1062 1208 m cl s 1062 1194 m -13 Y s 1062 1181 m cl s 1097 1183 m -18 X s 1079 1183 m cl s 1097 1183 m 18 X s 1115 1183 m cl s 1097 1183 m 15 Y s 1097 1198 m cl s 1097 1183 m -14 Y s 1097 1169 m cl s 1133 1208 m -18 X s 1115
 1208 m cl s 1133 1208 m 18 X s 1151 1208 m cl s 1133 1208 m 13 Y s 1133 1221 m cl s 1133 1208 m -13 Y s 1133 1195 m cl s 1169 1250 m -18 X s 1151 1250 m cl s 1169 1250 m 18 X s 1187 1250 m cl s 1169 1250 m 11 Y s 1169 1261 m cl s 1169 1250 m -11 Y s
 1169 1239 m cl s 1205 1270 m -18 X s 1187 1270 m cl s 1205 1270 m 18 X s 1223 1270 m cl s 1205 1270 m 10 Y s 1205 1280 m cl s 1205 1270 m -11 Y s 1205 1259 m cl s 1241 1289 m -18 X s 1223 1289 m cl s 1241 1289 m 18 X s 1259 1289 m cl s 1241 1289 m
 10 Y s 1241 1299 m cl s 1241 1289 m -10 Y s 1241 1279 m cl s 1276 1316 m -17 X s 1259 1316 m cl s 1276 1316 m 18 X s 1294 1316 m cl s 1276 1316 m 9 Y s 1276 1325 m cl s 1276 1316 m -9 Y s 1276 1307 m cl s 1312 1330 m -18 X s 1294 1330 m cl s 1312
 1330 m 18 X s 1330 1330 m cl s 1312 1330 m 8 Y s 1312 1338 m cl s 1312 1330 m -8 Y s 1312 1322 m cl s 1348 1357 m -18 X s 1330 1357 m cl s 1348 1357 m 18 X s 1366 1357 m cl s 1348 1357 m 7 Y s 1348 1364 m cl s 1348 1357 m -8 Y s 1348 1349 m cl s
 1384 1376 m -18 X s 1366 1376 m cl s 1384 1376 m 18 X s 1402 1376 m cl s 1384 1376 m 7 Y s 1384 1383 m cl s 1384 1376 m -7 Y s 1384 1369 m cl s 1420 1402 m -18 X s 1402 1402 m cl s 1420 1402 m 18 X s 1438 1402 m cl s 1420 1402 m 6 Y s 1420 1408 m cl
 s 1420 1402 m -7 Y s 1420 1395 m cl s 1456 1397 m -18 X s 1438 1397 m cl s 1456 1397 m 18 X s 1474 1397 m cl s 1456 1397 m 7 Y s 1456 1404 m cl s 1456 1397 m -6 Y s 1456 1391 m cl s 1491 1415 m -17 X s 1474 1415 m cl s 1491 1415 m 18 X s 1509 1415 m
 cl s 1491 1415 m 6 Y s 1491 1421 m cl s 1491 1415 m -6 Y s 1491 1409 m cl s 1527 1411 m -18 X s 1509 1411 m cl s 1527 1411 m 18 X s 1545 1411 m cl s 1527 1411 m 6 Y s 1527 1417 m cl s 1527 1411 m -6 Y s 1527 1405 m cl s 1563 1398 m -18 X s 1545 1398
 m cl s 1563 1398 m 18 X s 1581 1398 m cl s 1563 1398 m 7 Y s 1563 1405 m cl s 1563 1398 m -6 Y s 1563 1392 m cl s 1599 1395 m -18 X s 1581 1395 m cl s 1599 1395 m 18 X s 1617 1395 m cl s 1599 1395 m 7 Y s 1599 1402 m cl s 1599 1395 m -6 Y s 1599
 1389 m cl s 1635 1367 m -18 X s 1617 1367 m cl s 1635 1367 m 18 X s 1653 1367 m cl s 1635 1367 m 8 Y s 1635 1375 m cl s 1635 1367 m -7 Y s 1635 1360 m cl s 1671 1342 m -18 X s 1653 1342 m cl s 1671 1342 m 18 X s 1689 1342 m cl s 1671 1342 m 8 Y s
 1671 1350 m cl s 1671 1342 m -8 Y s 1671 1334 m cl s 1706 1311 m -17 X s 1689 1311 m cl s 1706 1311 m 18 X s 1724 1311 m cl s 1706 1311 m 9 Y s 1706 1320 m cl s 1706 1311 m -9 Y s 1706 1302 m cl s 1742 1287 m -18 X s 1724 1287 m cl s 1742 1287 m 18
 X s 1760 1287 m cl s 1742 1287 m 10 Y s 1742 1297 m cl s 1742 1287 m -10 Y s 1742 1277 m cl s 1778 1239 m -18 X s 1760 1239 m cl s 1778 1239 m 18 X s 1796 1239 m cl s 1778 1239 m 11 Y s 1778 1250 m cl s 1778 1239 m -12 Y s 1778 1227 m cl s 1814 1196
 m -18 X s 1796 1196 m cl s 1814 1196 m 18 X s 1832 1196 m cl s 1814 1196 m 13 Y s 1814 1209 m cl s 1814 1196 m -14 Y s 1814 1182 m cl s 1850 1157 m -18 X s 1832 1157 m cl s 1850 1157 m 18 X s 1868 1157 m cl s 1850 1157 m 16 Y s 1850 1173 m cl s 1850
 1157 m -16 Y s 1850 1141 m cl s 1886 1124 m -18 X s 1868 1124 m cl s 1886 1124 m 18 X s 1904 1124 m cl s 1886 1124 m 19 Y s 1886 1143 m cl s 1886 1124 m -18 Y s 1886 1106 m cl s 1921 1081 m -17 X s 1904 1081 m cl s 1921 1081 m 18 X s 1939 1081 m cl
 s 1921 1081 m 22 Y s 1921 1103 m cl s 1921 1081 m -22 Y s 1921 1059 m cl s 1957 1095 m -18 X s 1939 1095 m cl s 1957 1095 m 18 X s 1975 1095 m cl s 1957 1095 m 21 Y s 1957 1116 m cl s 1957 1095 m -20 Y s 1957 1075 m cl s 1993 1040 m -18 X s 1975
 1040 m cl s 1993 1040 m 18 X s 2011 1040 m cl s 1993 1040 m 25 Y s 1993 1065 m cl s 1993 1040 m -26 Y s 1993 1014 m cl s 2029 999 m -18 X s 2011 999 m cl s 2029 999 m 18 X s 2047 999 m cl s 2029 999 m 29 Y s 2029 1028 m cl s 2029 999 m -30 Y s 2029
 969 m cl s 2065 962 m -18 X s 2047 962 m cl s 2065 962 m 18 X s 2083 962 m cl s 2065 962 m 34 Y s 2065 996 m cl s 2065 962 m -35 Y s 2065 927 m cl s 2101 891 m -18 X s 2083 891 m cl s 2101 891 m 18 X s 2119 891 m cl s 2101 891 m 45 Y s 2101 936 m cl
 s 2101 891 m -47 Y s 2101 844 m cl s 2136 891 m -17 X s 2119 891 m cl s 2136 891 m 18 X s 2154 891 m cl s 2136 891 m 45 Y s 2136 936 m cl s 2136 891 m -47 Y s 2136 844 m cl s 381 913 417 879 452 940 488 922 524 902 560 969 596 988 632 913 667 962
 703 975 739 1028 775 982 811 1055 847 1055 882 1062 918 1084 954 1113 990 1117 1026 1155 1062 1194 1097 1183 1133 1208 1169 1250 1205 1270 1241 1289 1276 1316 1312 1330 1348 1357 1384 1376 1420 1402 1456 1397 1491 1415 1527 1411 1563 1398 1599 1395
 1635 1367 1671 1342 1706 1311 1742 1287 1778 1239 1814 1196 1850 1157 1886 1124 1921 1081 1957 1095 1993 1040 2029 999 2065 962 2101 891 2136 891 50 { m20} R 0.52 0.76 0.64 c[ 4 8] 0 sd 9 lw black 0.52 0.76 0.64 c 363 876 m 36 11 d 35 12 d 36 11 d
 36 12 d 36 12 d 36 12 d 36 13 d 35 13 d 36 13 d 36 14 d 36 14 d 36 15 d 36 15 d 35 16 d 36 16 d 36 16 d 36 17 d 36 18 d 36 19 d 35 19 d 18 10 d 18 10 d 18 10 d 18 10 d 18 11 d 18 11 d 18 11 d 18 12 d 36 20 d 35 17 d 18 7 d 18 7 d 18 6 d 18 5 d 18 5
 d 18 4 d 18 3 d 18 2 d 18 2 d 18 1 d 35 X 18 -2 d 18 -2 d 18 -2 d 18 -4 d 18 -4 d 18 -5 d 18 -5 d 18 -7 d 36 -14 d 35 -18 d 36 -21 d 36 -23 d 36 -27 d 18 -14 d 18 -15 d 18 -16 d 18 -16 d 17 -18 d 18 -18 d 18 -18 d 18 -20 d 18 -20 d 18 -21 d 36 -44 d
 36 -46 d 36 -50 d 35 -53 d s 0.54 0.66 0.63 c black 0.54 0.66 0.63 c 1104 634 m 11 39 d s 1115 673 m 18 60 d 18 57 d 18 53 d 18 51 d 18 48 d 18 45 d 9 22 d 9 20 d 9 20 d 9 19 d 9 19 d 8 18 d 9 17 d 9 16 d 9 15 d 9 15 d 18 27 d 18 25 d 18 21 d 18 19
 d 18 15 d 9 7 d 9 6 d 9 5 d 9 5 d 9 3 d 9 3 d 9 3 d 9 1 d 9 1 d 8 X 9 -1 d 9 -1 d 9 -2 d 9 -3 d 9 -4 d 9 -4 d 9 -5 d 9 -6 d 9 -6 d 9 -8 d 18 -16 d 18 -20 d 18 -23 d 18 -25 d 18 -29 d 9 -15 d 9 -16 d 8 -17 d 9 -18 d 9 -18 d 9 -19 d 9 -20 d 9 -20 d 18
 -44 d 18 -46 d 18 -49 d 18 -52 d 18 -55 d 18 -58 d 18 -61 d 4 -14 d s black[  ] 0 sd 3 lw 363 634 m 1791 X s 363 659 m -25 Y s 436 646 m -12 Y s 508 646 m -12 Y s 581 646 m -12 Y s 654 659 m -25 Y s 727 646 m -12 Y s 800 646 m -12 Y s 873 646 m -12
 Y s 945 659 m -25 Y s 1018 646 m -12 Y s 1091 646 m -12 Y s 1164 646 m -12 Y s 1237 659 m -25 Y s 1310 646 m -12 Y s 1382 646 m -12 Y s 1455 646 m -12 Y s 1528 659 m -25 Y s 1601 646 m -12 Y s 1674 646 m -12 Y s 1747 646 m -12 Y s 1819 659 m -25 Y s
 1892 646 m -12 Y s 1965 646 m -12 Y s 2038 646 m -12 Y s 2111 659 m -25 Y s 2111 659 m -25 Y s 363 1484 m 1791 X s 363 1459 m 25 Y s 436 1471 m 13 Y s 508 1471 m 13 Y s 581 1471 m 13 Y s 654 1459 m 25 Y s 727 1471 m 13 Y s 800 1471 m 13 Y s 873 1471
 m 13 Y s 945 1459 m 25 Y s 1018 1471 m 13 Y s 1091 1471 m 13 Y s 1164 1471 m 13 Y s 1237 1459 m 25 Y s 1310 1471 m 13 Y s 1382 1471 m 13 Y s 1455 1471 m 13 Y s 1528 1459 m 25 Y s 1601 1471 m 13 Y s 1674 1471 m 13 Y s 1747 1471 m 13 Y s 1819 1459 m
 25 Y s 1892 1471 m 13 Y s 1965 1471 m 13 Y s 2038 1471 m 13 Y s 2111 1459 m 25 Y s 2111 1459 m 25 Y s 363 634 m 850 Y s 390 642 m -27 X s 390 698 m -27 X s 390 738 m -27 X s 390 769 m -27 X s 390 795 m -27 X s 390 816 m -27 X s 390 835 m -27 X s 390
 851 m -27 X s 417 866 m -54 X s 390 962 m -27 X s 390 1019 m -27 X s 390 1059 m -27 X s 390 1090 m -27 X s 390 1115 m -27 X s 390 1137 m -27 X s 390 1155 m -27 X s 390 1172 m -27 X s 417 1186 m -54 X s 390 1283 m -27 X s 390 1339 m -27 X s 390 1379
 m -27 X s 390 1410 m -27 X s 390 1436 m -27 X s 390 1457 m -27 X s 390 1476 m -27 X s 2154 634 m 850 Y s 2127 642 m 27 X s 2127 698 m 27 X s 2127 738 m 27 X s 2127 769 m 27 X s 2127 795 m 27 X s 2127 816 m 27 X s 2127 835 m 27 X s 2127 851 m 27 X s
 2101 866 m 53 X s 2127 962 m 27 X s 2127 1019 m 27 X s 2127 1059 m 27 X s 2127 1090 m 27 X s 2127 1115 m 27 X s 2127 1137 m 27 X s 2127 1155 m 27 X s 2127 1172 m 27 X s 2101 1186 m 53 X s 2127 1283 m 27 X s 2127 1339 m 27 X s 2127 1379 m 27 X s 2127
 1410 m 27 X s 2127 1436 m 27 X s 2127 1457 m 27 X s 2127 1476 m 27 X s
 gsave  2268 1077 0 461 C 677.708 1215.31 t 0 r /Helvetica findfont 58.7189 sf 0 0 m (4mu) show NC gr  1 1 1 c 453 161 454 1269 bf black
 gsave  2268 1077 0 461 C 566.929 1371.71 t 0 r /Helvetica-Bold findfont 48.9324 sf 0 0 m (MC15) show NC gr  510 1390 m20
 gsave  2268 1077 0 461 C 566.929 1293.51 t 0 r /Helvetica-Bold findfont 48.9324 sf 0 0 m (Projection of Signal pdf) show NC gr  0 0 1 c 9 lw 471 1309 m 79 X s black 3 lw 1 1 1 c 2268 461 0 0 bf black 1 1 1 c 1791 364 363 74 bf black 1791 364 363 74
 bl 363 74 m 1791 X s
 gsave  2268 461 0 0 C 1915.83 13.0329 t 0 r /Helvetica findfont 22.9045 sf 0 0 m (4l Invariant Mass \(GeV\)) show NC gr  363 85 m -11 Y s 436 79 m -5 Y s 508 79 m -5 Y s 581 79 m -5 Y s 654 85 m -11 Y s 727 79 m -5 Y s 800 79 m -5 Y s 873 79 m -5 Y
 s 945 85 m -11 Y s 1018 79 m -5 Y s 1091 79 m -5 Y s 1164 79 m -5 Y s 1237 85 m -11 Y s 1310 79 m -5 Y s 1382 79 m -5 Y s 1455 79 m -5 Y s 1528 85 m -11 Y s 1601 79 m -5 Y s 1674 79 m -5 Y s 1747 79 m -5 Y s 1819 85 m -11 Y s 1892 79 m -5 Y s 1965
 79 m -5 Y s 2038 79 m -5 Y s 2111 85 m -11 Y s 2111 85 m -11 Y s
 gsave  2268 461 0 0 C 342.112 55.3896 t 0 r /Helvetica findfont 22.9045 sf 0 0 m (620) show NC gr 
 gsave  2268 461 0 0 C 632.093 55.3896 t 0 r /Helvetica findfont 22.9045 sf 0 0 m (640) show NC gr 
 gsave  2268 461 0 0 C 925.333 55.3896 t 0 r /Helvetica findfont 22.9045 sf 0 0 m (660) show NC gr 
 gsave  2268 461 0 0 C 1215.31 55.3896 t 0 r /Helvetica findfont 22.9045 sf 0 0 m (680) show NC gr 
 gsave  2268 461 0 0 C 1505.29 55.3896 t 0 r /Helvetica findfont 22.9045 sf 0 0 m (700) show NC gr 
 gsave  2268 461 0 0 C 1798.53 55.3896 t 0 r /Helvetica findfont 22.9045 sf 0 0 m (720) show NC gr 
 gsave  2268 461 0 0 C 2088.51 55.3896 t 0 r /Helvetica findfont 22.9045 sf 0 0 m (740) show NC gr  363 438 m 1791 X s 363 427 m 11 Y s 436 433 m 5 Y s 508 433 m 5 Y s 581 433 m 5 Y s 654 427 m 11 Y s 727 433 m 5 Y s 800 433 m 5 Y s 873 433 m 5 Y s
 945 427 m 11 Y s 1018 433 m 5 Y s 1091 433 m 5 Y s 1164 433 m 5 Y s 1237 427 m 11 Y s 1310 433 m 5 Y s 1382 433 m 5 Y s 1455 433 m 5 Y s 1528 427 m 11 Y s 1601 433 m 5 Y s 1674 433 m 5 Y s 1747 433 m 5 Y s 1819 427 m 11 Y s 1892 433 m 5 Y s 1965 433
 m 5 Y s 2038 433 m 5 Y s 2111 427 m 11 Y s 2111 427 m 11 Y s 363 74 m 364 Y s 417 74 m -54 X s 390 81 m -27 X s 390 88 m -27 X s 390 96 m -27 X s 390 103 m -27 X s 417 110 m -54 X s 390 118 m -27 X s 390 125 m -27 X s 390 132 m -27 X s 390 139 m -27
 X s 417 147 m -54 X s 390 154 m -27 X s 390 161 m -27 X s 390 169 m -27 X s 390 176 m -27 X s 417 183 m -54 X s 390 190 m -27 X s 390 198 m -27 X s 390 205 m -27 X s 390 212 m -27 X s 417 220 m -54 X s 390 227 m -27 X s 390 234 m -27 X s 390 241 m
 -27 X s 390 249 m -27 X s 417 256 m -54 X s 390 263 m -27 X s 390 271 m -27 X s 390 278 m -27 X s 390 285 m -27 X s 417 293 m -54 X s 390 300 m -27 X s 390 307 m -27 X s 390 314 m -27 X s 390 322 m -27 X s 417 329 m -54 X s 390 336 m -27 X s 390 344
 m -27 X s 390 351 m -27 X s 390 358 m -27 X s 417 365 m -54 X s 390 373 m -27 X s 390 380 m -27 X s 390 387 m -27 X s 390 395 m -27 X s 417 402 m -54 X s 390 409 m -27 X s 390 416 m -27 X s 390 424 m -27 X s 390 431 m -27 X s 417 438 m -54 X s
 gsave  2268 461 0 0 C 329.08 65.1643 t 0 r /Helvetica findfont 22.9045 sf 0 0 m (\2555) show NC gr 
 gsave  2268 461 0 0 C 329.08 101.005 t 0 r /Helvetica findfont 22.9045 sf 0 0 m (\2554) show NC gr 
 gsave  2268 461 0 0 C 329.08 140.103 t 0 r /Helvetica findfont 22.9045 sf 0 0 m (\2553) show NC gr 
 gsave  2268 461 0 0 C 329.08 175.944 t 0 r /Helvetica findfont 22.9045 sf 0 0 m (\2552) show NC gr 
 gsave  2268 461 0 0 C 332.338 211.784 t 0 r /Helvetica findfont 22.9045 sf 0 0 m (\2551) show NC gr 
 gsave  2268 461 0 0 C 335.596 247.624 t 0 r /Helvetica findfont 22.9045 sf 0 0 m (0) show NC gr 
 gsave  2268 461 0 0 C 338.854 283.465 t 0 r /Helvetica findfont 22.9045 sf 0 0 m (1) show NC gr 
 gsave  2268 461 0 0 C 335.596 319.305 t 0 r /Helvetica findfont 22.9045 sf 0 0 m (2) show NC gr 
 gsave  2268 461 0 0 C 335.596 358.403 t 0 r /Helvetica findfont 22.9045 sf 0 0 m (3) show NC gr 
 gsave  2268 461 0 0 C 335.596 394.244 t 0 r /Helvetica findfont 22.9045 sf 0 0 m (4) show NC gr 
 gsave  2268 461 0 0 C 335.596 430.084 t 0 r /Helvetica findfont 22.9045 sf 0 0 m (5) show NC gr  2154 74 m 364 Y s 2101 74 m 53 X s 2127 81 m 27 X s 2127 88 m 27 X s 2127 96 m 27 X s 2127 103 m 27 X s 2101 110 m 53 X s 2127 118 m 27 X s 2127 125 m
 27 X s 2127 132 m 27 X s 2127 139 m 27 X s 2101 147 m 53 X s 2127 154 m 27 X s 2127 161 m 27 X s 2127 169 m 27 X s 2127 176 m 27 X s 2101 183 m 53 X s 2127 190 m 27 X s 2127 198 m 27 X s 2127 205 m 27 X s 2127 212 m 27 X s 2101 220 m 53 X s 2127 227
 m 27 X s 2127 234 m 27 X s 2127 241 m 27 X s 2127 249 m 27 X s 2101 256 m 53 X s 2127 263 m 27 X s 2127 271 m 27 X s 2127 278 m 27 X s 2127 285 m 27 X s 2101 293 m 53 X s 2127 300 m 27 X s 2127 307 m 27 X s 2127 314 m 27 X s 2127 322 m 27 X s 2101
 329 m 53 X s 2127 336 m 27 X s 2127 344 m 27 X s 2127 351 m 27 X s 2127 358 m 27 X s 2101 365 m 53 X s 2127 373 m 27 X s 2127 380 m 27 X s 2127 387 m 27 X s 2127 395 m 27 X s 2101 402 m 53 X s 2127 409 m 27 X s 2127 416 m 27 X s 2127 424 m 27 X s
 2127 431 m 27 X s 2101 438 m 53 X s 6 lw 0.2 0.8 0.2 c black 3 lw 0.2 0.8 0.2 c 363 256 m 27 Y 36 X -37 Y 35 X 44 Y 36 X -28 Y 36 X -27 Y 36 X 52 Y 36 X 9 Y 36 X -89 Y 35 X 32 Y 36 X -1 Y 36 X 47 Y 36 X -75 Y 36 X 76 Y 36 X -23 Y 35 X -14 Y 36 X 9 Y
 36 X 23 Y 36 X -25 Y 36 X 42 Y 36 X 54 Y 35 X -79 Y 36 X 9 Y 36 X 54 Y 36 X -23 Y 36 X -36 Y 36 X -8 Y 35 X -60 Y 36 X 2 Y 36 X -11 Y 36 X 48 Y 36 X -80 Y 36 X 84 Y 35 X 3 Y 36 X -10 Y 36 X 77 Y 36 X -36 Y 36 X 1 Y 36 X -14 Y 35 X 19 Y 36 X -61 Y 36
 X -32 Y 36 X -7 Y 36 X 6 Y 36 X -6 Y 35 X 91 Y 36 X -27 Y 36 X 1 Y 36 X 10 Y 36 X -21 Y 36 X 40 Y 35 X -30 Y f 6 lw black 0.2 0.8 0.2 c black 363 283 m 36 X -37 Y 35 X 44 Y 36 X -28 Y 36 X -27 Y 36 X 52 Y 36 X 9 Y 36 X -89 Y 35 X 32 Y 36 X -1 Y 36 X
 47 Y 36 X -75 Y 36 X 76 Y 36 X -23 Y 35 X -14 Y 36 X 9 Y 36 X 23 Y 36 X -25 Y 36 X 42 Y 36 X 54 Y 35 X -79 Y 36 X 9 Y 36 X 54 Y 36 X -23 Y 36 X -36 Y 36 X -8 Y 35 X -60 Y 36 X 2 Y 36 X -11 Y 36 X 48 Y 36 X -80 Y 36 X 84 Y 35 X 3 Y 36 X -10 Y 36 X 77
 Y 36 X -36 Y 36 X 1 Y 36 X -14 Y 35 X 19 Y 36 X -61 Y 36 X -32 Y 36 X -7 Y 36 X 6 Y 36 X -6 Y 35 X 91 Y 36 X -27 Y 36 X 1 Y 36 X 10 Y 36 X -21 Y 36 X 40 Y 35 X s 3 lw 363 74 m 1791 X s 363 85 m -11 Y s 436 79 m -5 Y s 508 79 m -5 Y s 581 79 m -5 Y s
 654 85 m -11 Y s 727 79 m -5 Y s 800 79 m -5 Y s 873 79 m -5 Y s 945 85 m -11 Y s 1018 79 m -5 Y s 1091 79 m -5 Y s 1164 79 m -5 Y s 1237 85 m -11 Y s 1310 79 m -5 Y s 1382 79 m -5 Y s 1455 79 m -5 Y s 1528 85 m -11 Y s 1601 79 m -5 Y s 1674 79 m -5
 Y s 1747 79 m -5 Y s 1819 85 m -11 Y s 1892 79 m -5 Y s 1965 79 m -5 Y s 2038 79 m -5 Y s 2111 85 m -11 Y s 2111 85 m -11 Y s 363 438 m 1791 X s 363 427 m 11 Y s 436 433 m 5 Y s 508 433 m 5 Y s 581 433 m 5 Y s 654 427 m 11 Y s 727 433 m 5 Y s 800
 433 m 5 Y s 873 433 m 5 Y s 945 427 m 11 Y s 1018 433 m 5 Y s 1091 433 m 5 Y s 1164 433 m 5 Y s 1237 427 m 11 Y s 1310 433 m 5 Y s 1382 433 m 5 Y s 1455 433 m 5 Y s 1528 427 m 11 Y s 1601 433 m 5 Y s 1674 433 m 5 Y s 1747 433 m 5 Y s 1819 427 m 11 Y
 s 1892 433 m 5 Y s 1965 433 m 5 Y s 2038 433 m 5 Y s 2111 427 m 11 Y s 2111 427 m 11 Y s 363 74 m 364 Y s 417 74 m -54 X s 390 81 m -27 X s 390 88 m -27 X s 390 96 m -27 X s 390 103 m -27 X s 417 110 m -54 X s 390 118 m -27 X s 390 125 m -27 X s 390
 132 m -27 X s 390 139 m -27 X s 417 147 m -54 X s 390 154 m -27 X s 390 161 m -27 X s 390 169 m -27 X s 390 176 m -27 X s 417 183 m -54 X s 390 190 m -27 X s 390 198 m -27 X s 390 205 m -27 X s 390 212 m -27 X s 417 220 m -54 X s 390 227 m -27 X s
 390 234 m -27 X s 390 241 m -27 X s 390 249 m -27 X s 417 256 m -54 X s 390 263 m -27 X s 390 271 m -27 X s 390 278 m -27 X s 390 285 m -27 X s 417 293 m -54 X s 390 300 m -27 X s 390 307 m -27 X s 390 314 m -27 X s 390 322 m -27 X s 417 329 m -54 X
 s 390 336 m -27 X s 390 344 m -27 X s 390 351 m -27 X s 390 358 m -27 X s 417 365 m -54 X s 390 373 m -27 X s 390 380 m -27 X s 390 387 m -27 X s 390 395 m -27 X s 417 402 m -54 X s 390 409 m -27 X s 390 416 m -27 X s 390 424 m -27 X s 390 431 m -27
 X s 417 438 m -54 X s 2154 74 m 364 Y s 2101 74 m 53 X s 2127 81 m 27 X s 2127 88 m 27 X s 2127 96 m 27 X s 2127 103 m 27 X s 2101 110 m 53 X s 2127 118 m 27 X s 2127 125 m 27 X s 2127 132 m 27 X s 2127 139 m 27 X s 2101 147 m 53 X s 2127 154 m 27 X
 s 2127 161 m 27 X s 2127 169 m 27 X s 2127 176 m 27 X s 2101 183 m 53 X s 2127 190 m 27 X s 2127 198 m 27 X s 2127 205 m 27 X s 2127 212 m 27 X s 2101 220 m 53 X s 2127 227 m 27 X s 2127 234 m 27 X s 2127 241 m 27 X s 2127 249 m 27 X s 2101 256 m 53
 X s 2127 263 m 27 X s 2127 271 m 27 X s 2127 278 m 27 X s 2127 285 m 27 X s 2101 293 m 53 X s 2127 300 m 27 X s 2127 307 m 27 X s 2127 314 m 27 X s 2127 322 m 27 X s 2101 329 m 53 X s 2127 336 m 27 X s 2127 344 m 27 X s 2127 351 m 27 X s 2127 358 m
 27 X s 2101 365 m 53 X s 2127 373 m 27 X s 2127 380 m 27 X s 2127 387 m 27 X s 2127 395 m 27 X s 2101 402 m 53 X s 2127 409 m 27 X s 2127 416 m 27 X s 2127 424 m 27 X s 2127 431 m 27 X s 2101 438 m 53 X s
 gr  gr showpage
end
%%EOF
