%!PS-Adobe-2.0 EPSF-2.0
%%BoundingBox:  0 0 567 384
%%Title: H4l2015_plotfit/gg_mass_signal_800_fixed_H4l_2mu2e.eps: 
%%Creator: ROOT Version 5.34/10
%%CreationDate: Thu Feb 16 15:43:04 2017
%%EndComments
%%BeginProlog
80 dict begin
/s {stroke} def /l {lineto} def /m {moveto} def /t {translate} def
/r {rotate} def /rl {roll}  def /R {repeat} def
/d {rlineto} def /rm {rmoveto} def /gr {grestore} def /f {eofill} def
/c {setrgbcolor} def /black {0 setgray} def /sd {setdash} def
/cl {closepath} def /sf {scalefont setfont} def /lw {setlinewidth} def
/box {m dup 0 exch d exch 0 d 0 exch neg d cl} def
/NC{systemdict begin initclip end}def/C{NC box clip newpath}def
/bl {box s} def /bf {box f} def /Y { 0 exch d} def /X { 0 d} def 
/K {{pop pop 0 moveto} exch kshow} bind def
/ita {/ang 15 def gsave [1 0 ang dup sin exch cos div 1 0 0] concat} def 
/mp {newpath /y exch def /x exch def} def
/side {[w .77 mul w .23 mul] .385 w mul sd w 0 l currentpoint t -144 r} def
/mr {mp x y w2 0 360 arc} def /m24 {mr s} def /m20 {mr f} def
/mb {mp x y w2 add m w2 neg 0 d 0 w neg d w 0 d 0 w d cl} def
/mt {mp x y w2 add m w2 neg w neg d w 0 d cl} def
/m21 {mb f} def /m25 {mb s} def /m22 {mt f} def /m26{mt s} def
/m23 {mp x y w2 sub m w2 w d w neg 0 d cl f} def
/m27 {mp x y w2 add m w3 neg w2 neg d w3 w2 neg d w3 w2 d cl s} def
/m28 {mp x w2 sub y w2 sub w3 add m w3 0 d  0 w3 neg d w3 0 d 0 w3 d w3 0 d  0 w3 d w3 neg 0 d 0 w3 d w3 neg 0 d 0 w3 neg d w3 neg 0 d cl s } def
/m29 {mp gsave x w2 sub y w2 add w3 sub m currentpoint t 4 {side} repeat cl fill gr} def
/m30 {mp gsave x w2 sub y w2 add w3 sub m currentpoint t 4 {side} repeat cl s gr} def
/m31 {mp x y w2 sub m 0 w d x w2 sub y m w 0 d x w2 sub y w2 add m w w neg d x w2 sub y w2 sub m w w d s} def
/m32 {mp x y w2 sub m w2 w d w neg 0 d cl s} def
/m33 {mp x y w2 add m w3 neg w2 neg d w3 w2 neg d w3 w2 d cl f} def
/m34 {mp x w2 sub y w2 sub w3 add m w3 0 d  0 w3 neg d w3 0 d 0 w3 d w3 0 d  0 w3 d w3 neg 0 d 0 w3 d w3 neg 0 d 0 w3 neg d w3 neg 0 d cl f } def
/m2 {mp x y w2 sub m 0 w d x w2 sub y m w 0 d s} def
/m5 {mp x w2 sub y w2 sub m w w d x w2 sub y w2 add m w w neg d s} def
/reEncode {exch findfont dup length dict begin {1 index /FID eq  {pop pop} {def} ifelse } forall /Encoding exch def currentdict end dup /FontName get exch definefont pop } def [/Times-Bold /Times-Italic /Times-BoldItalic /Helvetica /Helvetica-Oblique
 /Helvetica-Bold /Helvetica-BoldOblique /Courier /Courier-Oblique /Courier-Bold /Courier-BoldOblique /Times-Roman /AvantGarde-Book /AvantGarde-BookOblique /AvantGarde-Demi /AvantGarde-DemiOblique /Bookman-Demi /Bookman-DemiItalic /Bookman-Light
 /Bookman-LightItalic /Helvetica-Narrow /Helvetica-Narrow-Bold /Helvetica-Narrow-BoldOblique /Helvetica-Narrow-Oblique /NewCenturySchlbk-Roman /NewCenturySchlbk-Bold /NewCenturySchlbk-BoldItalic /NewCenturySchlbk-Italic /Palatino-Bold
 /Palatino-BoldItalic /Palatino-Italic /Palatino-Roman ] {ISOLatin1Encoding reEncode } forall
%%EndProlog
%%BeginSetup
%%EndSetup
newpath  gsave  .25 .25 scale  gsave  0 0 t black[  ] 0 sd 3 lw 1 1 1 c 2268 1538 0 0 bf black 1 1 1 c 2222 738 23 784 bf black 1 1 1 c 2222 739 23 15 bf black 1 1 1 c 2268 1077 0 461 bf black 1 1 1 c 1791 850 363 634 bf black 1791 850 363 634 bl 363
 634 m 1791 X s
 gsave  2268 1077 0 461 C 1642.14 498.507 t 0 r /Helvetica findfont 48.9324 sf 0 0 m (4l Invariant Mass \(GeV\)) show NC gr  363 659 m -25 Y s 409 646 m -12 Y s 454 646 m -12 Y s 500 646 m -12 Y s 546 659 m -25 Y s 591 646 m -12 Y s 637 646 m -12 Y s
 683 646 m -12 Y s 728 659 m -25 Y s 774 646 m -12 Y s 820 646 m -12 Y s 866 646 m -12 Y s 911 659 m -25 Y s 957 646 m -12 Y s 1003 646 m -12 Y s 1048 646 m -12 Y s 1094 659 m -25 Y s 1140 646 m -12 Y s 1185 646 m -12 Y s 1231 646 m -12 Y s 1277 659
 m -25 Y s 1323 646 m -12 Y s 1368 646 m -12 Y s 1414 646 m -12 Y s 1460 659 m -25 Y s 1505 646 m -12 Y s 1551 646 m -12 Y s 1597 646 m -12 Y s 1642 659 m -25 Y s 1688 646 m -12 Y s 1734 646 m -12 Y s 1780 646 m -12 Y s 1825 659 m -25 Y s 1871 646 m
 -12 Y s 1917 646 m -12 Y s 1962 646 m -12 Y s 2008 659 m -25 Y s 2008 659 m -25 Y s 2054 646 m -12 Y s 2099 646 m -12 Y s 2145 646 m -12 Y s
 gsave  2268 1077 0 461 C 319.305 586.478 t 0 r /Helvetica findfont 48.9324 sf 0 0 m (660) show NC gr 
 gsave  2268 1077 0 461 C 501.765 586.478 t 0 r /Helvetica findfont 48.9324 sf 0 0 m (680) show NC gr 
 gsave  2268 1077 0 461 C 684.225 586.478 t 0 r /Helvetica findfont 48.9324 sf 0 0 m (700) show NC gr 
 gsave  2268 1077 0 461 C 866.685 586.478 t 0 r /Helvetica findfont 48.9324 sf 0 0 m (720) show NC gr 
 gsave  2268 1077 0 461 C 1049.14 586.478 t 0 r /Helvetica findfont 48.9324 sf 0 0 m (740) show NC gr 
 gsave  2268 1077 0 461 C 1231.6 586.478 t 0 r /Helvetica findfont 48.9324 sf 0 0 m (760) show NC gr 
 gsave  2268 1077 0 461 C 1414.06 586.478 t 0 r /Helvetica findfont 48.9324 sf 0 0 m (780) show NC gr 
 gsave  2268 1077 0 461 C 1599.78 586.478 t 0 r /Helvetica findfont 48.9324 sf 0 0 m (800) show NC gr 
 gsave  2268 1077 0 461 C 1782.24 586.478 t 0 r /Helvetica findfont 48.9324 sf 0 0 m (820) show NC gr 
 gsave  2268 1077 0 461 C 1964.7 586.478 t 0 r /Helvetica findfont 48.9324 sf 0 0 m (840) show NC gr  363 1484 m 1791 X s 363 1459 m 25 Y s 409 1471 m 13 Y s 454 1471 m 13 Y s 500 1471 m 13 Y s 546 1459 m 25 Y s 591 1471 m 13 Y s 637 1471 m 13 Y s
 683 1471 m 13 Y s 728 1459 m 25 Y s 774 1471 m 13 Y s 820 1471 m 13 Y s 866 1471 m 13 Y s 911 1459 m 25 Y s 957 1471 m 13 Y s 1003 1471 m 13 Y s 1048 1471 m 13 Y s 1094 1459 m 25 Y s 1140 1471 m 13 Y s 1185 1471 m 13 Y s 1231 1471 m 13 Y s 1277 1459
 m 25 Y s 1323 1471 m 13 Y s 1368 1471 m 13 Y s 1414 1471 m 13 Y s 1460 1459 m 25 Y s 1505 1471 m 13 Y s 1551 1471 m 13 Y s 1597 1471 m 13 Y s 1642 1459 m 25 Y s 1688 1471 m 13 Y s 1734 1471 m 13 Y s 1780 1471 m 13 Y s 1825 1459 m 25 Y s 1871 1471 m
 13 Y s 1917 1471 m 13 Y s 1962 1471 m 13 Y s 2008 1459 m 25 Y s 2008 1459 m 25 Y s 2054 1471 m 13 Y s 2099 1471 m 13 Y s 2145 1471 m 13 Y s 363 634 m 850 Y s
 gsave  2268 1077 0 461 C 120.554 1032.85 t 90 r /Helvetica findfont 48.9324 sf 0 0 m (Events / \( 3.92 GeV \)) show NC gr  390 643 m -27 X s 390 667 m -27 X s 390 688 m -27 X s 390 706 m -27 X s 390 721 m -27 X s 417 735 m -54 X s
 gsave  2268 1077 0 461 C 342.425 714.535 t 0 r  -55 0 t /Helvetica findfont 48.9324 sf 0 0 m (10) show NC gr  390 828 m -27 X s 390 881 m -27 X s 390 920 m -27 X s 390 949 m -27 X s 390 974 m -27 X s 390 994 m -27 X s 390 1012 m -27 X s 390 1028 m
 -27 X s 417 1042 m -54 X s
 gsave  2268 1077 0 461 C 322.563 1039.37 t 0 r /Helvetica findfont 32.6216 sf 0 0 m (2) show NC gr 
 gsave  2268 1077 0 461 C 270.432 1019.82 t 0 r /Helvetica findfont 48.9324 sf 0 0 m (10) show NC gr  390 1134 m -27 X s 390 1188 m -27 X s 390 1226 m -27 X s 390 1255 m -27 X s 390 1280 m -27 X s 390 1300 m -27 X s 390 1318 m -27 X s 390 1334 m -27
 X s 417 1348 m -54 X s
 gsave  2268 1077 0 461 C 322.563 1348.9 t 0 r /Helvetica findfont 32.6216 sf 0 0 m (3) show NC gr 
 gsave  2268 1077 0 461 C 270.432 1326.09 t 0 r /Helvetica findfont 48.9324 sf 0 0 m (10) show NC gr  390 1440 m -27 X s 2154 634 m 850 Y s 2127 643 m 27 X s 2127 667 m 27 X s 2127 688 m 27 X s 2127 706 m 27 X s 2127 721 m 27 X s 2101 735 m 53 X s
 2127 828 m 27 X s 2127 881 m 27 X s 2127 920 m 27 X s 2127 949 m 27 X s 2127 974 m 27 X s 2127 994 m 27 X s 2127 1012 m 27 X s 2127 1028 m 27 X s 2101 1042 m 53 X s 2127 1134 m 27 X s 2127 1188 m 27 X s 2127 1226 m 27 X s 2127 1255 m 27 X s 2127
 1280 m 27 X s 2127 1300 m 27 X s 2127 1318 m 27 X s 2127 1334 m 27 X s 2101 1348 m 53 X s 2127 1440 m 27 X s 381 667 m -18 X s 363 667 m cl s 381 667 m 18 X s 399 667 m cl s 381 667 m 63 Y s 381 730 m cl s 381 667 m -33 Y s 381 634 m cl s 417 770 m
 -18 X s 399 770 m cl s 417 770 m 17 X s 434 770 m cl s 417 770 m 41 Y s 417 811 m cl s 417 770 m -42 Y s 417 728 m cl s 452 721 m -18 X s 434 721 m cl s 452 721 m 18 X s 470 721 m cl s 452 721 m 50 Y s 452 771 m cl s 452 721 m -52 Y s 452 669 m cl s
 488 721 m -18 X s 470 721 m cl s 488 721 m 18 X s 506 721 m cl s 488 721 m 50 Y s 488 771 m cl s 488 721 m -52 Y s 488 669 m cl s 524 721 m -18 X s 506 721 m cl s 524 721 m 18 X s 542 721 m cl s 524 721 m 50 Y s 524 771 m cl s 524 721 m -52 Y s 524
 669 m cl s 560 760 m -18 X s 542 760 m cl s 560 760 m 18 X s 578 760 m cl s 560 760 m 42 Y s 560 802 m cl s 560 760 m -45 Y s 560 715 m cl s 596 706 m -18 X s 578 706 m cl s 596 706 m 18 X s 614 706 m cl s 596 706 m 53 Y s 596 759 m cl s 596 706 m
 -57 Y s 596 649 m cl s 632 688 m -18 X s 614 688 m cl s 632 688 m 17 X s 649 688 m cl s 632 688 m 57 Y s 632 745 m cl s 632 688 m -54 Y s 632 634 m cl s 703 857 m -18 X s 685 857 m cl s 703 857 m 18 X s 721 857 m cl s 703 857 m 29 Y s 703 886 m cl s
 703 857 m -29 Y s 703 828 m cl s 739 760 m -18 X s 721 760 m cl s 739 760 m 18 X s 757 760 m cl s 739 760 m 42 Y s 739 802 m cl s 739 760 m -45 Y s 739 715 m cl s 775 770 m -18 X s 757 770 m cl s 775 770 m 18 X s 793 770 m cl s 775 770 m 41 Y s 775
 811 m cl s 775 770 m -42 Y s 775 728 m cl s 811 806 m -18 X s 793 806 m cl s 811 806 m 18 X s 829 806 m cl s 811 806 m 35 Y s 811 841 m cl s 811 806 m -37 Y s 811 769 m cl s 847 877 m -18 X s 829 877 m cl s 847 877 m 17 X s 864 877 m cl s 847 877 m
 27 Y s 847 904 m cl s 847 877 m -27 Y s 847 850 m cl s 882 834 m -18 X s 864 834 m cl s 882 834 m 18 X s 900 834 m cl s 882 834 m 32 Y s 882 866 m cl s 882 834 m -32 Y s 882 802 m cl s 918 867 m -18 X s 900 867 m cl s 918 867 m 18 X s 936 867 m cl s
 918 867 m 28 Y s 918 895 m cl s 918 867 m -28 Y s 918 839 m cl s 954 886 m -18 X s 936 886 m cl s 954 886 m 18 X s 972 886 m cl s 954 886 m 26 Y s 954 912 m cl s 954 886 m -26 Y s 954 860 m cl s 990 872 m -18 X s 972 872 m cl s 990 872 m 18 X s 1008
 872 m cl s 990 872 m 27 Y s 990 899 m cl s 990 872 m -27 Y s 990 845 m cl s 1026 920 m -18 X s 1008 920 m cl s 1026 920 m 18 X s 1044 920 m cl s 1026 920 m 22 Y s 1026 942 m cl s 1026 920 m -23 Y s 1026 897 m cl s 1062 952 m -18 X s 1044 952 m cl s
 1062 952 m 17 X s 1079 952 m cl s 1062 952 m 20 Y s 1062 972 m cl s 1062 952 m -20 Y s 1062 932 m cl s 1097 923 m -18 X s 1079 923 m cl s 1097 923 m 18 X s 1115 923 m cl s 1097 923 m 22 Y s 1097 945 m cl s 1097 923 m -23 Y s 1097 900 m cl s 1133 969
 m -18 X s 1115 969 m cl s 1133 969 m 18 X s 1151 969 m cl s 1133 969 m 19 Y s 1133 988 m cl s 1133 969 m -19 Y s 1133 950 m cl s 1169 986 m -18 X s 1151 986 m cl s 1169 986 m 18 X s 1187 986 m cl s 1169 986 m 18 Y s 1169 1004 m cl s 1169 986 m -17 Y
 s 1169 969 m cl s 1205 1005 m -18 X s 1187 1005 m cl s 1205 1005 m 18 X s 1223 1005 m cl s 1205 1005 m 16 Y s 1205 1021 m cl s 1205 1005 m -16 Y s 1205 989 m cl s 1241 1036 m -18 X s 1223 1036 m cl s 1241 1036 m 18 X s 1259 1036 m cl s 1241 1036 m
 14 Y s 1241 1050 m cl s 1241 1036 m -14 Y s 1241 1022 m cl s 1276 1080 m -17 X s 1259 1080 m cl s 1276 1080 m 18 X s 1294 1080 m cl s 1276 1080 m 12 Y s 1276 1092 m cl s 1276 1080 m -11 Y s 1276 1069 m cl s 1312 1098 m -18 X s 1294 1098 m cl s 1312
 1098 m 18 X s 1330 1098 m cl s 1312 1098 m 11 Y s 1312 1109 m cl s 1312 1098 m -11 Y s 1312 1087 m cl s 1348 1143 m -18 X s 1330 1143 m cl s 1348 1143 m 18 X s 1366 1143 m cl s 1348 1143 m 9 Y s 1348 1152 m cl s 1348 1143 m -9 Y s 1348 1134 m cl s
 1384 1175 m -18 X s 1366 1175 m cl s 1384 1175 m 18 X s 1402 1175 m cl s 1384 1175 m 8 Y s 1384 1183 m cl s 1384 1175 m -8 Y s 1384 1167 m cl s 1420 1217 m -18 X s 1402 1217 m cl s 1420 1217 m 18 X s 1438 1217 m cl s 1420 1217 m 7 Y s 1420 1224 m cl
 s 1420 1217 m -7 Y s 1420 1210 m cl s 1456 1259 m -18 X s 1438 1259 m cl s 1456 1259 m 18 X s 1474 1259 m cl s 1456 1259 m 6 Y s 1456 1265 m cl s 1456 1259 m -6 Y s 1456 1253 m cl s 1491 1301 m -17 X s 1474 1301 m cl s 1491 1301 m 18 X s 1509 1301 m
 cl s 1491 1301 m 5 Y s 1491 1306 m cl s 1491 1301 m -5 Y s 1491 1296 m cl s 1527 1347 m -18 X s 1509 1347 m cl s 1527 1347 m 18 X s 1545 1347 m cl s 1527 1347 m 4 Y s 1527 1351 m cl s 1527 1347 m -4 Y s 1527 1343 m cl s 1563 1394 m -18 X s 1545 1394
 m cl s 1563 1394 m 18 X s 1581 1394 m cl s 1563 1394 m 3 Y s 1563 1397 m cl s 1563 1394 m -4 Y s 1563 1390 m cl s 1599 1413 m -18 X s 1581 1413 m cl s 1599 1413 m 18 X s 1617 1413 m cl s 1599 1413 m 4 Y s 1599 1417 m cl s 1599 1413 m -3 Y s 1599
 1410 m cl s 1635 1420 m -18 X s 1617 1420 m cl s 1635 1420 m 18 X s 1653 1420 m cl s 1635 1420 m 3 Y s 1635 1423 m cl s 1635 1420 m -3 Y s 1635 1417 m cl s 1671 1408 m -18 X s 1653 1408 m cl s 1671 1408 m 18 X s 1689 1408 m cl s 1671 1408 m 3 Y s
 1671 1411 m cl s 1671 1408 m -3 Y s 1671 1405 m cl s 1706 1361 m -17 X s 1689 1361 m cl s 1706 1361 m 18 X s 1724 1361 m cl s 1706 1361 m 4 Y s 1706 1365 m cl s 1706 1361 m -4 Y s 1706 1357 m cl s 1742 1315 m -18 X s 1724 1315 m cl s 1742 1315 m 18
 X s 1760 1315 m cl s 1742 1315 m 5 Y s 1742 1320 m cl s 1742 1315 m -4 Y s 1742 1311 m cl s 1778 1251 m -18 X s 1760 1251 m cl s 1778 1251 m 18 X s 1796 1251 m cl s 1778 1251 m 6 Y s 1778 1257 m cl s 1778 1251 m -6 Y s 1778 1245 m cl s 1814 1185 m
 -18 X s 1796 1185 m cl s 1814 1185 m 18 X s 1832 1185 m cl s 1814 1185 m 8 Y s 1814 1193 m cl s 1814 1185 m -7 Y s 1814 1178 m cl s 1850 1134 m -18 X s 1832 1134 m cl s 1850 1134 m 18 X s 1868 1134 m cl s 1850 1134 m 9 Y s 1850 1143 m cl s 1850 1134
 m -10 Y s 1850 1124 m cl s 1886 1069 m -18 X s 1868 1069 m cl s 1886 1069 m 18 X s 1904 1069 m cl s 1886 1069 m 12 Y s 1886 1081 m cl s 1886 1069 m -12 Y s 1886 1057 m cl s 1921 996 m -17 X s 1904 996 m cl s 1921 996 m 18 X s 1939 996 m cl s 1921
 996 m 17 Y s 1921 1013 m cl s 1921 996 m -17 Y s 1921 979 m cl s 1957 960 m -18 X s 1939 960 m cl s 1957 960 m 18 X s 1975 960 m cl s 1957 960 m 19 Y s 1957 979 m cl s 1957 960 m -20 Y s 1957 940 m cl s 1993 938 m -18 X s 1975 938 m cl s 1993 938 m
 18 X s 2011 938 m cl s 1993 938 m 21 Y s 1993 959 m cl s 1993 938 m -21 Y s 1993 917 m cl s 2029 881 m -18 X s 2011 881 m cl s 2029 881 m 18 X s 2047 881 m cl s 2029 881 m 27 Y s 2029 908 m cl s 2029 881 m -26 Y s 2029 855 m cl s 2065 857 m -18 X s
 2047 857 m cl s 2065 857 m 18 X s 2083 857 m cl s 2065 857 m 29 Y s 2065 886 m cl s 2065 857 m -29 Y s 2065 828 m cl s 2101 760 m -18 X s 2083 760 m cl s 2101 760 m 18 X s 2119 760 m cl s 2101 760 m 42 Y s 2101 802 m cl s 2101 760 m -45 Y s 2101 715
 m cl s 2136 770 m -17 X s 2119 770 m cl s 2136 770 m 18 X s 2154 770 m cl s 2136 770 m 41 Y s 2136 811 m cl s 2136 770 m -42 Y s 2136 728 m cl s /w 31 def /w2 {w 2 div} def /w3 {w 3 div} def 381 667 417 770 452 721 488 721 524 721 560 760 596 706
 632 688 8 { m20} R 703 857 739 760 775 770 811 806 847 877 882 834 918 867 954 886 990 872 1026 920 1062 952 1097 923 1133 969 1169 986 1205 1005 1241 1036 1276 1080 1312 1098 1348 1143 1384 1175 1420 1217 1456 1259 1491 1301 1527 1347 1563 1394
 1599 1413 1635 1420 1671 1408 1706 1361 1742 1315 1778 1251 1814 1185 1850 1134 1886 1069 1921 996 1957 960 1993 938 2029 881 2065 857 2101 760 2136 770 41 { m20} R 0 1 1 c 1 1 0 c black 1 1 0 c 363 737 m 36 6 d 35 6 d 36 6 d 36 6 d 36 7 d 36 7 d 36
 7 d 35 8 d 36 7 d 36 8 d 36 9 d 36 9 d 36 9 d 35 10 d 36 10 d 36 12 d 36 13 d 36 14 d 36 16 d 35 19 d 36 22 d 36 25 d 36 27 d 36 30 d 36 32 d 35 33 d 36 33 d 36 33 d 18 17 d 18 17 d 18 17 d 18 18 d 9 9 d 9 10 d 9 10 d 9 11 d 9 12 d 8 13 d 5 6 d 4 7
 d 9 15 d 9 15 d 9 13 d 18 25 d 9 10 d 9 9 d 9 8 d 9 7 d 9 5 d 4 2 d 5 2 d 4 2 d 5 1 d 4 1 d 5 X 4 1 d 5 X 4 -1 d 5 -1 d 4 -1 d 5 -1 d 4 -2 d 5 -2 d 9 -6 d 9 -6 d 9 -8 d 9 -9 d 35 -47 d 9 -15 d 9 -15 d 9 -16 d 9 -16 d 9 -17 d 9 -17 d 9 -17 d 9 -17 d
 9 -17 d 9 -17 d 9 -16 d 9 -15 d 18 -29 d 18 -26 d 18 -25 d 18 -23 d 35 -45 d 36 -47 d 36 -51 d 36 -56 d 36 -60 d 36 -65 d 35 -71 d -35 71 d -36 65 d -36 60 d -36 56 d -36 51 d -36 47 d -35 45 d -18 23 d -18 25 d -18 26 d -18 29 d -9 15 d -9 16 d -9
 17 d -9 17 d -9 17 d -9 17 d -9 17 d -9 17 d -9 16 d -9 16 d -9 15 d -9 15 d -35 47 d -9 9 d -9 8 d -9 6 d -9 6 d -5 2 d -4 2 d -5 1 d -4 1 d -5 1 d -4 1 d -5 X -4 -1 d -5 X -4 -1 d -5 -1 d -4 -2 d -5 -2 d -4 -2 d -9 -5 d -9 -7 d -9 -8 d -9 -9 d -9
 -10 d -18 -25 d -9 -13 d -9 -15 d -9 -15 d -4 -7 d -5 -6 d -8 -13 d -9 -12 d -9 -11 d -9 -10 d -9 -10 d -9 -9 d -18 -18 d -18 -17 d -18 -17 d -18 -17 d -36 -33 d -36 -33 d -35 -33 d -36 -32 d -36 -30 d -36 -27 d -36 -25 d -36 -22 d -35 -19 d -36 -16
 d -36 -14 d -36 -13 d -36 -12 d -36 -10 d -35 -10 d -36 -9 d -36 -9 d -36 -9 d -36 -8 d -36 -7 d -35 -8 d -36 -7 d -36 -7 d -36 -7 d -36 -6 d -36 -6 d -35 -6 d -36 -6 d f 0 1 1 c 0 1 0 c black 0 1 0 c 363 737 m 36 6 d 35 6 d 36 6 d 36 6 d 36 7 d 36
 7 d 36 7 d 35 8 d 36 7 d 36 8 d 36 9 d 36 9 d 36 9 d 35 10 d 36 10 d 36 12 d 36 13 d 36 14 d 36 16 d 35 19 d 36 22 d 36 25 d 36 27 d 36 30 d 36 32 d 35 33 d 36 33 d 36 33 d 18 17 d 18 17 d 18 17 d 18 18 d 9 9 d 9 10 d 9 10 d 9 11 d 9 12 d 8 13 d 5 6
 d 4 7 d 9 15 d 9 15 d 9 13 d 18 25 d 9 10 d 9 9 d 9 8 d 9 7 d 9 5 d 4 2 d 5 2 d 4 2 d 5 1 d 4 1 d 5 X 4 1 d 5 X 4 -1 d 5 -1 d 4 -1 d 5 -1 d 4 -2 d 5 -2 d 9 -6 d 9 -6 d 9 -8 d 9 -9 d 35 -47 d 9 -15 d 9 -15 d 9 -16 d 9 -16 d 9 -17 d 9 -17 d 9 -17 d 9
 -17 d 9 -17 d 9 -17 d 9 -16 d 9 -15 d 18 -29 d 18 -26 d 18 -25 d 18 -23 d 35 -45 d 36 -47 d 36 -51 d 36 -56 d 36 -60 d 36 -65 d 35 -71 d -35 71 d -36 65 d -36 60 d -36 56 d -36 51 d -36 47 d -35 45 d -18 23 d -18 25 d -18 26 d -18 29 d -9 15 d -9 16
 d -9 17 d -9 17 d -9 17 d -9 17 d -9 17 d -9 17 d -9 16 d -9 16 d -9 15 d -9 15 d -35 47 d -9 9 d -9 8 d -9 6 d -9 6 d -5 2 d -4 2 d -5 1 d -4 1 d -5 1 d -4 1 d -5 X -4 -1 d -5 X -4 -1 d -5 -1 d -4 -2 d -5 -2 d -4 -2 d -9 -5 d -9 -7 d -9 -8 d -9 -9
 d -9 -10 d -18 -25 d -9 -13 d -9 -15 d -9 -15 d -4 -7 d -5 -6 d -8 -13 d -9 -12 d -9 -11 d -9 -10 d -9 -10 d -9 -9 d -18 -18 d -18 -17 d -18 -17 d -18 -17 d -36 -33 d -36 -33 d -35 -33 d -36 -32 d -36 -30 d -36 -27 d -36 -25 d -36 -22 d -35 -19 d
 -36 -16 d -36 -14 d -36 -13 d -36 -12 d -36 -10 d -35 -10 d -36 -9 d -36 -9 d -36 -9 d -36 -8 d -36 -7 d -35 -8 d -36 -7 d -36 -7 d -36 -7 d -36 -6 d -36 -6 d -35 -6 d -36 -6 d f 0 0 1 c 9 lw black 0 0 1 c 363 737 m 36 6 d 35 6 d 36 6 d 36 6 d 36 7
 d 36 7 d 36 7 d 35 8 d 36 7 d 36 8 d 36 9 d 36 9 d 36 9 d 35 10 d 36 10 d 36 12 d 36 13 d 36 14 d 36 16 d 35 19 d 36 22 d 36 25 d 36 27 d 36 30 d 36 32 d 35 33 d 36 33 d 36 33 d 18 17 d 18 17 d 18 17 d 18 18 d 9 9 d 9 10 d 9 10 d 9 11 d 9 12 d 8 13
 d 5 6 d 4 7 d 9 15 d 9 15 d 9 13 d 18 25 d 9 10 d 9 9 d 9 8 d 9 7 d 9 5 d 4 2 d 5 2 d 4 2 d 5 1 d 4 1 d 5 X 4 1 d 5 X 4 -1 d 5 -1 d 4 -1 d 5 -1 d 4 -2 d 5 -2 d 9 -6 d 9 -6 d 9 -8 d 9 -9 d 35 -47 d 9 -15 d 9 -15 d 9 -16 d 9 -16 d 9 -17 d 9 -17 d 9
 -17 d 9 -17 d 9 -17 d 9 -17 d 9 -16 d 9 -15 d 18 -29 d 18 -26 d 18 -25 d 18 -23 d 35 -45 d 36 -47 d 36 -51 d 36 -56 d 36 -60 d 36 -65 d 35 -71 d s black 3 lw 381 667 m -18 X s 363 667 m cl s 381 667 m 18 X s 399 667 m cl s 381 667 m 63 Y s 381 730 m
 cl s 381 667 m -33 Y s 381 634 m cl s 417 770 m -18 X s 399 770 m cl s 417 770 m 17 X s 434 770 m cl s 417 770 m 41 Y s 417 811 m cl s 417 770 m -42 Y s 417 728 m cl s 452 721 m -18 X s 434 721 m cl s 452 721 m 18 X s 470 721 m cl s 452 721 m 50 Y s
 452 771 m cl s 452 721 m -52 Y s 452 669 m cl s 488 721 m -18 X s 470 721 m cl s 488 721 m 18 X s 506 721 m cl s 488 721 m 50 Y s 488 771 m cl s 488 721 m -52 Y s 488 669 m cl s 524 721 m -18 X s 506 721 m cl s 524 721 m 18 X s 542 721 m cl s 524
 721 m 50 Y s 524 771 m cl s 524 721 m -52 Y s 524 669 m cl s 560 760 m -18 X s 542 760 m cl s 560 760 m 18 X s 578 760 m cl s 560 760 m 42 Y s 560 802 m cl s 560 760 m -45 Y s 560 715 m cl s 596 706 m -18 X s 578 706 m cl s 596 706 m 18 X s 614 706
 m cl s 596 706 m 53 Y s 596 759 m cl s 596 706 m -57 Y s 596 649 m cl s 632 688 m -18 X s 614 688 m cl s 632 688 m 17 X s 649 688 m cl s 632 688 m 57 Y s 632 745 m cl s 632 688 m -54 Y s 632 634 m cl s 703 857 m -18 X s 685 857 m cl s 703 857 m 18 X
 s 721 857 m cl s 703 857 m 29 Y s 703 886 m cl s 703 857 m -29 Y s 703 828 m cl s 739 760 m -18 X s 721 760 m cl s 739 760 m 18 X s 757 760 m cl s 739 760 m 42 Y s 739 802 m cl s 739 760 m -45 Y s 739 715 m cl s 775 770 m -18 X s 757 770 m cl s 775
 770 m 18 X s 793 770 m cl s 775 770 m 41 Y s 775 811 m cl s 775 770 m -42 Y s 775 728 m cl s 811 806 m -18 X s 793 806 m cl s 811 806 m 18 X s 829 806 m cl s 811 806 m 35 Y s 811 841 m cl s 811 806 m -37 Y s 811 769 m cl s 847 877 m -18 X s 829 877
 m cl s 847 877 m 17 X s 864 877 m cl s 847 877 m 27 Y s 847 904 m cl s 847 877 m -27 Y s 847 850 m cl s 882 834 m -18 X s 864 834 m cl s 882 834 m 18 X s 900 834 m cl s 882 834 m 32 Y s 882 866 m cl s 882 834 m -32 Y s 882 802 m cl s 918 867 m -18 X
 s 900 867 m cl s 918 867 m 18 X s 936 867 m cl s 918 867 m 28 Y s 918 895 m cl s 918 867 m -28 Y s 918 839 m cl s 954 886 m -18 X s 936 886 m cl s 954 886 m 18 X s 972 886 m cl s 954 886 m 26 Y s 954 912 m cl s 954 886 m -26 Y s 954 860 m cl s 990
 872 m -18 X s 972 872 m cl s 990 872 m 18 X s 1008 872 m cl s 990 872 m 27 Y s 990 899 m cl s 990 872 m -27 Y s 990 845 m cl s 1026 920 m -18 X s 1008 920 m cl s 1026 920 m 18 X s 1044 920 m cl s 1026 920 m 22 Y s 1026 942 m cl s 1026 920 m -23 Y s
 1026 897 m cl s 1062 952 m -18 X s 1044 952 m cl s 1062 952 m 17 X s 1079 952 m cl s 1062 952 m 20 Y s 1062 972 m cl s 1062 952 m -20 Y s 1062 932 m cl s 1097 923 m -18 X s 1079 923 m cl s 1097 923 m 18 X s 1115 923 m cl s 1097 923 m 22 Y s 1097 945
 m cl s 1097 923 m -23 Y s 1097 900 m cl s 1133 969 m -18 X s 1115 969 m cl s 1133 969 m 18 X s 1151 969 m cl s 1133 969 m 19 Y s 1133 988 m cl s 1133 969 m -19 Y s 1133 950 m cl s 1169 986 m -18 X s 1151 986 m cl s 1169 986 m 18 X s 1187 986 m cl s
 1169 986 m 18 Y s 1169 1004 m cl s 1169 986 m -17 Y s 1169 969 m cl s 1205 1005 m -18 X s 1187 1005 m cl s 1205 1005 m 18 X s 1223 1005 m cl s 1205 1005 m 16 Y s 1205 1021 m cl s 1205 1005 m -16 Y s 1205 989 m cl s 1241 1036 m -18 X s 1223 1036 m cl
 s 1241 1036 m 18 X s 1259 1036 m cl s 1241 1036 m 14 Y s 1241 1050 m cl s 1241 1036 m -14 Y s 1241 1022 m cl s 1276 1080 m -17 X s 1259 1080 m cl s 1276 1080 m 18 X s 1294 1080 m cl s 1276 1080 m 12 Y s 1276 1092 m cl s 1276 1080 m -11 Y s 1276 1069
 m cl s 1312 1098 m -18 X s 1294 1098 m cl s 1312 1098 m 18 X s 1330 1098 m cl s 1312 1098 m 11 Y s 1312 1109 m cl s 1312 1098 m -11 Y s 1312 1087 m cl s 1348 1143 m -18 X s 1330 1143 m cl s 1348 1143 m 18 X s 1366 1143 m cl s 1348 1143 m 9 Y s 1348
 1152 m cl s 1348 1143 m -9 Y s 1348 1134 m cl s 1384 1175 m -18 X s 1366 1175 m cl s 1384 1175 m 18 X s 1402 1175 m cl s 1384 1175 m 8 Y s 1384 1183 m cl s 1384 1175 m -8 Y s 1384 1167 m cl s 1420 1217 m -18 X s 1402 1217 m cl s 1420 1217 m 18 X s
 1438 1217 m cl s 1420 1217 m 7 Y s 1420 1224 m cl s 1420 1217 m -7 Y s 1420 1210 m cl s 1456 1259 m -18 X s 1438 1259 m cl s 1456 1259 m 18 X s 1474 1259 m cl s 1456 1259 m 6 Y s 1456 1265 m cl s 1456 1259 m -6 Y s 1456 1253 m cl s 1491 1301 m -17 X
 s 1474 1301 m cl s 1491 1301 m 18 X s 1509 1301 m cl s 1491 1301 m 5 Y s 1491 1306 m cl s 1491 1301 m -5 Y s 1491 1296 m cl s 1527 1347 m -18 X s 1509 1347 m cl s 1527 1347 m 18 X s 1545 1347 m cl s 1527 1347 m 4 Y s 1527 1351 m cl s 1527 1347 m -4
 Y s 1527 1343 m cl s 1563 1394 m -18 X s 1545 1394 m cl s 1563 1394 m 18 X s 1581 1394 m cl s 1563 1394 m 3 Y s 1563 1397 m cl s 1563 1394 m -4 Y s 1563 1390 m cl s 1599 1413 m -18 X s 1581 1413 m cl s 1599 1413 m 18 X s 1617 1413 m cl s 1599 1413 m
 4 Y s 1599 1417 m cl s 1599 1413 m -3 Y s 1599 1410 m cl s 1635 1420 m -18 X s 1617 1420 m cl s 1635 1420 m 18 X s 1653 1420 m cl s 1635 1420 m 3 Y s 1635 1423 m cl s 1635 1420 m -3 Y s 1635 1417 m cl s 1671 1408 m -18 X s 1653 1408 m cl s 1671 1408
 m 18 X s 1689 1408 m cl s 1671 1408 m 3 Y s 1671 1411 m cl s 1671 1408 m -3 Y s 1671 1405 m cl s 1706 1361 m -17 X s 1689 1361 m cl s 1706 1361 m 18 X s 1724 1361 m cl s 1706 1361 m 4 Y s 1706 1365 m cl s 1706 1361 m -4 Y s 1706 1357 m cl s 1742
 1315 m -18 X s 1724 1315 m cl s 1742 1315 m 18 X s 1760 1315 m cl s 1742 1315 m 5 Y s 1742 1320 m cl s 1742 1315 m -4 Y s 1742 1311 m cl s 1778 1251 m -18 X s 1760 1251 m cl s 1778 1251 m 18 X s 1796 1251 m cl s 1778 1251 m 6 Y s 1778 1257 m cl s
 1778 1251 m -6 Y s 1778 1245 m cl s 1814 1185 m -18 X s 1796 1185 m cl s 1814 1185 m 18 X s 1832 1185 m cl s 1814 1185 m 8 Y s 1814 1193 m cl s 1814 1185 m -7 Y s 1814 1178 m cl s 1850 1134 m -18 X s 1832 1134 m cl s 1850 1134 m 18 X s 1868 1134 m
 cl s 1850 1134 m 9 Y s 1850 1143 m cl s 1850 1134 m -10 Y s 1850 1124 m cl s 1886 1069 m -18 X s 1868 1069 m cl s 1886 1069 m 18 X s 1904 1069 m cl s 1886 1069 m 12 Y s 1886 1081 m cl s 1886 1069 m -12 Y s 1886 1057 m cl s 1921 996 m -17 X s 1904
 996 m cl s 1921 996 m 18 X s 1939 996 m cl s 1921 996 m 17 Y s 1921 1013 m cl s 1921 996 m -17 Y s 1921 979 m cl s 1957 960 m -18 X s 1939 960 m cl s 1957 960 m 18 X s 1975 960 m cl s 1957 960 m 19 Y s 1957 979 m cl s 1957 960 m -20 Y s 1957 940 m
 cl s 1993 938 m -18 X s 1975 938 m cl s 1993 938 m 18 X s 2011 938 m cl s 1993 938 m 21 Y s 1993 959 m cl s 1993 938 m -21 Y s 1993 917 m cl s 2029 881 m -18 X s 2011 881 m cl s 2029 881 m 18 X s 2047 881 m cl s 2029 881 m 27 Y s 2029 908 m cl s
 2029 881 m -26 Y s 2029 855 m cl s 2065 857 m -18 X s 2047 857 m cl s 2065 857 m 18 X s 2083 857 m cl s 2065 857 m 29 Y s 2065 886 m cl s 2065 857 m -29 Y s 2065 828 m cl s 2101 760 m -18 X s 2083 760 m cl s 2101 760 m 18 X s 2119 760 m cl s 2101
 760 m 42 Y s 2101 802 m cl s 2101 760 m -45 Y s 2101 715 m cl s 2136 770 m -17 X s 2119 770 m cl s 2136 770 m 18 X s 2154 770 m cl s 2136 770 m 41 Y s 2136 811 m cl s 2136 770 m -42 Y s 2136 728 m cl s 381 667 417 770 452 721 488 721 524 721 560 760
 596 706 632 688 8 { m20} R 703 857 739 760 775 770 811 806 847 877 882 834 918 867 954 886 990 872 1026 920 1062 952 1097 923 1133 969 1169 986 1205 1005 1241 1036 1276 1080 1312 1098 1348 1143 1384 1175 1420 1217 1456 1259 1491 1301 1527 1347 1563
 1394 1599 1413 1635 1420 1671 1408 1706 1361 1742 1315 1778 1251 1814 1185 1850 1134 1886 1069 1921 996 1957 960 1993 938 2029 881 2065 857 2101 760 2136 770 41 { m20} R 0.52 0.76 0.64 c[ 4 8] 0 sd 9 lw black 0.52 0.76 0.64 c 363 737 m 36 6 d 35 6 d
 36 6 d 36 6 d 36 7 d 36 7 d 36 7 d 35 8 d 36 7 d 36 8 d 36 9 d 36 9 d 36 9 d 35 9 d 36 10 d 36 11 d 36 11 d 36 12 d 36 13 d 35 13 d 36 15 d 36 15 d 36 17 d 36 19 d 36 20 d 35 23 d 36 26 d 36 29 d 18 17 d 18 18 d 18 19 d 18 22 d 9 12 d 9 13 d 9 14 d
 9 15 d 9 15 d 8 17 d 5 10 d 4 9 d 9 20 d 9 19 d 9 17 d 18 30 d 9 13 d 9 11 d 9 9 d 9 8 d 5 3 d 4 3 d 4 3 d 5 2 d 4 2 d 5 1 d 4 1 d 5 1 d 9 X 4 -1 d 5 X 4 -2 d 5 -2 d 4 -2 d 5 -2 d 4 -3 d 5 -3 d 9 -8 d 9 -9 d 9 -11 d 35 -59 d 9 -18 d 9 -21 d 9 -21 d
 9 -24 d 9 -24 d 9 -27 d 9 -28 d 9 -29 d 9 -31 d 9 -33 d 9 -34 d 9 -36 d 9 -37 d 9 -39 d 18 -82 d 18 -89 d 17 -90 d s 0.54 0.66 0.63 c black 0.54 0.66 0.63 c 1083 634 m 32 65 d s 1115 699 m 36 66 d 18 32 d 18 30 d 18 29 d 18 28 d 18 26 d 18 26 d 17
 24 d 18 23 d 18 22 d 18 20 d 18 19 d 18 18 d 18 17 d 18 16 d 36 27 d 36 23 d 17 10 d 18 8 d 18 7 d 18 6 d 18 4 d 9 2 d 9 2 d 9 1 d 9 1 d 9 1 d 27 X 9 -1 d 9 -1 d 9 -1 d 9 -2 d 18 -4 d 17 -5 d 18 -6 d 18 -8 d 18 -9 d 36 -21 d 36 -26 d 18 -15 d 18 -16
 d 18 -17 d 18 -19 d 17 -20 d 18 -21 d 18 -22 d 18 -24 d 18 -24 d 18 -26 d 18 -27 d 18 -29 d 18 -29 d 18 -31 d 36 -65 d 35 -71 d s black[  ] 0 sd 3 lw 363 634 m 1791 X s 363 659 m -25 Y s 409 646 m -12 Y s 454 646 m -12 Y s 500 646 m -12 Y s 546 659
 m -25 Y s 591 646 m -12 Y s 637 646 m -12 Y s 683 646 m -12 Y s 728 659 m -25 Y s 774 646 m -12 Y s 820 646 m -12 Y s 866 646 m -12 Y s 911 659 m -25 Y s 957 646 m -12 Y s 1003 646 m -12 Y s 1048 646 m -12 Y s 1094 659 m -25 Y s 1140 646 m -12 Y s
 1185 646 m -12 Y s 1231 646 m -12 Y s 1277 659 m -25 Y s 1323 646 m -12 Y s 1368 646 m -12 Y s 1414 646 m -12 Y s 1460 659 m -25 Y s 1505 646 m -12 Y s 1551 646 m -12 Y s 1597 646 m -12 Y s 1642 659 m -25 Y s 1688 646 m -12 Y s 1734 646 m -12 Y s
 1780 646 m -12 Y s 1825 659 m -25 Y s 1871 646 m -12 Y s 1917 646 m -12 Y s 1962 646 m -12 Y s 2008 659 m -25 Y s 2008 659 m -25 Y s 2054 646 m -12 Y s 2099 646 m -12 Y s 2145 646 m -12 Y s 363 1484 m 1791 X s 363 1459 m 25 Y s 409 1471 m 13 Y s 454
 1471 m 13 Y s 500 1471 m 13 Y s 546 1459 m 25 Y s 591 1471 m 13 Y s 637 1471 m 13 Y s 683 1471 m 13 Y s 728 1459 m 25 Y s 774 1471 m 13 Y s 820 1471 m 13 Y s 866 1471 m 13 Y s 911 1459 m 25 Y s 957 1471 m 13 Y s 1003 1471 m 13 Y s 1048 1471 m 13 Y s
 1094 1459 m 25 Y s 1140 1471 m 13 Y s 1185 1471 m 13 Y s 1231 1471 m 13 Y s 1277 1459 m 25 Y s 1323 1471 m 13 Y s 1368 1471 m 13 Y s 1414 1471 m 13 Y s 1460 1459 m 25 Y s 1505 1471 m 13 Y s 1551 1471 m 13 Y s 1597 1471 m 13 Y s 1642 1459 m 25 Y s
 1688 1471 m 13 Y s 1734 1471 m 13 Y s 1780 1471 m 13 Y s 1825 1459 m 25 Y s 1871 1471 m 13 Y s 1917 1471 m 13 Y s 1962 1471 m 13 Y s 2008 1459 m 25 Y s 2008 1459 m 25 Y s 2054 1471 m 13 Y s 2099 1471 m 13 Y s 2145 1471 m 13 Y s 363 634 m 850 Y s 390
 643 m -27 X s 390 667 m -27 X s 390 688 m -27 X s 390 706 m -27 X s 390 721 m -27 X s 417 735 m -54 X s 390 828 m -27 X s 390 881 m -27 X s 390 920 m -27 X s 390 949 m -27 X s 390 974 m -27 X s 390 994 m -27 X s 390 1012 m -27 X s 390 1028 m -27 X s
 417 1042 m -54 X s 390 1134 m -27 X s 390 1188 m -27 X s 390 1226 m -27 X s 390 1255 m -27 X s 390 1280 m -27 X s 390 1300 m -27 X s 390 1318 m -27 X s 390 1334 m -27 X s 417 1348 m -54 X s 390 1440 m -27 X s 2154 634 m 850 Y s 2127 643 m 27 X s
 2127 667 m 27 X s 2127 688 m 27 X s 2127 706 m 27 X s 2127 721 m 27 X s 2101 735 m 53 X s 2127 828 m 27 X s 2127 881 m 27 X s 2127 920 m 27 X s 2127 949 m 27 X s 2127 974 m 27 X s 2127 994 m 27 X s 2127 1012 m 27 X s 2127 1028 m 27 X s 2101 1042 m
 53 X s 2127 1134 m 27 X s 2127 1188 m 27 X s 2127 1226 m 27 X s 2127 1255 m 27 X s 2127 1280 m 27 X s 2127 1300 m 27 X s 2127 1318 m 27 X s 2127 1334 m 27 X s 2101 1348 m 53 X s 2127 1440 m 27 X s
 gsave  2268 1077 0 461 C 677.708 1215.31 t 0 r /Helvetica findfont 58.7189 sf 0 0 m (2mu2e) show NC gr  1 1 1 c 453 161 454 1269 bf black
 gsave  2268 1077 0 461 C 566.929 1371.71 t 0 r /Helvetica-Bold findfont 48.9324 sf 0 0 m (MC15) show NC gr  510 1390 m20
 gsave  2268 1077 0 461 C 566.929 1293.51 t 0 r /Helvetica-Bold findfont 48.9324 sf 0 0 m (Projection of Signal pdf) show NC gr  0 0 1 c 9 lw 471 1309 m 79 X s black 3 lw 1 1 1 c 2268 461 0 0 bf black 1 1 1 c 1791 364 363 74 bf black 1791 364 363 74
 bl 363 74 m 1791 X s
 gsave  2268 461 0 0 C 1915.83 13.0329 t 0 r /Helvetica findfont 22.9045 sf 0 0 m (4l Invariant Mass \(GeV\)) show NC gr  363 85 m -11 Y s 409 79 m -5 Y s 454 79 m -5 Y s 500 79 m -5 Y s 546 85 m -11 Y s 591 79 m -5 Y s 637 79 m -5 Y s 683 79 m -5 Y
 s 728 85 m -11 Y s 774 79 m -5 Y s 820 79 m -5 Y s 866 79 m -5 Y s 911 85 m -11 Y s 957 79 m -5 Y s 1003 79 m -5 Y s 1048 79 m -5 Y s 1094 85 m -11 Y s 1140 79 m -5 Y s 1185 79 m -5 Y s 1231 79 m -5 Y s 1277 85 m -11 Y s 1323 79 m -5 Y s 1368 79 m
 -5 Y s 1414 79 m -5 Y s 1460 85 m -11 Y s 1505 79 m -5 Y s 1551 79 m -5 Y s 1597 79 m -5 Y s 1642 85 m -11 Y s 1688 79 m -5 Y s 1734 79 m -5 Y s 1780 79 m -5 Y s 1825 85 m -11 Y s 1871 79 m -5 Y s 1917 79 m -5 Y s 1962 79 m -5 Y s 2008 85 m -11 Y s
 2008 85 m -11 Y s 2054 79 m -5 Y s 2099 79 m -5 Y s 2145 79 m -5 Y s
 gsave  2268 461 0 0 C 342.112 55.3896 t 0 r /Helvetica findfont 22.9045 sf 0 0 m (660) show NC gr 
 gsave  2268 461 0 0 C 524.572 55.3896 t 0 r /Helvetica findfont 22.9045 sf 0 0 m (680) show NC gr 
 gsave  2268 461 0 0 C 707.032 55.3896 t 0 r /Helvetica findfont 22.9045 sf 0 0 m (700) show NC gr 
 gsave  2268 461 0 0 C 889.492 55.3896 t 0 r /Helvetica findfont 22.9045 sf 0 0 m (720) show NC gr 
 gsave  2268 461 0 0 C 1071.95 55.3896 t 0 r /Helvetica findfont 22.9045 sf 0 0 m (740) show NC gr 
 gsave  2268 461 0 0 C 1254.41 55.3896 t 0 r /Helvetica findfont 22.9045 sf 0 0 m (760) show NC gr 
 gsave  2268 461 0 0 C 1436.87 55.3896 t 0 r /Helvetica findfont 22.9045 sf 0 0 m (780) show NC gr 
 gsave  2268 461 0 0 C 1622.59 55.3896 t 0 r /Helvetica findfont 22.9045 sf 0 0 m (800) show NC gr 
 gsave  2268 461 0 0 C 1805.05 55.3896 t 0 r /Helvetica findfont 22.9045 sf 0 0 m (820) show NC gr 
 gsave  2268 461 0 0 C 1987.51 55.3896 t 0 r /Helvetica findfont 22.9045 sf 0 0 m (840) show NC gr  363 438 m 1791 X s 363 427 m 11 Y s 409 433 m 5 Y s 454 433 m 5 Y s 500 433 m 5 Y s 546 427 m 11 Y s 591 433 m 5 Y s 637 433 m 5 Y s 683 433 m 5 Y s
 728 427 m 11 Y s 774 433 m 5 Y s 820 433 m 5 Y s 866 433 m 5 Y s 911 427 m 11 Y s 957 433 m 5 Y s 1003 433 m 5 Y s 1048 433 m 5 Y s 1094 427 m 11 Y s 1140 433 m 5 Y s 1185 433 m 5 Y s 1231 433 m 5 Y s 1277 427 m 11 Y s 1323 433 m 5 Y s 1368 433 m 5
 Y s 1414 433 m 5 Y s 1460 427 m 11 Y s 1505 433 m 5 Y s 1551 433 m 5 Y s 1597 433 m 5 Y s 1642 427 m 11 Y s 1688 433 m 5 Y s 1734 433 m 5 Y s 1780 433 m 5 Y s 1825 427 m 11 Y s 1871 433 m 5 Y s 1917 433 m 5 Y s 1962 433 m 5 Y s 2008 427 m 11 Y s
 2008 427 m 11 Y s 2054 433 m 5 Y s 2099 433 m 5 Y s 2145 433 m 5 Y s 363 74 m 364 Y s 417 74 m -54 X s 390 81 m -27 X s 390 88 m -27 X s 390 96 m -27 X s 390 103 m -27 X s 417 110 m -54 X s 390 118 m -27 X s 390 125 m -27 X s 390 132 m -27 X s 390
 139 m -27 X s 417 147 m -54 X s 390 154 m -27 X s 390 161 m -27 X s 390 169 m -27 X s 390 176 m -27 X s 417 183 m -54 X s 390 190 m -27 X s 390 198 m -27 X s 390 205 m -27 X s 390 212 m -27 X s 417 220 m -54 X s 390 227 m -27 X s 390 234 m -27 X s
 390 241 m -27 X s 390 249 m -27 X s 417 256 m -54 X s 390 263 m -27 X s 390 271 m -27 X s 390 278 m -27 X s 390 285 m -27 X s 417 293 m -54 X s 390 300 m -27 X s 390 307 m -27 X s 390 314 m -27 X s 390 322 m -27 X s 417 329 m -54 X s 390 336 m -27 X
 s 390 344 m -27 X s 390 351 m -27 X s 390 358 m -27 X s 417 365 m -54 X s 390 373 m -27 X s 390 380 m -27 X s 390 387 m -27 X s 390 395 m -27 X s 417 402 m -54 X s 390 409 m -27 X s 390 416 m -27 X s 390 424 m -27 X s 390 431 m -27 X s 417 438 m -54
 X s
 gsave  2268 461 0 0 C 329.08 65.1643 t 0 r /Helvetica findfont 22.9045 sf 0 0 m (\2555) show NC gr 
 gsave  2268 461 0 0 C 329.08 101.005 t 0 r /Helvetica findfont 22.9045 sf 0 0 m (\2554) show NC gr 
 gsave  2268 461 0 0 C 329.08 140.103 t 0 r /Helvetica findfont 22.9045 sf 0 0 m (\2553) show NC gr 
 gsave  2268 461 0 0 C 329.08 175.944 t 0 r /Helvetica findfont 22.9045 sf 0 0 m (\2552) show NC gr 
 gsave  2268 461 0 0 C 332.338 211.784 t 0 r /Helvetica findfont 22.9045 sf 0 0 m (\2551) show NC gr 
 gsave  2268 461 0 0 C 335.596 247.624 t 0 r /Helvetica findfont 22.9045 sf 0 0 m (0) show NC gr 
 gsave  2268 461 0 0 C 338.854 283.465 t 0 r /Helvetica findfont 22.9045 sf 0 0 m (1) show NC gr 
 gsave  2268 461 0 0 C 335.596 319.305 t 0 r /Helvetica findfont 22.9045 sf 0 0 m (2) show NC gr 
 gsave  2268 461 0 0 C 335.596 358.403 t 0 r /Helvetica findfont 22.9045 sf 0 0 m (3) show NC gr 
 gsave  2268 461 0 0 C 335.596 394.244 t 0 r /Helvetica findfont 22.9045 sf 0 0 m (4) show NC gr 
 gsave  2268 461 0 0 C 335.596 430.084 t 0 r /Helvetica findfont 22.9045 sf 0 0 m (5) show NC gr  2154 74 m 364 Y s 2101 74 m 53 X s 2127 81 m 27 X s 2127 88 m 27 X s 2127 96 m 27 X s 2127 103 m 27 X s 2101 110 m 53 X s 2127 118 m 27 X s 2127 125 m
 27 X s 2127 132 m 27 X s 2127 139 m 27 X s 2101 147 m 53 X s 2127 154 m 27 X s 2127 161 m 27 X s 2127 169 m 27 X s 2127 176 m 27 X s 2101 183 m 53 X s 2127 190 m 27 X s 2127 198 m 27 X s 2127 205 m 27 X s 2127 212 m 27 X s 2101 220 m 53 X s 2127 227
 m 27 X s 2127 234 m 27 X s 2127 241 m 27 X s 2127 249 m 27 X s 2101 256 m 53 X s 2127 263 m 27 X s 2127 271 m 27 X s 2127 278 m 27 X s 2127 285 m 27 X s 2101 293 m 53 X s 2127 300 m 27 X s 2127 307 m 27 X s 2127 314 m 27 X s 2127 322 m 27 X s 2101
 329 m 53 X s 2127 336 m 27 X s 2127 344 m 27 X s 2127 351 m 27 X s 2127 358 m 27 X s 2101 365 m 53 X s 2127 373 m 27 X s 2127 380 m 27 X s 2127 387 m 27 X s 2127 395 m 27 X s 2101 402 m 53 X s 2127 409 m 27 X s 2127 416 m 27 X s 2127 424 m 27 X s
 2127 431 m 27 X s 2101 438 m 53 X s 6 lw 0.2 0.8 0.2 c black 3 lw 0.2 0.8 0.2 c 363 256 m -44 Y 36 X 67 Y 35 X -43 Y 36 X -5 Y 36 X -6 Y 36 X 22 Y 36 X -45 Y 36 X -20 Y 35 X -82 Y 36 X 219 Y 36 X -107 Y 72 X 23 Y 36 X 72 Y 35 X -65 Y 36 X 27 Y 36 X
 9 Y 36 X -37 Y 36 X 48 Y 36 X 28 Y 35 X -84 Y 36 X 40 Y 36 X -19 Y 36 X -23 Y 36 X -3 Y 36 X 31 Y 35 X -52 Y 36 X 38 Y 36 X -1 Y 36 X 41 Y 36 X 33 Y 36 X -14 Y 35 X -87 Y 36 X 24 Y 36 X -53 Y 36 X 45 Y 36 X 68 Y 36 X -83 Y 35 X 80 Y 36 X 3 Y 36 X -3
 Y 36 X 24 Y 36 X -54 Y 36 X -69 Y 35 X 27 Y 36 X 51 Y 36 X -10 Y 36 X 38 Y 36 X -44 Y 36 X 57 Y 35 X -62 Y f 6 lw black 0.2 0.8 0.2 c black 363 212 m 36 X 67 Y 35 X -43 Y 36 X -5 Y 36 X -6 Y 36 X 22 Y 36 X -45 Y 36 X -20 Y 35 X -82 Y 36 X 219 Y 36 X
 -107 Y 72 X 23 Y 36 X 72 Y 35 X -65 Y 36 X 27 Y 36 X 9 Y 36 X -37 Y 36 X 48 Y 36 X 28 Y 35 X -84 Y 36 X 40 Y 36 X -19 Y 36 X -23 Y 36 X -3 Y 36 X 31 Y 35 X -52 Y 36 X 38 Y 36 X -1 Y 36 X 41 Y 36 X 33 Y 36 X -14 Y 35 X -87 Y 36 X 24 Y 36 X -53 Y 36 X
 45 Y 36 X 68 Y 36 X -83 Y 35 X 80 Y 36 X 3 Y 36 X -3 Y 36 X 24 Y 36 X -54 Y 36 X -69 Y 35 X 27 Y 36 X 51 Y 36 X -10 Y 36 X 38 Y 36 X -44 Y 36 X 57 Y 35 X s 3 lw 363 74 m 1791 X s 363 85 m -11 Y s 409 79 m -5 Y s 454 79 m -5 Y s 500 79 m -5 Y s 546
 85 m -11 Y s 591 79 m -5 Y s 637 79 m -5 Y s 683 79 m -5 Y s 728 85 m -11 Y s 774 79 m -5 Y s 820 79 m -5 Y s 866 79 m -5 Y s 911 85 m -11 Y s 957 79 m -5 Y s 1003 79 m -5 Y s 1048 79 m -5 Y s 1094 85 m -11 Y s 1140 79 m -5 Y s 1185 79 m -5 Y s 1231
 79 m -5 Y s 1277 85 m -11 Y s 1323 79 m -5 Y s 1368 79 m -5 Y s 1414 79 m -5 Y s 1460 85 m -11 Y s 1505 79 m -5 Y s 1551 79 m -5 Y s 1597 79 m -5 Y s 1642 85 m -11 Y s 1688 79 m -5 Y s 1734 79 m -5 Y s 1780 79 m -5 Y s 1825 85 m -11 Y s 1871 79 m -5
 Y s 1917 79 m -5 Y s 1962 79 m -5 Y s 2008 85 m -11 Y s 2008 85 m -11 Y s 2054 79 m -5 Y s 2099 79 m -5 Y s 2145 79 m -5 Y s 363 438 m 1791 X s 363 427 m 11 Y s 409 433 m 5 Y s 454 433 m 5 Y s 500 433 m 5 Y s 546 427 m 11 Y s 591 433 m 5 Y s 637 433
 m 5 Y s 683 433 m 5 Y s 728 427 m 11 Y s 774 433 m 5 Y s 820 433 m 5 Y s 866 433 m 5 Y s 911 427 m 11 Y s 957 433 m 5 Y s 1003 433 m 5 Y s 1048 433 m 5 Y s 1094 427 m 11 Y s 1140 433 m 5 Y s 1185 433 m 5 Y s 1231 433 m 5 Y s 1277 427 m 11 Y s 1323
 433 m 5 Y s 1368 433 m 5 Y s 1414 433 m 5 Y s 1460 427 m 11 Y s 1505 433 m 5 Y s 1551 433 m 5 Y s 1597 433 m 5 Y s 1642 427 m 11 Y s 1688 433 m 5 Y s 1734 433 m 5 Y s 1780 433 m 5 Y s 1825 427 m 11 Y s 1871 433 m 5 Y s 1917 433 m 5 Y s 1962 433 m 5
 Y s 2008 427 m 11 Y s 2008 427 m 11 Y s 2054 433 m 5 Y s 2099 433 m 5 Y s 2145 433 m 5 Y s 363 74 m 364 Y s 417 74 m -54 X s 390 81 m -27 X s 390 88 m -27 X s 390 96 m -27 X s 390 103 m -27 X s 417 110 m -54 X s 390 118 m -27 X s 390 125 m -27 X s
 390 132 m -27 X s 390 139 m -27 X s 417 147 m -54 X s 390 154 m -27 X s 390 161 m -27 X s 390 169 m -27 X s 390 176 m -27 X s 417 183 m -54 X s 390 190 m -27 X s 390 198 m -27 X s 390 205 m -27 X s 390 212 m -27 X s 417 220 m -54 X s 390 227 m -27 X
 s 390 234 m -27 X s 390 241 m -27 X s 390 249 m -27 X s 417 256 m -54 X s 390 263 m -27 X s 390 271 m -27 X s 390 278 m -27 X s 390 285 m -27 X s 417 293 m -54 X s 390 300 m -27 X s 390 307 m -27 X s 390 314 m -27 X s 390 322 m -27 X s 417 329 m -54
 X s 390 336 m -27 X s 390 344 m -27 X s 390 351 m -27 X s 390 358 m -27 X s 417 365 m -54 X s 390 373 m -27 X s 390 380 m -27 X s 390 387 m -27 X s 390 395 m -27 X s 417 402 m -54 X s 390 409 m -27 X s 390 416 m -27 X s 390 424 m -27 X s 390 431 m
 -27 X s 417 438 m -54 X s 2154 74 m 364 Y s 2101 74 m 53 X s 2127 81 m 27 X s 2127 88 m 27 X s 2127 96 m 27 X s 2127 103 m 27 X s 2101 110 m 53 X s 2127 118 m 27 X s 2127 125 m 27 X s 2127 132 m 27 X s 2127 139 m 27 X s 2101 147 m 53 X s 2127 154 m
 27 X s 2127 161 m 27 X s 2127 169 m 27 X s 2127 176 m 27 X s 2101 183 m 53 X s 2127 190 m 27 X s 2127 198 m 27 X s 2127 205 m 27 X s 2127 212 m 27 X s 2101 220 m 53 X s 2127 227 m 27 X s 2127 234 m 27 X s 2127 241 m 27 X s 2127 249 m 27 X s 2101 256
 m 53 X s 2127 263 m 27 X s 2127 271 m 27 X s 2127 278 m 27 X s 2127 285 m 27 X s 2101 293 m 53 X s 2127 300 m 27 X s 2127 307 m 27 X s 2127 314 m 27 X s 2127 322 m 27 X s 2101 329 m 53 X s 2127 336 m 27 X s 2127 344 m 27 X s 2127 351 m 27 X s 2127
 358 m 27 X s 2101 365 m 53 X s 2127 373 m 27 X s 2127 380 m 27 X s 2127 387 m 27 X s 2127 395 m 27 X s 2101 402 m 53 X s 2127 409 m 27 X s 2127 416 m 27 X s 2127 424 m 27 X s 2127 431 m 27 X s 2101 438 m 53 X s
 gr  gr showpage
end
%%EOF
