%!PS-Adobe-2.0 EPSF-2.0
%%BoundingBox:  0 0 567 384
%%Title: H4l2015_plotfit/gg_mass_signal_1000_H4l_4mu.eps: 
%%Creator: ROOT Version 5.34/10
%%CreationDate: Thu Feb 16 12:42:27 2017
%%EndComments
%%BeginProlog
80 dict begin
/s {stroke} def /l {lineto} def /m {moveto} def /t {translate} def
/r {rotate} def /rl {roll}  def /R {repeat} def
/d {rlineto} def /rm {rmoveto} def /gr {grestore} def /f {eofill} def
/c {setrgbcolor} def /black {0 setgray} def /sd {setdash} def
/cl {closepath} def /sf {scalefont setfont} def /lw {setlinewidth} def
/box {m dup 0 exch d exch 0 d 0 exch neg d cl} def
/NC{systemdict begin initclip end}def/C{NC box clip newpath}def
/bl {box s} def /bf {box f} def /Y { 0 exch d} def /X { 0 d} def 
/K {{pop pop 0 moveto} exch kshow} bind def
/ita {/ang 15 def gsave [1 0 ang dup sin exch cos div 1 0 0] concat} def 
/mp {newpath /y exch def /x exch def} def
/side {[w .77 mul w .23 mul] .385 w mul sd w 0 l currentpoint t -144 r} def
/mr {mp x y w2 0 360 arc} def /m24 {mr s} def /m20 {mr f} def
/mb {mp x y w2 add m w2 neg 0 d 0 w neg d w 0 d 0 w d cl} def
/mt {mp x y w2 add m w2 neg w neg d w 0 d cl} def
/m21 {mb f} def /m25 {mb s} def /m22 {mt f} def /m26{mt s} def
/m23 {mp x y w2 sub m w2 w d w neg 0 d cl f} def
/m27 {mp x y w2 add m w3 neg w2 neg d w3 w2 neg d w3 w2 d cl s} def
/m28 {mp x w2 sub y w2 sub w3 add m w3 0 d  0 w3 neg d w3 0 d 0 w3 d w3 0 d  0 w3 d w3 neg 0 d 0 w3 d w3 neg 0 d 0 w3 neg d w3 neg 0 d cl s } def
/m29 {mp gsave x w2 sub y w2 add w3 sub m currentpoint t 4 {side} repeat cl fill gr} def
/m30 {mp gsave x w2 sub y w2 add w3 sub m currentpoint t 4 {side} repeat cl s gr} def
/m31 {mp x y w2 sub m 0 w d x w2 sub y m w 0 d x w2 sub y w2 add m w w neg d x w2 sub y w2 sub m w w d s} def
/m32 {mp x y w2 sub m w2 w d w neg 0 d cl s} def
/m33 {mp x y w2 add m w3 neg w2 neg d w3 w2 neg d w3 w2 d cl f} def
/m34 {mp x w2 sub y w2 sub w3 add m w3 0 d  0 w3 neg d w3 0 d 0 w3 d w3 0 d  0 w3 d w3 neg 0 d 0 w3 d w3 neg 0 d 0 w3 neg d w3 neg 0 d cl f } def
/m2 {mp x y w2 sub m 0 w d x w2 sub y m w 0 d s} def
/m5 {mp x w2 sub y w2 sub m w w d x w2 sub y w2 add m w w neg d s} def
/reEncode {exch findfont dup length dict begin {1 index /FID eq  {pop pop} {def} ifelse } forall /Encoding exch def currentdict end dup /FontName get exch definefont pop } def [/Times-Bold /Times-Italic /Times-BoldItalic /Helvetica /Helvetica-Oblique
 /Helvetica-Bold /Helvetica-BoldOblique /Courier /Courier-Oblique /Courier-Bold /Courier-BoldOblique /Times-Roman /AvantGarde-Book /AvantGarde-BookOblique /AvantGarde-Demi /AvantGarde-DemiOblique /Bookman-Demi /Bookman-DemiItalic /Bookman-Light
 /Bookman-LightItalic /Helvetica-Narrow /Helvetica-Narrow-Bold /Helvetica-Narrow-BoldOblique /Helvetica-Narrow-Oblique /NewCenturySchlbk-Roman /NewCenturySchlbk-Bold /NewCenturySchlbk-BoldItalic /NewCenturySchlbk-Italic /Palatino-Bold
 /Palatino-BoldItalic /Palatino-Italic /Palatino-Roman ] {ISOLatin1Encoding reEncode } forall
%%EndProlog
%%BeginSetup
%%EndSetup
newpath  gsave  .25 .25 scale  gsave  0 0 t black[  ] 0 sd 3 lw 1 1 1 c 2268 1538 0 0 bf black 1 1 1 c 2222 738 23 784 bf black 1 1 1 c 2222 739 23 15 bf black 1 1 1 c 2268 1077 0 461 bf black 1 1 1 c 1791 850 363 634 bf black 1791 850 363 634 bl 363
 634 m 1791 X s
 gsave  2268 1077 0 461 C 1642.14 498.507 t 0 r /Helvetica findfont 48.9324 sf 0 0 m (4l Invariant Mass \(GeV\)) show NC gr  406 659 m -25 Y s 449 646 m -12 Y s 492 646 m -12 Y s 535 646 m -12 Y s 578 659 m -25 Y s 621 646 m -12 Y s 664 646 m -12 Y s
 707 646 m -12 Y s 750 659 m -25 Y s 793 646 m -12 Y s 837 646 m -12 Y s 880 646 m -12 Y s 923 659 m -25 Y s 966 646 m -12 Y s 1009 646 m -12 Y s 1052 646 m -12 Y s 1095 659 m -25 Y s 1138 646 m -12 Y s 1181 646 m -12 Y s 1224 646 m -12 Y s 1267 659
 m -25 Y s 1310 646 m -12 Y s 1353 646 m -12 Y s 1396 646 m -12 Y s 1439 659 m -25 Y s 1483 646 m -12 Y s 1526 646 m -12 Y s 1569 646 m -12 Y s 1612 659 m -25 Y s 1655 646 m -12 Y s 1698 646 m -12 Y s 1741 646 m -12 Y s 1784 659 m -25 Y s 1827 646 m
 -12 Y s 1870 646 m -12 Y s 1913 646 m -12 Y s 1956 659 m -25 Y s 1999 646 m -12 Y s 2042 646 m -12 Y s 2085 646 m -12 Y s 2128 659 m -25 Y s 406 659 m -25 Y s 363 646 m -12 Y s 2128 659 m -25 Y s
 gsave  2268 1077 0 461 C 361.662 586.478 t 0 r /Helvetica findfont 48.9324 sf 0 0 m (860) show NC gr 
 gsave  2268 1077 0 461 C 534.347 586.478 t 0 r /Helvetica findfont 48.9324 sf 0 0 m (880) show NC gr 
 gsave  2268 1077 0 461 C 707.032 586.478 t 0 r /Helvetica findfont 48.9324 sf 0 0 m (900) show NC gr 
 gsave  2268 1077 0 461 C 879.718 586.478 t 0 r /Helvetica findfont 48.9324 sf 0 0 m (920) show NC gr 
 gsave  2268 1077 0 461 C 1052.4 586.478 t 0 r /Helvetica findfont 48.9324 sf 0 0 m (940) show NC gr 
 gsave  2268 1077 0 461 C 1221.83 586.478 t 0 r /Helvetica findfont 48.9324 sf 0 0 m (960) show NC gr 
 gsave  2268 1077 0 461 C 1394.52 586.478 t 0 r /Helvetica findfont 48.9324 sf 0 0 m (980) show NC gr 
 gsave  2268 1077 0 461 C 1554.17 586.478 t 0 r /Helvetica findfont 48.9324 sf 0 0 m (1000) show NC gr 
 gsave  2268 1077 0 461 C 1726.85 586.478 t 0 r /Helvetica findfont 48.9324 sf 0 0 m (1020) show NC gr 
 gsave  2268 1077 0 461 C 1899.54 586.478 t 0 r /Helvetica findfont 48.9324 sf 0 0 m (1040) show NC gr 
 gsave  2268 1077 0 461 C 2072.22 586.478 t 0 r /Helvetica findfont 48.9324 sf 0 0 m (1060) show NC gr  363 1484 m 1791 X s 406 1459 m 25 Y s 449 1471 m 13 Y s 492 1471 m 13 Y s 535 1471 m 13 Y s 578 1459 m 25 Y s 621 1471 m 13 Y s 664 1471 m 13 Y s
 707 1471 m 13 Y s 750 1459 m 25 Y s 793 1471 m 13 Y s 837 1471 m 13 Y s 880 1471 m 13 Y s 923 1459 m 25 Y s 966 1471 m 13 Y s 1009 1471 m 13 Y s 1052 1471 m 13 Y s 1095 1459 m 25 Y s 1138 1471 m 13 Y s 1181 1471 m 13 Y s 1224 1471 m 13 Y s 1267 1459
 m 25 Y s 1310 1471 m 13 Y s 1353 1471 m 13 Y s 1396 1471 m 13 Y s 1439 1459 m 25 Y s 1483 1471 m 13 Y s 1526 1471 m 13 Y s 1569 1471 m 13 Y s 1612 1459 m 25 Y s 1655 1471 m 13 Y s 1698 1471 m 13 Y s 1741 1471 m 13 Y s 1784 1459 m 25 Y s 1827 1471 m
 13 Y s 1870 1471 m 13 Y s 1913 1471 m 13 Y s 1956 1459 m 25 Y s 1999 1471 m 13 Y s 2042 1471 m 13 Y s 2085 1471 m 13 Y s 2128 1459 m 25 Y s 406 1459 m 25 Y s 363 1471 m 13 Y s 2128 1459 m 25 Y s 363 634 m 850 Y s
 gsave  2268 1077 0 461 C 120.554 1032.85 t 90 r /Helvetica findfont 48.9324 sf 0 0 m (Events / \( 4.16 GeV \)) show NC gr  390 681 m -27 X s 390 721 m -27 X s 390 752 m -27 X s 390 778 m -27 X s 390 799 m -27 X s 390 818 m -27 X s 390 834 m -27 X s
 417 849 m -54 X s
 gsave  2268 1077 0 461 C 342.425 828.051 t 0 r  -55 0 t /Helvetica findfont 48.9324 sf 0 0 m (10) show NC gr  390 945 m -27 X s 390 1002 m -27 X s 390 1042 m -27 X s 390 1073 m -27 X s 390 1098 m -27 X s 390 1120 m -27 X s 390 1138 m -27 X s 390
 1155 m -27 X s 417 1169 m -54 X s
 gsave  2268 1077 0 461 C 322.563 1166.44 t 0 r /Helvetica findfont 32.6216 sf 0 0 m (2) show NC gr 
 gsave  2268 1077 0 461 C 270.432 1146.89 t 0 r /Helvetica findfont 48.9324 sf 0 0 m (10) show NC gr  390 1266 m -27 X s 390 1322 m -27 X s 390 1362 m -27 X s 390 1393 m -27 X s 390 1419 m -27 X s 390 1440 m -27 X s 390 1459 m -27 X s 390 1475 m -27
 X s 2154 634 m 850 Y s 2127 681 m 27 X s 2127 721 m 27 X s 2127 752 m 27 X s 2127 778 m 27 X s 2127 799 m 27 X s 2127 818 m 27 X s 2127 834 m 27 X s 2101 849 m 53 X s 2127 945 m 27 X s 2127 1002 m 27 X s 2127 1042 m 27 X s 2127 1073 m 27 X s 2127
 1098 m 27 X s 2127 1120 m 27 X s 2127 1138 m 27 X s 2127 1155 m 27 X s 2101 1169 m 53 X s 2127 1266 m 27 X s 2127 1322 m 27 X s 2127 1362 m 27 X s 2127 1393 m 27 X s 2127 1419 m 27 X s 2127 1440 m 27 X s 2127 1459 m 27 X s 2127 1475 m 27 X s 381 938
 m -18 X s 363 938 m cl s 381 938 m 18 X s 399 938 m cl s 381 938 m 35 Y s 381 973 m cl s 381 938 m -36 Y s 381 902 m cl s 417 896 m -18 X s 399 896 m cl s 417 896 m 17 X s 434 896 m cl s 417 896 m 41 Y s 417 937 m cl s 417 896 m -43 Y s 417 853 m cl
 s 452 885 m -18 X s 434 885 m cl s 452 885 m 18 X s 470 885 m cl s 452 885 m 43 Y s 452 928 m cl s 452 885 m -44 Y s 452 841 m cl s 488 896 m -18 X s 470 896 m cl s 488 896 m 18 X s 506 896 m cl s 488 896 m 41 Y s 488 937 m cl s 488 896 m -43 Y s
 488 853 m cl s 524 862 m -18 X s 506 862 m cl s 524 862 m 18 X s 542 862 m cl s 524 862 m 47 Y s 524 909 m cl s 524 862 m -49 Y s 524 813 m cl s 560 938 m -18 X s 542 938 m cl s 560 938 m 18 X s 578 938 m cl s 560 938 m 35 Y s 560 973 m cl s 560 938
 m -36 Y s 560 902 m cl s 596 914 m -18 X s 578 914 m cl s 596 914 m 18 X s 614 914 m cl s 596 914 m 39 Y s 596 953 m cl s 596 914 m -39 Y s 596 875 m cl s 632 896 m -18 X s 614 896 m cl s 632 896 m 17 X s 649 896 m cl s 632 896 m 41 Y s 632 937 m cl
 s 632 896 m -43 Y s 632 853 m cl s 667 885 m -18 X s 649 885 m cl s 667 885 m 18 X s 685 885 m cl s 667 885 m 43 Y s 667 928 m cl s 667 885 m -44 Y s 667 841 m cl s 703 982 m -18 X s 685 982 m cl s 703 982 m 18 X s 721 982 m cl s 703 982 m 30 Y s
 703 1012 m cl s 703 982 m -30 Y s 703 952 m cl s 739 982 m -18 X s 721 982 m cl s 739 982 m 18 X s 757 982 m cl s 739 982 m 30 Y s 739 1012 m cl s 739 982 m -30 Y s 739 952 m cl s 775 945 m -18 X s 757 945 m cl s 775 945 m 18 X s 793 945 m cl s 775
 945 m 34 Y s 775 979 m cl s 775 945 m -35 Y s 775 910 m cl s 811 952 m -18 X s 793 952 m cl s 811 952 m 18 X s 829 952 m cl s 811 952 m 33 Y s 811 985 m cl s 811 952 m -34 Y s 811 918 m cl s 847 1019 m -18 X s 829 1019 m cl s 847 1019 m 17 X s 864
 1019 m cl s 847 1019 m 26 Y s 847 1045 m cl s 847 1019 m -26 Y s 847 993 m cl s 882 965 m -18 X s 864 965 m cl s 882 965 m 18 X s 900 965 m cl s 882 965 m 31 Y s 882 996 m cl s 882 965 m -32 Y s 882 933 m cl s 918 1038 m -18 X s 900 1038 m cl s 918
 1038 m 18 X s 936 1038 m cl s 918 1038 m 24 Y s 918 1062 m cl s 918 1038 m -24 Y s 918 1014 m cl s 954 1011 m -18 X s 936 1011 m cl s 954 1011 m 18 X s 972 1011 m cl s 954 1011 m 26 Y s 954 1037 m cl s 954 1011 m -27 Y s 954 984 m cl s 990 1073 m
 -18 X s 972 1073 m cl s 990 1073 m 18 X s 1008 1073 m cl s 990 1073 m 21 Y s 990 1094 m cl s 990 1073 m -21 Y s 990 1052 m cl s 1026 1096 m -18 X s 1008 1096 m cl s 1026 1096 m 18 X s 1044 1096 m cl s 1026 1096 m 19 Y s 1026 1115 m cl s 1026 1096 m
 -19 Y s 1026 1077 m cl s 1062 1094 m -18 X s 1044 1094 m cl s 1062 1094 m 17 X s 1079 1094 m cl s 1062 1094 m 19 Y s 1062 1113 m cl s 1062 1094 m -20 Y s 1062 1074 m cl s 1097 1122 m -18 X s 1079 1122 m cl s 1097 1122 m 18 X s 1115 1122 m cl s 1097
 1122 m 17 Y s 1097 1139 m cl s 1097 1122 m -18 Y s 1097 1104 m cl s 1133 1158 m -18 X s 1115 1158 m cl s 1133 1158 m 18 X s 1151 1158 m cl s 1133 1158 m 15 Y s 1133 1173 m cl s 1133 1158 m -15 Y s 1133 1143 m cl s 1169 1172 m -18 X s 1151 1172 m cl
 s 1169 1172 m 18 X s 1187 1172 m cl s 1169 1172 m 14 Y s 1169 1186 m cl s 1169 1172 m -14 Y s 1169 1158 m cl s 1205 1204 m -18 X s 1187 1204 m cl s 1205 1204 m 18 X s 1223 1204 m cl s 1205 1204 m 12 Y s 1205 1216 m cl s 1205 1204 m -12 Y s 1205 1192
 m cl s 1241 1225 m -18 X s 1223 1225 m cl s 1241 1225 m 18 X s 1259 1225 m cl s 1241 1225 m 11 Y s 1241 1236 m cl s 1241 1225 m -11 Y s 1241 1214 m cl s 1276 1237 m -17 X s 1259 1237 m cl s 1276 1237 m 18 X s 1294 1237 m cl s 1276 1237 m 11 Y s 1276
 1248 m cl s 1276 1237 m -10 Y s 1276 1227 m cl s 1312 1257 m -18 X s 1294 1257 m cl s 1312 1257 m 18 X s 1330 1257 m cl s 1312 1257 m 10 Y s 1312 1267 m cl s 1312 1257 m -11 Y s 1312 1246 m cl s 1348 1266 m -18 X s 1330 1266 m cl s 1348 1266 m 18 X
 s 1366 1266 m cl s 1348 1266 m 10 Y s 1348 1276 m cl s 1348 1266 m -10 Y s 1348 1256 m cl s 1384 1294 m -18 X s 1366 1294 m cl s 1384 1294 m 18 X s 1402 1294 m cl s 1384 1294 m 9 Y s 1384 1303 m cl s 1384 1294 m -9 Y s 1384 1285 m cl s 1420 1339 m
 -18 X s 1402 1339 m cl s 1420 1339 m 18 X s 1438 1339 m cl s 1420 1339 m 8 Y s 1420 1347 m cl s 1420 1339 m -7 Y s 1420 1332 m cl s 1456 1360 m -18 X s 1438 1360 m cl s 1456 1360 m 18 X s 1474 1360 m cl s 1456 1360 m 7 Y s 1456 1367 m cl s 1456 1360
 m -7 Y s 1456 1353 m cl s 1491 1381 m -17 X s 1474 1381 m cl s 1491 1381 m 18 X s 1509 1381 m cl s 1491 1381 m 6 Y s 1491 1387 m cl s 1491 1381 m -7 Y s 1491 1374 m cl s 1527 1390 m -18 X s 1509 1390 m cl s 1527 1390 m 18 X s 1545 1390 m cl s 1527
 1390 m 6 Y s 1527 1396 m cl s 1527 1390 m -7 Y s 1527 1383 m cl s 1563 1410 m -18 X s 1545 1410 m cl s 1563 1410 m 18 X s 1581 1410 m cl s 1563 1410 m 5 Y s 1563 1415 m cl s 1563 1410 m -6 Y s 1563 1404 m cl s 1599 1402 m -18 X s 1581 1402 m cl s
 1599 1402 m 18 X s 1617 1402 m cl s 1599 1402 m 6 Y s 1599 1408 m cl s 1599 1402 m -6 Y s 1599 1396 m cl s 1635 1407 m -18 X s 1617 1407 m cl s 1635 1407 m 18 X s 1653 1407 m cl s 1635 1407 m 6 Y s 1635 1413 m cl s 1635 1407 m -6 Y s 1635 1401 m cl
 s 1671 1378 m -18 X s 1653 1378 m cl s 1671 1378 m 18 X s 1689 1378 m cl s 1671 1378 m 6 Y s 1671 1384 m cl s 1671 1378 m -7 Y s 1671 1371 m cl s 1706 1355 m -17 X s 1689 1355 m cl s 1706 1355 m 18 X s 1724 1355 m cl s 1706 1355 m 7 Y s 1706 1362 m
 cl s 1706 1355 m -8 Y s 1706 1347 m cl s 1742 1335 m -18 X s 1724 1335 m cl s 1742 1335 m 18 X s 1760 1335 m cl s 1742 1335 m 7 Y s 1742 1342 m cl s 1742 1335 m -8 Y s 1742 1327 m cl s 1778 1311 m -18 X s 1760 1311 m cl s 1778 1311 m 18 X s 1796
 1311 m cl s 1778 1311 m 9 Y s 1778 1320 m cl s 1778 1311 m -8 Y s 1778 1303 m cl s 1814 1267 m -18 X s 1796 1267 m cl s 1814 1267 m 18 X s 1832 1267 m cl s 1814 1267 m 10 Y s 1814 1277 m cl s 1814 1267 m -9 Y s 1814 1258 m cl s 1850 1229 m -18 X s
 1832 1229 m cl s 1850 1229 m 18 X s 1868 1229 m cl s 1850 1229 m 11 Y s 1850 1240 m cl s 1850 1229 m -12 Y s 1850 1217 m cl s 1886 1207 m -18 X s 1868 1207 m cl s 1886 1207 m 18 X s 1904 1207 m cl s 1886 1207 m 12 Y s 1886 1219 m cl s 1886 1207 m
 -12 Y s 1886 1195 m cl s 1921 1181 m -17 X s 1904 1181 m cl s 1921 1181 m 18 X s 1939 1181 m cl s 1921 1181 m 14 Y s 1921 1195 m cl s 1921 1181 m -13 Y s 1921 1168 m cl s 1957 1109 m -18 X s 1939 1109 m cl s 1957 1109 m 18 X s 1975 1109 m cl s 1957
 1109 m 19 Y s 1957 1128 m cl s 1957 1109 m -18 Y s 1957 1091 m cl s 1993 1086 m -18 X s 1975 1086 m cl s 1993 1086 m 18 X s 2011 1086 m cl s 1993 1086 m 20 Y s 1993 1106 m cl s 1993 1086 m -20 Y s 1993 1066 m cl s 2029 1045 m -18 X s 2011 1045 m cl
 s 2029 1045 m 18 X s 2047 1045 m cl s 2029 1045 m 24 Y s 2029 1069 m cl s 2029 1045 m -23 Y s 2029 1022 m cl s 2065 1027 m -18 X s 2047 1027 m cl s 2065 1027 m 18 X s 2083 1027 m cl s 2065 1027 m 25 Y s 2065 1052 m cl s 2065 1027 m -25 Y s 2065 1002
 m cl s 2101 997 m -18 X s 2083 997 m cl s 2101 997 m 18 X s 2119 997 m cl s 2101 997 m 28 Y s 2101 1025 m cl s 2101 997 m -28 Y s 2101 969 m cl s 2136 987 m -17 X s 2119 987 m cl s 2136 987 m 18 X s 2154 987 m cl s 2136 987 m 29 Y s 2136 1016 m cl s
 2136 987 m -29 Y s 2136 958 m cl s /w 31 def /w2 {w 2 div} def /w3 {w 3 div} def 381 938 417 896 452 885 488 896 524 862 560 938 596 914 632 896 667 885 703 982 739 982 775 945 811 952 847 1019 882 965 918 1038 954 1011 990 1073 1026 1096 1062 1094
 1097 1122 1133 1158 1169 1172 1205 1204 1241 1225 1276 1237 1312 1257 1348 1266 1384 1294 1420 1339 1456 1360 1491 1381 1527 1390 1563 1410 1599 1402 1635 1407 1671 1378 1706 1355 1742 1335 1778 1311 1814 1267 1850 1229 1886 1207 1921 1181 1957 1109
 1993 1086 2029 1045 2065 1027 2101 997 2136 987 50 { m20} R 0 1 1 c 1 1 0 c black 1 1 0 c 363 865 m 36 10 d 35 10 d 36 10 d 36 11 d 36 11 d 36 11 d 36 12 d 35 11 d 36 12 d 36 13 d 36 12 d 36 13 d 36 14 d 35 13 d 36 15 d 36 14 d 36 15 d 36 16 d 36 16
 d 35 17 d 36 18 d 36 19 d 36 20 d 36 21 d 18 10 d 18 12 d 17 11 d 18 12 d 18 13 d 18 14 d 18 14 d 18 13 d 18 14 d 18 14 d 18 14 d 18 14 d 36 23 d 17 10 d 18 9 d 9 4 d 9 4 d 9 3 d 9 3 d 9 2 d 9 2 d 27 X 9 -2 d 9 -2 d 9 -2 d 9 -3 d 9 -4 d 9 -4 d 9 -4
 d 18 -10 d 18 -10 d 17 -12 d 18 -13 d 18 -14 d 18 -14 d 18 -14 d 18 -14 d 18 -13 d 18 -14 d 18 -14 d 18 -15 d 18 -15 d 18 -16 d 35 -33 d 36 -35 d 36 -37 d 36 -40 d 36 -43 d 36 -46 d 35 -50 d -72 Y -35 62 d -36 58 d -36 53 d -36 49 d -36 44 d -36 39
 d -35 35 d -18 16 d -18 16 d -18 15 d -18 15 d -18 14 d -18 14 d -18 14 d -18 14 d -18 14 d -18 13 d -18 14 d -17 13 d -18 12 d -18 11 d -9 4 d -9 4 d -9 3 d -9 3 d -9 2 d -9 1 d -9 1 d -9 1 d -9 X -9 -1 d -9 -1 d -9 -1 d -9 -2 d -9 -3 d -9 -3 d -9
 -4 d -18 -10 d -17 -12 d -36 -26 d -18 -14 d -18 -14 d -18 -13 d -18 -14 d -18 -15 d -18 -14 d -18 -13 d -18 -13 d -18 -12 d -17 -12 d -18 -11 d -18 -11 d -36 -20 d -36 -19 d -36 -19 d -36 -18 d -35 -18 d -36 -18 d -36 -17 d -36 -16 d -36 -16 d -36
 -16 d -35 -15 d -36 -14 d -36 -14 d -36 -14 d -36 -14 d -36 -13 d -35 -13 d -36 -12 d -36 -12 d -36 -12 d -36 -12 d -36 -11 d -35 -11 d -36 -11 d f 0 1 1 c 0 1 0 c black 0 1 0 c 363 857 m 36 10 d 35 10 d 36 11 d 36 11 d 36 11 d 36 11 d 36 12 d 35 12
 d 36 12 d 36 13 d 36 13 d 36 13 d 36 13 d 35 14 d 36 15 d 36 15 d 36 15 d 36 16 d 36 17 d 35 17 d 36 18 d 36 19 d 36 20 d 36 20 d 18 11 d 18 11 d 17 12 d 18 12 d 18 13 d 18 13 d 18 14 d 18 14 d 18 14 d 18 14 d 18 14 d 18 13 d 36 24 d 17 11 d 18 9 d
 9 4 d 9 4 d 9 3 d 9 2 d 9 2 d 9 2 d 27 X 9 -1 d 9 -2 d 9 -3 d 9 -3 d 9 -3 d 9 -4 d 9 -4 d 18 -10 d 18 -11 d 17 -12 d 18 -13 d 18 -14 d 18 -14 d 18 -14 d 18 -14 d 18 -14 d 18 -14 d 18 -14 d 18 -15 d 18 -15 d 18 -16 d 35 -33 d 36 -36 d 36 -39 d 36 -42
 d 36 -45 d 36 -48 d 35 -51 d -36 Y -35 58 d -36 53 d -36 51 d -36 46 d -36 42 d -36 38 d -35 34 d -18 16 d -18 16 d -18 15 d -18 14 d -18 15 d -18 14 d -18 14 d -18 13 d -18 14 d -18 14 d -18 13 d -17 13 d -18 12 d -18 10 d -9 5 d -9 3 d -9 4 d -9 2
 d -9 3 d -9 1 d -9 1 d -9 1 d -9 X -9 -1 d -9 -1 d -9 -2 d -9 -2 d -9 -3 d -9 -3 d -9 -4 d -18 -10 d -17 -11 d -36 -26 d -18 -13 d -18 -14 d -18 -14 d -18 -14 d -18 -14 d -18 -14 d -18 -14 d -18 -12 d -18 -13 d -17 -11 d -18 -11 d -18 -11 d -36 -20
 d -36 -20 d -36 -19 d -36 -18 d -35 -18 d -36 -17 d -36 -16 d -36 -16 d -36 -16 d -36 -15 d -35 -15 d -36 -14 d -36 -14 d -36 -13 d -36 -13 d -36 -13 d -35 -13 d -36 -12 d -36 -12 d -36 -11 d -36 -12 d -36 -11 d -35 -10 d -36 -11 d f 0 0 1 c 9 lw
 black 0 0 1 c 363 848 m 36 10 d 35 11 d 36 11 d 36 11 d 36 11 d 36 12 d 36 12 d 35 12 d 36 12 d 36 13 d 36 13 d 36 14 d 36 14 d 35 14 d 36 15 d 36 15 d 36 16 d 36 16 d 36 17 d 35 18 d 36 18 d 36 19 d 36 19 d 36 21 d 18 10 d 18 11 d 17 12 d 18 12 d
 18 13 d 18 14 d 18 14 d 18 14 d 18 14 d 18 13 d 18 14 d 18 14 d 36 25 d 17 11 d 18 9 d 9 4 d 9 3 d 9 3 d 9 3 d 9 2 d 9 1 d 9 1 d 9 X 9 -1 d 9 -1 d 9 -2 d 9 -2 d 9 -3 d 9 -3 d 9 -4 d 9 -5 d 18 -10 d 18 -11 d 17 -12 d 18 -14 d 18 -13 d 18 -14 d 18 -14
 d 18 -14 d 18 -14 d 18 -14 d 18 -15 d 18 -14 d 18 -16 d 18 -16 d 35 -33 d 36 -37 d 36 -41 d 36 -44 d 36 -47 d 36 -51 d 35 -54 d s black 3 lw 381 938 m -18 X s 363 938 m cl s 381 938 m 18 X s 399 938 m cl s 381 938 m 35 Y s 381 973 m cl s 381 938 m
 -36 Y s 381 902 m cl s 417 896 m -18 X s 399 896 m cl s 417 896 m 17 X s 434 896 m cl s 417 896 m 41 Y s 417 937 m cl s 417 896 m -43 Y s 417 853 m cl s 452 885 m -18 X s 434 885 m cl s 452 885 m 18 X s 470 885 m cl s 452 885 m 43 Y s 452 928 m cl s
 452 885 m -44 Y s 452 841 m cl s 488 896 m -18 X s 470 896 m cl s 488 896 m 18 X s 506 896 m cl s 488 896 m 41 Y s 488 937 m cl s 488 896 m -43 Y s 488 853 m cl s 524 862 m -18 X s 506 862 m cl s 524 862 m 18 X s 542 862 m cl s 524 862 m 47 Y s 524
 909 m cl s 524 862 m -49 Y s 524 813 m cl s 560 938 m -18 X s 542 938 m cl s 560 938 m 18 X s 578 938 m cl s 560 938 m 35 Y s 560 973 m cl s 560 938 m -36 Y s 560 902 m cl s 596 914 m -18 X s 578 914 m cl s 596 914 m 18 X s 614 914 m cl s 596 914 m
 39 Y s 596 953 m cl s 596 914 m -39 Y s 596 875 m cl s 632 896 m -18 X s 614 896 m cl s 632 896 m 17 X s 649 896 m cl s 632 896 m 41 Y s 632 937 m cl s 632 896 m -43 Y s 632 853 m cl s 667 885 m -18 X s 649 885 m cl s 667 885 m 18 X s 685 885 m cl s
 667 885 m 43 Y s 667 928 m cl s 667 885 m -44 Y s 667 841 m cl s 703 982 m -18 X s 685 982 m cl s 703 982 m 18 X s 721 982 m cl s 703 982 m 30 Y s 703 1012 m cl s 703 982 m -30 Y s 703 952 m cl s 739 982 m -18 X s 721 982 m cl s 739 982 m 18 X s 757
 982 m cl s 739 982 m 30 Y s 739 1012 m cl s 739 982 m -30 Y s 739 952 m cl s 775 945 m -18 X s 757 945 m cl s 775 945 m 18 X s 793 945 m cl s 775 945 m 34 Y s 775 979 m cl s 775 945 m -35 Y s 775 910 m cl s 811 952 m -18 X s 793 952 m cl s 811 952 m
 18 X s 829 952 m cl s 811 952 m 33 Y s 811 985 m cl s 811 952 m -34 Y s 811 918 m cl s 847 1019 m -18 X s 829 1019 m cl s 847 1019 m 17 X s 864 1019 m cl s 847 1019 m 26 Y s 847 1045 m cl s 847 1019 m -26 Y s 847 993 m cl s 882 965 m -18 X s 864 965
 m cl s 882 965 m 18 X s 900 965 m cl s 882 965 m 31 Y s 882 996 m cl s 882 965 m -32 Y s 882 933 m cl s 918 1038 m -18 X s 900 1038 m cl s 918 1038 m 18 X s 936 1038 m cl s 918 1038 m 24 Y s 918 1062 m cl s 918 1038 m -24 Y s 918 1014 m cl s 954
 1011 m -18 X s 936 1011 m cl s 954 1011 m 18 X s 972 1011 m cl s 954 1011 m 26 Y s 954 1037 m cl s 954 1011 m -27 Y s 954 984 m cl s 990 1073 m -18 X s 972 1073 m cl s 990 1073 m 18 X s 1008 1073 m cl s 990 1073 m 21 Y s 990 1094 m cl s 990 1073 m
 -21 Y s 990 1052 m cl s 1026 1096 m -18 X s 1008 1096 m cl s 1026 1096 m 18 X s 1044 1096 m cl s 1026 1096 m 19 Y s 1026 1115 m cl s 1026 1096 m -19 Y s 1026 1077 m cl s 1062 1094 m -18 X s 1044 1094 m cl s 1062 1094 m 17 X s 1079 1094 m cl s 1062
 1094 m 19 Y s 1062 1113 m cl s 1062 1094 m -20 Y s 1062 1074 m cl s 1097 1122 m -18 X s 1079 1122 m cl s 1097 1122 m 18 X s 1115 1122 m cl s 1097 1122 m 17 Y s 1097 1139 m cl s 1097 1122 m -18 Y s 1097 1104 m cl s 1133 1158 m -18 X s 1115 1158 m cl
 s 1133 1158 m 18 X s 1151 1158 m cl s 1133 1158 m 15 Y s 1133 1173 m cl s 1133 1158 m -15 Y s 1133 1143 m cl s 1169 1172 m -18 X s 1151 1172 m cl s 1169 1172 m 18 X s 1187 1172 m cl s 1169 1172 m 14 Y s 1169 1186 m cl s 1169 1172 m -14 Y s 1169 1158
 m cl s 1205 1204 m -18 X s 1187 1204 m cl s 1205 1204 m 18 X s 1223 1204 m cl s 1205 1204 m 12 Y s 1205 1216 m cl s 1205 1204 m -12 Y s 1205 1192 m cl s 1241 1225 m -18 X s 1223 1225 m cl s 1241 1225 m 18 X s 1259 1225 m cl s 1241 1225 m 11 Y s 1241
 1236 m cl s 1241 1225 m -11 Y s 1241 1214 m cl s 1276 1237 m -17 X s 1259 1237 m cl s 1276 1237 m 18 X s 1294 1237 m cl s 1276 1237 m 11 Y s 1276 1248 m cl s 1276 1237 m -10 Y s 1276 1227 m cl s 1312 1257 m -18 X s 1294 1257 m cl s 1312 1257 m 18 X
 s 1330 1257 m cl s 1312 1257 m 10 Y s 1312 1267 m cl s 1312 1257 m -11 Y s 1312 1246 m cl s 1348 1266 m -18 X s 1330 1266 m cl s 1348 1266 m 18 X s 1366 1266 m cl s 1348 1266 m 10 Y s 1348 1276 m cl s 1348 1266 m -10 Y s 1348 1256 m cl s 1384 1294 m
 -18 X s 1366 1294 m cl s 1384 1294 m 18 X s 1402 1294 m cl s 1384 1294 m 9 Y s 1384 1303 m cl s 1384 1294 m -9 Y s 1384 1285 m cl s 1420 1339 m -18 X s 1402 1339 m cl s 1420 1339 m 18 X s 1438 1339 m cl s 1420 1339 m 8 Y s 1420 1347 m cl s 1420 1339
 m -7 Y s 1420 1332 m cl s 1456 1360 m -18 X s 1438 1360 m cl s 1456 1360 m 18 X s 1474 1360 m cl s 1456 1360 m 7 Y s 1456 1367 m cl s 1456 1360 m -7 Y s 1456 1353 m cl s 1491 1381 m -17 X s 1474 1381 m cl s 1491 1381 m 18 X s 1509 1381 m cl s 1491
 1381 m 6 Y s 1491 1387 m cl s 1491 1381 m -7 Y s 1491 1374 m cl s 1527 1390 m -18 X s 1509 1390 m cl s 1527 1390 m 18 X s 1545 1390 m cl s 1527 1390 m 6 Y s 1527 1396 m cl s 1527 1390 m -7 Y s 1527 1383 m cl s 1563 1410 m -18 X s 1545 1410 m cl s
 1563 1410 m 18 X s 1581 1410 m cl s 1563 1410 m 5 Y s 1563 1415 m cl s 1563 1410 m -6 Y s 1563 1404 m cl s 1599 1402 m -18 X s 1581 1402 m cl s 1599 1402 m 18 X s 1617 1402 m cl s 1599 1402 m 6 Y s 1599 1408 m cl s 1599 1402 m -6 Y s 1599 1396 m cl
 s 1635 1407 m -18 X s 1617 1407 m cl s 1635 1407 m 18 X s 1653 1407 m cl s 1635 1407 m 6 Y s 1635 1413 m cl s 1635 1407 m -6 Y s 1635 1401 m cl s 1671 1378 m -18 X s 1653 1378 m cl s 1671 1378 m 18 X s 1689 1378 m cl s 1671 1378 m 6 Y s 1671 1384 m
 cl s 1671 1378 m -7 Y s 1671 1371 m cl s 1706 1355 m -17 X s 1689 1355 m cl s 1706 1355 m 18 X s 1724 1355 m cl s 1706 1355 m 7 Y s 1706 1362 m cl s 1706 1355 m -8 Y s 1706 1347 m cl s 1742 1335 m -18 X s 1724 1335 m cl s 1742 1335 m 18 X s 1760
 1335 m cl s 1742 1335 m 7 Y s 1742 1342 m cl s 1742 1335 m -8 Y s 1742 1327 m cl s 1778 1311 m -18 X s 1760 1311 m cl s 1778 1311 m 18 X s 1796 1311 m cl s 1778 1311 m 9 Y s 1778 1320 m cl s 1778 1311 m -8 Y s 1778 1303 m cl s 1814 1267 m -18 X s
 1796 1267 m cl s 1814 1267 m 18 X s 1832 1267 m cl s 1814 1267 m 10 Y s 1814 1277 m cl s 1814 1267 m -9 Y s 1814 1258 m cl s 1850 1229 m -18 X s 1832 1229 m cl s 1850 1229 m 18 X s 1868 1229 m cl s 1850 1229 m 11 Y s 1850 1240 m cl s 1850 1229 m -12
 Y s 1850 1217 m cl s 1886 1207 m -18 X s 1868 1207 m cl s 1886 1207 m 18 X s 1904 1207 m cl s 1886 1207 m 12 Y s 1886 1219 m cl s 1886 1207 m -12 Y s 1886 1195 m cl s 1921 1181 m -17 X s 1904 1181 m cl s 1921 1181 m 18 X s 1939 1181 m cl s 1921 1181
 m 14 Y s 1921 1195 m cl s 1921 1181 m -13 Y s 1921 1168 m cl s 1957 1109 m -18 X s 1939 1109 m cl s 1957 1109 m 18 X s 1975 1109 m cl s 1957 1109 m 19 Y s 1957 1128 m cl s 1957 1109 m -18 Y s 1957 1091 m cl s 1993 1086 m -18 X s 1975 1086 m cl s
 1993 1086 m 18 X s 2011 1086 m cl s 1993 1086 m 20 Y s 1993 1106 m cl s 1993 1086 m -20 Y s 1993 1066 m cl s 2029 1045 m -18 X s 2011 1045 m cl s 2029 1045 m 18 X s 2047 1045 m cl s 2029 1045 m 24 Y s 2029 1069 m cl s 2029 1045 m -23 Y s 2029 1022 m
 cl s 2065 1027 m -18 X s 2047 1027 m cl s 2065 1027 m 18 X s 2083 1027 m cl s 2065 1027 m 25 Y s 2065 1052 m cl s 2065 1027 m -25 Y s 2065 1002 m cl s 2101 997 m -18 X s 2083 997 m cl s 2101 997 m 18 X s 2119 997 m cl s 2101 997 m 28 Y s 2101 1025 m
 cl s 2101 997 m -28 Y s 2101 969 m cl s 2136 987 m -17 X s 2119 987 m cl s 2136 987 m 18 X s 2154 987 m cl s 2136 987 m 29 Y s 2136 1016 m cl s 2136 987 m -29 Y s 2136 958 m cl s 381 938 417 896 452 885 488 896 524 862 560 938 596 914 632 896 667
 885 703 982 739 982 775 945 811 952 847 1019 882 965 918 1038 954 1011 990 1073 1026 1096 1062 1094 1097 1122 1133 1158 1169 1172 1205 1204 1241 1225 1276 1237 1312 1257 1348 1266 1384 1294 1420 1339 1456 1360 1491 1381 1527 1390 1563 1410 1599 1402
 1635 1407 1671 1378 1706 1355 1742 1335 1778 1311 1814 1267 1850 1229 1886 1207 1921 1181 1957 1109 1993 1086 2029 1045 2065 1027 2101 997 2136 987 50 { m20} R 0.52 0.76 0.64 c[ 4 8] 0 sd 9 lw black 0.52 0.76 0.64 c 363 848 m 36 10 d 35 11 d 36 11 d
 36 11 d 36 11 d 36 12 d 36 12 d 35 12 d 36 12 d 36 13 d 36 13 d 36 14 d 36 14 d 35 14 d 36 15 d 36 15 d 36 16 d 36 16 d 36 17 d 35 18 d 36 18 d 36 19 d 36 19 d 18 10 d 18 10 d 18 11 d 18 11 d 17 11 d 18 11 d 18 11 d 18 12 d 36 22 d 36 19 d 18 8 d 18
 7 d 18 7 d 18 5 d 17 5 d 18 4 d 18 2 d 18 2 d 18 2 d 18 X 18 -1 d 18 -1 d 18 -3 d 18 -3 d 18 -4 d 18 -5 d 17 -6 d 18 -6 d 18 -8 d 18 -8 d 36 -20 d 36 -23 d 36 -26 d 18 -15 d 18 -15 d 17 -17 d 18 -17 d 18 -18 d 18 -19 d 18 -19 d 18 -21 d 18 -21 d 18
 -23 d 18 -23 d 18 -24 d 36 -51 d 35 -54 d s 0.54 0.66 0.63 c black 0.54 0.66 0.63 c 1287 634 m 7 33 d s 1294 667 m 18 74 d 18 70 d 9 33 d 9 32 d 9 31 d 9 29 d 9 28 d 9 27 d 9 26 d 9 25 d 9 23 d 9 22 d 9 21 d 9 20 d 9 18 d 9 17 d 18 31 d 17 26 d 9 11
 d 9 10 d 9 9 d 9 7 d 9 6 d 9 5 d 9 4 d 5 1 d 4 2 d 5 X 4 1 d 14 X 4 -1 d 4 -1 d 5 -1 d 9 -4 d 9 -5 d 9 -6 d 9 -7 d 9 -8 d 9 -10 d 36 -51 d 8 -16 d 9 -17 d 9 -18 d 9 -19 d 9 -21 d 9 -22 d 9 -23 d 9 -24 d 9 -26 d 9 -27 d 9 -27 d 9 -30 d 9 -30 d 9 -32
 d 18 -67 d 18 -72 d 18 -76 d -1 Y s black[  ] 0 sd 3 lw 363 634 m 1791 X s 406 659 m -25 Y s 449 646 m -12 Y s 492 646 m -12 Y s 535 646 m -12 Y s 578 659 m -25 Y s 621 646 m -12 Y s 664 646 m -12 Y s 707 646 m -12 Y s 750 659 m -25 Y s 793 646 m
 -12 Y s 837 646 m -12 Y s 880 646 m -12 Y s 923 659 m -25 Y s 966 646 m -12 Y s 1009 646 m -12 Y s 1052 646 m -12 Y s 1095 659 m -25 Y s 1138 646 m -12 Y s 1181 646 m -12 Y s 1224 646 m -12 Y s 1267 659 m -25 Y s 1310 646 m -12 Y s 1353 646 m -12 Y
 s 1396 646 m -12 Y s 1439 659 m -25 Y s 1483 646 m -12 Y s 1526 646 m -12 Y s 1569 646 m -12 Y s 1612 659 m -25 Y s 1655 646 m -12 Y s 1698 646 m -12 Y s 1741 646 m -12 Y s 1784 659 m -25 Y s 1827 646 m -12 Y s 1870 646 m -12 Y s 1913 646 m -12 Y s
 1956 659 m -25 Y s 1999 646 m -12 Y s 2042 646 m -12 Y s 2085 646 m -12 Y s 2128 659 m -25 Y s 406 659 m -25 Y s 363 646 m -12 Y s 2128 659 m -25 Y s 363 1484 m 1791 X s 406 1459 m 25 Y s 449 1471 m 13 Y s 492 1471 m 13 Y s 535 1471 m 13 Y s 578
 1459 m 25 Y s 621 1471 m 13 Y s 664 1471 m 13 Y s 707 1471 m 13 Y s 750 1459 m 25 Y s 793 1471 m 13 Y s 837 1471 m 13 Y s 880 1471 m 13 Y s 923 1459 m 25 Y s 966 1471 m 13 Y s 1009 1471 m 13 Y s 1052 1471 m 13 Y s 1095 1459 m 25 Y s 1138 1471 m 13 Y
 s 1181 1471 m 13 Y s 1224 1471 m 13 Y s 1267 1459 m 25 Y s 1310 1471 m 13 Y s 1353 1471 m 13 Y s 1396 1471 m 13 Y s 1439 1459 m 25 Y s 1483 1471 m 13 Y s 1526 1471 m 13 Y s 1569 1471 m 13 Y s 1612 1459 m 25 Y s 1655 1471 m 13 Y s 1698 1471 m 13 Y s
 1741 1471 m 13 Y s 1784 1459 m 25 Y s 1827 1471 m 13 Y s 1870 1471 m 13 Y s 1913 1471 m 13 Y s 1956 1459 m 25 Y s 1999 1471 m 13 Y s 2042 1471 m 13 Y s 2085 1471 m 13 Y s 2128 1459 m 25 Y s 406 1459 m 25 Y s 363 1471 m 13 Y s 2128 1459 m 25 Y s 363
 634 m 850 Y s 390 681 m -27 X s 390 721 m -27 X s 390 752 m -27 X s 390 778 m -27 X s 390 799 m -27 X s 390 818 m -27 X s 390 834 m -27 X s 417 849 m -54 X s 390 945 m -27 X s 390 1002 m -27 X s 390 1042 m -27 X s 390 1073 m -27 X s 390 1098 m -27 X
 s 390 1120 m -27 X s 390 1138 m -27 X s 390 1155 m -27 X s 417 1169 m -54 X s 390 1266 m -27 X s 390 1322 m -27 X s 390 1362 m -27 X s 390 1393 m -27 X s 390 1419 m -27 X s 390 1440 m -27 X s 390 1459 m -27 X s 390 1475 m -27 X s 2154 634 m 850 Y s
 2127 681 m 27 X s 2127 721 m 27 X s 2127 752 m 27 X s 2127 778 m 27 X s 2127 799 m 27 X s 2127 818 m 27 X s 2127 834 m 27 X s 2101 849 m 53 X s 2127 945 m 27 X s 2127 1002 m 27 X s 2127 1042 m 27 X s 2127 1073 m 27 X s 2127 1098 m 27 X s 2127 1120 m
 27 X s 2127 1138 m 27 X s 2127 1155 m 27 X s 2101 1169 m 53 X s 2127 1266 m 27 X s 2127 1322 m 27 X s 2127 1362 m 27 X s 2127 1393 m 27 X s 2127 1419 m 27 X s 2127 1440 m 27 X s 2127 1459 m 27 X s 2127 1475 m 27 X s
 gsave  2268 1077 0 461 C 677.708 1215.31 t 0 r /Helvetica findfont 58.7189 sf 0 0 m (4mu) show NC gr  1 1 1 c 453 161 454 1269 bf black
 gsave  2268 1077 0 461 C 566.929 1371.71 t 0 r /Helvetica-Bold findfont 48.9324 sf 0 0 m (MC15) show NC gr  510 1390 m20
 gsave  2268 1077 0 461 C 566.929 1293.51 t 0 r /Helvetica-Bold findfont 48.9324 sf 0 0 m (Projection of Signal pdf) show NC gr  0 0 1 c 9 lw 471 1309 m 79 X s black 3 lw 1 1 1 c 2268 461 0 0 bf black 1 1 1 c 1791 364 363 74 bf black 1791 364 363 74
 bl 363 74 m 1791 X s
 gsave  2268 461 0 0 C 1915.83 13.0329 t 0 r /Helvetica findfont 22.9045 sf 0 0 m (4l Invariant Mass \(GeV\)) show NC gr  406 85 m -11 Y s 449 79 m -5 Y s 492 79 m -5 Y s 535 79 m -5 Y s 578 85 m -11 Y s 621 79 m -5 Y s 664 79 m -5 Y s 707 79 m -5 Y
 s 750 85 m -11 Y s 793 79 m -5 Y s 837 79 m -5 Y s 880 79 m -5 Y s 923 85 m -11 Y s 966 79 m -5 Y s 1009 79 m -5 Y s 1052 79 m -5 Y s 1095 85 m -11 Y s 1138 79 m -5 Y s 1181 79 m -5 Y s 1224 79 m -5 Y s 1267 85 m -11 Y s 1310 79 m -5 Y s 1353 79 m
 -5 Y s 1396 79 m -5 Y s 1439 85 m -11 Y s 1483 79 m -5 Y s 1526 79 m -5 Y s 1569 79 m -5 Y s 1612 85 m -11 Y s 1655 79 m -5 Y s 1698 79 m -5 Y s 1741 79 m -5 Y s 1784 85 m -11 Y s 1827 79 m -5 Y s 1870 79 m -5 Y s 1913 79 m -5 Y s 1956 85 m -11 Y s
 1999 79 m -5 Y s 2042 79 m -5 Y s 2085 79 m -5 Y s 2128 85 m -11 Y s 406 85 m -11 Y s 363 79 m -5 Y s 2128 85 m -11 Y s
 gsave  2268 461 0 0 C 384.469 55.3896 t 0 r /Helvetica findfont 22.9045 sf 0 0 m (860) show NC gr 
 gsave  2268 461 0 0 C 557.154 55.3896 t 0 r /Helvetica findfont 22.9045 sf 0 0 m (880) show NC gr 
 gsave  2268 461 0 0 C 729.84 55.3896 t 0 r /Helvetica findfont 22.9045 sf 0 0 m (900) show NC gr 
 gsave  2268 461 0 0 C 902.525 55.3896 t 0 r /Helvetica findfont 22.9045 sf 0 0 m (920) show NC gr 
 gsave  2268 461 0 0 C 1075.21 55.3896 t 0 r /Helvetica findfont 22.9045 sf 0 0 m (940) show NC gr 
 gsave  2268 461 0 0 C 1244.64 55.3896 t 0 r /Helvetica findfont 22.9045 sf 0 0 m (960) show NC gr 
 gsave  2268 461 0 0 C 1417.32 55.3896 t 0 r /Helvetica findfont 22.9045 sf 0 0 m (980) show NC gr 
 gsave  2268 461 0 0 C 1583.49 55.3896 t 0 r /Helvetica findfont 22.9045 sf 0 0 m (1000) show NC gr 
 gsave  2268 461 0 0 C 1756.18 55.3896 t 0 r /Helvetica findfont 22.9045 sf 0 0 m (1020) show NC gr 
 gsave  2268 461 0 0 C 1928.86 55.3896 t 0 r /Helvetica findfont 22.9045 sf 0 0 m (1040) show NC gr 
 gsave  2268 461 0 0 C 2101.55 55.3896 t 0 r /Helvetica findfont 22.9045 sf 0 0 m (1060) show NC gr  363 438 m 1791 X s 406 427 m 11 Y s 449 433 m 5 Y s 492 433 m 5 Y s 535 433 m 5 Y s 578 427 m 11 Y s 621 433 m 5 Y s 664 433 m 5 Y s 707 433 m 5 Y s
 750 427 m 11 Y s 793 433 m 5 Y s 837 433 m 5 Y s 880 433 m 5 Y s 923 427 m 11 Y s 966 433 m 5 Y s 1009 433 m 5 Y s 1052 433 m 5 Y s 1095 427 m 11 Y s 1138 433 m 5 Y s 1181 433 m 5 Y s 1224 433 m 5 Y s 1267 427 m 11 Y s 1310 433 m 5 Y s 1353 433 m 5
 Y s 1396 433 m 5 Y s 1439 427 m 11 Y s 1483 433 m 5 Y s 1526 433 m 5 Y s 1569 433 m 5 Y s 1612 427 m 11 Y s 1655 433 m 5 Y s 1698 433 m 5 Y s 1741 433 m 5 Y s 1784 427 m 11 Y s 1827 433 m 5 Y s 1870 433 m 5 Y s 1913 433 m 5 Y s 1956 427 m 11 Y s
 1999 433 m 5 Y s 2042 433 m 5 Y s 2085 433 m 5 Y s 2128 427 m 11 Y s 406 427 m 11 Y s 363 433 m 5 Y s 2128 427 m 11 Y s 363 74 m 364 Y s 417 74 m -54 X s 390 81 m -27 X s 390 88 m -27 X s 390 96 m -27 X s 390 103 m -27 X s 417 110 m -54 X s 390 118
 m -27 X s 390 125 m -27 X s 390 132 m -27 X s 390 139 m -27 X s 417 147 m -54 X s 390 154 m -27 X s 390 161 m -27 X s 390 169 m -27 X s 390 176 m -27 X s 417 183 m -54 X s 390 190 m -27 X s 390 198 m -27 X s 390 205 m -27 X s 390 212 m -27 X s 417
 220 m -54 X s 390 227 m -27 X s 390 234 m -27 X s 390 241 m -27 X s 390 249 m -27 X s 417 256 m -54 X s 390 263 m -27 X s 390 271 m -27 X s 390 278 m -27 X s 390 285 m -27 X s 417 293 m -54 X s 390 300 m -27 X s 390 307 m -27 X s 390 314 m -27 X s
 390 322 m -27 X s 417 329 m -54 X s 390 336 m -27 X s 390 344 m -27 X s 390 351 m -27 X s 390 358 m -27 X s 417 365 m -54 X s 390 373 m -27 X s 390 380 m -27 X s 390 387 m -27 X s 390 395 m -27 X s 417 402 m -54 X s 390 409 m -27 X s 390 416 m -27 X
 s 390 424 m -27 X s 390 431 m -27 X s 417 438 m -54 X s
 gsave  2268 461 0 0 C 329.08 65.1643 t 0 r /Helvetica findfont 22.9045 sf 0 0 m (\2555) show NC gr 
 gsave  2268 461 0 0 C 329.08 101.005 t 0 r /Helvetica findfont 22.9045 sf 0 0 m (\2554) show NC gr 
 gsave  2268 461 0 0 C 329.08 140.103 t 0 r /Helvetica findfont 22.9045 sf 0 0 m (\2553) show NC gr 
 gsave  2268 461 0 0 C 329.08 175.944 t 0 r /Helvetica findfont 22.9045 sf 0 0 m (\2552) show NC gr 
 gsave  2268 461 0 0 C 332.338 211.784 t 0 r /Helvetica findfont 22.9045 sf 0 0 m (\2551) show NC gr 
 gsave  2268 461 0 0 C 335.596 247.624 t 0 r /Helvetica findfont 22.9045 sf 0 0 m (0) show NC gr 
 gsave  2268 461 0 0 C 338.854 283.465 t 0 r /Helvetica findfont 22.9045 sf 0 0 m (1) show NC gr 
 gsave  2268 461 0 0 C 335.596 319.305 t 0 r /Helvetica findfont 22.9045 sf 0 0 m (2) show NC gr 
 gsave  2268 461 0 0 C 335.596 358.403 t 0 r /Helvetica findfont 22.9045 sf 0 0 m (3) show NC gr 
 gsave  2268 461 0 0 C 335.596 394.244 t 0 r /Helvetica findfont 22.9045 sf 0 0 m (4) show NC gr 
 gsave  2268 461 0 0 C 335.596 430.084 t 0 r /Helvetica findfont 22.9045 sf 0 0 m (5) show NC gr  2154 74 m 364 Y s 2101 74 m 53 X s 2127 81 m 27 X s 2127 88 m 27 X s 2127 96 m 27 X s 2127 103 m 27 X s 2101 110 m 53 X s 2127 118 m 27 X s 2127 125 m
 27 X s 2127 132 m 27 X s 2127 139 m 27 X s 2101 147 m 53 X s 2127 154 m 27 X s 2127 161 m 27 X s 2127 169 m 27 X s 2127 176 m 27 X s 2101 183 m 53 X s 2127 190 m 27 X s 2127 198 m 27 X s 2127 205 m 27 X s 2127 212 m 27 X s 2101 220 m 53 X s 2127 227
 m 27 X s 2127 234 m 27 X s 2127 241 m 27 X s 2127 249 m 27 X s 2101 256 m 53 X s 2127 263 m 27 X s 2127 271 m 27 X s 2127 278 m 27 X s 2127 285 m 27 X s 2101 293 m 53 X s 2127 300 m 27 X s 2127 307 m 27 X s 2127 314 m 27 X s 2127 322 m 27 X s 2101
 329 m 53 X s 2127 336 m 27 X s 2127 344 m 27 X s 2127 351 m 27 X s 2127 358 m 27 X s 2101 365 m 53 X s 2127 373 m 27 X s 2127 380 m 27 X s 2127 387 m 27 X s 2127 395 m 27 X s 2101 402 m 53 X s 2127 409 m 27 X s 2127 416 m 27 X s 2127 424 m 27 X s
 2127 431 m 27 X s 2101 438 m 53 X s 6 lw 0.2 0.8 0.2 c black 3 lw 0.2 0.8 0.2 c 363 256 m 73 Y 36 X -45 Y 35 X -18 Y 72 X -35 Y 36 X 56 Y 36 X -36 Y 36 X -26 Y 35 X -22 Y 36 X 84 Y 36 X -16 Y 36 X -56 Y 36 X -11 Y 36 X 64 Y 35 X -91 Y 36 X 75 Y 36 X
 -63 Y 36 X 68 Y 36 X 13 Y 36 X -37 Y 35 X 19 Y 36 X 41 Y 36 X -9 Y 36 X 35 Y 36 X 6 Y 36 X -28 Y 35 X -17 Y 36 X -68 Y 36 X -3 Y 36 X 77 Y 36 X -27 Y 36 X -14 Y 35 X -47 Y 36 X 68 Y 36 X -41 Y 36 X 92 Y 36 X -64 Y 36 X 3 Y 35 X 34 Y 36 X 15 Y 36 X
 -66 Y 36 X -31 Y 36 X 29 Y 36 X 19 Y 35 X -79 Y 36 X 39 Y 36 X 8 Y 36 X 42 Y 36 X 23 Y 36 X 40 Y 35 X -73 Y f 6 lw black 0.2 0.8 0.2 c black 363 329 m 36 X -45 Y 35 X -18 Y 72 X -35 Y 36 X 56 Y 36 X -36 Y 36 X -26 Y 35 X -22 Y 36 X 84 Y 36 X -16 Y
 36 X -56 Y 36 X -11 Y 36 X 64 Y 35 X -91 Y 36 X 75 Y 36 X -63 Y 36 X 68 Y 36 X 13 Y 36 X -37 Y 35 X 19 Y 36 X 41 Y 36 X -9 Y 36 X 35 Y 36 X 6 Y 36 X -28 Y 35 X -17 Y 36 X -68 Y 36 X -3 Y 36 X 77 Y 36 X -27 Y 36 X -14 Y 35 X -47 Y 36 X 68 Y 36 X -41
 Y 36 X 92 Y 36 X -64 Y 36 X 3 Y 35 X 34 Y 36 X 15 Y 36 X -66 Y 36 X -31 Y 36 X 29 Y 36 X 19 Y 35 X -79 Y 36 X 39 Y 36 X 8 Y 36 X 42 Y 36 X 23 Y 36 X 40 Y 35 X s 3 lw 363 74 m 1791 X s 406 85 m -11 Y s 449 79 m -5 Y s 492 79 m -5 Y s 535 79 m -5 Y s
 578 85 m -11 Y s 621 79 m -5 Y s 664 79 m -5 Y s 707 79 m -5 Y s 750 85 m -11 Y s 793 79 m -5 Y s 837 79 m -5 Y s 880 79 m -5 Y s 923 85 m -11 Y s 966 79 m -5 Y s 1009 79 m -5 Y s 1052 79 m -5 Y s 1095 85 m -11 Y s 1138 79 m -5 Y s 1181 79 m -5 Y s
 1224 79 m -5 Y s 1267 85 m -11 Y s 1310 79 m -5 Y s 1353 79 m -5 Y s 1396 79 m -5 Y s 1439 85 m -11 Y s 1483 79 m -5 Y s 1526 79 m -5 Y s 1569 79 m -5 Y s 1612 85 m -11 Y s 1655 79 m -5 Y s 1698 79 m -5 Y s 1741 79 m -5 Y s 1784 85 m -11 Y s 1827 79
 m -5 Y s 1870 79 m -5 Y s 1913 79 m -5 Y s 1956 85 m -11 Y s 1999 79 m -5 Y s 2042 79 m -5 Y s 2085 79 m -5 Y s 2128 85 m -11 Y s 406 85 m -11 Y s 363 79 m -5 Y s 2128 85 m -11 Y s 363 438 m 1791 X s 406 427 m 11 Y s 449 433 m 5 Y s 492 433 m 5 Y s
 535 433 m 5 Y s 578 427 m 11 Y s 621 433 m 5 Y s 664 433 m 5 Y s 707 433 m 5 Y s 750 427 m 11 Y s 793 433 m 5 Y s 837 433 m 5 Y s 880 433 m 5 Y s 923 427 m 11 Y s 966 433 m 5 Y s 1009 433 m 5 Y s 1052 433 m 5 Y s 1095 427 m 11 Y s 1138 433 m 5 Y s
 1181 433 m 5 Y s 1224 433 m 5 Y s 1267 427 m 11 Y s 1310 433 m 5 Y s 1353 433 m 5 Y s 1396 433 m 5 Y s 1439 427 m 11 Y s 1483 433 m 5 Y s 1526 433 m 5 Y s 1569 433 m 5 Y s 1612 427 m 11 Y s 1655 433 m 5 Y s 1698 433 m 5 Y s 1741 433 m 5 Y s 1784 427
 m 11 Y s 1827 433 m 5 Y s 1870 433 m 5 Y s 1913 433 m 5 Y s 1956 427 m 11 Y s 1999 433 m 5 Y s 2042 433 m 5 Y s 2085 433 m 5 Y s 2128 427 m 11 Y s 406 427 m 11 Y s 363 433 m 5 Y s 2128 427 m 11 Y s 363 74 m 364 Y s 417 74 m -54 X s 390 81 m -27 X s
 390 88 m -27 X s 390 96 m -27 X s 390 103 m -27 X s 417 110 m -54 X s 390 118 m -27 X s 390 125 m -27 X s 390 132 m -27 X s 390 139 m -27 X s 417 147 m -54 X s 390 154 m -27 X s 390 161 m -27 X s 390 169 m -27 X s 390 176 m -27 X s 417 183 m -54 X s
 390 190 m -27 X s 390 198 m -27 X s 390 205 m -27 X s 390 212 m -27 X s 417 220 m -54 X s 390 227 m -27 X s 390 234 m -27 X s 390 241 m -27 X s 390 249 m -27 X s 417 256 m -54 X s 390 263 m -27 X s 390 271 m -27 X s 390 278 m -27 X s 390 285 m -27 X
 s 417 293 m -54 X s 390 300 m -27 X s 390 307 m -27 X s 390 314 m -27 X s 390 322 m -27 X s 417 329 m -54 X s 390 336 m -27 X s 390 344 m -27 X s 390 351 m -27 X s 390 358 m -27 X s 417 365 m -54 X s 390 373 m -27 X s 390 380 m -27 X s 390 387 m -27
 X s 390 395 m -27 X s 417 402 m -54 X s 390 409 m -27 X s 390 416 m -27 X s 390 424 m -27 X s 390 431 m -27 X s 417 438 m -54 X s 2154 74 m 364 Y s 2101 74 m 53 X s 2127 81 m 27 X s 2127 88 m 27 X s 2127 96 m 27 X s 2127 103 m 27 X s 2101 110 m 53 X
 s 2127 118 m 27 X s 2127 125 m 27 X s 2127 132 m 27 X s 2127 139 m 27 X s 2101 147 m 53 X s 2127 154 m 27 X s 2127 161 m 27 X s 2127 169 m 27 X s 2127 176 m 27 X s 2101 183 m 53 X s 2127 190 m 27 X s 2127 198 m 27 X s 2127 205 m 27 X s 2127 212 m 27
 X s 2101 220 m 53 X s 2127 227 m 27 X s 2127 234 m 27 X s 2127 241 m 27 X s 2127 249 m 27 X s 2101 256 m 53 X s 2127 263 m 27 X s 2127 271 m 27 X s 2127 278 m 27 X s 2127 285 m 27 X s 2101 293 m 53 X s 2127 300 m 27 X s 2127 307 m 27 X s 2127 314 m
 27 X s 2127 322 m 27 X s 2101 329 m 53 X s 2127 336 m 27 X s 2127 344 m 27 X s 2127 351 m 27 X s 2127 358 m 27 X s 2101 365 m 53 X s 2127 373 m 27 X s 2127 380 m 27 X s 2127 387 m 27 X s 2127 395 m 27 X s 2101 402 m 53 X s 2127 409 m 27 X s 2127 416
 m 27 X s 2127 424 m 27 X s 2127 431 m 27 X s 2101 438 m 53 X s
 gr  gr showpage
end
%%EOF
