%!PS-Adobe-2.0 EPSF-2.0
%%BoundingBox:  0 0 567 384
%%Title: H4l2015_plotfit/gg_mass_signal_300_fixed_H4l_4mu.eps: 
%%Creator: ROOT Version 5.34/10
%%CreationDate: Thu Feb 16 13:02:58 2017
%%EndComments
%%BeginProlog
80 dict begin
/s {stroke} def /l {lineto} def /m {moveto} def /t {translate} def
/r {rotate} def /rl {roll}  def /R {repeat} def
/d {rlineto} def /rm {rmoveto} def /gr {grestore} def /f {eofill} def
/c {setrgbcolor} def /black {0 setgray} def /sd {setdash} def
/cl {closepath} def /sf {scalefont setfont} def /lw {setlinewidth} def
/box {m dup 0 exch d exch 0 d 0 exch neg d cl} def
/NC{systemdict begin initclip end}def/C{NC box clip newpath}def
/bl {box s} def /bf {box f} def /Y { 0 exch d} def /X { 0 d} def 
/K {{pop pop 0 moveto} exch kshow} bind def
/ita {/ang 15 def gsave [1 0 ang dup sin exch cos div 1 0 0] concat} def 
/mp {newpath /y exch def /x exch def} def
/side {[w .77 mul w .23 mul] .385 w mul sd w 0 l currentpoint t -144 r} def
/mr {mp x y w2 0 360 arc} def /m24 {mr s} def /m20 {mr f} def
/mb {mp x y w2 add m w2 neg 0 d 0 w neg d w 0 d 0 w d cl} def
/mt {mp x y w2 add m w2 neg w neg d w 0 d cl} def
/m21 {mb f} def /m25 {mb s} def /m22 {mt f} def /m26{mt s} def
/m23 {mp x y w2 sub m w2 w d w neg 0 d cl f} def
/m27 {mp x y w2 add m w3 neg w2 neg d w3 w2 neg d w3 w2 d cl s} def
/m28 {mp x w2 sub y w2 sub w3 add m w3 0 d  0 w3 neg d w3 0 d 0 w3 d w3 0 d  0 w3 d w3 neg 0 d 0 w3 d w3 neg 0 d 0 w3 neg d w3 neg 0 d cl s } def
/m29 {mp gsave x w2 sub y w2 add w3 sub m currentpoint t 4 {side} repeat cl fill gr} def
/m30 {mp gsave x w2 sub y w2 add w3 sub m currentpoint t 4 {side} repeat cl s gr} def
/m31 {mp x y w2 sub m 0 w d x w2 sub y m w 0 d x w2 sub y w2 add m w w neg d x w2 sub y w2 sub m w w d s} def
/m32 {mp x y w2 sub m w2 w d w neg 0 d cl s} def
/m33 {mp x y w2 add m w3 neg w2 neg d w3 w2 neg d w3 w2 d cl f} def
/m34 {mp x w2 sub y w2 sub w3 add m w3 0 d  0 w3 neg d w3 0 d 0 w3 d w3 0 d  0 w3 d w3 neg 0 d 0 w3 d w3 neg 0 d 0 w3 neg d w3 neg 0 d cl f } def
/m2 {mp x y w2 sub m 0 w d x w2 sub y m w 0 d s} def
/m5 {mp x w2 sub y w2 sub m w w d x w2 sub y w2 add m w w neg d s} def
/reEncode {exch findfont dup length dict begin {1 index /FID eq  {pop pop} {def} ifelse } forall /Encoding exch def currentdict end dup /FontName get exch definefont pop } def [/Times-Bold /Times-Italic /Times-BoldItalic /Helvetica /Helvetica-Oblique
 /Helvetica-Bold /Helvetica-BoldOblique /Courier /Courier-Oblique /Courier-Bold /Courier-BoldOblique /Times-Roman /AvantGarde-Book /AvantGarde-BookOblique /AvantGarde-Demi /AvantGarde-DemiOblique /Bookman-Demi /Bookman-DemiItalic /Bookman-Light
 /Bookman-LightItalic /Helvetica-Narrow /Helvetica-Narrow-Bold /Helvetica-Narrow-BoldOblique /Helvetica-Narrow-Oblique /NewCenturySchlbk-Roman /NewCenturySchlbk-Bold /NewCenturySchlbk-BoldItalic /NewCenturySchlbk-Italic /Palatino-Bold
 /Palatino-BoldItalic /Palatino-Italic /Palatino-Roman ] {ISOLatin1Encoding reEncode } forall
%%EndProlog
%%BeginSetup
%%EndSetup
newpath  gsave  .25 .25 scale  gsave  0 0 t black[  ] 0 sd 3 lw 1 1 1 c 2268 1538 0 0 bf black 1 1 1 c 2222 738 23 784 bf black 1 1 1 c 2222 739 23 15 bf black 1 1 1 c 2268 1077 0 461 bf black 1 1 1 c 1791 850 363 634 bf black 1791 850 363 634 bl 363
 634 m 1791 X s
 gsave  2268 1077 0 461 C 1642.14 498.507 t 0 r /Helvetica findfont 48.9324 sf 0 0 m (4l Invariant Mass \(GeV\)) show NC gr  393 659 m -25 Y s 452 646 m -12 Y s 512 646 m -12 Y s 572 646 m -12 Y s 632 646 m -12 Y s 691 659 m -25 Y s 751 646 m -12 Y s
 811 646 m -12 Y s 870 646 m -12 Y s 930 646 m -12 Y s 990 659 m -25 Y s 1050 646 m -12 Y s 1109 646 m -12 Y s 1169 646 m -12 Y s 1229 646 m -12 Y s 1288 659 m -25 Y s 1348 646 m -12 Y s 1408 646 m -12 Y s 1468 646 m -12 Y s 1527 646 m -12 Y s 1587
 659 m -25 Y s 1647 646 m -12 Y s 1706 646 m -12 Y s 1766 646 m -12 Y s 1826 646 m -12 Y s 1886 659 m -25 Y s 393 659 m -25 Y s 1886 659 m -25 Y s 1945 646 m -12 Y s 2005 646 m -12 Y s 2065 646 m -12 Y s 2124 646 m -12 Y s
 gsave  2268 1077 0 461 C 348.629 586.478 t 0 r /Helvetica findfont 48.9324 sf 0 0 m (260) show NC gr 
 gsave  2268 1077 0 461 C 648.384 586.478 t 0 r /Helvetica findfont 48.9324 sf 0 0 m (270) show NC gr 
 gsave  2268 1077 0 461 C 944.882 586.478 t 0 r /Helvetica findfont 48.9324 sf 0 0 m (280) show NC gr 
 gsave  2268 1077 0 461 C 1244.64 586.478 t 0 r /Helvetica findfont 48.9324 sf 0 0 m (290) show NC gr 
 gsave  2268 1077 0 461 C 1544.39 586.478 t 0 r /Helvetica findfont 48.9324 sf 0 0 m (300) show NC gr 
 gsave  2268 1077 0 461 C 1840.89 586.478 t 0 r /Helvetica findfont 48.9324 sf 0 0 m (310) show NC gr  363 1484 m 1791 X s 393 1459 m 25 Y s 452 1471 m 13 Y s 512 1471 m 13 Y s 572 1471 m 13 Y s 632 1471 m 13 Y s 691 1459 m 25 Y s 751 1471 m 13 Y s
 811 1471 m 13 Y s 870 1471 m 13 Y s 930 1471 m 13 Y s 990 1459 m 25 Y s 1050 1471 m 13 Y s 1109 1471 m 13 Y s 1169 1471 m 13 Y s 1229 1471 m 13 Y s 1288 1459 m 25 Y s 1348 1471 m 13 Y s 1408 1471 m 13 Y s 1468 1471 m 13 Y s 1527 1471 m 13 Y s 1587
 1459 m 25 Y s 1647 1471 m 13 Y s 1706 1471 m 13 Y s 1766 1471 m 13 Y s 1826 1471 m 13 Y s 1886 1459 m 25 Y s 393 1459 m 25 Y s 1886 1459 m 25 Y s 1945 1471 m 13 Y s 2005 1471 m 13 Y s 2065 1471 m 13 Y s 2124 1471 m 13 Y s 363 634 m 850 Y s
 gsave  2268 1077 0 461 C 120.554 1058.92 t 90 r /Helvetica findfont 48.9324 sf 0 0 m (Events / \( 1.2 GeV \)) show NC gr  390 667 m -27 X s 390 707 m -27 X s 390 738 m -27 X s 390 763 m -27 X s 390 785 m -27 X s 390 803 m -27 X s 390 820 m -27 X s
 417 834 m -54 X s
 gsave  2268 1077 0 461 C 342.425 813.612 t 0 r  -55 0 t /Helvetica findfont 48.9324 sf 0 0 m (10) show NC gr  390 931 m -27 X s 390 987 m -27 X s 390 1027 m -27 X s 390 1059 m -27 X s 390 1084 m -27 X s 390 1105 m -27 X s 390 1124 m -27 X s 390 1140
 m -27 X s 417 1155 m -54 X s
 gsave  2268 1077 0 461 C 322.563 1153.41 t 0 r /Helvetica findfont 32.6216 sf 0 0 m (2) show NC gr 
 gsave  2268 1077 0 461 C 270.432 1133.86 t 0 r /Helvetica findfont 48.9324 sf 0 0 m (10) show NC gr  390 1251 m -27 X s 390 1308 m -27 X s 390 1348 m -27 X s 390 1379 m -27 X s 390 1404 m -27 X s 390 1426 m -27 X s 390 1444 m -27 X s 390 1461 m -27
 X s 417 1476 m -54 X s
 gsave  2268 1077 0 461 C 322.563 1475.97 t 0 r /Helvetica findfont 32.6216 sf 0 0 m (3) show NC gr 
 gsave  2268 1077 0 461 C 270.432 1453.16 t 0 r /Helvetica findfont 48.9324 sf 0 0 m (10) show NC gr  2154 634 m 850 Y s 2127 667 m 27 X s 2127 707 m 27 X s 2127 738 m 27 X s 2127 763 m 27 X s 2127 785 m 27 X s 2127 803 m 27 X s 2127 820 m 27 X s
 2101 834 m 53 X s 2127 931 m 27 X s 2127 987 m 27 X s 2127 1027 m 27 X s 2127 1059 m 27 X s 2127 1084 m 27 X s 2127 1105 m 27 X s 2127 1124 m 27 X s 2127 1140 m 27 X s 2101 1155 m 53 X s 2127 1251 m 27 X s 2127 1308 m 27 X s 2127 1348 m 27 X s 2127
 1379 m 27 X s 2127 1404 m 27 X s 2127 1426 m 27 X s 2127 1444 m 27 X s 2127 1461 m 27 X s 2101 1476 m 53 X s 381 785 m -18 X s 363 785 m cl s 381 785 m 18 X s 399 785 m cl s 381 785 m 60 Y s 381 845 m cl s 381 785 m -64 Y s 381 721 m cl s 417 785 m
 -18 X s 399 785 m cl s 417 785 m 17 X s 434 785 m cl s 417 785 m 60 Y s 417 845 m cl s 417 785 m -64 Y s 417 721 m cl s 488 820 m -18 X s 470 820 m cl s 488 820 m 18 X s 506 820 m cl s 488 820 m 52 Y s 488 872 m cl s 488 820 m -55 Y s 488 765 m cl s
 524 763 m -18 X s 506 763 m cl s 524 763 m 18 X s 542 763 m cl s 524 763 m 66 Y s 524 829 m cl s 524 763 m -70 Y s 524 693 m cl s 560 848 m -18 X s 542 848 m cl s 560 848 m 18 X s 578 848 m cl s 560 848 m 47 Y s 560 895 m cl s 560 848 m -49 Y s 560
 799 m cl s 596 738 m -18 X s 578 738 m cl s 596 738 m 18 X s 614 738 m cl s 596 738 m 72 Y s 596 810 m cl s 596 738 m -79 Y s 596 659 m cl s 632 763 m -18 X s 614 763 m cl s 632 763 m 17 X s 649 763 m cl s 632 763 m 66 Y s 632 829 m cl s 632 763 m
 -70 Y s 632 693 m cl s 667 860 m -18 X s 649 860 m cl s 667 860 m 18 X s 685 860 m cl s 667 860 m 45 Y s 667 905 m cl s 667 860 m -47 Y s 667 813 m cl s 703 834 m -18 X s 685 834 m cl s 703 834 m 18 X s 721 834 m cl s 703 834 m 50 Y s 703 884 m cl s
 703 834 m -51 Y s 703 783 m cl s 739 860 m -18 X s 721 860 m cl s 739 860 m 18 X s 757 860 m cl s 739 860 m 45 Y s 739 905 m cl s 739 860 m -47 Y s 739 813 m cl s 775 881 m -18 X s 757 881 m cl s 775 881 m 18 X s 793 881 m cl s 775 881 m 42 Y s 775
 923 m cl s 775 881 m -42 Y s 775 839 m cl s 811 900 m -18 X s 793 900 m cl s 811 900 m 18 X s 829 900 m cl s 811 900 m 38 Y s 811 938 m cl s 811 900 m -40 Y s 811 860 m cl s 847 908 m -18 X s 829 908 m cl s 847 908 m 17 X s 864 908 m cl s 847 908 m
 38 Y s 847 946 m cl s 847 908 m -38 Y s 847 870 m cl s 882 938 m -18 X s 864 938 m cl s 882 938 m 18 X s 900 938 m cl s 882 938 m 33 Y s 882 971 m cl s 882 938 m -34 Y s 882 904 m cl s 918 973 m -18 X s 900 973 m cl s 918 973 m 18 X s 936 973 m cl s
 918 973 m 29 Y s 918 1002 m cl s 918 973 m -30 Y s 918 943 m cl s 954 931 m -18 X s 936 931 m cl s 954 931 m 18 X s 972 931 m cl s 954 931 m 34 Y s 954 965 m cl s 954 931 m -35 Y s 954 896 m cl s 990 944 m -18 X s 972 944 m cl s 990 944 m 18 X s
 1008 944 m cl s 990 944 m 33 Y s 990 977 m cl s 990 944 m -33 Y s 990 911 m cl s 1026 996 m -18 X s 1008 996 m cl s 1026 996 m 18 X s 1044 996 m cl s 1026 996 m 27 Y s 1026 1023 m cl s 1026 996 m -27 Y s 1026 969 m cl s 1062 978 m -18 X s 1044 978 m
 cl s 1062 978 m 17 X s 1079 978 m cl s 1062 978 m 28 Y s 1062 1006 m cl s 1062 978 m -29 Y s 1062 949 m cl s 1097 1017 m -18 X s 1079 1017 m cl s 1097 1017 m 18 X s 1115 1017 m cl s 1097 1017 m 24 Y s 1097 1041 m cl s 1097 1017 m -25 Y s 1097 992 m
 cl s 1133 1061 m -18 X s 1115 1061 m cl s 1133 1061 m 18 X s 1151 1061 m cl s 1133 1061 m 21 Y s 1133 1082 m cl s 1133 1061 m -21 Y s 1133 1040 m cl s 1169 1082 m -18 X s 1151 1082 m cl s 1169 1082 m 18 X s 1187 1082 m cl s 1169 1082 m 19 Y s 1169
 1101 m cl s 1169 1082 m -20 Y s 1169 1062 m cl s 1205 1134 m -18 X s 1187 1134 m cl s 1205 1134 m 18 X s 1223 1134 m cl s 1205 1134 m 16 Y s 1205 1150 m cl s 1205 1134 m -16 Y s 1205 1118 m cl s 1241 1148 m -18 X s 1223 1148 m cl s 1241 1148 m 18 X
 s 1259 1148 m cl s 1241 1148 m 15 Y s 1241 1163 m cl s 1241 1148 m -15 Y s 1241 1133 m cl s 1276 1188 m -17 X s 1259 1188 m cl s 1276 1188 m 18 X s 1294 1188 m cl s 1276 1188 m 13 Y s 1276 1201 m cl s 1276 1188 m -12 Y s 1276 1176 m cl s 1312 1204 m
 -18 X s 1294 1204 m cl s 1312 1204 m 18 X s 1330 1204 m cl s 1312 1204 m 11 Y s 1312 1215 m cl s 1312 1204 m -12 Y s 1312 1192 m cl s 1348 1251 m -18 X s 1330 1251 m cl s 1348 1251 m 18 X s 1366 1251 m cl s 1348 1251 m 10 Y s 1348 1261 m cl s 1348
 1251 m -10 Y s 1348 1241 m cl s 1384 1275 m -18 X s 1366 1275 m cl s 1384 1275 m 18 X s 1402 1275 m cl s 1384 1275 m 9 Y s 1384 1284 m cl s 1384 1275 m -10 Y s 1384 1265 m cl s 1420 1318 m -18 X s 1402 1318 m cl s 1420 1318 m 18 X s 1438 1318 m cl s
 1420 1318 m 8 Y s 1420 1326 m cl s 1420 1318 m -8 Y s 1420 1310 m cl s 1456 1355 m -18 X s 1438 1355 m cl s 1456 1355 m 18 X s 1474 1355 m cl s 1456 1355 m 7 Y s 1456 1362 m cl s 1456 1355 m -7 Y s 1456 1348 m cl s 1491 1396 m -17 X s 1474 1396 m cl
 s 1491 1396 m 18 X s 1509 1396 m cl s 1491 1396 m 6 Y s 1491 1402 m cl s 1491 1396 m -6 Y s 1491 1390 m cl s 1527 1415 m -18 X s 1509 1415 m cl s 1527 1415 m 18 X s 1545 1415 m cl s 1527 1415 m 6 Y s 1527 1421 m cl s 1527 1415 m -5 Y s 1527 1410 m
 cl s 1563 1410 m -18 X s 1545 1410 m cl s 1563 1410 m 18 X s 1581 1410 m cl s 1563 1410 m 6 Y s 1563 1416 m cl s 1563 1410 m -5 Y s 1563 1405 m cl s 1599 1407 m -18 X s 1581 1407 m cl s 1599 1407 m 18 X s 1617 1407 m cl s 1599 1407 m 6 Y s 1599 1413
 m cl s 1599 1407 m -5 Y s 1599 1402 m cl s 1635 1398 m -18 X s 1617 1398 m cl s 1635 1398 m 18 X s 1653 1398 m cl s 1635 1398 m 5 Y s 1635 1403 m cl s 1635 1398 m -6 Y s 1635 1392 m cl s 1671 1356 m -18 X s 1653 1356 m cl s 1671 1356 m 18 X s 1689
 1356 m cl s 1671 1356 m 7 Y s 1671 1363 m cl s 1671 1356 m -7 Y s 1671 1349 m cl s 1706 1309 m -17 X s 1689 1309 m cl s 1706 1309 m 18 X s 1724 1309 m cl s 1706 1309 m 8 Y s 1706 1317 m cl s 1706 1309 m -8 Y s 1706 1301 m cl s 1742 1259 m -18 X s
 1724 1259 m cl s 1742 1259 m 18 X s 1760 1259 m cl s 1742 1259 m 10 Y s 1742 1269 m cl s 1742 1259 m -10 Y s 1742 1249 m cl s 1778 1211 m -18 X s 1760 1211 m cl s 1778 1211 m 18 X s 1796 1211 m cl s 1778 1211 m 12 Y s 1778 1223 m cl s 1778 1211 m
 -11 Y s 1778 1200 m cl s 1814 1126 m -18 X s 1796 1126 m cl s 1814 1126 m 18 X s 1832 1126 m cl s 1814 1126 m 16 Y s 1814 1142 m cl s 1814 1126 m -17 Y s 1814 1109 m cl s 1850 1077 m -18 X s 1832 1077 m cl s 1850 1077 m 18 X s 1868 1077 m cl s 1850
 1077 m 19 Y s 1850 1096 m cl s 1850 1077 m -20 Y s 1850 1057 m cl s 1886 956 m -18 X s 1868 956 m cl s 1886 956 m 18 X s 1904 956 m cl s 1886 956 m 31 Y s 1886 987 m cl s 1886 956 m -31 Y s 1886 925 m cl s 1921 973 m -17 X s 1904 973 m cl s 1921 973
 m 18 X s 1939 973 m cl s 1921 973 m 29 Y s 1921 1002 m cl s 1921 973 m -30 Y s 1921 943 m cl s 1957 834 m -18 X s 1939 834 m cl s 1957 834 m 18 X s 1975 834 m cl s 1957 834 m 50 Y s 1957 884 m cl s 1957 834 m -51 Y s 1957 783 m cl s 1993 820 m -18 X
 s 1975 820 m cl s 1993 820 m 18 X s 2011 820 m cl s 1993 820 m 52 Y s 1993 872 m cl s 1993 820 m -55 Y s 1993 765 m cl s 2029 848 m -18 X s 2011 848 m cl s 2029 848 m 18 X s 2047 848 m cl s 2029 848 m 47 Y s 2029 895 m cl s 2029 848 m -49 Y s 2029
 799 m cl s 2065 667 m -18 X s 2047 667 m cl s 2065 667 m 18 X s 2083 667 m cl s 2065 667 m 94 Y s 2065 761 m cl s 2065 667 m -33 Y s 2065 634 m cl s 2101 667 m -18 X s 2083 667 m cl s 2101 667 m 18 X s 2119 667 m cl s 2101 667 m 94 Y s 2101 761 m cl
 s 2101 667 m -33 Y s 2101 634 m cl s 2136 785 m -17 X s 2119 785 m cl s 2136 785 m 18 X s 2154 785 m cl s 2136 785 m 60 Y s 2136 845 m cl s 2136 785 m -64 Y s 2136 721 m cl s /w 31 def /w2 {w 2 div} def /w3 {w 3 div} def 381 785 417 785 2 { m20} R
 488 820 524 763 560 848 596 738 632 763 667 860 703 834 739 860 775 881 811 900 847 908 882 938 918 973 954 931 990 944 1026 996 1062 978 1097 1017 1133 1061 1169 1082 1205 1134 1241 1148 1276 1188 1312 1204 1348 1251 1384 1275 1420 1318 1456 1355
 1491 1396 1527 1415 1563 1410 1599 1407 1635 1398 1671 1356 1706 1309 1742 1259 1778 1211 1814 1126 1850 1077 1886 956 1921 973 1957 834 1993 820 2029 848 2065 667 2101 667 2136 785 47 { m20} R 0 1 1 c 1 1 0 c black 1 1 0 c 363 775 m 36 11 d 35 10 d
 36 11 d 36 11 d 36 11 d 36 11 d 36 12 d 35 12 d 36 12 d 36 13 d 36 13 d 36 14 d 36 13 d 35 14 d 36 15 d 36 15 d 36 15 d 36 16 d 36 17 d 35 17 d 36 18 d 36 18 d 36 20 d 36 22 d 18 12 d 18 14 d 17 14 d 18 17 d 18 18 d 18 21 d 9 11 d 9 11 d 9 11 d 9 12
 d 9 12 d 9 12 d 9 12 d 9 12 d 18 23 d 18 21 d 18 19 d 18 16 d 9 7 d 8 6 d 9 5 d 9 5 d 9 4 d 9 2 d 9 3 d 9 1 d 18 X 9 -2 d 9 -2 d 9 -3 d 9 -4 d 9 -5 d 9 -5 d 9 -6 d 9 -7 d 18 -17 d 18 -18 d 18 -22 d 17 -23 d 9 -12 d 9 -12 d 9 -13 d 9 -13 d 9 -14 d 9
 -13 d 9 -14 d 9 -13 d 18 -28 d 18 -28 d 18 -27 d 18 -29 d 18 -28 d 18 -30 d 18 -30 d 35 -63 d 36 -68 d 36 -73 d 36 -79 d 34 -82 d -34 82 d -36 79 d -36 73 d -36 68 d -35 63 d -18 30 d -18 30 d -18 28 d -18 29 d -18 27 d -18 28 d -18 28 d -9 13 d -9
 14 d -9 13 d -9 14 d -9 13 d -9 13 d -9 12 d -9 12 d -17 23 d -18 22 d -18 18 d -18 17 d -9 7 d -9 6 d -9 5 d -9 5 d -9 4 d -9 3 d -9 2 d -9 2 d -18 X -9 -1 d -9 -3 d -9 -2 d -9 -4 d -9 -5 d -9 -5 d -8 -6 d -9 -7 d -18 -16 d -18 -19 d -18 -21 d -18
 -23 d -9 -12 d -9 -12 d -9 -12 d -9 -12 d -9 -12 d -9 -11 d -9 -11 d -9 -11 d -18 -21 d -18 -18 d -18 -17 d -17 -14 d -18 -14 d -18 -12 d -36 -22 d -36 -20 d -36 -18 d -36 -18 d -35 -17 d -36 -17 d -36 -16 d -36 -15 d -36 -15 d -36 -15 d -35 -14 d
 -36 -13 d -36 -14 d -36 -13 d -36 -13 d -36 -12 d -35 -12 d -36 -12 d -36 -11 d -36 -11 d -36 -11 d -36 -11 d -35 -10 d -36 -11 d f 0 1 1 c 0 1 0 c black 0 1 0 c 363 775 m 36 11 d 35 10 d 36 11 d 36 11 d 36 11 d 36 11 d 36 12 d 35 12 d 36 12 d 36 13
 d 36 13 d 36 14 d 36 13 d 35 14 d 36 15 d 36 15 d 36 15 d 36 16 d 36 17 d 35 17 d 36 18 d 36 18 d 36 20 d 36 22 d 18 12 d 18 14 d 17 14 d 18 17 d 18 18 d 18 21 d 9 11 d 9 11 d 9 11 d 9 12 d 9 12 d 9 12 d 9 12 d 9 12 d 18 23 d 18 21 d 18 19 d 18 16 d
 9 7 d 8 6 d 9 5 d 9 5 d 9 4 d 9 2 d 9 3 d 9 1 d 18 X 9 -2 d 9 -2 d 9 -3 d 9 -4 d 9 -5 d 9 -5 d 9 -6 d 9 -7 d 18 -17 d 18 -18 d 18 -22 d 17 -23 d 9 -12 d 9 -12 d 9 -13 d 9 -13 d 9 -14 d 9 -13 d 9 -14 d 9 -13 d 18 -28 d 18 -28 d 18 -27 d 18 -29 d 18
 -28 d 18 -30 d 18 -30 d 35 -63 d 36 -68 d 36 -73 d 36 -79 d 34 -82 d -34 82 d -36 79 d -36 73 d -36 68 d -35 63 d -18 30 d -18 30 d -18 28 d -18 29 d -18 27 d -18 28 d -18 28 d -9 13 d -9 14 d -9 13 d -9 14 d -9 13 d -9 13 d -9 12 d -9 12 d -17 23 d
 -18 22 d -18 18 d -18 17 d -9 7 d -9 6 d -9 5 d -9 5 d -9 4 d -9 3 d -9 2 d -9 2 d -18 X -9 -1 d -9 -3 d -9 -2 d -9 -4 d -9 -5 d -9 -5 d -8 -6 d -9 -7 d -18 -16 d -18 -19 d -18 -21 d -18 -23 d -9 -12 d -9 -12 d -9 -12 d -9 -12 d -9 -12 d -9 -11 d -9
 -11 d -9 -11 d -18 -21 d -18 -18 d -18 -17 d -17 -14 d -18 -14 d -18 -12 d -36 -22 d -36 -20 d -36 -18 d -36 -18 d -35 -17 d -36 -17 d -36 -16 d -36 -15 d -36 -15 d -36 -15 d -35 -14 d -36 -13 d -36 -14 d -36 -13 d -36 -13 d -36 -12 d -35 -12 d -36
 -12 d -36 -11 d -36 -11 d -36 -11 d -36 -11 d -35 -10 d -36 -11 d f 0 0 1 c 9 lw black 0 0 1 c 363 775 m 36 11 d 35 10 d 36 11 d 36 11 d 36 11 d 36 11 d 36 12 d 35 12 d 36 12 d 36 13 d 36 13 d 36 14 d 36 13 d 35 14 d 36 15 d 36 15 d 36 15 d 36 16 d
 36 17 d 35 17 d 36 18 d 36 18 d 36 20 d 36 22 d 18 12 d 18 14 d 17 14 d 18 17 d 18 18 d 18 21 d 9 11 d 9 11 d 9 11 d 9 12 d 9 12 d 9 12 d 9 12 d 9 12 d 18 23 d 18 21 d 18 19 d 18 16 d 9 7 d 8 6 d 9 5 d 9 5 d 9 4 d 9 2 d 9 3 d 9 1 d 18 X 9 -2 d 9 -2
 d 9 -3 d 9 -4 d 9 -5 d 9 -5 d 9 -6 d 9 -7 d 18 -17 d 18 -18 d 18 -22 d 17 -23 d 9 -12 d 9 -12 d 9 -13 d 9 -13 d 9 -14 d 9 -13 d 9 -14 d 9 -13 d 18 -28 d 18 -28 d 18 -27 d 18 -29 d 18 -28 d 18 -30 d 18 -30 d 35 -63 d 36 -68 d 36 -73 d 36 -79 d 34 -82
 d s black 3 lw 381 785 m -18 X s 363 785 m cl s 381 785 m 18 X s 399 785 m cl s 381 785 m 60 Y s 381 845 m cl s 381 785 m -64 Y s 381 721 m cl s 417 785 m -18 X s 399 785 m cl s 417 785 m 17 X s 434 785 m cl s 417 785 m 60 Y s 417 845 m cl s 417 785
 m -64 Y s 417 721 m cl s 488 820 m -18 X s 470 820 m cl s 488 820 m 18 X s 506 820 m cl s 488 820 m 52 Y s 488 872 m cl s 488 820 m -55 Y s 488 765 m cl s 524 763 m -18 X s 506 763 m cl s 524 763 m 18 X s 542 763 m cl s 524 763 m 66 Y s 524 829 m cl
 s 524 763 m -70 Y s 524 693 m cl s 560 848 m -18 X s 542 848 m cl s 560 848 m 18 X s 578 848 m cl s 560 848 m 47 Y s 560 895 m cl s 560 848 m -49 Y s 560 799 m cl s 596 738 m -18 X s 578 738 m cl s 596 738 m 18 X s 614 738 m cl s 596 738 m 72 Y s
 596 810 m cl s 596 738 m -79 Y s 596 659 m cl s 632 763 m -18 X s 614 763 m cl s 632 763 m 17 X s 649 763 m cl s 632 763 m 66 Y s 632 829 m cl s 632 763 m -70 Y s 632 693 m cl s 667 860 m -18 X s 649 860 m cl s 667 860 m 18 X s 685 860 m cl s 667
 860 m 45 Y s 667 905 m cl s 667 860 m -47 Y s 667 813 m cl s 703 834 m -18 X s 685 834 m cl s 703 834 m 18 X s 721 834 m cl s 703 834 m 50 Y s 703 884 m cl s 703 834 m -51 Y s 703 783 m cl s 739 860 m -18 X s 721 860 m cl s 739 860 m 18 X s 757 860
 m cl s 739 860 m 45 Y s 739 905 m cl s 739 860 m -47 Y s 739 813 m cl s 775 881 m -18 X s 757 881 m cl s 775 881 m 18 X s 793 881 m cl s 775 881 m 42 Y s 775 923 m cl s 775 881 m -42 Y s 775 839 m cl s 811 900 m -18 X s 793 900 m cl s 811 900 m 18 X
 s 829 900 m cl s 811 900 m 38 Y s 811 938 m cl s 811 900 m -40 Y s 811 860 m cl s 847 908 m -18 X s 829 908 m cl s 847 908 m 17 X s 864 908 m cl s 847 908 m 38 Y s 847 946 m cl s 847 908 m -38 Y s 847 870 m cl s 882 938 m -18 X s 864 938 m cl s 882
 938 m 18 X s 900 938 m cl s 882 938 m 33 Y s 882 971 m cl s 882 938 m -34 Y s 882 904 m cl s 918 973 m -18 X s 900 973 m cl s 918 973 m 18 X s 936 973 m cl s 918 973 m 29 Y s 918 1002 m cl s 918 973 m -30 Y s 918 943 m cl s 954 931 m -18 X s 936 931
 m cl s 954 931 m 18 X s 972 931 m cl s 954 931 m 34 Y s 954 965 m cl s 954 931 m -35 Y s 954 896 m cl s 990 944 m -18 X s 972 944 m cl s 990 944 m 18 X s 1008 944 m cl s 990 944 m 33 Y s 990 977 m cl s 990 944 m -33 Y s 990 911 m cl s 1026 996 m -18
 X s 1008 996 m cl s 1026 996 m 18 X s 1044 996 m cl s 1026 996 m 27 Y s 1026 1023 m cl s 1026 996 m -27 Y s 1026 969 m cl s 1062 978 m -18 X s 1044 978 m cl s 1062 978 m 17 X s 1079 978 m cl s 1062 978 m 28 Y s 1062 1006 m cl s 1062 978 m -29 Y s
 1062 949 m cl s 1097 1017 m -18 X s 1079 1017 m cl s 1097 1017 m 18 X s 1115 1017 m cl s 1097 1017 m 24 Y s 1097 1041 m cl s 1097 1017 m -25 Y s 1097 992 m cl s 1133 1061 m -18 X s 1115 1061 m cl s 1133 1061 m 18 X s 1151 1061 m cl s 1133 1061 m 21
 Y s 1133 1082 m cl s 1133 1061 m -21 Y s 1133 1040 m cl s 1169 1082 m -18 X s 1151 1082 m cl s 1169 1082 m 18 X s 1187 1082 m cl s 1169 1082 m 19 Y s 1169 1101 m cl s 1169 1082 m -20 Y s 1169 1062 m cl s 1205 1134 m -18 X s 1187 1134 m cl s 1205
 1134 m 18 X s 1223 1134 m cl s 1205 1134 m 16 Y s 1205 1150 m cl s 1205 1134 m -16 Y s 1205 1118 m cl s 1241 1148 m -18 X s 1223 1148 m cl s 1241 1148 m 18 X s 1259 1148 m cl s 1241 1148 m 15 Y s 1241 1163 m cl s 1241 1148 m -15 Y s 1241 1133 m cl s
 1276 1188 m -17 X s 1259 1188 m cl s 1276 1188 m 18 X s 1294 1188 m cl s 1276 1188 m 13 Y s 1276 1201 m cl s 1276 1188 m -12 Y s 1276 1176 m cl s 1312 1204 m -18 X s 1294 1204 m cl s 1312 1204 m 18 X s 1330 1204 m cl s 1312 1204 m 11 Y s 1312 1215 m
 cl s 1312 1204 m -12 Y s 1312 1192 m cl s 1348 1251 m -18 X s 1330 1251 m cl s 1348 1251 m 18 X s 1366 1251 m cl s 1348 1251 m 10 Y s 1348 1261 m cl s 1348 1251 m -10 Y s 1348 1241 m cl s 1384 1275 m -18 X s 1366 1275 m cl s 1384 1275 m 18 X s 1402
 1275 m cl s 1384 1275 m 9 Y s 1384 1284 m cl s 1384 1275 m -10 Y s 1384 1265 m cl s 1420 1318 m -18 X s 1402 1318 m cl s 1420 1318 m 18 X s 1438 1318 m cl s 1420 1318 m 8 Y s 1420 1326 m cl s 1420 1318 m -8 Y s 1420 1310 m cl s 1456 1355 m -18 X s
 1438 1355 m cl s 1456 1355 m 18 X s 1474 1355 m cl s 1456 1355 m 7 Y s 1456 1362 m cl s 1456 1355 m -7 Y s 1456 1348 m cl s 1491 1396 m -17 X s 1474 1396 m cl s 1491 1396 m 18 X s 1509 1396 m cl s 1491 1396 m 6 Y s 1491 1402 m cl s 1491 1396 m -6 Y
 s 1491 1390 m cl s 1527 1415 m -18 X s 1509 1415 m cl s 1527 1415 m 18 X s 1545 1415 m cl s 1527 1415 m 6 Y s 1527 1421 m cl s 1527 1415 m -5 Y s 1527 1410 m cl s 1563 1410 m -18 X s 1545 1410 m cl s 1563 1410 m 18 X s 1581 1410 m cl s 1563 1410 m 6
 Y s 1563 1416 m cl s 1563 1410 m -5 Y s 1563 1405 m cl s 1599 1407 m -18 X s 1581 1407 m cl s 1599 1407 m 18 X s 1617 1407 m cl s 1599 1407 m 6 Y s 1599 1413 m cl s 1599 1407 m -5 Y s 1599 1402 m cl s 1635 1398 m -18 X s 1617 1398 m cl s 1635 1398 m
 18 X s 1653 1398 m cl s 1635 1398 m 5 Y s 1635 1403 m cl s 1635 1398 m -6 Y s 1635 1392 m cl s 1671 1356 m -18 X s 1653 1356 m cl s 1671 1356 m 18 X s 1689 1356 m cl s 1671 1356 m 7 Y s 1671 1363 m cl s 1671 1356 m -7 Y s 1671 1349 m cl s 1706 1309
 m -17 X s 1689 1309 m cl s 1706 1309 m 18 X s 1724 1309 m cl s 1706 1309 m 8 Y s 1706 1317 m cl s 1706 1309 m -8 Y s 1706 1301 m cl s 1742 1259 m -18 X s 1724 1259 m cl s 1742 1259 m 18 X s 1760 1259 m cl s 1742 1259 m 10 Y s 1742 1269 m cl s 1742
 1259 m -10 Y s 1742 1249 m cl s 1778 1211 m -18 X s 1760 1211 m cl s 1778 1211 m 18 X s 1796 1211 m cl s 1778 1211 m 12 Y s 1778 1223 m cl s 1778 1211 m -11 Y s 1778 1200 m cl s 1814 1126 m -18 X s 1796 1126 m cl s 1814 1126 m 18 X s 1832 1126 m cl
 s 1814 1126 m 16 Y s 1814 1142 m cl s 1814 1126 m -17 Y s 1814 1109 m cl s 1850 1077 m -18 X s 1832 1077 m cl s 1850 1077 m 18 X s 1868 1077 m cl s 1850 1077 m 19 Y s 1850 1096 m cl s 1850 1077 m -20 Y s 1850 1057 m cl s 1886 956 m -18 X s 1868 956
 m cl s 1886 956 m 18 X s 1904 956 m cl s 1886 956 m 31 Y s 1886 987 m cl s 1886 956 m -31 Y s 1886 925 m cl s 1921 973 m -17 X s 1904 973 m cl s 1921 973 m 18 X s 1939 973 m cl s 1921 973 m 29 Y s 1921 1002 m cl s 1921 973 m -30 Y s 1921 943 m cl s
 1957 834 m -18 X s 1939 834 m cl s 1957 834 m 18 X s 1975 834 m cl s 1957 834 m 50 Y s 1957 884 m cl s 1957 834 m -51 Y s 1957 783 m cl s 1993 820 m -18 X s 1975 820 m cl s 1993 820 m 18 X s 2011 820 m cl s 1993 820 m 52 Y s 1993 872 m cl s 1993 820
 m -55 Y s 1993 765 m cl s 2029 848 m -18 X s 2011 848 m cl s 2029 848 m 18 X s 2047 848 m cl s 2029 848 m 47 Y s 2029 895 m cl s 2029 848 m -49 Y s 2029 799 m cl s 2065 667 m -18 X s 2047 667 m cl s 2065 667 m 18 X s 2083 667 m cl s 2065 667 m 94 Y
 s 2065 761 m cl s 2065 667 m -33 Y s 2065 634 m cl s 2101 667 m -18 X s 2083 667 m cl s 2101 667 m 18 X s 2119 667 m cl s 2101 667 m 94 Y s 2101 761 m cl s 2101 667 m -33 Y s 2101 634 m cl s 2136 785 m -17 X s 2119 785 m cl s 2136 785 m 18 X s 2154
 785 m cl s 2136 785 m 60 Y s 2136 845 m cl s 2136 785 m -64 Y s 2136 721 m cl s 381 785 417 785 2 { m20} R 488 820 524 763 560 848 596 738 632 763 667 860 703 834 739 860 775 881 811 900 847 908 882 938 918 973 954 931 990 944 1026 996 1062 978 1097
 1017 1133 1061 1169 1082 1205 1134 1241 1148 1276 1188 1312 1204 1348 1251 1384 1275 1420 1318 1456 1355 1491 1396 1527 1415 1563 1410 1599 1407 1635 1398 1671 1356 1706 1309 1742 1259 1778 1211 1814 1126 1850 1077 1886 956 1921 973 1957 834 1993
 820 2029 848 2065 667 2101 667 2136 785 47 { m20} R 0.52 0.76 0.64 c[ 4 8] 0 sd 9 lw black 0.52 0.76 0.64 c 363 775 m 36 11 d 35 10 d 36 11 d 36 11 d 36 11 d 36 11 d 36 12 d 35 12 d 36 12 d 36 13 d 36 13 d 36 14 d 36 13 d 35 14 d 36 15 d 36 15 d 36
 15 d 36 16 d 36 17 d 35 17 d 36 18 d 36 18 d 36 19 d 36 20 d 18 11 d 18 10 d 17 11 d 18 11 d 18 11 d 18 11 d 18 12 d 18 12 d 18 13 d 18 12 d 18 12 d 18 10 d 18 9 d 18 8 d 9 3 d 8 3 d 9 2 d 9 2 d 9 2 d 9 1 d 9 1 d 36 X 9 -1 d 9 -2 d 9 -1 d 9 -2 d 9
 -3 d 9 -3 d 9 -3 d 18 -7 d 18 -9 d 18 -11 d 35 -25 d 36 -32 d 18 -18 d 18 -19 d 18 -21 d 18 -22 d 18 -24 d 18 -26 d 18 -27 d 18 -28 d 17 -30 d 18 -31 d 18 -33 d 18 -34 d 18 -36 d 18 -37 d 36 -79 d 34 -82 d s 0.54 0.66 0.63 c black 0.54 0.66 0.63 c
 1236 634 m 5 20 d s 1241 654 m 18 77 d 17 74 d 18 68 d 18 64 d 9 30 d 9 29 d 9 28 d 9 27 d 9 26 d 9 24 d 9 24 d 9 22 d 9 21 d 9 20 d 9 19 d 9 17 d 9 17 d 9 15 d 36 50 d 9 10 d 8 8 d 9 8 d 9 6 d 9 5 d 9 4 d 9 3 d 5 1 d 4 X 5 1 d 9 X 4 -1 d 9 -2 d 9
 -3 d 9 -4 d 9 -5 d 9 -6 d 9 -8 d 9 -9 d 9 -10 d 18 -23 d 18 -27 d 9 -16 d 9 -17 d 8 -18 d 9 -19 d 9 -20 d 9 -21 d 9 -22 d 9 -24 d 9 -25 d 9 -26 d 9 -27 d 9 -28 d 9 -29 d 9 -31 d 18 -64 d 18 -69 d 18 -74 d 18 -78 d 2 -12 d s black[  ] 0 sd 3 lw 363
 634 m 1791 X s 393 659 m -25 Y s 452 646 m -12 Y s 512 646 m -12 Y s 572 646 m -12 Y s 632 646 m -12 Y s 691 659 m -25 Y s 751 646 m -12 Y s 811 646 m -12 Y s 870 646 m -12 Y s 930 646 m -12 Y s 990 659 m -25 Y s 1050 646 m -12 Y s 1109 646 m -12 Y
 s 1169 646 m -12 Y s 1229 646 m -12 Y s 1288 659 m -25 Y s 1348 646 m -12 Y s 1408 646 m -12 Y s 1468 646 m -12 Y s 1527 646 m -12 Y s 1587 659 m -25 Y s 1647 646 m -12 Y s 1706 646 m -12 Y s 1766 646 m -12 Y s 1826 646 m -12 Y s 1886 659 m -25 Y s
 393 659 m -25 Y s 1886 659 m -25 Y s 1945 646 m -12 Y s 2005 646 m -12 Y s 2065 646 m -12 Y s 2124 646 m -12 Y s 363 1484 m 1791 X s 393 1459 m 25 Y s 452 1471 m 13 Y s 512 1471 m 13 Y s 572 1471 m 13 Y s 632 1471 m 13 Y s 691 1459 m 25 Y s 751 1471
 m 13 Y s 811 1471 m 13 Y s 870 1471 m 13 Y s 930 1471 m 13 Y s 990 1459 m 25 Y s 1050 1471 m 13 Y s 1109 1471 m 13 Y s 1169 1471 m 13 Y s 1229 1471 m 13 Y s 1288 1459 m 25 Y s 1348 1471 m 13 Y s 1408 1471 m 13 Y s 1468 1471 m 13 Y s 1527 1471 m 13 Y
 s 1587 1459 m 25 Y s 1647 1471 m 13 Y s 1706 1471 m 13 Y s 1766 1471 m 13 Y s 1826 1471 m 13 Y s 1886 1459 m 25 Y s 393 1459 m 25 Y s 1886 1459 m 25 Y s 1945 1471 m 13 Y s 2005 1471 m 13 Y s 2065 1471 m 13 Y s 2124 1471 m 13 Y s 363 634 m 850 Y s
 390 667 m -27 X s 390 707 m -27 X s 390 738 m -27 X s 390 763 m -27 X s 390 785 m -27 X s 390 803 m -27 X s 390 820 m -27 X s 417 834 m -54 X s 390 931 m -27 X s 390 987 m -27 X s 390 1027 m -27 X s 390 1059 m -27 X s 390 1084 m -27 X s 390 1105 m
 -27 X s 390 1124 m -27 X s 390 1140 m -27 X s 417 1155 m -54 X s 390 1251 m -27 X s 390 1308 m -27 X s 390 1348 m -27 X s 390 1379 m -27 X s 390 1404 m -27 X s 390 1426 m -27 X s 390 1444 m -27 X s 390 1461 m -27 X s 417 1476 m -54 X s 2154 634 m
 850 Y s 2127 667 m 27 X s 2127 707 m 27 X s 2127 738 m 27 X s 2127 763 m 27 X s 2127 785 m 27 X s 2127 803 m 27 X s 2127 820 m 27 X s 2101 834 m 53 X s 2127 931 m 27 X s 2127 987 m 27 X s 2127 1027 m 27 X s 2127 1059 m 27 X s 2127 1084 m 27 X s 2127
 1105 m 27 X s 2127 1124 m 27 X s 2127 1140 m 27 X s 2101 1155 m 53 X s 2127 1251 m 27 X s 2127 1308 m 27 X s 2127 1348 m 27 X s 2127 1379 m 27 X s 2127 1404 m 27 X s 2127 1426 m 27 X s 2127 1444 m 27 X s 2127 1461 m 27 X s 2101 1476 m 53 X s
 gsave  2268 1077 0 461 C 677.708 1215.31 t 0 r /Helvetica findfont 58.7189 sf 0 0 m (4mu) show NC gr  1 1 1 c 453 161 454 1269 bf black
 gsave  2268 1077 0 461 C 566.929 1371.71 t 0 r /Helvetica-Bold findfont 48.9324 sf 0 0 m (MC15) show NC gr  510 1390 m20
 gsave  2268 1077 0 461 C 566.929 1293.51 t 0 r /Helvetica-Bold findfont 48.9324 sf 0 0 m (Projection of Signal pdf) show NC gr  0 0 1 c 9 lw 471 1309 m 79 X s black 3 lw 1 1 1 c 2268 461 0 0 bf black 1 1 1 c 1791 364 363 74 bf black 1791 364 363 74
 bl 363 74 m 1791 X s
 gsave  2268 461 0 0 C 1915.83 13.0329 t 0 r /Helvetica findfont 22.9045 sf 0 0 m (4l Invariant Mass \(GeV\)) show NC gr  393 85 m -11 Y s 452 79 m -5 Y s 512 79 m -5 Y s 572 79 m -5 Y s 632 79 m -5 Y s 691 85 m -11 Y s 751 79 m -5 Y s 811 79 m -5 Y
 s 870 79 m -5 Y s 930 79 m -5 Y s 990 85 m -11 Y s 1050 79 m -5 Y s 1109 79 m -5 Y s 1169 79 m -5 Y s 1229 79 m -5 Y s 1288 85 m -11 Y s 1348 79 m -5 Y s 1408 79 m -5 Y s 1468 79 m -5 Y s 1527 79 m -5 Y s 1587 85 m -11 Y s 1647 79 m -5 Y s 1706 79 m
 -5 Y s 1766 79 m -5 Y s 1826 79 m -5 Y s 1886 85 m -11 Y s 393 85 m -11 Y s 1886 85 m -11 Y s 1945 79 m -5 Y s 2005 79 m -5 Y s 2065 79 m -5 Y s 2124 79 m -5 Y s
 gsave  2268 461 0 0 C 371.436 55.3896 t 0 r /Helvetica findfont 22.9045 sf 0 0 m (260) show NC gr 
 gsave  2268 461 0 0 C 671.192 55.3896 t 0 r /Helvetica findfont 22.9045 sf 0 0 m (270) show NC gr 
 gsave  2268 461 0 0 C 967.689 55.3896 t 0 r /Helvetica findfont 22.9045 sf 0 0 m (280) show NC gr 
 gsave  2268 461 0 0 C 1267.45 55.3896 t 0 r /Helvetica findfont 22.9045 sf 0 0 m (290) show NC gr 
 gsave  2268 461 0 0 C 1567.2 55.3896 t 0 r /Helvetica findfont 22.9045 sf 0 0 m (300) show NC gr 
 gsave  2268 461 0 0 C 1863.7 55.3896 t 0 r /Helvetica findfont 22.9045 sf 0 0 m (310) show NC gr  363 438 m 1791 X s 393 427 m 11 Y s 452 433 m 5 Y s 512 433 m 5 Y s 572 433 m 5 Y s 632 433 m 5 Y s 691 427 m 11 Y s 751 433 m 5 Y s 811 433 m 5 Y s
 870 433 m 5 Y s 930 433 m 5 Y s 990 427 m 11 Y s 1050 433 m 5 Y s 1109 433 m 5 Y s 1169 433 m 5 Y s 1229 433 m 5 Y s 1288 427 m 11 Y s 1348 433 m 5 Y s 1408 433 m 5 Y s 1468 433 m 5 Y s 1527 433 m 5 Y s 1587 427 m 11 Y s 1647 433 m 5 Y s 1706 433 m
 5 Y s 1766 433 m 5 Y s 1826 433 m 5 Y s 1886 427 m 11 Y s 393 427 m 11 Y s 1886 427 m 11 Y s 1945 433 m 5 Y s 2005 433 m 5 Y s 2065 433 m 5 Y s 2124 433 m 5 Y s 363 74 m 364 Y s 417 74 m -54 X s 390 81 m -27 X s 390 88 m -27 X s 390 96 m -27 X s 390
 103 m -27 X s 417 110 m -54 X s 390 118 m -27 X s 390 125 m -27 X s 390 132 m -27 X s 390 139 m -27 X s 417 147 m -54 X s 390 154 m -27 X s 390 161 m -27 X s 390 169 m -27 X s 390 176 m -27 X s 417 183 m -54 X s 390 190 m -27 X s 390 198 m -27 X s
 390 205 m -27 X s 390 212 m -27 X s 417 220 m -54 X s 390 227 m -27 X s 390 234 m -27 X s 390 241 m -27 X s 390 249 m -27 X s 417 256 m -54 X s 390 263 m -27 X s 390 271 m -27 X s 390 278 m -27 X s 390 285 m -27 X s 417 293 m -54 X s 390 300 m -27 X
 s 390 307 m -27 X s 390 314 m -27 X s 390 322 m -27 X s 417 329 m -54 X s 390 336 m -27 X s 390 344 m -27 X s 390 351 m -27 X s 390 358 m -27 X s 417 365 m -54 X s 390 373 m -27 X s 390 380 m -27 X s 390 387 m -27 X s 390 395 m -27 X s 417 402 m -54
 X s 390 409 m -27 X s 390 416 m -27 X s 390 424 m -27 X s 390 431 m -27 X s 417 438 m -54 X s
 gsave  2268 461 0 0 C 329.08 65.1643 t 0 r /Helvetica findfont 22.9045 sf 0 0 m (\2555) show NC gr 
 gsave  2268 461 0 0 C 329.08 101.005 t 0 r /Helvetica findfont 22.9045 sf 0 0 m (\2554) show NC gr 
 gsave  2268 461 0 0 C 329.08 140.103 t 0 r /Helvetica findfont 22.9045 sf 0 0 m (\2553) show NC gr 
 gsave  2268 461 0 0 C 329.08 175.944 t 0 r /Helvetica findfont 22.9045 sf 0 0 m (\2552) show NC gr 
 gsave  2268 461 0 0 C 332.338 211.784 t 0 r /Helvetica findfont 22.9045 sf 0 0 m (\2551) show NC gr 
 gsave  2268 461 0 0 C 335.596 247.624 t 0 r /Helvetica findfont 22.9045 sf 0 0 m (0) show NC gr 
 gsave  2268 461 0 0 C 338.854 283.465 t 0 r /Helvetica findfont 22.9045 sf 0 0 m (1) show NC gr 
 gsave  2268 461 0 0 C 335.596 319.305 t 0 r /Helvetica findfont 22.9045 sf 0 0 m (2) show NC gr 
 gsave  2268 461 0 0 C 335.596 358.403 t 0 r /Helvetica findfont 22.9045 sf 0 0 m (3) show NC gr 
 gsave  2268 461 0 0 C 335.596 394.244 t 0 r /Helvetica findfont 22.9045 sf 0 0 m (4) show NC gr 
 gsave  2268 461 0 0 C 335.596 430.084 t 0 r /Helvetica findfont 22.9045 sf 0 0 m (5) show NC gr  2154 74 m 364 Y s 2101 74 m 53 X s 2127 81 m 27 X s 2127 88 m 27 X s 2127 96 m 27 X s 2127 103 m 27 X s 2101 110 m 53 X s 2127 118 m 27 X s 2127 125 m
 27 X s 2127 132 m 27 X s 2127 139 m 27 X s 2101 147 m 53 X s 2127 154 m 27 X s 2127 161 m 27 X s 2127 169 m 27 X s 2127 176 m 27 X s 2101 183 m 53 X s 2127 190 m 27 X s 2127 198 m 27 X s 2127 205 m 27 X s 2127 212 m 27 X s 2101 220 m 53 X s 2127 227
 m 27 X s 2127 234 m 27 X s 2127 241 m 27 X s 2127 249 m 27 X s 2101 256 m 53 X s 2127 263 m 27 X s 2127 271 m 27 X s 2127 278 m 27 X s 2127 285 m 27 X s 2101 293 m 53 X s 2127 300 m 27 X s 2127 307 m 27 X s 2127 314 m 27 X s 2127 322 m 27 X s 2101
 329 m 53 X s 2127 336 m 27 X s 2127 344 m 27 X s 2127 351 m 27 X s 2127 358 m 27 X s 2101 365 m 53 X s 2127 373 m 27 X s 2127 380 m 27 X s 2127 387 m 27 X s 2127 395 m 27 X s 2101 402 m 53 X s 2127 409 m 27 X s 2127 416 m 27 X s 2127 424 m 27 X s
 2127 431 m 27 X s 2101 438 m 53 X s 6 lw 0.2 0.8 0.2 c black 3 lw 0.2 0.8 0.2 c 363 256 m 3 Y 36 X -6 Y 35 X -78 Y 36 X 87 Y 36 X -39 Y 36 X 44 Y 36 X -74 Y 36 X 3 Y 35 X 52 Y 36 X -28 Y 36 X 8 Y 36 X 5 Y 36 X 3 Y 36 X -7 Y 35 X 14 Y 36 X 22 Y 36 X
 -66 Y 36 X -7 Y 36 X 42 Y 36 X -51 Y 35 X 26 Y 36 X 40 Y 36 X 1 Y 36 X 69 Y 36 X -16 Y 36 X 41 Y 35 X -49 Y 36 X 22 Y 36 X -88 Y 36 X -24 Y 36 X -22 Y 36 X 69 Y 35 X 17 Y 36 X -54 Y 36 X 48 Y 36 X 83 Y 36 X -44 Y 36 X -18 Y 35 X -4 Y 36 X 17 Y 36 X
 -81 Y 36 X 21 Y 36 X -82 Y 36 X 103 Y 35 X -60 Y 36 X 48 Y 36 X 67 Y 36 X -61 Y 36 X 32 Y 36 X 58 Y 35 X -86 Y f 6 lw black 0.2 0.8 0.2 c black 363 259 m 36 X -6 Y 35 X -78 Y 36 X 87 Y 36 X -39 Y 36 X 44 Y 36 X -74 Y 36 X 3 Y 35 X 52 Y 36 X -28 Y 36
 X 8 Y 36 X 5 Y 36 X 3 Y 36 X -7 Y 35 X 14 Y 36 X 22 Y 36 X -66 Y 36 X -7 Y 36 X 42 Y 36 X -51 Y 35 X 26 Y 36 X 40 Y 36 X 1 Y 36 X 69 Y 36 X -16 Y 36 X 41 Y 35 X -49 Y 36 X 22 Y 36 X -88 Y 36 X -24 Y 36 X -22 Y 36 X 69 Y 35 X 17 Y 36 X -54 Y 36 X 48
 Y 36 X 83 Y 36 X -44 Y 36 X -18 Y 35 X -4 Y 36 X 17 Y 36 X -81 Y 36 X 21 Y 36 X -82 Y 36 X 103 Y 35 X -60 Y 36 X 48 Y 36 X 67 Y 36 X -61 Y 36 X 32 Y 36 X 58 Y 35 X s 3 lw 363 74 m 1791 X s 393 85 m -11 Y s 452 79 m -5 Y s 512 79 m -5 Y s 572 79 m -5
 Y s 632 79 m -5 Y s 691 85 m -11 Y s 751 79 m -5 Y s 811 79 m -5 Y s 870 79 m -5 Y s 930 79 m -5 Y s 990 85 m -11 Y s 1050 79 m -5 Y s 1109 79 m -5 Y s 1169 79 m -5 Y s 1229 79 m -5 Y s 1288 85 m -11 Y s 1348 79 m -5 Y s 1408 79 m -5 Y s 1468 79 m
 -5 Y s 1527 79 m -5 Y s 1587 85 m -11 Y s 1647 79 m -5 Y s 1706 79 m -5 Y s 1766 79 m -5 Y s 1826 79 m -5 Y s 1886 85 m -11 Y s 393 85 m -11 Y s 1886 85 m -11 Y s 1945 79 m -5 Y s 2005 79 m -5 Y s 2065 79 m -5 Y s 2124 79 m -5 Y s 363 438 m 1791 X s
 393 427 m 11 Y s 452 433 m 5 Y s 512 433 m 5 Y s 572 433 m 5 Y s 632 433 m 5 Y s 691 427 m 11 Y s 751 433 m 5 Y s 811 433 m 5 Y s 870 433 m 5 Y s 930 433 m 5 Y s 990 427 m 11 Y s 1050 433 m 5 Y s 1109 433 m 5 Y s 1169 433 m 5 Y s 1229 433 m 5 Y s
 1288 427 m 11 Y s 1348 433 m 5 Y s 1408 433 m 5 Y s 1468 433 m 5 Y s 1527 433 m 5 Y s 1587 427 m 11 Y s 1647 433 m 5 Y s 1706 433 m 5 Y s 1766 433 m 5 Y s 1826 433 m 5 Y s 1886 427 m 11 Y s 393 427 m 11 Y s 1886 427 m 11 Y s 1945 433 m 5 Y s 2005
 433 m 5 Y s 2065 433 m 5 Y s 2124 433 m 5 Y s 363 74 m 364 Y s 417 74 m -54 X s 390 81 m -27 X s 390 88 m -27 X s 390 96 m -27 X s 390 103 m -27 X s 417 110 m -54 X s 390 118 m -27 X s 390 125 m -27 X s 390 132 m -27 X s 390 139 m -27 X s 417 147 m
 -54 X s 390 154 m -27 X s 390 161 m -27 X s 390 169 m -27 X s 390 176 m -27 X s 417 183 m -54 X s 390 190 m -27 X s 390 198 m -27 X s 390 205 m -27 X s 390 212 m -27 X s 417 220 m -54 X s 390 227 m -27 X s 390 234 m -27 X s 390 241 m -27 X s 390 249
 m -27 X s 417 256 m -54 X s 390 263 m -27 X s 390 271 m -27 X s 390 278 m -27 X s 390 285 m -27 X s 417 293 m -54 X s 390 300 m -27 X s 390 307 m -27 X s 390 314 m -27 X s 390 322 m -27 X s 417 329 m -54 X s 390 336 m -27 X s 390 344 m -27 X s 390
 351 m -27 X s 390 358 m -27 X s 417 365 m -54 X s 390 373 m -27 X s 390 380 m -27 X s 390 387 m -27 X s 390 395 m -27 X s 417 402 m -54 X s 390 409 m -27 X s 390 416 m -27 X s 390 424 m -27 X s 390 431 m -27 X s 417 438 m -54 X s 2154 74 m 364 Y s
 2101 74 m 53 X s 2127 81 m 27 X s 2127 88 m 27 X s 2127 96 m 27 X s 2127 103 m 27 X s 2101 110 m 53 X s 2127 118 m 27 X s 2127 125 m 27 X s 2127 132 m 27 X s 2127 139 m 27 X s 2101 147 m 53 X s 2127 154 m 27 X s 2127 161 m 27 X s 2127 169 m 27 X s
 2127 176 m 27 X s 2101 183 m 53 X s 2127 190 m 27 X s 2127 198 m 27 X s 2127 205 m 27 X s 2127 212 m 27 X s 2101 220 m 53 X s 2127 227 m 27 X s 2127 234 m 27 X s 2127 241 m 27 X s 2127 249 m 27 X s 2101 256 m 53 X s 2127 263 m 27 X s 2127 271 m 27 X
 s 2127 278 m 27 X s 2127 285 m 27 X s 2101 293 m 53 X s 2127 300 m 27 X s 2127 307 m 27 X s 2127 314 m 27 X s 2127 322 m 27 X s 2101 329 m 53 X s 2127 336 m 27 X s 2127 344 m 27 X s 2127 351 m 27 X s 2127 358 m 27 X s 2101 365 m 53 X s 2127 373 m 27
 X s 2127 380 m 27 X s 2127 387 m 27 X s 2127 395 m 27 X s 2101 402 m 53 X s 2127 409 m 27 X s 2127 416 m 27 X s 2127 424 m 27 X s 2127 431 m 27 X s 2101 438 m 53 X s
 gr  gr showpage
end
%%EOF
