%!PS-Adobe-2.0 EPSF-2.0
%%BoundingBox:  0 0 567 407
%%Title: H4l2015_plotfit/gg_multipeakplot_4mu.eps: 
%%Creator: ROOT Version 5.34/07
%%CreationDate: Sun Jul 31 19:52:30 2016
%%EndComments
%%BeginProlog
80 dict begin
/s {stroke} def /l {lineto} def /m {moveto} def /t {translate} def
/r {rotate} def /rl {roll}  def /R {repeat} def
/d {rlineto} def /rm {rmoveto} def /gr {grestore} def /f {eofill} def
/c {setrgbcolor} def /black {0 setgray} def /sd {setdash} def
/cl {closepath} def /sf {scalefont setfont} def /lw {setlinewidth} def
/box {m dup 0 exch d exch 0 d 0 exch neg d cl} def
/NC{systemdict begin initclip end}def/C{NC box clip newpath}def
/bl {box s} def /bf {box f} def /Y { 0 exch d} def /X { 0 d} def 
/K {{pop pop 0 moveto} exch kshow} bind def
/ita {/ang 15 def gsave [1 0 ang dup sin exch cos div 1 0 0] concat} def 
/mp {newpath /y exch def /x exch def} def
/side {[w .77 mul w .23 mul] .385 w mul sd w 0 l currentpoint t -144 r} def
/mr {mp x y w2 0 360 arc} def /m24 {mr s} def /m20 {mr f} def
/mb {mp x y w2 add m w2 neg 0 d 0 w neg d w 0 d 0 w d cl} def
/mt {mp x y w2 add m w2 neg w neg d w 0 d cl} def
/m21 {mb f} def /m25 {mb s} def /m22 {mt f} def /m26{mt s} def
/m23 {mp x y w2 sub m w2 w d w neg 0 d cl f} def
/m27 {mp x y w2 add m w3 neg w2 neg d w3 w2 neg d w3 w2 d cl s} def
/m28 {mp x w2 sub y w2 sub w3 add m w3 0 d  0 w3 neg d w3 0 d 0 w3 d w3 0 d  0 w3 d w3 neg 0 d 0 w3 d w3 neg 0 d 0 w3 neg d w3 neg 0 d cl s } def
/m29 {mp gsave x w2 sub y w2 add w3 sub m currentpoint t 4 {side} repeat cl fill gr} def
/m30 {mp gsave x w2 sub y w2 add w3 sub m currentpoint t 4 {side} repeat cl s gr} def
/m31 {mp x y w2 sub m 0 w d x w2 sub y m w 0 d x w2 sub y w2 add m w w neg d x w2 sub y w2 sub m w w d s} def
/m32 {mp x y w2 sub m w2 w d w neg 0 d cl s} def
/m33 {mp x y w2 add m w3 neg w2 neg d w3 w2 neg d w3 w2 d cl f} def
/m34 {mp x w2 sub y w2 sub w3 add m w3 0 d  0 w3 neg d w3 0 d 0 w3 d w3 0 d  0 w3 d w3 neg 0 d 0 w3 d w3 neg 0 d 0 w3 neg d w3 neg 0 d cl f } def
/m2 {mp x y w2 sub m 0 w d x w2 sub y m w 0 d s} def
/m5 {mp x w2 sub y w2 sub m w w d x w2 sub y w2 add m w w neg d s} def
/reEncode {exch findfont dup length dict begin {1 index /FID eq  {pop pop} {def} ifelse } forall /Encoding exch def currentdict end dup /FontName get exch definefont pop } def [/Times-Bold /Times-Italic /Times-BoldItalic /Helvetica /Helvetica-Oblique
 /Helvetica-Bold /Helvetica-BoldOblique /Courier /Courier-Oblique /Courier-Bold /Courier-BoldOblique /Times-Roman /AvantGarde-Book /AvantGarde-BookOblique /AvantGarde-Demi /AvantGarde-DemiOblique /Bookman-Demi /Bookman-DemiItalic /Bookman-Light
 /Bookman-LightItalic /Helvetica-Narrow /Helvetica-Narrow-Bold /Helvetica-Narrow-BoldOblique /Helvetica-Narrow-Oblique /NewCenturySchlbk-Roman /NewCenturySchlbk-Bold /NewCenturySchlbk-BoldItalic /NewCenturySchlbk-Italic /Palatino-Bold
 /Palatino-BoldItalic /Palatino-Italic /Palatino-Roman ] {ISOLatin1Encoding reEncode } forall
%%EndProlog
%%BeginSetup
%%EndSetup
newpath  gsave  .25 .25 scale  gsave  0 0 t black[  ] 0 sd 3 lw 1 1 1 c 2268 1630 0 0 bf black 1 1 1 c 1791 1287 363 261 bf black 1791 1287 363 261 bl 363 261 m 1791 X s
 gsave  2268 1630 0 0 C 1350.37 56.9778 t 0 r /Helvetica findfont 76.92 sf 0 0 m (4l Invariant Mass \(GeV\)) show NC gr  363 299 m -38 Y s 399 280 m -19 Y s 434 280 m -19 Y s 470 280 m -19 Y s 506 280 m -19 Y s 542 299 m -38 Y s 578 280 m -19 Y s 614
 280 m -19 Y s 649 280 m -19 Y s 685 280 m -19 Y s 721 299 m -38 Y s 757 280 m -19 Y s 793 280 m -19 Y s 829 280 m -19 Y s 864 280 m -19 Y s 900 299 m -38 Y s 936 280 m -19 Y s 972 280 m -19 Y s 1008 280 m -19 Y s 1044 280 m -19 Y s 1079 299 m -38 Y
 s 1115 280 m -19 Y s 1151 280 m -19 Y s 1187 280 m -19 Y s 1223 280 m -19 Y s 1259 299 m -38 Y s 1294 280 m -19 Y s 1330 280 m -19 Y s 1366 280 m -19 Y s 1402 280 m -19 Y s 1438 299 m -38 Y s 1474 280 m -19 Y s 1509 280 m -19 Y s 1545 280 m -19 Y s
 1581 280 m -19 Y s 1617 299 m -38 Y s 1653 280 m -19 Y s 1689 280 m -19 Y s 1724 280 m -19 Y s 1760 280 m -19 Y s 1796 299 m -38 Y s 1832 280 m -19 Y s 1868 280 m -19 Y s 1904 280 m -19 Y s 1939 280 m -19 Y s 1975 299 m -38 Y s 2011 280 m -19 Y s
 2047 280 m -19 Y s 2083 280 m -19 Y s 2119 280 m -19 Y s 2154 299 m -38 Y s
 gsave  2268 1630 0 0 C 299.133 188.027 t 0 r /Helvetica findfont 76.92 sf 0 0 m (100) show NC gr 
 gsave  2268 1630 0 0 C 478.614 188.027 t 0 r /Helvetica findfont 76.92 sf 0 0 m (200) show NC gr 
 gsave  2268 1630 0 0 C 658.094 188.027 t 0 r /Helvetica findfont 76.92 sf 0 0 m (300) show NC gr 
 gsave  2268 1630 0 0 C 837.574 188.027 t 0 r /Helvetica findfont 76.92 sf 0 0 m (400) show NC gr 
 gsave  2268 1630 0 0 C 1014.2 188.027 t 0 r /Helvetica findfont 76.92 sf 0 0 m (500) show NC gr 
 gsave  2268 1630 0 0 C 1193.68 188.027 t 0 r /Helvetica findfont 76.92 sf 0 0 m (600) show NC gr 
 gsave  2268 1630 0 0 C 1373.17 188.027 t 0 r /Helvetica findfont 76.92 sf 0 0 m (700) show NC gr 
 gsave  2268 1630 0 0 C 1552.65 188.027 t 0 r /Helvetica findfont 76.92 sf 0 0 m (800) show NC gr 
 gsave  2268 1630 0 0 C 1732.13 188.027 t 0 r /Helvetica findfont 76.92 sf 0 0 m (900) show NC gr 
 gsave  2268 1630 0 0 C 1888.81 188.027 t 0 r /Helvetica findfont 76.92 sf 0 0 m (1000) show NC gr 
 gsave  2268 1630 0 0 C 2068.29 188.027 t 0 r /Helvetica findfont 76.92 sf 0 0 m (1100) show NC gr  363 1548 m 1791 X s 363 1509 m 39 Y s 399 1529 m 19 Y s 434 1529 m 19 Y s 470 1529 m 19 Y s 506 1529 m 19 Y s 542 1509 m 39 Y s 578 1529 m 19 Y s 614
 1529 m 19 Y s 649 1529 m 19 Y s 685 1529 m 19 Y s 721 1509 m 39 Y s 757 1529 m 19 Y s 793 1529 m 19 Y s 829 1529 m 19 Y s 864 1529 m 19 Y s 900 1509 m 39 Y s 936 1529 m 19 Y s 972 1529 m 19 Y s 1008 1529 m 19 Y s 1044 1529 m 19 Y s 1079 1509 m 39 Y
 s 1115 1529 m 19 Y s 1151 1529 m 19 Y s 1187 1529 m 19 Y s 1223 1529 m 19 Y s 1259 1509 m 39 Y s 1294 1529 m 19 Y s 1330 1529 m 19 Y s 1366 1529 m 19 Y s 1402 1529 m 19 Y s 1438 1509 m 39 Y s 1474 1529 m 19 Y s 1509 1529 m 19 Y s 1545 1529 m 19 Y s
 1581 1529 m 19 Y s 1617 1509 m 39 Y s 1653 1529 m 19 Y s 1689 1529 m 19 Y s 1724 1529 m 19 Y s 1760 1529 m 19 Y s 1796 1509 m 39 Y s 1832 1529 m 19 Y s 1868 1529 m 19 Y s 1904 1529 m 19 Y s 1939 1529 m 19 Y s 1975 1509 m 39 Y s 2011 1529 m 19 Y s
 2047 1529 m 19 Y s 2083 1529 m 19 Y s 2119 1529 m 19 Y s 2154 1509 m 39 Y s 363 261 m 1287 Y s
 gsave  2268 1630 0 0 C 131.049 450.125 t 90 r /Helvetica findfont 76.92 sf 0 0 m (Projection of Signal pdf \( / GeV \)) show NC gr  417 261 m -54 X s 390 310 m -27 X s 390 360 m -27 X s 390 409 m -27 X s 417 459 m -54 X s 390 508 m -27 X s 390 558 m
 -27 X s 390 607 m -27 X s 417 657 m -54 X s 390 706 m -27 X s 390 756 m -27 X s 390 805 m -27 X s 417 855 m -54 X s 390 904 m -27 X s 390 954 m -27 X s 390 1003 m -27 X s 417 1053 m -54 X s 390 1102 m -27 X s 390 1152 m -27 X s 390 1201 m -27 X s
 417 1251 m -54 X s 390 1300 m -27 X s 390 1350 m -27 X s 390 1399 m -27 X s 417 1449 m -54 X s 417 1449 m -54 X s 390 1498 m -27 X s 390 1547 m -27 X s
 gsave  2268 1630 0 0 C 310.529 233.609 t 0 r /Helvetica findfont 76.92 sf 0 0 m (0) show NC gr 
 gsave  2268 1630 0 0 C 245.005 433.031 t 0 r /Helvetica findfont 76.92 sf 0 0 m (0.2) show NC gr 
 gsave  2268 1630 0 0 C 245.005 629.605 t 0 r /Helvetica findfont 76.92 sf 0 0 m (0.4) show NC gr 
 gsave  2268 1630 0 0 C 245.005 826.178 t 0 r /Helvetica findfont 76.92 sf 0 0 m (0.6) show NC gr 
 gsave  2268 1630 0 0 C 245.005 1025.6 t 0 r /Helvetica findfont 76.92 sf 0 0 m (0.8) show NC gr 
 gsave  2268 1630 0 0 C 321.925 1219.32 t 0 r /Helvetica findfont 76.92 sf 0 0 m (1) show NC gr 
 gsave  2268 1630 0 0 C 245.005 1418.75 t 0 r /Helvetica findfont 76.92 sf 0 0 m (1.2) show NC gr  2154 261 m 1287 Y s 2101 261 m 53 X s 2127 310 m 27 X s 2127 360 m 27 X s 2127 409 m 27 X s 2101 459 m 53 X s 2127 508 m 27 X s 2127 558 m 27 X s 2127
 607 m 27 X s 2101 657 m 53 X s 2127 706 m 27 X s 2127 756 m 27 X s 2127 805 m 27 X s 2101 855 m 53 X s 2127 904 m 27 X s 2127 954 m 27 X s 2127 1003 m 27 X s 2101 1053 m 53 X s 2127 1102 m 27 X s 2127 1152 m 27 X s 2127 1201 m 27 X s 2101 1251 m 53
 X s 2127 1300 m 27 X s 2127 1350 m 27 X s 2127 1399 m 27 X s 2101 1449 m 53 X s 2101 1449 m 53 X s 2127 1498 m 27 X s 2127 1547 m 27 X s 0.67 0.65 0.75 c 9 lw black 0.67 0.65 0.75 c 363 269 m cl s 363 269 m 18 1 d 18 2 d 18 1 d 17 2 d 18 3 d 18 4 d
 18 6 d 18 12 d 9 12 d 5 8 d 4 12 d 2 9 d 3 13 d 2 35 d 2 106 d 2 258 d 3 408 d 2 326 d 2 -33 d 2 -362 d 2 -403 d 3 -251 d 2 -109 d 2 -41 d 2 -16 d 3 -7 d 2 -3 d 18 -1 d 1576 X s 0.83 0.81 0.53 c black 0.83 0.81 0.53 c 363 266 m cl s 363 266 m 18 1 d
 18 X 18 1 d 17 X 18 1 d 18 1 d 18 1 d 18 2 d 18 2 d 18 2 d 18 4 d 18 7 d 9 5 d 9 7 d 9 13 d 4 9 d 2 7 d 3 10 d 2 19 d 2 41 d 2 86 d 3 151 d 2 211 d 2 205 d 2 111 d 3 -38 d 2 -167 d 2 -218 d 2 -192 d 3 -130 d 2 -75 d 2 -39 d 2 -21 d 2 -10 d 3 -6 d 2
 -4 d 4 -2 d 1496 X s 0.87 0.73 0.53 c black 0.87 0.73 0.53 c 363 265 m cl s 363 265 m 36 X 18 1 d 35 X 18 1 d 18 X 18 1 d 18 X 18 1 d 18 1 d 18 1 d 18 1 d 18 2 d 18 3 d 17 4 d 18 7 d 9 5 d 9 8 d 5 6 d 4 8 d 3 5 d 2 8 d 2 12 d 2 22 d 2 39 d 3 65 d 2
 100 d 2 126 d 2 130 d 3 102 d 2 42 d 2 -30 d 2 -92 d 3 -127 d 2 -129 d 2 -109 d 2 -79 d 3 -52 d 2 -33 d 2 -21 d 2 -13 d 3 -8 d 2 -5 d 2 -3 d 4 -3 d 5 -1 d 1397 X s 0.74 0.62 0.51 c black 0.74 0.62 0.51 c 363 264 m cl s 363 264 m 54 X 17 1 d 72 X 18
 1 d 36 X 18 1 d 18 X 18 1 d 18 1 d 17 1 d 18 1 d 18 1 d 18 2 d 18 3 d 18 4 d 18 7 d 9 6 d 9 9 d 4 6 d 3 5 d 2 6 d 2 9 d 2 13 d 3 21 d 2 34 d 2 51 d 2 70 d 3 83 d 2 87 d 2 77 d 2 53 d 2 17 d 3 -23 d 2 -57 d 2 -80 d 2 -87 d 3 -81 d 2 -69 d 2 -52 d 2
 -38 d 3 -27 d 2 -19 d 2 -13 d 2 -9 d 3 -6 d 2 -5 d 2 -3 d 5 -3 d 8 -2 d 1299 X s 0.78 0.6 0.49 c black 0.78 0.6 0.49 c 363 263 m cl s 363 263 m 18 X 18 1 d 125 X 18 1 d 54 X 18 1 d 35 X 18 1 d 18 X 18 1 d 18 1 d 18 1 d 18 1 d 18 1 d 18 2 d 18 3 d 18
 4 d 9 4 d 9 4 d 8 6 d 5 5 d 4 5 d 3 4 d 2 5 d 2 6 d 2 9 d 3 14 d 2 20 d 2 28 d 2 41 d 3 50 d 2 58 d 2 61 d 2 58 d 3 47 d 2 29 d 2 7 d 2 -18 d 3 -38 d 2 -54 d 4 -120 d 2 -55 d 3 -46 d 2 -37 d 2 -29 d 2 -21 d 3 -17 d 2 -12 d 2 -9 d 2 -7 d 3 -5 d 2 -4
 d 2 -3 d 5 -3 d 4 -2 d 9 -1 d 1200 X s 0.75 0.51 0.47 c black 0.75 0.51 0.47 c 363 263 m cl s 363 263 m 107 X 18 1 d 108 X 18 1 d 71 X 18 1 d 36 X 18 1 d 18 X 18 1 d 18 1 d 18 1 d 18 1 d 17 1 d 18 3 d 18 3 d 18 4 d 9 4 d 9 4 d 9 7 d 5 5 d 4 7 d 2 5
 d 3 7 d 2 9 d 2 13 d 2 17 d 2 25 d 3 32 d 2 37 d 2 42 d 2 45 d 3 44 d 2 38 d 2 30 d 2 16 d 3 2 d 2 -14 d 2 -27 d 2 -37 d 3 -43 d 2 -45 d 2 -43 d 2 -38 d 3 -33 d 2 -27 d 2 -22 d 2 -18 d 2 -14 d 3 -10 d 2 -9 d 2 -7 d 2 -6 d 3 -4 d 4 -6 d 5 -4 d 4 -2 d
 5 X 18 -1 d 1092 X s 0.81 0.37 0.38 c black 0.81 0.37 0.38 c 363 263 m cl s 363 263 m 179 X 18 1 d 125 X 18 1 d 54 X 18 1 d 36 X 18 1 d 18 X 17 1 d 18 X 18 1 d 18 1 d 18 1 d 18 2 d 18 2 d 18 3 d 18 5 d 9 4 d 9 5 d 4 3 d 5 5 d 4 5 d 2 4 d 3 5 d 2 7 d
 2 9 d 2 12 d 3 16 d 2 20 d 2 25 d 2 29 d 3 31 d 4 67 d 2 32 d 2 26 d 3 19 d 2 9 d 2 X 2 -11 d 3 -20 d 2 -27 d 2 -32 d 2 -34 d 3 -33 d 2 -31 d 2 -28 d 2 -25 d 3 -20 d 2 -17 d 2 -15 d 2 -11 d 3 -10 d 2 -8 d 2 -6 d 2 -6 d 3 -4 d 2 -4 d 4 -5 d 5 -4 d 4
 -2 d 9 -2 d 1012 X s 0.67 0.56 0.58 c black 0.67 0.56 0.58 c 363 263 m cl s 363 263 m 269 X 17 1 d 108 X 18 1 d 72 X 17 1 d 36 X 18 1 d 18 X 18 1 d 18 1 d 18 X 18 1 d 18 2 d 18 1 d 18 3 d 17 3 d 9 2 d 9 3 d 9 4 d 9 6 d 5 3 d 4 5 d 2 4 d 3 4 d 2 5 d
 2 6 d 2 8 d 3 11 d 2 14 d 2 17 d 2 20 d 3 22 d 2 24 d 2 26 d 2 26 d 3 25 d 2 23 d 2 18 d 2 12 d 3 6 d 2 -2 d 2 -8 d 2 -16 d 2 -20 d 3 -24 d 2 -26 d 2 -26 d 2 -25 d 3 -24 d 2 -21 d 2 -18 d 2 -16 d 3 -14 d 2 -11 d 2 -10 d 2 -8 d 3 -8 d 2 -6 d 2 -5 d 2
 -4 d 5 -7 d 4 -5 d 5 -3 d 4 -2 d 5 -2 d 9 -1 d 913 X s 0.65 0.47 0.48 c black 0.65 0.47 0.48 c 363 262 m cl s 363 262 m 18 X 18 1 d 286 X 18 1 d 144 X 17 1 d 54 X 18 1 d 36 X 18 1 d 18 X 18 1 d 18 X 18 1 d 17 1 d 18 1 d 18 1 d 18 2 d 18 2 d 18 4 d 9
 2 d 9 3 d 9 5 d 4 2 d 5 4 d 4 4 d 5 6 d 2 4 d 2 4 d 3 6 d 2 8 d 2 10 d 2 12 d 2 14 d 3 15 d 2 18 d 2 19 d 5 41 d 2 21 d 2 19 d 2 16 d 3 13 d 2 8 d 2 3 d 2 -2 d 3 -7 d 2 -12 d 2 -16 d 2 -18 d 3 -20 d 4 -41 d 2 -20 d 2 -18 d 3 -16 d 2 -15 d 2 -12 d 2
 -11 d 3 -10 d 2 -8 d 2 -7 d 2 -6 d 3 -6 d 2 -5 d 2 -4 d 2 -3 d 5 -6 d 4 -5 d 5 -3 d 4 -2 d 9 -2 d 9 -1 d 815 X s 0.58 0.41 0.44 c black 0.58 0.41 0.44 c 363 262 m cl s 363 262 m 71 X 18 1 d 305 X 18 1 d 143 X 18 1 d 54 X 18 1 d 54 X 17 1 d 18 X 18 1
 d 18 X 18 1 d 18 1 d 18 1 d 18 2 d 18 1 d 18 3 d 18 4 d 9 2 d 8 4 d 9 4 d 5 3 d 4 4 d 5 5 d 2 3 d 2 3 d 3 5 d 2 5 d 2 7 d 2 9 d 3 10 d 2 11 d 2 13 d 2 15 d 3 15 d 2 16 d 4 34 d 2 15 d 3 15 d 2 12 d 2 9 d 2 6 d 3 2 d 2 -3 d 2 -6 d 2 -9 d 3 -13 d 2
 -14 d 2 -16 d 5 -34 d 2 -16 d 2 -15 d 2 -14 d 3 -13 d 2 -11 d 2 -10 d 2 -9 d 3 -8 d 2 -7 d 2 -6 d 2 -6 d 2 -5 d 5 -8 d 4 -6 d 5 -5 d 4 -4 d 5 -3 d 4 -2 d 5 -2 d 9 -1 d 9 -1 d 716 X s 0.83 0.35 0.33 c black 0.83 0.35 0.33 c 363 262 m cl s 363 262 m
 125 X 18 1 d 323 X 18 1 d 143 X 18 1 d 71 X 18 1 d 36 X 18 1 d 18 X 18 1 d 18 X 18 1 d 18 1 d 18 1 d 17 1 d 18 1 d 18 2 d 18 3 d 18 4 d 9 2 d 9 4 d 9 5 d 5 3 d 4 4 d 4 5 d 3 4 d 2 4 d 2 5 d 2 6 d 3 7 d 2 9 d 2 10 d 2 10 d 3 12 d 2 12 d 9 55 d 2 12 d
 2 11 d 3 9 d 2 7 d 2 4 d 2 1 d 2 -2 d 3 -6 d 2 -7 d 2 -10 d 2 -12 d 3 -13 d 4 -28 d 2 -13 d 3 -13 d 2 -12 d 2 -11 d 2 -11 d 3 -9 d 2 -8 d 2 -7 d 2 -7 d 3 -6 d 2 -5 d 2 -5 d 5 -8 d 4 -7 d 4 -5 d 5 -5 d 4 -3 d 5 -3 d 4 -2 d 9 -2 d 9 -1 d 18 -1 d 609 X
 s 0.573333 0 1 c black 0.573333 0 1 c 363 262 m cl s 363 262 m 179 X 18 1 d 340 X 18 1 d 144 X 17 1 d 72 X 18 1 d 36 X 18 1 d 36 X 17 1 d 18 X 18 1 d 18 1 d 18 1 d 18 1 d 18 2 d 18 2 d 18 2 d 9 2 d 9 2 d 9 3 d 9 4 d 4 2 d 5 3 d 4 3 d 5 5 d 2 3 d 2 3
 d 2 4 d 3 4 d 2 6 d 2 6 d 2 7 d 2 9 d 3 8 d 2 10 d 2 10 d 2 11 d 5 23 d 2 12 d 2 11 d 3 10 d 2 8 d 2 7 d 2 5 d 3 3 d 2 X 2 -2 d 2 -4 d 3 -7 d 2 -8 d 2 -10 d 2 -11 d 9 -45 d 2 -11 d 3 -9 d 2 -9 d 2 -9 d 2 -7 d 3 -7 d 2 -6 d 2 -6 d 2 -5 d 3 -4 d 4 -8
 d 5 -7 d 4 -6 d 5 -4 d 4 -4 d 4 -3 d 5 -3 d 4 -1 d 5 -2 d 9 -2 d 9 -1 d 528 X s 0.48 0 1 c black 0.48 0 1 c 363 262 m cl s 363 262 m 251 X 18 1 d 340 X 18 1 d 143 X 18 1 d 72 X 18 1 d 53 X 18 1 d 18 X 18 1 d 18 X 18 1 d 18 X 18 1 d 18 1 d 18 1 d 18
 2 d 17 2 d 18 3 d 9 2 d 9 2 d 9 3 d 9 4 d 5 2 d 4 3 d 5 4 d 4 5 d 2 3 d 3 3 d 2 4 d 2 5 d 2 6 d 3 6 d 2 7 d 2 8 d 2 8 d 3 8 d 2 10 d 2 9 d 4 20 d 3 10 d 2 9 d 2 8 d 2 7 d 3 5 d 2 4 d 2 2 d 2 X 3 -2 d 2 -4 d 2 -6 d 2 -7 d 3 -8 d 2 -9 d 9 -39 d 2 -9 d
 2 -9 d 3 -8 d 2 -8 d 2 -6 d 2 -7 d 2 -5 d 3 -5 d 2 -5 d 2 -4 d 5 -8 d 4 -7 d 5 -5 d 4 -5 d 5 -4 d 4 -3 d 5 -3 d 4 -2 d 4 -2 d 9 -3 d 9 -1 d 9 -1 d 430 X s 0.386667 0 1 c black 0.386667 0 1 c 363 262 m cl s 363 262 m 322 X 18 1 d 341 X 18 1 d 143 X
 18 1 d 89 X 18 1 d 54 X 18 1 d 18 X 18 1 d 18 X 18 1 d 17 1 d 18 X 18 1 d 18 2 d 18 1 d 18 2 d 18 3 d 9 2 d 9 3 d 9 3 d 9 4 d 4 2 d 5 3 d 4 4 d 2 3 d 3 2 d 2 4 d 2 4 d 2 4 d 3 5 d 2 5 d 2 6 d 2 7 d 3 7 d 2 7 d 2 8 d 5 17 d 4 17 d 2 8 d 3 8 d 2 6 d 2
 6 d 2 4 d 2 3 d 3 2 d 2 -1 d 2 -2 d 2 -3 d 3 -5 d 2 -6 d 2 -7 d 2 -8 d 9 -34 d 3 -8 d 2 -8 d 2 -7 d 2 -7 d 3 -6 d 2 -6 d 2 -5 d 2 -5 d 3 -4 d 2 -4 d 4 -8 d 5 -6 d 4 -5 d 5 -5 d 4 -4 d 5 -4 d 4 -3 d 5 -2 d 4 -2 d 5 -2 d 4 -1 d 9 -2 d 9 -1 d 18 -1 d
 322 X s 0.293333 0 1 c black 0.293333 0 1 c 363 262 m cl s 363 262 m 412 X 18 1 d 340 X 18 1 d 143 X 18 1 d 90 X 18 1 d 54 X 17 1 d 18 X 18 1 d 18 X 18 1 d 18 1 d 18 X 18 1 d 18 2 d 18 1 d 18 3 d 18 3 d 8 2 d 9 2 d 9 3 d 5 2 d 4 2 d 5 3 d 4 3 d 5 5
 d 2 2 d 2 3 d 3 4 d 2 4 d 2 4 d 2 5 d 2 5 d 3 6 d 2 6 d 2 7 d 2 7 d 3 7 d 4 15 d 5 15 d 2 7 d 2 6 d 2 6 d 3 5 d 2 3 d 2 3 d 5 X 2 -2 d 2 -3 d 2 -5 d 3 -5 d 2 -6 d 2 -7 d 9 -30 d 2 -8 d 2 -7 d 3 -6 d 2 -7 d 2 -5 d 2 -6 d 3 -4 d 2 -5 d 2 -4 d 2 -4 d 5
 -7 d 4 -5 d 5 -6 d 4 -4 d 5 -4 d 4 -4 d 5 -3 d 4 -3 d 5 -2 d 4 -2 d 5 -1 d 9 -3 d 9 -1 d 8 -1 d 9 -1 d 233 X s 0.2 0 1 c black 0.2 0 1 c 363 262 m cl s 363 262 m 519 X 18 1 d 341 X 18 1 d 143 X 18 1 d 71 X 18 1 d 54 X 18 1 d 18 X 18 1 d 18 X 18 1 d
 18 X 18 1 d 17 1 d 18 2 d 18 1 d 18 3 d 18 3 d 9 2 d 9 2 d 9 4 d 4 2 d 5 2 d 4 3 d 5 4 d 2 2 d 2 3 d 3 3 d 2 3 d 2 3 d 2 4 d 3 5 d 2 4 d 2 5 d 2 6 d 3 5 d 2 7 d 4 13 d 5 14 d 4 13 d 2 6 d 3 6 d 2 5 d 2 4 d 2 3 d 3 1 d 2 1 d 2 -1 d 2 -2 d 3 -3 d 2 -4
 d 2 -5 d 2 -5 d 3 -6 d 4 -14 d 5 -14 d 4 -13 d 2 -6 d 2 -6 d 3 -5 d 2 -5 d 2 -5 d 2 -4 d 3 -4 d 2 -3 d 4 -7 d 5 -5 d 4 -5 d 5 -5 d 4 -4 d 5 -3 d 4 -3 d 5 -3 d 4 -3 d 5 -2 d 4 -2 d 9 -2 d 9 -2 d 9 -2 d 9 X 18 -1 d 125 X s 0.106667 0 1 c black
 0.106667 0 1 c 363 262 m cl s 363 262 m 645 X 18 1 d 322 X 18 1 d 143 X 18 1 d 72 X 18 1 d 36 X 18 1 d 35 X 18 1 d 18 X 18 1 d 18 1 d 18 1 d 18 1 d 18 2 d 18 2 d 9 2 d 9 2 d 9 2 d 9 2 d 9 4 d 4 2 d 5 3 d 4 3 d 4 5 d 5 5 d 4 6 d 3 4 d 2 4 d 2 4 d 2 4
 d 3 5 d 2 5 d 2 6 d 2 6 d 5 12 d 4 13 d 5 12 d 2 6 d 2 5 d 3 4 d 2 4 d 2 2 d 2 2 d 2 X 3 -1 d 2 -2 d 2 -3 d 2 -3 d 3 -5 d 2 -5 d 2 -6 d 5 -12 d 4 -13 d 5 -13 d 2 -5 d 2 -6 d 2 -5 d 3 -5 d 2 -4 d 2 -4 d 4 -7 d 5 -6 d 4 -5 d 5 -5 d 4 -4 d 5 -4 d 4 -4
 d 5 -3 d 4 -3 d 5 -2 d 9 -5 d 9 -3 d 9 -2 d 9 -2 d 9 -1 d 18 -1 d 35 X s black 3 lw 363 261 m 1791 X s 363 299 m -38 Y s 399 280 m -19 Y s 434 280 m -19 Y s 470 280 m -19 Y s 506 280 m -19 Y s 542 299 m -38 Y s 578 280 m -19 Y s 614 280 m -19 Y s
 649 280 m -19 Y s 685 280 m -19 Y s 721 299 m -38 Y s 757 280 m -19 Y s 793 280 m -19 Y s 829 280 m -19 Y s 864 280 m -19 Y s 900 299 m -38 Y s 936 280 m -19 Y s 972 280 m -19 Y s 1008 280 m -19 Y s 1044 280 m -19 Y s 1079 299 m -38 Y s 1115 280 m
 -19 Y s 1151 280 m -19 Y s 1187 280 m -19 Y s 1223 280 m -19 Y s 1259 299 m -38 Y s 1294 280 m -19 Y s 1330 280 m -19 Y s 1366 280 m -19 Y s 1402 280 m -19 Y s 1438 299 m -38 Y s 1474 280 m -19 Y s 1509 280 m -19 Y s 1545 280 m -19 Y s 1581 280 m
 -19 Y s 1617 299 m -38 Y s 1653 280 m -19 Y s 1689 280 m -19 Y s 1724 280 m -19 Y s 1760 280 m -19 Y s 1796 299 m -38 Y s 1832 280 m -19 Y s 1868 280 m -19 Y s 1904 280 m -19 Y s 1939 280 m -19 Y s 1975 299 m -38 Y s 2011 280 m -19 Y s 2047 280 m
 -19 Y s 2083 280 m -19 Y s 2119 280 m -19 Y s 2154 299 m -38 Y s 363 1548 m 1791 X s 363 1509 m 39 Y s 399 1529 m 19 Y s 434 1529 m 19 Y s 470 1529 m 19 Y s 506 1529 m 19 Y s 542 1509 m 39 Y s 578 1529 m 19 Y s 614 1529 m 19 Y s 649 1529 m 19 Y s
 685 1529 m 19 Y s 721 1509 m 39 Y s 757 1529 m 19 Y s 793 1529 m 19 Y s 829 1529 m 19 Y s 864 1529 m 19 Y s 900 1509 m 39 Y s 936 1529 m 19 Y s 972 1529 m 19 Y s 1008 1529 m 19 Y s 1044 1529 m 19 Y s 1079 1509 m 39 Y s 1115 1529 m 19 Y s 1151 1529 m
 19 Y s 1187 1529 m 19 Y s 1223 1529 m 19 Y s 1259 1509 m 39 Y s 1294 1529 m 19 Y s 1330 1529 m 19 Y s 1366 1529 m 19 Y s 1402 1529 m 19 Y s 1438 1509 m 39 Y s 1474 1529 m 19 Y s 1509 1529 m 19 Y s 1545 1529 m 19 Y s 1581 1529 m 19 Y s 1617 1509 m 39
 Y s 1653 1529 m 19 Y s 1689 1529 m 19 Y s 1724 1529 m 19 Y s 1760 1529 m 19 Y s 1796 1509 m 39 Y s 1832 1529 m 19 Y s 1868 1529 m 19 Y s 1904 1529 m 19 Y s 1939 1529 m 19 Y s 1975 1509 m 39 Y s 2011 1529 m 19 Y s 2047 1529 m 19 Y s 2083 1529 m 19 Y
 s 2119 1529 m 19 Y s 2154 1509 m 39 Y s 363 261 m 1287 Y s 417 261 m -54 X s 390 310 m -27 X s 390 360 m -27 X s 390 409 m -27 X s 417 459 m -54 X s 390 508 m -27 X s 390 558 m -27 X s 390 607 m -27 X s 417 657 m -54 X s 390 706 m -27 X s 390 756 m
 -27 X s 390 805 m -27 X s 417 855 m -54 X s 390 904 m -27 X s 390 954 m -27 X s 390 1003 m -27 X s 417 1053 m -54 X s 390 1102 m -27 X s 390 1152 m -27 X s 390 1201 m -27 X s 417 1251 m -54 X s 390 1300 m -27 X s 390 1350 m -27 X s 390 1399 m -27 X
 s 417 1449 m -54 X s 417 1449 m -54 X s 390 1498 m -27 X s 390 1547 m -27 X s 2154 261 m 1287 Y s 2101 261 m 53 X s 2127 310 m 27 X s 2127 360 m 27 X s 2127 409 m 27 X s 2101 459 m 53 X s 2127 508 m 27 X s 2127 558 m 27 X s 2127 607 m 27 X s 2101
 657 m 53 X s 2127 706 m 27 X s 2127 756 m 27 X s 2127 805 m 27 X s 2101 855 m 53 X s 2127 904 m 27 X s 2127 954 m 27 X s 2127 1003 m 27 X s 2101 1053 m 53 X s 2127 1102 m 27 X s 2127 1152 m 27 X s 2127 1201 m 27 X s 2101 1251 m 53 X s 2127 1300 m 27
 X s 2127 1350 m 27 X s 2127 1399 m 27 X s 2101 1449 m 53 X s 2101 1449 m 53 X s 2127 1498 m 27 X s 2127 1547 m 27 X s
 gr  gr showpage
end
%%EOF
