%!PS-Adobe-2.0 EPSF-2.0
%%BoundingBox:  0 0 567 384
%%Title: H4l2015_plotfit/gg_mass_signal_200_fixed_H4l_2mu2e.eps: 
%%Creator: ROOT Version 5.34/10
%%CreationDate: Thu Feb 16 15:43:01 2017
%%EndComments
%%BeginProlog
80 dict begin
/s {stroke} def /l {lineto} def /m {moveto} def /t {translate} def
/r {rotate} def /rl {roll}  def /R {repeat} def
/d {rlineto} def /rm {rmoveto} def /gr {grestore} def /f {eofill} def
/c {setrgbcolor} def /black {0 setgray} def /sd {setdash} def
/cl {closepath} def /sf {scalefont setfont} def /lw {setlinewidth} def
/box {m dup 0 exch d exch 0 d 0 exch neg d cl} def
/NC{systemdict begin initclip end}def/C{NC box clip newpath}def
/bl {box s} def /bf {box f} def /Y { 0 exch d} def /X { 0 d} def 
/K {{pop pop 0 moveto} exch kshow} bind def
/ita {/ang 15 def gsave [1 0 ang dup sin exch cos div 1 0 0] concat} def 
/mp {newpath /y exch def /x exch def} def
/side {[w .77 mul w .23 mul] .385 w mul sd w 0 l currentpoint t -144 r} def
/mr {mp x y w2 0 360 arc} def /m24 {mr s} def /m20 {mr f} def
/mb {mp x y w2 add m w2 neg 0 d 0 w neg d w 0 d 0 w d cl} def
/mt {mp x y w2 add m w2 neg w neg d w 0 d cl} def
/m21 {mb f} def /m25 {mb s} def /m22 {mt f} def /m26{mt s} def
/m23 {mp x y w2 sub m w2 w d w neg 0 d cl f} def
/m27 {mp x y w2 add m w3 neg w2 neg d w3 w2 neg d w3 w2 d cl s} def
/m28 {mp x w2 sub y w2 sub w3 add m w3 0 d  0 w3 neg d w3 0 d 0 w3 d w3 0 d  0 w3 d w3 neg 0 d 0 w3 d w3 neg 0 d 0 w3 neg d w3 neg 0 d cl s } def
/m29 {mp gsave x w2 sub y w2 add w3 sub m currentpoint t 4 {side} repeat cl fill gr} def
/m30 {mp gsave x w2 sub y w2 add w3 sub m currentpoint t 4 {side} repeat cl s gr} def
/m31 {mp x y w2 sub m 0 w d x w2 sub y m w 0 d x w2 sub y w2 add m w w neg d x w2 sub y w2 sub m w w d s} def
/m32 {mp x y w2 sub m w2 w d w neg 0 d cl s} def
/m33 {mp x y w2 add m w3 neg w2 neg d w3 w2 neg d w3 w2 d cl f} def
/m34 {mp x w2 sub y w2 sub w3 add m w3 0 d  0 w3 neg d w3 0 d 0 w3 d w3 0 d  0 w3 d w3 neg 0 d 0 w3 d w3 neg 0 d 0 w3 neg d w3 neg 0 d cl f } def
/m2 {mp x y w2 sub m 0 w d x w2 sub y m w 0 d s} def
/m5 {mp x w2 sub y w2 sub m w w d x w2 sub y w2 add m w w neg d s} def
/reEncode {exch findfont dup length dict begin {1 index /FID eq  {pop pop} {def} ifelse } forall /Encoding exch def currentdict end dup /FontName get exch definefont pop } def [/Times-Bold /Times-Italic /Times-BoldItalic /Helvetica /Helvetica-Oblique
 /Helvetica-Bold /Helvetica-BoldOblique /Courier /Courier-Oblique /Courier-Bold /Courier-BoldOblique /Times-Roman /AvantGarde-Book /AvantGarde-BookOblique /AvantGarde-Demi /AvantGarde-DemiOblique /Bookman-Demi /Bookman-DemiItalic /Bookman-Light
 /Bookman-LightItalic /Helvetica-Narrow /Helvetica-Narrow-Bold /Helvetica-Narrow-BoldOblique /Helvetica-Narrow-Oblique /NewCenturySchlbk-Roman /NewCenturySchlbk-Bold /NewCenturySchlbk-BoldItalic /NewCenturySchlbk-Italic /Palatino-Bold
 /Palatino-BoldItalic /Palatino-Italic /Palatino-Roman ] {ISOLatin1Encoding reEncode } forall
%%EndProlog
%%BeginSetup
%%EndSetup
newpath  gsave  .25 .25 scale  gsave  0 0 t black[  ] 0 sd 3 lw 1 1 1 c 2268 1538 0 0 bf black 1 1 1 c 2222 738 23 784 bf black 1 1 1 c 2222 739 23 15 bf black 1 1 1 c 2268 1077 0 461 bf black 1 1 1 c 1791 850 363 634 bf black 1791 850 363 634 bl 363
 634 m 1791 X s
 gsave  2268 1077 0 461 C 1642.14 498.507 t 0 r /Helvetica findfont 48.9324 sf 0 0 m (4l Invariant Mass \(GeV\)) show NC gr  363 659 m -25 Y s 416 646 m -12 Y s 468 646 m -12 Y s 521 646 m -12 Y s 574 646 m -12 Y s 626 659 m -25 Y s 679 646 m -12 Y s
 732 646 m -12 Y s 784 646 m -12 Y s 837 646 m -12 Y s 890 659 m -25 Y s 942 646 m -12 Y s 995 646 m -12 Y s 1048 646 m -12 Y s 1101 646 m -12 Y s 1153 659 m -25 Y s 1206 646 m -12 Y s 1259 646 m -12 Y s 1311 646 m -12 Y s 1364 646 m -12 Y s 1417 659
 m -25 Y s 1469 646 m -12 Y s 1522 646 m -12 Y s 1575 646 m -12 Y s 1627 646 m -12 Y s 1680 659 m -25 Y s 1733 646 m -12 Y s 1785 646 m -12 Y s 1838 646 m -12 Y s 1891 646 m -12 Y s 1944 659 m -25 Y s 1944 659 m -25 Y s 1996 646 m -12 Y s 2049 646 m
 -12 Y s 2102 646 m -12 Y s 2154 646 m -12 Y s
 gsave  2268 1077 0 461 C 319.305 586.478 t 0 r /Helvetica findfont 48.9324 sf 0 0 m (175) show NC gr 
 gsave  2268 1077 0 461 C 583.22 586.478 t 0 r /Helvetica findfont 48.9324 sf 0 0 m (180) show NC gr 
 gsave  2268 1077 0 461 C 847.135 586.478 t 0 r /Helvetica findfont 48.9324 sf 0 0 m (185) show NC gr 
 gsave  2268 1077 0 461 C 1107.79 586.478 t 0 r /Helvetica findfont 48.9324 sf 0 0 m (190) show NC gr 
 gsave  2268 1077 0 461 C 1371.71 586.478 t 0 r /Helvetica findfont 48.9324 sf 0 0 m (195) show NC gr 
 gsave  2268 1077 0 461 C 1635.62 586.478 t 0 r /Helvetica findfont 48.9324 sf 0 0 m (200) show NC gr 
 gsave  2268 1077 0 461 C 1899.54 586.478 t 0 r /Helvetica findfont 48.9324 sf 0 0 m (205) show NC gr  363 1484 m 1791 X s 363 1459 m 25 Y s 416 1471 m 13 Y s 468 1471 m 13 Y s 521 1471 m 13 Y s 574 1471 m 13 Y s 626 1459 m 25 Y s 679 1471 m 13 Y s
 732 1471 m 13 Y s 784 1471 m 13 Y s 837 1471 m 13 Y s 890 1459 m 25 Y s 942 1471 m 13 Y s 995 1471 m 13 Y s 1048 1471 m 13 Y s 1101 1471 m 13 Y s 1153 1459 m 25 Y s 1206 1471 m 13 Y s 1259 1471 m 13 Y s 1311 1471 m 13 Y s 1364 1471 m 13 Y s 1417
 1459 m 25 Y s 1469 1471 m 13 Y s 1522 1471 m 13 Y s 1575 1471 m 13 Y s 1627 1471 m 13 Y s 1680 1459 m 25 Y s 1733 1471 m 13 Y s 1785 1471 m 13 Y s 1838 1471 m 13 Y s 1891 1471 m 13 Y s 1944 1459 m 25 Y s 1944 1459 m 25 Y s 1996 1471 m 13 Y s 2049
 1471 m 13 Y s 2102 1471 m 13 Y s 2154 1471 m 13 Y s 363 634 m 850 Y s
 gsave  2268 1077 0 461 C 120.554 1032.85 t 90 r /Helvetica findfont 48.9324 sf 0 0 m (Events / \( 0.68 GeV \)) show NC gr  390 644 m -27 X s 390 682 m -27 X s 390 712 m -27 X s 390 736 m -27 X s 390 757 m -27 X s 390 774 m -27 X s 390 790 m -27 X s
 417 804 m -54 X s
 gsave  2268 1077 0 461 C 342.425 783.261 t 0 r  -55 0 t /Helvetica findfont 48.9324 sf 0 0 m (10) show NC gr  390 896 m -27 X s 390 950 m -27 X s 390 988 m -27 X s 390 1018 m -27 X s 390 1042 m -27 X s 390 1063 m -27 X s 390 1081 m -27 X s 390 1096
 m -27 X s 417 1110 m -54 X s
 gsave  2268 1077 0 461 C 322.563 1107.79 t 0 r /Helvetica findfont 32.6216 sf 0 0 m (2) show NC gr 
 gsave  2268 1077 0 461 C 270.432 1088.24 t 0 r /Helvetica findfont 48.9324 sf 0 0 m (10) show NC gr  390 1202 m -27 X s 390 1256 m -27 X s 390 1295 m -27 X s 390 1324 m -27 X s 390 1348 m -27 X s 390 1369 m -27 X s 390 1387 m -27 X s 390 1402 m -27
 X s 417 1416 m -54 X s
 gsave  2268 1077 0 461 C 322.563 1417.32 t 0 r /Helvetica findfont 32.6216 sf 0 0 m (3) show NC gr 
 gsave  2268 1077 0 461 C 270.432 1394.52 t 0 r /Helvetica findfont 48.9324 sf 0 0 m (10) show NC gr  2154 634 m 850 Y s 2127 644 m 27 X s 2127 682 m 27 X s 2127 712 m 27 X s 2127 736 m 27 X s 2127 757 m 27 X s 2127 774 m 27 X s 2127 790 m 27 X s
 2101 804 m 53 X s 2127 896 m 27 X s 2127 950 m 27 X s 2127 988 m 27 X s 2127 1018 m 27 X s 2127 1042 m 27 X s 2127 1063 m 27 X s 2127 1081 m 27 X s 2127 1096 m 27 X s 2101 1110 m 53 X s 2127 1202 m 27 X s 2127 1256 m 27 X s 2127 1295 m 27 X s 2127
 1324 m 27 X s 2127 1348 m 27 X s 2127 1369 m 27 X s 2127 1387 m 27 X s 2127 1402 m 27 X s 2101 1416 m 53 X s 381 804 m -18 X s 363 804 m cl s 381 804 m 18 X s 399 804 m cl s 381 804 m 47 Y s 381 851 m cl s 381 804 m -49 Y s 381 755 m cl s 417 849 m
 -18 X s 399 849 m cl s 417 849 m 17 X s 434 849 m cl s 417 849 m 39 Y s 417 888 m cl s 417 849 m -41 Y s 417 808 m cl s 452 909 m -18 X s 434 909 m cl s 452 909 m 18 X s 470 909 m cl s 452 909 m 31 Y s 452 940 m cl s 452 909 m -32 Y s 452 877 m cl s
 488 817 m -18 X s 470 817 m cl s 488 817 m 18 X s 506 817 m cl s 488 817 m 45 Y s 488 862 m cl s 488 817 m -47 Y s 488 770 m cl s 524 915 m -18 X s 506 915 m cl s 524 915 m 18 X s 542 915 m cl s 524 915 m 30 Y s 524 945 m cl s 524 915 m -31 Y s 524
 884 m cl s 560 889 m -18 X s 542 889 m cl s 560 889 m 18 X s 578 889 m cl s 560 889 m 34 Y s 560 923 m cl s 560 889 m -34 Y s 560 855 m cl s 596 903 m -18 X s 578 903 m cl s 596 903 m 18 X s 614 903 m cl s 596 903 m 31 Y s 596 934 m cl s 596 903 m
 -33 Y s 596 870 m cl s 632 903 m -18 X s 614 903 m cl s 632 903 m 17 X s 649 903 m cl s 632 903 m 31 Y s 632 934 m cl s 632 903 m -33 Y s 632 870 m cl s 667 849 m -18 X s 649 849 m cl s 667 849 m 18 X s 685 849 m cl s 667 849 m 39 Y s 667 888 m cl s
 667 849 m -41 Y s 667 808 m cl s 703 896 m -18 X s 685 896 m cl s 703 896 m 18 X s 721 896 m cl s 703 896 m 33 Y s 703 929 m cl s 703 896 m -33 Y s 703 863 m cl s 739 921 m -18 X s 721 921 m cl s 739 921 m 18 X s 757 921 m cl s 739 921 m 29 Y s 739
 950 m cl s 739 921 m -31 Y s 739 890 m cl s 775 921 m -18 X s 757 921 m cl s 775 921 m 18 X s 793 921 m cl s 775 921 m 29 Y s 775 950 m cl s 775 921 m -31 Y s 775 890 m cl s 811 955 m -18 X s 793 955 m cl s 811 955 m 18 X s 829 955 m cl s 811 955 m
 25 Y s 811 980 m cl s 811 955 m -27 Y s 811 928 m cl s 847 955 m -18 X s 829 955 m cl s 847 955 m 17 X s 864 955 m cl s 847 955 m 25 Y s 847 980 m cl s 847 955 m -27 Y s 847 928 m cl s 882 967 m -18 X s 864 967 m cl s 882 967 m 18 X s 900 967 m cl s
 882 967 m 24 Y s 882 991 m cl s 882 967 m -25 Y s 882 942 m cl s 918 971 m -18 X s 900 971 m cl s 918 971 m 18 X s 936 971 m cl s 918 971 m 24 Y s 918 995 m cl s 918 971 m -25 Y s 918 946 m cl s 954 963 m -18 X s 936 963 m cl s 954 963 m 18 X s 972
 963 m cl s 954 963 m 25 Y s 954 988 m cl s 954 963 m -25 Y s 954 938 m cl s 990 967 m -18 X s 972 967 m cl s 990 967 m 18 X s 1008 967 m cl s 990 967 m 24 Y s 990 991 m cl s 990 967 m -25 Y s 990 942 m cl s 1026 1055 m -18 X s 1008 1055 m cl s 1026
 1055 m 18 X s 1044 1055 m cl s 1026 1055 m 17 Y s 1026 1072 m cl s 1026 1055 m -17 Y s 1026 1038 m cl s 1062 1007 m -18 X s 1044 1007 m cl s 1062 1007 m 17 X s 1079 1007 m cl s 1062 1007 m 21 Y s 1062 1028 m cl s 1062 1007 m -21 Y s 1062 986 m cl s
 1097 1047 m -18 X s 1079 1047 m cl s 1097 1047 m 18 X s 1115 1047 m cl s 1097 1047 m 18 Y s 1097 1065 m cl s 1097 1047 m -18 Y s 1097 1029 m cl s 1133 1075 m -18 X s 1115 1075 m cl s 1133 1075 m 18 X s 1151 1075 m cl s 1133 1075 m 16 Y s 1133 1091 m
 cl s 1133 1075 m -16 Y s 1133 1059 m cl s 1169 1087 m -18 X s 1151 1087 m cl s 1169 1087 m 18 X s 1187 1087 m cl s 1169 1087 m 15 Y s 1169 1102 m cl s 1169 1087 m -15 Y s 1169 1072 m cl s 1205 1103 m -18 X s 1187 1103 m cl s 1205 1103 m 18 X s 1223
 1103 m cl s 1205 1103 m 15 Y s 1205 1118 m cl s 1205 1103 m -14 Y s 1205 1089 m cl s 1241 1112 m -18 X s 1223 1112 m cl s 1241 1112 m 18 X s 1259 1112 m cl s 1241 1112 m 13 Y s 1241 1125 m cl s 1241 1112 m -14 Y s 1241 1098 m cl s 1276 1158 m -17 X
 s 1259 1158 m cl s 1276 1158 m 18 X s 1294 1158 m cl s 1276 1158 m 11 Y s 1276 1169 m cl s 1276 1158 m -11 Y s 1276 1147 m cl s 1312 1167 m -18 X s 1294 1167 m cl s 1312 1167 m 18 X s 1330 1167 m cl s 1312 1167 m 11 Y s 1312 1178 m cl s 1312 1167 m
 -11 Y s 1312 1156 m cl s 1348 1201 m -18 X s 1330 1201 m cl s 1348 1201 m 18 X s 1366 1201 m cl s 1348 1201 m 9 Y s 1348 1210 m cl s 1348 1201 m -9 Y s 1348 1192 m cl s 1384 1231 m -18 X s 1366 1231 m cl s 1384 1231 m 18 X s 1402 1231 m cl s 1384
 1231 m 8 Y s 1384 1239 m cl s 1384 1231 m -8 Y s 1384 1223 m cl s 1420 1259 m -18 X s 1402 1259 m cl s 1420 1259 m 18 X s 1438 1259 m cl s 1420 1259 m 8 Y s 1420 1267 m cl s 1420 1259 m -7 Y s 1420 1252 m cl s 1456 1292 m -18 X s 1438 1292 m cl s
 1456 1292 m 18 X s 1474 1292 m cl s 1456 1292 m 7 Y s 1456 1299 m cl s 1456 1292 m -7 Y s 1456 1285 m cl s 1491 1316 m -17 X s 1474 1316 m cl s 1491 1316 m 18 X s 1509 1316 m cl s 1491 1316 m 6 Y s 1491 1322 m cl s 1491 1316 m -6 Y s 1491 1310 m cl
 s 1527 1354 m -18 X s 1509 1354 m cl s 1527 1354 m 18 X s 1545 1354 m cl s 1527 1354 m 5 Y s 1527 1359 m cl s 1527 1354 m -6 Y s 1527 1348 m cl s 1563 1375 m -18 X s 1545 1375 m cl s 1563 1375 m 18 X s 1581 1375 m cl s 1563 1375 m 5 Y s 1563 1380 m
 cl s 1563 1375 m -5 Y s 1563 1370 m cl s 1599 1400 m -18 X s 1581 1400 m cl s 1599 1400 m 18 X s 1617 1400 m cl s 1599 1400 m 5 Y s 1599 1405 m cl s 1599 1400 m -4 Y s 1599 1396 m cl s 1635 1420 m -18 X s 1617 1420 m cl s 1635 1420 m 18 X s 1653
 1420 m cl s 1635 1420 m 4 Y s 1635 1424 m cl s 1635 1420 m -5 Y s 1635 1415 m cl s 1671 1418 m -18 X s 1653 1418 m cl s 1671 1418 m 18 X s 1689 1418 m cl s 1671 1418 m 4 Y s 1671 1422 m cl s 1671 1418 m -4 Y s 1671 1414 m cl s 1706 1396 m -17 X s
 1689 1396 m cl s 1706 1396 m 18 X s 1724 1396 m cl s 1706 1396 m 5 Y s 1706 1401 m cl s 1706 1396 m -4 Y s 1706 1392 m cl s 1742 1375 m -18 X s 1724 1375 m cl s 1742 1375 m 18 X s 1760 1375 m cl s 1742 1375 m 5 Y s 1742 1380 m cl s 1742 1375 m -5 Y
 s 1742 1370 m cl s 1778 1339 m -18 X s 1760 1339 m cl s 1778 1339 m 18 X s 1796 1339 m cl s 1778 1339 m 5 Y s 1778 1344 m cl s 1778 1339 m -6 Y s 1778 1333 m cl s 1814 1276 m -18 X s 1796 1276 m cl s 1814 1276 m 18 X s 1832 1276 m cl s 1814 1276 m 7
 Y s 1814 1283 m cl s 1814 1276 m -7 Y s 1814 1269 m cl s 1850 1241 m -18 X s 1832 1241 m cl s 1850 1241 m 18 X s 1868 1241 m cl s 1850 1241 m 8 Y s 1850 1249 m cl s 1850 1241 m -8 Y s 1850 1233 m cl s 1886 1158 m -18 X s 1868 1158 m cl s 1886 1158 m
 18 X s 1904 1158 m cl s 1886 1158 m 11 Y s 1886 1169 m cl s 1886 1158 m -11 Y s 1886 1147 m cl s 1921 1120 m -17 X s 1904 1120 m cl s 1921 1120 m 18 X s 1939 1120 m cl s 1921 1120 m 13 Y s 1921 1133 m cl s 1921 1120 m -12 Y s 1921 1108 m cl s 1957
 1074 m -18 X s 1939 1074 m cl s 1957 1074 m 18 X s 1975 1074 m cl s 1957 1074 m 16 Y s 1957 1090 m cl s 1957 1074 m -16 Y s 1957 1058 m cl s 1993 1023 m -18 X s 1975 1023 m cl s 1993 1023 m 18 X s 2011 1023 m cl s 1993 1023 m 20 Y s 1993 1043 m cl s
 1993 1023 m -19 Y s 1993 1004 m cl s 2029 974 m -18 X s 2011 974 m cl s 2029 974 m 18 X s 2047 974 m cl s 2029 974 m 24 Y s 2029 998 m cl s 2029 974 m -24 Y s 2029 950 m cl s 2065 926 m -18 X s 2047 926 m cl s 2065 926 m 18 X s 2083 926 m cl s 2065
 926 m 29 Y s 2065 955 m cl s 2065 926 m -30 Y s 2065 896 m cl s 2101 849 m -18 X s 2083 849 m cl s 2101 849 m 18 X s 2119 849 m cl s 2101 849 m 39 Y s 2101 888 m cl s 2101 849 m -41 Y s 2101 808 m cl s 2136 774 m -17 X s 2119 774 m cl s 2136 774 m
 18 X s 2154 774 m cl s 2136 774 m 54 Y s 2136 828 m cl s 2136 774 m -56 Y s 2136 718 m cl s /w 31 def /w2 {w 2 div} def /w3 {w 3 div} def 381 804 417 849 452 909 488 817 524 915 560 889 596 903 632 903 667 849 703 896 739 921 775 921 811 955 847 955
 882 967 918 971 954 963 990 967 1026 1055 1062 1007 1097 1047 1133 1075 1169 1087 1205 1103 1241 1112 1276 1158 1312 1167 1348 1201 1384 1231 1420 1259 1456 1292 1491 1316 1527 1354 1563 1375 1599 1400 1635 1420 1671 1418 1706 1396 1742 1375 1778
 1339 1814 1276 1850 1241 1886 1158 1921 1120 1957 1074 1993 1023 2029 974 2065 926 2101 849 2136 774 50 { m20} R 0 1 1 c 1 1 0 c black 1 1 0 c 363 854 m 36 5 d 35 6 d 36 6 d 36 6 d 36 6 d 36 7 d 36 6 d 35 7 d 36 7 d 36 8 d 36 7 d 36 8 d 36 9 d 35 8
 d 36 10 d 36 10 d 36 10 d 36 12 d 36 13 d 35 15 d 36 17 d 36 19 d 36 22 d 36 24 d 36 27 d 35 28 d 18 14 d 18 15 d 18 15 d 18 14 d 18 15 d 18 15 d 18 14 d 18 15 d 18 15 d 18 15 d 9 8 d 8 8 d 9 8 d 9 8 d 9 9 d 9 9 d 18 18 d 18 16 d 9 6 d 9 6 d 9 5 d 9
 5 d 9 3 d 9 3 d 9 2 d 9 1 d 18 X 9 -2 d 9 -2 d 9 -3 d 9 -4 d 8 -4 d 9 -6 d 9 -6 d 9 -7 d 18 -16 d 18 -18 d 18 -21 d 18 -23 d 9 -13 d 9 -12 d 9 -13 d 9 -13 d 9 -14 d 9 -13 d 9 -14 d 9 -14 d 18 -27 d 18 -27 d 17 -27 d 18 -26 d 18 -27 d 18 -26 d 36 -53
 d 36 -55 d 36 -59 d 36 -63 d 35 -68 d -35 68 d -36 63 d -36 59 d -36 55 d -36 53 d -18 26 d -18 27 d -18 26 d -17 27 d -18 27 d -18 27 d -9 14 d -9 14 d -9 13 d -9 14 d -9 13 d -9 13 d -9 12 d -9 13 d -18 23 d -18 21 d -18 18 d -18 16 d -9 7 d -9 6
 d -9 6 d -8 4 d -9 4 d -9 3 d -9 2 d -9 2 d -18 X -9 -1 d -9 -2 d -9 -3 d -9 -3 d -9 -5 d -9 -5 d -9 -6 d -9 -6 d -18 -16 d -18 -18 d -9 -9 d -9 -9 d -9 -8 d -9 -8 d -8 -8 d -9 -8 d -18 -15 d -18 -15 d -18 -15 d -18 -14 d -18 -15 d -18 -15 d -18 -14
 d -18 -15 d -18 -15 d -18 -14 d -35 -28 d -36 -27 d -36 -24 d -36 -22 d -36 -19 d -36 -17 d -35 -15 d -36 -13 d -36 -12 d -36 -10 d -36 -10 d -36 -10 d -35 -8 d -36 -9 d -36 -8 d -36 -7 d -36 -8 d -36 -7 d -35 -7 d -36 -6 d -36 -7 d -36 -6 d -36 -6
 d -36 -6 d -35 -6 d -36 -5 d f 0 1 1 c 0 1 0 c black 0 1 0 c 363 854 m 36 5 d 35 6 d 36 6 d 36 6 d 36 6 d 36 7 d 36 6 d 35 7 d 36 7 d 36 8 d 36 7 d 36 8 d 36 9 d 35 8 d 36 10 d 36 10 d 36 10 d 36 12 d 36 13 d 35 15 d 36 17 d 36 19 d 36 22 d 36 24 d
 36 27 d 35 28 d 18 14 d 18 15 d 18 15 d 18 14 d 18 15 d 18 15 d 18 14 d 18 15 d 18 15 d 18 15 d 9 8 d 8 8 d 9 8 d 9 8 d 9 9 d 9 9 d 18 18 d 18 16 d 9 6 d 9 6 d 9 5 d 9 5 d 9 3 d 9 3 d 9 2 d 9 1 d 18 X 9 -2 d 9 -2 d 9 -3 d 9 -4 d 8 -4 d 9 -6 d 9 -6 d
 9 -7 d 18 -16 d 18 -18 d 18 -21 d 18 -23 d 9 -13 d 9 -12 d 9 -13 d 9 -13 d 9 -14 d 9 -13 d 9 -14 d 9 -14 d 18 -27 d 18 -27 d 17 -27 d 18 -26 d 18 -27 d 18 -26 d 36 -53 d 36 -55 d 36 -59 d 36 -63 d 35 -68 d -35 68 d -36 63 d -36 59 d -36 55 d -36 53
 d -18 26 d -18 27 d -18 26 d -17 27 d -18 27 d -18 27 d -9 14 d -9 14 d -9 13 d -9 14 d -9 13 d -9 13 d -9 12 d -9 13 d -18 23 d -18 21 d -18 18 d -18 16 d -9 7 d -9 6 d -9 6 d -8 4 d -9 4 d -9 3 d -9 2 d -9 2 d -18 X -9 -1 d -9 -2 d -9 -3 d -9 -3 d
 -9 -5 d -9 -5 d -9 -6 d -9 -6 d -18 -16 d -18 -18 d -9 -9 d -9 -9 d -9 -8 d -9 -8 d -8 -8 d -9 -8 d -18 -15 d -18 -15 d -18 -15 d -18 -14 d -18 -15 d -18 -15 d -18 -14 d -18 -15 d -18 -15 d -18 -14 d -35 -28 d -36 -27 d -36 -24 d -36 -22 d -36 -19 d
 -36 -17 d -35 -15 d -36 -13 d -36 -12 d -36 -10 d -36 -10 d -36 -10 d -35 -8 d -36 -9 d -36 -8 d -36 -7 d -36 -8 d -36 -7 d -35 -7 d -36 -6 d -36 -7 d -36 -6 d -36 -6 d -36 -6 d -35 -6 d -36 -5 d f 0 0 1 c 9 lw black 0 0 1 c 363 854 m 36 5 d 35 6 d
 36 6 d 36 6 d 36 6 d 36 7 d 36 6 d 35 7 d 36 7 d 36 8 d 36 7 d 36 8 d 36 9 d 35 8 d 36 10 d 36 10 d 36 10 d 36 12 d 36 13 d 35 15 d 36 17 d 36 19 d 36 22 d 36 24 d 36 27 d 35 28 d 18 14 d 18 15 d 18 15 d 18 14 d 18 15 d 18 15 d 18 14 d 18 15 d 18 15
 d 18 15 d 9 8 d 8 8 d 9 8 d 9 8 d 9 9 d 9 9 d 18 18 d 18 16 d 9 6 d 9 6 d 9 5 d 9 5 d 9 3 d 9 3 d 9 2 d 9 1 d 18 X 9 -2 d 9 -2 d 9 -3 d 9 -4 d 8 -4 d 9 -6 d 9 -6 d 9 -7 d 18 -16 d 18 -18 d 18 -21 d 18 -23 d 9 -13 d 9 -12 d 9 -13 d 9 -13 d 9 -14 d 9
 -13 d 9 -14 d 9 -14 d 18 -27 d 18 -27 d 17 -27 d 18 -26 d 18 -27 d 18 -26 d 36 -53 d 36 -55 d 36 -59 d 36 -63 d 35 -68 d s black 3 lw 381 804 m -18 X s 363 804 m cl s 381 804 m 18 X s 399 804 m cl s 381 804 m 47 Y s 381 851 m cl s 381 804 m -49 Y s
 381 755 m cl s 417 849 m -18 X s 399 849 m cl s 417 849 m 17 X s 434 849 m cl s 417 849 m 39 Y s 417 888 m cl s 417 849 m -41 Y s 417 808 m cl s 452 909 m -18 X s 434 909 m cl s 452 909 m 18 X s 470 909 m cl s 452 909 m 31 Y s 452 940 m cl s 452 909
 m -32 Y s 452 877 m cl s 488 817 m -18 X s 470 817 m cl s 488 817 m 18 X s 506 817 m cl s 488 817 m 45 Y s 488 862 m cl s 488 817 m -47 Y s 488 770 m cl s 524 915 m -18 X s 506 915 m cl s 524 915 m 18 X s 542 915 m cl s 524 915 m 30 Y s 524 945 m cl
 s 524 915 m -31 Y s 524 884 m cl s 560 889 m -18 X s 542 889 m cl s 560 889 m 18 X s 578 889 m cl s 560 889 m 34 Y s 560 923 m cl s 560 889 m -34 Y s 560 855 m cl s 596 903 m -18 X s 578 903 m cl s 596 903 m 18 X s 614 903 m cl s 596 903 m 31 Y s
 596 934 m cl s 596 903 m -33 Y s 596 870 m cl s 632 903 m -18 X s 614 903 m cl s 632 903 m 17 X s 649 903 m cl s 632 903 m 31 Y s 632 934 m cl s 632 903 m -33 Y s 632 870 m cl s 667 849 m -18 X s 649 849 m cl s 667 849 m 18 X s 685 849 m cl s 667
 849 m 39 Y s 667 888 m cl s 667 849 m -41 Y s 667 808 m cl s 703 896 m -18 X s 685 896 m cl s 703 896 m 18 X s 721 896 m cl s 703 896 m 33 Y s 703 929 m cl s 703 896 m -33 Y s 703 863 m cl s 739 921 m -18 X s 721 921 m cl s 739 921 m 18 X s 757 921
 m cl s 739 921 m 29 Y s 739 950 m cl s 739 921 m -31 Y s 739 890 m cl s 775 921 m -18 X s 757 921 m cl s 775 921 m 18 X s 793 921 m cl s 775 921 m 29 Y s 775 950 m cl s 775 921 m -31 Y s 775 890 m cl s 811 955 m -18 X s 793 955 m cl s 811 955 m 18 X
 s 829 955 m cl s 811 955 m 25 Y s 811 980 m cl s 811 955 m -27 Y s 811 928 m cl s 847 955 m -18 X s 829 955 m cl s 847 955 m 17 X s 864 955 m cl s 847 955 m 25 Y s 847 980 m cl s 847 955 m -27 Y s 847 928 m cl s 882 967 m -18 X s 864 967 m cl s 882
 967 m 18 X s 900 967 m cl s 882 967 m 24 Y s 882 991 m cl s 882 967 m -25 Y s 882 942 m cl s 918 971 m -18 X s 900 971 m cl s 918 971 m 18 X s 936 971 m cl s 918 971 m 24 Y s 918 995 m cl s 918 971 m -25 Y s 918 946 m cl s 954 963 m -18 X s 936 963
 m cl s 954 963 m 18 X s 972 963 m cl s 954 963 m 25 Y s 954 988 m cl s 954 963 m -25 Y s 954 938 m cl s 990 967 m -18 X s 972 967 m cl s 990 967 m 18 X s 1008 967 m cl s 990 967 m 24 Y s 990 991 m cl s 990 967 m -25 Y s 990 942 m cl s 1026 1055 m
 -18 X s 1008 1055 m cl s 1026 1055 m 18 X s 1044 1055 m cl s 1026 1055 m 17 Y s 1026 1072 m cl s 1026 1055 m -17 Y s 1026 1038 m cl s 1062 1007 m -18 X s 1044 1007 m cl s 1062 1007 m 17 X s 1079 1007 m cl s 1062 1007 m 21 Y s 1062 1028 m cl s 1062
 1007 m -21 Y s 1062 986 m cl s 1097 1047 m -18 X s 1079 1047 m cl s 1097 1047 m 18 X s 1115 1047 m cl s 1097 1047 m 18 Y s 1097 1065 m cl s 1097 1047 m -18 Y s 1097 1029 m cl s 1133 1075 m -18 X s 1115 1075 m cl s 1133 1075 m 18 X s 1151 1075 m cl s
 1133 1075 m 16 Y s 1133 1091 m cl s 1133 1075 m -16 Y s 1133 1059 m cl s 1169 1087 m -18 X s 1151 1087 m cl s 1169 1087 m 18 X s 1187 1087 m cl s 1169 1087 m 15 Y s 1169 1102 m cl s 1169 1087 m -15 Y s 1169 1072 m cl s 1205 1103 m -18 X s 1187 1103
 m cl s 1205 1103 m 18 X s 1223 1103 m cl s 1205 1103 m 15 Y s 1205 1118 m cl s 1205 1103 m -14 Y s 1205 1089 m cl s 1241 1112 m -18 X s 1223 1112 m cl s 1241 1112 m 18 X s 1259 1112 m cl s 1241 1112 m 13 Y s 1241 1125 m cl s 1241 1112 m -14 Y s 1241
 1098 m cl s 1276 1158 m -17 X s 1259 1158 m cl s 1276 1158 m 18 X s 1294 1158 m cl s 1276 1158 m 11 Y s 1276 1169 m cl s 1276 1158 m -11 Y s 1276 1147 m cl s 1312 1167 m -18 X s 1294 1167 m cl s 1312 1167 m 18 X s 1330 1167 m cl s 1312 1167 m 11 Y s
 1312 1178 m cl s 1312 1167 m -11 Y s 1312 1156 m cl s 1348 1201 m -18 X s 1330 1201 m cl s 1348 1201 m 18 X s 1366 1201 m cl s 1348 1201 m 9 Y s 1348 1210 m cl s 1348 1201 m -9 Y s 1348 1192 m cl s 1384 1231 m -18 X s 1366 1231 m cl s 1384 1231 m 18
 X s 1402 1231 m cl s 1384 1231 m 8 Y s 1384 1239 m cl s 1384 1231 m -8 Y s 1384 1223 m cl s 1420 1259 m -18 X s 1402 1259 m cl s 1420 1259 m 18 X s 1438 1259 m cl s 1420 1259 m 8 Y s 1420 1267 m cl s 1420 1259 m -7 Y s 1420 1252 m cl s 1456 1292 m
 -18 X s 1438 1292 m cl s 1456 1292 m 18 X s 1474 1292 m cl s 1456 1292 m 7 Y s 1456 1299 m cl s 1456 1292 m -7 Y s 1456 1285 m cl s 1491 1316 m -17 X s 1474 1316 m cl s 1491 1316 m 18 X s 1509 1316 m cl s 1491 1316 m 6 Y s 1491 1322 m cl s 1491 1316
 m -6 Y s 1491 1310 m cl s 1527 1354 m -18 X s 1509 1354 m cl s 1527 1354 m 18 X s 1545 1354 m cl s 1527 1354 m 5 Y s 1527 1359 m cl s 1527 1354 m -6 Y s 1527 1348 m cl s 1563 1375 m -18 X s 1545 1375 m cl s 1563 1375 m 18 X s 1581 1375 m cl s 1563
 1375 m 5 Y s 1563 1380 m cl s 1563 1375 m -5 Y s 1563 1370 m cl s 1599 1400 m -18 X s 1581 1400 m cl s 1599 1400 m 18 X s 1617 1400 m cl s 1599 1400 m 5 Y s 1599 1405 m cl s 1599 1400 m -4 Y s 1599 1396 m cl s 1635 1420 m -18 X s 1617 1420 m cl s
 1635 1420 m 18 X s 1653 1420 m cl s 1635 1420 m 4 Y s 1635 1424 m cl s 1635 1420 m -5 Y s 1635 1415 m cl s 1671 1418 m -18 X s 1653 1418 m cl s 1671 1418 m 18 X s 1689 1418 m cl s 1671 1418 m 4 Y s 1671 1422 m cl s 1671 1418 m -4 Y s 1671 1414 m cl
 s 1706 1396 m -17 X s 1689 1396 m cl s 1706 1396 m 18 X s 1724 1396 m cl s 1706 1396 m 5 Y s 1706 1401 m cl s 1706 1396 m -4 Y s 1706 1392 m cl s 1742 1375 m -18 X s 1724 1375 m cl s 1742 1375 m 18 X s 1760 1375 m cl s 1742 1375 m 5 Y s 1742 1380 m
 cl s 1742 1375 m -5 Y s 1742 1370 m cl s 1778 1339 m -18 X s 1760 1339 m cl s 1778 1339 m 18 X s 1796 1339 m cl s 1778 1339 m 5 Y s 1778 1344 m cl s 1778 1339 m -6 Y s 1778 1333 m cl s 1814 1276 m -18 X s 1796 1276 m cl s 1814 1276 m 18 X s 1832
 1276 m cl s 1814 1276 m 7 Y s 1814 1283 m cl s 1814 1276 m -7 Y s 1814 1269 m cl s 1850 1241 m -18 X s 1832 1241 m cl s 1850 1241 m 18 X s 1868 1241 m cl s 1850 1241 m 8 Y s 1850 1249 m cl s 1850 1241 m -8 Y s 1850 1233 m cl s 1886 1158 m -18 X s
 1868 1158 m cl s 1886 1158 m 18 X s 1904 1158 m cl s 1886 1158 m 11 Y s 1886 1169 m cl s 1886 1158 m -11 Y s 1886 1147 m cl s 1921 1120 m -17 X s 1904 1120 m cl s 1921 1120 m 18 X s 1939 1120 m cl s 1921 1120 m 13 Y s 1921 1133 m cl s 1921 1120 m
 -12 Y s 1921 1108 m cl s 1957 1074 m -18 X s 1939 1074 m cl s 1957 1074 m 18 X s 1975 1074 m cl s 1957 1074 m 16 Y s 1957 1090 m cl s 1957 1074 m -16 Y s 1957 1058 m cl s 1993 1023 m -18 X s 1975 1023 m cl s 1993 1023 m 18 X s 2011 1023 m cl s 1993
 1023 m 20 Y s 1993 1043 m cl s 1993 1023 m -19 Y s 1993 1004 m cl s 2029 974 m -18 X s 2011 974 m cl s 2029 974 m 18 X s 2047 974 m cl s 2029 974 m 24 Y s 2029 998 m cl s 2029 974 m -24 Y s 2029 950 m cl s 2065 926 m -18 X s 2047 926 m cl s 2065 926
 m 18 X s 2083 926 m cl s 2065 926 m 29 Y s 2065 955 m cl s 2065 926 m -30 Y s 2065 896 m cl s 2101 849 m -18 X s 2083 849 m cl s 2101 849 m 18 X s 2119 849 m cl s 2101 849 m 39 Y s 2101 888 m cl s 2101 849 m -41 Y s 2101 808 m cl s 2136 774 m -17 X
 s 2119 774 m cl s 2136 774 m 18 X s 2154 774 m cl s 2136 774 m 54 Y s 2136 828 m cl s 2136 774 m -56 Y s 2136 718 m cl s 381 804 417 849 452 909 488 817 524 915 560 889 596 903 632 903 667 849 703 896 739 921 775 921 811 955 847 955 882 967 918 971
 954 963 990 967 1026 1055 1062 1007 1097 1047 1133 1075 1169 1087 1205 1103 1241 1112 1276 1158 1312 1167 1348 1201 1384 1231 1420 1259 1456 1292 1491 1316 1527 1354 1563 1375 1599 1400 1635 1420 1671 1418 1706 1396 1742 1375 1778 1339 1814 1276
 1850 1241 1886 1158 1921 1120 1957 1074 1993 1023 2029 974 2065 926 2101 849 2136 774 50 { m20} R 0.52 0.76 0.64 c[ 4 8] 0 sd 9 lw black 0.52 0.76 0.64 c 363 854 m 36 5 d 35 6 d 36 6 d 36 6 d 36 6 d 36 7 d 36 6 d 35 7 d 36 7 d 36 8 d 36 7 d 36 8 d
 36 8 d 35 9 d 36 9 d 36 10 d 36 10 d 36 10 d 36 11 d 35 12 d 36 12 d 36 14 d 36 14 d 36 15 d 36 17 d 35 18 d 36 20 d 36 22 d 18 12 d 18 13 d 18 14 d 18 15 d 18 15 d 9 9 d 9 9 d 9 9 d 8 10 d 9 10 d 9 11 d 9 11 d 9 12 d 18 24 d 18 20 d 9 9 d 9 7 d 9 6
 d 9 6 d 9 4 d 9 4 d 9 2 d 9 1 d 9 1 d 9 -1 d 9 -2 d 9 -2 d 9 -4 d 9 -5 d 8 -6 d 9 -6 d 9 -8 d 9 -9 d 36 -45 d 18 -29 d 9 -16 d 9 -17 d 9 -18 d 9 -19 d 9 -20 d 9 -21 d 9 -22 d 9 -23 d 9 -24 d 9 -25 d 9 -27 d 9 -27 d 18 -57 d 17 -61 d 18 -66 d 18 -69
 d 18 -74 d 10 -41 d s 0.54 0.66 0.63 c black 0.54 0.66 0.63 c 1077 634 m 2 4 d s 1079 638 m 36 75 d 36 70 d 18 33 d 18 32 d 18 30 d 18 30 d 18 28 d 18 27 d 17 26 d 18 24 d 18 23 d 18 22 d 18 21 d 18 20 d 18 18 d 18 17 d 36 31 d 36 25 d 17 11 d 18 10
 d 18 8 d 18 8 d 18 6 d 18 4 d 9 2 d 9 2 d 9 1 d 9 1 d 9 1 d 9 X 9 1 d 9 -1 d 9 X 9 -1 d 9 -1 d 9 -2 d 8 -1 d 9 -2 d 18 -5 d 18 -7 d 18 -7 d 18 -9 d 18 -10 d 36 -23 d 36 -29 d 18 -16 d 18 -17 d 17 -19 d 18 -19 d 18 -21 d 18 -22 d 18 -24 d 18 -25 d 18
 -26 d 18 -27 d 18 -28 d 18 -30 d 18 -30 d 18 -32 d 35 -68 d s black[  ] 0 sd 3 lw 363 634 m 1791 X s 363 659 m -25 Y s 416 646 m -12 Y s 468 646 m -12 Y s 521 646 m -12 Y s 574 646 m -12 Y s 626 659 m -25 Y s 679 646 m -12 Y s 732 646 m -12 Y s 784
 646 m -12 Y s 837 646 m -12 Y s 890 659 m -25 Y s 942 646 m -12 Y s 995 646 m -12 Y s 1048 646 m -12 Y s 1101 646 m -12 Y s 1153 659 m -25 Y s 1206 646 m -12 Y s 1259 646 m -12 Y s 1311 646 m -12 Y s 1364 646 m -12 Y s 1417 659 m -25 Y s 1469 646 m
 -12 Y s 1522 646 m -12 Y s 1575 646 m -12 Y s 1627 646 m -12 Y s 1680 659 m -25 Y s 1733 646 m -12 Y s 1785 646 m -12 Y s 1838 646 m -12 Y s 1891 646 m -12 Y s 1944 659 m -25 Y s 1944 659 m -25 Y s 1996 646 m -12 Y s 2049 646 m -12 Y s 2102 646 m
 -12 Y s 2154 646 m -12 Y s 363 1484 m 1791 X s 363 1459 m 25 Y s 416 1471 m 13 Y s 468 1471 m 13 Y s 521 1471 m 13 Y s 574 1471 m 13 Y s 626 1459 m 25 Y s 679 1471 m 13 Y s 732 1471 m 13 Y s 784 1471 m 13 Y s 837 1471 m 13 Y s 890 1459 m 25 Y s 942
 1471 m 13 Y s 995 1471 m 13 Y s 1048 1471 m 13 Y s 1101 1471 m 13 Y s 1153 1459 m 25 Y s 1206 1471 m 13 Y s 1259 1471 m 13 Y s 1311 1471 m 13 Y s 1364 1471 m 13 Y s 1417 1459 m 25 Y s 1469 1471 m 13 Y s 1522 1471 m 13 Y s 1575 1471 m 13 Y s 1627
 1471 m 13 Y s 1680 1459 m 25 Y s 1733 1471 m 13 Y s 1785 1471 m 13 Y s 1838 1471 m 13 Y s 1891 1471 m 13 Y s 1944 1459 m 25 Y s 1944 1459 m 25 Y s 1996 1471 m 13 Y s 2049 1471 m 13 Y s 2102 1471 m 13 Y s 2154 1471 m 13 Y s 363 634 m 850 Y s 390 644
 m -27 X s 390 682 m -27 X s 390 712 m -27 X s 390 736 m -27 X s 390 757 m -27 X s 390 774 m -27 X s 390 790 m -27 X s 417 804 m -54 X s 390 896 m -27 X s 390 950 m -27 X s 390 988 m -27 X s 390 1018 m -27 X s 390 1042 m -27 X s 390 1063 m -27 X s
 390 1081 m -27 X s 390 1096 m -27 X s 417 1110 m -54 X s 390 1202 m -27 X s 390 1256 m -27 X s 390 1295 m -27 X s 390 1324 m -27 X s 390 1348 m -27 X s 390 1369 m -27 X s 390 1387 m -27 X s 390 1402 m -27 X s 417 1416 m -54 X s 2154 634 m 850 Y s
 2127 644 m 27 X s 2127 682 m 27 X s 2127 712 m 27 X s 2127 736 m 27 X s 2127 757 m 27 X s 2127 774 m 27 X s 2127 790 m 27 X s 2101 804 m 53 X s 2127 896 m 27 X s 2127 950 m 27 X s 2127 988 m 27 X s 2127 1018 m 27 X s 2127 1042 m 27 X s 2127 1063 m
 27 X s 2127 1081 m 27 X s 2127 1096 m 27 X s 2101 1110 m 53 X s 2127 1202 m 27 X s 2127 1256 m 27 X s 2127 1295 m 27 X s 2127 1324 m 27 X s 2127 1348 m 27 X s 2127 1369 m 27 X s 2127 1387 m 27 X s 2127 1402 m 27 X s 2101 1416 m 53 X s
 gsave  2268 1077 0 461 C 677.708 1215.31 t 0 r /Helvetica findfont 58.7189 sf 0 0 m (2mu2e) show NC gr  1 1 1 c 453 161 454 1269 bf black
 gsave  2268 1077 0 461 C 566.929 1371.71 t 0 r /Helvetica-Bold findfont 48.9324 sf 0 0 m (MC15) show NC gr  510 1390 m20
 gsave  2268 1077 0 461 C 566.929 1293.51 t 0 r /Helvetica-Bold findfont 48.9324 sf 0 0 m (Projection of Signal pdf) show NC gr  0 0 1 c 9 lw 471 1309 m 79 X s black 3 lw 1 1 1 c 2268 461 0 0 bf black 1 1 1 c 1791 364 363 74 bf black 1791 364 363 74
 bl 363 74 m 1791 X s
 gsave  2268 461 0 0 C 1915.83 13.0329 t 0 r /Helvetica findfont 22.9045 sf 0 0 m (4l Invariant Mass \(GeV\)) show NC gr  363 85 m -11 Y s 416 79 m -5 Y s 468 79 m -5 Y s 521 79 m -5 Y s 574 79 m -5 Y s 626 85 m -11 Y s 679 79 m -5 Y s 732 79 m -5 Y
 s 784 79 m -5 Y s 837 79 m -5 Y s 890 85 m -11 Y s 942 79 m -5 Y s 995 79 m -5 Y s 1048 79 m -5 Y s 1101 79 m -5 Y s 1153 85 m -11 Y s 1206 79 m -5 Y s 1259 79 m -5 Y s 1311 79 m -5 Y s 1364 79 m -5 Y s 1417 85 m -11 Y s 1469 79 m -5 Y s 1522 79 m
 -5 Y s 1575 79 m -5 Y s 1627 79 m -5 Y s 1680 85 m -11 Y s 1733 79 m -5 Y s 1785 79 m -5 Y s 1838 79 m -5 Y s 1891 79 m -5 Y s 1944 85 m -11 Y s 1944 85 m -11 Y s 1996 79 m -5 Y s 2049 79 m -5 Y s 2102 79 m -5 Y s 2154 79 m -5 Y s
 gsave  2268 461 0 0 C 342.112 55.3896 t 0 r /Helvetica findfont 22.9045 sf 0 0 m (175) show NC gr 
 gsave  2268 461 0 0 C 606.028 55.3896 t 0 r /Helvetica findfont 22.9045 sf 0 0 m (180) show NC gr 
 gsave  2268 461 0 0 C 869.943 55.3896 t 0 r /Helvetica findfont 22.9045 sf 0 0 m (185) show NC gr 
 gsave  2268 461 0 0 C 1130.6 55.3896 t 0 r /Helvetica findfont 22.9045 sf 0 0 m (190) show NC gr 
 gsave  2268 461 0 0 C 1394.52 55.3896 t 0 r /Helvetica findfont 22.9045 sf 0 0 m (195) show NC gr 
 gsave  2268 461 0 0 C 1658.43 55.3896 t 0 r /Helvetica findfont 22.9045 sf 0 0 m (200) show NC gr 
 gsave  2268 461 0 0 C 1922.35 55.3896 t 0 r /Helvetica findfont 22.9045 sf 0 0 m (205) show NC gr  363 438 m 1791 X s 363 427 m 11 Y s 416 433 m 5 Y s 468 433 m 5 Y s 521 433 m 5 Y s 574 433 m 5 Y s 626 427 m 11 Y s 679 433 m 5 Y s 732 433 m 5 Y s
 784 433 m 5 Y s 837 433 m 5 Y s 890 427 m 11 Y s 942 433 m 5 Y s 995 433 m 5 Y s 1048 433 m 5 Y s 1101 433 m 5 Y s 1153 427 m 11 Y s 1206 433 m 5 Y s 1259 433 m 5 Y s 1311 433 m 5 Y s 1364 433 m 5 Y s 1417 427 m 11 Y s 1469 433 m 5 Y s 1522 433 m 5
 Y s 1575 433 m 5 Y s 1627 433 m 5 Y s 1680 427 m 11 Y s 1733 433 m 5 Y s 1785 433 m 5 Y s 1838 433 m 5 Y s 1891 433 m 5 Y s 1944 427 m 11 Y s 1944 427 m 11 Y s 1996 433 m 5 Y s 2049 433 m 5 Y s 2102 433 m 5 Y s 2154 433 m 5 Y s 363 74 m 364 Y s 417
 74 m -54 X s 390 81 m -27 X s 390 88 m -27 X s 390 96 m -27 X s 390 103 m -27 X s 417 110 m -54 X s 390 118 m -27 X s 390 125 m -27 X s 390 132 m -27 X s 390 139 m -27 X s 417 147 m -54 X s 390 154 m -27 X s 390 161 m -27 X s 390 169 m -27 X s 390
 176 m -27 X s 417 183 m -54 X s 390 190 m -27 X s 390 198 m -27 X s 390 205 m -27 X s 390 212 m -27 X s 417 220 m -54 X s 390 227 m -27 X s 390 234 m -27 X s 390 241 m -27 X s 390 249 m -27 X s 417 256 m -54 X s 390 263 m -27 X s 390 271 m -27 X s
 390 278 m -27 X s 390 285 m -27 X s 417 293 m -54 X s 390 300 m -27 X s 390 307 m -27 X s 390 314 m -27 X s 390 322 m -27 X s 417 329 m -54 X s 390 336 m -27 X s 390 344 m -27 X s 390 351 m -27 X s 390 358 m -27 X s 417 365 m -54 X s 390 373 m -27 X
 s 390 380 m -27 X s 390 387 m -27 X s 390 395 m -27 X s 417 402 m -54 X s 390 409 m -27 X s 390 416 m -27 X s 390 424 m -27 X s 390 431 m -27 X s 417 438 m -54 X s
 gsave  2268 461 0 0 C 329.08 65.1643 t 0 r /Helvetica findfont 22.9045 sf 0 0 m (\2555) show NC gr 
 gsave  2268 461 0 0 C 329.08 101.005 t 0 r /Helvetica findfont 22.9045 sf 0 0 m (\2554) show NC gr 
 gsave  2268 461 0 0 C 329.08 140.103 t 0 r /Helvetica findfont 22.9045 sf 0 0 m (\2553) show NC gr 
 gsave  2268 461 0 0 C 329.08 175.944 t 0 r /Helvetica findfont 22.9045 sf 0 0 m (\2552) show NC gr 
 gsave  2268 461 0 0 C 332.338 211.784 t 0 r /Helvetica findfont 22.9045 sf 0 0 m (\2551) show NC gr 
 gsave  2268 461 0 0 C 335.596 247.624 t 0 r /Helvetica findfont 22.9045 sf 0 0 m (0) show NC gr 
 gsave  2268 461 0 0 C 338.854 283.465 t 0 r /Helvetica findfont 22.9045 sf 0 0 m (1) show NC gr 
 gsave  2268 461 0 0 C 335.596 319.305 t 0 r /Helvetica findfont 22.9045 sf 0 0 m (2) show NC gr 
 gsave  2268 461 0 0 C 335.596 358.403 t 0 r /Helvetica findfont 22.9045 sf 0 0 m (3) show NC gr 
 gsave  2268 461 0 0 C 335.596 394.244 t 0 r /Helvetica findfont 22.9045 sf 0 0 m (4) show NC gr 
 gsave  2268 461 0 0 C 335.596 430.084 t 0 r /Helvetica findfont 22.9045 sf 0 0 m (5) show NC gr  2154 74 m 364 Y s 2101 74 m 53 X s 2127 81 m 27 X s 2127 88 m 27 X s 2127 96 m 27 X s 2127 103 m 27 X s 2101 110 m 53 X s 2127 118 m 27 X s 2127 125 m
 27 X s 2127 132 m 27 X s 2127 139 m 27 X s 2101 147 m 53 X s 2127 154 m 27 X s 2127 161 m 27 X s 2127 169 m 27 X s 2127 176 m 27 X s 2101 183 m 53 X s 2127 190 m 27 X s 2127 198 m 27 X s 2127 205 m 27 X s 2127 212 m 27 X s 2101 220 m 53 X s 2127 227
 m 27 X s 2127 234 m 27 X s 2127 241 m 27 X s 2127 249 m 27 X s 2101 256 m 53 X s 2127 263 m 27 X s 2127 271 m 27 X s 2127 278 m 27 X s 2127 285 m 27 X s 2101 293 m 53 X s 2127 300 m 27 X s 2127 307 m 27 X s 2127 314 m 27 X s 2127 322 m 27 X s 2101
 329 m 53 X s 2127 336 m 27 X s 2127 344 m 27 X s 2127 351 m 27 X s 2127 358 m 27 X s 2101 365 m 53 X s 2127 373 m 27 X s 2127 380 m 27 X s 2127 387 m 27 X s 2127 395 m 27 X s 2101 402 m 53 X s 2127 409 m 27 X s 2127 416 m 27 X s 2127 424 m 27 X s
 2127 431 m 27 X s 2101 438 m 53 X s 6 lw 0.2 0.8 0.2 c black 3 lw 0.2 0.8 0.2 c 363 256 m -41 Y 36 X 30 Y 35 X 57 Y 36 X -95 Y 36 X 90 Y 36 X -37 Y 36 X 8 Y 36 X -8 Y 35 X -61 Y 36 X 38 Y 36 X 18 Y 36 X -9 Y 36 X 35 Y 36 X -12 Y 35 X 5 Y 36 X -8 Y
 36 X -27 Y 36 X -11 Y 36 X 131 Y 36 X -112 Y 35 X 46 Y 36 X 26 Y 36 X -17 Y 36 X -13 Y 36 X -45 Y 36 X 58 Y 35 X -61 Y 36 X 16 Y 36 X 3 Y 36 X -5 Y 36 X 19 Y 36 X -42 Y 35 X 21 Y 36 X -94 Y 36 X 18 Y 36 X 83 Y 36 X 19 Y 36 X -41 Y 35 X 62 Y 36 X 14
 Y 36 X -87 Y 36 X 82 Y 36 X -107 Y 36 X 55 Y 35 X 14 Y 36 X -3 Y 36 X 5 Y 36 X 8 Y 36 X -22 Y 36 X -7 Y 35 X 4 Y f 6 lw black 0.2 0.8 0.2 c black 363 215 m 36 X 30 Y 35 X 57 Y 36 X -95 Y 36 X 90 Y 36 X -37 Y 36 X 8 Y 36 X -8 Y 35 X -61 Y 36 X 38 Y
 36 X 18 Y 36 X -9 Y 36 X 35 Y 36 X -12 Y 35 X 5 Y 36 X -8 Y 36 X -27 Y 36 X -11 Y 36 X 131 Y 36 X -112 Y 35 X 46 Y 36 X 26 Y 36 X -17 Y 36 X -13 Y 36 X -45 Y 36 X 58 Y 35 X -61 Y 36 X 16 Y 36 X 3 Y 36 X -5 Y 36 X 19 Y 36 X -42 Y 35 X 21 Y 36 X -94 Y
 36 X 18 Y 36 X 83 Y 36 X 19 Y 36 X -41 Y 35 X 62 Y 36 X 14 Y 36 X -87 Y 36 X 82 Y 36 X -107 Y 36 X 55 Y 35 X 14 Y 36 X -3 Y 36 X 5 Y 36 X 8 Y 36 X -22 Y 36 X -7 Y 35 X s 3 lw 363 74 m 1791 X s 363 85 m -11 Y s 416 79 m -5 Y s 468 79 m -5 Y s 521 79
 m -5 Y s 574 79 m -5 Y s 626 85 m -11 Y s 679 79 m -5 Y s 732 79 m -5 Y s 784 79 m -5 Y s 837 79 m -5 Y s 890 85 m -11 Y s 942 79 m -5 Y s 995 79 m -5 Y s 1048 79 m -5 Y s 1101 79 m -5 Y s 1153 85 m -11 Y s 1206 79 m -5 Y s 1259 79 m -5 Y s 1311 79
 m -5 Y s 1364 79 m -5 Y s 1417 85 m -11 Y s 1469 79 m -5 Y s 1522 79 m -5 Y s 1575 79 m -5 Y s 1627 79 m -5 Y s 1680 85 m -11 Y s 1733 79 m -5 Y s 1785 79 m -5 Y s 1838 79 m -5 Y s 1891 79 m -5 Y s 1944 85 m -11 Y s 1944 85 m -11 Y s 1996 79 m -5 Y
 s 2049 79 m -5 Y s 2102 79 m -5 Y s 2154 79 m -5 Y s 363 438 m 1791 X s 363 427 m 11 Y s 416 433 m 5 Y s 468 433 m 5 Y s 521 433 m 5 Y s 574 433 m 5 Y s 626 427 m 11 Y s 679 433 m 5 Y s 732 433 m 5 Y s 784 433 m 5 Y s 837 433 m 5 Y s 890 427 m 11 Y
 s 942 433 m 5 Y s 995 433 m 5 Y s 1048 433 m 5 Y s 1101 433 m 5 Y s 1153 427 m 11 Y s 1206 433 m 5 Y s 1259 433 m 5 Y s 1311 433 m 5 Y s 1364 433 m 5 Y s 1417 427 m 11 Y s 1469 433 m 5 Y s 1522 433 m 5 Y s 1575 433 m 5 Y s 1627 433 m 5 Y s 1680 427
 m 11 Y s 1733 433 m 5 Y s 1785 433 m 5 Y s 1838 433 m 5 Y s 1891 433 m 5 Y s 1944 427 m 11 Y s 1944 427 m 11 Y s 1996 433 m 5 Y s 2049 433 m 5 Y s 2102 433 m 5 Y s 2154 433 m 5 Y s 363 74 m 364 Y s 417 74 m -54 X s 390 81 m -27 X s 390 88 m -27 X s
 390 96 m -27 X s 390 103 m -27 X s 417 110 m -54 X s 390 118 m -27 X s 390 125 m -27 X s 390 132 m -27 X s 390 139 m -27 X s 417 147 m -54 X s 390 154 m -27 X s 390 161 m -27 X s 390 169 m -27 X s 390 176 m -27 X s 417 183 m -54 X s 390 190 m -27 X
 s 390 198 m -27 X s 390 205 m -27 X s 390 212 m -27 X s 417 220 m -54 X s 390 227 m -27 X s 390 234 m -27 X s 390 241 m -27 X s 390 249 m -27 X s 417 256 m -54 X s 390 263 m -27 X s 390 271 m -27 X s 390 278 m -27 X s 390 285 m -27 X s 417 293 m -54
 X s 390 300 m -27 X s 390 307 m -27 X s 390 314 m -27 X s 390 322 m -27 X s 417 329 m -54 X s 390 336 m -27 X s 390 344 m -27 X s 390 351 m -27 X s 390 358 m -27 X s 417 365 m -54 X s 390 373 m -27 X s 390 380 m -27 X s 390 387 m -27 X s 390 395 m
 -27 X s 417 402 m -54 X s 390 409 m -27 X s 390 416 m -27 X s 390 424 m -27 X s 390 431 m -27 X s 417 438 m -54 X s 2154 74 m 364 Y s 2101 74 m 53 X s 2127 81 m 27 X s 2127 88 m 27 X s 2127 96 m 27 X s 2127 103 m 27 X s 2101 110 m 53 X s 2127 118 m
 27 X s 2127 125 m 27 X s 2127 132 m 27 X s 2127 139 m 27 X s 2101 147 m 53 X s 2127 154 m 27 X s 2127 161 m 27 X s 2127 169 m 27 X s 2127 176 m 27 X s 2101 183 m 53 X s 2127 190 m 27 X s 2127 198 m 27 X s 2127 205 m 27 X s 2127 212 m 27 X s 2101 220
 m 53 X s 2127 227 m 27 X s 2127 234 m 27 X s 2127 241 m 27 X s 2127 249 m 27 X s 2101 256 m 53 X s 2127 263 m 27 X s 2127 271 m 27 X s 2127 278 m 27 X s 2127 285 m 27 X s 2101 293 m 53 X s 2127 300 m 27 X s 2127 307 m 27 X s 2127 314 m 27 X s 2127
 322 m 27 X s 2101 329 m 53 X s 2127 336 m 27 X s 2127 344 m 27 X s 2127 351 m 27 X s 2127 358 m 27 X s 2101 365 m 53 X s 2127 373 m 27 X s 2127 380 m 27 X s 2127 387 m 27 X s 2127 395 m 27 X s 2101 402 m 53 X s 2127 409 m 27 X s 2127 416 m 27 X s
 2127 424 m 27 X s 2127 431 m 27 X s 2101 438 m 53 X s
 gr  gr showpage
end
%%EOF
