%!PS-Adobe-2.0 EPSF-2.0
%%BoundingBox:  0 0 567 384
%%Title: H4l2015_plotfit/gg_mass_signal_400_H4l_2mu2e.eps: 
%%Creator: ROOT Version 5.34/10
%%CreationDate: Thu Feb 16 15:47:08 2017
%%EndComments
%%BeginProlog
80 dict begin
/s {stroke} def /l {lineto} def /m {moveto} def /t {translate} def
/r {rotate} def /rl {roll}  def /R {repeat} def
/d {rlineto} def /rm {rmoveto} def /gr {grestore} def /f {eofill} def
/c {setrgbcolor} def /black {0 setgray} def /sd {setdash} def
/cl {closepath} def /sf {scalefont setfont} def /lw {setlinewidth} def
/box {m dup 0 exch d exch 0 d 0 exch neg d cl} def
/NC{systemdict begin initclip end}def/C{NC box clip newpath}def
/bl {box s} def /bf {box f} def /Y { 0 exch d} def /X { 0 d} def 
/K {{pop pop 0 moveto} exch kshow} bind def
/ita {/ang 15 def gsave [1 0 ang dup sin exch cos div 1 0 0] concat} def 
/mp {newpath /y exch def /x exch def} def
/side {[w .77 mul w .23 mul] .385 w mul sd w 0 l currentpoint t -144 r} def
/mr {mp x y w2 0 360 arc} def /m24 {mr s} def /m20 {mr f} def
/mb {mp x y w2 add m w2 neg 0 d 0 w neg d w 0 d 0 w d cl} def
/mt {mp x y w2 add m w2 neg w neg d w 0 d cl} def
/m21 {mb f} def /m25 {mb s} def /m22 {mt f} def /m26{mt s} def
/m23 {mp x y w2 sub m w2 w d w neg 0 d cl f} def
/m27 {mp x y w2 add m w3 neg w2 neg d w3 w2 neg d w3 w2 d cl s} def
/m28 {mp x w2 sub y w2 sub w3 add m w3 0 d  0 w3 neg d w3 0 d 0 w3 d w3 0 d  0 w3 d w3 neg 0 d 0 w3 d w3 neg 0 d 0 w3 neg d w3 neg 0 d cl s } def
/m29 {mp gsave x w2 sub y w2 add w3 sub m currentpoint t 4 {side} repeat cl fill gr} def
/m30 {mp gsave x w2 sub y w2 add w3 sub m currentpoint t 4 {side} repeat cl s gr} def
/m31 {mp x y w2 sub m 0 w d x w2 sub y m w 0 d x w2 sub y w2 add m w w neg d x w2 sub y w2 sub m w w d s} def
/m32 {mp x y w2 sub m w2 w d w neg 0 d cl s} def
/m33 {mp x y w2 add m w3 neg w2 neg d w3 w2 neg d w3 w2 d cl f} def
/m34 {mp x w2 sub y w2 sub w3 add m w3 0 d  0 w3 neg d w3 0 d 0 w3 d w3 0 d  0 w3 d w3 neg 0 d 0 w3 d w3 neg 0 d 0 w3 neg d w3 neg 0 d cl f } def
/m2 {mp x y w2 sub m 0 w d x w2 sub y m w 0 d s} def
/m5 {mp x w2 sub y w2 sub m w w d x w2 sub y w2 add m w w neg d s} def
/reEncode {exch findfont dup length dict begin {1 index /FID eq  {pop pop} {def} ifelse } forall /Encoding exch def currentdict end dup /FontName get exch definefont pop } def [/Times-Bold /Times-Italic /Times-BoldItalic /Helvetica /Helvetica-Oblique
 /Helvetica-Bold /Helvetica-BoldOblique /Courier /Courier-Oblique /Courier-Bold /Courier-BoldOblique /Times-Roman /AvantGarde-Book /AvantGarde-BookOblique /AvantGarde-Demi /AvantGarde-DemiOblique /Bookman-Demi /Bookman-DemiItalic /Bookman-Light
 /Bookman-LightItalic /Helvetica-Narrow /Helvetica-Narrow-Bold /Helvetica-Narrow-BoldOblique /Helvetica-Narrow-Oblique /NewCenturySchlbk-Roman /NewCenturySchlbk-Bold /NewCenturySchlbk-BoldItalic /NewCenturySchlbk-Italic /Palatino-Bold
 /Palatino-BoldItalic /Palatino-Italic /Palatino-Roman ] {ISOLatin1Encoding reEncode } forall
%%EndProlog
%%BeginSetup
%%EndSetup
newpath  gsave  .25 .25 scale  gsave  0 0 t black[  ] 0 sd 3 lw 1 1 1 c 2268 1538 0 0 bf black 1 1 1 c 2222 738 23 784 bf black 1 1 1 c 2222 739 23 15 bf black 1 1 1 c 2268 1077 0 461 bf black 1 1 1 c 1791 850 363 634 bf black 1791 850 363 634 bl 363
 634 m 1791 X s
 gsave  2268 1077 0 461 C 1642.14 498.507 t 0 r /Helvetica findfont 48.9324 sf 0 0 m (4l Invariant Mass \(GeV\)) show NC gr  565 659 m -25 Y s 615 646 m -12 Y s 666 646 m -12 Y s 716 646 m -12 Y s 767 646 m -12 Y s 817 659 m -25 Y s 867 646 m -12 Y s
 918 646 m -12 Y s 968 646 m -12 Y s 1019 646 m -12 Y s 1069 659 m -25 Y s 1120 646 m -12 Y s 1170 646 m -12 Y s 1221 646 m -12 Y s 1271 646 m -12 Y s 1322 659 m -25 Y s 1372 646 m -12 Y s 1423 646 m -12 Y s 1473 646 m -12 Y s 1524 646 m -12 Y s 1574
 659 m -25 Y s 1624 646 m -12 Y s 1675 646 m -12 Y s 1725 646 m -12 Y s 1776 646 m -12 Y s 1826 659 m -25 Y s 1877 646 m -12 Y s 1927 646 m -12 Y s 1978 646 m -12 Y s 2028 646 m -12 Y s 2079 659 m -25 Y s 565 659 m -25 Y s 514 646 m -12 Y s 464 646 m
 -12 Y s 413 646 m -12 Y s 363 646 m -12 Y s 2079 659 m -25 Y s 2129 646 m -12 Y s
 gsave  2268 1077 0 461 C 521.314 586.478 t 0 r /Helvetica findfont 48.9324 sf 0 0 m (360) show NC gr 
 gsave  2268 1077 0 461 C 772.197 586.478 t 0 r /Helvetica findfont 48.9324 sf 0 0 m (370) show NC gr 
 gsave  2268 1077 0 461 C 1026.34 586.478 t 0 r /Helvetica findfont 48.9324 sf 0 0 m (380) show NC gr 
 gsave  2268 1077 0 461 C 1277.22 586.478 t 0 r /Helvetica findfont 48.9324 sf 0 0 m (390) show NC gr 
 gsave  2268 1077 0 461 C 1531.36 586.478 t 0 r /Helvetica findfont 48.9324 sf 0 0 m (400) show NC gr 
 gsave  2268 1077 0 461 C 1782.24 586.478 t 0 r /Helvetica findfont 48.9324 sf 0 0 m (410) show NC gr 
 gsave  2268 1077 0 461 C 2033.13 586.478 t 0 r /Helvetica findfont 48.9324 sf 0 0 m (420) show NC gr  363 1484 m 1791 X s 565 1459 m 25 Y s 615 1471 m 13 Y s 666 1471 m 13 Y s 716 1471 m 13 Y s 767 1471 m 13 Y s 817 1459 m 25 Y s 867 1471 m 13 Y s
 918 1471 m 13 Y s 968 1471 m 13 Y s 1019 1471 m 13 Y s 1069 1459 m 25 Y s 1120 1471 m 13 Y s 1170 1471 m 13 Y s 1221 1471 m 13 Y s 1271 1471 m 13 Y s 1322 1459 m 25 Y s 1372 1471 m 13 Y s 1423 1471 m 13 Y s 1473 1471 m 13 Y s 1524 1471 m 13 Y s 1574
 1459 m 25 Y s 1624 1471 m 13 Y s 1675 1471 m 13 Y s 1725 1471 m 13 Y s 1776 1471 m 13 Y s 1826 1459 m 25 Y s 1877 1471 m 13 Y s 1927 1471 m 13 Y s 1978 1471 m 13 Y s 2028 1471 m 13 Y s 2079 1459 m 25 Y s 565 1459 m 25 Y s 514 1471 m 13 Y s 464 1471
 m 13 Y s 413 1471 m 13 Y s 363 1471 m 13 Y s 2079 1459 m 25 Y s 2129 1471 m 13 Y s 363 634 m 850 Y s
 gsave  2268 1077 0 461 C 120.554 1032.85 t 90 r /Helvetica findfont 48.9324 sf 0 0 m (Events / \( 1.42 GeV \)) show NC gr  390 657 m -27 X s 390 686 m -27 X s 390 711 m -27 X s 390 731 m -27 X s 390 749 m -27 X s 390 765 m -27 X s 417 779 m -54 X s
 gsave  2268 1077 0 461 C 342.425 757.735 t 0 r  -55 0 t /Helvetica findfont 48.9324 sf 0 0 m (10) show NC gr  390 871 m -27 X s 390 925 m -27 X s 390 963 m -27 X s 390 993 m -27 X s 390 1017 m -27 X s 390 1037 m -27 X s 390 1055 m -27 X s 390 1071 m
 -27 X s 417 1085 m -54 X s
 gsave  2268 1077 0 461 C 322.563 1081.73 t 0 r /Helvetica findfont 32.6216 sf 0 0 m (2) show NC gr 
 gsave  2268 1077 0 461 C 270.432 1062.18 t 0 r /Helvetica findfont 48.9324 sf 0 0 m (10) show NC gr  390 1177 m -27 X s 390 1231 m -27 X s 390 1269 m -27 X s 390 1299 m -27 X s 390 1323 m -27 X s 390 1343 m -27 X s 390 1361 m -27 X s 390 1377 m -27
 X s 417 1391 m -54 X s
 gsave  2268 1077 0 461 C 322.563 1391.26 t 0 r /Helvetica findfont 32.6216 sf 0 0 m (3) show NC gr 
 gsave  2268 1077 0 461 C 270.432 1368.45 t 0 r /Helvetica findfont 48.9324 sf 0 0 m (10) show NC gr  390 1483 m -27 X s 2154 634 m 850 Y s 2127 657 m 27 X s 2127 686 m 27 X s 2127 711 m 27 X s 2127 731 m 27 X s 2127 749 m 27 X s 2127 765 m 27 X s
 2101 779 m 53 X s 2127 871 m 27 X s 2127 925 m 27 X s 2127 963 m 27 X s 2127 993 m 27 X s 2127 1017 m 27 X s 2127 1037 m 27 X s 2127 1055 m 27 X s 2127 1071 m 27 X s 2101 1085 m 53 X s 2127 1177 m 27 X s 2127 1231 m 27 X s 2127 1269 m 27 X s 2127
 1299 m 27 X s 2127 1323 m 27 X s 2127 1343 m 27 X s 2127 1361 m 27 X s 2127 1377 m 27 X s 2101 1391 m 53 X s 2127 1483 m 27 X s 381 749 m -18 X s 363 749 m cl s 381 749 m 18 X s 399 749 m cl s 381 749 m 53 Y s 381 802 m cl s 381 749 m -57 Y s 381
 692 m cl s 417 849 m -18 X s 399 849 m cl s 417 849 m 17 X s 434 849 m cl s 417 849 m 36 Y s 417 885 m cl s 417 849 m -36 Y s 417 813 m cl s 452 832 m -18 X s 434 832 m cl s 452 832 m 18 X s 470 832 m cl s 452 832 m 38 Y s 452 870 m cl s 452 832 m
 -39 Y s 452 793 m cl s 488 791 m -18 X s 470 791 m cl s 488 791 m 18 X s 506 791 m cl s 488 791 m 45 Y s 488 836 m cl s 488 791 m -47 Y s 488 744 m cl s 524 832 m -18 X s 506 832 m cl s 524 832 m 18 X s 542 832 m cl s 524 832 m 38 Y s 524 870 m cl s
 524 832 m -39 Y s 524 793 m cl s 560 849 m -18 X s 542 849 m cl s 560 849 m 18 X s 578 849 m cl s 560 849 m 36 Y s 560 885 m cl s 560 849 m -36 Y s 560 813 m cl s 596 849 m -18 X s 578 849 m cl s 596 849 m 18 X s 614 849 m cl s 596 849 m 36 Y s 596
 885 m cl s 596 849 m -36 Y s 596 813 m cl s 632 864 m -18 X s 614 864 m cl s 632 864 m 17 X s 649 864 m cl s 632 864 m 33 Y s 632 897 m cl s 632 864 m -34 Y s 632 830 m cl s 667 877 m -18 X s 649 877 m cl s 667 877 m 18 X s 685 877 m cl s 667 877 m
 32 Y s 667 909 m cl s 667 877 m -32 Y s 667 845 m cl s 703 864 m -18 X s 685 864 m cl s 703 864 m 18 X s 721 864 m cl s 703 864 m 33 Y s 703 897 m cl s 703 864 m -34 Y s 703 830 m cl s 739 883 m -18 X s 721 883 m cl s 739 883 m 18 X s 757 883 m cl s
 739 883 m 31 Y s 739 914 m cl s 739 883 m -31 Y s 739 852 m cl s 775 841 m -18 X s 757 841 m cl s 775 841 m 18 X s 793 841 m cl s 775 841 m 37 Y s 775 878 m cl s 775 841 m -38 Y s 775 803 m cl s 811 960 m -18 X s 793 960 m cl s 811 960 m 18 X s 829
 960 m cl s 811 960 m 22 Y s 811 982 m cl s 811 960 m -24 Y s 811 936 m cl s 847 906 m -18 X s 829 906 m cl s 847 906 m 17 X s 864 906 m cl s 847 906 m 28 Y s 847 934 m cl s 847 906 m -29 Y s 847 877 m cl s 882 933 m -18 X s 864 933 m cl s 882 933 m
 18 X s 900 933 m cl s 882 933 m 26 Y s 882 959 m cl s 882 933 m -25 Y s 882 908 m cl s 918 976 m -18 X s 900 976 m cl s 918 976 m 18 X s 936 976 m cl s 918 976 m 21 Y s 918 997 m cl s 918 976 m -22 Y s 918 954 m cl s 954 966 m -18 X s 936 966 m cl s
 954 966 m 18 X s 972 966 m cl s 954 966 m 22 Y s 954 988 m cl s 954 966 m -22 Y s 954 944 m cl s 990 987 m -18 X s 972 987 m cl s 990 987 m 18 X s 1008 987 m cl s 990 987 m 21 Y s 990 1008 m cl s 990 987 m -21 Y s 990 966 m cl s 1026 1008 m -18 X s
 1008 1008 m cl s 1026 1008 m 18 X s 1044 1008 m cl s 1026 1008 m 18 Y s 1026 1026 m cl s 1026 1008 m -19 Y s 1026 989 m cl s 1062 1031 m -18 X s 1044 1031 m cl s 1062 1031 m 17 X s 1079 1031 m cl s 1062 1031 m 18 Y s 1062 1049 m cl s 1062 1031 m -17
 Y s 1062 1014 m cl s 1097 1037 m -18 X s 1079 1037 m cl s 1097 1037 m 18 X s 1115 1037 m cl s 1097 1037 m 17 Y s 1097 1054 m cl s 1097 1037 m -17 Y s 1097 1020 m cl s 1133 1104 m -18 X s 1115 1104 m cl s 1133 1104 m 18 X s 1151 1104 m cl s 1133 1104
 m 13 Y s 1133 1117 m cl s 1133 1104 m -12 Y s 1133 1092 m cl s 1169 1125 m -18 X s 1151 1125 m cl s 1169 1125 m 18 X s 1187 1125 m cl s 1169 1125 m 11 Y s 1169 1136 m cl s 1169 1125 m -12 Y s 1169 1113 m cl s 1205 1137 m -18 X s 1187 1137 m cl s
 1205 1137 m 18 X s 1223 1137 m cl s 1205 1137 m 11 Y s 1205 1148 m cl s 1205 1137 m -11 Y s 1205 1126 m cl s 1241 1185 m -18 X s 1223 1185 m cl s 1241 1185 m 18 X s 1259 1185 m cl s 1241 1185 m 9 Y s 1241 1194 m cl s 1241 1185 m -9 Y s 1241 1176 m
 cl s 1276 1208 m -17 X s 1259 1208 m cl s 1276 1208 m 18 X s 1294 1208 m cl s 1276 1208 m 8 Y s 1276 1216 m cl s 1276 1208 m -8 Y s 1276 1200 m cl s 1312 1245 m -18 X s 1294 1245 m cl s 1312 1245 m 18 X s 1330 1245 m cl s 1312 1245 m 7 Y s 1312 1252
 m cl s 1312 1245 m -7 Y s 1312 1238 m cl s 1348 1293 m -18 X s 1330 1293 m cl s 1348 1293 m 18 X s 1366 1293 m cl s 1348 1293 m 6 Y s 1348 1299 m cl s 1348 1293 m -6 Y s 1348 1287 m cl s 1384 1314 m -18 X s 1366 1314 m cl s 1384 1314 m 18 X s 1402
 1314 m cl s 1384 1314 m 6 Y s 1384 1320 m cl s 1384 1314 m -5 Y s 1384 1309 m cl s 1420 1345 m -18 X s 1402 1345 m cl s 1420 1345 m 18 X s 1438 1345 m cl s 1420 1345 m 5 Y s 1420 1350 m cl s 1420 1345 m -5 Y s 1420 1340 m cl s 1456 1374 m -18 X s
 1438 1374 m cl s 1456 1374 m 18 X s 1474 1374 m cl s 1456 1374 m 4 Y s 1456 1378 m cl s 1456 1374 m -5 Y s 1456 1369 m cl s 1491 1398 m -17 X s 1474 1398 m cl s 1491 1398 m 18 X s 1509 1398 m cl s 1491 1398 m 4 Y s 1491 1402 m cl s 1491 1398 m -4 Y
 s 1491 1394 m cl s 1527 1411 m -18 X s 1509 1411 m cl s 1527 1411 m 18 X s 1545 1411 m cl s 1527 1411 m 4 Y s 1527 1415 m cl s 1527 1411 m -4 Y s 1527 1407 m cl s 1563 1410 m -18 X s 1545 1410 m cl s 1563 1410 m 18 X s 1581 1410 m cl s 1563 1410 m 4
 Y s 1563 1414 m cl s 1563 1410 m -4 Y s 1563 1406 m cl s 1599 1408 m -18 X s 1581 1408 m cl s 1599 1408 m 18 X s 1617 1408 m cl s 1599 1408 m 4 Y s 1599 1412 m cl s 1599 1408 m -4 Y s 1599 1404 m cl s 1635 1375 m -18 X s 1617 1375 m cl s 1635 1375 m
 18 X s 1653 1375 m cl s 1635 1375 m 5 Y s 1635 1380 m cl s 1635 1375 m -4 Y s 1635 1371 m cl s 1671 1340 m -18 X s 1653 1340 m cl s 1671 1340 m 18 X s 1689 1340 m cl s 1671 1340 m 5 Y s 1671 1345 m cl s 1671 1340 m -5 Y s 1671 1335 m cl s 1706 1296
 m -17 X s 1689 1296 m cl s 1706 1296 m 18 X s 1724 1296 m cl s 1706 1296 m 6 Y s 1706 1302 m cl s 1706 1296 m -6 Y s 1706 1290 m cl s 1742 1240 m -18 X s 1724 1240 m cl s 1742 1240 m 18 X s 1760 1240 m cl s 1742 1240 m 7 Y s 1742 1247 m cl s 1742
 1240 m -8 Y s 1742 1232 m cl s 1778 1179 m -18 X s 1760 1179 m cl s 1778 1179 m 18 X s 1796 1179 m cl s 1778 1179 m 9 Y s 1778 1188 m cl s 1778 1179 m -9 Y s 1778 1170 m cl s 1814 1152 m -18 X s 1796 1152 m cl s 1814 1152 m 18 X s 1832 1152 m cl s
 1814 1152 m 10 Y s 1814 1162 m cl s 1814 1152 m -10 Y s 1814 1142 m cl s 1850 1090 m -18 X s 1832 1090 m cl s 1850 1090 m 18 X s 1868 1090 m cl s 1850 1090 m 13 Y s 1850 1103 m cl s 1850 1090 m -13 Y s 1850 1077 m cl s 1886 1027 m -18 X s 1868 1027
 m cl s 1886 1027 m 18 X s 1904 1027 m cl s 1886 1027 m 18 Y s 1886 1045 m cl s 1886 1027 m -17 Y s 1886 1010 m cl s 1921 963 m -17 X s 1904 963 m cl s 1921 963 m 18 X s 1939 963 m cl s 1921 963 m 22 Y s 1921 985 m cl s 1921 963 m -23 Y s 1921 940 m
 cl s 1957 915 m -18 X s 1939 915 m cl s 1957 915 m 18 X s 1975 915 m cl s 1957 915 m 28 Y s 1957 943 m cl s 1957 915 m -27 Y s 1957 888 m cl s 1993 864 m -18 X s 1975 864 m cl s 1993 864 m 18 X s 2011 864 m cl s 1993 864 m 33 Y s 1993 897 m cl s
 1993 864 m -34 Y s 1993 830 m cl s 2029 749 m -18 X s 2011 749 m cl s 2029 749 m 18 X s 2047 749 m cl s 2029 749 m 53 Y s 2029 802 m cl s 2029 749 m -57 Y s 2029 692 m cl s 2065 813 m -18 X s 2047 813 m cl s 2065 813 m 18 X s 2083 813 m cl s 2065
 813 m 41 Y s 2065 854 m cl s 2065 813 m -42 Y s 2065 771 m cl s 2101 779 m -18 X s 2083 779 m cl s 2101 779 m 18 X s 2119 779 m cl s 2101 779 m 47 Y s 2101 826 m cl s 2101 779 m -50 Y s 2101 729 m cl s 2136 749 m -17 X s 2119 749 m cl s 2136 749 m
 18 X s 2154 749 m cl s 2136 749 m 53 Y s 2136 802 m cl s 2136 749 m -57 Y s 2136 692 m cl s /w 31 def /w2 {w 2 div} def /w3 {w 3 div} def 381 749 417 849 452 832 488 791 524 832 560 849 596 849 632 864 667 877 703 864 739 883 775 841 811 960 847 906
 882 933 918 976 954 966 990 987 1026 1008 1062 1031 1097 1037 1133 1104 1169 1125 1205 1137 1241 1185 1276 1208 1312 1245 1348 1293 1384 1314 1420 1345 1456 1374 1491 1398 1527 1411 1563 1410 1599 1408 1635 1375 1671 1340 1706 1296 1742 1240 1778
 1179 1814 1152 1850 1090 1886 1027 1921 963 1957 915 1993 864 2029 749 2065 813 2101 779 2136 749 50 { m20} R 0 1 1 c 1 1 0 c black 1 1 0 c 363 826 m 36 7 d 35 6 d 36 7 d 36 6 d 36 7 d 36 8 d 36 7 d 35 8 d 36 8 d 36 9 d 36 9 d 36 10 d 36 10 d 35 12
 d 36 14 d 36 15 d 36 18 d 36 20 d 36 23 d 35 25 d 36 26 d 36 28 d 36 30 d 36 31 d 18 16 d 18 16 d 17 16 d 18 15 d 18 16 d 18 15 d 18 15 d 9 8 d 9 8 d 9 9 d 9 10 d 9 11 d 9 11 d 36 35 d 18 14 d 9 6 d 9 5 d 9 5 d 8 4 d 9 4 d 9 3 d 9 3 d 9 2 d 9 1 d 9
 X 9 -1 d 9 -1 d 9 -3 d 9 -3 d 9 -4 d 9 -4 d 9 -6 d 9 -6 d 18 -14 d 18 -16 d 18 -18 d 18 -20 d 17 -22 d 9 -12 d 9 -12 d 9 -12 d 9 -12 d 9 -13 d 9 -13 d 18 -26 d 18 -26 d 18 -25 d 18 -25 d 18 -24 d 18 -24 d 18 -25 d 18 -23 d 35 -49 d 36 -51 d 36 -52 d
 36 -55 d 36 -57 d 36 -61 d 35 -65 d -4 Y -50 X -21 50 d -36 77 d -36 69 d -36 63 d -36 56 d -35 53 d -18 26 d -18 25 d -18 26 d -18 27 d -18 27 d -18 26 d -18 27 d -18 26 d -9 13 d -9 14 d -9 12 d -9 13 d -9 13 d -9 12 d -17 23 d -18 22 d -18 20 d
 -18 16 d -18 14 d -9 6 d -9 5 d -9 4 d -9 4 d -9 3 d -9 2 d -9 2 d -9 1 d -9 X -9 -1 d -9 -1 d -9 -2 d -9 -3 d -9 -4 d -8 -4 d -9 -6 d -9 -6 d -9 -7 d -18 -17 d -36 -40 d -9 -9 d -9 -8 d -9 -9 d -9 -8 d -9 -10 d -9 -8 d -18 -17 d -18 -16 d -18 -16 d
 -18 -15 d -17 -15 d -18 -15 d -18 -15 d -36 -30 d -36 -32 d -36 -31 d -36 -29 d -35 -27 d -36 -23 d -36 -21 d -36 -18 d -36 -15 d -36 -14 d -35 -13 d -36 -11 d -36 -10 d -36 -10 d -36 -9 d -36 -9 d -35 -8 d -36 -8 d -36 -8 d -36 -7 d -36 -7 d -36 -7
 d -35 -6 d -36 -7 d f 0 1 1 c 0 1 0 c black 0 1 0 c 363 820 m 36 6 d 35 7 d 36 6 d 36 7 d 36 7 d 36 8 d 36 7 d 35 8 d 36 9 d 36 8 d 36 10 d 36 9 d 36 11 d 35 12 d 36 14 d 36 15 d 36 18 d 36 20 d 36 23 d 35 25 d 36 28 d 36 29 d 36 30 d 36 31 d 18 15
 d 18 16 d 17 15 d 18 16 d 18 15 d 18 16 d 18 15 d 9 8 d 9 9 d 9 8 d 9 10 d 9 11 d 9 11 d 36 36 d 18 14 d 9 6 d 9 6 d 9 5 d 8 4 d 9 4 d 9 3 d 9 2 d 9 2 d 9 1 d 9 X 9 -1 d 9 -1 d 9 -3 d 9 -3 d 9 -3 d 9 -5 d 9 -5 d 9 -6 d 18 -14 d 18 -16 d 18 -19 d 18
 -20 d 17 -23 d 9 -11 d 9 -13 d 9 -12 d 9 -13 d 9 -12 d 9 -13 d 18 -27 d 18 -26 d 18 -25 d 18 -25 d 18 -25 d 18 -24 d 18 -25 d 18 -24 d 35 -50 d 36 -52 d 36 -54 d 36 -57 d 36 -61 d 36 -65 d 25 -49 d -26 X -35 75 d -36 70 d -36 64 d -36 60 d -36 54 d
 -35 52 d -18 25 d -18 25 d -18 26 d -18 26 d -18 26 d -18 26 d -18 27 d -18 26 d -9 13 d -9 13 d -9 13 d -9 12 d -9 13 d -9 12 d -17 23 d -18 21 d -18 19 d -18 17 d -18 14 d -9 6 d -9 5 d -9 4 d -9 4 d -9 3 d -9 2 d -9 2 d -27 X -9 -2 d -9 -2 d -9
 -3 d -9 -3 d -8 -5 d -9 -5 d -9 -6 d -9 -7 d -18 -16 d -36 -39 d -9 -10 d -9 -8 d -9 -9 d -9 -9 d -9 -9 d -9 -8 d -18 -17 d -18 -16 d -18 -15 d -18 -16 d -17 -15 d -18 -15 d -18 -15 d -36 -31 d -36 -31 d -36 -30 d -36 -29 d -35 -26 d -36 -23 d -36
 -20 d -36 -18 d -36 -16 d -36 -13 d -35 -13 d -36 -11 d -36 -10 d -36 -10 d -36 -9 d -36 -8 d -35 -8 d -36 -8 d -36 -8 d -36 -7 d -36 -7 d -36 -7 d -35 -6 d -36 -6 d f 0 0 1 c 9 lw black 0 0 1 c 363 814 m 36 6 d 35 6 d 36 7 d 36 7 d 36 7 d 36 7 d 36
 8 d 35 8 d 36 9 d 36 8 d 36 10 d 36 10 d 36 11 d 35 12 d 36 14 d 36 15 d 36 18 d 36 20 d 36 23 d 35 26 d 36 28 d 36 29 d 36 31 d 36 31 d 18 15 d 18 16 d 17 15 d 18 15 d 18 16 d 18 15 d 18 17 d 9 8 d 9 8 d 9 9 d 9 9 d 9 10 d 9 10 d 36 38 d 18 15 d 9
 6 d 9 6 d 9 6 d 8 4 d 9 4 d 9 3 d 9 2 d 9 1 d 9 1 d 9 X 9 -1 d 9 -1 d 9 -2 d 9 -3 d 9 -4 d 9 -5 d 9 -5 d 9 -6 d 18 -14 d 18 -16 d 18 -19 d 18 -21 d 17 -22 d 9 -12 d 9 -13 d 9 -12 d 9 -13 d 9 -13 d 9 -13 d 18 -26 d 18 -26 d 18 -26 d 18 -26 d 18 -25 d
 18 -25 d 18 -25 d 18 -24 d 35 -51 d 36 -53 d 36 -57 d 36 -60 d 36 -65 d 36 -69 d 13 -27 d s black 3 lw 381 749 m -18 X s 363 749 m cl s 381 749 m 18 X s 399 749 m cl s 381 749 m 53 Y s 381 802 m cl s 381 749 m -57 Y s 381 692 m cl s 417 849 m -18 X
 s 399 849 m cl s 417 849 m 17 X s 434 849 m cl s 417 849 m 36 Y s 417 885 m cl s 417 849 m -36 Y s 417 813 m cl s 452 832 m -18 X s 434 832 m cl s 452 832 m 18 X s 470 832 m cl s 452 832 m 38 Y s 452 870 m cl s 452 832 m -39 Y s 452 793 m cl s 488
 791 m -18 X s 470 791 m cl s 488 791 m 18 X s 506 791 m cl s 488 791 m 45 Y s 488 836 m cl s 488 791 m -47 Y s 488 744 m cl s 524 832 m -18 X s 506 832 m cl s 524 832 m 18 X s 542 832 m cl s 524 832 m 38 Y s 524 870 m cl s 524 832 m -39 Y s 524 793
 m cl s 560 849 m -18 X s 542 849 m cl s 560 849 m 18 X s 578 849 m cl s 560 849 m 36 Y s 560 885 m cl s 560 849 m -36 Y s 560 813 m cl s 596 849 m -18 X s 578 849 m cl s 596 849 m 18 X s 614 849 m cl s 596 849 m 36 Y s 596 885 m cl s 596 849 m -36 Y
 s 596 813 m cl s 632 864 m -18 X s 614 864 m cl s 632 864 m 17 X s 649 864 m cl s 632 864 m 33 Y s 632 897 m cl s 632 864 m -34 Y s 632 830 m cl s 667 877 m -18 X s 649 877 m cl s 667 877 m 18 X s 685 877 m cl s 667 877 m 32 Y s 667 909 m cl s 667
 877 m -32 Y s 667 845 m cl s 703 864 m -18 X s 685 864 m cl s 703 864 m 18 X s 721 864 m cl s 703 864 m 33 Y s 703 897 m cl s 703 864 m -34 Y s 703 830 m cl s 739 883 m -18 X s 721 883 m cl s 739 883 m 18 X s 757 883 m cl s 739 883 m 31 Y s 739 914
 m cl s 739 883 m -31 Y s 739 852 m cl s 775 841 m -18 X s 757 841 m cl s 775 841 m 18 X s 793 841 m cl s 775 841 m 37 Y s 775 878 m cl s 775 841 m -38 Y s 775 803 m cl s 811 960 m -18 X s 793 960 m cl s 811 960 m 18 X s 829 960 m cl s 811 960 m 22 Y
 s 811 982 m cl s 811 960 m -24 Y s 811 936 m cl s 847 906 m -18 X s 829 906 m cl s 847 906 m 17 X s 864 906 m cl s 847 906 m 28 Y s 847 934 m cl s 847 906 m -29 Y s 847 877 m cl s 882 933 m -18 X s 864 933 m cl s 882 933 m 18 X s 900 933 m cl s 882
 933 m 26 Y s 882 959 m cl s 882 933 m -25 Y s 882 908 m cl s 918 976 m -18 X s 900 976 m cl s 918 976 m 18 X s 936 976 m cl s 918 976 m 21 Y s 918 997 m cl s 918 976 m -22 Y s 918 954 m cl s 954 966 m -18 X s 936 966 m cl s 954 966 m 18 X s 972 966
 m cl s 954 966 m 22 Y s 954 988 m cl s 954 966 m -22 Y s 954 944 m cl s 990 987 m -18 X s 972 987 m cl s 990 987 m 18 X s 1008 987 m cl s 990 987 m 21 Y s 990 1008 m cl s 990 987 m -21 Y s 990 966 m cl s 1026 1008 m -18 X s 1008 1008 m cl s 1026
 1008 m 18 X s 1044 1008 m cl s 1026 1008 m 18 Y s 1026 1026 m cl s 1026 1008 m -19 Y s 1026 989 m cl s 1062 1031 m -18 X s 1044 1031 m cl s 1062 1031 m 17 X s 1079 1031 m cl s 1062 1031 m 18 Y s 1062 1049 m cl s 1062 1031 m -17 Y s 1062 1014 m cl s
 1097 1037 m -18 X s 1079 1037 m cl s 1097 1037 m 18 X s 1115 1037 m cl s 1097 1037 m 17 Y s 1097 1054 m cl s 1097 1037 m -17 Y s 1097 1020 m cl s 1133 1104 m -18 X s 1115 1104 m cl s 1133 1104 m 18 X s 1151 1104 m cl s 1133 1104 m 13 Y s 1133 1117 m
 cl s 1133 1104 m -12 Y s 1133 1092 m cl s 1169 1125 m -18 X s 1151 1125 m cl s 1169 1125 m 18 X s 1187 1125 m cl s 1169 1125 m 11 Y s 1169 1136 m cl s 1169 1125 m -12 Y s 1169 1113 m cl s 1205 1137 m -18 X s 1187 1137 m cl s 1205 1137 m 18 X s 1223
 1137 m cl s 1205 1137 m 11 Y s 1205 1148 m cl s 1205 1137 m -11 Y s 1205 1126 m cl s 1241 1185 m -18 X s 1223 1185 m cl s 1241 1185 m 18 X s 1259 1185 m cl s 1241 1185 m 9 Y s 1241 1194 m cl s 1241 1185 m -9 Y s 1241 1176 m cl s 1276 1208 m -17 X s
 1259 1208 m cl s 1276 1208 m 18 X s 1294 1208 m cl s 1276 1208 m 8 Y s 1276 1216 m cl s 1276 1208 m -8 Y s 1276 1200 m cl s 1312 1245 m -18 X s 1294 1245 m cl s 1312 1245 m 18 X s 1330 1245 m cl s 1312 1245 m 7 Y s 1312 1252 m cl s 1312 1245 m -7 Y
 s 1312 1238 m cl s 1348 1293 m -18 X s 1330 1293 m cl s 1348 1293 m 18 X s 1366 1293 m cl s 1348 1293 m 6 Y s 1348 1299 m cl s 1348 1293 m -6 Y s 1348 1287 m cl s 1384 1314 m -18 X s 1366 1314 m cl s 1384 1314 m 18 X s 1402 1314 m cl s 1384 1314 m 6
 Y s 1384 1320 m cl s 1384 1314 m -5 Y s 1384 1309 m cl s 1420 1345 m -18 X s 1402 1345 m cl s 1420 1345 m 18 X s 1438 1345 m cl s 1420 1345 m 5 Y s 1420 1350 m cl s 1420 1345 m -5 Y s 1420 1340 m cl s 1456 1374 m -18 X s 1438 1374 m cl s 1456 1374 m
 18 X s 1474 1374 m cl s 1456 1374 m 4 Y s 1456 1378 m cl s 1456 1374 m -5 Y s 1456 1369 m cl s 1491 1398 m -17 X s 1474 1398 m cl s 1491 1398 m 18 X s 1509 1398 m cl s 1491 1398 m 4 Y s 1491 1402 m cl s 1491 1398 m -4 Y s 1491 1394 m cl s 1527 1411
 m -18 X s 1509 1411 m cl s 1527 1411 m 18 X s 1545 1411 m cl s 1527 1411 m 4 Y s 1527 1415 m cl s 1527 1411 m -4 Y s 1527 1407 m cl s 1563 1410 m -18 X s 1545 1410 m cl s 1563 1410 m 18 X s 1581 1410 m cl s 1563 1410 m 4 Y s 1563 1414 m cl s 1563
 1410 m -4 Y s 1563 1406 m cl s 1599 1408 m -18 X s 1581 1408 m cl s 1599 1408 m 18 X s 1617 1408 m cl s 1599 1408 m 4 Y s 1599 1412 m cl s 1599 1408 m -4 Y s 1599 1404 m cl s 1635 1375 m -18 X s 1617 1375 m cl s 1635 1375 m 18 X s 1653 1375 m cl s
 1635 1375 m 5 Y s 1635 1380 m cl s 1635 1375 m -4 Y s 1635 1371 m cl s 1671 1340 m -18 X s 1653 1340 m cl s 1671 1340 m 18 X s 1689 1340 m cl s 1671 1340 m 5 Y s 1671 1345 m cl s 1671 1340 m -5 Y s 1671 1335 m cl s 1706 1296 m -17 X s 1689 1296 m cl
 s 1706 1296 m 18 X s 1724 1296 m cl s 1706 1296 m 6 Y s 1706 1302 m cl s 1706 1296 m -6 Y s 1706 1290 m cl s 1742 1240 m -18 X s 1724 1240 m cl s 1742 1240 m 18 X s 1760 1240 m cl s 1742 1240 m 7 Y s 1742 1247 m cl s 1742 1240 m -8 Y s 1742 1232 m
 cl s 1778 1179 m -18 X s 1760 1179 m cl s 1778 1179 m 18 X s 1796 1179 m cl s 1778 1179 m 9 Y s 1778 1188 m cl s 1778 1179 m -9 Y s 1778 1170 m cl s 1814 1152 m -18 X s 1796 1152 m cl s 1814 1152 m 18 X s 1832 1152 m cl s 1814 1152 m 10 Y s 1814
 1162 m cl s 1814 1152 m -10 Y s 1814 1142 m cl s 1850 1090 m -18 X s 1832 1090 m cl s 1850 1090 m 18 X s 1868 1090 m cl s 1850 1090 m 13 Y s 1850 1103 m cl s 1850 1090 m -13 Y s 1850 1077 m cl s 1886 1027 m -18 X s 1868 1027 m cl s 1886 1027 m 18 X
 s 1904 1027 m cl s 1886 1027 m 18 Y s 1886 1045 m cl s 1886 1027 m -17 Y s 1886 1010 m cl s 1921 963 m -17 X s 1904 963 m cl s 1921 963 m 18 X s 1939 963 m cl s 1921 963 m 22 Y s 1921 985 m cl s 1921 963 m -23 Y s 1921 940 m cl s 1957 915 m -18 X s
 1939 915 m cl s 1957 915 m 18 X s 1975 915 m cl s 1957 915 m 28 Y s 1957 943 m cl s 1957 915 m -27 Y s 1957 888 m cl s 1993 864 m -18 X s 1975 864 m cl s 1993 864 m 18 X s 2011 864 m cl s 1993 864 m 33 Y s 1993 897 m cl s 1993 864 m -34 Y s 1993 830
 m cl s 2029 749 m -18 X s 2011 749 m cl s 2029 749 m 18 X s 2047 749 m cl s 2029 749 m 53 Y s 2029 802 m cl s 2029 749 m -57 Y s 2029 692 m cl s 2065 813 m -18 X s 2047 813 m cl s 2065 813 m 18 X s 2083 813 m cl s 2065 813 m 41 Y s 2065 854 m cl s
 2065 813 m -42 Y s 2065 771 m cl s 2101 779 m -18 X s 2083 779 m cl s 2101 779 m 18 X s 2119 779 m cl s 2101 779 m 47 Y s 2101 826 m cl s 2101 779 m -50 Y s 2101 729 m cl s 2136 749 m -17 X s 2119 749 m cl s 2136 749 m 18 X s 2154 749 m cl s 2136
 749 m 53 Y s 2136 802 m cl s 2136 749 m -57 Y s 2136 692 m cl s 381 749 417 849 452 832 488 791 524 832 560 849 596 849 632 864 667 877 703 864 739 883 775 841 811 960 847 906 882 933 918 976 954 966 990 987 1026 1008 1062 1031 1097 1037 1133 1104
 1169 1125 1205 1137 1241 1185 1276 1208 1312 1245 1348 1293 1384 1314 1420 1345 1456 1374 1491 1398 1527 1411 1563 1410 1599 1408 1635 1375 1671 1340 1706 1296 1742 1240 1778 1179 1814 1152 1850 1090 1886 1027 1921 963 1957 915 1993 864 2029 749
 2065 813 2101 779 2136 749 50 { m20} R 0.52 0.76 0.64 c[ 4 8] 0 sd 9 lw black 0.52 0.76 0.64 c 363 814 m 36 6 d 35 6 d 36 7 d 36 7 d 36 7 d 36 7 d 36 8 d 35 8 d 36 8 d 36 9 d 36 9 d 36 10 d 36 10 d 35 10 d 36 12 d 36 11 d 36 13 d 36 13 d 36 15 d 35
 15 d 36 17 d 36 18 d 36 20 d 36 23 d 36 25 d 17 14 d 18 15 d 18 16 d 18 18 d 9 9 d 9 10 d 9 11 d 9 11 d 9 11 d 9 13 d 9 13 d 9 14 d 18 27 d 18 23 d 18 19 d 9 9 d 9 7 d 9 7 d 8 5 d 9 5 d 9 3 d 9 3 d 9 2 d 9 1 d 9 X 9 -1 d 9 -2 d 9 -3 d 9 -3 d 9 -5 d
 9 -6 d 9 -6 d 9 -8 d 18 -17 d 18 -22 d 18 -25 d 9 -14 d 9 -14 d 8 -16 d 9 -17 d 9 -18 d 9 -18 d 9 -20 d 9 -20 d 9 -21 d 9 -23 d 9 -23 d 9 -24 d 9 -25 d 9 -26 d 18 -55 d 18 -58 d 18 -63 d 18 -65 d 30 -122 d s 0.54 0.66 0.63 c black 0.54 0.66 0.63 c
 950 634 m 22 45 d s 972 679 m 36 68 d 36 63 d 18 31 d 17 29 d 18 27 d 18 27 d 18 26 d 18 25 d 18 23 d 18 22 d 18 22 d 18 20 d 18 19 d 18 18 d 17 17 d 18 15 d 36 29 d 36 23 d 18 11 d 18 9 d 18 8 d 18 7 d 18 5 d 18 5 d 17 4 d 18 2 d 9 1 d 9 1 d 27 X 9
 -1 d 18 -2 d 18 -3 d 18 -4 d 18 -5 d 18 -7 d 18 -7 d 18 -9 d 35 -20 d 36 -25 d 36 -30 d 18 -16 d 18 -17 d 18 -19 d 18 -19 d 18 -21 d 18 -22 d 17 -23 d 18 -24 d 18 -25 d 18 -26 d 18 -28 d 18 -28 d 36 -61 d 36 -64 d 36 -69 d 13 -27 d s black[  ] 0 sd
 3 lw 363 634 m 1791 X s 565 659 m -25 Y s 615 646 m -12 Y s 666 646 m -12 Y s 716 646 m -12 Y s 767 646 m -12 Y s 817 659 m -25 Y s 867 646 m -12 Y s 918 646 m -12 Y s 968 646 m -12 Y s 1019 646 m -12 Y s 1069 659 m -25 Y s 1120 646 m -12 Y s 1170
 646 m -12 Y s 1221 646 m -12 Y s 1271 646 m -12 Y s 1322 659 m -25 Y s 1372 646 m -12 Y s 1423 646 m -12 Y s 1473 646 m -12 Y s 1524 646 m -12 Y s 1574 659 m -25 Y s 1624 646 m -12 Y s 1675 646 m -12 Y s 1725 646 m -12 Y s 1776 646 m -12 Y s 1826
 659 m -25 Y s 1877 646 m -12 Y s 1927 646 m -12 Y s 1978 646 m -12 Y s 2028 646 m -12 Y s 2079 659 m -25 Y s 565 659 m -25 Y s 514 646 m -12 Y s 464 646 m -12 Y s 413 646 m -12 Y s 363 646 m -12 Y s 2079 659 m -25 Y s 2129 646 m -12 Y s 363 1484 m
 1791 X s 565 1459 m 25 Y s 615 1471 m 13 Y s 666 1471 m 13 Y s 716 1471 m 13 Y s 767 1471 m 13 Y s 817 1459 m 25 Y s 867 1471 m 13 Y s 918 1471 m 13 Y s 968 1471 m 13 Y s 1019 1471 m 13 Y s 1069 1459 m 25 Y s 1120 1471 m 13 Y s 1170 1471 m 13 Y s
 1221 1471 m 13 Y s 1271 1471 m 13 Y s 1322 1459 m 25 Y s 1372 1471 m 13 Y s 1423 1471 m 13 Y s 1473 1471 m 13 Y s 1524 1471 m 13 Y s 1574 1459 m 25 Y s 1624 1471 m 13 Y s 1675 1471 m 13 Y s 1725 1471 m 13 Y s 1776 1471 m 13 Y s 1826 1459 m 25 Y s
 1877 1471 m 13 Y s 1927 1471 m 13 Y s 1978 1471 m 13 Y s 2028 1471 m 13 Y s 2079 1459 m 25 Y s 565 1459 m 25 Y s 514 1471 m 13 Y s 464 1471 m 13 Y s 413 1471 m 13 Y s 363 1471 m 13 Y s 2079 1459 m 25 Y s 2129 1471 m 13 Y s 363 634 m 850 Y s 390 657
 m -27 X s 390 686 m -27 X s 390 711 m -27 X s 390 731 m -27 X s 390 749 m -27 X s 390 765 m -27 X s 417 779 m -54 X s 390 871 m -27 X s 390 925 m -27 X s 390 963 m -27 X s 390 993 m -27 X s 390 1017 m -27 X s 390 1037 m -27 X s 390 1055 m -27 X s
 390 1071 m -27 X s 417 1085 m -54 X s 390 1177 m -27 X s 390 1231 m -27 X s 390 1269 m -27 X s 390 1299 m -27 X s 390 1323 m -27 X s 390 1343 m -27 X s 390 1361 m -27 X s 390 1377 m -27 X s 417 1391 m -54 X s 390 1483 m -27 X s 2154 634 m 850 Y s
 2127 657 m 27 X s 2127 686 m 27 X s 2127 711 m 27 X s 2127 731 m 27 X s 2127 749 m 27 X s 2127 765 m 27 X s 2101 779 m 53 X s 2127 871 m 27 X s 2127 925 m 27 X s 2127 963 m 27 X s 2127 993 m 27 X s 2127 1017 m 27 X s 2127 1037 m 27 X s 2127 1055 m
 27 X s 2127 1071 m 27 X s 2101 1085 m 53 X s 2127 1177 m 27 X s 2127 1231 m 27 X s 2127 1269 m 27 X s 2127 1299 m 27 X s 2127 1323 m 27 X s 2127 1343 m 27 X s 2127 1361 m 27 X s 2127 1377 m 27 X s 2101 1391 m 53 X s 2127 1483 m 27 X s
 gsave  2268 1077 0 461 C 677.708 1215.31 t 0 r /Helvetica findfont 58.7189 sf 0 0 m (2mu2e) show NC gr  1 1 1 c 453 161 454 1269 bf black
 gsave  2268 1077 0 461 C 566.929 1371.71 t 0 r /Helvetica-Bold findfont 48.9324 sf 0 0 m (MC15) show NC gr  510 1390 m20
 gsave  2268 1077 0 461 C 566.929 1293.51 t 0 r /Helvetica-Bold findfont 48.9324 sf 0 0 m (Projection of Signal pdf) show NC gr  0 0 1 c 9 lw 471 1309 m 79 X s black 3 lw 1 1 1 c 2268 461 0 0 bf black 1 1 1 c 1791 364 363 74 bf black 1791 364 363 74
 bl 363 74 m 1791 X s
 gsave  2268 461 0 0 C 1915.83 13.0329 t 0 r /Helvetica findfont 22.9045 sf 0 0 m (4l Invariant Mass \(GeV\)) show NC gr  565 85 m -11 Y s 615 79 m -5 Y s 666 79 m -5 Y s 716 79 m -5 Y s 767 79 m -5 Y s 817 85 m -11 Y s 867 79 m -5 Y s 918 79 m -5 Y
 s 968 79 m -5 Y s 1019 79 m -5 Y s 1069 85 m -11 Y s 1120 79 m -5 Y s 1170 79 m -5 Y s 1221 79 m -5 Y s 1271 79 m -5 Y s 1322 85 m -11 Y s 1372 79 m -5 Y s 1423 79 m -5 Y s 1473 79 m -5 Y s 1524 79 m -5 Y s 1574 85 m -11 Y s 1624 79 m -5 Y s 1675 79
 m -5 Y s 1725 79 m -5 Y s 1776 79 m -5 Y s 1826 85 m -11 Y s 1877 79 m -5 Y s 1927 79 m -5 Y s 1978 79 m -5 Y s 2028 79 m -5 Y s 2079 85 m -11 Y s 565 85 m -11 Y s 514 79 m -5 Y s 464 79 m -5 Y s 413 79 m -5 Y s 363 79 m -5 Y s 2079 85 m -11 Y s
 2129 79 m -5 Y s
 gsave  2268 461 0 0 C 544.122 55.3896 t 0 r /Helvetica findfont 22.9045 sf 0 0 m (360) show NC gr 
 gsave  2268 461 0 0 C 795.004 55.3896 t 0 r /Helvetica findfont 22.9045 sf 0 0 m (370) show NC gr 
 gsave  2268 461 0 0 C 1049.14 55.3896 t 0 r /Helvetica findfont 22.9045 sf 0 0 m (380) show NC gr 
 gsave  2268 461 0 0 C 1300.03 55.3896 t 0 r /Helvetica findfont 22.9045 sf 0 0 m (390) show NC gr 
 gsave  2268 461 0 0 C 1554.17 55.3896 t 0 r /Helvetica findfont 22.9045 sf 0 0 m (400) show NC gr 
 gsave  2268 461 0 0 C 1805.05 55.3896 t 0 r /Helvetica findfont 22.9045 sf 0 0 m (410) show NC gr 
 gsave  2268 461 0 0 C 2055.93 55.3896 t 0 r /Helvetica findfont 22.9045 sf 0 0 m (420) show NC gr  363 438 m 1791 X s 565 427 m 11 Y s 615 433 m 5 Y s 666 433 m 5 Y s 716 433 m 5 Y s 767 433 m 5 Y s 817 427 m 11 Y s 867 433 m 5 Y s 918 433 m 5 Y s
 968 433 m 5 Y s 1019 433 m 5 Y s 1069 427 m 11 Y s 1120 433 m 5 Y s 1170 433 m 5 Y s 1221 433 m 5 Y s 1271 433 m 5 Y s 1322 427 m 11 Y s 1372 433 m 5 Y s 1423 433 m 5 Y s 1473 433 m 5 Y s 1524 433 m 5 Y s 1574 427 m 11 Y s 1624 433 m 5 Y s 1675 433
 m 5 Y s 1725 433 m 5 Y s 1776 433 m 5 Y s 1826 427 m 11 Y s 1877 433 m 5 Y s 1927 433 m 5 Y s 1978 433 m 5 Y s 2028 433 m 5 Y s 2079 427 m 11 Y s 565 427 m 11 Y s 514 433 m 5 Y s 464 433 m 5 Y s 413 433 m 5 Y s 363 433 m 5 Y s 2079 427 m 11 Y s 2129
 433 m 5 Y s 363 74 m 364 Y s 417 74 m -54 X s 390 81 m -27 X s 390 88 m -27 X s 390 96 m -27 X s 390 103 m -27 X s 417 110 m -54 X s 390 118 m -27 X s 390 125 m -27 X s 390 132 m -27 X s 390 139 m -27 X s 417 147 m -54 X s 390 154 m -27 X s 390 161
 m -27 X s 390 169 m -27 X s 390 176 m -27 X s 417 183 m -54 X s 390 190 m -27 X s 390 198 m -27 X s 390 205 m -27 X s 390 212 m -27 X s 417 220 m -54 X s 390 227 m -27 X s 390 234 m -27 X s 390 241 m -27 X s 390 249 m -27 X s 417 256 m -54 X s 390
 263 m -27 X s 390 271 m -27 X s 390 278 m -27 X s 390 285 m -27 X s 417 293 m -54 X s 390 300 m -27 X s 390 307 m -27 X s 390 314 m -27 X s 390 322 m -27 X s 417 329 m -54 X s 390 336 m -27 X s 390 344 m -27 X s 390 351 m -27 X s 390 358 m -27 X s
 417 365 m -54 X s 390 373 m -27 X s 390 380 m -27 X s 390 387 m -27 X s 390 395 m -27 X s 417 402 m -54 X s 390 409 m -27 X s 390 416 m -27 X s 390 424 m -27 X s 390 431 m -27 X s 417 438 m -54 X s
 gsave  2268 461 0 0 C 329.08 65.1643 t 0 r /Helvetica findfont 22.9045 sf 0 0 m (\2555) show NC gr 
 gsave  2268 461 0 0 C 329.08 101.005 t 0 r /Helvetica findfont 22.9045 sf 0 0 m (\2554) show NC gr 
 gsave  2268 461 0 0 C 329.08 140.103 t 0 r /Helvetica findfont 22.9045 sf 0 0 m (\2553) show NC gr 
 gsave  2268 461 0 0 C 329.08 175.944 t 0 r /Helvetica findfont 22.9045 sf 0 0 m (\2552) show NC gr 
 gsave  2268 461 0 0 C 332.338 211.784 t 0 r /Helvetica findfont 22.9045 sf 0 0 m (\2551) show NC gr 
 gsave  2268 461 0 0 C 335.596 247.624 t 0 r /Helvetica findfont 22.9045 sf 0 0 m (0) show NC gr 
 gsave  2268 461 0 0 C 338.854 283.465 t 0 r /Helvetica findfont 22.9045 sf 0 0 m (1) show NC gr 
 gsave  2268 461 0 0 C 335.596 319.305 t 0 r /Helvetica findfont 22.9045 sf 0 0 m (2) show NC gr 
 gsave  2268 461 0 0 C 335.596 358.403 t 0 r /Helvetica findfont 22.9045 sf 0 0 m (3) show NC gr 
 gsave  2268 461 0 0 C 335.596 394.244 t 0 r /Helvetica findfont 22.9045 sf 0 0 m (4) show NC gr 
 gsave  2268 461 0 0 C 335.596 430.084 t 0 r /Helvetica findfont 22.9045 sf 0 0 m (5) show NC gr  2154 74 m 364 Y s 2101 74 m 53 X s 2127 81 m 27 X s 2127 88 m 27 X s 2127 96 m 27 X s 2127 103 m 27 X s 2101 110 m 53 X s 2127 118 m 27 X s 2127 125 m
 27 X s 2127 132 m 27 X s 2127 139 m 27 X s 2101 147 m 53 X s 2127 154 m 27 X s 2127 161 m 27 X s 2127 169 m 27 X s 2127 176 m 27 X s 2101 183 m 53 X s 2127 190 m 27 X s 2127 198 m 27 X s 2127 205 m 27 X s 2127 212 m 27 X s 2101 220 m 53 X s 2127 227
 m 27 X s 2127 234 m 27 X s 2127 241 m 27 X s 2127 249 m 27 X s 2101 256 m 53 X s 2127 263 m 27 X s 2127 271 m 27 X s 2127 278 m 27 X s 2127 285 m 27 X s 2101 293 m 53 X s 2127 300 m 27 X s 2127 307 m 27 X s 2127 314 m 27 X s 2127 322 m 27 X s 2101
 329 m 53 X s 2127 336 m 27 X s 2127 344 m 27 X s 2127 351 m 27 X s 2127 358 m 27 X s 2101 365 m 53 X s 2127 373 m 27 X s 2127 380 m 27 X s 2127 387 m 27 X s 2127 395 m 27 X s 2101 402 m 53 X s 2127 409 m 27 X s 2127 416 m 27 X s 2127 424 m 27 X s
 2127 431 m 27 X s 2101 438 m 53 X s 6 lw 0.2 0.8 0.2 c black 3 lw 0.2 0.8 0.2 c 363 256 m -49 Y 36 X 76 Y 35 X -24 Y 36 X -40 Y 36 X 28 Y 36 X 8 Y 36 X -7 Y 36 X 6 Y 35 X 6 Y 36 X -24 Y 36 X 10 Y 36 X -57 Y 36 X 135 Y 36 X -91 Y 35 X 18 Y 36 X 45 Y
 36 X -43 Y 36 X 3 Y 36 X -3 Y 36 X -2 Y 35 X -47 Y 36 X 96 Y 36 X -28 Y 36 X -61 Y 36 X 65 Y 36 X -32 Y 35 X 29 Y 36 X 96 Y 36 X -73 Y 36 X -63 Y 36 X -36 Y 36 X 16 Y 35 X 17 Y 36 X 5 Y 36 X 105 Y 36 X -68 Y 72 X -9 Y 35 X -33 Y 36 X -31 Y 36 X 96 Y
 36 X -39 Y 36 X -27 Y 36 X -22 Y 35 X 15 Y 36 X 11 Y 36 X -37 Y 36 X 100 Y 36 X 13 Y 36 X 10 Y 35 X -63 Y f 6 lw black 0.2 0.8 0.2 c black 363 207 m 36 X 76 Y 35 X -24 Y 36 X -40 Y 36 X 28 Y 36 X 8 Y 36 X -7 Y 36 X 6 Y 35 X 6 Y 36 X -24 Y 36 X 10 Y
 36 X -57 Y 36 X 135 Y 36 X -91 Y 35 X 18 Y 36 X 45 Y 36 X -43 Y 36 X 3 Y 36 X -3 Y 36 X -2 Y 35 X -47 Y 36 X 96 Y 36 X -28 Y 36 X -61 Y 36 X 65 Y 36 X -32 Y 35 X 29 Y 36 X 96 Y 36 X -73 Y 36 X -63 Y 36 X -36 Y 36 X 16 Y 35 X 17 Y 36 X 5 Y 36 X 105 Y
 36 X -68 Y 72 X -9 Y 35 X -33 Y 36 X -31 Y 36 X 96 Y 36 X -39 Y 36 X -27 Y 36 X -22 Y 35 X 15 Y 36 X 11 Y 36 X -37 Y 36 X 100 Y 36 X 13 Y 36 X 10 Y 35 X s 3 lw 363 74 m 1791 X s 565 85 m -11 Y s 615 79 m -5 Y s 666 79 m -5 Y s 716 79 m -5 Y s 767 79
 m -5 Y s 817 85 m -11 Y s 867 79 m -5 Y s 918 79 m -5 Y s 968 79 m -5 Y s 1019 79 m -5 Y s 1069 85 m -11 Y s 1120 79 m -5 Y s 1170 79 m -5 Y s 1221 79 m -5 Y s 1271 79 m -5 Y s 1322 85 m -11 Y s 1372 79 m -5 Y s 1423 79 m -5 Y s 1473 79 m -5 Y s
 1524 79 m -5 Y s 1574 85 m -11 Y s 1624 79 m -5 Y s 1675 79 m -5 Y s 1725 79 m -5 Y s 1776 79 m -5 Y s 1826 85 m -11 Y s 1877 79 m -5 Y s 1927 79 m -5 Y s 1978 79 m -5 Y s 2028 79 m -5 Y s 2079 85 m -11 Y s 565 85 m -11 Y s 514 79 m -5 Y s 464 79 m
 -5 Y s 413 79 m -5 Y s 363 79 m -5 Y s 2079 85 m -11 Y s 2129 79 m -5 Y s 363 438 m 1791 X s 565 427 m 11 Y s 615 433 m 5 Y s 666 433 m 5 Y s 716 433 m 5 Y s 767 433 m 5 Y s 817 427 m 11 Y s 867 433 m 5 Y s 918 433 m 5 Y s 968 433 m 5 Y s 1019 433 m
 5 Y s 1069 427 m 11 Y s 1120 433 m 5 Y s 1170 433 m 5 Y s 1221 433 m 5 Y s 1271 433 m 5 Y s 1322 427 m 11 Y s 1372 433 m 5 Y s 1423 433 m 5 Y s 1473 433 m 5 Y s 1524 433 m 5 Y s 1574 427 m 11 Y s 1624 433 m 5 Y s 1675 433 m 5 Y s 1725 433 m 5 Y s
 1776 433 m 5 Y s 1826 427 m 11 Y s 1877 433 m 5 Y s 1927 433 m 5 Y s 1978 433 m 5 Y s 2028 433 m 5 Y s 2079 427 m 11 Y s 565 427 m 11 Y s 514 433 m 5 Y s 464 433 m 5 Y s 413 433 m 5 Y s 363 433 m 5 Y s 2079 427 m 11 Y s 2129 433 m 5 Y s 363 74 m 364
 Y s 417 74 m -54 X s 390 81 m -27 X s 390 88 m -27 X s 390 96 m -27 X s 390 103 m -27 X s 417 110 m -54 X s 390 118 m -27 X s 390 125 m -27 X s 390 132 m -27 X s 390 139 m -27 X s 417 147 m -54 X s 390 154 m -27 X s 390 161 m -27 X s 390 169 m -27 X
 s 390 176 m -27 X s 417 183 m -54 X s 390 190 m -27 X s 390 198 m -27 X s 390 205 m -27 X s 390 212 m -27 X s 417 220 m -54 X s 390 227 m -27 X s 390 234 m -27 X s 390 241 m -27 X s 390 249 m -27 X s 417 256 m -54 X s 390 263 m -27 X s 390 271 m -27
 X s 390 278 m -27 X s 390 285 m -27 X s 417 293 m -54 X s 390 300 m -27 X s 390 307 m -27 X s 390 314 m -27 X s 390 322 m -27 X s 417 329 m -54 X s 390 336 m -27 X s 390 344 m -27 X s 390 351 m -27 X s 390 358 m -27 X s 417 365 m -54 X s 390 373 m
 -27 X s 390 380 m -27 X s 390 387 m -27 X s 390 395 m -27 X s 417 402 m -54 X s 390 409 m -27 X s 390 416 m -27 X s 390 424 m -27 X s 390 431 m -27 X s 417 438 m -54 X s 2154 74 m 364 Y s 2101 74 m 53 X s 2127 81 m 27 X s 2127 88 m 27 X s 2127 96 m
 27 X s 2127 103 m 27 X s 2101 110 m 53 X s 2127 118 m 27 X s 2127 125 m 27 X s 2127 132 m 27 X s 2127 139 m 27 X s 2101 147 m 53 X s 2127 154 m 27 X s 2127 161 m 27 X s 2127 169 m 27 X s 2127 176 m 27 X s 2101 183 m 53 X s 2127 190 m 27 X s 2127 198
 m 27 X s 2127 205 m 27 X s 2127 212 m 27 X s 2101 220 m 53 X s 2127 227 m 27 X s 2127 234 m 27 X s 2127 241 m 27 X s 2127 249 m 27 X s 2101 256 m 53 X s 2127 263 m 27 X s 2127 271 m 27 X s 2127 278 m 27 X s 2127 285 m 27 X s 2101 293 m 53 X s 2127
 300 m 27 X s 2127 307 m 27 X s 2127 314 m 27 X s 2127 322 m 27 X s 2101 329 m 53 X s 2127 336 m 27 X s 2127 344 m 27 X s 2127 351 m 27 X s 2127 358 m 27 X s 2101 365 m 53 X s 2127 373 m 27 X s 2127 380 m 27 X s 2127 387 m 27 X s 2127 395 m 27 X s
 2101 402 m 53 X s 2127 409 m 27 X s 2127 416 m 27 X s 2127 424 m 27 X s 2127 431 m 27 X s 2101 438 m 53 X s
 gr  gr showpage
end
%%EOF
