%!PS-Adobe-2.0 EPSF-2.0
%%BoundingBox:  0 0 567 384
%%Title: H4l2015_plotfit/gg_mass_signal_400_fixed_H4l_4mu.eps: 
%%Creator: ROOT Version 5.34/10
%%CreationDate: Thu Feb 16 13:02:58 2017
%%EndComments
%%BeginProlog
80 dict begin
/s {stroke} def /l {lineto} def /m {moveto} def /t {translate} def
/r {rotate} def /rl {roll}  def /R {repeat} def
/d {rlineto} def /rm {rmoveto} def /gr {grestore} def /f {eofill} def
/c {setrgbcolor} def /black {0 setgray} def /sd {setdash} def
/cl {closepath} def /sf {scalefont setfont} def /lw {setlinewidth} def
/box {m dup 0 exch d exch 0 d 0 exch neg d cl} def
/NC{systemdict begin initclip end}def/C{NC box clip newpath}def
/bl {box s} def /bf {box f} def /Y { 0 exch d} def /X { 0 d} def 
/K {{pop pop 0 moveto} exch kshow} bind def
/ita {/ang 15 def gsave [1 0 ang dup sin exch cos div 1 0 0] concat} def 
/mp {newpath /y exch def /x exch def} def
/side {[w .77 mul w .23 mul] .385 w mul sd w 0 l currentpoint t -144 r} def
/mr {mp x y w2 0 360 arc} def /m24 {mr s} def /m20 {mr f} def
/mb {mp x y w2 add m w2 neg 0 d 0 w neg d w 0 d 0 w d cl} def
/mt {mp x y w2 add m w2 neg w neg d w 0 d cl} def
/m21 {mb f} def /m25 {mb s} def /m22 {mt f} def /m26{mt s} def
/m23 {mp x y w2 sub m w2 w d w neg 0 d cl f} def
/m27 {mp x y w2 add m w3 neg w2 neg d w3 w2 neg d w3 w2 d cl s} def
/m28 {mp x w2 sub y w2 sub w3 add m w3 0 d  0 w3 neg d w3 0 d 0 w3 d w3 0 d  0 w3 d w3 neg 0 d 0 w3 d w3 neg 0 d 0 w3 neg d w3 neg 0 d cl s } def
/m29 {mp gsave x w2 sub y w2 add w3 sub m currentpoint t 4 {side} repeat cl fill gr} def
/m30 {mp gsave x w2 sub y w2 add w3 sub m currentpoint t 4 {side} repeat cl s gr} def
/m31 {mp x y w2 sub m 0 w d x w2 sub y m w 0 d x w2 sub y w2 add m w w neg d x w2 sub y w2 sub m w w d s} def
/m32 {mp x y w2 sub m w2 w d w neg 0 d cl s} def
/m33 {mp x y w2 add m w3 neg w2 neg d w3 w2 neg d w3 w2 d cl f} def
/m34 {mp x w2 sub y w2 sub w3 add m w3 0 d  0 w3 neg d w3 0 d 0 w3 d w3 0 d  0 w3 d w3 neg 0 d 0 w3 d w3 neg 0 d 0 w3 neg d w3 neg 0 d cl f } def
/m2 {mp x y w2 sub m 0 w d x w2 sub y m w 0 d s} def
/m5 {mp x w2 sub y w2 sub m w w d x w2 sub y w2 add m w w neg d s} def
/reEncode {exch findfont dup length dict begin {1 index /FID eq  {pop pop} {def} ifelse } forall /Encoding exch def currentdict end dup /FontName get exch definefont pop } def [/Times-Bold /Times-Italic /Times-BoldItalic /Helvetica /Helvetica-Oblique
 /Helvetica-Bold /Helvetica-BoldOblique /Courier /Courier-Oblique /Courier-Bold /Courier-BoldOblique /Times-Roman /AvantGarde-Book /AvantGarde-BookOblique /AvantGarde-Demi /AvantGarde-DemiOblique /Bookman-Demi /Bookman-DemiItalic /Bookman-Light
 /Bookman-LightItalic /Helvetica-Narrow /Helvetica-Narrow-Bold /Helvetica-Narrow-BoldOblique /Helvetica-Narrow-Oblique /NewCenturySchlbk-Roman /NewCenturySchlbk-Bold /NewCenturySchlbk-BoldItalic /NewCenturySchlbk-Italic /Palatino-Bold
 /Palatino-BoldItalic /Palatino-Italic /Palatino-Roman ] {ISOLatin1Encoding reEncode } forall
%%EndProlog
%%BeginSetup
%%EndSetup
newpath  gsave  .25 .25 scale  gsave  0 0 t black[  ] 0 sd 3 lw 1 1 1 c 2268 1538 0 0 bf black 1 1 1 c 2222 738 23 784 bf black 1 1 1 c 2222 739 23 15 bf black 1 1 1 c 2268 1077 0 461 bf black 1 1 1 c 1791 850 363 634 bf black 1791 850 363 634 bl 363
 634 m 1791 X s
 gsave  2268 1077 0 461 C 1642.14 498.507 t 0 r /Helvetica findfont 48.9324 sf 0 0 m (4l Invariant Mass \(GeV\)) show NC gr  363 659 m -25 Y s 404 646 m -12 Y s 444 646 m -12 Y s 485 646 m -12 Y s 526 646 m -12 Y s 566 659 m -25 Y s 607 646 m -12 Y s
 648 646 m -12 Y s 689 646 m -12 Y s 729 646 m -12 Y s 770 659 m -25 Y s 811 646 m -12 Y s 851 646 m -12 Y s 892 646 m -12 Y s 933 646 m -12 Y s 974 659 m -25 Y s 1014 646 m -12 Y s 1055 646 m -12 Y s 1096 646 m -12 Y s 1136 646 m -12 Y s 1177 659 m
 -25 Y s 1218 646 m -12 Y s 1259 646 m -12 Y s 1299 646 m -12 Y s 1340 646 m -12 Y s 1381 659 m -25 Y s 1421 646 m -12 Y s 1462 646 m -12 Y s 1503 646 m -12 Y s 1544 646 m -12 Y s 1584 659 m -25 Y s 1625 646 m -12 Y s 1666 646 m -12 Y s 1706 646 m
 -12 Y s 1747 646 m -12 Y s 1788 659 m -25 Y s 1829 646 m -12 Y s 1869 646 m -12 Y s 1910 646 m -12 Y s 1951 646 m -12 Y s 1991 659 m -25 Y s 1991 659 m -25 Y s 2032 646 m -12 Y s 2073 646 m -12 Y s 2114 646 m -12 Y s
 gsave  2268 1077 0 461 C 319.305 586.478 t 0 r /Helvetica findfont 48.9324 sf 0 0 m (340) show NC gr 
 gsave  2268 1077 0 461 C 521.314 586.478 t 0 r /Helvetica findfont 48.9324 sf 0 0 m (350) show NC gr 
 gsave  2268 1077 0 461 C 726.582 586.478 t 0 r /Helvetica findfont 48.9324 sf 0 0 m (360) show NC gr 
 gsave  2268 1077 0 461 C 928.591 586.478 t 0 r /Helvetica findfont 48.9324 sf 0 0 m (370) show NC gr 
 gsave  2268 1077 0 461 C 1133.86 586.478 t 0 r /Helvetica findfont 48.9324 sf 0 0 m (380) show NC gr 
 gsave  2268 1077 0 461 C 1335.87 586.478 t 0 r /Helvetica findfont 48.9324 sf 0 0 m (390) show NC gr 
 gsave  2268 1077 0 461 C 1541.13 586.478 t 0 r /Helvetica findfont 48.9324 sf 0 0 m (400) show NC gr 
 gsave  2268 1077 0 461 C 1743.14 586.478 t 0 r /Helvetica findfont 48.9324 sf 0 0 m (410) show NC gr 
 gsave  2268 1077 0 461 C 1948.41 586.478 t 0 r /Helvetica findfont 48.9324 sf 0 0 m (420) show NC gr  363 1484 m 1791 X s 363 1459 m 25 Y s 404 1471 m 13 Y s 444 1471 m 13 Y s 485 1471 m 13 Y s 526 1471 m 13 Y s 566 1459 m 25 Y s 607 1471 m 13 Y s
 648 1471 m 13 Y s 689 1471 m 13 Y s 729 1471 m 13 Y s 770 1459 m 25 Y s 811 1471 m 13 Y s 851 1471 m 13 Y s 892 1471 m 13 Y s 933 1471 m 13 Y s 974 1459 m 25 Y s 1014 1471 m 13 Y s 1055 1471 m 13 Y s 1096 1471 m 13 Y s 1136 1471 m 13 Y s 1177 1459 m
 25 Y s 1218 1471 m 13 Y s 1259 1471 m 13 Y s 1299 1471 m 13 Y s 1340 1471 m 13 Y s 1381 1459 m 25 Y s 1421 1471 m 13 Y s 1462 1471 m 13 Y s 1503 1471 m 13 Y s 1544 1471 m 13 Y s 1584 1459 m 25 Y s 1625 1471 m 13 Y s 1666 1471 m 13 Y s 1706 1471 m 13
 Y s 1747 1471 m 13 Y s 1788 1459 m 25 Y s 1829 1471 m 13 Y s 1869 1471 m 13 Y s 1910 1471 m 13 Y s 1951 1471 m 13 Y s 1991 1459 m 25 Y s 1991 1459 m 25 Y s 2032 1471 m 13 Y s 2073 1471 m 13 Y s 2114 1471 m 13 Y s 363 634 m 850 Y s
 gsave  2268 1077 0 461 C 120.554 1032.85 t 90 r /Helvetica findfont 48.9324 sf 0 0 m (Events / \( 1.76 GeV \)) show NC gr  390 658 m -27 X s 390 698 m -27 X s 390 729 m -27 X s 390 754 m -27 X s 390 776 m -27 X s 390 794 m -27 X s 390 811 m -27 X s
 417 825 m -54 X s
 gsave  2268 1077 0 461 C 342.425 804.46 t 0 r  -55 0 t /Helvetica findfont 48.9324 sf 0 0 m (10) show NC gr  390 922 m -27 X s 390 978 m -27 X s 390 1018 m -27 X s 390 1049 m -27 X s 390 1075 m -27 X s 390 1096 m -27 X s 390 1115 m -27 X s 390 1131
 m -27 X s 417 1146 m -54 X s
 gsave  2268 1077 0 461 C 322.563 1143.63 t 0 r /Helvetica findfont 32.6216 sf 0 0 m (2) show NC gr 
 gsave  2268 1077 0 461 C 270.432 1124.08 t 0 r /Helvetica findfont 48.9324 sf 0 0 m (10) show NC gr  390 1242 m -27 X s 390 1299 m -27 X s 390 1339 m -27 X s 390 1370 m -27 X s 390 1395 m -27 X s 390 1417 m -27 X s 390 1435 m -27 X s 390 1452 m -27
 X s 417 1466 m -54 X s
 gsave  2268 1077 0 461 C 322.563 1469.45 t 0 r /Helvetica findfont 32.6216 sf 0 0 m (3) show NC gr 
 gsave  2268 1077 0 461 C 270.432 1446.65 t 0 r /Helvetica findfont 48.9324 sf 0 0 m (10) show NC gr  2154 634 m 850 Y s 2127 658 m 27 X s 2127 698 m 27 X s 2127 729 m 27 X s 2127 754 m 27 X s 2127 776 m 27 X s 2127 794 m 27 X s 2127 811 m 27 X s
 2101 825 m 53 X s 2127 922 m 27 X s 2127 978 m 27 X s 2127 1018 m 27 X s 2127 1049 m 27 X s 2127 1075 m 27 X s 2127 1096 m 27 X s 2127 1115 m 27 X s 2127 1131 m 27 X s 2101 1146 m 53 X s 2127 1242 m 27 X s 2127 1299 m 27 X s 2127 1339 m 27 X s 2127
 1370 m 27 X s 2127 1395 m 27 X s 2127 1417 m 27 X s 2127 1435 m 27 X s 2127 1452 m 27 X s 2101 1466 m 53 X s 381 754 m -18 X s 363 754 m cl s 381 754 m 18 X s 399 754 m cl s 381 754 m 65 Y s 381 819 m cl s 381 754 m -70 Y s 381 684 m cl s 417 698 m
 -18 X s 399 698 m cl s 417 698 m 17 X s 434 698 m cl s 417 698 m 81 Y s 417 779 m cl s 417 698 m -64 Y s 417 634 m cl s 452 776 m -18 X s 434 776 m cl s 452 776 m 18 X s 470 776 m cl s 452 776 m 60 Y s 452 836 m cl s 452 776 m -64 Y s 452 712 m cl s
 488 839 m -18 X s 470 839 m cl s 488 839 m 18 X s 506 839 m cl s 488 839 m 47 Y s 488 886 m cl s 488 839 m -49 Y s 488 790 m cl s 524 839 m -18 X s 506 839 m cl s 524 839 m 18 X s 542 839 m cl s 524 839 m 47 Y s 524 886 m cl s 524 839 m -49 Y s 524
 790 m cl s 560 776 m -18 X s 542 776 m cl s 560 776 m 18 X s 578 776 m cl s 560 776 m 60 Y s 560 836 m cl s 560 776 m -64 Y s 560 712 m cl s 596 825 m -18 X s 578 825 m cl s 596 825 m 18 X s 614 825 m cl s 596 825 m 50 Y s 596 875 m cl s 596 825 m
 -52 Y s 596 773 m cl s 632 862 m -18 X s 614 862 m cl s 632 862 m 17 X s 649 862 m cl s 632 862 m 43 Y s 632 905 m cl s 632 862 m -45 Y s 632 817 m cl s 667 851 m -18 X s 649 851 m cl s 667 851 m 18 X s 685 851 m cl s 667 851 m 45 Y s 667 896 m cl s
 667 851 m -47 Y s 667 804 m cl s 703 872 m -18 X s 685 872 m cl s 703 872 m 18 X s 721 872 m cl s 703 872 m 41 Y s 703 913 m cl s 703 872 m -43 Y s 703 829 m cl s 739 862 m -18 X s 721 862 m cl s 739 862 m 18 X s 757 862 m cl s 739 862 m 43 Y s 739
 905 m cl s 739 862 m -45 Y s 739 817 m cl s 775 891 m -18 X s 757 891 m cl s 775 891 m 18 X s 793 891 m cl s 775 891 m 38 Y s 775 929 m cl s 775 891 m -40 Y s 775 851 m cl s 811 825 m -18 X s 793 825 m cl s 811 825 m 18 X s 829 825 m cl s 811 825 m
 50 Y s 811 875 m cl s 811 825 m -52 Y s 811 773 m cl s 847 907 m -18 X s 829 907 m cl s 847 907 m 17 X s 864 907 m cl s 847 907 m 36 Y s 847 943 m cl s 847 907 m -37 Y s 847 870 m cl s 882 929 m -18 X s 864 929 m cl s 882 929 m 18 X s 900 929 m cl s
 882 929 m 33 Y s 882 962 m cl s 882 929 m -34 Y s 882 895 m cl s 918 929 m -18 X s 900 929 m cl s 918 929 m 18 X s 936 929 m cl s 918 929 m 33 Y s 918 962 m cl s 918 929 m -34 Y s 918 895 m cl s 954 969 m -18 X s 936 969 m cl s 954 969 m 18 X s 972
 969 m cl s 954 969 m 28 Y s 954 997 m cl s 954 969 m -29 Y s 954 940 m cl s 990 987 m -18 X s 972 987 m cl s 990 987 m 18 X s 1008 987 m cl s 990 987 m 27 Y s 990 1014 m cl s 990 987 m -27 Y s 990 960 m cl s 1026 983 m -18 X s 1008 983 m cl s 1026
 983 m 18 X s 1044 983 m cl s 1026 983 m 27 Y s 1026 1010 m cl s 1026 983 m -28 Y s 1026 955 m cl s 1062 1028 m -18 X s 1044 1028 m cl s 1062 1028 m 17 X s 1079 1028 m cl s 1062 1028 m 23 Y s 1062 1051 m cl s 1062 1028 m -23 Y s 1062 1005 m cl s 1097
 1032 m -18 X s 1079 1032 m cl s 1097 1032 m 18 X s 1115 1032 m cl s 1097 1032 m 22 Y s 1097 1054 m cl s 1097 1032 m -23 Y s 1097 1009 m cl s 1133 1086 m -18 X s 1115 1086 m cl s 1133 1086 m 18 X s 1151 1086 m cl s 1133 1086 m 18 Y s 1133 1104 m cl s
 1133 1086 m -19 Y s 1133 1067 m cl s 1169 1075 m -18 X s 1151 1075 m cl s 1169 1075 m 18 X s 1187 1075 m cl s 1169 1075 m 19 Y s 1169 1094 m cl s 1169 1075 m -19 Y s 1169 1056 m cl s 1205 1120 m -18 X s 1187 1120 m cl s 1205 1120 m 18 X s 1223 1120
 m cl s 1205 1120 m 16 Y s 1205 1136 m cl s 1205 1120 m -16 Y s 1205 1104 m cl s 1241 1118 m -18 X s 1223 1118 m cl s 1241 1118 m 18 X s 1259 1118 m cl s 1241 1118 m 16 Y s 1241 1134 m cl s 1241 1118 m -16 Y s 1241 1102 m cl s 1276 1167 m -17 X s
 1259 1167 m cl s 1276 1167 m 18 X s 1294 1167 m cl s 1276 1167 m 12 Y s 1276 1179 m cl s 1276 1167 m -13 Y s 1276 1154 m cl s 1312 1211 m -18 X s 1294 1211 m cl s 1312 1211 m 18 X s 1330 1211 m cl s 1312 1211 m 11 Y s 1312 1222 m cl s 1312 1211 m
 -11 Y s 1312 1200 m cl s 1348 1233 m -18 X s 1330 1233 m cl s 1348 1233 m 18 X s 1366 1233 m cl s 1348 1233 m 10 Y s 1348 1243 m cl s 1348 1233 m -10 Y s 1348 1223 m cl s 1384 1276 m -18 X s 1366 1276 m cl s 1384 1276 m 18 X s 1402 1276 m cl s 1384
 1276 m 9 Y s 1384 1285 m cl s 1384 1276 m -9 Y s 1384 1267 m cl s 1420 1326 m -18 X s 1402 1326 m cl s 1420 1326 m 18 X s 1438 1326 m cl s 1420 1326 m 7 Y s 1420 1333 m cl s 1420 1326 m -7 Y s 1420 1319 m cl s 1456 1370 m -18 X s 1438 1370 m cl s
 1456 1370 m 18 X s 1474 1370 m cl s 1456 1370 m 7 Y s 1456 1377 m cl s 1456 1370 m -6 Y s 1456 1364 m cl s 1491 1381 m -17 X s 1474 1381 m cl s 1491 1381 m 18 X s 1509 1381 m cl s 1491 1381 m 6 Y s 1491 1387 m cl s 1491 1381 m -6 Y s 1491 1375 m cl
 s 1527 1403 m -18 X s 1509 1403 m cl s 1527 1403 m 18 X s 1545 1403 m cl s 1527 1403 m 5 Y s 1527 1408 m cl s 1527 1403 m -6 Y s 1527 1397 m cl s 1563 1416 m -18 X s 1545 1416 m cl s 1563 1416 m 18 X s 1581 1416 m cl s 1563 1416 m 5 Y s 1563 1421 m
 cl s 1563 1416 m -6 Y s 1563 1410 m cl s 1599 1406 m -18 X s 1581 1406 m cl s 1599 1406 m 18 X s 1617 1406 m cl s 1599 1406 m 6 Y s 1599 1412 m cl s 1599 1406 m -5 Y s 1599 1401 m cl s 1635 1394 m -18 X s 1617 1394 m cl s 1635 1394 m 18 X s 1653
 1394 m cl s 1635 1394 m 6 Y s 1635 1400 m cl s 1635 1394 m -6 Y s 1635 1388 m cl s 1671 1344 m -18 X s 1653 1344 m cl s 1671 1344 m 18 X s 1689 1344 m cl s 1671 1344 m 6 Y s 1671 1350 m cl s 1671 1344 m -7 Y s 1671 1337 m cl s 1706 1305 m -17 X s
 1689 1305 m cl s 1706 1305 m 18 X s 1724 1305 m cl s 1706 1305 m 8 Y s 1706 1313 m cl s 1706 1305 m -8 Y s 1706 1297 m cl s 1742 1258 m -18 X s 1724 1258 m cl s 1742 1258 m 18 X s 1760 1258 m cl s 1742 1258 m 9 Y s 1742 1267 m cl s 1742 1258 m -9 Y
 s 1742 1249 m cl s 1778 1201 m -18 X s 1760 1201 m cl s 1778 1201 m 18 X s 1796 1201 m cl s 1778 1201 m 12 Y s 1778 1213 m cl s 1778 1201 m -11 Y s 1778 1190 m cl s 1814 1134 m -18 X s 1796 1134 m cl s 1814 1134 m 18 X s 1832 1134 m cl s 1814 1134 m
 15 Y s 1814 1149 m cl s 1814 1134 m -15 Y s 1814 1119 m cl s 1850 1077 m -18 X s 1832 1077 m cl s 1850 1077 m 18 X s 1868 1077 m cl s 1850 1077 m 19 Y s 1850 1096 m cl s 1850 1077 m -19 Y s 1850 1058 m cl s 1886 1018 m -18 X s 1868 1018 m cl s 1886
 1018 m 18 X s 1904 1018 m cl s 1886 1018 m 24 Y s 1886 1042 m cl s 1886 1018 m -24 Y s 1886 994 m cl s 1921 969 m -17 X s 1904 969 m cl s 1921 969 m 18 X s 1939 969 m cl s 1921 969 m 28 Y s 1921 997 m cl s 1921 969 m -29 Y s 1921 940 m cl s 1957 915
 m -18 X s 1939 915 m cl s 1957 915 m 18 X s 1975 915 m cl s 1957 915 m 35 Y s 1957 950 m cl s 1957 915 m -36 Y s 1957 879 m cl s 1993 811 m -18 X s 1975 811 m cl s 1993 811 m 18 X s 2011 811 m cl s 1993 811 m 52 Y s 1993 863 m cl s 1993 811 m -55 Y
 s 1993 756 m cl s 2029 825 m -18 X s 2011 825 m cl s 2029 825 m 18 X s 2047 825 m cl s 2029 825 m 50 Y s 2029 875 m cl s 2029 825 m -52 Y s 2029 773 m cl s 2065 729 m -18 X s 2047 729 m cl s 2065 729 m 18 X s 2083 729 m cl s 2065 729 m 72 Y s 2065
 801 m cl s 2065 729 m -79 Y s 2065 650 m cl s 2101 658 m -18 X s 2083 658 m cl s 2101 658 m 18 X s 2119 658 m cl s 2101 658 m 94 Y s 2101 752 m cl s 2101 658 m -24 Y s 2101 634 m cl s /w 31 def /w2 {w 2 div} def /w3 {w 3 div} def 381 754 417 698 452
 776 488 839 524 839 560 776 596 825 632 862 667 851 703 872 739 862 775 891 811 825 847 907 882 929 918 929 954 969 990 987 1026 983 1062 1028 1097 1032 1133 1086 1169 1075 1205 1120 1241 1118 1276 1167 1312 1211 1348 1233 1384 1276 1420 1326 1456
 1370 1491 1381 1527 1403 1563 1416 1599 1406 1635 1394 1671 1344 1706 1305 1742 1258 1778 1201 1814 1134 1850 1077 1886 1018 1921 969 1957 915 1993 811 2029 825 2065 729 2101 658 49 { m20} R 0 1 1 c 1 1 0 c black 1 1 0 c 363 742 m 36 11 d 35 11 d 36
 12 d 36 12 d 36 12 d 36 12 d 36 13 d 35 13 d 36 13 d 36 14 d 36 14 d 36 14 d 36 15 d 35 16 d 36 15 d 36 17 d 36 17 d 36 18 d 36 18 d 35 19 d 36 20 d 36 21 d 36 22 d 36 23 d 18 13 d 18 14 d 17 15 d 18 16 d 18 19 d 18 20 d 9 10 d 9 12 d 9 11 d 9 12 d
 9 12 d 9 13 d 9 12 d 9 12 d 18 22 d 18 21 d 36 35 d 9 7 d 8 7 d 9 5 d 9 5 d 9 3 d 9 3 d 9 2 d 9 1 d 9 1 d 9 -1 d 9 -2 d 9 -2 d 9 -3 d 9 -4 d 9 -5 d 9 -6 d 9 -7 d 9 -7 d 18 -17 d 18 -19 d 18 -22 d 8 -11 d 9 -12 d 9 -12 d 9 -12 d 9 -12 d 9 -13 d 9 -13
 d 9 -12 d 18 -26 d 18 -26 d 18 -26 d 18 -27 d 18 -26 d 18 -28 d 18 -29 d 18 -29 d 35 -63 d 36 -68 d 36 -75 d 36 -80 d 36 -86 d 1 -2 d -1 2 d -36 86 d -36 80 d -36 75 d -36 68 d -35 63 d -18 29 d -18 29 d -18 28 d -18 26 d -18 27 d -18 26 d -18 26 d
 -18 26 d -9 12 d -9 13 d -9 13 d -9 12 d -9 12 d -9 12 d -9 12 d -8 11 d -18 22 d -18 19 d -18 17 d -9 7 d -9 7 d -9 6 d -9 5 d -9 4 d -9 3 d -9 2 d -9 2 d -9 1 d -9 -1 d -9 -1 d -9 -2 d -9 -3 d -9 -3 d -9 -5 d -9 -5 d -8 -7 d -9 -7 d -36 -35 d -18
 -21 d -18 -22 d -9 -12 d -9 -12 d -9 -13 d -9 -12 d -9 -12 d -9 -11 d -9 -12 d -9 -10 d -18 -20 d -18 -19 d -18 -16 d -17 -15 d -18 -14 d -18 -13 d -36 -23 d -36 -22 d -36 -21 d -36 -20 d -35 -19 d -36 -18 d -36 -18 d -36 -17 d -36 -17 d -36 -15 d
 -35 -16 d -36 -15 d -36 -14 d -36 -14 d -36 -14 d -36 -13 d -35 -13 d -36 -13 d -36 -12 d -36 -12 d -36 -12 d -36 -12 d -35 -11 d -36 -11 d f 0 1 1 c 0 1 0 c black 0 1 0 c 363 742 m 36 11 d 35 11 d 36 12 d 36 12 d 36 12 d 36 12 d 36 13 d 35 13 d 36
 13 d 36 14 d 36 14 d 36 14 d 36 15 d 35 16 d 36 15 d 36 17 d 36 17 d 36 18 d 36 18 d 35 19 d 36 20 d 36 21 d 36 22 d 36 23 d 18 13 d 18 14 d 17 15 d 18 16 d 18 19 d 18 20 d 9 10 d 9 12 d 9 11 d 9 12 d 9 12 d 9 13 d 9 12 d 9 12 d 18 22 d 18 21 d 36
 35 d 9 7 d 8 7 d 9 5 d 9 5 d 9 3 d 9 3 d 9 2 d 9 1 d 9 1 d 9 -1 d 9 -2 d 9 -2 d 9 -3 d 9 -4 d 9 -5 d 9 -6 d 9 -7 d 9 -7 d 18 -17 d 18 -19 d 18 -22 d 8 -11 d 9 -12 d 9 -12 d 9 -12 d 9 -12 d 9 -13 d 9 -13 d 9 -12 d 18 -26 d 18 -26 d 18 -26 d 18 -27 d
 18 -26 d 18 -28 d 18 -29 d 18 -29 d 35 -63 d 36 -68 d 36 -75 d 36 -80 d 36 -86 d 1 -2 d -1 2 d -36 86 d -36 80 d -36 75 d -36 68 d -35 63 d -18 29 d -18 29 d -18 28 d -18 26 d -18 27 d -18 26 d -18 26 d -18 26 d -9 12 d -9 13 d -9 13 d -9 12 d -9 12
 d -9 12 d -9 12 d -8 11 d -18 22 d -18 19 d -18 17 d -9 7 d -9 7 d -9 6 d -9 5 d -9 4 d -9 3 d -9 2 d -9 2 d -9 1 d -9 -1 d -9 -1 d -9 -2 d -9 -3 d -9 -3 d -9 -5 d -9 -5 d -8 -7 d -9 -7 d -36 -35 d -18 -21 d -18 -22 d -9 -12 d -9 -12 d -9 -13 d -9
 -12 d -9 -12 d -9 -11 d -9 -12 d -9 -10 d -18 -20 d -18 -19 d -18 -16 d -17 -15 d -18 -14 d -18 -13 d -36 -23 d -36 -22 d -36 -21 d -36 -20 d -35 -19 d -36 -18 d -36 -18 d -36 -17 d -36 -17 d -36 -15 d -35 -16 d -36 -15 d -36 -14 d -36 -14 d -36 -14
 d -36 -13 d -35 -13 d -36 -13 d -36 -12 d -36 -12 d -36 -12 d -36 -12 d -35 -11 d -36 -11 d f 0 0 1 c 9 lw black 0 0 1 c 363 742 m 36 11 d 35 11 d 36 12 d 36 12 d 36 12 d 36 12 d 36 13 d 35 13 d 36 13 d 36 14 d 36 14 d 36 14 d 36 15 d 35 16 d 36 15
 d 36 17 d 36 17 d 36 18 d 36 18 d 35 19 d 36 20 d 36 21 d 36 22 d 36 23 d 18 13 d 18 14 d 17 15 d 18 16 d 18 19 d 18 20 d 9 10 d 9 12 d 9 11 d 9 12 d 9 12 d 9 13 d 9 12 d 9 12 d 18 22 d 18 21 d 36 35 d 9 7 d 8 7 d 9 5 d 9 5 d 9 3 d 9 3 d 9 2 d 9 1 d
 9 1 d 9 -1 d 9 -2 d 9 -2 d 9 -3 d 9 -4 d 9 -5 d 9 -6 d 9 -7 d 9 -7 d 18 -17 d 18 -19 d 18 -22 d 8 -11 d 9 -12 d 9 -12 d 9 -12 d 9 -12 d 9 -13 d 9 -13 d 9 -12 d 18 -26 d 18 -26 d 18 -26 d 18 -27 d 18 -26 d 18 -28 d 18 -29 d 18 -29 d 35 -63 d 36 -68 d
 36 -75 d 36 -80 d 36 -86 d 1 -2 d s black 3 lw 381 754 m -18 X s 363 754 m cl s 381 754 m 18 X s 399 754 m cl s 381 754 m 65 Y s 381 819 m cl s 381 754 m -70 Y s 381 684 m cl s 417 698 m -18 X s 399 698 m cl s 417 698 m 17 X s 434 698 m cl s 417 698
 m 81 Y s 417 779 m cl s 417 698 m -64 Y s 417 634 m cl s 452 776 m -18 X s 434 776 m cl s 452 776 m 18 X s 470 776 m cl s 452 776 m 60 Y s 452 836 m cl s 452 776 m -64 Y s 452 712 m cl s 488 839 m -18 X s 470 839 m cl s 488 839 m 18 X s 506 839 m cl
 s 488 839 m 47 Y s 488 886 m cl s 488 839 m -49 Y s 488 790 m cl s 524 839 m -18 X s 506 839 m cl s 524 839 m 18 X s 542 839 m cl s 524 839 m 47 Y s 524 886 m cl s 524 839 m -49 Y s 524 790 m cl s 560 776 m -18 X s 542 776 m cl s 560 776 m 18 X s
 578 776 m cl s 560 776 m 60 Y s 560 836 m cl s 560 776 m -64 Y s 560 712 m cl s 596 825 m -18 X s 578 825 m cl s 596 825 m 18 X s 614 825 m cl s 596 825 m 50 Y s 596 875 m cl s 596 825 m -52 Y s 596 773 m cl s 632 862 m -18 X s 614 862 m cl s 632
 862 m 17 X s 649 862 m cl s 632 862 m 43 Y s 632 905 m cl s 632 862 m -45 Y s 632 817 m cl s 667 851 m -18 X s 649 851 m cl s 667 851 m 18 X s 685 851 m cl s 667 851 m 45 Y s 667 896 m cl s 667 851 m -47 Y s 667 804 m cl s 703 872 m -18 X s 685 872
 m cl s 703 872 m 18 X s 721 872 m cl s 703 872 m 41 Y s 703 913 m cl s 703 872 m -43 Y s 703 829 m cl s 739 862 m -18 X s 721 862 m cl s 739 862 m 18 X s 757 862 m cl s 739 862 m 43 Y s 739 905 m cl s 739 862 m -45 Y s 739 817 m cl s 775 891 m -18 X
 s 757 891 m cl s 775 891 m 18 X s 793 891 m cl s 775 891 m 38 Y s 775 929 m cl s 775 891 m -40 Y s 775 851 m cl s 811 825 m -18 X s 793 825 m cl s 811 825 m 18 X s 829 825 m cl s 811 825 m 50 Y s 811 875 m cl s 811 825 m -52 Y s 811 773 m cl s 847
 907 m -18 X s 829 907 m cl s 847 907 m 17 X s 864 907 m cl s 847 907 m 36 Y s 847 943 m cl s 847 907 m -37 Y s 847 870 m cl s 882 929 m -18 X s 864 929 m cl s 882 929 m 18 X s 900 929 m cl s 882 929 m 33 Y s 882 962 m cl s 882 929 m -34 Y s 882 895
 m cl s 918 929 m -18 X s 900 929 m cl s 918 929 m 18 X s 936 929 m cl s 918 929 m 33 Y s 918 962 m cl s 918 929 m -34 Y s 918 895 m cl s 954 969 m -18 X s 936 969 m cl s 954 969 m 18 X s 972 969 m cl s 954 969 m 28 Y s 954 997 m cl s 954 969 m -29 Y
 s 954 940 m cl s 990 987 m -18 X s 972 987 m cl s 990 987 m 18 X s 1008 987 m cl s 990 987 m 27 Y s 990 1014 m cl s 990 987 m -27 Y s 990 960 m cl s 1026 983 m -18 X s 1008 983 m cl s 1026 983 m 18 X s 1044 983 m cl s 1026 983 m 27 Y s 1026 1010 m
 cl s 1026 983 m -28 Y s 1026 955 m cl s 1062 1028 m -18 X s 1044 1028 m cl s 1062 1028 m 17 X s 1079 1028 m cl s 1062 1028 m 23 Y s 1062 1051 m cl s 1062 1028 m -23 Y s 1062 1005 m cl s 1097 1032 m -18 X s 1079 1032 m cl s 1097 1032 m 18 X s 1115
 1032 m cl s 1097 1032 m 22 Y s 1097 1054 m cl s 1097 1032 m -23 Y s 1097 1009 m cl s 1133 1086 m -18 X s 1115 1086 m cl s 1133 1086 m 18 X s 1151 1086 m cl s 1133 1086 m 18 Y s 1133 1104 m cl s 1133 1086 m -19 Y s 1133 1067 m cl s 1169 1075 m -18 X
 s 1151 1075 m cl s 1169 1075 m 18 X s 1187 1075 m cl s 1169 1075 m 19 Y s 1169 1094 m cl s 1169 1075 m -19 Y s 1169 1056 m cl s 1205 1120 m -18 X s 1187 1120 m cl s 1205 1120 m 18 X s 1223 1120 m cl s 1205 1120 m 16 Y s 1205 1136 m cl s 1205 1120 m
 -16 Y s 1205 1104 m cl s 1241 1118 m -18 X s 1223 1118 m cl s 1241 1118 m 18 X s 1259 1118 m cl s 1241 1118 m 16 Y s 1241 1134 m cl s 1241 1118 m -16 Y s 1241 1102 m cl s 1276 1167 m -17 X s 1259 1167 m cl s 1276 1167 m 18 X s 1294 1167 m cl s 1276
 1167 m 12 Y s 1276 1179 m cl s 1276 1167 m -13 Y s 1276 1154 m cl s 1312 1211 m -18 X s 1294 1211 m cl s 1312 1211 m 18 X s 1330 1211 m cl s 1312 1211 m 11 Y s 1312 1222 m cl s 1312 1211 m -11 Y s 1312 1200 m cl s 1348 1233 m -18 X s 1330 1233 m cl
 s 1348 1233 m 18 X s 1366 1233 m cl s 1348 1233 m 10 Y s 1348 1243 m cl s 1348 1233 m -10 Y s 1348 1223 m cl s 1384 1276 m -18 X s 1366 1276 m cl s 1384 1276 m 18 X s 1402 1276 m cl s 1384 1276 m 9 Y s 1384 1285 m cl s 1384 1276 m -9 Y s 1384 1267 m
 cl s 1420 1326 m -18 X s 1402 1326 m cl s 1420 1326 m 18 X s 1438 1326 m cl s 1420 1326 m 7 Y s 1420 1333 m cl s 1420 1326 m -7 Y s 1420 1319 m cl s 1456 1370 m -18 X s 1438 1370 m cl s 1456 1370 m 18 X s 1474 1370 m cl s 1456 1370 m 7 Y s 1456 1377
 m cl s 1456 1370 m -6 Y s 1456 1364 m cl s 1491 1381 m -17 X s 1474 1381 m cl s 1491 1381 m 18 X s 1509 1381 m cl s 1491 1381 m 6 Y s 1491 1387 m cl s 1491 1381 m -6 Y s 1491 1375 m cl s 1527 1403 m -18 X s 1509 1403 m cl s 1527 1403 m 18 X s 1545
 1403 m cl s 1527 1403 m 5 Y s 1527 1408 m cl s 1527 1403 m -6 Y s 1527 1397 m cl s 1563 1416 m -18 X s 1545 1416 m cl s 1563 1416 m 18 X s 1581 1416 m cl s 1563 1416 m 5 Y s 1563 1421 m cl s 1563 1416 m -6 Y s 1563 1410 m cl s 1599 1406 m -18 X s
 1581 1406 m cl s 1599 1406 m 18 X s 1617 1406 m cl s 1599 1406 m 6 Y s 1599 1412 m cl s 1599 1406 m -5 Y s 1599 1401 m cl s 1635 1394 m -18 X s 1617 1394 m cl s 1635 1394 m 18 X s 1653 1394 m cl s 1635 1394 m 6 Y s 1635 1400 m cl s 1635 1394 m -6 Y
 s 1635 1388 m cl s 1671 1344 m -18 X s 1653 1344 m cl s 1671 1344 m 18 X s 1689 1344 m cl s 1671 1344 m 6 Y s 1671 1350 m cl s 1671 1344 m -7 Y s 1671 1337 m cl s 1706 1305 m -17 X s 1689 1305 m cl s 1706 1305 m 18 X s 1724 1305 m cl s 1706 1305 m 8
 Y s 1706 1313 m cl s 1706 1305 m -8 Y s 1706 1297 m cl s 1742 1258 m -18 X s 1724 1258 m cl s 1742 1258 m 18 X s 1760 1258 m cl s 1742 1258 m 9 Y s 1742 1267 m cl s 1742 1258 m -9 Y s 1742 1249 m cl s 1778 1201 m -18 X s 1760 1201 m cl s 1778 1201 m
 18 X s 1796 1201 m cl s 1778 1201 m 12 Y s 1778 1213 m cl s 1778 1201 m -11 Y s 1778 1190 m cl s 1814 1134 m -18 X s 1796 1134 m cl s 1814 1134 m 18 X s 1832 1134 m cl s 1814 1134 m 15 Y s 1814 1149 m cl s 1814 1134 m -15 Y s 1814 1119 m cl s 1850
 1077 m -18 X s 1832 1077 m cl s 1850 1077 m 18 X s 1868 1077 m cl s 1850 1077 m 19 Y s 1850 1096 m cl s 1850 1077 m -19 Y s 1850 1058 m cl s 1886 1018 m -18 X s 1868 1018 m cl s 1886 1018 m 18 X s 1904 1018 m cl s 1886 1018 m 24 Y s 1886 1042 m cl s
 1886 1018 m -24 Y s 1886 994 m cl s 1921 969 m -17 X s 1904 969 m cl s 1921 969 m 18 X s 1939 969 m cl s 1921 969 m 28 Y s 1921 997 m cl s 1921 969 m -29 Y s 1921 940 m cl s 1957 915 m -18 X s 1939 915 m cl s 1957 915 m 18 X s 1975 915 m cl s 1957
 915 m 35 Y s 1957 950 m cl s 1957 915 m -36 Y s 1957 879 m cl s 1993 811 m -18 X s 1975 811 m cl s 1993 811 m 18 X s 2011 811 m cl s 1993 811 m 52 Y s 1993 863 m cl s 1993 811 m -55 Y s 1993 756 m cl s 2029 825 m -18 X s 2011 825 m cl s 2029 825 m
 18 X s 2047 825 m cl s 2029 825 m 50 Y s 2029 875 m cl s 2029 825 m -52 Y s 2029 773 m cl s 2065 729 m -18 X s 2047 729 m cl s 2065 729 m 18 X s 2083 729 m cl s 2065 729 m 72 Y s 2065 801 m cl s 2065 729 m -79 Y s 2065 650 m cl s 2101 658 m -18 X s
 2083 658 m cl s 2101 658 m 18 X s 2119 658 m cl s 2101 658 m 94 Y s 2101 752 m cl s 2101 658 m -24 Y s 2101 634 m cl s 381 754 417 698 452 776 488 839 524 839 560 776 596 825 632 862 667 851 703 872 739 862 775 891 811 825 847 907 882 929 918 929
 954 969 990 987 1026 983 1062 1028 1097 1032 1133 1086 1169 1075 1205 1120 1241 1118 1276 1167 1312 1211 1348 1233 1384 1276 1420 1326 1456 1370 1491 1381 1527 1403 1563 1416 1599 1406 1635 1394 1671 1344 1706 1305 1742 1258 1778 1201 1814 1134 1850
 1077 1886 1018 1921 969 1957 915 1993 811 2029 825 2065 729 2101 658 49 { m20} R 0.52 0.76 0.64 c[ 4 8] 0 sd 9 lw black 0.52 0.76 0.64 c 363 742 m 36 11 d 35 11 d 36 12 d 36 12 d 36 12 d 36 12 d 36 13 d 35 13 d 36 13 d 36 14 d 36 14 d 36 14 d 36 15
 d 35 16 d 36 15 d 36 17 d 36 17 d 36 18 d 36 18 d 35 19 d 36 20 d 36 21 d 36 21 d 18 11 d 18 12 d 18 11 d 18 12 d 17 13 d 18 12 d 18 13 d 18 14 d 18 13 d 18 14 d 36 28 d 18 12 d 18 10 d 18 9 d 18 7 d 9 4 d 8 2 d 9 3 d 9 2 d 9 1 d 9 1 d 9 1 d 9 1 d
 18 X 9 -1 d 9 -1 d 9 -1 d 9 -2 d 9 -2 d 9 -3 d 9 -3 d 9 -3 d 18 -8 d 18 -9 d 18 -11 d 35 -26 d 36 -32 d 18 -18 d 18 -20 d 18 -21 d 18 -23 d 18 -24 d 18 -26 d 18 -27 d 18 -29 d 17 -30 d 18 -32 d 18 -33 d 18 -35 d 18 -36 d 18 -38 d 36 -80 d 36 -86 d 1
 -2 d s 0.54 0.66 0.63 c black 0.54 0.66 0.63 c 1254 634 m 5 22 d s 1259 656 m 17 81 d 18 76 d 18 71 d 9 33 d 9 33 d 9 30 d 9 30 d 9 29 d 9 27 d 9 26 d 9 24 d 9 23 d 9 23 d 9 20 d 9 20 d 9 18 d 9 17 d 36 55 d 9 10 d 8 10 d 9 8 d 9 6 d 9 6 d 9 4 d 5 2
 d 4 1 d 5 1 d 4 1 d 14 X 4 -1 d 5 -1 d 4 -1 d 5 -2 d 4 -2 d 9 -5 d 9 -6 d 9 -7 d 9 -8 d 9 -10 d 9 -11 d 18 -27 d 18 -31 d 9 -17 d 9 -19 d 8 -20 d 9 -21 d 9 -23 d 9 -24 d 9 -25 d 9 -27 d 9 -27 d 9 -29 d 9 -31 d 9 -31 d 9 -33 d 9 -34 d 18 -72 d 18 -77
 d 18 -83 d -2 Y s black[  ] 0 sd 3 lw 363 634 m 1791 X s 363 659 m -25 Y s 404 646 m -12 Y s 444 646 m -12 Y s 485 646 m -12 Y s 526 646 m -12 Y s 566 659 m -25 Y s 607 646 m -12 Y s 648 646 m -12 Y s 689 646 m -12 Y s 729 646 m -12 Y s 770 659 m
 -25 Y s 811 646 m -12 Y s 851 646 m -12 Y s 892 646 m -12 Y s 933 646 m -12 Y s 974 659 m -25 Y s 1014 646 m -12 Y s 1055 646 m -12 Y s 1096 646 m -12 Y s 1136 646 m -12 Y s 1177 659 m -25 Y s 1218 646 m -12 Y s 1259 646 m -12 Y s 1299 646 m -12 Y s
 1340 646 m -12 Y s 1381 659 m -25 Y s 1421 646 m -12 Y s 1462 646 m -12 Y s 1503 646 m -12 Y s 1544 646 m -12 Y s 1584 659 m -25 Y s 1625 646 m -12 Y s 1666 646 m -12 Y s 1706 646 m -12 Y s 1747 646 m -12 Y s 1788 659 m -25 Y s 1829 646 m -12 Y s
 1869 646 m -12 Y s 1910 646 m -12 Y s 1951 646 m -12 Y s 1991 659 m -25 Y s 1991 659 m -25 Y s 2032 646 m -12 Y s 2073 646 m -12 Y s 2114 646 m -12 Y s 363 1484 m 1791 X s 363 1459 m 25 Y s 404 1471 m 13 Y s 444 1471 m 13 Y s 485 1471 m 13 Y s 526
 1471 m 13 Y s 566 1459 m 25 Y s 607 1471 m 13 Y s 648 1471 m 13 Y s 689 1471 m 13 Y s 729 1471 m 13 Y s 770 1459 m 25 Y s 811 1471 m 13 Y s 851 1471 m 13 Y s 892 1471 m 13 Y s 933 1471 m 13 Y s 974 1459 m 25 Y s 1014 1471 m 13 Y s 1055 1471 m 13 Y s
 1096 1471 m 13 Y s 1136 1471 m 13 Y s 1177 1459 m 25 Y s 1218 1471 m 13 Y s 1259 1471 m 13 Y s 1299 1471 m 13 Y s 1340 1471 m 13 Y s 1381 1459 m 25 Y s 1421 1471 m 13 Y s 1462 1471 m 13 Y s 1503 1471 m 13 Y s 1544 1471 m 13 Y s 1584 1459 m 25 Y s
 1625 1471 m 13 Y s 1666 1471 m 13 Y s 1706 1471 m 13 Y s 1747 1471 m 13 Y s 1788 1459 m 25 Y s 1829 1471 m 13 Y s 1869 1471 m 13 Y s 1910 1471 m 13 Y s 1951 1471 m 13 Y s 1991 1459 m 25 Y s 1991 1459 m 25 Y s 2032 1471 m 13 Y s 2073 1471 m 13 Y s
 2114 1471 m 13 Y s 363 634 m 850 Y s 390 658 m -27 X s 390 698 m -27 X s 390 729 m -27 X s 390 754 m -27 X s 390 776 m -27 X s 390 794 m -27 X s 390 811 m -27 X s 417 825 m -54 X s 390 922 m -27 X s 390 978 m -27 X s 390 1018 m -27 X s 390 1049 m
 -27 X s 390 1075 m -27 X s 390 1096 m -27 X s 390 1115 m -27 X s 390 1131 m -27 X s 417 1146 m -54 X s 390 1242 m -27 X s 390 1299 m -27 X s 390 1339 m -27 X s 390 1370 m -27 X s 390 1395 m -27 X s 390 1417 m -27 X s 390 1435 m -27 X s 390 1452 m
 -27 X s 417 1466 m -54 X s 2154 634 m 850 Y s 2127 658 m 27 X s 2127 698 m 27 X s 2127 729 m 27 X s 2127 754 m 27 X s 2127 776 m 27 X s 2127 794 m 27 X s 2127 811 m 27 X s 2101 825 m 53 X s 2127 922 m 27 X s 2127 978 m 27 X s 2127 1018 m 27 X s 2127
 1049 m 27 X s 2127 1075 m 27 X s 2127 1096 m 27 X s 2127 1115 m 27 X s 2127 1131 m 27 X s 2101 1146 m 53 X s 2127 1242 m 27 X s 2127 1299 m 27 X s 2127 1339 m 27 X s 2127 1370 m 27 X s 2127 1395 m 27 X s 2127 1417 m 27 X s 2127 1435 m 27 X s 2127
 1452 m 27 X s 2101 1466 m 53 X s
 gsave  2268 1077 0 461 C 677.708 1215.31 t 0 r /Helvetica findfont 58.7189 sf 0 0 m (4mu) show NC gr  1 1 1 c 453 161 454 1269 bf black
 gsave  2268 1077 0 461 C 566.929 1371.71 t 0 r /Helvetica-Bold findfont 48.9324 sf 0 0 m (MC15) show NC gr  510 1390 m20
 gsave  2268 1077 0 461 C 566.929 1293.51 t 0 r /Helvetica-Bold findfont 48.9324 sf 0 0 m (Projection of Signal pdf) show NC gr  0 0 1 c 9 lw 471 1309 m 79 X s black 3 lw 1 1 1 c 2268 461 0 0 bf black 1 1 1 c 1791 364 363 74 bf black 1791 364 363 74
 bl 363 74 m 1791 X s
 gsave  2268 461 0 0 C 1915.83 13.0329 t 0 r /Helvetica findfont 22.9045 sf 0 0 m (4l Invariant Mass \(GeV\)) show NC gr  363 85 m -11 Y s 404 79 m -5 Y s 444 79 m -5 Y s 485 79 m -5 Y s 526 79 m -5 Y s 566 85 m -11 Y s 607 79 m -5 Y s 648 79 m -5 Y
 s 689 79 m -5 Y s 729 79 m -5 Y s 770 85 m -11 Y s 811 79 m -5 Y s 851 79 m -5 Y s 892 79 m -5 Y s 933 79 m -5 Y s 974 85 m -11 Y s 1014 79 m -5 Y s 1055 79 m -5 Y s 1096 79 m -5 Y s 1136 79 m -5 Y s 1177 85 m -11 Y s 1218 79 m -5 Y s 1259 79 m -5 Y
 s 1299 79 m -5 Y s 1340 79 m -5 Y s 1381 85 m -11 Y s 1421 79 m -5 Y s 1462 79 m -5 Y s 1503 79 m -5 Y s 1544 79 m -5 Y s 1584 85 m -11 Y s 1625 79 m -5 Y s 1666 79 m -5 Y s 1706 79 m -5 Y s 1747 79 m -5 Y s 1788 85 m -11 Y s 1829 79 m -5 Y s 1869
 79 m -5 Y s 1910 79 m -5 Y s 1951 79 m -5 Y s 1991 85 m -11 Y s 1991 85 m -11 Y s 2032 79 m -5 Y s 2073 79 m -5 Y s 2114 79 m -5 Y s
 gsave  2268 461 0 0 C 342.112 55.3896 t 0 r /Helvetica findfont 22.9045 sf 0 0 m (340) show NC gr 
 gsave  2268 461 0 0 C 544.122 55.3896 t 0 r /Helvetica findfont 22.9045 sf 0 0 m (350) show NC gr 
 gsave  2268 461 0 0 C 749.389 55.3896 t 0 r /Helvetica findfont 22.9045 sf 0 0 m (360) show NC gr 
 gsave  2268 461 0 0 C 951.398 55.3896 t 0 r /Helvetica findfont 22.9045 sf 0 0 m (370) show NC gr 
 gsave  2268 461 0 0 C 1156.67 55.3896 t 0 r /Helvetica findfont 22.9045 sf 0 0 m (380) show NC gr 
 gsave  2268 461 0 0 C 1358.68 55.3896 t 0 r /Helvetica findfont 22.9045 sf 0 0 m (390) show NC gr 
 gsave  2268 461 0 0 C 1563.94 55.3896 t 0 r /Helvetica findfont 22.9045 sf 0 0 m (400) show NC gr 
 gsave  2268 461 0 0 C 1765.95 55.3896 t 0 r /Helvetica findfont 22.9045 sf 0 0 m (410) show NC gr 
 gsave  2268 461 0 0 C 1971.22 55.3896 t 0 r /Helvetica findfont 22.9045 sf 0 0 m (420) show NC gr  363 438 m 1791 X s 363 427 m 11 Y s 404 433 m 5 Y s 444 433 m 5 Y s 485 433 m 5 Y s 526 433 m 5 Y s 566 427 m 11 Y s 607 433 m 5 Y s 648 433 m 5 Y s
 689 433 m 5 Y s 729 433 m 5 Y s 770 427 m 11 Y s 811 433 m 5 Y s 851 433 m 5 Y s 892 433 m 5 Y s 933 433 m 5 Y s 974 427 m 11 Y s 1014 433 m 5 Y s 1055 433 m 5 Y s 1096 433 m 5 Y s 1136 433 m 5 Y s 1177 427 m 11 Y s 1218 433 m 5 Y s 1259 433 m 5 Y s
 1299 433 m 5 Y s 1340 433 m 5 Y s 1381 427 m 11 Y s 1421 433 m 5 Y s 1462 433 m 5 Y s 1503 433 m 5 Y s 1544 433 m 5 Y s 1584 427 m 11 Y s 1625 433 m 5 Y s 1666 433 m 5 Y s 1706 433 m 5 Y s 1747 433 m 5 Y s 1788 427 m 11 Y s 1829 433 m 5 Y s 1869 433
 m 5 Y s 1910 433 m 5 Y s 1951 433 m 5 Y s 1991 427 m 11 Y s 1991 427 m 11 Y s 2032 433 m 5 Y s 2073 433 m 5 Y s 2114 433 m 5 Y s 363 74 m 364 Y s 417 74 m -54 X s 390 81 m -27 X s 390 88 m -27 X s 390 96 m -27 X s 390 103 m -27 X s 417 110 m -54 X s
 390 118 m -27 X s 390 125 m -27 X s 390 132 m -27 X s 390 139 m -27 X s 417 147 m -54 X s 390 154 m -27 X s 390 161 m -27 X s 390 169 m -27 X s 390 176 m -27 X s 417 183 m -54 X s 390 190 m -27 X s 390 198 m -27 X s 390 205 m -27 X s 390 212 m -27 X
 s 417 220 m -54 X s 390 227 m -27 X s 390 234 m -27 X s 390 241 m -27 X s 390 249 m -27 X s 417 256 m -54 X s 390 263 m -27 X s 390 271 m -27 X s 390 278 m -27 X s 390 285 m -27 X s 417 293 m -54 X s 390 300 m -27 X s 390 307 m -27 X s 390 314 m -27
 X s 390 322 m -27 X s 417 329 m -54 X s 390 336 m -27 X s 390 344 m -27 X s 390 351 m -27 X s 390 358 m -27 X s 417 365 m -54 X s 390 373 m -27 X s 390 380 m -27 X s 390 387 m -27 X s 390 395 m -27 X s 417 402 m -54 X s 390 409 m -27 X s 390 416 m
 -27 X s 390 424 m -27 X s 390 431 m -27 X s 417 438 m -54 X s
 gsave  2268 461 0 0 C 329.08 65.1643 t 0 r /Helvetica findfont 22.9045 sf 0 0 m (\2555) show NC gr 
 gsave  2268 461 0 0 C 329.08 101.005 t 0 r /Helvetica findfont 22.9045 sf 0 0 m (\2554) show NC gr 
 gsave  2268 461 0 0 C 329.08 140.103 t 0 r /Helvetica findfont 22.9045 sf 0 0 m (\2553) show NC gr 
 gsave  2268 461 0 0 C 329.08 175.944 t 0 r /Helvetica findfont 22.9045 sf 0 0 m (\2552) show NC gr 
 gsave  2268 461 0 0 C 332.338 211.784 t 0 r /Helvetica findfont 22.9045 sf 0 0 m (\2551) show NC gr 
 gsave  2268 461 0 0 C 335.596 247.624 t 0 r /Helvetica findfont 22.9045 sf 0 0 m (0) show NC gr 
 gsave  2268 461 0 0 C 338.854 283.465 t 0 r /Helvetica findfont 22.9045 sf 0 0 m (1) show NC gr 
 gsave  2268 461 0 0 C 335.596 319.305 t 0 r /Helvetica findfont 22.9045 sf 0 0 m (2) show NC gr 
 gsave  2268 461 0 0 C 335.596 358.403 t 0 r /Helvetica findfont 22.9045 sf 0 0 m (3) show NC gr 
 gsave  2268 461 0 0 C 335.596 394.244 t 0 r /Helvetica findfont 22.9045 sf 0 0 m (4) show NC gr 
 gsave  2268 461 0 0 C 335.596 430.084 t 0 r /Helvetica findfont 22.9045 sf 0 0 m (5) show NC gr  2154 74 m 364 Y s 2101 74 m 53 X s 2127 81 m 27 X s 2127 88 m 27 X s 2127 96 m 27 X s 2127 103 m 27 X s 2101 110 m 53 X s 2127 118 m 27 X s 2127 125 m
 27 X s 2127 132 m 27 X s 2127 139 m 27 X s 2101 147 m 53 X s 2127 154 m 27 X s 2127 161 m 27 X s 2127 169 m 27 X s 2127 176 m 27 X s 2101 183 m 53 X s 2127 190 m 27 X s 2127 198 m 27 X s 2127 205 m 27 X s 2127 212 m 27 X s 2101 220 m 53 X s 2127 227
 m 27 X s 2127 234 m 27 X s 2127 241 m 27 X s 2127 249 m 27 X s 2101 256 m 53 X s 2127 263 m 27 X s 2127 271 m 27 X s 2127 278 m 27 X s 2127 285 m 27 X s 2101 293 m 53 X s 2127 300 m 27 X s 2127 307 m 27 X s 2127 314 m 27 X s 2127 322 m 27 X s 2101
 329 m 53 X s 2127 336 m 27 X s 2127 344 m 27 X s 2127 351 m 27 X s 2127 358 m 27 X s 2101 365 m 53 X s 2127 373 m 27 X s 2127 380 m 27 X s 2127 387 m 27 X s 2127 395 m 27 X s 2101 402 m 53 X s 2127 409 m 27 X s 2127 416 m 27 X s 2127 424 m 27 X s
 2127 431 m 27 X s 2101 438 m 53 X s 6 lw 0.2 0.8 0.2 c black 3 lw 0.2 0.8 0.2 c 363 256 m 4 Y 36 X -29 Y 35 X 29 Y 36 X 37 Y 36 X -7 Y 36 X -50 Y 36 X 22 Y 36 X 20 Y 35 X -20 Y 36 X 8 Y 36 X -21 Y 36 X 12 Y 36 X -66 Y 36 X 53 Y 35 X 5 Y 36 X -17 Y
 36 X 25 Y 36 X 3 Y 36 X -31 Y 36 X 39 Y 35 X -26 Y 36 X 62 Y 36 X -62 Y 36 X 48 Y 36 X -57 Y 36 X 50 Y 35 X 36 Y 36 X -66 Y 36 X -19 Y 36 X 12 Y 36 X 27 Y 36 X -120 Y 35 X 28 Y 36 X 68 Y 36 X 14 Y 36 X 77 Y 36 X -88 Y 36 X 28 Y 35 X 4 Y 36 X -24 Y
 36 X -38 Y 36 X -2 Y 36 X 3 Y 36 X 16 Y 35 X 13 Y 36 X -22 Y 36 X 62 Y 36 X -17 Y 36 X 1 Y 36 X 5 Y 35 X -29 Y f 6 lw black 0.2 0.8 0.2 c black 363 260 m 36 X -29 Y 35 X 29 Y 36 X 37 Y 36 X -7 Y 36 X -50 Y 36 X 22 Y 36 X 20 Y 35 X -20 Y 36 X 8 Y 36
 X -21 Y 36 X 12 Y 36 X -66 Y 36 X 53 Y 35 X 5 Y 36 X -17 Y 36 X 25 Y 36 X 3 Y 36 X -31 Y 36 X 39 Y 35 X -26 Y 36 X 62 Y 36 X -62 Y 36 X 48 Y 36 X -57 Y 36 X 50 Y 35 X 36 Y 36 X -66 Y 36 X -19 Y 36 X 12 Y 36 X 27 Y 36 X -120 Y 35 X 28 Y 36 X 68 Y 36
 X 14 Y 36 X 77 Y 36 X -88 Y 36 X 28 Y 35 X 4 Y 36 X -24 Y 36 X -38 Y 36 X -2 Y 36 X 3 Y 36 X 16 Y 35 X 13 Y 36 X -22 Y 36 X 62 Y 36 X -17 Y 36 X 1 Y 36 X 5 Y 35 X s 3 lw 363 74 m 1791 X s 363 85 m -11 Y s 404 79 m -5 Y s 444 79 m -5 Y s 485 79 m -5
 Y s 526 79 m -5 Y s 566 85 m -11 Y s 607 79 m -5 Y s 648 79 m -5 Y s 689 79 m -5 Y s 729 79 m -5 Y s 770 85 m -11 Y s 811 79 m -5 Y s 851 79 m -5 Y s 892 79 m -5 Y s 933 79 m -5 Y s 974 85 m -11 Y s 1014 79 m -5 Y s 1055 79 m -5 Y s 1096 79 m -5 Y s
 1136 79 m -5 Y s 1177 85 m -11 Y s 1218 79 m -5 Y s 1259 79 m -5 Y s 1299 79 m -5 Y s 1340 79 m -5 Y s 1381 85 m -11 Y s 1421 79 m -5 Y s 1462 79 m -5 Y s 1503 79 m -5 Y s 1544 79 m -5 Y s 1584 85 m -11 Y s 1625 79 m -5 Y s 1666 79 m -5 Y s 1706 79
 m -5 Y s 1747 79 m -5 Y s 1788 85 m -11 Y s 1829 79 m -5 Y s 1869 79 m -5 Y s 1910 79 m -5 Y s 1951 79 m -5 Y s 1991 85 m -11 Y s 1991 85 m -11 Y s 2032 79 m -5 Y s 2073 79 m -5 Y s 2114 79 m -5 Y s 363 438 m 1791 X s 363 427 m 11 Y s 404 433 m 5 Y
 s 444 433 m 5 Y s 485 433 m 5 Y s 526 433 m 5 Y s 566 427 m 11 Y s 607 433 m 5 Y s 648 433 m 5 Y s 689 433 m 5 Y s 729 433 m 5 Y s 770 427 m 11 Y s 811 433 m 5 Y s 851 433 m 5 Y s 892 433 m 5 Y s 933 433 m 5 Y s 974 427 m 11 Y s 1014 433 m 5 Y s
 1055 433 m 5 Y s 1096 433 m 5 Y s 1136 433 m 5 Y s 1177 427 m 11 Y s 1218 433 m 5 Y s 1259 433 m 5 Y s 1299 433 m 5 Y s 1340 433 m 5 Y s 1381 427 m 11 Y s 1421 433 m 5 Y s 1462 433 m 5 Y s 1503 433 m 5 Y s 1544 433 m 5 Y s 1584 427 m 11 Y s 1625 433
 m 5 Y s 1666 433 m 5 Y s 1706 433 m 5 Y s 1747 433 m 5 Y s 1788 427 m 11 Y s 1829 433 m 5 Y s 1869 433 m 5 Y s 1910 433 m 5 Y s 1951 433 m 5 Y s 1991 427 m 11 Y s 1991 427 m 11 Y s 2032 433 m 5 Y s 2073 433 m 5 Y s 2114 433 m 5 Y s 363 74 m 364 Y s
 417 74 m -54 X s 390 81 m -27 X s 390 88 m -27 X s 390 96 m -27 X s 390 103 m -27 X s 417 110 m -54 X s 390 118 m -27 X s 390 125 m -27 X s 390 132 m -27 X s 390 139 m -27 X s 417 147 m -54 X s 390 154 m -27 X s 390 161 m -27 X s 390 169 m -27 X s
 390 176 m -27 X s 417 183 m -54 X s 390 190 m -27 X s 390 198 m -27 X s 390 205 m -27 X s 390 212 m -27 X s 417 220 m -54 X s 390 227 m -27 X s 390 234 m -27 X s 390 241 m -27 X s 390 249 m -27 X s 417 256 m -54 X s 390 263 m -27 X s 390 271 m -27 X
 s 390 278 m -27 X s 390 285 m -27 X s 417 293 m -54 X s 390 300 m -27 X s 390 307 m -27 X s 390 314 m -27 X s 390 322 m -27 X s 417 329 m -54 X s 390 336 m -27 X s 390 344 m -27 X s 390 351 m -27 X s 390 358 m -27 X s 417 365 m -54 X s 390 373 m -27
 X s 390 380 m -27 X s 390 387 m -27 X s 390 395 m -27 X s 417 402 m -54 X s 390 409 m -27 X s 390 416 m -27 X s 390 424 m -27 X s 390 431 m -27 X s 417 438 m -54 X s 2154 74 m 364 Y s 2101 74 m 53 X s 2127 81 m 27 X s 2127 88 m 27 X s 2127 96 m 27 X
 s 2127 103 m 27 X s 2101 110 m 53 X s 2127 118 m 27 X s 2127 125 m 27 X s 2127 132 m 27 X s 2127 139 m 27 X s 2101 147 m 53 X s 2127 154 m 27 X s 2127 161 m 27 X s 2127 169 m 27 X s 2127 176 m 27 X s 2101 183 m 53 X s 2127 190 m 27 X s 2127 198 m 27
 X s 2127 205 m 27 X s 2127 212 m 27 X s 2101 220 m 53 X s 2127 227 m 27 X s 2127 234 m 27 X s 2127 241 m 27 X s 2127 249 m 27 X s 2101 256 m 53 X s 2127 263 m 27 X s 2127 271 m 27 X s 2127 278 m 27 X s 2127 285 m 27 X s 2101 293 m 53 X s 2127 300 m
 27 X s 2127 307 m 27 X s 2127 314 m 27 X s 2127 322 m 27 X s 2101 329 m 53 X s 2127 336 m 27 X s 2127 344 m 27 X s 2127 351 m 27 X s 2127 358 m 27 X s 2101 365 m 53 X s 2127 373 m 27 X s 2127 380 m 27 X s 2127 387 m 27 X s 2127 395 m 27 X s 2101 402
 m 53 X s 2127 409 m 27 X s 2127 416 m 27 X s 2127 424 m 27 X s 2127 431 m 27 X s 2101 438 m 53 X s
 gr  gr showpage
end
%%EOF
