%!PS-Adobe-2.0 EPSF-2.0
%%BoundingBox:  0 0 567 384
%%Title: H4l2015_plotfit/gg_mass_signal_600_fixed_H4l_2mu2e.eps: 
%%Creator: ROOT Version 5.34/10
%%CreationDate: Thu Feb 16 15:43:03 2017
%%EndComments
%%BeginProlog
80 dict begin
/s {stroke} def /l {lineto} def /m {moveto} def /t {translate} def
/r {rotate} def /rl {roll}  def /R {repeat} def
/d {rlineto} def /rm {rmoveto} def /gr {grestore} def /f {eofill} def
/c {setrgbcolor} def /black {0 setgray} def /sd {setdash} def
/cl {closepath} def /sf {scalefont setfont} def /lw {setlinewidth} def
/box {m dup 0 exch d exch 0 d 0 exch neg d cl} def
/NC{systemdict begin initclip end}def/C{NC box clip newpath}def
/bl {box s} def /bf {box f} def /Y { 0 exch d} def /X { 0 d} def 
/K {{pop pop 0 moveto} exch kshow} bind def
/ita {/ang 15 def gsave [1 0 ang dup sin exch cos div 1 0 0] concat} def 
/mp {newpath /y exch def /x exch def} def
/side {[w .77 mul w .23 mul] .385 w mul sd w 0 l currentpoint t -144 r} def
/mr {mp x y w2 0 360 arc} def /m24 {mr s} def /m20 {mr f} def
/mb {mp x y w2 add m w2 neg 0 d 0 w neg d w 0 d 0 w d cl} def
/mt {mp x y w2 add m w2 neg w neg d w 0 d cl} def
/m21 {mb f} def /m25 {mb s} def /m22 {mt f} def /m26{mt s} def
/m23 {mp x y w2 sub m w2 w d w neg 0 d cl f} def
/m27 {mp x y w2 add m w3 neg w2 neg d w3 w2 neg d w3 w2 d cl s} def
/m28 {mp x w2 sub y w2 sub w3 add m w3 0 d  0 w3 neg d w3 0 d 0 w3 d w3 0 d  0 w3 d w3 neg 0 d 0 w3 d w3 neg 0 d 0 w3 neg d w3 neg 0 d cl s } def
/m29 {mp gsave x w2 sub y w2 add w3 sub m currentpoint t 4 {side} repeat cl fill gr} def
/m30 {mp gsave x w2 sub y w2 add w3 sub m currentpoint t 4 {side} repeat cl s gr} def
/m31 {mp x y w2 sub m 0 w d x w2 sub y m w 0 d x w2 sub y w2 add m w w neg d x w2 sub y w2 sub m w w d s} def
/m32 {mp x y w2 sub m w2 w d w neg 0 d cl s} def
/m33 {mp x y w2 add m w3 neg w2 neg d w3 w2 neg d w3 w2 d cl f} def
/m34 {mp x w2 sub y w2 sub w3 add m w3 0 d  0 w3 neg d w3 0 d 0 w3 d w3 0 d  0 w3 d w3 neg 0 d 0 w3 d w3 neg 0 d 0 w3 neg d w3 neg 0 d cl f } def
/m2 {mp x y w2 sub m 0 w d x w2 sub y m w 0 d s} def
/m5 {mp x w2 sub y w2 sub m w w d x w2 sub y w2 add m w w neg d s} def
/reEncode {exch findfont dup length dict begin {1 index /FID eq  {pop pop} {def} ifelse } forall /Encoding exch def currentdict end dup /FontName get exch definefont pop } def [/Times-Bold /Times-Italic /Times-BoldItalic /Helvetica /Helvetica-Oblique
 /Helvetica-Bold /Helvetica-BoldOblique /Courier /Courier-Oblique /Courier-Bold /Courier-BoldOblique /Times-Roman /AvantGarde-Book /AvantGarde-BookOblique /AvantGarde-Demi /AvantGarde-DemiOblique /Bookman-Demi /Bookman-DemiItalic /Bookman-Light
 /Bookman-LightItalic /Helvetica-Narrow /Helvetica-Narrow-Bold /Helvetica-Narrow-BoldOblique /Helvetica-Narrow-Oblique /NewCenturySchlbk-Roman /NewCenturySchlbk-Bold /NewCenturySchlbk-BoldItalic /NewCenturySchlbk-Italic /Palatino-Bold
 /Palatino-BoldItalic /Palatino-Italic /Palatino-Roman ] {ISOLatin1Encoding reEncode } forall
%%EndProlog
%%BeginSetup
%%EndSetup
newpath  gsave  .25 .25 scale  gsave  0 0 t black[  ] 0 sd 3 lw 1 1 1 c 2268 1538 0 0 bf black 1 1 1 c 2222 738 23 784 bf black 1 1 1 c 2222 739 23 15 bf black 1 1 1 c 2268 1077 0 461 bf black 1 1 1 c 1791 850 363 634 bf black 1791 850 363 634 bl 363
 634 m 1791 X s
 gsave  2268 1077 0 461 C 1642.14 498.507 t 0 r /Helvetica findfont 48.9324 sf 0 0 m (4l Invariant Mass \(GeV\)) show NC gr  363 659 m -25 Y s 437 646 m -12 Y s 512 646 m -12 Y s 587 646 m -12 Y s 661 659 m -25 Y s 736 646 m -12 Y s 811 646 m -12 Y s
 885 646 m -12 Y s 960 659 m -25 Y s 1035 646 m -12 Y s 1109 646 m -12 Y s 1184 646 m -12 Y s 1259 659 m -25 Y s 1333 646 m -12 Y s 1408 646 m -12 Y s 1483 646 m -12 Y s 1557 659 m -25 Y s 1632 646 m -12 Y s 1706 646 m -12 Y s 1781 646 m -12 Y s 1856
 659 m -25 Y s 1930 646 m -12 Y s 2005 646 m -12 Y s 2080 646 m -12 Y s 2154 659 m -25 Y s
 gsave  2268 1077 0 461 C 319.305 586.478 t 0 r /Helvetica findfont 48.9324 sf 0 0 m (520) show NC gr 
 gsave  2268 1077 0 461 C 619.061 586.478 t 0 r /Helvetica findfont 48.9324 sf 0 0 m (540) show NC gr 
 gsave  2268 1077 0 461 C 915.558 586.478 t 0 r /Helvetica findfont 48.9324 sf 0 0 m (560) show NC gr 
 gsave  2268 1077 0 461 C 1215.31 586.478 t 0 r /Helvetica findfont 48.9324 sf 0 0 m (580) show NC gr 
 gsave  2268 1077 0 461 C 1511.81 586.478 t 0 r /Helvetica findfont 48.9324 sf 0 0 m (600) show NC gr 
 gsave  2268 1077 0 461 C 1811.57 586.478 t 0 r /Helvetica findfont 48.9324 sf 0 0 m (620) show NC gr 
 gsave  2268 1077 0 461 C 2111.32 586.478 t 0 r /Helvetica findfont 48.9324 sf 0 0 m (640) show NC gr  363 1484 m 1791 X s 363 1459 m 25 Y s 437 1471 m 13 Y s 512 1471 m 13 Y s 587 1471 m 13 Y s 661 1459 m 25 Y s 736 1471 m 13 Y s 811 1471 m 13 Y s
 885 1471 m 13 Y s 960 1459 m 25 Y s 1035 1471 m 13 Y s 1109 1471 m 13 Y s 1184 1471 m 13 Y s 1259 1459 m 25 Y s 1333 1471 m 13 Y s 1408 1471 m 13 Y s 1483 1471 m 13 Y s 1557 1459 m 25 Y s 1632 1471 m 13 Y s 1706 1471 m 13 Y s 1781 1471 m 13 Y s 1856
 1459 m 25 Y s 1930 1471 m 13 Y s 2005 1471 m 13 Y s 2080 1471 m 13 Y s 2154 1459 m 25 Y s 363 634 m 850 Y s
 gsave  2268 1077 0 461 C 120.554 1058.92 t 90 r /Helvetica findfont 48.9324 sf 0 0 m (Events / \( 2.4 GeV \)) show NC gr  390 637 m -27 X s 390 666 m -27 X s 390 691 m -27 X s 390 711 m -27 X s 390 729 m -27 X s 390 744 m -27 X s 417 758 m -54 X s
 gsave  2268 1077 0 461 C 342.425 737.589 t 0 r  -55 0 t /Helvetica findfont 48.9324 sf 0 0 m (10) show NC gr  390 851 m -27 X s 390 904 m -27 X s 390 943 m -27 X s 390 972 m -27 X s 390 997 m -27 X s 390 1017 m -27 X s 390 1035 m -27 X s 390 1051 m
 -27 X s 417 1065 m -54 X s
 gsave  2268 1077 0 461 C 322.563 1062.18 t 0 r /Helvetica findfont 32.6216 sf 0 0 m (2) show NC gr 
 gsave  2268 1077 0 461 C 270.432 1042.63 t 0 r /Helvetica findfont 48.9324 sf 0 0 m (10) show NC gr  390 1157 m -27 X s 390 1211 m -27 X s 390 1249 m -27 X s 390 1279 m -27 X s 390 1303 m -27 X s 390 1323 m -27 X s 390 1341 m -27 X s 390 1357 m -27
 X s 417 1371 m -54 X s
 gsave  2268 1077 0 461 C 322.563 1371.71 t 0 r /Helvetica findfont 32.6216 sf 0 0 m (3) show NC gr 
 gsave  2268 1077 0 461 C 270.432 1348.9 t 0 r /Helvetica findfont 48.9324 sf 0 0 m (10) show NC gr  390 1463 m -27 X s 2154 634 m 850 Y s 2127 637 m 27 X s 2127 666 m 27 X s 2127 691 m 27 X s 2127 711 m 27 X s 2127 729 m 27 X s 2127 744 m 27 X s
 2101 758 m 53 X s 2127 851 m 27 X s 2127 904 m 27 X s 2127 943 m 27 X s 2127 972 m 27 X s 2127 997 m 27 X s 2127 1017 m 27 X s 2127 1035 m 27 X s 2127 1051 m 27 X s 2101 1065 m 53 X s 2127 1157 m 27 X s 2127 1211 m 27 X s 2127 1249 m 27 X s 2127
 1279 m 27 X s 2127 1303 m 27 X s 2127 1323 m 27 X s 2127 1341 m 27 X s 2127 1357 m 27 X s 2101 1371 m 53 X s 2127 1463 m 27 X s 381 666 m -18 X s 363 666 m cl s 381 666 m 18 X s 399 666 m cl s 381 666 m 69 Y s 381 735 m cl s 381 666 m -32 Y s 381
 634 m cl s 417 711 m -18 X s 399 711 m cl s 417 711 m 17 X s 434 711 m cl s 417 711 m 57 Y s 417 768 m cl s 417 711 m -61 Y s 417 650 m cl s 452 829 m -18 X s 434 829 m cl s 452 829 m 18 X s 470 829 m cl s 452 829 m 35 Y s 452 864 m cl s 452 829 m
 -37 Y s 452 792 m cl s 488 844 m -18 X s 470 844 m cl s 488 844 m 18 X s 506 844 m cl s 488 844 m 33 Y s 488 877 m cl s 488 844 m -35 Y s 488 809 m cl s 524 783 m -18 X s 506 783 m cl s 524 783 m 18 X s 542 783 m cl s 524 783 m 42 Y s 524 825 m cl s
 524 783 m -45 Y s 524 738 m cl s 560 771 m -18 X s 542 771 m cl s 560 771 m 18 X s 578 771 m cl s 560 771 m 45 Y s 560 816 m cl s 560 771 m -47 Y s 560 724 m cl s 596 821 m -18 X s 578 821 m cl s 596 821 m 18 X s 614 821 m cl s 596 821 m 37 Y s 596
 858 m cl s 596 821 m -38 Y s 596 783 m cl s 632 803 m -18 X s 614 803 m cl s 632 803 m 17 X s 649 803 m cl s 632 803 m 40 Y s 632 843 m cl s 632 803 m -41 Y s 632 762 m cl s 667 803 m -18 X s 649 803 m cl s 667 803 m 18 X s 685 803 m cl s 667 803 m
 40 Y s 667 843 m cl s 667 803 m -41 Y s 667 762 m cl s 703 880 m -18 X s 685 880 m cl s 703 880 m 18 X s 721 880 m cl s 703 880 m 29 Y s 703 909 m cl s 703 880 m -29 Y s 703 851 m cl s 739 857 m -18 X s 721 857 m cl s 739 857 m 18 X s 757 857 m cl s
 739 857 m 32 Y s 739 889 m cl s 739 857 m -32 Y s 739 825 m cl s 775 875 m -18 X s 757 875 m cl s 775 875 m 18 X s 793 875 m cl s 775 875 m 29 Y s 775 904 m cl s 775 875 m -30 Y s 775 845 m cl s 811 880 m -18 X s 793 880 m cl s 811 880 m 18 X s 829
 880 m cl s 811 880 m 29 Y s 811 909 m cl s 811 880 m -29 Y s 811 851 m cl s 847 890 m -18 X s 829 890 m cl s 847 890 m 17 X s 864 890 m cl s 847 890 m 28 Y s 847 918 m cl s 847 890 m -28 Y s 847 862 m cl s 882 936 m -18 X s 864 936 m cl s 882 936 m
 18 X s 900 936 m cl s 882 936 m 23 Y s 882 959 m cl s 882 936 m -23 Y s 882 913 m cl s 918 936 m -18 X s 900 936 m cl s 918 936 m 18 X s 936 936 m cl s 918 936 m 23 Y s 918 959 m cl s 918 936 m -23 Y s 918 913 m cl s 954 978 m -18 X s 936 978 m cl s
 954 978 m 18 X s 972 978 m cl s 954 978 m 19 Y s 954 997 m cl s 954 978 m -20 Y s 954 958 m cl s 990 990 m -18 X s 972 990 m cl s 990 990 m 18 X s 1008 990 m cl s 990 990 m 18 Y s 990 1008 m cl s 990 990 m -19 Y s 990 971 m cl s 1026 1011 m -18 X s
 1008 1011 m cl s 1026 1011 m 18 X s 1044 1011 m cl s 1026 1011 m 17 Y s 1026 1028 m cl s 1026 1011 m -17 Y s 1026 994 m cl s 1062 1041 m -18 X s 1044 1041 m cl s 1062 1041 m 17 X s 1079 1041 m cl s 1062 1041 m 16 Y s 1062 1057 m cl s 1062 1041 m -15
 Y s 1062 1026 m cl s 1097 1028 m -18 X s 1079 1028 m cl s 1097 1028 m 18 X s 1115 1028 m cl s 1097 1028 m 16 Y s 1097 1044 m cl s 1097 1028 m -16 Y s 1097 1012 m cl s 1133 1096 m -18 X s 1115 1096 m cl s 1133 1096 m 18 X s 1151 1096 m cl s 1133 1096
 m 12 Y s 1133 1108 m cl s 1133 1096 m -11 Y s 1133 1085 m cl s 1169 1119 m -18 X s 1151 1119 m cl s 1169 1119 m 18 X s 1187 1119 m cl s 1169 1119 m 11 Y s 1169 1130 m cl s 1169 1119 m -10 Y s 1169 1109 m cl s 1205 1147 m -18 X s 1187 1147 m cl s
 1205 1147 m 18 X s 1223 1147 m cl s 1205 1147 m 10 Y s 1205 1157 m cl s 1205 1147 m -10 Y s 1205 1137 m cl s 1241 1162 m -18 X s 1223 1162 m cl s 1241 1162 m 18 X s 1259 1162 m cl s 1241 1162 m 9 Y s 1241 1171 m cl s 1241 1162 m -9 Y s 1241 1153 m
 cl s 1276 1194 m -17 X s 1259 1194 m cl s 1276 1194 m 18 X s 1294 1194 m cl s 1276 1194 m 8 Y s 1276 1202 m cl s 1276 1194 m -9 Y s 1276 1185 m cl s 1312 1234 m -18 X s 1294 1234 m cl s 1312 1234 m 18 X s 1330 1234 m cl s 1312 1234 m 7 Y s 1312 1241
 m cl s 1312 1234 m -7 Y s 1312 1227 m cl s 1348 1275 m -18 X s 1330 1275 m cl s 1348 1275 m 18 X s 1366 1275 m cl s 1348 1275 m 6 Y s 1348 1281 m cl s 1348 1275 m -6 Y s 1348 1269 m cl s 1384 1310 m -18 X s 1366 1310 m cl s 1384 1310 m 18 X s 1402
 1310 m cl s 1384 1310 m 6 Y s 1384 1316 m cl s 1384 1310 m -5 Y s 1384 1305 m cl s 1420 1353 m -18 X s 1402 1353 m cl s 1420 1353 m 18 X s 1438 1353 m cl s 1420 1353 m 4 Y s 1420 1357 m cl s 1420 1353 m -5 Y s 1420 1348 m cl s 1456 1374 m -18 X s
 1438 1374 m cl s 1456 1374 m 18 X s 1474 1374 m cl s 1456 1374 m 4 Y s 1456 1378 m cl s 1456 1374 m -4 Y s 1456 1370 m cl s 1491 1405 m -17 X s 1474 1405 m cl s 1491 1405 m 18 X s 1509 1405 m cl s 1491 1405 m 3 Y s 1491 1408 m cl s 1491 1405 m -4 Y
 s 1491 1401 m cl s 1527 1420 m -18 X s 1509 1420 m cl s 1527 1420 m 18 X s 1545 1420 m cl s 1527 1420 m 4 Y s 1527 1424 m cl s 1527 1420 m -3 Y s 1527 1417 m cl s 1563 1418 m -18 X s 1545 1418 m cl s 1563 1418 m 18 X s 1581 1418 m cl s 1563 1418 m 3
 Y s 1563 1421 m cl s 1563 1418 m -4 Y s 1563 1414 m cl s 1599 1394 m -18 X s 1581 1394 m cl s 1599 1394 m 18 X s 1617 1394 m cl s 1599 1394 m 4 Y s 1599 1398 m cl s 1599 1394 m -4 Y s 1599 1390 m cl s 1635 1352 m -18 X s 1617 1352 m cl s 1635 1352 m
 18 X s 1653 1352 m cl s 1635 1352 m 5 Y s 1635 1357 m cl s 1635 1352 m -4 Y s 1635 1348 m cl s 1671 1313 m -18 X s 1653 1313 m cl s 1671 1313 m 18 X s 1689 1313 m cl s 1671 1313 m 5 Y s 1671 1318 m cl s 1671 1313 m -6 Y s 1671 1307 m cl s 1706 1254
 m -17 X s 1689 1254 m cl s 1706 1254 m 18 X s 1724 1254 m cl s 1706 1254 m 6 Y s 1706 1260 m cl s 1706 1254 m -7 Y s 1706 1247 m cl s 1742 1198 m -18 X s 1724 1198 m cl s 1742 1198 m 18 X s 1760 1198 m cl s 1742 1198 m 8 Y s 1742 1206 m cl s 1742
 1198 m -8 Y s 1742 1190 m cl s 1778 1159 m -18 X s 1760 1159 m cl s 1778 1159 m 18 X s 1796 1159 m cl s 1778 1159 m 9 Y s 1778 1168 m cl s 1778 1159 m -10 Y s 1778 1149 m cl s 1814 1101 m -18 X s 1796 1101 m cl s 1814 1101 m 18 X s 1832 1101 m cl s
 1814 1101 m 12 Y s 1814 1113 m cl s 1814 1101 m -11 Y s 1814 1090 m cl s 1850 1048 m -18 X s 1832 1048 m cl s 1850 1048 m 18 X s 1868 1048 m cl s 1850 1048 m 14 Y s 1850 1062 m cl s 1850 1048 m -15 Y s 1850 1033 m cl s 1886 1003 m -18 X s 1868 1003
 m cl s 1886 1003 m 18 X s 1904 1003 m cl s 1886 1003 m 18 Y s 1886 1021 m cl s 1886 1003 m -18 Y s 1886 985 m cl s 1921 936 m -17 X s 1904 936 m cl s 1921 936 m 18 X s 1939 936 m cl s 1921 936 m 23 Y s 1921 959 m cl s 1921 936 m -23 Y s 1921 913 m
 cl s 1957 913 m -18 X s 1939 913 m cl s 1957 913 m 18 X s 1975 913 m cl s 1957 913 m 25 Y s 1957 938 m cl s 1957 913 m -26 Y s 1957 887 m cl s 1993 885 m -18 X s 1975 885 m cl s 1993 885 m 18 X s 2011 885 m cl s 1993 885 m 29 Y s 1993 914 m cl s
 1993 885 m -28 Y s 1993 857 m cl s 2029 869 m -18 X s 2011 869 m cl s 2029 869 m 18 X s 2047 869 m cl s 2029 869 m 30 Y s 2029 899 m cl s 2029 869 m -31 Y s 2029 838 m cl s 2065 793 m -18 X s 2047 793 m cl s 2065 793 m 18 X s 2083 793 m cl s 2065
 793 m 41 Y s 2065 834 m cl s 2065 793 m -42 Y s 2065 751 m cl s 2101 771 m -18 X s 2083 771 m cl s 2101 771 m 18 X s 2119 771 m cl s 2101 771 m 45 Y s 2101 816 m cl s 2101 771 m -47 Y s 2101 724 m cl s 2136 744 m -17 X s 2119 744 m cl s 2136 744 m
 18 X s 2154 744 m cl s 2136 744 m 50 Y s 2136 794 m cl s 2136 744 m -52 Y s 2136 692 m cl s /w 31 def /w2 {w 2 div} def /w3 {w 3 div} def 381 666 417 711 452 829 488 844 524 783 560 771 596 821 632 803 667 803 703 880 739 857 775 875 811 880 847 890
 882 936 918 936 954 978 990 990 1026 1011 1062 1041 1097 1028 1133 1096 1169 1119 1205 1147 1241 1162 1276 1194 1312 1234 1348 1275 1384 1310 1420 1353 1456 1374 1491 1405 1527 1420 1563 1418 1599 1394 1635 1352 1671 1313 1706 1254 1742 1198 1778
 1159 1814 1101 1850 1048 1886 1003 1921 936 1957 913 1993 885 2029 869 2065 793 2101 771 2136 744 50 { m20} R 0 1 1 c 1 1 0 c black 1 1 0 c 363 785 m 36 7 d 35 6 d 36 7 d 36 8 d 36 7 d 36 8 d 36 8 d 35 8 d 36 9 d 36 10 d 36 10 d 36 11 d 36 12 d 35
 14 d 36 16 d 36 18 d 36 20 d 36 22 d 36 24 d 35 27 d 36 28 d 36 28 d 36 29 d 36 30 d 18 15 d 18 15 d 17 15 d 18 15 d 18 17 d 18 17 d 9 8 d 9 10 d 9 10 d 9 10 d 9 11 d 9 13 d 18 24 d 36 41 d 18 15 d 9 7 d 9 6 d 9 5 d 8 4 d 9 3 d 9 3 d 9 1 d 9 1 d 9 X
 9 -1 d 9 -2 d 9 -3 d 9 -4 d 9 -5 d 9 -5 d 9 -7 d 9 -7 d 9 -8 d 36 -40 d 18 -23 d 9 -13 d 9 -13 d 8 -14 d 9 -14 d 9 -14 d 9 -14 d 9 -15 d 9 -14 d 9 -15 d 9 -14 d 18 -28 d 18 -27 d 18 -25 d 18 -25 d 18 -23 d 18 -22 d 36 -43 d 35 -45 d 36 -47 d 36 -50
 d 36 -54 d 36 -58 d 36 -62 d 16 -30 d -16 30 d -36 62 d -36 58 d -36 54 d -36 50 d -36 47 d -35 45 d -36 43 d -18 22 d -18 23 d -18 25 d -18 25 d -18 27 d -18 28 d -9 14 d -9 15 d -9 14 d -9 15 d -9 14 d -9 14 d -9 14 d -8 14 d -9 13 d -9 13 d -18
 23 d -36 40 d -9 8 d -9 7 d -9 7 d -9 5 d -9 5 d -9 4 d -9 3 d -9 2 d -9 1 d -9 X -9 -1 d -9 -1 d -9 -3 d -9 -3 d -8 -4 d -9 -5 d -9 -6 d -9 -7 d -18 -15 d -36 -41 d -18 -24 d -9 -13 d -9 -11 d -9 -10 d -9 -10 d -9 -10 d -9 -8 d -18 -17 d -18 -17 d
 -18 -15 d -17 -15 d -18 -15 d -18 -15 d -36 -30 d -36 -29 d -36 -28 d -36 -28 d -35 -27 d -36 -24 d -36 -22 d -36 -20 d -36 -18 d -36 -16 d -35 -14 d -36 -12 d -36 -11 d -36 -10 d -36 -10 d -36 -9 d -35 -8 d -36 -8 d -36 -8 d -36 -7 d -36 -8 d -36
 -7 d -35 -6 d -36 -7 d f 0 1 1 c 0 1 0 c black 0 1 0 c 363 785 m 36 7 d 35 6 d 36 7 d 36 8 d 36 7 d 36 8 d 36 8 d 35 8 d 36 9 d 36 10 d 36 10 d 36 11 d 36 12 d 35 14 d 36 16 d 36 18 d 36 20 d 36 22 d 36 24 d 35 27 d 36 28 d 36 28 d 36 29 d 36 30 d
 18 15 d 18 15 d 17 15 d 18 15 d 18 17 d 18 17 d 9 8 d 9 10 d 9 10 d 9 10 d 9 11 d 9 13 d 18 24 d 36 41 d 18 15 d 9 7 d 9 6 d 9 5 d 8 4 d 9 3 d 9 3 d 9 1 d 9 1 d 9 X 9 -1 d 9 -2 d 9 -3 d 9 -4 d 9 -5 d 9 -5 d 9 -7 d 9 -7 d 9 -8 d 36 -40 d 18 -23 d 9
 -13 d 9 -13 d 8 -14 d 9 -14 d 9 -14 d 9 -14 d 9 -15 d 9 -14 d 9 -15 d 9 -14 d 18 -28 d 18 -27 d 18 -25 d 18 -25 d 18 -23 d 18 -22 d 36 -43 d 35 -45 d 36 -47 d 36 -50 d 36 -54 d 36 -58 d 36 -62 d 16 -30 d -16 30 d -36 62 d -36 58 d -36 54 d -36 50 d
 -36 47 d -35 45 d -36 43 d -18 22 d -18 23 d -18 25 d -18 25 d -18 27 d -18 28 d -9 14 d -9 15 d -9 14 d -9 15 d -9 14 d -9 14 d -9 14 d -8 14 d -9 13 d -9 13 d -18 23 d -36 40 d -9 8 d -9 7 d -9 7 d -9 5 d -9 5 d -9 4 d -9 3 d -9 2 d -9 1 d -9 X -9
 -1 d -9 -1 d -9 -3 d -9 -3 d -8 -4 d -9 -5 d -9 -6 d -9 -7 d -18 -15 d -36 -41 d -18 -24 d -9 -13 d -9 -11 d -9 -10 d -9 -10 d -9 -10 d -9 -8 d -18 -17 d -18 -17 d -18 -15 d -17 -15 d -18 -15 d -18 -15 d -36 -30 d -36 -29 d -36 -28 d -36 -28 d -35
 -27 d -36 -24 d -36 -22 d -36 -20 d -36 -18 d -36 -16 d -35 -14 d -36 -12 d -36 -11 d -36 -10 d -36 -10 d -36 -9 d -35 -8 d -36 -8 d -36 -8 d -36 -7 d -36 -8 d -36 -7 d -35 -6 d -36 -7 d f 0 0 1 c 9 lw black 0 0 1 c 363 785 m 36 7 d 35 6 d 36 7 d 36
 8 d 36 7 d 36 8 d 36 8 d 35 8 d 36 9 d 36 10 d 36 10 d 36 11 d 36 12 d 35 14 d 36 16 d 36 18 d 36 20 d 36 22 d 36 24 d 35 27 d 36 28 d 36 28 d 36 29 d 36 30 d 18 15 d 18 15 d 17 15 d 18 15 d 18 17 d 18 17 d 9 8 d 9 10 d 9 10 d 9 10 d 9 11 d 9 13 d
 18 24 d 36 41 d 18 15 d 9 7 d 9 6 d 9 5 d 8 4 d 9 3 d 9 3 d 9 1 d 9 1 d 9 X 9 -1 d 9 -2 d 9 -3 d 9 -4 d 9 -5 d 9 -5 d 9 -7 d 9 -7 d 9 -8 d 36 -40 d 18 -23 d 9 -13 d 9 -13 d 8 -14 d 9 -14 d 9 -14 d 9 -14 d 9 -15 d 9 -14 d 9 -15 d 9 -14 d 18 -28 d 18
 -27 d 18 -25 d 18 -25 d 18 -23 d 18 -22 d 36 -43 d 35 -45 d 36 -47 d 36 -50 d 36 -54 d 36 -58 d 36 -62 d 16 -30 d s black 3 lw 381 666 m -18 X s 363 666 m cl s 381 666 m 18 X s 399 666 m cl s 381 666 m 69 Y s 381 735 m cl s 381 666 m -32 Y s 381 634
 m cl s 417 711 m -18 X s 399 711 m cl s 417 711 m 17 X s 434 711 m cl s 417 711 m 57 Y s 417 768 m cl s 417 711 m -61 Y s 417 650 m cl s 452 829 m -18 X s 434 829 m cl s 452 829 m 18 X s 470 829 m cl s 452 829 m 35 Y s 452 864 m cl s 452 829 m -37 Y
 s 452 792 m cl s 488 844 m -18 X s 470 844 m cl s 488 844 m 18 X s 506 844 m cl s 488 844 m 33 Y s 488 877 m cl s 488 844 m -35 Y s 488 809 m cl s 524 783 m -18 X s 506 783 m cl s 524 783 m 18 X s 542 783 m cl s 524 783 m 42 Y s 524 825 m cl s 524
 783 m -45 Y s 524 738 m cl s 560 771 m -18 X s 542 771 m cl s 560 771 m 18 X s 578 771 m cl s 560 771 m 45 Y s 560 816 m cl s 560 771 m -47 Y s 560 724 m cl s 596 821 m -18 X s 578 821 m cl s 596 821 m 18 X s 614 821 m cl s 596 821 m 37 Y s 596 858
 m cl s 596 821 m -38 Y s 596 783 m cl s 632 803 m -18 X s 614 803 m cl s 632 803 m 17 X s 649 803 m cl s 632 803 m 40 Y s 632 843 m cl s 632 803 m -41 Y s 632 762 m cl s 667 803 m -18 X s 649 803 m cl s 667 803 m 18 X s 685 803 m cl s 667 803 m 40 Y
 s 667 843 m cl s 667 803 m -41 Y s 667 762 m cl s 703 880 m -18 X s 685 880 m cl s 703 880 m 18 X s 721 880 m cl s 703 880 m 29 Y s 703 909 m cl s 703 880 m -29 Y s 703 851 m cl s 739 857 m -18 X s 721 857 m cl s 739 857 m 18 X s 757 857 m cl s 739
 857 m 32 Y s 739 889 m cl s 739 857 m -32 Y s 739 825 m cl s 775 875 m -18 X s 757 875 m cl s 775 875 m 18 X s 793 875 m cl s 775 875 m 29 Y s 775 904 m cl s 775 875 m -30 Y s 775 845 m cl s 811 880 m -18 X s 793 880 m cl s 811 880 m 18 X s 829 880
 m cl s 811 880 m 29 Y s 811 909 m cl s 811 880 m -29 Y s 811 851 m cl s 847 890 m -18 X s 829 890 m cl s 847 890 m 17 X s 864 890 m cl s 847 890 m 28 Y s 847 918 m cl s 847 890 m -28 Y s 847 862 m cl s 882 936 m -18 X s 864 936 m cl s 882 936 m 18 X
 s 900 936 m cl s 882 936 m 23 Y s 882 959 m cl s 882 936 m -23 Y s 882 913 m cl s 918 936 m -18 X s 900 936 m cl s 918 936 m 18 X s 936 936 m cl s 918 936 m 23 Y s 918 959 m cl s 918 936 m -23 Y s 918 913 m cl s 954 978 m -18 X s 936 978 m cl s 954
 978 m 18 X s 972 978 m cl s 954 978 m 19 Y s 954 997 m cl s 954 978 m -20 Y s 954 958 m cl s 990 990 m -18 X s 972 990 m cl s 990 990 m 18 X s 1008 990 m cl s 990 990 m 18 Y s 990 1008 m cl s 990 990 m -19 Y s 990 971 m cl s 1026 1011 m -18 X s 1008
 1011 m cl s 1026 1011 m 18 X s 1044 1011 m cl s 1026 1011 m 17 Y s 1026 1028 m cl s 1026 1011 m -17 Y s 1026 994 m cl s 1062 1041 m -18 X s 1044 1041 m cl s 1062 1041 m 17 X s 1079 1041 m cl s 1062 1041 m 16 Y s 1062 1057 m cl s 1062 1041 m -15 Y s
 1062 1026 m cl s 1097 1028 m -18 X s 1079 1028 m cl s 1097 1028 m 18 X s 1115 1028 m cl s 1097 1028 m 16 Y s 1097 1044 m cl s 1097 1028 m -16 Y s 1097 1012 m cl s 1133 1096 m -18 X s 1115 1096 m cl s 1133 1096 m 18 X s 1151 1096 m cl s 1133 1096 m
 12 Y s 1133 1108 m cl s 1133 1096 m -11 Y s 1133 1085 m cl s 1169 1119 m -18 X s 1151 1119 m cl s 1169 1119 m 18 X s 1187 1119 m cl s 1169 1119 m 11 Y s 1169 1130 m cl s 1169 1119 m -10 Y s 1169 1109 m cl s 1205 1147 m -18 X s 1187 1147 m cl s 1205
 1147 m 18 X s 1223 1147 m cl s 1205 1147 m 10 Y s 1205 1157 m cl s 1205 1147 m -10 Y s 1205 1137 m cl s 1241 1162 m -18 X s 1223 1162 m cl s 1241 1162 m 18 X s 1259 1162 m cl s 1241 1162 m 9 Y s 1241 1171 m cl s 1241 1162 m -9 Y s 1241 1153 m cl s
 1276 1194 m -17 X s 1259 1194 m cl s 1276 1194 m 18 X s 1294 1194 m cl s 1276 1194 m 8 Y s 1276 1202 m cl s 1276 1194 m -9 Y s 1276 1185 m cl s 1312 1234 m -18 X s 1294 1234 m cl s 1312 1234 m 18 X s 1330 1234 m cl s 1312 1234 m 7 Y s 1312 1241 m cl
 s 1312 1234 m -7 Y s 1312 1227 m cl s 1348 1275 m -18 X s 1330 1275 m cl s 1348 1275 m 18 X s 1366 1275 m cl s 1348 1275 m 6 Y s 1348 1281 m cl s 1348 1275 m -6 Y s 1348 1269 m cl s 1384 1310 m -18 X s 1366 1310 m cl s 1384 1310 m 18 X s 1402 1310 m
 cl s 1384 1310 m 6 Y s 1384 1316 m cl s 1384 1310 m -5 Y s 1384 1305 m cl s 1420 1353 m -18 X s 1402 1353 m cl s 1420 1353 m 18 X s 1438 1353 m cl s 1420 1353 m 4 Y s 1420 1357 m cl s 1420 1353 m -5 Y s 1420 1348 m cl s 1456 1374 m -18 X s 1438 1374
 m cl s 1456 1374 m 18 X s 1474 1374 m cl s 1456 1374 m 4 Y s 1456 1378 m cl s 1456 1374 m -4 Y s 1456 1370 m cl s 1491 1405 m -17 X s 1474 1405 m cl s 1491 1405 m 18 X s 1509 1405 m cl s 1491 1405 m 3 Y s 1491 1408 m cl s 1491 1405 m -4 Y s 1491
 1401 m cl s 1527 1420 m -18 X s 1509 1420 m cl s 1527 1420 m 18 X s 1545 1420 m cl s 1527 1420 m 4 Y s 1527 1424 m cl s 1527 1420 m -3 Y s 1527 1417 m cl s 1563 1418 m -18 X s 1545 1418 m cl s 1563 1418 m 18 X s 1581 1418 m cl s 1563 1418 m 3 Y s
 1563 1421 m cl s 1563 1418 m -4 Y s 1563 1414 m cl s 1599 1394 m -18 X s 1581 1394 m cl s 1599 1394 m 18 X s 1617 1394 m cl s 1599 1394 m 4 Y s 1599 1398 m cl s 1599 1394 m -4 Y s 1599 1390 m cl s 1635 1352 m -18 X s 1617 1352 m cl s 1635 1352 m 18
 X s 1653 1352 m cl s 1635 1352 m 5 Y s 1635 1357 m cl s 1635 1352 m -4 Y s 1635 1348 m cl s 1671 1313 m -18 X s 1653 1313 m cl s 1671 1313 m 18 X s 1689 1313 m cl s 1671 1313 m 5 Y s 1671 1318 m cl s 1671 1313 m -6 Y s 1671 1307 m cl s 1706 1254 m
 -17 X s 1689 1254 m cl s 1706 1254 m 18 X s 1724 1254 m cl s 1706 1254 m 6 Y s 1706 1260 m cl s 1706 1254 m -7 Y s 1706 1247 m cl s 1742 1198 m -18 X s 1724 1198 m cl s 1742 1198 m 18 X s 1760 1198 m cl s 1742 1198 m 8 Y s 1742 1206 m cl s 1742 1198
 m -8 Y s 1742 1190 m cl s 1778 1159 m -18 X s 1760 1159 m cl s 1778 1159 m 18 X s 1796 1159 m cl s 1778 1159 m 9 Y s 1778 1168 m cl s 1778 1159 m -10 Y s 1778 1149 m cl s 1814 1101 m -18 X s 1796 1101 m cl s 1814 1101 m 18 X s 1832 1101 m cl s 1814
 1101 m 12 Y s 1814 1113 m cl s 1814 1101 m -11 Y s 1814 1090 m cl s 1850 1048 m -18 X s 1832 1048 m cl s 1850 1048 m 18 X s 1868 1048 m cl s 1850 1048 m 14 Y s 1850 1062 m cl s 1850 1048 m -15 Y s 1850 1033 m cl s 1886 1003 m -18 X s 1868 1003 m cl
 s 1886 1003 m 18 X s 1904 1003 m cl s 1886 1003 m 18 Y s 1886 1021 m cl s 1886 1003 m -18 Y s 1886 985 m cl s 1921 936 m -17 X s 1904 936 m cl s 1921 936 m 18 X s 1939 936 m cl s 1921 936 m 23 Y s 1921 959 m cl s 1921 936 m -23 Y s 1921 913 m cl s
 1957 913 m -18 X s 1939 913 m cl s 1957 913 m 18 X s 1975 913 m cl s 1957 913 m 25 Y s 1957 938 m cl s 1957 913 m -26 Y s 1957 887 m cl s 1993 885 m -18 X s 1975 885 m cl s 1993 885 m 18 X s 2011 885 m cl s 1993 885 m 29 Y s 1993 914 m cl s 1993 885
 m -28 Y s 1993 857 m cl s 2029 869 m -18 X s 2011 869 m cl s 2029 869 m 18 X s 2047 869 m cl s 2029 869 m 30 Y s 2029 899 m cl s 2029 869 m -31 Y s 2029 838 m cl s 2065 793 m -18 X s 2047 793 m cl s 2065 793 m 18 X s 2083 793 m cl s 2065 793 m 41 Y
 s 2065 834 m cl s 2065 793 m -42 Y s 2065 751 m cl s 2101 771 m -18 X s 2083 771 m cl s 2101 771 m 18 X s 2119 771 m cl s 2101 771 m 45 Y s 2101 816 m cl s 2101 771 m -47 Y s 2101 724 m cl s 2136 744 m -17 X s 2119 744 m cl s 2136 744 m 18 X s 2154
 744 m cl s 2136 744 m 50 Y s 2136 794 m cl s 2136 744 m -52 Y s 2136 692 m cl s 381 666 417 711 452 829 488 844 524 783 560 771 596 821 632 803 667 803 703 880 739 857 775 875 811 880 847 890 882 936 918 936 954 978 990 990 1026 1011 1062 1041 1097
 1028 1133 1096 1169 1119 1205 1147 1241 1162 1276 1194 1312 1234 1348 1275 1384 1310 1420 1353 1456 1374 1491 1405 1527 1420 1563 1418 1599 1394 1635 1352 1671 1313 1706 1254 1742 1198 1778 1159 1814 1101 1850 1048 1886 1003 1921 936 1957 913 1993
 885 2029 869 2065 793 2101 771 2136 744 50 { m20} R 0.52 0.76 0.64 c[ 4 8] 0 sd 9 lw black 0.52 0.76 0.64 c 363 785 m 36 7 d 35 6 d 36 7 d 36 7 d 36 8 d 36 8 d 36 8 d 35 8 d 36 9 d 36 9 d 36 9 d 36 10 d 36 11 d 35 11 d 36 12 d 36 12 d 36 13 d 36 15
 d 36 15 d 35 17 d 36 18 d 36 20 d 36 22 d 36 25 d 36 29 d 17 16 d 18 18 d 18 19 d 18 21 d 9 11 d 9 13 d 9 13 d 9 14 d 9 15 d 5 7 d 4 9 d 9 16 d 9 15 d 18 27 d 18 24 d 18 19 d 9 8 d 9 6 d 9 6 d 8 5 d 9 4 d 9 3 d 9 2 d 18 X 9 -1 d 9 -3 d 9 -3 d 9 -5 d
 9 -5 d 9 -7 d 9 -7 d 9 -9 d 9 -9 d 36 -49 d 9 -15 d 9 -16 d 9 -16 d 9 -18 d 8 -19 d 9 -20 d 9 -21 d 9 -22 d 9 -23 d 9 -24 d 9 -25 d 9 -26 d 9 -28 d 9 -28 d 18 -59 d 18 -64 d 18 -68 d 36 -147 d 4 -21 d s 0.54 0.66 0.63 c black 0.54 0.66 0.63 c 923
 634 m 13 24 d s 936 658 m 36 62 d 36 58 d 36 54 d 18 26 d 17 25 d 18 24 d 18 22 d 18 22 d 18 21 d 18 20 d 18 19 d 18 18 d 18 17 d 18 16 d 18 15 d 35 27 d 36 24 d 36 19 d 18 8 d 18 8 d 18 6 d 18 6 d 18 4 d 18 3 d 17 3 d 18 2 d 36 X 18 -2 d 18 -2 d 18
 -3 d 18 -4 d 18 -6 d 18 -6 d 18 -7 d 18 -8 d 35 -19 d 36 -23 d 36 -27 d 18 -15 d 18 -16 d 18 -17 d 18 -17 d 18 -19 d 18 -20 d 17 -20 d 18 -22 d 18 -23 d 18 -23 d 18 -25 d 18 -25 d 18 -27 d 18 -27 d 36 -58 d 36 -62 d 16 -30 d s black[  ] 0 sd 3 lw
 363 634 m 1791 X s 363 659 m -25 Y s 437 646 m -12 Y s 512 646 m -12 Y s 587 646 m -12 Y s 661 659 m -25 Y s 736 646 m -12 Y s 811 646 m -12 Y s 885 646 m -12 Y s 960 659 m -25 Y s 1035 646 m -12 Y s 1109 646 m -12 Y s 1184 646 m -12 Y s 1259 659 m
 -25 Y s 1333 646 m -12 Y s 1408 646 m -12 Y s 1483 646 m -12 Y s 1557 659 m -25 Y s 1632 646 m -12 Y s 1706 646 m -12 Y s 1781 646 m -12 Y s 1856 659 m -25 Y s 1930 646 m -12 Y s 2005 646 m -12 Y s 2080 646 m -12 Y s 2154 659 m -25 Y s 363 1484 m
 1791 X s 363 1459 m 25 Y s 437 1471 m 13 Y s 512 1471 m 13 Y s 587 1471 m 13 Y s 661 1459 m 25 Y s 736 1471 m 13 Y s 811 1471 m 13 Y s 885 1471 m 13 Y s 960 1459 m 25 Y s 1035 1471 m 13 Y s 1109 1471 m 13 Y s 1184 1471 m 13 Y s 1259 1459 m 25 Y s
 1333 1471 m 13 Y s 1408 1471 m 13 Y s 1483 1471 m 13 Y s 1557 1459 m 25 Y s 1632 1471 m 13 Y s 1706 1471 m 13 Y s 1781 1471 m 13 Y s 1856 1459 m 25 Y s 1930 1471 m 13 Y s 2005 1471 m 13 Y s 2080 1471 m 13 Y s 2154 1459 m 25 Y s 363 634 m 850 Y s 390
 637 m -27 X s 390 666 m -27 X s 390 691 m -27 X s 390 711 m -27 X s 390 729 m -27 X s 390 744 m -27 X s 417 758 m -54 X s 390 851 m -27 X s 390 904 m -27 X s 390 943 m -27 X s 390 972 m -27 X s 390 997 m -27 X s 390 1017 m -27 X s 390 1035 m -27 X s
 390 1051 m -27 X s 417 1065 m -54 X s 390 1157 m -27 X s 390 1211 m -27 X s 390 1249 m -27 X s 390 1279 m -27 X s 390 1303 m -27 X s 390 1323 m -27 X s 390 1341 m -27 X s 390 1357 m -27 X s 417 1371 m -54 X s 390 1463 m -27 X s 2154 634 m 850 Y s
 2127 637 m 27 X s 2127 666 m 27 X s 2127 691 m 27 X s 2127 711 m 27 X s 2127 729 m 27 X s 2127 744 m 27 X s 2101 758 m 53 X s 2127 851 m 27 X s 2127 904 m 27 X s 2127 943 m 27 X s 2127 972 m 27 X s 2127 997 m 27 X s 2127 1017 m 27 X s 2127 1035 m 27
 X s 2127 1051 m 27 X s 2101 1065 m 53 X s 2127 1157 m 27 X s 2127 1211 m 27 X s 2127 1249 m 27 X s 2127 1279 m 27 X s 2127 1303 m 27 X s 2127 1323 m 27 X s 2127 1341 m 27 X s 2127 1357 m 27 X s 2101 1371 m 53 X s 2127 1463 m 27 X s
 gsave  2268 1077 0 461 C 677.708 1215.31 t 0 r /Helvetica findfont 58.7189 sf 0 0 m (2mu2e) show NC gr  1 1 1 c 453 161 454 1269 bf black
 gsave  2268 1077 0 461 C 566.929 1371.71 t 0 r /Helvetica-Bold findfont 48.9324 sf 0 0 m (MC15) show NC gr  510 1390 m20
 gsave  2268 1077 0 461 C 566.929 1293.51 t 0 r /Helvetica-Bold findfont 48.9324 sf 0 0 m (Projection of Signal pdf) show NC gr  0 0 1 c 9 lw 471 1309 m 79 X s black 3 lw 1 1 1 c 2268 461 0 0 bf black 1 1 1 c 1791 364 363 74 bf black 1791 364 363 74
 bl 363 74 m 1791 X s
 gsave  2268 461 0 0 C 1915.83 13.0329 t 0 r /Helvetica findfont 22.9045 sf 0 0 m (4l Invariant Mass \(GeV\)) show NC gr  363 85 m -11 Y s 437 79 m -5 Y s 512 79 m -5 Y s 587 79 m -5 Y s 661 85 m -11 Y s 736 79 m -5 Y s 811 79 m -5 Y s 885 79 m -5 Y
 s 960 85 m -11 Y s 1035 79 m -5 Y s 1109 79 m -5 Y s 1184 79 m -5 Y s 1259 85 m -11 Y s 1333 79 m -5 Y s 1408 79 m -5 Y s 1483 79 m -5 Y s 1557 85 m -11 Y s 1632 79 m -5 Y s 1706 79 m -5 Y s 1781 79 m -5 Y s 1856 85 m -11 Y s 1930 79 m -5 Y s 2005
 79 m -5 Y s 2080 79 m -5 Y s 2154 85 m -11 Y s
 gsave  2268 461 0 0 C 342.112 55.3896 t 0 r /Helvetica findfont 22.9045 sf 0 0 m (520) show NC gr 
 gsave  2268 461 0 0 C 641.868 55.3896 t 0 r /Helvetica findfont 22.9045 sf 0 0 m (540) show NC gr 
 gsave  2268 461 0 0 C 938.365 55.3896 t 0 r /Helvetica findfont 22.9045 sf 0 0 m (560) show NC gr 
 gsave  2268 461 0 0 C 1238.12 55.3896 t 0 r /Helvetica findfont 22.9045 sf 0 0 m (580) show NC gr 
 gsave  2268 461 0 0 C 1534.62 55.3896 t 0 r /Helvetica findfont 22.9045 sf 0 0 m (600) show NC gr 
 gsave  2268 461 0 0 C 1834.37 55.3896 t 0 r /Helvetica findfont 22.9045 sf 0 0 m (620) show NC gr 
 gsave  2268 461 0 0 C 2134.13 55.3896 t 0 r /Helvetica findfont 22.9045 sf 0 0 m (640) show NC gr  363 438 m 1791 X s 363 427 m 11 Y s 437 433 m 5 Y s 512 433 m 5 Y s 587 433 m 5 Y s 661 427 m 11 Y s 736 433 m 5 Y s 811 433 m 5 Y s 885 433 m 5 Y s
 960 427 m 11 Y s 1035 433 m 5 Y s 1109 433 m 5 Y s 1184 433 m 5 Y s 1259 427 m 11 Y s 1333 433 m 5 Y s 1408 433 m 5 Y s 1483 433 m 5 Y s 1557 427 m 11 Y s 1632 433 m 5 Y s 1706 433 m 5 Y s 1781 433 m 5 Y s 1856 427 m 11 Y s 1930 433 m 5 Y s 2005 433
 m 5 Y s 2080 433 m 5 Y s 2154 427 m 11 Y s 363 74 m 364 Y s 417 74 m -54 X s 390 81 m -27 X s 390 88 m -27 X s 390 96 m -27 X s 390 103 m -27 X s 417 110 m -54 X s 390 118 m -27 X s 390 125 m -27 X s 390 132 m -27 X s 390 139 m -27 X s 417 147 m -54
 X s 390 154 m -27 X s 390 161 m -27 X s 390 169 m -27 X s 390 176 m -27 X s 417 183 m -54 X s 390 190 m -27 X s 390 198 m -27 X s 390 205 m -27 X s 390 212 m -27 X s 417 220 m -54 X s 390 227 m -27 X s 390 234 m -27 X s 390 241 m -27 X s 390 249 m
 -27 X s 417 256 m -54 X s 390 263 m -27 X s 390 271 m -27 X s 390 278 m -27 X s 390 285 m -27 X s 417 293 m -54 X s 390 300 m -27 X s 390 307 m -27 X s 390 314 m -27 X s 390 322 m -27 X s 417 329 m -54 X s 390 336 m -27 X s 390 344 m -27 X s 390 351
 m -27 X s 390 358 m -27 X s 417 365 m -54 X s 390 373 m -27 X s 390 380 m -27 X s 390 387 m -27 X s 390 395 m -27 X s 417 402 m -54 X s 390 409 m -27 X s 390 416 m -27 X s 390 424 m -27 X s 390 431 m -27 X s 417 438 m -54 X s
 gsave  2268 461 0 0 C 329.08 65.1643 t 0 r /Helvetica findfont 22.9045 sf 0 0 m (\2555) show NC gr 
 gsave  2268 461 0 0 C 329.08 101.005 t 0 r /Helvetica findfont 22.9045 sf 0 0 m (\2554) show NC gr 
 gsave  2268 461 0 0 C 329.08 140.103 t 0 r /Helvetica findfont 22.9045 sf 0 0 m (\2553) show NC gr 
 gsave  2268 461 0 0 C 329.08 175.944 t 0 r /Helvetica findfont 22.9045 sf 0 0 m (\2552) show NC gr 
 gsave  2268 461 0 0 C 332.338 211.784 t 0 r /Helvetica findfont 22.9045 sf 0 0 m (\2551) show NC gr 
 gsave  2268 461 0 0 C 335.596 247.624 t 0 r /Helvetica findfont 22.9045 sf 0 0 m (0) show NC gr 
 gsave  2268 461 0 0 C 338.854 283.465 t 0 r /Helvetica findfont 22.9045 sf 0 0 m (1) show NC gr 
 gsave  2268 461 0 0 C 335.596 319.305 t 0 r /Helvetica findfont 22.9045 sf 0 0 m (2) show NC gr 
 gsave  2268 461 0 0 C 335.596 358.403 t 0 r /Helvetica findfont 22.9045 sf 0 0 m (3) show NC gr 
 gsave  2268 461 0 0 C 335.596 394.244 t 0 r /Helvetica findfont 22.9045 sf 0 0 m (4) show NC gr 
 gsave  2268 461 0 0 C 335.596 430.084 t 0 r /Helvetica findfont 22.9045 sf 0 0 m (5) show NC gr  2154 74 m 364 Y s 2101 74 m 53 X s 2127 81 m 27 X s 2127 88 m 27 X s 2127 96 m 27 X s 2127 103 m 27 X s 2101 110 m 53 X s 2127 118 m 27 X s 2127 125 m
 27 X s 2127 132 m 27 X s 2127 139 m 27 X s 2101 147 m 53 X s 2127 154 m 27 X s 2127 161 m 27 X s 2127 169 m 27 X s 2127 176 m 27 X s 2101 183 m 53 X s 2127 190 m 27 X s 2127 198 m 27 X s 2127 205 m 27 X s 2127 212 m 27 X s 2101 220 m 53 X s 2127 227
 m 27 X s 2127 234 m 27 X s 2127 241 m 27 X s 2127 249 m 27 X s 2101 256 m 53 X s 2127 263 m 27 X s 2127 271 m 27 X s 2127 278 m 27 X s 2127 285 m 27 X s 2101 293 m 53 X s 2127 300 m 27 X s 2127 307 m 27 X s 2127 314 m 27 X s 2127 322 m 27 X s 2101
 329 m 53 X s 2127 336 m 27 X s 2127 344 m 27 X s 2127 351 m 27 X s 2127 358 m 27 X s 2101 365 m 53 X s 2127 373 m 27 X s 2127 380 m 27 X s 2127 387 m 27 X s 2127 395 m 27 X s 2101 402 m 53 X s 2127 409 m 27 X s 2127 416 m 27 X s 2127 424 m 27 X s
 2127 431 m 27 X s 2101 438 m 53 X s 6 lw 0.2 0.8 0.2 c black 3 lw 0.2 0.8 0.2 c 363 256 m -81 Y 36 X 21 Y 35 X 88 Y 36 X 9 Y 36 X -65 Y 36 X -16 Y 36 X 34 Y 36 X -24 Y 35 X -9 Y 36 X 71 Y 36 X -39 Y 36 X 7 Y 36 X -8 Y 36 X -4 Y 35 X 44 Y 36 X -26 Y
 36 X 41 Y 36 X -14 Y 36 X -2 Y 36 X 13 Y 35 X -95 Y 36 X 105 Y 36 X -14 Y 36 X -2 Y 36 X -53 Y 36 X 5 Y 35 X 41 Y 36 X 39 Y 36 X -47 Y 36 X -25 Y 36 X -128 Y 36 X 78 Y 35 X 78 Y 36 X 39 Y 36 X -38 Y 36 X -67 Y 36 X 43 Y 36 X -30 Y 35 X 15 Y 36 X 69
 Y 36 X -25 Y 36 X -23 Y 36 X -5 Y 36 X -37 Y 35 X 36 Y 36 X 27 Y 36 X 34 Y 36 X -29 Y 36 X 21 Y 36 X 10 Y 35 X -62 Y f 6 lw black 0.2 0.8 0.2 c black 363 175 m 36 X 21 Y 35 X 88 Y 36 X 9 Y 36 X -65 Y 36 X -16 Y 36 X 34 Y 36 X -24 Y 35 X -9 Y 36 X 71
 Y 36 X -39 Y 36 X 7 Y 36 X -8 Y 36 X -4 Y 35 X 44 Y 36 X -26 Y 36 X 41 Y 36 X -14 Y 36 X -2 Y 36 X 13 Y 35 X -95 Y 36 X 105 Y 36 X -14 Y 36 X -2 Y 36 X -53 Y 36 X 5 Y 35 X 41 Y 36 X 39 Y 36 X -47 Y 36 X -25 Y 36 X -128 Y 36 X 78 Y 35 X 78 Y 36 X 39
 Y 36 X -38 Y 36 X -67 Y 36 X 43 Y 36 X -30 Y 35 X 15 Y 36 X 69 Y 36 X -25 Y 36 X -23 Y 36 X -5 Y 36 X -37 Y 35 X 36 Y 36 X 27 Y 36 X 34 Y 36 X -29 Y 36 X 21 Y 36 X 10 Y 35 X s 3 lw 363 74 m 1791 X s 363 85 m -11 Y s 437 79 m -5 Y s 512 79 m -5 Y s
 587 79 m -5 Y s 661 85 m -11 Y s 736 79 m -5 Y s 811 79 m -5 Y s 885 79 m -5 Y s 960 85 m -11 Y s 1035 79 m -5 Y s 1109 79 m -5 Y s 1184 79 m -5 Y s 1259 85 m -11 Y s 1333 79 m -5 Y s 1408 79 m -5 Y s 1483 79 m -5 Y s 1557 85 m -11 Y s 1632 79 m -5
 Y s 1706 79 m -5 Y s 1781 79 m -5 Y s 1856 85 m -11 Y s 1930 79 m -5 Y s 2005 79 m -5 Y s 2080 79 m -5 Y s 2154 85 m -11 Y s 363 438 m 1791 X s 363 427 m 11 Y s 437 433 m 5 Y s 512 433 m 5 Y s 587 433 m 5 Y s 661 427 m 11 Y s 736 433 m 5 Y s 811 433
 m 5 Y s 885 433 m 5 Y s 960 427 m 11 Y s 1035 433 m 5 Y s 1109 433 m 5 Y s 1184 433 m 5 Y s 1259 427 m 11 Y s 1333 433 m 5 Y s 1408 433 m 5 Y s 1483 433 m 5 Y s 1557 427 m 11 Y s 1632 433 m 5 Y s 1706 433 m 5 Y s 1781 433 m 5 Y s 1856 427 m 11 Y s
 1930 433 m 5 Y s 2005 433 m 5 Y s 2080 433 m 5 Y s 2154 427 m 11 Y s 363 74 m 364 Y s 417 74 m -54 X s 390 81 m -27 X s 390 88 m -27 X s 390 96 m -27 X s 390 103 m -27 X s 417 110 m -54 X s 390 118 m -27 X s 390 125 m -27 X s 390 132 m -27 X s 390
 139 m -27 X s 417 147 m -54 X s 390 154 m -27 X s 390 161 m -27 X s 390 169 m -27 X s 390 176 m -27 X s 417 183 m -54 X s 390 190 m -27 X s 390 198 m -27 X s 390 205 m -27 X s 390 212 m -27 X s 417 220 m -54 X s 390 227 m -27 X s 390 234 m -27 X s
 390 241 m -27 X s 390 249 m -27 X s 417 256 m -54 X s 390 263 m -27 X s 390 271 m -27 X s 390 278 m -27 X s 390 285 m -27 X s 417 293 m -54 X s 390 300 m -27 X s 390 307 m -27 X s 390 314 m -27 X s 390 322 m -27 X s 417 329 m -54 X s 390 336 m -27 X
 s 390 344 m -27 X s 390 351 m -27 X s 390 358 m -27 X s 417 365 m -54 X s 390 373 m -27 X s 390 380 m -27 X s 390 387 m -27 X s 390 395 m -27 X s 417 402 m -54 X s 390 409 m -27 X s 390 416 m -27 X s 390 424 m -27 X s 390 431 m -27 X s 417 438 m -54
 X s 2154 74 m 364 Y s 2101 74 m 53 X s 2127 81 m 27 X s 2127 88 m 27 X s 2127 96 m 27 X s 2127 103 m 27 X s 2101 110 m 53 X s 2127 118 m 27 X s 2127 125 m 27 X s 2127 132 m 27 X s 2127 139 m 27 X s 2101 147 m 53 X s 2127 154 m 27 X s 2127 161 m 27 X
 s 2127 169 m 27 X s 2127 176 m 27 X s 2101 183 m 53 X s 2127 190 m 27 X s 2127 198 m 27 X s 2127 205 m 27 X s 2127 212 m 27 X s 2101 220 m 53 X s 2127 227 m 27 X s 2127 234 m 27 X s 2127 241 m 27 X s 2127 249 m 27 X s 2101 256 m 53 X s 2127 263 m 27
 X s 2127 271 m 27 X s 2127 278 m 27 X s 2127 285 m 27 X s 2101 293 m 53 X s 2127 300 m 27 X s 2127 307 m 27 X s 2127 314 m 27 X s 2127 322 m 27 X s 2101 329 m 53 X s 2127 336 m 27 X s 2127 344 m 27 X s 2127 351 m 27 X s 2127 358 m 27 X s 2101 365 m
 53 X s 2127 373 m 27 X s 2127 380 m 27 X s 2127 387 m 27 X s 2127 395 m 27 X s 2101 402 m 53 X s 2127 409 m 27 X s 2127 416 m 27 X s 2127 424 m 27 X s 2127 431 m 27 X s 2101 438 m 53 X s
 gr  gr showpage
end
%%EOF
