%!PS-Adobe-2.0 EPSF-2.0
%%BoundingBox:  0 0 567 384
%%Title: H4l2015_plotfit/gg_mass_signal_1000_H4l_2mu2e.eps: 
%%Creator: ROOT Version 5.34/10
%%CreationDate: Thu Feb 16 15:47:29 2017
%%EndComments
%%BeginProlog
80 dict begin
/s {stroke} def /l {lineto} def /m {moveto} def /t {translate} def
/r {rotate} def /rl {roll}  def /R {repeat} def
/d {rlineto} def /rm {rmoveto} def /gr {grestore} def /f {eofill} def
/c {setrgbcolor} def /black {0 setgray} def /sd {setdash} def
/cl {closepath} def /sf {scalefont setfont} def /lw {setlinewidth} def
/box {m dup 0 exch d exch 0 d 0 exch neg d cl} def
/NC{systemdict begin initclip end}def/C{NC box clip newpath}def
/bl {box s} def /bf {box f} def /Y { 0 exch d} def /X { 0 d} def 
/K {{pop pop 0 moveto} exch kshow} bind def
/ita {/ang 15 def gsave [1 0 ang dup sin exch cos div 1 0 0] concat} def 
/mp {newpath /y exch def /x exch def} def
/side {[w .77 mul w .23 mul] .385 w mul sd w 0 l currentpoint t -144 r} def
/mr {mp x y w2 0 360 arc} def /m24 {mr s} def /m20 {mr f} def
/mb {mp x y w2 add m w2 neg 0 d 0 w neg d w 0 d 0 w d cl} def
/mt {mp x y w2 add m w2 neg w neg d w 0 d cl} def
/m21 {mb f} def /m25 {mb s} def /m22 {mt f} def /m26{mt s} def
/m23 {mp x y w2 sub m w2 w d w neg 0 d cl f} def
/m27 {mp x y w2 add m w3 neg w2 neg d w3 w2 neg d w3 w2 d cl s} def
/m28 {mp x w2 sub y w2 sub w3 add m w3 0 d  0 w3 neg d w3 0 d 0 w3 d w3 0 d  0 w3 d w3 neg 0 d 0 w3 d w3 neg 0 d 0 w3 neg d w3 neg 0 d cl s } def
/m29 {mp gsave x w2 sub y w2 add w3 sub m currentpoint t 4 {side} repeat cl fill gr} def
/m30 {mp gsave x w2 sub y w2 add w3 sub m currentpoint t 4 {side} repeat cl s gr} def
/m31 {mp x y w2 sub m 0 w d x w2 sub y m w 0 d x w2 sub y w2 add m w w neg d x w2 sub y w2 sub m w w d s} def
/m32 {mp x y w2 sub m w2 w d w neg 0 d cl s} def
/m33 {mp x y w2 add m w3 neg w2 neg d w3 w2 neg d w3 w2 d cl f} def
/m34 {mp x w2 sub y w2 sub w3 add m w3 0 d  0 w3 neg d w3 0 d 0 w3 d w3 0 d  0 w3 d w3 neg 0 d 0 w3 d w3 neg 0 d 0 w3 neg d w3 neg 0 d cl f } def
/m2 {mp x y w2 sub m 0 w d x w2 sub y m w 0 d s} def
/m5 {mp x w2 sub y w2 sub m w w d x w2 sub y w2 add m w w neg d s} def
/reEncode {exch findfont dup length dict begin {1 index /FID eq  {pop pop} {def} ifelse } forall /Encoding exch def currentdict end dup /FontName get exch definefont pop } def [/Times-Bold /Times-Italic /Times-BoldItalic /Helvetica /Helvetica-Oblique
 /Helvetica-Bold /Helvetica-BoldOblique /Courier /Courier-Oblique /Courier-Bold /Courier-BoldOblique /Times-Roman /AvantGarde-Book /AvantGarde-BookOblique /AvantGarde-Demi /AvantGarde-DemiOblique /Bookman-Demi /Bookman-DemiItalic /Bookman-Light
 /Bookman-LightItalic /Helvetica-Narrow /Helvetica-Narrow-Bold /Helvetica-Narrow-BoldOblique /Helvetica-Narrow-Oblique /NewCenturySchlbk-Roman /NewCenturySchlbk-Bold /NewCenturySchlbk-BoldItalic /NewCenturySchlbk-Italic /Palatino-Bold
 /Palatino-BoldItalic /Palatino-Italic /Palatino-Roman ] {ISOLatin1Encoding reEncode } forall
%%EndProlog
%%BeginSetup
%%EndSetup
newpath  gsave  .25 .25 scale  gsave  0 0 t black[  ] 0 sd 3 lw 1 1 1 c 2268 1538 0 0 bf black 1 1 1 c 2222 738 23 784 bf black 1 1 1 c 2222 739 23 15 bf black 1 1 1 c 2268 1077 0 461 bf black 1 1 1 c 1791 850 363 634 bf black 1791 850 363 634 bl 363
 634 m 1791 X s
 gsave  2268 1077 0 461 C 1642.14 498.507 t 0 r /Helvetica findfont 48.9324 sf 0 0 m (4l Invariant Mass \(GeV\)) show NC gr  469 659 m -25 Y s 514 646 m -12 Y s 558 646 m -12 Y s 602 646 m -12 Y s 647 659 m -25 Y s 691 646 m -12 Y s 735 646 m -12 Y s
 780 646 m -12 Y s 824 659 m -25 Y s 868 646 m -12 Y s 913 646 m -12 Y s 957 646 m -12 Y s 1001 659 m -25 Y s 1046 646 m -12 Y s 1090 646 m -12 Y s 1134 646 m -12 Y s 1179 659 m -25 Y s 1223 646 m -12 Y s 1267 646 m -12 Y s 1312 646 m -12 Y s 1356
 659 m -25 Y s 1400 646 m -12 Y s 1445 646 m -12 Y s 1489 646 m -12 Y s 1534 659 m -25 Y s 1578 646 m -12 Y s 1622 646 m -12 Y s 1667 646 m -12 Y s 1711 659 m -25 Y s 1755 646 m -12 Y s 1800 646 m -12 Y s 1844 646 m -12 Y s 1888 659 m -25 Y s 1933
 646 m -12 Y s 1977 646 m -12 Y s 2021 646 m -12 Y s 2066 659 m -25 Y s 469 659 m -25 Y s 425 646 m -12 Y s 381 646 m -12 Y s 2066 659 m -25 Y s 2110 646 m -12 Y s 2154 646 m -12 Y s
 gsave  2268 1077 0 461 C 426.826 586.478 t 0 r /Helvetica findfont 48.9324 sf 0 0 m (880) show NC gr 
 gsave  2268 1077 0 461 C 602.769 586.478 t 0 r /Helvetica findfont 48.9324 sf 0 0 m (900) show NC gr 
 gsave  2268 1077 0 461 C 778.713 586.478 t 0 r /Helvetica findfont 48.9324 sf 0 0 m (920) show NC gr 
 gsave  2268 1077 0 461 C 957.915 586.478 t 0 r /Helvetica findfont 48.9324 sf 0 0 m (940) show NC gr 
 gsave  2268 1077 0 461 C 1133.86 586.478 t 0 r /Helvetica findfont 48.9324 sf 0 0 m (960) show NC gr 
 gsave  2268 1077 0 461 C 1313.06 586.478 t 0 r /Helvetica findfont 48.9324 sf 0 0 m (980) show NC gr 
 gsave  2268 1077 0 461 C 1475.97 586.478 t 0 r /Helvetica findfont 48.9324 sf 0 0 m (1000) show NC gr 
 gsave  2268 1077 0 461 C 1655.17 586.478 t 0 r /Helvetica findfont 48.9324 sf 0 0 m (1020) show NC gr 
 gsave  2268 1077 0 461 C 1831.12 586.478 t 0 r /Helvetica findfont 48.9324 sf 0 0 m (1040) show NC gr 
 gsave  2268 1077 0 461 C 2007.06 586.478 t 0 r /Helvetica findfont 48.9324 sf 0 0 m (1060) show NC gr  363 1484 m 1791 X s 469 1459 m 25 Y s 514 1471 m 13 Y s 558 1471 m 13 Y s 602 1471 m 13 Y s 647 1459 m 25 Y s 691 1471 m 13 Y s 735 1471 m 13 Y s
 780 1471 m 13 Y s 824 1459 m 25 Y s 868 1471 m 13 Y s 913 1471 m 13 Y s 957 1471 m 13 Y s 1001 1459 m 25 Y s 1046 1471 m 13 Y s 1090 1471 m 13 Y s 1134 1471 m 13 Y s 1179 1459 m 25 Y s 1223 1471 m 13 Y s 1267 1471 m 13 Y s 1312 1471 m 13 Y s 1356
 1459 m 25 Y s 1400 1471 m 13 Y s 1445 1471 m 13 Y s 1489 1471 m 13 Y s 1534 1459 m 25 Y s 1578 1471 m 13 Y s 1622 1471 m 13 Y s 1667 1471 m 13 Y s 1711 1459 m 25 Y s 1755 1471 m 13 Y s 1800 1471 m 13 Y s 1844 1471 m 13 Y s 1888 1459 m 25 Y s 1933
 1471 m 13 Y s 1977 1471 m 13 Y s 2021 1471 m 13 Y s 2066 1459 m 25 Y s 469 1459 m 25 Y s 425 1471 m 13 Y s 381 1471 m 13 Y s 2066 1459 m 25 Y s 2110 1471 m 13 Y s 2154 1471 m 13 Y s 363 634 m 850 Y s
 gsave  2268 1077 0 461 C 120.554 1032.85 t 90 r /Helvetica findfont 48.9324 sf 0 0 m (Events / \( 4.04 GeV \)) show NC gr  390 662 m -27 X s 390 686 m -27 X s 390 707 m -27 X s 390 724 m -27 X s 390 740 m -27 X s 417 754 m -54 X s
 gsave  2268 1077 0 461 C 342.425 733.107 t 0 r  -55 0 t /Helvetica findfont 48.9324 sf 0 0 m (10) show NC gr  390 846 m -27 X s 390 900 m -27 X s 390 938 m -27 X s 390 968 m -27 X s 390 992 m -27 X s 390 1013 m -27 X s 390 1030 m -27 X s 390 1046 m
 -27 X s 417 1060 m -54 X s
 gsave  2268 1077 0 461 C 322.563 1058.92 t 0 r /Helvetica findfont 32.6216 sf 0 0 m (2) show NC gr 
 gsave  2268 1077 0 461 C 270.432 1039.37 t 0 r /Helvetica findfont 48.9324 sf 0 0 m (10) show NC gr  390 1152 m -27 X s 390 1206 m -27 X s 390 1244 m -27 X s 390 1274 m -27 X s 390 1298 m -27 X s 390 1319 m -27 X s 390 1337 m -27 X s 390 1352 m -27
 X s 417 1366 m -54 X s
 gsave  2268 1077 0 461 C 322.563 1368.45 t 0 r /Helvetica findfont 32.6216 sf 0 0 m (3) show NC gr 
 gsave  2268 1077 0 461 C 270.432 1345.64 t 0 r /Helvetica findfont 48.9324 sf 0 0 m (10) show NC gr  390 1458 m -27 X s 2154 634 m 850 Y s 2127 662 m 27 X s 2127 686 m 27 X s 2127 707 m 27 X s 2127 724 m 27 X s 2127 740 m 27 X s 2101 754 m 53 X s
 2127 846 m 27 X s 2127 900 m 27 X s 2127 938 m 27 X s 2127 968 m 27 X s 2127 992 m 27 X s 2127 1013 m 27 X s 2127 1030 m 27 X s 2127 1046 m 27 X s 2101 1060 m 53 X s 2127 1152 m 27 X s 2127 1206 m 27 X s 2127 1244 m 27 X s 2127 1274 m 27 X s 2127
 1298 m 27 X s 2127 1319 m 27 X s 2127 1337 m 27 X s 2127 1352 m 27 X s 2101 1366 m 53 X s 2127 1458 m 27 X s 381 767 m -18 X s 363 767 m cl s 381 767 m 18 X s 399 767 m cl s 381 767 m 45 Y s 381 812 m cl s 381 767 m -47 Y s 381 720 m cl s 417 839 m
 -18 X s 399 839 m cl s 417 839 m 17 X s 434 839 m cl s 417 839 m 34 Y s 417 873 m cl s 417 839 m -34 Y s 417 805 m cl s 452 881 m -18 X s 434 881 m cl s 452 881 m 18 X s 470 881 m cl s 452 881 m 28 Y s 452 909 m cl s 452 881 m -29 Y s 452 852 m cl s
 488 808 m -18 X s 470 808 m cl s 488 808 m 18 X s 506 808 m cl s 488 808 m 38 Y s 488 846 m cl s 488 808 m -39 Y s 488 769 m cl s 524 778 m -18 X s 506 778 m cl s 524 778 m 18 X s 542 778 m cl s 524 778 m 43 Y s 524 821 m cl s 524 778 m -44 Y s 524
 734 m cl s 560 870 m -18 X s 542 870 m cl s 560 870 m 18 X s 578 870 m cl s 560 870 m 30 Y s 560 900 m cl s 560 870 m -30 Y s 560 840 m cl s 596 859 m -18 X s 578 859 m cl s 596 859 m 18 X s 614 859 m cl s 596 859 m 31 Y s 596 890 m cl s 596 859 m
 -32 Y s 596 827 m cl s 632 900 m -18 X s 614 900 m cl s 632 900 m 17 X s 649 900 m cl s 632 900 m 26 Y s 632 926 m cl s 632 900 m -27 Y s 632 873 m cl s 667 825 m -18 X s 649 825 m cl s 667 825 m 18 X s 685 825 m cl s 667 825 m 35 Y s 667 860 m cl s
 667 825 m -37 Y s 667 788 m cl s 703 931 m -18 X s 685 931 m cl s 703 931 m 18 X s 721 931 m cl s 703 931 m 24 Y s 703 955 m cl s 703 931 m -23 Y s 703 908 m cl s 739 904 m -18 X s 721 904 m cl s 739 904 m 18 X s 757 904 m cl s 739 904 m 26 Y s 739
 930 m cl s 739 904 m -26 Y s 739 878 m cl s 775 938 m -18 X s 757 938 m cl s 775 938 m 18 X s 793 938 m cl s 775 938 m 23 Y s 775 961 m cl s 775 938 m -23 Y s 775 915 m cl s 811 945 m -18 X s 793 945 m cl s 811 945 m 18 X s 829 945 m cl s 811 945 m
 22 Y s 811 967 m cl s 811 945 m -22 Y s 811 923 m cl s 847 924 m -18 X s 829 924 m cl s 847 924 m 17 X s 864 924 m cl s 847 924 m 24 Y s 847 948 m cl s 847 924 m -24 Y s 847 900 m cl s 882 1001 m -18 X s 864 1001 m cl s 882 1001 m 18 X s 900 1001 m
 cl s 882 1001 m 17 Y s 882 1018 m cl s 882 1001 m -18 Y s 882 983 m cl s 918 978 m -18 X s 900 978 m cl s 918 978 m 18 X s 936 978 m cl s 918 978 m 19 Y s 918 997 m cl s 918 978 m -19 Y s 918 959 m cl s 954 1024 m -18 X s 936 1024 m cl s 954 1024 m
 18 X s 972 1024 m cl s 954 1024 m 16 Y s 954 1040 m cl s 954 1024 m -17 Y s 954 1007 m cl s 990 1009 m -18 X s 972 1009 m cl s 990 1009 m 18 X s 1008 1009 m cl s 990 1009 m 17 Y s 990 1026 m cl s 990 1009 m -17 Y s 990 992 m cl s 1026 1053 m -18 X s
 1008 1053 m cl s 1026 1053 m 18 X s 1044 1053 m cl s 1026 1053 m 15 Y s 1026 1068 m cl s 1026 1053 m -14 Y s 1026 1039 m cl s 1062 1055 m -18 X s 1044 1055 m cl s 1062 1055 m 17 X s 1079 1055 m cl s 1062 1055 m 14 Y s 1062 1069 m cl s 1062 1055 m
 -15 Y s 1062 1040 m cl s 1097 1107 m -18 X s 1079 1107 m cl s 1097 1107 m 18 X s 1115 1107 m cl s 1097 1107 m 11 Y s 1097 1118 m cl s 1097 1107 m -11 Y s 1097 1096 m cl s 1133 1117 m -18 X s 1115 1117 m cl s 1133 1117 m 18 X s 1151 1117 m cl s 1133
 1117 m 10 Y s 1133 1127 m cl s 1133 1117 m -11 Y s 1133 1106 m cl s 1169 1137 m -18 X s 1151 1137 m cl s 1169 1137 m 18 X s 1187 1137 m cl s 1169 1137 m 10 Y s 1169 1147 m cl s 1169 1137 m -10 Y s 1169 1127 m cl s 1205 1162 m -18 X s 1187 1162 m cl
 s 1205 1162 m 18 X s 1223 1162 m cl s 1205 1162 m 9 Y s 1205 1171 m cl s 1205 1162 m -9 Y s 1205 1153 m cl s 1241 1193 m -18 X s 1223 1193 m cl s 1241 1193 m 18 X s 1259 1193 m cl s 1241 1193 m 8 Y s 1241 1201 m cl s 1241 1193 m -8 Y s 1241 1185 m
 cl s 1276 1225 m -17 X s 1259 1225 m cl s 1276 1225 m 18 X s 1294 1225 m cl s 1276 1225 m 7 Y s 1276 1232 m cl s 1276 1225 m -7 Y s 1276 1218 m cl s 1312 1262 m -18 X s 1294 1262 m cl s 1312 1262 m 18 X s 1330 1262 m cl s 1312 1262 m 6 Y s 1312 1268
 m cl s 1312 1262 m -6 Y s 1312 1256 m cl s 1348 1291 m -18 X s 1330 1291 m cl s 1348 1291 m 18 X s 1366 1291 m cl s 1348 1291 m 5 Y s 1348 1296 m cl s 1348 1291 m -6 Y s 1348 1285 m cl s 1384 1327 m -18 X s 1366 1327 m cl s 1384 1327 m 18 X s 1402
 1327 m cl s 1384 1327 m 4 Y s 1384 1331 m cl s 1384 1327 m -5 Y s 1384 1322 m cl s 1420 1368 m -18 X s 1402 1368 m cl s 1420 1368 m 18 X s 1438 1368 m cl s 1420 1368 m 5 Y s 1420 1373 m cl s 1420 1368 m -4 Y s 1420 1364 m cl s 1456 1399 m -18 X s
 1438 1399 m cl s 1456 1399 m 18 X s 1474 1399 m cl s 1456 1399 m 4 Y s 1456 1403 m cl s 1456 1399 m -4 Y s 1456 1395 m cl s 1491 1411 m -17 X s 1474 1411 m cl s 1491 1411 m 18 X s 1509 1411 m cl s 1491 1411 m 4 Y s 1491 1415 m cl s 1491 1411 m -3 Y
 s 1491 1408 m cl s 1527 1418 m -18 X s 1509 1418 m cl s 1527 1418 m 18 X s 1545 1418 m cl s 1527 1418 m 3 Y s 1527 1421 m cl s 1527 1418 m -4 Y s 1527 1414 m cl s 1563 1408 m -18 X s 1545 1408 m cl s 1563 1408 m 18 X s 1581 1408 m cl s 1563 1408 m 3
 Y s 1563 1411 m cl s 1563 1408 m -4 Y s 1563 1404 m cl s 1599 1380 m -18 X s 1581 1380 m cl s 1599 1380 m 18 X s 1617 1380 m cl s 1599 1380 m 4 Y s 1599 1384 m cl s 1599 1380 m -4 Y s 1599 1376 m cl s 1635 1336 m -18 X s 1617 1336 m cl s 1635 1336 m
 18 X s 1653 1336 m cl s 1635 1336 m 5 Y s 1635 1341 m cl s 1635 1336 m -5 Y s 1635 1331 m cl s 1671 1285 m -18 X s 1653 1285 m cl s 1671 1285 m 18 X s 1689 1285 m cl s 1671 1285 m 6 Y s 1671 1291 m cl s 1671 1285 m -6 Y s 1671 1279 m cl s 1706 1229
 m -17 X s 1689 1229 m cl s 1706 1229 m 18 X s 1724 1229 m cl s 1706 1229 m 7 Y s 1706 1236 m cl s 1706 1229 m -8 Y s 1706 1221 m cl s 1742 1189 m -18 X s 1724 1189 m cl s 1742 1189 m 18 X s 1760 1189 m cl s 1742 1189 m 8 Y s 1742 1197 m cl s 1742
 1189 m -8 Y s 1742 1181 m cl s 1778 1147 m -18 X s 1760 1147 m cl s 1778 1147 m 18 X s 1796 1147 m cl s 1778 1147 m 9 Y s 1778 1156 m cl s 1778 1147 m -10 Y s 1778 1137 m cl s 1814 1103 m -18 X s 1796 1103 m cl s 1814 1103 m 18 X s 1832 1103 m cl s
 1814 1103 m 11 Y s 1814 1114 m cl s 1814 1103 m -11 Y s 1814 1092 m cl s 1850 1075 m -18 X s 1832 1075 m cl s 1850 1075 m 18 X s 1868 1075 m cl s 1850 1075 m 13 Y s 1850 1088 m cl s 1850 1075 m -12 Y s 1850 1063 m cl s 1886 1020 m -18 X s 1868 1020
 m cl s 1886 1020 m 18 X s 1904 1020 m cl s 1886 1020 m 16 Y s 1886 1036 m cl s 1886 1020 m -16 Y s 1886 1004 m cl s 1921 992 m -17 X s 1904 992 m cl s 1921 992 m 18 X s 1939 992 m cl s 1921 992 m 18 Y s 1921 1010 m cl s 1921 992 m -18 Y s 1921 974 m
 cl s 1957 954 m -18 X s 1939 954 m cl s 1957 954 m 18 X s 1975 954 m cl s 1957 954 m 21 Y s 1957 975 m cl s 1957 954 m -21 Y s 1957 933 m cl s 1993 942 m -18 X s 1975 942 m cl s 1993 942 m 18 X s 2011 942 m cl s 1993 942 m 22 Y s 1993 964 m cl s
 1993 942 m -23 Y s 1993 919 m cl s 2029 909 m -18 X s 2011 909 m cl s 2029 909 m 18 X s 2047 909 m cl s 2029 909 m 25 Y s 2029 934 m cl s 2029 909 m -26 Y s 2029 883 m cl s 2065 870 m -18 X s 2047 870 m cl s 2065 870 m 18 X s 2083 870 m cl s 2065
 870 m 30 Y s 2065 900 m cl s 2065 870 m -30 Y s 2065 840 m cl s 2101 846 m -18 X s 2083 846 m cl s 2101 846 m 18 X s 2119 846 m cl s 2101 846 m 33 Y s 2101 879 m cl s 2101 846 m -33 Y s 2101 813 m cl s 2136 816 m -17 X s 2119 816 m cl s 2136 816 m
 18 X s 2154 816 m cl s 2136 816 m 37 Y s 2136 853 m cl s 2136 816 m -37 Y s 2136 779 m cl s /w 31 def /w2 {w 2 div} def /w3 {w 3 div} def 381 767 417 839 452 881 488 808 524 778 560 870 596 859 632 900 667 825 703 931 739 904 775 938 811 945 847 924
 882 1001 918 978 954 1024 990 1009 1026 1053 1062 1055 1097 1107 1133 1117 1169 1137 1205 1162 1241 1193 1276 1225 1312 1262 1348 1291 1384 1327 1420 1368 1456 1399 1491 1411 1527 1418 1563 1408 1599 1380 1635 1336 1671 1285 1706 1229 1742 1189 1778
 1147 1814 1103 1850 1075 1886 1020 1921 992 1957 954 1993 942 2029 909 2065 870 2101 846 2136 816 50 { m20} R 0 1 1 c 1 1 0 c black 1 1 0 c 363 823 m 36 6 d 35 7 d 36 7 d 36 7 d 36 8 d 36 8 d 36 9 d 35 9 d 36 11 d 36 11 d 36 13 d 36 15 d 36 16 d 35
 17 d 36 19 d 36 21 d 36 21 d 36 22 d 36 22 d 35 23 d 36 23 d 36 24 d 36 24 d 36 24 d 18 13 d 18 12 d 17 13 d 18 13 d 18 14 d 18 15 d 9 9 d 9 9 d 9 10 d 9 12 d 9 12 d 9 12 d 18 21 d 18 19 d 18 15 d 9 7 d 9 6 d 9 5 d 9 5 d 9 3 d 8 3 d 9 2 d 9 1 d 9 X
 9 -1 d 9 -2 d 9 -2 d 9 -4 d 9 -5 d 9 -5 d 9 -6 d 9 -8 d 9 -7 d 18 -18 d 18 -21 d 18 -22 d 9 -12 d 9 -13 d 9 -13 d 9 -13 d 8 -13 d 9 -14 d 9 -14 d 9 -13 d 9 -13 d 9 -13 d 18 -25 d 18 -22 d 18 -20 d 18 -17 d 18 -17 d 36 -30 d 36 -29 d 35 -30 d 36 -31
 d 36 -33 d 36 -34 d 36 -36 d 36 -38 d 35 -41 d -70 Y -35 53 d -36 49 d -36 45 d -36 42 d -36 38 d -36 34 d -35 31 d -36 30 d -36 31 d -18 18 d -18 19 d -18 22 d -18 23 d -18 24 d -9 13 d -9 14 d -9 13 d -9 14 d -9 14 d -8 14 d -9 13 d -9 14 d -9 13
 d -9 13 d -18 25 d -18 21 d -18 19 d -9 8 d -9 7 d -9 6 d -9 5 d -9 5 d -9 3 d -9 3 d -9 2 d -9 1 d -9 X -9 -1 d -9 -1 d -8 -3 d -9 -4 d -9 -4 d -9 -5 d -9 -7 d -9 -7 d -18 -18 d -18 -21 d -18 -23 d -9 -12 d -9 -10 d -9 -10 d -9 -9 d -9 -9 d -9 -9 d
 -18 -16 d -18 -15 d -18 -14 d -17 -13 d -18 -13 d -18 -12 d -36 -23 d -36 -23 d -36 -24 d -36 -24 d -35 -25 d -36 -24 d -36 -24 d -36 -22 d -36 -22 d -36 -19 d -35 -19 d -36 -16 d -36 -15 d -36 -13 d -36 -13 d -36 -11 d -35 -10 d -36 -9 d -36 -9 d
 -36 -8 d -36 -8 d -36 -7 d -35 -7 d -36 -6 d f 0 1 1 c 0 1 0 c black 0 1 0 c 363 817 m 36 7 d 35 6 d 36 7 d 36 8 d 36 7 d 36 9 d 36 9 d 35 9 d 36 11 d 36 12 d 36 13 d 36 14 d 36 16 d 35 18 d 36 19 d 36 21 d 36 21 d 36 22 d 36 23 d 35 23 d 36 24 d 36
 24 d 36 23 d 36 25 d 18 12 d 18 12 d 17 13 d 18 13 d 18 15 d 18 15 d 9 9 d 9 9 d 9 10 d 9 11 d 9 12 d 9 12 d 18 22 d 18 18 d 18 16 d 9 7 d 9 6 d 9 6 d 9 4 d 9 4 d 8 3 d 9 2 d 9 1 d 9 X 9 -1 d 9 -2 d 9 -3 d 9 -4 d 9 -4 d 9 -6 d 9 -6 d 9 -7 d 9 -8 d
 18 -18 d 18 -20 d 18 -23 d 9 -13 d 9 -12 d 9 -14 d 9 -13 d 8 -13 d 9 -14 d 9 -14 d 9 -13 d 9 -14 d 9 -13 d 18 -24 d 18 -22 d 18 -20 d 18 -19 d 18 -16 d 36 -30 d 36 -30 d 35 -30 d 36 -32 d 36 -34 d 36 -35 d 36 -38 d 36 -40 d 35 -43 d -35 Y -35 49 d
 -36 45 d -36 43 d -36 39 d -36 36 d -36 34 d -35 31 d -36 29 d -36 31 d -18 18 d -18 19 d -18 20 d -18 23 d -18 25 d -9 13 d -9 13 d -9 14 d -9 13 d -9 14 d -8 14 d -9 14 d -9 13 d -9 13 d -9 13 d -18 24 d -18 21 d -18 18 d -9 8 d -9 7 d -9 7 d -9 5
 d -9 4 d -9 4 d -9 3 d -9 2 d -9 X -9 1 d -9 -1 d -9 -2 d -8 -3 d -9 -3 d -9 -5 d -9 -5 d -9 -6 d -9 -8 d -18 -17 d -18 -20 d -18 -23 d -9 -12 d -9 -11 d -9 -10 d -9 -9 d -9 -9 d -9 -9 d -18 -16 d -18 -14 d -18 -14 d -17 -13 d -18 -13 d -18 -12 d
 -36 -24 d -36 -23 d -36 -24 d -36 -24 d -35 -24 d -36 -23 d -36 -24 d -36 -22 d -36 -21 d -36 -20 d -35 -17 d -36 -17 d -36 -15 d -36 -13 d -36 -12 d -36 -11 d -35 -10 d -36 -9 d -36 -8 d -36 -8 d -36 -8 d -36 -7 d -35 -7 d -36 -7 d f 0 0 1 c 9 lw
 black 0 0 1 c 363 811 m 36 6 d 35 7 d 36 7 d 36 8 d 36 8 d 36 8 d 36 9 d 35 10 d 36 11 d 36 11 d 36 14 d 36 14 d 36 16 d 35 18 d 36 20 d 36 20 d 36 22 d 36 23 d 36 23 d 35 24 d 36 24 d 36 23 d 36 24 d 36 24 d 18 12 d 18 13 d 17 13 d 18 13 d 18 15 d
 18 15 d 9 9 d 9 9 d 9 10 d 9 10 d 9 12 d 9 12 d 18 22 d 18 19 d 18 17 d 9 7 d 9 6 d 9 6 d 9 4 d 9 4 d 8 2 d 9 2 d 9 1 d 9 X 9 -1 d 9 -2 d 9 -2 d 9 -4 d 9 -5 d 9 -5 d 9 -6 d 9 -7 d 9 -8 d 18 -18 d 18 -21 d 18 -24 d 9 -12 d 9 -13 d 9 -13 d 9 -14 d 8
 -14 d 9 -13 d 9 -14 d 9 -14 d 9 -13 d 9 -13 d 18 -24 d 18 -23 d 18 -20 d 18 -19 d 18 -17 d 36 -31 d 36 -29 d 35 -31 d 36 -32 d 36 -35 d 36 -37 d 36 -41 d 36 -42 d 35 -45 d s black 3 lw 381 767 m -18 X s 363 767 m cl s 381 767 m 18 X s 399 767 m cl s
 381 767 m 45 Y s 381 812 m cl s 381 767 m -47 Y s 381 720 m cl s 417 839 m -18 X s 399 839 m cl s 417 839 m 17 X s 434 839 m cl s 417 839 m 34 Y s 417 873 m cl s 417 839 m -34 Y s 417 805 m cl s 452 881 m -18 X s 434 881 m cl s 452 881 m 18 X s 470
 881 m cl s 452 881 m 28 Y s 452 909 m cl s 452 881 m -29 Y s 452 852 m cl s 488 808 m -18 X s 470 808 m cl s 488 808 m 18 X s 506 808 m cl s 488 808 m 38 Y s 488 846 m cl s 488 808 m -39 Y s 488 769 m cl s 524 778 m -18 X s 506 778 m cl s 524 778 m
 18 X s 542 778 m cl s 524 778 m 43 Y s 524 821 m cl s 524 778 m -44 Y s 524 734 m cl s 560 870 m -18 X s 542 870 m cl s 560 870 m 18 X s 578 870 m cl s 560 870 m 30 Y s 560 900 m cl s 560 870 m -30 Y s 560 840 m cl s 596 859 m -18 X s 578 859 m cl s
 596 859 m 18 X s 614 859 m cl s 596 859 m 31 Y s 596 890 m cl s 596 859 m -32 Y s 596 827 m cl s 632 900 m -18 X s 614 900 m cl s 632 900 m 17 X s 649 900 m cl s 632 900 m 26 Y s 632 926 m cl s 632 900 m -27 Y s 632 873 m cl s 667 825 m -18 X s 649
 825 m cl s 667 825 m 18 X s 685 825 m cl s 667 825 m 35 Y s 667 860 m cl s 667 825 m -37 Y s 667 788 m cl s 703 931 m -18 X s 685 931 m cl s 703 931 m 18 X s 721 931 m cl s 703 931 m 24 Y s 703 955 m cl s 703 931 m -23 Y s 703 908 m cl s 739 904 m
 -18 X s 721 904 m cl s 739 904 m 18 X s 757 904 m cl s 739 904 m 26 Y s 739 930 m cl s 739 904 m -26 Y s 739 878 m cl s 775 938 m -18 X s 757 938 m cl s 775 938 m 18 X s 793 938 m cl s 775 938 m 23 Y s 775 961 m cl s 775 938 m -23 Y s 775 915 m cl s
 811 945 m -18 X s 793 945 m cl s 811 945 m 18 X s 829 945 m cl s 811 945 m 22 Y s 811 967 m cl s 811 945 m -22 Y s 811 923 m cl s 847 924 m -18 X s 829 924 m cl s 847 924 m 17 X s 864 924 m cl s 847 924 m 24 Y s 847 948 m cl s 847 924 m -24 Y s 847
 900 m cl s 882 1001 m -18 X s 864 1001 m cl s 882 1001 m 18 X s 900 1001 m cl s 882 1001 m 17 Y s 882 1018 m cl s 882 1001 m -18 Y s 882 983 m cl s 918 978 m -18 X s 900 978 m cl s 918 978 m 18 X s 936 978 m cl s 918 978 m 19 Y s 918 997 m cl s 918
 978 m -19 Y s 918 959 m cl s 954 1024 m -18 X s 936 1024 m cl s 954 1024 m 18 X s 972 1024 m cl s 954 1024 m 16 Y s 954 1040 m cl s 954 1024 m -17 Y s 954 1007 m cl s 990 1009 m -18 X s 972 1009 m cl s 990 1009 m 18 X s 1008 1009 m cl s 990 1009 m
 17 Y s 990 1026 m cl s 990 1009 m -17 Y s 990 992 m cl s 1026 1053 m -18 X s 1008 1053 m cl s 1026 1053 m 18 X s 1044 1053 m cl s 1026 1053 m 15 Y s 1026 1068 m cl s 1026 1053 m -14 Y s 1026 1039 m cl s 1062 1055 m -18 X s 1044 1055 m cl s 1062 1055
 m 17 X s 1079 1055 m cl s 1062 1055 m 14 Y s 1062 1069 m cl s 1062 1055 m -15 Y s 1062 1040 m cl s 1097 1107 m -18 X s 1079 1107 m cl s 1097 1107 m 18 X s 1115 1107 m cl s 1097 1107 m 11 Y s 1097 1118 m cl s 1097 1107 m -11 Y s 1097 1096 m cl s 1133
 1117 m -18 X s 1115 1117 m cl s 1133 1117 m 18 X s 1151 1117 m cl s 1133 1117 m 10 Y s 1133 1127 m cl s 1133 1117 m -11 Y s 1133 1106 m cl s 1169 1137 m -18 X s 1151 1137 m cl s 1169 1137 m 18 X s 1187 1137 m cl s 1169 1137 m 10 Y s 1169 1147 m cl s
 1169 1137 m -10 Y s 1169 1127 m cl s 1205 1162 m -18 X s 1187 1162 m cl s 1205 1162 m 18 X s 1223 1162 m cl s 1205 1162 m 9 Y s 1205 1171 m cl s 1205 1162 m -9 Y s 1205 1153 m cl s 1241 1193 m -18 X s 1223 1193 m cl s 1241 1193 m 18 X s 1259 1193 m
 cl s 1241 1193 m 8 Y s 1241 1201 m cl s 1241 1193 m -8 Y s 1241 1185 m cl s 1276 1225 m -17 X s 1259 1225 m cl s 1276 1225 m 18 X s 1294 1225 m cl s 1276 1225 m 7 Y s 1276 1232 m cl s 1276 1225 m -7 Y s 1276 1218 m cl s 1312 1262 m -18 X s 1294 1262
 m cl s 1312 1262 m 18 X s 1330 1262 m cl s 1312 1262 m 6 Y s 1312 1268 m cl s 1312 1262 m -6 Y s 1312 1256 m cl s 1348 1291 m -18 X s 1330 1291 m cl s 1348 1291 m 18 X s 1366 1291 m cl s 1348 1291 m 5 Y s 1348 1296 m cl s 1348 1291 m -6 Y s 1348
 1285 m cl s 1384 1327 m -18 X s 1366 1327 m cl s 1384 1327 m 18 X s 1402 1327 m cl s 1384 1327 m 4 Y s 1384 1331 m cl s 1384 1327 m -5 Y s 1384 1322 m cl s 1420 1368 m -18 X s 1402 1368 m cl s 1420 1368 m 18 X s 1438 1368 m cl s 1420 1368 m 5 Y s
 1420 1373 m cl s 1420 1368 m -4 Y s 1420 1364 m cl s 1456 1399 m -18 X s 1438 1399 m cl s 1456 1399 m 18 X s 1474 1399 m cl s 1456 1399 m 4 Y s 1456 1403 m cl s 1456 1399 m -4 Y s 1456 1395 m cl s 1491 1411 m -17 X s 1474 1411 m cl s 1491 1411 m 18
 X s 1509 1411 m cl s 1491 1411 m 4 Y s 1491 1415 m cl s 1491 1411 m -3 Y s 1491 1408 m cl s 1527 1418 m -18 X s 1509 1418 m cl s 1527 1418 m 18 X s 1545 1418 m cl s 1527 1418 m 3 Y s 1527 1421 m cl s 1527 1418 m -4 Y s 1527 1414 m cl s 1563 1408 m
 -18 X s 1545 1408 m cl s 1563 1408 m 18 X s 1581 1408 m cl s 1563 1408 m 3 Y s 1563 1411 m cl s 1563 1408 m -4 Y s 1563 1404 m cl s 1599 1380 m -18 X s 1581 1380 m cl s 1599 1380 m 18 X s 1617 1380 m cl s 1599 1380 m 4 Y s 1599 1384 m cl s 1599 1380
 m -4 Y s 1599 1376 m cl s 1635 1336 m -18 X s 1617 1336 m cl s 1635 1336 m 18 X s 1653 1336 m cl s 1635 1336 m 5 Y s 1635 1341 m cl s 1635 1336 m -5 Y s 1635 1331 m cl s 1671 1285 m -18 X s 1653 1285 m cl s 1671 1285 m 18 X s 1689 1285 m cl s 1671
 1285 m 6 Y s 1671 1291 m cl s 1671 1285 m -6 Y s 1671 1279 m cl s 1706 1229 m -17 X s 1689 1229 m cl s 1706 1229 m 18 X s 1724 1229 m cl s 1706 1229 m 7 Y s 1706 1236 m cl s 1706 1229 m -8 Y s 1706 1221 m cl s 1742 1189 m -18 X s 1724 1189 m cl s
 1742 1189 m 18 X s 1760 1189 m cl s 1742 1189 m 8 Y s 1742 1197 m cl s 1742 1189 m -8 Y s 1742 1181 m cl s 1778 1147 m -18 X s 1760 1147 m cl s 1778 1147 m 18 X s 1796 1147 m cl s 1778 1147 m 9 Y s 1778 1156 m cl s 1778 1147 m -10 Y s 1778 1137 m cl
 s 1814 1103 m -18 X s 1796 1103 m cl s 1814 1103 m 18 X s 1832 1103 m cl s 1814 1103 m 11 Y s 1814 1114 m cl s 1814 1103 m -11 Y s 1814 1092 m cl s 1850 1075 m -18 X s 1832 1075 m cl s 1850 1075 m 18 X s 1868 1075 m cl s 1850 1075 m 13 Y s 1850 1088
 m cl s 1850 1075 m -12 Y s 1850 1063 m cl s 1886 1020 m -18 X s 1868 1020 m cl s 1886 1020 m 18 X s 1904 1020 m cl s 1886 1020 m 16 Y s 1886 1036 m cl s 1886 1020 m -16 Y s 1886 1004 m cl s 1921 992 m -17 X s 1904 992 m cl s 1921 992 m 18 X s 1939
 992 m cl s 1921 992 m 18 Y s 1921 1010 m cl s 1921 992 m -18 Y s 1921 974 m cl s 1957 954 m -18 X s 1939 954 m cl s 1957 954 m 18 X s 1975 954 m cl s 1957 954 m 21 Y s 1957 975 m cl s 1957 954 m -21 Y s 1957 933 m cl s 1993 942 m -18 X s 1975 942 m
 cl s 1993 942 m 18 X s 2011 942 m cl s 1993 942 m 22 Y s 1993 964 m cl s 1993 942 m -23 Y s 1993 919 m cl s 2029 909 m -18 X s 2011 909 m cl s 2029 909 m 18 X s 2047 909 m cl s 2029 909 m 25 Y s 2029 934 m cl s 2029 909 m -26 Y s 2029 883 m cl s
 2065 870 m -18 X s 2047 870 m cl s 2065 870 m 18 X s 2083 870 m cl s 2065 870 m 30 Y s 2065 900 m cl s 2065 870 m -30 Y s 2065 840 m cl s 2101 846 m -18 X s 2083 846 m cl s 2101 846 m 18 X s 2119 846 m cl s 2101 846 m 33 Y s 2101 879 m cl s 2101 846
 m -33 Y s 2101 813 m cl s 2136 816 m -17 X s 2119 816 m cl s 2136 816 m 18 X s 2154 816 m cl s 2136 816 m 37 Y s 2136 853 m cl s 2136 816 m -37 Y s 2136 779 m cl s 381 767 417 839 452 881 488 808 524 778 560 870 596 859 632 900 667 825 703 931 739
 904 775 938 811 945 847 924 882 1001 918 978 954 1024 990 1009 1026 1053 1062 1055 1097 1107 1133 1117 1169 1137 1205 1162 1241 1193 1276 1225 1312 1262 1348 1291 1384 1327 1420 1368 1456 1399 1491 1411 1527 1418 1563 1408 1599 1380 1635 1336 1671
 1285 1706 1229 1742 1189 1778 1147 1814 1103 1850 1075 1886 1020 1921 992 1957 954 1993 942 2029 909 2065 870 2101 846 2136 816 50 { m20} R 0.52 0.76 0.64 c[ 4 8] 0 sd 9 lw black 0.52 0.76 0.64 c 363 811 m 36 6 d 35 7 d 36 7 d 36 7 d 36 7 d 36 8 d
 36 8 d 35 9 d 36 8 d 36 9 d 36 10 d 36 10 d 36 10 d 35 12 d 36 11 d 36 13 d 36 13 d 36 15 d 36 15 d 35 17 d 36 18 d 36 20 d 36 23 d 36 25 d 18 14 d 18 15 d 17 16 d 18 18 d 18 19 d 9 11 d 9 11 d 9 12 d 9 12 d 9 13 d 9 14 d 5 8 d 4 8 d 9 15 d 18 29 d
 18 24 d 18 20 d 9 8 d 9 7 d 9 7 d 9 5 d 9 4 d 8 3 d 9 2 d 9 1 d 9 X 9 -1 d 9 -2 d 9 -3 d 9 -4 d 9 -5 d 9 -7 d 9 -7 d 9 -9 d 9 -9 d 18 -22 d 18 -26 d 9 -15 d 9 -16 d 9 -17 d 9 -18 d 9 -19 d 9 -20 d 8 -21 d 9 -22 d 9 -23 d 9 -24 d 9 -25 d 9 -26 d 9
 -28 d 9 -28 d 18 -60 d 18 -64 d 18 -69 d 18 -72 d 22 -99 d s 0.54 0.66 0.63 c black 0.54 0.66 0.63 c 785 634 m 8 11 d s 793 645 m 36 51 d 35 48 d 36 46 d 36 43 d 36 41 d 36 38 d 18 18 d 18 18 d 18 16 d 17 16 d 18 16 d 18 15 d 36 27 d 36 25 d 36 23 d
 36 20 d 35 17 d 36 15 d 18 6 d 18 6 d 18 5 d 18 4 d 18 4 d 18 3 d 18 2 d 18 2 d 17 1 d 18 1 d 18 X 18 -1 d 18 -2 d 18 -2 d 18 -3 d 18 -3 d 18 -4 d 18 -5 d 18 -5 d 18 -6 d 35 -14 d 36 -17 d 36 -19 d 36 -22 d 36 -24 d 36 -27 d 17 -15 d 18 -15 d 18 -16
 d 18 -16 d 18 -17 d 18 -18 d 36 -37 d 36 -41 d 36 -42 d 35 -45 d s black[  ] 0 sd 3 lw 363 634 m 1791 X s 469 659 m -25 Y s 514 646 m -12 Y s 558 646 m -12 Y s 602 646 m -12 Y s 647 659 m -25 Y s 691 646 m -12 Y s 735 646 m -12 Y s 780 646 m -12 Y s
 824 659 m -25 Y s 868 646 m -12 Y s 913 646 m -12 Y s 957 646 m -12 Y s 1001 659 m -25 Y s 1046 646 m -12 Y s 1090 646 m -12 Y s 1134 646 m -12 Y s 1179 659 m -25 Y s 1223 646 m -12 Y s 1267 646 m -12 Y s 1312 646 m -12 Y s 1356 659 m -25 Y s 1400
 646 m -12 Y s 1445 646 m -12 Y s 1489 646 m -12 Y s 1534 659 m -25 Y s 1578 646 m -12 Y s 1622 646 m -12 Y s 1667 646 m -12 Y s 1711 659 m -25 Y s 1755 646 m -12 Y s 1800 646 m -12 Y s 1844 646 m -12 Y s 1888 659 m -25 Y s 1933 646 m -12 Y s 1977
 646 m -12 Y s 2021 646 m -12 Y s 2066 659 m -25 Y s 469 659 m -25 Y s 425 646 m -12 Y s 381 646 m -12 Y s 2066 659 m -25 Y s 2110 646 m -12 Y s 2154 646 m -12 Y s 363 1484 m 1791 X s 469 1459 m 25 Y s 514 1471 m 13 Y s 558 1471 m 13 Y s 602 1471 m
 13 Y s 647 1459 m 25 Y s 691 1471 m 13 Y s 735 1471 m 13 Y s 780 1471 m 13 Y s 824 1459 m 25 Y s 868 1471 m 13 Y s 913 1471 m 13 Y s 957 1471 m 13 Y s 1001 1459 m 25 Y s 1046 1471 m 13 Y s 1090 1471 m 13 Y s 1134 1471 m 13 Y s 1179 1459 m 25 Y s
 1223 1471 m 13 Y s 1267 1471 m 13 Y s 1312 1471 m 13 Y s 1356 1459 m 25 Y s 1400 1471 m 13 Y s 1445 1471 m 13 Y s 1489 1471 m 13 Y s 1534 1459 m 25 Y s 1578 1471 m 13 Y s 1622 1471 m 13 Y s 1667 1471 m 13 Y s 1711 1459 m 25 Y s 1755 1471 m 13 Y s
 1800 1471 m 13 Y s 1844 1471 m 13 Y s 1888 1459 m 25 Y s 1933 1471 m 13 Y s 1977 1471 m 13 Y s 2021 1471 m 13 Y s 2066 1459 m 25 Y s 469 1459 m 25 Y s 425 1471 m 13 Y s 381 1471 m 13 Y s 2066 1459 m 25 Y s 2110 1471 m 13 Y s 2154 1471 m 13 Y s 363
 634 m 850 Y s 390 662 m -27 X s 390 686 m -27 X s 390 707 m -27 X s 390 724 m -27 X s 390 740 m -27 X s 417 754 m -54 X s 390 846 m -27 X s 390 900 m -27 X s 390 938 m -27 X s 390 968 m -27 X s 390 992 m -27 X s 390 1013 m -27 X s 390 1030 m -27 X s
 390 1046 m -27 X s 417 1060 m -54 X s 390 1152 m -27 X s 390 1206 m -27 X s 390 1244 m -27 X s 390 1274 m -27 X s 390 1298 m -27 X s 390 1319 m -27 X s 390 1337 m -27 X s 390 1352 m -27 X s 417 1366 m -54 X s 390 1458 m -27 X s 2154 634 m 850 Y s
 2127 662 m 27 X s 2127 686 m 27 X s 2127 707 m 27 X s 2127 724 m 27 X s 2127 740 m 27 X s 2101 754 m 53 X s 2127 846 m 27 X s 2127 900 m 27 X s 2127 938 m 27 X s 2127 968 m 27 X s 2127 992 m 27 X s 2127 1013 m 27 X s 2127 1030 m 27 X s 2127 1046 m
 27 X s 2101 1060 m 53 X s 2127 1152 m 27 X s 2127 1206 m 27 X s 2127 1244 m 27 X s 2127 1274 m 27 X s 2127 1298 m 27 X s 2127 1319 m 27 X s 2127 1337 m 27 X s 2127 1352 m 27 X s 2101 1366 m 53 X s 2127 1458 m 27 X s
 gsave  2268 1077 0 461 C 677.708 1215.31 t 0 r /Helvetica findfont 58.7189 sf 0 0 m (2mu2e) show NC gr  1 1 1 c 453 161 454 1269 bf black
 gsave  2268 1077 0 461 C 566.929 1371.71 t 0 r /Helvetica-Bold findfont 48.9324 sf 0 0 m (MC15) show NC gr  510 1390 m20
 gsave  2268 1077 0 461 C 566.929 1293.51 t 0 r /Helvetica-Bold findfont 48.9324 sf 0 0 m (Projection of Signal pdf) show NC gr  0 0 1 c 9 lw 471 1309 m 79 X s black 3 lw 1 1 1 c 2268 461 0 0 bf black 1 1 1 c 1791 364 363 74 bf black 1791 364 363 74
 bl 363 74 m 1791 X s
 gsave  2268 461 0 0 C 1915.83 13.0329 t 0 r /Helvetica findfont 22.9045 sf 0 0 m (4l Invariant Mass \(GeV\)) show NC gr  469 85 m -11 Y s 514 79 m -5 Y s 558 79 m -5 Y s 602 79 m -5 Y s 647 85 m -11 Y s 691 79 m -5 Y s 735 79 m -5 Y s 780 79 m -5 Y
 s 824 85 m -11 Y s 868 79 m -5 Y s 913 79 m -5 Y s 957 79 m -5 Y s 1001 85 m -11 Y s 1046 79 m -5 Y s 1090 79 m -5 Y s 1134 79 m -5 Y s 1179 85 m -11 Y s 1223 79 m -5 Y s 1267 79 m -5 Y s 1312 79 m -5 Y s 1356 85 m -11 Y s 1400 79 m -5 Y s 1445 79 m
 -5 Y s 1489 79 m -5 Y s 1534 85 m -11 Y s 1578 79 m -5 Y s 1622 79 m -5 Y s 1667 79 m -5 Y s 1711 85 m -11 Y s 1755 79 m -5 Y s 1800 79 m -5 Y s 1844 79 m -5 Y s 1888 85 m -11 Y s 1933 79 m -5 Y s 1977 79 m -5 Y s 2021 79 m -5 Y s 2066 85 m -11 Y s
 469 85 m -11 Y s 425 79 m -5 Y s 381 79 m -5 Y s 2066 85 m -11 Y s 2110 79 m -5 Y s 2154 79 m -5 Y s
 gsave  2268 461 0 0 C 449.633 55.3896 t 0 r /Helvetica findfont 22.9045 sf 0 0 m (880) show NC gr 
 gsave  2268 461 0 0 C 625.577 55.3896 t 0 r /Helvetica findfont 22.9045 sf 0 0 m (900) show NC gr 
 gsave  2268 461 0 0 C 801.521 55.3896 t 0 r /Helvetica findfont 22.9045 sf 0 0 m (920) show NC gr 
 gsave  2268 461 0 0 C 980.722 55.3896 t 0 r /Helvetica findfont 22.9045 sf 0 0 m (940) show NC gr 
 gsave  2268 461 0 0 C 1156.67 55.3896 t 0 r /Helvetica findfont 22.9045 sf 0 0 m (960) show NC gr 
 gsave  2268 461 0 0 C 1335.87 55.3896 t 0 r /Helvetica findfont 22.9045 sf 0 0 m (980) show NC gr 
 gsave  2268 461 0 0 C 1505.29 55.3896 t 0 r /Helvetica findfont 22.9045 sf 0 0 m (1000) show NC gr 
 gsave  2268 461 0 0 C 1684.5 55.3896 t 0 r /Helvetica findfont 22.9045 sf 0 0 m (1020) show NC gr 
 gsave  2268 461 0 0 C 1860.44 55.3896 t 0 r /Helvetica findfont 22.9045 sf 0 0 m (1040) show NC gr 
 gsave  2268 461 0 0 C 2036.38 55.3896 t 0 r /Helvetica findfont 22.9045 sf 0 0 m (1060) show NC gr  363 438 m 1791 X s 469 427 m 11 Y s 514 433 m 5 Y s 558 433 m 5 Y s 602 433 m 5 Y s 647 427 m 11 Y s 691 433 m 5 Y s 735 433 m 5 Y s 780 433 m 5 Y s
 824 427 m 11 Y s 868 433 m 5 Y s 913 433 m 5 Y s 957 433 m 5 Y s 1001 427 m 11 Y s 1046 433 m 5 Y s 1090 433 m 5 Y s 1134 433 m 5 Y s 1179 427 m 11 Y s 1223 433 m 5 Y s 1267 433 m 5 Y s 1312 433 m 5 Y s 1356 427 m 11 Y s 1400 433 m 5 Y s 1445 433 m
 5 Y s 1489 433 m 5 Y s 1534 427 m 11 Y s 1578 433 m 5 Y s 1622 433 m 5 Y s 1667 433 m 5 Y s 1711 427 m 11 Y s 1755 433 m 5 Y s 1800 433 m 5 Y s 1844 433 m 5 Y s 1888 427 m 11 Y s 1933 433 m 5 Y s 1977 433 m 5 Y s 2021 433 m 5 Y s 2066 427 m 11 Y s
 469 427 m 11 Y s 425 433 m 5 Y s 381 433 m 5 Y s 2066 427 m 11 Y s 2110 433 m 5 Y s 2154 433 m 5 Y s 363 74 m 364 Y s 417 74 m -54 X s 390 81 m -27 X s 390 88 m -27 X s 390 96 m -27 X s 390 103 m -27 X s 417 110 m -54 X s 390 118 m -27 X s 390 125 m
 -27 X s 390 132 m -27 X s 390 139 m -27 X s 417 147 m -54 X s 390 154 m -27 X s 390 161 m -27 X s 390 169 m -27 X s 390 176 m -27 X s 417 183 m -54 X s 390 190 m -27 X s 390 198 m -27 X s 390 205 m -27 X s 390 212 m -27 X s 417 220 m -54 X s 390 227
 m -27 X s 390 234 m -27 X s 390 241 m -27 X s 390 249 m -27 X s 417 256 m -54 X s 390 263 m -27 X s 390 271 m -27 X s 390 278 m -27 X s 390 285 m -27 X s 417 293 m -54 X s 390 300 m -27 X s 390 307 m -27 X s 390 314 m -27 X s 390 322 m -27 X s 417
 329 m -54 X s 390 336 m -27 X s 390 344 m -27 X s 390 351 m -27 X s 390 358 m -27 X s 417 365 m -54 X s 390 373 m -27 X s 390 380 m -27 X s 390 387 m -27 X s 390 395 m -27 X s 417 402 m -54 X s 390 409 m -27 X s 390 416 m -27 X s 390 424 m -27 X s
 390 431 m -27 X s 417 438 m -54 X s
 gsave  2268 461 0 0 C 329.08 65.1643 t 0 r /Helvetica findfont 22.9045 sf 0 0 m (\2555) show NC gr 
 gsave  2268 461 0 0 C 329.08 101.005 t 0 r /Helvetica findfont 22.9045 sf 0 0 m (\2554) show NC gr 
 gsave  2268 461 0 0 C 329.08 140.103 t 0 r /Helvetica findfont 22.9045 sf 0 0 m (\2553) show NC gr 
 gsave  2268 461 0 0 C 329.08 175.944 t 0 r /Helvetica findfont 22.9045 sf 0 0 m (\2552) show NC gr 
 gsave  2268 461 0 0 C 332.338 211.784 t 0 r /Helvetica findfont 22.9045 sf 0 0 m (\2551) show NC gr 
 gsave  2268 461 0 0 C 335.596 247.624 t 0 r /Helvetica findfont 22.9045 sf 0 0 m (0) show NC gr 
 gsave  2268 461 0 0 C 338.854 283.465 t 0 r /Helvetica findfont 22.9045 sf 0 0 m (1) show NC gr 
 gsave  2268 461 0 0 C 335.596 319.305 t 0 r /Helvetica findfont 22.9045 sf 0 0 m (2) show NC gr 
 gsave  2268 461 0 0 C 335.596 358.403 t 0 r /Helvetica findfont 22.9045 sf 0 0 m (3) show NC gr 
 gsave  2268 461 0 0 C 335.596 394.244 t 0 r /Helvetica findfont 22.9045 sf 0 0 m (4) show NC gr 
 gsave  2268 461 0 0 C 335.596 430.084 t 0 r /Helvetica findfont 22.9045 sf 0 0 m (5) show NC gr  2154 74 m 364 Y s 2101 74 m 53 X s 2127 81 m 27 X s 2127 88 m 27 X s 2127 96 m 27 X s 2127 103 m 27 X s 2101 110 m 53 X s 2127 118 m 27 X s 2127 125 m
 27 X s 2127 132 m 27 X s 2127 139 m 27 X s 2101 147 m 53 X s 2127 154 m 27 X s 2127 161 m 27 X s 2127 169 m 27 X s 2127 176 m 27 X s 2101 183 m 53 X s 2127 190 m 27 X s 2127 198 m 27 X s 2127 205 m 27 X s 2127 212 m 27 X s 2101 220 m 53 X s 2127 227
 m 27 X s 2127 234 m 27 X s 2127 241 m 27 X s 2127 249 m 27 X s 2101 256 m 53 X s 2127 263 m 27 X s 2127 271 m 27 X s 2127 278 m 27 X s 2127 285 m 27 X s 2101 293 m 53 X s 2127 300 m 27 X s 2127 307 m 27 X s 2127 314 m 27 X s 2127 322 m 27 X s 2101
 329 m 53 X s 2127 336 m 27 X s 2127 344 m 27 X s 2127 351 m 27 X s 2127 358 m 27 X s 2101 365 m 53 X s 2127 373 m 27 X s 2127 380 m 27 X s 2127 387 m 27 X s 2127 395 m 27 X s 2101 402 m 53 X s 2127 409 m 27 X s 2127 416 m 27 X s 2127 424 m 27 X s
 2127 431 m 27 X s 2101 438 m 53 X s 6 lw 0.2 0.8 0.2 c black 3 lw 0.2 0.8 0.2 c 363 256 m -39 Y 36 X 60 Y 35 X 41 Y 36 X -87 Y 36 X -35 Y 36 X 85 Y 36 X -26 Y 36 X 43 Y 35 X -103 Y 36 X 121 Y 36 X -58 Y 36 X 32 Y 36 X -13 Y 36 X -60 Y 35 X 102 Y 36
 X -82 Y 36 X 51 Y 36 X -83 Y 36 X 46 Y 36 X -59 Y 35 X 79 Y 36 X -46 Y 36 X -17 Y 36 X 1 Y 36 X 29 Y 36 X 32 Y 35 X 51 Y 36 X -23 Y 36 X -50 Y 72 X 7 Y 36 X -42 Y 35 X 47 Y 36 X 28 Y 36 X -7 Y 36 X -44 Y 36 X -11 Y 36 X -7 Y 35 X 68 Y 36 X 13 Y 36 X
 -22 Y 36 X 8 Y 36 X -62 Y 36 X 8 Y 35 X -9 Y 36 X 36 Y 36 X 5 Y 36 X -1 Y 36 X 18 Y 36 X 10 Y 35 X -35 Y f 6 lw black 0.2 0.8 0.2 c black 363 217 m 36 X 60 Y 35 X 41 Y 36 X -87 Y 36 X -35 Y 36 X 85 Y 36 X -26 Y 36 X 43 Y 35 X -103 Y 36 X 121 Y 36 X
 -58 Y 36 X 32 Y 36 X -13 Y 36 X -60 Y 35 X 102 Y 36 X -82 Y 36 X 51 Y 36 X -83 Y 36 X 46 Y 36 X -59 Y 35 X 79 Y 36 X -46 Y 36 X -17 Y 36 X 1 Y 36 X 29 Y 36 X 32 Y 35 X 51 Y 36 X -23 Y 36 X -50 Y 72 X 7 Y 36 X -42 Y 35 X 47 Y 36 X 28 Y 36 X -7 Y 36 X
 -44 Y 36 X -11 Y 36 X -7 Y 35 X 68 Y 36 X 13 Y 36 X -22 Y 36 X 8 Y 36 X -62 Y 36 X 8 Y 35 X -9 Y 36 X 36 Y 36 X 5 Y 36 X -1 Y 36 X 18 Y 36 X 10 Y 35 X s 3 lw 363 74 m 1791 X s 469 85 m -11 Y s 514 79 m -5 Y s 558 79 m -5 Y s 602 79 m -5 Y s 647 85 m
 -11 Y s 691 79 m -5 Y s 735 79 m -5 Y s 780 79 m -5 Y s 824 85 m -11 Y s 868 79 m -5 Y s 913 79 m -5 Y s 957 79 m -5 Y s 1001 85 m -11 Y s 1046 79 m -5 Y s 1090 79 m -5 Y s 1134 79 m -5 Y s 1179 85 m -11 Y s 1223 79 m -5 Y s 1267 79 m -5 Y s 1312 79
 m -5 Y s 1356 85 m -11 Y s 1400 79 m -5 Y s 1445 79 m -5 Y s 1489 79 m -5 Y s 1534 85 m -11 Y s 1578 79 m -5 Y s 1622 79 m -5 Y s 1667 79 m -5 Y s 1711 85 m -11 Y s 1755 79 m -5 Y s 1800 79 m -5 Y s 1844 79 m -5 Y s 1888 85 m -11 Y s 1933 79 m -5 Y
 s 1977 79 m -5 Y s 2021 79 m -5 Y s 2066 85 m -11 Y s 469 85 m -11 Y s 425 79 m -5 Y s 381 79 m -5 Y s 2066 85 m -11 Y s 2110 79 m -5 Y s 2154 79 m -5 Y s 363 438 m 1791 X s 469 427 m 11 Y s 514 433 m 5 Y s 558 433 m 5 Y s 602 433 m 5 Y s 647 427 m
 11 Y s 691 433 m 5 Y s 735 433 m 5 Y s 780 433 m 5 Y s 824 427 m 11 Y s 868 433 m 5 Y s 913 433 m 5 Y s 957 433 m 5 Y s 1001 427 m 11 Y s 1046 433 m 5 Y s 1090 433 m 5 Y s 1134 433 m 5 Y s 1179 427 m 11 Y s 1223 433 m 5 Y s 1267 433 m 5 Y s 1312 433
 m 5 Y s 1356 427 m 11 Y s 1400 433 m 5 Y s 1445 433 m 5 Y s 1489 433 m 5 Y s 1534 427 m 11 Y s 1578 433 m 5 Y s 1622 433 m 5 Y s 1667 433 m 5 Y s 1711 427 m 11 Y s 1755 433 m 5 Y s 1800 433 m 5 Y s 1844 433 m 5 Y s 1888 427 m 11 Y s 1933 433 m 5 Y s
 1977 433 m 5 Y s 2021 433 m 5 Y s 2066 427 m 11 Y s 469 427 m 11 Y s 425 433 m 5 Y s 381 433 m 5 Y s 2066 427 m 11 Y s 2110 433 m 5 Y s 2154 433 m 5 Y s 363 74 m 364 Y s 417 74 m -54 X s 390 81 m -27 X s 390 88 m -27 X s 390 96 m -27 X s 390 103 m
 -27 X s 417 110 m -54 X s 390 118 m -27 X s 390 125 m -27 X s 390 132 m -27 X s 390 139 m -27 X s 417 147 m -54 X s 390 154 m -27 X s 390 161 m -27 X s 390 169 m -27 X s 390 176 m -27 X s 417 183 m -54 X s 390 190 m -27 X s 390 198 m -27 X s 390 205
 m -27 X s 390 212 m -27 X s 417 220 m -54 X s 390 227 m -27 X s 390 234 m -27 X s 390 241 m -27 X s 390 249 m -27 X s 417 256 m -54 X s 390 263 m -27 X s 390 271 m -27 X s 390 278 m -27 X s 390 285 m -27 X s 417 293 m -54 X s 390 300 m -27 X s 390
 307 m -27 X s 390 314 m -27 X s 390 322 m -27 X s 417 329 m -54 X s 390 336 m -27 X s 390 344 m -27 X s 390 351 m -27 X s 390 358 m -27 X s 417 365 m -54 X s 390 373 m -27 X s 390 380 m -27 X s 390 387 m -27 X s 390 395 m -27 X s 417 402 m -54 X s
 390 409 m -27 X s 390 416 m -27 X s 390 424 m -27 X s 390 431 m -27 X s 417 438 m -54 X s 2154 74 m 364 Y s 2101 74 m 53 X s 2127 81 m 27 X s 2127 88 m 27 X s 2127 96 m 27 X s 2127 103 m 27 X s 2101 110 m 53 X s 2127 118 m 27 X s 2127 125 m 27 X s
 2127 132 m 27 X s 2127 139 m 27 X s 2101 147 m 53 X s 2127 154 m 27 X s 2127 161 m 27 X s 2127 169 m 27 X s 2127 176 m 27 X s 2101 183 m 53 X s 2127 190 m 27 X s 2127 198 m 27 X s 2127 205 m 27 X s 2127 212 m 27 X s 2101 220 m 53 X s 2127 227 m 27 X
 s 2127 234 m 27 X s 2127 241 m 27 X s 2127 249 m 27 X s 2101 256 m 53 X s 2127 263 m 27 X s 2127 271 m 27 X s 2127 278 m 27 X s 2127 285 m 27 X s 2101 293 m 53 X s 2127 300 m 27 X s 2127 307 m 27 X s 2127 314 m 27 X s 2127 322 m 27 X s 2101 329 m 53
 X s 2127 336 m 27 X s 2127 344 m 27 X s 2127 351 m 27 X s 2127 358 m 27 X s 2101 365 m 53 X s 2127 373 m 27 X s 2127 380 m 27 X s 2127 387 m 27 X s 2127 395 m 27 X s 2101 402 m 53 X s 2127 409 m 27 X s 2127 416 m 27 X s 2127 424 m 27 X s 2127 431 m
 27 X s 2101 438 m 53 X s
 gr  gr showpage
end
%%EOF
