%!PS-Adobe-2.0 EPSF-2.0
%%BoundingBox:  0 0 567 384
%%Title: H4l2015_plotfit/gg_mass_signal_700_H4l_4mu.eps: 
%%Creator: ROOT Version 5.34/10
%%CreationDate: Thu Feb 16 12:42:21 2017
%%EndComments
%%BeginProlog
80 dict begin
/s {stroke} def /l {lineto} def /m {moveto} def /t {translate} def
/r {rotate} def /rl {roll}  def /R {repeat} def
/d {rlineto} def /rm {rmoveto} def /gr {grestore} def /f {eofill} def
/c {setrgbcolor} def /black {0 setgray} def /sd {setdash} def
/cl {closepath} def /sf {scalefont setfont} def /lw {setlinewidth} def
/box {m dup 0 exch d exch 0 d 0 exch neg d cl} def
/NC{systemdict begin initclip end}def/C{NC box clip newpath}def
/bl {box s} def /bf {box f} def /Y { 0 exch d} def /X { 0 d} def 
/K {{pop pop 0 moveto} exch kshow} bind def
/ita {/ang 15 def gsave [1 0 ang dup sin exch cos div 1 0 0] concat} def 
/mp {newpath /y exch def /x exch def} def
/side {[w .77 mul w .23 mul] .385 w mul sd w 0 l currentpoint t -144 r} def
/mr {mp x y w2 0 360 arc} def /m24 {mr s} def /m20 {mr f} def
/mb {mp x y w2 add m w2 neg 0 d 0 w neg d w 0 d 0 w d cl} def
/mt {mp x y w2 add m w2 neg w neg d w 0 d cl} def
/m21 {mb f} def /m25 {mb s} def /m22 {mt f} def /m26{mt s} def
/m23 {mp x y w2 sub m w2 w d w neg 0 d cl f} def
/m27 {mp x y w2 add m w3 neg w2 neg d w3 w2 neg d w3 w2 d cl s} def
/m28 {mp x w2 sub y w2 sub w3 add m w3 0 d  0 w3 neg d w3 0 d 0 w3 d w3 0 d  0 w3 d w3 neg 0 d 0 w3 d w3 neg 0 d 0 w3 neg d w3 neg 0 d cl s } def
/m29 {mp gsave x w2 sub y w2 add w3 sub m currentpoint t 4 {side} repeat cl fill gr} def
/m30 {mp gsave x w2 sub y w2 add w3 sub m currentpoint t 4 {side} repeat cl s gr} def
/m31 {mp x y w2 sub m 0 w d x w2 sub y m w 0 d x w2 sub y w2 add m w w neg d x w2 sub y w2 sub m w w d s} def
/m32 {mp x y w2 sub m w2 w d w neg 0 d cl s} def
/m33 {mp x y w2 add m w3 neg w2 neg d w3 w2 neg d w3 w2 d cl f} def
/m34 {mp x w2 sub y w2 sub w3 add m w3 0 d  0 w3 neg d w3 0 d 0 w3 d w3 0 d  0 w3 d w3 neg 0 d 0 w3 d w3 neg 0 d 0 w3 neg d w3 neg 0 d cl f } def
/m2 {mp x y w2 sub m 0 w d x w2 sub y m w 0 d s} def
/m5 {mp x w2 sub y w2 sub m w w d x w2 sub y w2 add m w w neg d s} def
/reEncode {exch findfont dup length dict begin {1 index /FID eq  {pop pop} {def} ifelse } forall /Encoding exch def currentdict end dup /FontName get exch definefont pop } def [/Times-Bold /Times-Italic /Times-BoldItalic /Helvetica /Helvetica-Oblique
 /Helvetica-Bold /Helvetica-BoldOblique /Courier /Courier-Oblique /Courier-Bold /Courier-BoldOblique /Times-Roman /AvantGarde-Book /AvantGarde-BookOblique /AvantGarde-Demi /AvantGarde-DemiOblique /Bookman-Demi /Bookman-DemiItalic /Bookman-Light
 /Bookman-LightItalic /Helvetica-Narrow /Helvetica-Narrow-Bold /Helvetica-Narrow-BoldOblique /Helvetica-Narrow-Oblique /NewCenturySchlbk-Roman /NewCenturySchlbk-Bold /NewCenturySchlbk-BoldItalic /NewCenturySchlbk-Italic /Palatino-Bold
 /Palatino-BoldItalic /Palatino-Italic /Palatino-Roman ] {ISOLatin1Encoding reEncode } forall
%%EndProlog
%%BeginSetup
%%EndSetup
newpath  gsave  .25 .25 scale  gsave  0 0 t black[  ] 0 sd 3 lw 1 1 1 c 2268 1538 0 0 bf black 1 1 1 c 2222 738 23 784 bf black 1 1 1 c 2222 739 23 15 bf black 1 1 1 c 2268 1077 0 461 bf black 1 1 1 c 1791 850 363 634 bf black 1791 850 363 634 bl 363
 634 m 1791 X s
 gsave  2268 1077 0 461 C 1642.14 498.507 t 0 r /Helvetica findfont 48.9324 sf 0 0 m (4l Invariant Mass \(GeV\)) show NC gr  363 659 m -25 Y s 436 646 m -12 Y s 508 646 m -12 Y s 581 646 m -12 Y s 654 659 m -25 Y s 727 646 m -12 Y s 800 646 m -12 Y s
 873 646 m -12 Y s 945 659 m -25 Y s 1018 646 m -12 Y s 1091 646 m -12 Y s 1164 646 m -12 Y s 1237 659 m -25 Y s 1310 646 m -12 Y s 1382 646 m -12 Y s 1455 646 m -12 Y s 1528 659 m -25 Y s 1601 646 m -12 Y s 1674 646 m -12 Y s 1747 646 m -12 Y s 1819
 659 m -25 Y s 1892 646 m -12 Y s 1965 646 m -12 Y s 2038 646 m -12 Y s 2111 659 m -25 Y s 2111 659 m -25 Y s
 gsave  2268 1077 0 461 C 319.305 586.478 t 0 r /Helvetica findfont 48.9324 sf 0 0 m (620) show NC gr 
 gsave  2268 1077 0 461 C 609.286 586.478 t 0 r /Helvetica findfont 48.9324 sf 0 0 m (640) show NC gr 
 gsave  2268 1077 0 461 C 902.525 586.478 t 0 r /Helvetica findfont 48.9324 sf 0 0 m (660) show NC gr 
 gsave  2268 1077 0 461 C 1192.51 586.478 t 0 r /Helvetica findfont 48.9324 sf 0 0 m (680) show NC gr 
 gsave  2268 1077 0 461 C 1482.49 586.478 t 0 r /Helvetica findfont 48.9324 sf 0 0 m (700) show NC gr 
 gsave  2268 1077 0 461 C 1775.73 586.478 t 0 r /Helvetica findfont 48.9324 sf 0 0 m (720) show NC gr 
 gsave  2268 1077 0 461 C 2065.71 586.478 t 0 r /Helvetica findfont 48.9324 sf 0 0 m (740) show NC gr  363 1484 m 1791 X s 363 1459 m 25 Y s 436 1471 m 13 Y s 508 1471 m 13 Y s 581 1471 m 13 Y s 654 1459 m 25 Y s 727 1471 m 13 Y s 800 1471 m 13 Y s
 873 1471 m 13 Y s 945 1459 m 25 Y s 1018 1471 m 13 Y s 1091 1471 m 13 Y s 1164 1471 m 13 Y s 1237 1459 m 25 Y s 1310 1471 m 13 Y s 1382 1471 m 13 Y s 1455 1471 m 13 Y s 1528 1459 m 25 Y s 1601 1471 m 13 Y s 1674 1471 m 13 Y s 1747 1471 m 13 Y s 1819
 1459 m 25 Y s 1892 1471 m 13 Y s 1965 1471 m 13 Y s 2038 1471 m 13 Y s 2111 1459 m 25 Y s 2111 1459 m 25 Y s 363 634 m 850 Y s
 gsave  2268 1077 0 461 C 120.554 1032.85 t 90 r /Helvetica findfont 48.9324 sf 0 0 m (Events / \( 2.46 GeV \)) show NC gr  390 641 m -27 X s 390 697 m -27 X s 390 737 m -27 X s 390 768 m -27 X s 390 793 m -27 X s 390 815 m -27 X s 390 834 m -27 X s
 390 850 m -27 X s 417 865 m -54 X s
 gsave  2268 1077 0 461 C 342.425 843.724 t 0 r  -55 0 t /Helvetica findfont 48.9324 sf 0 0 m (10) show NC gr  390 961 m -27 X s 390 1018 m -27 X s 390 1058 m -27 X s 390 1089 m -27 X s 390 1114 m -27 X s 390 1135 m -27 X s 390 1154 m -27 X s 390
 1170 m -27 X s 417 1185 m -54 X s
 gsave  2268 1077 0 461 C 322.563 1182.73 t 0 r /Helvetica findfont 32.6216 sf 0 0 m (2) show NC gr 
 gsave  2268 1077 0 461 C 270.432 1163.18 t 0 r /Helvetica findfont 48.9324 sf 0 0 m (10) show NC gr  390 1282 m -27 X s 390 1338 m -27 X s 390 1378 m -27 X s 390 1409 m -27 X s 390 1435 m -27 X s 390 1456 m -27 X s 390 1475 m -27 X s 2154 634 m 850
 Y s 2127 641 m 27 X s 2127 697 m 27 X s 2127 737 m 27 X s 2127 768 m 27 X s 2127 793 m 27 X s 2127 815 m 27 X s 2127 834 m 27 X s 2127 850 m 27 X s 2101 865 m 53 X s 2127 961 m 27 X s 2127 1018 m 27 X s 2127 1058 m 27 X s 2127 1089 m 27 X s 2127
 1114 m 27 X s 2127 1135 m 27 X s 2127 1154 m 27 X s 2127 1170 m 27 X s 2101 1185 m 53 X s 2127 1282 m 27 X s 2127 1338 m 27 X s 2127 1378 m 27 X s 2127 1409 m 27 X s 2127 1435 m 27 X s 2127 1456 m 27 X s 2127 1475 m 27 X s 381 911 m -18 X s 363 911
 m cl s 381 911 m 18 X s 399 911 m cl s 381 911 m 42 Y s 381 953 m cl s 381 911 m -42 Y s 381 869 m cl s 417 878 m -18 X s 399 878 m cl s 417 878 m 17 X s 434 878 m cl s 417 878 m 47 Y s 417 925 m cl s 417 878 m -49 Y s 417 829 m cl s 452 938 m -18 X
 s 434 938 m cl s 452 938 m 18 X s 470 938 m cl s 452 938 m 38 Y s 452 976 m cl s 452 938 m -38 Y s 452 900 m cl s 488 921 m -18 X s 470 921 m cl s 488 921 m 18 X s 506 921 m cl s 488 921 m 40 Y s 488 961 m cl s 488 921 m -41 Y s 488 880 m cl s 524
 901 m -18 X s 506 901 m cl s 524 901 m 18 X s 542 901 m cl s 524 901 m 43 Y s 524 944 m cl s 524 901 m -44 Y s 524 857 m cl s 560 968 m -18 X s 542 968 m cl s 560 968 m 18 X s 578 968 m cl s 560 968 m 33 Y s 560 1001 m cl s 560 968 m -34 Y s 560 934
 m cl s 596 986 m -18 X s 578 986 m cl s 596 986 m 18 X s 614 986 m cl s 596 986 m 31 Y s 596 1017 m cl s 596 986 m -31 Y s 596 955 m cl s 632 911 m -18 X s 614 911 m cl s 632 911 m 17 X s 649 911 m cl s 632 911 m 42 Y s 632 953 m cl s 632 911 m -42
 Y s 632 869 m cl s 667 961 m -18 X s 649 961 m cl s 667 961 m 18 X s 685 961 m cl s 667 961 m 34 Y s 667 995 m cl s 667 961 m -35 Y s 667 926 m cl s 703 974 m -18 X s 685 974 m cl s 703 974 m 18 X s 721 974 m cl s 703 974 m 33 Y s 703 1007 m cl s
 703 974 m -33 Y s 703 941 m cl s 739 1026 m -18 X s 721 1026 m cl s 739 1026 m 18 X s 757 1026 m cl s 739 1026 m 27 Y s 739 1053 m cl s 739 1026 m -26 Y s 739 1000 m cl s 775 981 m -18 X s 757 981 m cl s 775 981 m 18 X s 793 981 m cl s 775 981 m 31
 Y s 775 1012 m cl s 775 981 m -33 Y s 775 948 m cl s 811 1054 m -18 X s 793 1054 m cl s 811 1054 m 18 X s 829 1054 m cl s 811 1054 m 24 Y s 811 1078 m cl s 811 1054 m -24 Y s 811 1030 m cl s 847 1054 m -18 X s 829 1054 m cl s 847 1054 m 17 X s 864
 1054 m cl s 847 1054 m 24 Y s 847 1078 m cl s 847 1054 m -24 Y s 847 1030 m cl s 882 1061 m -18 X s 864 1061 m cl s 882 1061 m 18 X s 900 1061 m cl s 882 1061 m 23 Y s 882 1084 m cl s 882 1061 m -24 Y s 882 1037 m cl s 918 1083 m -18 X s 900 1083 m
 cl s 918 1083 m 18 X s 936 1083 m cl s 918 1083 m 21 Y s 918 1104 m cl s 918 1083 m -22 Y s 918 1061 m cl s 954 1112 m -18 X s 936 1112 m cl s 954 1112 m 18 X s 972 1112 m cl s 954 1112 m 19 Y s 954 1131 m cl s 954 1112 m -20 Y s 954 1092 m cl s 990
 1116 m -18 X s 972 1116 m cl s 990 1116 m 18 X s 1008 1116 m cl s 990 1116 m 19 Y s 990 1135 m cl s 990 1116 m -19 Y s 990 1097 m cl s 1026 1154 m -18 X s 1008 1154 m cl s 1026 1154 m 18 X s 1044 1154 m cl s 1026 1154 m 16 Y s 1026 1170 m cl s 1026
 1154 m -16 Y s 1026 1138 m cl s 1062 1193 m -18 X s 1044 1193 m cl s 1062 1193 m 17 X s 1079 1193 m cl s 1062 1193 m 14 Y s 1062 1207 m cl s 1062 1193 m -13 Y s 1062 1180 m cl s 1097 1182 m -18 X s 1079 1182 m cl s 1097 1182 m 18 X s 1115 1182 m cl
 s 1097 1182 m 15 Y s 1097 1197 m cl s 1097 1182 m -14 Y s 1097 1168 m cl s 1133 1207 m -18 X s 1115 1207 m cl s 1133 1207 m 18 X s 1151 1207 m cl s 1133 1207 m 13 Y s 1133 1220 m cl s 1133 1207 m -13 Y s 1133 1194 m cl s 1169 1249 m -18 X s 1151
 1249 m cl s 1169 1249 m 18 X s 1187 1249 m cl s 1169 1249 m 11 Y s 1169 1260 m cl s 1169 1249 m -11 Y s 1169 1238 m cl s 1205 1268 m -18 X s 1187 1268 m cl s 1205 1268 m 18 X s 1223 1268 m cl s 1205 1268 m 11 Y s 1205 1279 m cl s 1205 1268 m -10 Y s
 1205 1258 m cl s 1241 1288 m -18 X s 1223 1288 m cl s 1241 1288 m 18 X s 1259 1288 m cl s 1241 1288 m 9 Y s 1241 1297 m cl s 1241 1288 m -10 Y s 1241 1278 m cl s 1276 1315 m -17 X s 1259 1315 m cl s 1276 1315 m 18 X s 1294 1315 m cl s 1276 1315 m 9
 Y s 1276 1324 m cl s 1276 1315 m -9 Y s 1276 1306 m cl s 1312 1329 m -18 X s 1294 1329 m cl s 1312 1329 m 18 X s 1330 1329 m cl s 1312 1329 m 8 Y s 1312 1337 m cl s 1312 1329 m -8 Y s 1312 1321 m cl s 1348 1355 m -18 X s 1330 1355 m cl s 1348 1355 m
 18 X s 1366 1355 m cl s 1348 1355 m 8 Y s 1348 1363 m cl s 1348 1355 m -7 Y s 1348 1348 m cl s 1384 1375 m -18 X s 1366 1375 m cl s 1384 1375 m 18 X s 1402 1375 m cl s 1384 1375 m 7 Y s 1384 1382 m cl s 1384 1375 m -7 Y s 1384 1368 m cl s 1420 1401
 m -18 X s 1402 1401 m cl s 1420 1401 m 18 X s 1438 1401 m cl s 1420 1401 m 6 Y s 1420 1407 m cl s 1420 1401 m -7 Y s 1420 1394 m cl s 1456 1396 m -18 X s 1438 1396 m cl s 1456 1396 m 18 X s 1474 1396 m cl s 1456 1396 m 7 Y s 1456 1403 m cl s 1456
 1396 m -6 Y s 1456 1390 m cl s 1491 1414 m -17 X s 1474 1414 m cl s 1491 1414 m 18 X s 1509 1414 m cl s 1491 1414 m 6 Y s 1491 1420 m cl s 1491 1414 m -7 Y s 1491 1407 m cl s 1527 1410 m -18 X s 1509 1410 m cl s 1527 1410 m 18 X s 1545 1410 m cl s
 1527 1410 m 6 Y s 1527 1416 m cl s 1527 1410 m -6 Y s 1527 1404 m cl s 1563 1397 m -18 X s 1545 1397 m cl s 1563 1397 m 18 X s 1581 1397 m cl s 1563 1397 m 7 Y s 1563 1404 m cl s 1563 1397 m -6 Y s 1563 1391 m cl s 1599 1394 m -18 X s 1581 1394 m cl
 s 1599 1394 m 18 X s 1617 1394 m cl s 1599 1394 m 7 Y s 1599 1401 m cl s 1599 1394 m -6 Y s 1599 1388 m cl s 1635 1366 m -18 X s 1617 1366 m cl s 1635 1366 m 18 X s 1653 1366 m cl s 1635 1366 m 7 Y s 1635 1373 m cl s 1635 1366 m -7 Y s 1635 1359 m
 cl s 1671 1341 m -18 X s 1653 1341 m cl s 1671 1341 m 18 X s 1689 1341 m cl s 1671 1341 m 8 Y s 1671 1349 m cl s 1671 1341 m -8 Y s 1671 1333 m cl s 1706 1310 m -17 X s 1689 1310 m cl s 1706 1310 m 18 X s 1724 1310 m cl s 1706 1310 m 9 Y s 1706 1319
 m cl s 1706 1310 m -9 Y s 1706 1301 m cl s 1742 1286 m -18 X s 1724 1286 m cl s 1742 1286 m 18 X s 1760 1286 m cl s 1742 1286 m 9 Y s 1742 1295 m cl s 1742 1286 m -10 Y s 1742 1276 m cl s 1778 1238 m -18 X s 1760 1238 m cl s 1778 1238 m 18 X s 1796
 1238 m cl s 1778 1238 m 11 Y s 1778 1249 m cl s 1778 1238 m -12 Y s 1778 1226 m cl s 1814 1195 m -18 X s 1796 1195 m cl s 1814 1195 m 18 X s 1832 1195 m cl s 1814 1195 m 13 Y s 1814 1208 m cl s 1814 1195 m -14 Y s 1814 1181 m cl s 1850 1156 m -18 X
 s 1832 1156 m cl s 1850 1156 m 18 X s 1868 1156 m cl s 1850 1156 m 16 Y s 1850 1172 m cl s 1850 1156 m -17 Y s 1850 1139 m cl s 1886 1123 m -18 X s 1868 1123 m cl s 1886 1123 m 18 X s 1904 1123 m cl s 1886 1123 m 18 Y s 1886 1141 m cl s 1886 1123 m
 -19 Y s 1886 1104 m cl s 1921 1080 m -17 X s 1904 1080 m cl s 1921 1080 m 18 X s 1939 1080 m cl s 1921 1080 m 22 Y s 1921 1102 m cl s 1921 1080 m -22 Y s 1921 1058 m cl s 1957 1094 m -18 X s 1939 1094 m cl s 1957 1094 m 18 X s 1975 1094 m cl s 1957
 1094 m 21 Y s 1957 1115 m cl s 1957 1094 m -21 Y s 1957 1073 m cl s 1993 1039 m -18 X s 1975 1039 m cl s 1993 1039 m 18 X s 2011 1039 m cl s 1993 1039 m 25 Y s 1993 1064 m cl s 1993 1039 m -26 Y s 1993 1013 m cl s 2029 998 m -18 X s 2011 998 m cl s
 2029 998 m 18 X s 2047 998 m cl s 2029 998 m 29 Y s 2029 1027 m cl s 2029 998 m -31 Y s 2029 967 m cl s 2065 961 m -18 X s 2047 961 m cl s 2065 961 m 18 X s 2083 961 m cl s 2065 961 m 34 Y s 2065 995 m cl s 2065 961 m -35 Y s 2065 926 m cl s 2101
 890 m -18 X s 2083 890 m cl s 2101 890 m 18 X s 2119 890 m cl s 2101 890 m 45 Y s 2101 935 m cl s 2101 890 m -47 Y s 2101 843 m cl s 2136 890 m -17 X s 2119 890 m cl s 2136 890 m 18 X s 2154 890 m cl s 2136 890 m 45 Y s 2136 935 m cl s 2136 890 m
 -47 Y s 2136 843 m cl s /w 31 def /w2 {w 2 div} def /w3 {w 3 div} def 381 911 417 878 452 938 488 921 524 901 560 968 596 986 632 911 667 961 703 974 739 1026 775 981 811 1054 847 1054 882 1061 918 1083 954 1112 990 1116 1026 1154 1062 1193 1097
 1182 1133 1207 1169 1249 1205 1268 1241 1288 1276 1315 1312 1329 1348 1355 1384 1375 1420 1401 1456 1396 1491 1414 1527 1410 1563 1397 1599 1394 1635 1366 1671 1341 1706 1310 1742 1286 1778 1238 1814 1195 1850 1156 1886 1123 1921 1080 1957 1094 1993
 1039 2029 998 2065 961 2101 890 2136 890 50 { m20} R 0 1 1 c 1 1 0 c black 1 1 0 c 363 906 m 36 10 d 35 10 d 36 11 d 36 11 d 36 11 d 36 11 d 36 12 d 35 12 d 36 12 d 36 13 d 36 13 d 36 13 d 36 14 d 35 15 d 36 15 d 36 16 d 36 16 d 36 18 d 36 18 d 35
 20 d 36 21 d 18 11 d 18 13 d 18 13 d 18 14 d 18 14 d 18 16 d 18 15 d 18 14 d 17 14 d 18 13 d 36 24 d 36 20 d 18 9 d 18 8 d 18 6 d 9 3 d 9 2 d 9 3 d 9 1 d 9 2 d 9 1 d 26 X 9 -1 d 9 -1 d 9 -2 d 9 -2 d 9 -2 d 9 -3 d 9 -3 d 18 -7 d 18 -8 d 18 -9 d 36
 -21 d 36 -25 d 17 -14 d 18 -14 d 18 -15 d 18 -15 d 18 -16 d 18 -15 d 18 -16 d 18 -17 d 18 -16 d 18 -17 d 18 -17 d 18 -17 d 35 -36 d 36 -38 d 36 -40 d 36 -42 d 36 -44 d 36 -47 d 35 -49 d -90 Y -35 65 d -36 60 d -36 55 d -36 52 d -36 48 d -36 44 d -35
 40 d -18 19 d -18 19 d -18 18 d -18 17 d -18 17 d -18 17 d -18 16 d -18 16 d -18 15 d -18 15 d -18 15 d -17 14 d -36 27 d -36 23 d -18 10 d -18 8 d -18 7 d -9 3 d -9 2 d -9 2 d -9 2 d -9 2 d -9 1 d -9 X -9 1 d -8 X -9 -1 d -9 X -9 -2 d -9 -1 d -9 -2
 d -9 -2 d -9 -2 d -18 -7 d -18 -8 d -18 -9 d -36 -23 d -36 -27 d -18 -14 d -17 -14 d -18 -15 d -18 -16 d -18 -14 d -18 -14 d -18 -14 d -18 -13 d -18 -12 d -18 -12 d -36 -23 d -35 -20 d -36 -19 d -36 -17 d -36 -17 d -36 -17 d -36 -16 d -35 -15 d -36
 -16 d -36 -15 d -36 -14 d -36 -15 d -36 -14 d -35 -13 d -36 -14 d -36 -12 d -36 -13 d -36 -12 d -36 -12 d -35 -12 d -36 -12 d f 0 1 1 c 0 1 0 c black 0 1 0 c 363 897 m 36 10 d 35 11 d 36 11 d 36 11 d 36 11 d 36 12 d 36 12 d 35 12 d 36 13 d 36 13 d
 36 13 d 36 14 d 36 14 d 35 15 d 36 16 d 36 16 d 36 16 d 36 18 d 36 18 d 35 20 d 36 21 d 18 12 d 18 12 d 18 13 d 18 14 d 18 15 d 18 15 d 18 15 d 18 15 d 17 14 d 18 13 d 36 24 d 36 21 d 18 9 d 18 8 d 18 6 d 9 3 d 9 2 d 9 2 d 9 2 d 9 1 d 9 1 d 9 1 d 17
 X 9 -1 d 9 -1 d 9 -2 d 9 -2 d 9 -2 d 9 -3 d 9 -3 d 18 -7 d 18 -8 d 18 -9 d 36 -22 d 36 -25 d 17 -14 d 18 -14 d 18 -15 d 18 -16 d 18 -15 d 18 -16 d 18 -16 d 18 -16 d 18 -17 d 18 -17 d 18 -17 d 18 -18 d 35 -37 d 36 -39 d 36 -42 d 36 -43 d 36 -47 d 36
 -49 d 35 -52 d -43 Y -35 58 d -36 56 d -36 52 d -36 48 d -36 45 d -36 43 d -35 39 d -18 18 d -18 19 d -18 17 d -18 18 d -18 16 d -18 17 d -18 16 d -18 16 d -18 15 d -18 15 d -18 14 d -17 15 d -36 26 d -36 22 d -18 10 d -18 8 d -18 7 d -9 3 d -9 3 d
 -9 2 d -9 2 d -9 1 d -9 1 d -9 1 d -26 X -9 -1 d -9 -1 d -9 -2 d -9 -2 d -9 -2 d -9 -2 d -18 -7 d -18 -8 d -18 -9 d -36 -22 d -36 -26 d -18 -14 d -17 -14 d -18 -15 d -18 -15 d -18 -15 d -18 -14 d -18 -14 d -18 -13 d -18 -12 d -18 -12 d -36 -22 d -35
 -21 d -36 -18 d -36 -18 d -36 -17 d -36 -16 d -36 -16 d -35 -15 d -36 -15 d -36 -14 d -36 -15 d -36 -13 d -36 -14 d -35 -13 d -36 -13 d -36 -12 d -36 -12 d -36 -12 d -36 -12 d -35 -11 d -36 -11 d f 0 0 1 c 9 lw black 0 0 1 c 363 887 m 36 11 d 35 11
 d 36 11 d 36 11 d 36 12 d 36 12 d 36 13 d 35 12 d 36 13 d 36 14 d 36 14 d 36 14 d 36 14 d 35 15 d 36 16 d 36 16 d 36 17 d 36 17 d 36 19 d 35 20 d 36 21 d 18 12 d 18 13 d 18 13 d 18 13 d 18 15 d 18 15 d 18 15 d 18 15 d 17 14 d 18 14 d 36 25 d 36 21 d
 18 9 d 18 8 d 18 6 d 9 3 d 9 2 d 9 2 d 9 2 d 9 1 d 9 1 d 26 X 9 -1 d 9 -1 d 9 -1 d 9 -2 d 9 -2 d 9 -3 d 9 -3 d 18 -7 d 18 -8 d 18 -9 d 36 -23 d 36 -25 d 17 -14 d 18 -15 d 18 -15 d 18 -15 d 18 -16 d 18 -16 d 18 -16 d 18 -16 d 18 -17 d 18 -18 d 18 -17
 d 18 -19 d 35 -38 d 36 -40 d 36 -43 d 36 -46 d 36 -49 d 36 -52 d 35 -55 d s black 3 lw 381 911 m -18 X s 363 911 m cl s 381 911 m 18 X s 399 911 m cl s 381 911 m 42 Y s 381 953 m cl s 381 911 m -42 Y s 381 869 m cl s 417 878 m -18 X s 399 878 m cl s
 417 878 m 17 X s 434 878 m cl s 417 878 m 47 Y s 417 925 m cl s 417 878 m -49 Y s 417 829 m cl s 452 938 m -18 X s 434 938 m cl s 452 938 m 18 X s 470 938 m cl s 452 938 m 38 Y s 452 976 m cl s 452 938 m -38 Y s 452 900 m cl s 488 921 m -18 X s 470
 921 m cl s 488 921 m 18 X s 506 921 m cl s 488 921 m 40 Y s 488 961 m cl s 488 921 m -41 Y s 488 880 m cl s 524 901 m -18 X s 506 901 m cl s 524 901 m 18 X s 542 901 m cl s 524 901 m 43 Y s 524 944 m cl s 524 901 m -44 Y s 524 857 m cl s 560 968 m
 -18 X s 542 968 m cl s 560 968 m 18 X s 578 968 m cl s 560 968 m 33 Y s 560 1001 m cl s 560 968 m -34 Y s 560 934 m cl s 596 986 m -18 X s 578 986 m cl s 596 986 m 18 X s 614 986 m cl s 596 986 m 31 Y s 596 1017 m cl s 596 986 m -31 Y s 596 955 m cl
 s 632 911 m -18 X s 614 911 m cl s 632 911 m 17 X s 649 911 m cl s 632 911 m 42 Y s 632 953 m cl s 632 911 m -42 Y s 632 869 m cl s 667 961 m -18 X s 649 961 m cl s 667 961 m 18 X s 685 961 m cl s 667 961 m 34 Y s 667 995 m cl s 667 961 m -35 Y s
 667 926 m cl s 703 974 m -18 X s 685 974 m cl s 703 974 m 18 X s 721 974 m cl s 703 974 m 33 Y s 703 1007 m cl s 703 974 m -33 Y s 703 941 m cl s 739 1026 m -18 X s 721 1026 m cl s 739 1026 m 18 X s 757 1026 m cl s 739 1026 m 27 Y s 739 1053 m cl s
 739 1026 m -26 Y s 739 1000 m cl s 775 981 m -18 X s 757 981 m cl s 775 981 m 18 X s 793 981 m cl s 775 981 m 31 Y s 775 1012 m cl s 775 981 m -33 Y s 775 948 m cl s 811 1054 m -18 X s 793 1054 m cl s 811 1054 m 18 X s 829 1054 m cl s 811 1054 m 24
 Y s 811 1078 m cl s 811 1054 m -24 Y s 811 1030 m cl s 847 1054 m -18 X s 829 1054 m cl s 847 1054 m 17 X s 864 1054 m cl s 847 1054 m 24 Y s 847 1078 m cl s 847 1054 m -24 Y s 847 1030 m cl s 882 1061 m -18 X s 864 1061 m cl s 882 1061 m 18 X s 900
 1061 m cl s 882 1061 m 23 Y s 882 1084 m cl s 882 1061 m -24 Y s 882 1037 m cl s 918 1083 m -18 X s 900 1083 m cl s 918 1083 m 18 X s 936 1083 m cl s 918 1083 m 21 Y s 918 1104 m cl s 918 1083 m -22 Y s 918 1061 m cl s 954 1112 m -18 X s 936 1112 m
 cl s 954 1112 m 18 X s 972 1112 m cl s 954 1112 m 19 Y s 954 1131 m cl s 954 1112 m -20 Y s 954 1092 m cl s 990 1116 m -18 X s 972 1116 m cl s 990 1116 m 18 X s 1008 1116 m cl s 990 1116 m 19 Y s 990 1135 m cl s 990 1116 m -19 Y s 990 1097 m cl s
 1026 1154 m -18 X s 1008 1154 m cl s 1026 1154 m 18 X s 1044 1154 m cl s 1026 1154 m 16 Y s 1026 1170 m cl s 1026 1154 m -16 Y s 1026 1138 m cl s 1062 1193 m -18 X s 1044 1193 m cl s 1062 1193 m 17 X s 1079 1193 m cl s 1062 1193 m 14 Y s 1062 1207 m
 cl s 1062 1193 m -13 Y s 1062 1180 m cl s 1097 1182 m -18 X s 1079 1182 m cl s 1097 1182 m 18 X s 1115 1182 m cl s 1097 1182 m 15 Y s 1097 1197 m cl s 1097 1182 m -14 Y s 1097 1168 m cl s 1133 1207 m -18 X s 1115 1207 m cl s 1133 1207 m 18 X s 1151
 1207 m cl s 1133 1207 m 13 Y s 1133 1220 m cl s 1133 1207 m -13 Y s 1133 1194 m cl s 1169 1249 m -18 X s 1151 1249 m cl s 1169 1249 m 18 X s 1187 1249 m cl s 1169 1249 m 11 Y s 1169 1260 m cl s 1169 1249 m -11 Y s 1169 1238 m cl s 1205 1268 m -18 X
 s 1187 1268 m cl s 1205 1268 m 18 X s 1223 1268 m cl s 1205 1268 m 11 Y s 1205 1279 m cl s 1205 1268 m -10 Y s 1205 1258 m cl s 1241 1288 m -18 X s 1223 1288 m cl s 1241 1288 m 18 X s 1259 1288 m cl s 1241 1288 m 9 Y s 1241 1297 m cl s 1241 1288 m
 -10 Y s 1241 1278 m cl s 1276 1315 m -17 X s 1259 1315 m cl s 1276 1315 m 18 X s 1294 1315 m cl s 1276 1315 m 9 Y s 1276 1324 m cl s 1276 1315 m -9 Y s 1276 1306 m cl s 1312 1329 m -18 X s 1294 1329 m cl s 1312 1329 m 18 X s 1330 1329 m cl s 1312
 1329 m 8 Y s 1312 1337 m cl s 1312 1329 m -8 Y s 1312 1321 m cl s 1348 1355 m -18 X s 1330 1355 m cl s 1348 1355 m 18 X s 1366 1355 m cl s 1348 1355 m 8 Y s 1348 1363 m cl s 1348 1355 m -7 Y s 1348 1348 m cl s 1384 1375 m -18 X s 1366 1375 m cl s
 1384 1375 m 18 X s 1402 1375 m cl s 1384 1375 m 7 Y s 1384 1382 m cl s 1384 1375 m -7 Y s 1384 1368 m cl s 1420 1401 m -18 X s 1402 1401 m cl s 1420 1401 m 18 X s 1438 1401 m cl s 1420 1401 m 6 Y s 1420 1407 m cl s 1420 1401 m -7 Y s 1420 1394 m cl
 s 1456 1396 m -18 X s 1438 1396 m cl s 1456 1396 m 18 X s 1474 1396 m cl s 1456 1396 m 7 Y s 1456 1403 m cl s 1456 1396 m -6 Y s 1456 1390 m cl s 1491 1414 m -17 X s 1474 1414 m cl s 1491 1414 m 18 X s 1509 1414 m cl s 1491 1414 m 6 Y s 1491 1420 m
 cl s 1491 1414 m -7 Y s 1491 1407 m cl s 1527 1410 m -18 X s 1509 1410 m cl s 1527 1410 m 18 X s 1545 1410 m cl s 1527 1410 m 6 Y s 1527 1416 m cl s 1527 1410 m -6 Y s 1527 1404 m cl s 1563 1397 m -18 X s 1545 1397 m cl s 1563 1397 m 18 X s 1581
 1397 m cl s 1563 1397 m 7 Y s 1563 1404 m cl s 1563 1397 m -6 Y s 1563 1391 m cl s 1599 1394 m -18 X s 1581 1394 m cl s 1599 1394 m 18 X s 1617 1394 m cl s 1599 1394 m 7 Y s 1599 1401 m cl s 1599 1394 m -6 Y s 1599 1388 m cl s 1635 1366 m -18 X s
 1617 1366 m cl s 1635 1366 m 18 X s 1653 1366 m cl s 1635 1366 m 7 Y s 1635 1373 m cl s 1635 1366 m -7 Y s 1635 1359 m cl s 1671 1341 m -18 X s 1653 1341 m cl s 1671 1341 m 18 X s 1689 1341 m cl s 1671 1341 m 8 Y s 1671 1349 m cl s 1671 1341 m -8 Y
 s 1671 1333 m cl s 1706 1310 m -17 X s 1689 1310 m cl s 1706 1310 m 18 X s 1724 1310 m cl s 1706 1310 m 9 Y s 1706 1319 m cl s 1706 1310 m -9 Y s 1706 1301 m cl s 1742 1286 m -18 X s 1724 1286 m cl s 1742 1286 m 18 X s 1760 1286 m cl s 1742 1286 m 9
 Y s 1742 1295 m cl s 1742 1286 m -10 Y s 1742 1276 m cl s 1778 1238 m -18 X s 1760 1238 m cl s 1778 1238 m 18 X s 1796 1238 m cl s 1778 1238 m 11 Y s 1778 1249 m cl s 1778 1238 m -12 Y s 1778 1226 m cl s 1814 1195 m -18 X s 1796 1195 m cl s 1814
 1195 m 18 X s 1832 1195 m cl s 1814 1195 m 13 Y s 1814 1208 m cl s 1814 1195 m -14 Y s 1814 1181 m cl s 1850 1156 m -18 X s 1832 1156 m cl s 1850 1156 m 18 X s 1868 1156 m cl s 1850 1156 m 16 Y s 1850 1172 m cl s 1850 1156 m -17 Y s 1850 1139 m cl s
 1886 1123 m -18 X s 1868 1123 m cl s 1886 1123 m 18 X s 1904 1123 m cl s 1886 1123 m 18 Y s 1886 1141 m cl s 1886 1123 m -19 Y s 1886 1104 m cl s 1921 1080 m -17 X s 1904 1080 m cl s 1921 1080 m 18 X s 1939 1080 m cl s 1921 1080 m 22 Y s 1921 1102 m
 cl s 1921 1080 m -22 Y s 1921 1058 m cl s 1957 1094 m -18 X s 1939 1094 m cl s 1957 1094 m 18 X s 1975 1094 m cl s 1957 1094 m 21 Y s 1957 1115 m cl s 1957 1094 m -21 Y s 1957 1073 m cl s 1993 1039 m -18 X s 1975 1039 m cl s 1993 1039 m 18 X s 2011
 1039 m cl s 1993 1039 m 25 Y s 1993 1064 m cl s 1993 1039 m -26 Y s 1993 1013 m cl s 2029 998 m -18 X s 2011 998 m cl s 2029 998 m 18 X s 2047 998 m cl s 2029 998 m 29 Y s 2029 1027 m cl s 2029 998 m -31 Y s 2029 967 m cl s 2065 961 m -18 X s 2047
 961 m cl s 2065 961 m 18 X s 2083 961 m cl s 2065 961 m 34 Y s 2065 995 m cl s 2065 961 m -35 Y s 2065 926 m cl s 2101 890 m -18 X s 2083 890 m cl s 2101 890 m 18 X s 2119 890 m cl s 2101 890 m 45 Y s 2101 935 m cl s 2101 890 m -47 Y s 2101 843 m cl
 s 2136 890 m -17 X s 2119 890 m cl s 2136 890 m 18 X s 2154 890 m cl s 2136 890 m 45 Y s 2136 935 m cl s 2136 890 m -47 Y s 2136 843 m cl s 381 911 417 878 452 938 488 921 524 901 560 968 596 986 632 911 667 961 703 974 739 1026 775 981 811 1054 847
 1054 882 1061 918 1083 954 1112 990 1116 1026 1154 1062 1193 1097 1182 1133 1207 1169 1249 1205 1268 1241 1288 1276 1315 1312 1329 1348 1355 1384 1375 1420 1401 1456 1396 1491 1414 1527 1410 1563 1397 1599 1394 1635 1366 1671 1341 1706 1310 1742
 1286 1778 1238 1814 1195 1850 1156 1886 1123 1921 1080 1957 1094 1993 1039 2029 998 2065 961 2101 890 2136 890 50 { m20} R 0.52 0.76 0.64 c[ 4 8] 0 sd 9 lw black 0.52 0.76 0.64 c 363 887 m 36 11 d 35 11 d 36 11 d 36 11 d 36 12 d 36 12 d 36 13 d 35
 12 d 36 13 d 36 14 d 36 14 d 36 14 d 36 14 d 35 15 d 36 16 d 36 16 d 36 17 d 36 17 d 36 18 d 35 18 d 18 10 d 18 9 d 18 10 d 18 10 d 18 11 d 18 10 d 18 11 d 18 11 d 36 21 d 35 18 d 18 7 d 18 8 d 18 6 d 18 5 d 18 5 d 18 4 d 18 3 d 18 3 d 18 2 d 18 1 d
 17 X 18 -1 d 18 -1 d 18 -2 d 18 -3 d 18 -3 d 18 -4 d 18 -6 d 18 -5 d 18 -7 d 36 -15 d 35 -19 d 36 -21 d 36 -25 d 36 -27 d 18 -15 d 18 -16 d 18 -16 d 18 -18 d 17 -18 d 18 -18 d 18 -20 d 18 -20 d 18 -21 d 18 -22 d 36 -46 d 36 -48 d 36 -52 d 35 -55 d s
 0.54 0.66 0.63 c black 0.54 0.66 0.63 c 1084 634 m 31 98 d s 1115 732 m 18 52 d 18 50 d 18 48 d 18 44 d 18 43 d 18 39 d 18 37 d 9 18 d 9 17 d 9 16 d 8 16 d 18 29 d 18 27 d 18 24 d 36 40 d 18 17 d 18 13 d 9 6 d 9 6 d 9 4 d 9 4 d 9 3 d 9 3 d 9 2 d 9 2
 d 26 X 9 -1 d 9 -2 d 9 -3 d 9 -3 d 9 -4 d 9 -4 d 9 -5 d 9 -6 d 9 -6 d 18 -15 d 18 -17 d 18 -20 d 18 -23 d 18 -25 d 18 -27 d 8 -15 d 9 -16 d 9 -16 d 9 -17 d 9 -17 d 9 -18 d 18 -38 d 18 -41 d 18 -43 d 18 -45 d 18 -49 d 18 -51 d 18 -53 d 24 -78 d s
 black[  ] 0 sd 3 lw 363 634 m 1791 X s 363 659 m -25 Y s 436 646 m -12 Y s 508 646 m -12 Y s 581 646 m -12 Y s 654 659 m -25 Y s 727 646 m -12 Y s 800 646 m -12 Y s 873 646 m -12 Y s 945 659 m -25 Y s 1018 646 m -12 Y s 1091 646 m -12 Y s 1164 646 m
 -12 Y s 1237 659 m -25 Y s 1310 646 m -12 Y s 1382 646 m -12 Y s 1455 646 m -12 Y s 1528 659 m -25 Y s 1601 646 m -12 Y s 1674 646 m -12 Y s 1747 646 m -12 Y s 1819 659 m -25 Y s 1892 646 m -12 Y s 1965 646 m -12 Y s 2038 646 m -12 Y s 2111 659 m
 -25 Y s 2111 659 m -25 Y s 363 1484 m 1791 X s 363 1459 m 25 Y s 436 1471 m 13 Y s 508 1471 m 13 Y s 581 1471 m 13 Y s 654 1459 m 25 Y s 727 1471 m 13 Y s 800 1471 m 13 Y s 873 1471 m 13 Y s 945 1459 m 25 Y s 1018 1471 m 13 Y s 1091 1471 m 13 Y s
 1164 1471 m 13 Y s 1237 1459 m 25 Y s 1310 1471 m 13 Y s 1382 1471 m 13 Y s 1455 1471 m 13 Y s 1528 1459 m 25 Y s 1601 1471 m 13 Y s 1674 1471 m 13 Y s 1747 1471 m 13 Y s 1819 1459 m 25 Y s 1892 1471 m 13 Y s 1965 1471 m 13 Y s 2038 1471 m 13 Y s
 2111 1459 m 25 Y s 2111 1459 m 25 Y s 363 634 m 850 Y s 390 641 m -27 X s 390 697 m -27 X s 390 737 m -27 X s 390 768 m -27 X s 390 793 m -27 X s 390 815 m -27 X s 390 834 m -27 X s 390 850 m -27 X s 417 865 m -54 X s 390 961 m -27 X s 390 1018 m
 -27 X s 390 1058 m -27 X s 390 1089 m -27 X s 390 1114 m -27 X s 390 1135 m -27 X s 390 1154 m -27 X s 390 1170 m -27 X s 417 1185 m -54 X s 390 1282 m -27 X s 390 1338 m -27 X s 390 1378 m -27 X s 390 1409 m -27 X s 390 1435 m -27 X s 390 1456 m
 -27 X s 390 1475 m -27 X s 2154 634 m 850 Y s 2127 641 m 27 X s 2127 697 m 27 X s 2127 737 m 27 X s 2127 768 m 27 X s 2127 793 m 27 X s 2127 815 m 27 X s 2127 834 m 27 X s 2127 850 m 27 X s 2101 865 m 53 X s 2127 961 m 27 X s 2127 1018 m 27 X s 2127
 1058 m 27 X s 2127 1089 m 27 X s 2127 1114 m 27 X s 2127 1135 m 27 X s 2127 1154 m 27 X s 2127 1170 m 27 X s 2101 1185 m 53 X s 2127 1282 m 27 X s 2127 1338 m 27 X s 2127 1378 m 27 X s 2127 1409 m 27 X s 2127 1435 m 27 X s 2127 1456 m 27 X s 2127
 1475 m 27 X s
 gsave  2268 1077 0 461 C 677.708 1215.31 t 0 r /Helvetica findfont 58.7189 sf 0 0 m (4mu) show NC gr  1 1 1 c 453 161 454 1269 bf black
 gsave  2268 1077 0 461 C 566.929 1371.71 t 0 r /Helvetica-Bold findfont 48.9324 sf 0 0 m (MC15) show NC gr  510 1390 m20
 gsave  2268 1077 0 461 C 566.929 1293.51 t 0 r /Helvetica-Bold findfont 48.9324 sf 0 0 m (Projection of Signal pdf) show NC gr  0 0 1 c 9 lw 471 1309 m 79 X s black 3 lw 1 1 1 c 2268 461 0 0 bf black 1 1 1 c 1791 364 363 74 bf black 1791 364 363 74
 bl 363 74 m 1791 X s
 gsave  2268 461 0 0 C 1915.83 13.0329 t 0 r /Helvetica findfont 22.9045 sf 0 0 m (4l Invariant Mass \(GeV\)) show NC gr  363 85 m -11 Y s 436 79 m -5 Y s 508 79 m -5 Y s 581 79 m -5 Y s 654 85 m -11 Y s 727 79 m -5 Y s 800 79 m -5 Y s 873 79 m -5 Y
 s 945 85 m -11 Y s 1018 79 m -5 Y s 1091 79 m -5 Y s 1164 79 m -5 Y s 1237 85 m -11 Y s 1310 79 m -5 Y s 1382 79 m -5 Y s 1455 79 m -5 Y s 1528 85 m -11 Y s 1601 79 m -5 Y s 1674 79 m -5 Y s 1747 79 m -5 Y s 1819 85 m -11 Y s 1892 79 m -5 Y s 1965
 79 m -5 Y s 2038 79 m -5 Y s 2111 85 m -11 Y s 2111 85 m -11 Y s
 gsave  2268 461 0 0 C 342.112 55.3896 t 0 r /Helvetica findfont 22.9045 sf 0 0 m (620) show NC gr 
 gsave  2268 461 0 0 C 632.093 55.3896 t 0 r /Helvetica findfont 22.9045 sf 0 0 m (640) show NC gr 
 gsave  2268 461 0 0 C 925.333 55.3896 t 0 r /Helvetica findfont 22.9045 sf 0 0 m (660) show NC gr 
 gsave  2268 461 0 0 C 1215.31 55.3896 t 0 r /Helvetica findfont 22.9045 sf 0 0 m (680) show NC gr 
 gsave  2268 461 0 0 C 1505.29 55.3896 t 0 r /Helvetica findfont 22.9045 sf 0 0 m (700) show NC gr 
 gsave  2268 461 0 0 C 1798.53 55.3896 t 0 r /Helvetica findfont 22.9045 sf 0 0 m (720) show NC gr 
 gsave  2268 461 0 0 C 2088.51 55.3896 t 0 r /Helvetica findfont 22.9045 sf 0 0 m (740) show NC gr  363 438 m 1791 X s 363 427 m 11 Y s 436 433 m 5 Y s 508 433 m 5 Y s 581 433 m 5 Y s 654 427 m 11 Y s 727 433 m 5 Y s 800 433 m 5 Y s 873 433 m 5 Y s
 945 427 m 11 Y s 1018 433 m 5 Y s 1091 433 m 5 Y s 1164 433 m 5 Y s 1237 427 m 11 Y s 1310 433 m 5 Y s 1382 433 m 5 Y s 1455 433 m 5 Y s 1528 427 m 11 Y s 1601 433 m 5 Y s 1674 433 m 5 Y s 1747 433 m 5 Y s 1819 427 m 11 Y s 1892 433 m 5 Y s 1965 433
 m 5 Y s 2038 433 m 5 Y s 2111 427 m 11 Y s 2111 427 m 11 Y s 363 74 m 364 Y s 417 74 m -54 X s 390 81 m -27 X s 390 88 m -27 X s 390 96 m -27 X s 390 103 m -27 X s 417 110 m -54 X s 390 118 m -27 X s 390 125 m -27 X s 390 132 m -27 X s 390 139 m -27
 X s 417 147 m -54 X s 390 154 m -27 X s 390 161 m -27 X s 390 169 m -27 X s 390 176 m -27 X s 417 183 m -54 X s 390 190 m -27 X s 390 198 m -27 X s 390 205 m -27 X s 390 212 m -27 X s 417 220 m -54 X s 390 227 m -27 X s 390 234 m -27 X s 390 241 m
 -27 X s 390 249 m -27 X s 417 256 m -54 X s 390 263 m -27 X s 390 271 m -27 X s 390 278 m -27 X s 390 285 m -27 X s 417 293 m -54 X s 390 300 m -27 X s 390 307 m -27 X s 390 314 m -27 X s 390 322 m -27 X s 417 329 m -54 X s 390 336 m -27 X s 390 344
 m -27 X s 390 351 m -27 X s 390 358 m -27 X s 417 365 m -54 X s 390 373 m -27 X s 390 380 m -27 X s 390 387 m -27 X s 390 395 m -27 X s 417 402 m -54 X s 390 409 m -27 X s 390 416 m -27 X s 390 424 m -27 X s 390 431 m -27 X s 417 438 m -54 X s
 gsave  2268 461 0 0 C 329.08 65.1643 t 0 r /Helvetica findfont 22.9045 sf 0 0 m (\2555) show NC gr 
 gsave  2268 461 0 0 C 329.08 101.005 t 0 r /Helvetica findfont 22.9045 sf 0 0 m (\2554) show NC gr 
 gsave  2268 461 0 0 C 329.08 140.103 t 0 r /Helvetica findfont 22.9045 sf 0 0 m (\2553) show NC gr 
 gsave  2268 461 0 0 C 329.08 175.944 t 0 r /Helvetica findfont 22.9045 sf 0 0 m (\2552) show NC gr 
 gsave  2268 461 0 0 C 332.338 211.784 t 0 r /Helvetica findfont 22.9045 sf 0 0 m (\2551) show NC gr 
 gsave  2268 461 0 0 C 335.596 247.624 t 0 r /Helvetica findfont 22.9045 sf 0 0 m (0) show NC gr 
 gsave  2268 461 0 0 C 338.854 283.465 t 0 r /Helvetica findfont 22.9045 sf 0 0 m (1) show NC gr 
 gsave  2268 461 0 0 C 335.596 319.305 t 0 r /Helvetica findfont 22.9045 sf 0 0 m (2) show NC gr 
 gsave  2268 461 0 0 C 335.596 358.403 t 0 r /Helvetica findfont 22.9045 sf 0 0 m (3) show NC gr 
 gsave  2268 461 0 0 C 335.596 394.244 t 0 r /Helvetica findfont 22.9045 sf 0 0 m (4) show NC gr 
 gsave  2268 461 0 0 C 335.596 430.084 t 0 r /Helvetica findfont 22.9045 sf 0 0 m (5) show NC gr  2154 74 m 364 Y s 2101 74 m 53 X s 2127 81 m 27 X s 2127 88 m 27 X s 2127 96 m 27 X s 2127 103 m 27 X s 2101 110 m 53 X s 2127 118 m 27 X s 2127 125 m
 27 X s 2127 132 m 27 X s 2127 139 m 27 X s 2101 147 m 53 X s 2127 154 m 27 X s 2127 161 m 27 X s 2127 169 m 27 X s 2127 176 m 27 X s 2101 183 m 53 X s 2127 190 m 27 X s 2127 198 m 27 X s 2127 205 m 27 X s 2127 212 m 27 X s 2101 220 m 53 X s 2127 227
 m 27 X s 2127 234 m 27 X s 2127 241 m 27 X s 2127 249 m 27 X s 2101 256 m 53 X s 2127 263 m 27 X s 2127 271 m 27 X s 2127 278 m 27 X s 2127 285 m 27 X s 2101 293 m 53 X s 2127 300 m 27 X s 2127 307 m 27 X s 2127 314 m 27 X s 2127 322 m 27 X s 2101
 329 m 53 X s 2127 336 m 27 X s 2127 344 m 27 X s 2127 351 m 27 X s 2127 358 m 27 X s 2101 365 m 53 X s 2127 373 m 27 X s 2127 380 m 27 X s 2127 387 m 27 X s 2127 395 m 27 X s 2101 402 m 53 X s 2127 409 m 27 X s 2127 416 m 27 X s 2127 424 m 27 X s
 2127 431 m 27 X s 2101 438 m 53 X s 6 lw 0.2 0.8 0.2 c black 3 lw 0.2 0.8 0.2 c 363 256 m 18 Y 36 X -36 Y 35 X 42 Y 36 X -28 Y 36 X -26 Y 36 X 51 Y 36 X 8 Y 36 X -89 Y 35 X 33 Y 36 X -1 Y 36 X 46 Y 36 X -76 Y 36 X 77 Y 36 X -23 Y 35 X -13 Y 36 X 9 Y
 36 X 22 Y 36 X -24 Y 36 X 42 Y 36 X 54 Y 35 X -80 Y 36 X 8 Y 36 X 53 Y 36 X -22 Y 36 X -38 Y 36 X -7 Y 35 X -57 Y 36 X 12 Y 36 X -1 Y 36 X 58 Y 36 X -72 Y 36 X 84 Y 35 X 1 Y 36 X -19 Y 36 X 65 Y 36 X -45 Y 36 X -9 Y 36 X -16 Y 35 X 19 Y 36 X -57 Y
 36 X -27 Y 36 X -1 Y 36 X 13 Y 36 X -5 Y 35 X 93 Y 36 X -25 Y 36 X 2 Y 36 X 10 Y 36 X -23 Y 36 X 40 Y 35 X -40 Y f 6 lw black 0.2 0.8 0.2 c black 363 274 m 36 X -36 Y 35 X 42 Y 36 X -28 Y 36 X -26 Y 36 X 51 Y 36 X 8 Y 36 X -89 Y 35 X 33 Y 36 X -1 Y
 36 X 46 Y 36 X -76 Y 36 X 77 Y 36 X -23 Y 35 X -13 Y 36 X 9 Y 36 X 22 Y 36 X -24 Y 36 X 42 Y 36 X 54 Y 35 X -80 Y 36 X 8 Y 36 X 53 Y 36 X -22 Y 36 X -38 Y 36 X -7 Y 35 X -57 Y 36 X 12 Y 36 X -1 Y 36 X 58 Y 36 X -72 Y 36 X 84 Y 35 X 1 Y 36 X -19 Y 36
 X 65 Y 36 X -45 Y 36 X -9 Y 36 X -16 Y 35 X 19 Y 36 X -57 Y 36 X -27 Y 36 X -1 Y 36 X 13 Y 36 X -5 Y 35 X 93 Y 36 X -25 Y 36 X 2 Y 36 X 10 Y 36 X -23 Y 36 X 40 Y 35 X s 3 lw 363 74 m 1791 X s 363 85 m -11 Y s 436 79 m -5 Y s 508 79 m -5 Y s 581 79 m
 -5 Y s 654 85 m -11 Y s 727 79 m -5 Y s 800 79 m -5 Y s 873 79 m -5 Y s 945 85 m -11 Y s 1018 79 m -5 Y s 1091 79 m -5 Y s 1164 79 m -5 Y s 1237 85 m -11 Y s 1310 79 m -5 Y s 1382 79 m -5 Y s 1455 79 m -5 Y s 1528 85 m -11 Y s 1601 79 m -5 Y s 1674
 79 m -5 Y s 1747 79 m -5 Y s 1819 85 m -11 Y s 1892 79 m -5 Y s 1965 79 m -5 Y s 2038 79 m -5 Y s 2111 85 m -11 Y s 2111 85 m -11 Y s 363 438 m 1791 X s 363 427 m 11 Y s 436 433 m 5 Y s 508 433 m 5 Y s 581 433 m 5 Y s 654 427 m 11 Y s 727 433 m 5 Y
 s 800 433 m 5 Y s 873 433 m 5 Y s 945 427 m 11 Y s 1018 433 m 5 Y s 1091 433 m 5 Y s 1164 433 m 5 Y s 1237 427 m 11 Y s 1310 433 m 5 Y s 1382 433 m 5 Y s 1455 433 m 5 Y s 1528 427 m 11 Y s 1601 433 m 5 Y s 1674 433 m 5 Y s 1747 433 m 5 Y s 1819 427
 m 11 Y s 1892 433 m 5 Y s 1965 433 m 5 Y s 2038 433 m 5 Y s 2111 427 m 11 Y s 2111 427 m 11 Y s 363 74 m 364 Y s 417 74 m -54 X s 390 81 m -27 X s 390 88 m -27 X s 390 96 m -27 X s 390 103 m -27 X s 417 110 m -54 X s 390 118 m -27 X s 390 125 m -27
 X s 390 132 m -27 X s 390 139 m -27 X s 417 147 m -54 X s 390 154 m -27 X s 390 161 m -27 X s 390 169 m -27 X s 390 176 m -27 X s 417 183 m -54 X s 390 190 m -27 X s 390 198 m -27 X s 390 205 m -27 X s 390 212 m -27 X s 417 220 m -54 X s 390 227 m
 -27 X s 390 234 m -27 X s 390 241 m -27 X s 390 249 m -27 X s 417 256 m -54 X s 390 263 m -27 X s 390 271 m -27 X s 390 278 m -27 X s 390 285 m -27 X s 417 293 m -54 X s 390 300 m -27 X s 390 307 m -27 X s 390 314 m -27 X s 390 322 m -27 X s 417 329
 m -54 X s 390 336 m -27 X s 390 344 m -27 X s 390 351 m -27 X s 390 358 m -27 X s 417 365 m -54 X s 390 373 m -27 X s 390 380 m -27 X s 390 387 m -27 X s 390 395 m -27 X s 417 402 m -54 X s 390 409 m -27 X s 390 416 m -27 X s 390 424 m -27 X s 390
 431 m -27 X s 417 438 m -54 X s 2154 74 m 364 Y s 2101 74 m 53 X s 2127 81 m 27 X s 2127 88 m 27 X s 2127 96 m 27 X s 2127 103 m 27 X s 2101 110 m 53 X s 2127 118 m 27 X s 2127 125 m 27 X s 2127 132 m 27 X s 2127 139 m 27 X s 2101 147 m 53 X s 2127
 154 m 27 X s 2127 161 m 27 X s 2127 169 m 27 X s 2127 176 m 27 X s 2101 183 m 53 X s 2127 190 m 27 X s 2127 198 m 27 X s 2127 205 m 27 X s 2127 212 m 27 X s 2101 220 m 53 X s 2127 227 m 27 X s 2127 234 m 27 X s 2127 241 m 27 X s 2127 249 m 27 X s
 2101 256 m 53 X s 2127 263 m 27 X s 2127 271 m 27 X s 2127 278 m 27 X s 2127 285 m 27 X s 2101 293 m 53 X s 2127 300 m 27 X s 2127 307 m 27 X s 2127 314 m 27 X s 2127 322 m 27 X s 2101 329 m 53 X s 2127 336 m 27 X s 2127 344 m 27 X s 2127 351 m 27 X
 s 2127 358 m 27 X s 2101 365 m 53 X s 2127 373 m 27 X s 2127 380 m 27 X s 2127 387 m 27 X s 2127 395 m 27 X s 2101 402 m 53 X s 2127 409 m 27 X s 2127 416 m 27 X s 2127 424 m 27 X s 2127 431 m 27 X s 2101 438 m 53 X s
 gr  gr showpage
end
%%EOF
