%!PS-Adobe-2.0 EPSF-2.0
%%BoundingBox:  0 0 567 384
%%Title: H4l2015_plotfit/gg_mass_signal_500_H4l_4e.eps: 
%%Creator: ROOT Version 5.34/10
%%CreationDate: Thu Feb 16 13:49:27 2017
%%EndComments
%%BeginProlog
80 dict begin
/s {stroke} def /l {lineto} def /m {moveto} def /t {translate} def
/r {rotate} def /rl {roll}  def /R {repeat} def
/d {rlineto} def /rm {rmoveto} def /gr {grestore} def /f {eofill} def
/c {setrgbcolor} def /black {0 setgray} def /sd {setdash} def
/cl {closepath} def /sf {scalefont setfont} def /lw {setlinewidth} def
/box {m dup 0 exch d exch 0 d 0 exch neg d cl} def
/NC{systemdict begin initclip end}def/C{NC box clip newpath}def
/bl {box s} def /bf {box f} def /Y { 0 exch d} def /X { 0 d} def 
/K {{pop pop 0 moveto} exch kshow} bind def
/ita {/ang 15 def gsave [1 0 ang dup sin exch cos div 1 0 0] concat} def 
/mp {newpath /y exch def /x exch def} def
/side {[w .77 mul w .23 mul] .385 w mul sd w 0 l currentpoint t -144 r} def
/mr {mp x y w2 0 360 arc} def /m24 {mr s} def /m20 {mr f} def
/mb {mp x y w2 add m w2 neg 0 d 0 w neg d w 0 d 0 w d cl} def
/mt {mp x y w2 add m w2 neg w neg d w 0 d cl} def
/m21 {mb f} def /m25 {mb s} def /m22 {mt f} def /m26{mt s} def
/m23 {mp x y w2 sub m w2 w d w neg 0 d cl f} def
/m27 {mp x y w2 add m w3 neg w2 neg d w3 w2 neg d w3 w2 d cl s} def
/m28 {mp x w2 sub y w2 sub w3 add m w3 0 d  0 w3 neg d w3 0 d 0 w3 d w3 0 d  0 w3 d w3 neg 0 d 0 w3 d w3 neg 0 d 0 w3 neg d w3 neg 0 d cl s } def
/m29 {mp gsave x w2 sub y w2 add w3 sub m currentpoint t 4 {side} repeat cl fill gr} def
/m30 {mp gsave x w2 sub y w2 add w3 sub m currentpoint t 4 {side} repeat cl s gr} def
/m31 {mp x y w2 sub m 0 w d x w2 sub y m w 0 d x w2 sub y w2 add m w w neg d x w2 sub y w2 sub m w w d s} def
/m32 {mp x y w2 sub m w2 w d w neg 0 d cl s} def
/m33 {mp x y w2 add m w3 neg w2 neg d w3 w2 neg d w3 w2 d cl f} def
/m34 {mp x w2 sub y w2 sub w3 add m w3 0 d  0 w3 neg d w3 0 d 0 w3 d w3 0 d  0 w3 d w3 neg 0 d 0 w3 d w3 neg 0 d 0 w3 neg d w3 neg 0 d cl f } def
/m2 {mp x y w2 sub m 0 w d x w2 sub y m w 0 d s} def
/m5 {mp x w2 sub y w2 sub m w w d x w2 sub y w2 add m w w neg d s} def
/reEncode {exch findfont dup length dict begin {1 index /FID eq  {pop pop} {def} ifelse } forall /Encoding exch def currentdict end dup /FontName get exch definefont pop } def [/Times-Bold /Times-Italic /Times-BoldItalic /Helvetica /Helvetica-Oblique
 /Helvetica-Bold /Helvetica-BoldOblique /Courier /Courier-Oblique /Courier-Bold /Courier-BoldOblique /Times-Roman /AvantGarde-Book /AvantGarde-BookOblique /AvantGarde-Demi /AvantGarde-DemiOblique /Bookman-Demi /Bookman-DemiItalic /Bookman-Light
 /Bookman-LightItalic /Helvetica-Narrow /Helvetica-Narrow-Bold /Helvetica-Narrow-BoldOblique /Helvetica-Narrow-Oblique /NewCenturySchlbk-Roman /NewCenturySchlbk-Bold /NewCenturySchlbk-BoldItalic /NewCenturySchlbk-Italic /Palatino-Bold
 /Palatino-BoldItalic /Palatino-Italic /Palatino-Roman ] {ISOLatin1Encoding reEncode } forall
%%EndProlog
%%BeginSetup
%%EndSetup
newpath  gsave  .25 .25 scale  gsave  0 0 t black[  ] 0 sd 3 lw 1 1 1 c 2268 1538 0 0 bf black 1 1 1 c 2222 738 23 784 bf black 1 1 1 c 2222 739 23 15 bf black 1 1 1 c 2268 1077 0 461 bf black 1 1 1 c 1791 850 363 634 bf black 1791 850 363 634 bl 363
 634 m 1791 X s
 gsave  2268 1077 0 461 C 1642.14 498.507 t 0 r /Helvetica findfont 48.9324 sf 0 0 m (4l Invariant Mass \(GeV\)) show NC gr  363 659 m -25 Y s 416 646 m -12 Y s 468 646 m -12 Y s 521 646 m -12 Y s 574 646 m -12 Y s 626 659 m -25 Y s 679 646 m -12 Y s
 732 646 m -12 Y s 784 646 m -12 Y s 837 646 m -12 Y s 890 659 m -25 Y s 942 646 m -12 Y s 995 646 m -12 Y s 1048 646 m -12 Y s 1101 646 m -12 Y s 1153 659 m -25 Y s 1206 646 m -12 Y s 1259 646 m -12 Y s 1311 646 m -12 Y s 1364 646 m -12 Y s 1417 659
 m -25 Y s 1469 646 m -12 Y s 1522 646 m -12 Y s 1575 646 m -12 Y s 1627 646 m -12 Y s 1680 659 m -25 Y s 1733 646 m -12 Y s 1785 646 m -12 Y s 1838 646 m -12 Y s 1891 646 m -12 Y s 1944 659 m -25 Y s 1944 659 m -25 Y s 1996 646 m -12 Y s 2049 646 m
 -12 Y s 2102 646 m -12 Y s 2154 646 m -12 Y s
 gsave  2268 1077 0 461 C 319.305 586.478 t 0 r /Helvetica findfont 48.9324 sf 0 0 m (450) show NC gr 
 gsave  2268 1077 0 461 C 583.22 586.478 t 0 r /Helvetica findfont 48.9324 sf 0 0 m (460) show NC gr 
 gsave  2268 1077 0 461 C 847.135 586.478 t 0 r /Helvetica findfont 48.9324 sf 0 0 m (470) show NC gr 
 gsave  2268 1077 0 461 C 1107.79 586.478 t 0 r /Helvetica findfont 48.9324 sf 0 0 m (480) show NC gr 
 gsave  2268 1077 0 461 C 1371.71 586.478 t 0 r /Helvetica findfont 48.9324 sf 0 0 m (490) show NC gr 
 gsave  2268 1077 0 461 C 1635.62 586.478 t 0 r /Helvetica findfont 48.9324 sf 0 0 m (500) show NC gr 
 gsave  2268 1077 0 461 C 1899.54 586.478 t 0 r /Helvetica findfont 48.9324 sf 0 0 m (510) show NC gr  363 1484 m 1791 X s 363 1459 m 25 Y s 416 1471 m 13 Y s 468 1471 m 13 Y s 521 1471 m 13 Y s 574 1471 m 13 Y s 626 1459 m 25 Y s 679 1471 m 13 Y s
 732 1471 m 13 Y s 784 1471 m 13 Y s 837 1471 m 13 Y s 890 1459 m 25 Y s 942 1471 m 13 Y s 995 1471 m 13 Y s 1048 1471 m 13 Y s 1101 1471 m 13 Y s 1153 1459 m 25 Y s 1206 1471 m 13 Y s 1259 1471 m 13 Y s 1311 1471 m 13 Y s 1364 1471 m 13 Y s 1417
 1459 m 25 Y s 1469 1471 m 13 Y s 1522 1471 m 13 Y s 1575 1471 m 13 Y s 1627 1471 m 13 Y s 1680 1459 m 25 Y s 1733 1471 m 13 Y s 1785 1471 m 13 Y s 1838 1471 m 13 Y s 1891 1471 m 13 Y s 1944 1459 m 25 Y s 1944 1459 m 25 Y s 1996 1471 m 13 Y s 2049
 1471 m 13 Y s 2102 1471 m 13 Y s 2154 1471 m 13 Y s 363 634 m 850 Y s
 gsave  2268 1077 0 461 C 120.554 1032.85 t 90 r /Helvetica findfont 48.9324 sf 0 0 m (Events / \( 1.36 GeV \)) show NC gr  390 656 m -27 X s 390 710 m -27 X s 390 748 m -27 X s 390 778 m -27 X s 390 802 m -27 X s 390 823 m -27 X s 390 840 m -27 X s
 390 856 m -27 X s 417 870 m -54 X s
 gsave  2268 1077 0 461 C 342.425 849.093 t 0 r  -55 0 t /Helvetica findfont 48.9324 sf 0 0 m (10) show NC gr  390 962 m -27 X s 390 1016 m -27 X s 390 1054 m -27 X s 390 1084 m -27 X s 390 1108 m -27 X s 390 1129 m -27 X s 390 1146 m -27 X s 390
 1162 m -27 X s 417 1176 m -54 X s
 gsave  2268 1077 0 461 C 322.563 1172.96 t 0 r /Helvetica findfont 32.6216 sf 0 0 m (2) show NC gr 
 gsave  2268 1077 0 461 C 270.432 1153.41 t 0 r /Helvetica findfont 48.9324 sf 0 0 m (10) show NC gr  390 1268 m -27 X s 390 1322 m -27 X s 390 1360 m -27 X s 390 1390 m -27 X s 390 1414 m -27 X s 390 1435 m -27 X s 390 1453 m -27 X s 390 1468 m -27
 X s 417 1482 m -54 X s
 gsave  2268 1077 0 461 C 322.563 1482.49 t 0 r /Helvetica findfont 32.6216 sf 0 0 m (3) show NC gr 
 gsave  2268 1077 0 461 C 270.432 1459.68 t 0 r /Helvetica findfont 48.9324 sf 0 0 m (10) show NC gr  2154 634 m 850 Y s 2127 656 m 27 X s 2127 710 m 27 X s 2127 748 m 27 X s 2127 778 m 27 X s 2127 802 m 27 X s 2127 823 m 27 X s 2127 840 m 27 X s
 2127 856 m 27 X s 2101 870 m 53 X s 2127 962 m 27 X s 2127 1016 m 27 X s 2127 1054 m 27 X s 2127 1084 m 27 X s 2127 1108 m 27 X s 2127 1129 m 27 X s 2127 1146 m 27 X s 2127 1162 m 27 X s 2101 1176 m 53 X s 2127 1268 m 27 X s 2127 1322 m 27 X s 2127
 1360 m 27 X s 2127 1390 m 27 X s 2127 1414 m 27 X s 2127 1435 m 27 X s 2127 1453 m 27 X s 2127 1468 m 27 X s 2101 1482 m 53 X s 381 656 m -18 X s 363 656 m cl s 381 656 m 18 X s 399 656 m cl s 381 656 m 112 Y s 381 768 m cl s 381 656 m -22 Y s 381
 634 m cl s 452 778 m -18 X s 434 778 m cl s 452 778 m 18 X s 470 778 m cl s 452 778 m 68 Y s 452 846 m cl s 452 778 m -75 Y s 452 703 m cl s 488 802 m -18 X s 470 802 m cl s 488 802 m 18 X s 506 802 m cl s 488 802 m 62 Y s 488 864 m cl s 488 802 m
 -67 Y s 488 735 m cl s 524 710 m -18 X s 506 710 m cl s 524 710 m 18 X s 542 710 m cl s 524 710 m 90 Y s 524 800 m cl s 524 710 m -76 Y s 524 634 m cl s 560 748 m -18 X s 542 748 m cl s 560 748 m 18 X s 578 748 m cl s 560 748 m 78 Y s 560 826 m cl s
 560 748 m -86 Y s 560 662 m cl s 596 656 m -18 X s 578 656 m cl s 596 656 m 18 X s 614 656 m cl s 596 656 m 112 Y s 596 768 m cl s 596 656 m -22 Y s 596 634 m cl s 632 656 m -18 X s 614 656 m cl s 632 656 m 17 X s 649 656 m cl s 632 656 m 112 Y s
 632 768 m cl s 632 656 m -22 Y s 632 634 m cl s 667 656 m -18 X s 649 656 m cl s 667 656 m 18 X s 685 656 m cl s 667 656 m 112 Y s 667 768 m cl s 667 656 m -22 Y s 667 634 m cl s 703 802 m -18 X s 685 802 m cl s 703 802 m 18 X s 721 802 m cl s 703
 802 m 62 Y s 703 864 m cl s 703 802 m -67 Y s 703 735 m cl s 775 778 m -18 X s 757 778 m cl s 775 778 m 18 X s 793 778 m cl s 775 778 m 68 Y s 775 846 m cl s 775 778 m -75 Y s 775 703 m cl s 811 883 m -18 X s 793 883 m cl s 811 883 m 18 X s 829 883
 m cl s 811 883 m 44 Y s 811 927 m cl s 811 883 m -47 Y s 811 836 m cl s 847 823 m -18 X s 829 823 m cl s 847 823 m 17 X s 864 823 m cl s 847 823 m 57 Y s 847 880 m cl s 847 823 m -62 Y s 847 761 m cl s 882 905 m -18 X s 864 905 m cl s 882 905 m 18 X
 s 900 905 m cl s 882 905 m 41 Y s 882 946 m cl s 882 905 m -43 Y s 882 862 m cl s 918 802 m -18 X s 900 802 m cl s 918 802 m 18 X s 936 802 m cl s 918 802 m 62 Y s 918 864 m cl s 918 802 m -67 Y s 918 735 m cl s 954 856 m -18 X s 936 856 m cl s 954
 856 m 18 X s 972 856 m cl s 954 856 m 50 Y s 954 906 m cl s 954 856 m -53 Y s 954 803 m cl s 990 915 m -18 X s 972 915 m cl s 990 915 m 18 X s 1008 915 m cl s 990 915 m 39 Y s 990 954 m cl s 990 915 m -41 Y s 990 874 m cl s 1026 924 m -18 X s 1008
 924 m cl s 1026 924 m 18 X s 1044 924 m cl s 1026 924 m 38 Y s 1026 962 m cl s 1026 924 m -39 Y s 1026 885 m cl s 1062 932 m -18 X s 1044 932 m cl s 1062 932 m 17 X s 1079 932 m cl s 1062 932 m 37 Y s 1062 969 m cl s 1062 932 m -37 Y s 1062 895 m cl
 s 1097 955 m -18 X s 1079 955 m cl s 1097 955 m 18 X s 1115 955 m cl s 1097 955 m 34 Y s 1097 989 m cl s 1097 955 m -34 Y s 1097 921 m cl s 1133 1016 m -18 X s 1115 1016 m cl s 1133 1016 m 18 X s 1151 1016 m cl s 1133 1016 m 26 Y s 1133 1042 m cl s
 1133 1016 m -27 Y s 1133 989 m cl s 1169 1044 m -18 X s 1151 1044 m cl s 1169 1044 m 18 X s 1187 1044 m cl s 1169 1044 m 23 Y s 1169 1067 m cl s 1169 1044 m -24 Y s 1169 1020 m cl s 1205 1058 m -18 X s 1187 1058 m cl s 1205 1058 m 18 X s 1223 1058 m
 cl s 1205 1058 m 22 Y s 1205 1080 m cl s 1205 1058 m -23 Y s 1205 1035 m cl s 1241 1101 m -18 X s 1223 1101 m cl s 1241 1101 m 18 X s 1259 1101 m cl s 1241 1101 m 19 Y s 1241 1120 m cl s 1241 1101 m -18 Y s 1241 1083 m cl s 1276 1127 m -17 X s 1259
 1127 m cl s 1276 1127 m 18 X s 1294 1127 m cl s 1276 1127 m 17 Y s 1276 1144 m cl s 1276 1127 m -17 Y s 1276 1110 m cl s 1312 1161 m -18 X s 1294 1161 m cl s 1312 1161 m 18 X s 1330 1161 m cl s 1312 1161 m 14 Y s 1312 1175 m cl s 1312 1161 m -15 Y s
 1312 1146 m cl s 1348 1171 m -18 X s 1330 1171 m cl s 1348 1171 m 18 X s 1366 1171 m cl s 1348 1171 m 14 Y s 1348 1185 m cl s 1348 1171 m -15 Y s 1348 1156 m cl s 1384 1209 m -18 X s 1366 1209 m cl s 1384 1209 m 18 X s 1402 1209 m cl s 1384 1209 m
 12 Y s 1384 1221 m cl s 1384 1209 m -12 Y s 1384 1197 m cl s 1420 1255 m -18 X s 1402 1255 m cl s 1420 1255 m 18 X s 1438 1255 m cl s 1420 1255 m 10 Y s 1420 1265 m cl s 1420 1255 m -10 Y s 1420 1245 m cl s 1456 1276 m -18 X s 1438 1276 m cl s 1456
 1276 m 18 X s 1474 1276 m cl s 1456 1276 m 9 Y s 1456 1285 m cl s 1456 1276 m -9 Y s 1456 1267 m cl s 1491 1310 m -17 X s 1474 1310 m cl s 1491 1310 m 18 X s 1509 1310 m cl s 1491 1310 m 8 Y s 1491 1318 m cl s 1491 1310 m -8 Y s 1491 1302 m cl s
 1527 1341 m -18 X s 1509 1341 m cl s 1527 1341 m 18 X s 1545 1341 m cl s 1527 1341 m 7 Y s 1527 1348 m cl s 1527 1341 m -7 Y s 1527 1334 m cl s 1563 1384 m -18 X s 1545 1384 m cl s 1563 1384 m 18 X s 1581 1384 m cl s 1563 1384 m 6 Y s 1563 1390 m cl
 s 1563 1384 m -6 Y s 1563 1378 m cl s 1599 1410 m -18 X s 1581 1410 m cl s 1599 1410 m 18 X s 1617 1410 m cl s 1599 1410 m 5 Y s 1599 1415 m cl s 1599 1410 m -6 Y s 1599 1404 m cl s 1635 1400 m -18 X s 1617 1400 m cl s 1635 1400 m 18 X s 1653 1400 m
 cl s 1635 1400 m 6 Y s 1635 1406 m cl s 1635 1400 m -5 Y s 1635 1395 m cl s 1671 1402 m -18 X s 1653 1402 m cl s 1671 1402 m 18 X s 1689 1402 m cl s 1671 1402 m 6 Y s 1671 1408 m cl s 1671 1402 m -5 Y s 1671 1397 m cl s 1706 1396 m -17 X s 1689 1396
 m cl s 1706 1396 m 18 X s 1724 1396 m cl s 1706 1396 m 6 Y s 1706 1402 m cl s 1706 1396 m -6 Y s 1706 1390 m cl s 1742 1381 m -18 X s 1724 1381 m cl s 1742 1381 m 18 X s 1760 1381 m cl s 1742 1381 m 6 Y s 1742 1387 m cl s 1742 1381 m -6 Y s 1742
 1375 m cl s 1778 1321 m -18 X s 1760 1321 m cl s 1778 1321 m 18 X s 1796 1321 m cl s 1778 1321 m 7 Y s 1778 1328 m cl s 1778 1321 m -8 Y s 1778 1313 m cl s 1814 1254 m -18 X s 1796 1254 m cl s 1814 1254 m 18 X s 1832 1254 m cl s 1814 1254 m 10 Y s
 1814 1264 m cl s 1814 1254 m -10 Y s 1814 1244 m cl s 1850 1195 m -18 X s 1832 1195 m cl s 1850 1195 m 18 X s 1868 1195 m cl s 1850 1195 m 12 Y s 1850 1207 m cl s 1850 1195 m -13 Y s 1850 1182 m cl s 1886 1129 m -18 X s 1868 1129 m cl s 1886 1129 m
 18 X s 1904 1129 m cl s 1886 1129 m 16 Y s 1886 1145 m cl s 1886 1129 m -17 Y s 1886 1112 m cl s 1921 1097 m -17 X s 1904 1097 m cl s 1921 1097 m 18 X s 1939 1097 m cl s 1921 1097 m 19 Y s 1921 1116 m cl s 1921 1097 m -20 Y s 1921 1077 m cl s 1957
 1044 m -18 X s 1939 1044 m cl s 1957 1044 m 18 X s 1975 1044 m cl s 1957 1044 m 23 Y s 1957 1067 m cl s 1957 1044 m -24 Y s 1957 1020 m cl s 1993 969 m -18 X s 1975 969 m cl s 1993 969 m 18 X s 2011 969 m cl s 1993 969 m 31 Y s 1993 1000 m cl s 1993
 969 m -33 Y s 1993 936 m cl s 2029 856 m -18 X s 2011 856 m cl s 2029 856 m 18 X s 2047 856 m cl s 2029 856 m 50 Y s 2029 906 m cl s 2029 856 m -53 Y s 2029 803 m cl s 2065 915 m -18 X s 2047 915 m cl s 2065 915 m 18 X s 2083 915 m cl s 2065 915 m
 39 Y s 2065 954 m cl s 2065 915 m -41 Y s 2065 874 m cl s 2101 823 m -18 X s 2083 823 m cl s 2101 823 m 18 X s 2119 823 m cl s 2101 823 m 57 Y s 2101 880 m cl s 2101 823 m -62 Y s 2101 761 m cl s /w 31 def /w2 {w 2 div} def /w3 {w 3 div} def 381 656
 m20 452 778 488 802 524 710 560 748 596 656 632 656 667 656 703 802 8 { m20} R 775 778 811 883 847 823 882 905 918 802 954 856 990 915 1026 924 1062 932 1097 955 1133 1016 1169 1044 1205 1058 1241 1101 1276 1127 1312 1161 1348 1171 1384 1209 1420
 1255 1456 1276 1491 1310 1527 1341 1563 1384 1599 1410 1635 1400 1671 1402 1706 1396 1742 1381 1778 1321 1814 1254 1850 1195 1886 1129 1921 1097 1957 1044 1993 969 2029 856 2065 915 2101 823 38 { m20} R 0 1 1 c 1 1 0 c black 1 1 0 c 363 759 m 36 7 d
 35 7 d 36 7 d 36 8 d 36 8 d 36 8 d 36 8 d 35 9 d 36 9 d 36 9 d 36 9 d 36 10 d 36 11 d 35 11 d 36 12 d 36 12 d 36 14 d 36 15 d 36 17 d 35 19 d 36 22 d 36 24 d 36 27 d 36 28 d 36 30 d 35 30 d 36 32 d 18 17 d 18 16 d 18 17 d 18 17 d 18 16 d 18 17 d 18
 16 d 9 9 d 9 9 d 9 10 d 8 10 d 9 11 d 9 12 d 36 37 d 18 14 d 9 6 d 9 5 d 9 5 d 9 4 d 9 4 d 9 3 d 9 1 d 9 1 d 9 X 9 -1 d 9 -1 d 9 -3 d 9 -4 d 9 -4 d 8 -5 d 9 -7 d 9 -6 d 9 -8 d 36 -37 d 18 -22 d 9 -11 d 9 -13 d 9 -12 d 9 -13 d 9 -14 d 9 -14 d 9 -14 d
 9 -14 d 9 -14 d 9 -14 d 18 -28 d 18 -27 d 17 -26 d 18 -26 d 18 -24 d 18 -24 d 36 -48 d 36 -49 d 36 -50 d 36 -53 d 35 -56 d -128 Y -35 85 d -36 76 d -36 67 d -36 61 d -36 57 d -18 28 d -18 28 d -18 29 d -17 29 d -18 29 d -18 29 d -9 15 d -9 15 d -9
 14 d -9 15 d -9 15 d -9 14 d -9 14 d -9 14 d -9 13 d -9 13 d -18 23 d -36 39 d -9 8 d -9 7 d -9 6 d -8 5 d -9 4 d -9 4 d -9 2 d -9 2 d -9 1 d -9 1 d -9 -1 d -9 -1 d -9 -3 d -9 -3 d -9 -4 d -9 -5 d -9 -6 d -9 -7 d -18 -17 d -36 -43 d -9 -10 d -9 -10
 d -8 -9 d -9 -10 d -9 -9 d -9 -9 d -18 -18 d -18 -17 d -18 -17 d -18 -16 d -18 -16 d -18 -16 d -18 -16 d -36 -33 d -35 -34 d -36 -33 d -36 -31 d -36 -29 d -36 -26 d -36 -23 d -35 -20 d -36 -18 d -36 -17 d -36 -14 d -36 -14 d -36 -13 d -35 -11 d -36
 -11 d -36 -11 d -36 -10 d -36 -10 d -36 -9 d -35 -9 d -36 -9 d -36 -8 d -36 -8 d -36 -8 d -36 -7 d -35 -8 d -36 -7 d f 0 1 1 c 0 1 0 c black 0 1 0 c 363 749 m 36 7 d 35 8 d 36 7 d 36 8 d 36 8 d 36 8 d 36 8 d 35 9 d 36 9 d 36 9 d 36 10 d 36 10 d 36
 11 d 35 11 d 36 12 d 36 12 d 36 14 d 36 15 d 36 18 d 35 19 d 36 22 d 36 25 d 36 27 d 36 29 d 36 30 d 35 32 d 36 32 d 18 16 d 18 17 d 18 16 d 18 17 d 18 16 d 18 17 d 18 17 d 9 9 d 9 9 d 9 9 d 8 10 d 9 11 d 9 11 d 36 39 d 18 14 d 9 7 d 9 6 d 9 4 d 9 5
 d 9 3 d 9 3 d 9 1 d 9 1 d 9 X 9 -1 d 9 -2 d 9 -2 d 9 -4 d 9 -4 d 8 -6 d 9 -6 d 9 -7 d 9 -7 d 36 -37 d 18 -23 d 9 -12 d 9 -12 d 9 -13 d 9 -13 d 9 -14 d 9 -14 d 9 -14 d 9 -14 d 9 -15 d 9 -14 d 18 -28 d 18 -28 d 17 -27 d 18 -26 d 18 -25 d 18 -25 d 36
 -49 d 36 -51 d 36 -53 d 36 -56 d 35 -60 d -62 Y -35 73 d -36 67 d -36 61 d -36 57 d -36 55 d -18 26 d -18 27 d -18 28 d -17 28 d -18 29 d -18 29 d -9 14 d -9 15 d -9 14 d -9 15 d -9 14 d -9 14 d -9 14 d -9 13 d -9 13 d -9 13 d -18 23 d -36 38 d -9 8
 d -9 7 d -9 6 d -8 5 d -9 4 d -9 4 d -9 3 d -9 2 d -9 1 d -9 X -9 -1 d -9 -1 d -9 -3 d -9 -3 d -9 -4 d -9 -5 d -9 -6 d -9 -7 d -18 -16 d -36 -42 d -9 -10 d -9 -10 d -8 -10 d -9 -9 d -9 -9 d -9 -9 d -18 -18 d -18 -17 d -18 -16 d -18 -17 d -18 -16 d
 -18 -16 d -18 -16 d -36 -33 d -35 -33 d -36 -32 d -36 -31 d -36 -28 d -36 -25 d -36 -23 d -35 -20 d -36 -18 d -36 -15 d -36 -15 d -36 -13 d -36 -12 d -35 -12 d -36 -11 d -36 -10 d -36 -10 d -36 -10 d -36 -9 d -35 -9 d -36 -8 d -36 -8 d -36 -9 d -36
 -7 d -36 -8 d -35 -7 d -36 -7 d f 0 0 1 c 9 lw black 0 0 1 c 363 740 m 36 7 d 35 7 d 36 7 d 36 8 d 36 8 d 36 8 d 36 9 d 35 8 d 36 9 d 36 10 d 36 10 d 36 10 d 36 11 d 35 11 d 36 12 d 36 13 d 36 14 d 36 16 d 36 17 d 35 20 d 36 22 d 36 25 d 36 28 d 36
 30 d 36 31 d 35 32 d 36 32 d 18 17 d 18 16 d 18 16 d 18 17 d 18 16 d 18 17 d 18 17 d 9 9 d 9 9 d 9 10 d 8 10 d 9 10 d 9 11 d 36 40 d 18 15 d 9 7 d 9 6 d 9 5 d 9 4 d 9 3 d 9 3 d 9 1 d 9 1 d 9 X 9 -1 d 9 -2 d 9 -3 d 9 -3 d 9 -5 d 8 -5 d 9 -6 d 9 -7 d
 9 -7 d 36 -38 d 18 -23 d 9 -12 d 9 -13 d 9 -13 d 9 -14 d 9 -13 d 9 -14 d 9 -15 d 9 -14 d 9 -15 d 9 -14 d 18 -29 d 18 -28 d 17 -27 d 18 -27 d 18 -26 d 18 -26 d 36 -51 d 36 -54 d 36 -57 d 36 -60 d 35 -65 d s black 3 lw 381 656 m -18 X s 363 656 m cl s
 381 656 m 18 X s 399 656 m cl s 381 656 m 112 Y s 381 768 m cl s 381 656 m -22 Y s 381 634 m cl s 452 778 m -18 X s 434 778 m cl s 452 778 m 18 X s 470 778 m cl s 452 778 m 68 Y s 452 846 m cl s 452 778 m -75 Y s 452 703 m cl s 488 802 m -18 X s 470
 802 m cl s 488 802 m 18 X s 506 802 m cl s 488 802 m 62 Y s 488 864 m cl s 488 802 m -67 Y s 488 735 m cl s 524 710 m -18 X s 506 710 m cl s 524 710 m 18 X s 542 710 m cl s 524 710 m 90 Y s 524 800 m cl s 524 710 m -76 Y s 524 634 m cl s 560 748 m
 -18 X s 542 748 m cl s 560 748 m 18 X s 578 748 m cl s 560 748 m 78 Y s 560 826 m cl s 560 748 m -86 Y s 560 662 m cl s 596 656 m -18 X s 578 656 m cl s 596 656 m 18 X s 614 656 m cl s 596 656 m 112 Y s 596 768 m cl s 596 656 m -22 Y s 596 634 m cl
 s 632 656 m -18 X s 614 656 m cl s 632 656 m 17 X s 649 656 m cl s 632 656 m 112 Y s 632 768 m cl s 632 656 m -22 Y s 632 634 m cl s 667 656 m -18 X s 649 656 m cl s 667 656 m 18 X s 685 656 m cl s 667 656 m 112 Y s 667 768 m cl s 667 656 m -22 Y s
 667 634 m cl s 703 802 m -18 X s 685 802 m cl s 703 802 m 18 X s 721 802 m cl s 703 802 m 62 Y s 703 864 m cl s 703 802 m -67 Y s 703 735 m cl s 775 778 m -18 X s 757 778 m cl s 775 778 m 18 X s 793 778 m cl s 775 778 m 68 Y s 775 846 m cl s 775 778
 m -75 Y s 775 703 m cl s 811 883 m -18 X s 793 883 m cl s 811 883 m 18 X s 829 883 m cl s 811 883 m 44 Y s 811 927 m cl s 811 883 m -47 Y s 811 836 m cl s 847 823 m -18 X s 829 823 m cl s 847 823 m 17 X s 864 823 m cl s 847 823 m 57 Y s 847 880 m cl
 s 847 823 m -62 Y s 847 761 m cl s 882 905 m -18 X s 864 905 m cl s 882 905 m 18 X s 900 905 m cl s 882 905 m 41 Y s 882 946 m cl s 882 905 m -43 Y s 882 862 m cl s 918 802 m -18 X s 900 802 m cl s 918 802 m 18 X s 936 802 m cl s 918 802 m 62 Y s
 918 864 m cl s 918 802 m -67 Y s 918 735 m cl s 954 856 m -18 X s 936 856 m cl s 954 856 m 18 X s 972 856 m cl s 954 856 m 50 Y s 954 906 m cl s 954 856 m -53 Y s 954 803 m cl s 990 915 m -18 X s 972 915 m cl s 990 915 m 18 X s 1008 915 m cl s 990
 915 m 39 Y s 990 954 m cl s 990 915 m -41 Y s 990 874 m cl s 1026 924 m -18 X s 1008 924 m cl s 1026 924 m 18 X s 1044 924 m cl s 1026 924 m 38 Y s 1026 962 m cl s 1026 924 m -39 Y s 1026 885 m cl s 1062 932 m -18 X s 1044 932 m cl s 1062 932 m 17 X
 s 1079 932 m cl s 1062 932 m 37 Y s 1062 969 m cl s 1062 932 m -37 Y s 1062 895 m cl s 1097 955 m -18 X s 1079 955 m cl s 1097 955 m 18 X s 1115 955 m cl s 1097 955 m 34 Y s 1097 989 m cl s 1097 955 m -34 Y s 1097 921 m cl s 1133 1016 m -18 X s 1115
 1016 m cl s 1133 1016 m 18 X s 1151 1016 m cl s 1133 1016 m 26 Y s 1133 1042 m cl s 1133 1016 m -27 Y s 1133 989 m cl s 1169 1044 m -18 X s 1151 1044 m cl s 1169 1044 m 18 X s 1187 1044 m cl s 1169 1044 m 23 Y s 1169 1067 m cl s 1169 1044 m -24 Y s
 1169 1020 m cl s 1205 1058 m -18 X s 1187 1058 m cl s 1205 1058 m 18 X s 1223 1058 m cl s 1205 1058 m 22 Y s 1205 1080 m cl s 1205 1058 m -23 Y s 1205 1035 m cl s 1241 1101 m -18 X s 1223 1101 m cl s 1241 1101 m 18 X s 1259 1101 m cl s 1241 1101 m
 19 Y s 1241 1120 m cl s 1241 1101 m -18 Y s 1241 1083 m cl s 1276 1127 m -17 X s 1259 1127 m cl s 1276 1127 m 18 X s 1294 1127 m cl s 1276 1127 m 17 Y s 1276 1144 m cl s 1276 1127 m -17 Y s 1276 1110 m cl s 1312 1161 m -18 X s 1294 1161 m cl s 1312
 1161 m 18 X s 1330 1161 m cl s 1312 1161 m 14 Y s 1312 1175 m cl s 1312 1161 m -15 Y s 1312 1146 m cl s 1348 1171 m -18 X s 1330 1171 m cl s 1348 1171 m 18 X s 1366 1171 m cl s 1348 1171 m 14 Y s 1348 1185 m cl s 1348 1171 m -15 Y s 1348 1156 m cl s
 1384 1209 m -18 X s 1366 1209 m cl s 1384 1209 m 18 X s 1402 1209 m cl s 1384 1209 m 12 Y s 1384 1221 m cl s 1384 1209 m -12 Y s 1384 1197 m cl s 1420 1255 m -18 X s 1402 1255 m cl s 1420 1255 m 18 X s 1438 1255 m cl s 1420 1255 m 10 Y s 1420 1265 m
 cl s 1420 1255 m -10 Y s 1420 1245 m cl s 1456 1276 m -18 X s 1438 1276 m cl s 1456 1276 m 18 X s 1474 1276 m cl s 1456 1276 m 9 Y s 1456 1285 m cl s 1456 1276 m -9 Y s 1456 1267 m cl s 1491 1310 m -17 X s 1474 1310 m cl s 1491 1310 m 18 X s 1509
 1310 m cl s 1491 1310 m 8 Y s 1491 1318 m cl s 1491 1310 m -8 Y s 1491 1302 m cl s 1527 1341 m -18 X s 1509 1341 m cl s 1527 1341 m 18 X s 1545 1341 m cl s 1527 1341 m 7 Y s 1527 1348 m cl s 1527 1341 m -7 Y s 1527 1334 m cl s 1563 1384 m -18 X s
 1545 1384 m cl s 1563 1384 m 18 X s 1581 1384 m cl s 1563 1384 m 6 Y s 1563 1390 m cl s 1563 1384 m -6 Y s 1563 1378 m cl s 1599 1410 m -18 X s 1581 1410 m cl s 1599 1410 m 18 X s 1617 1410 m cl s 1599 1410 m 5 Y s 1599 1415 m cl s 1599 1410 m -6 Y
 s 1599 1404 m cl s 1635 1400 m -18 X s 1617 1400 m cl s 1635 1400 m 18 X s 1653 1400 m cl s 1635 1400 m 6 Y s 1635 1406 m cl s 1635 1400 m -5 Y s 1635 1395 m cl s 1671 1402 m -18 X s 1653 1402 m cl s 1671 1402 m 18 X s 1689 1402 m cl s 1671 1402 m 6
 Y s 1671 1408 m cl s 1671 1402 m -5 Y s 1671 1397 m cl s 1706 1396 m -17 X s 1689 1396 m cl s 1706 1396 m 18 X s 1724 1396 m cl s 1706 1396 m 6 Y s 1706 1402 m cl s 1706 1396 m -6 Y s 1706 1390 m cl s 1742 1381 m -18 X s 1724 1381 m cl s 1742 1381 m
 18 X s 1760 1381 m cl s 1742 1381 m 6 Y s 1742 1387 m cl s 1742 1381 m -6 Y s 1742 1375 m cl s 1778 1321 m -18 X s 1760 1321 m cl s 1778 1321 m 18 X s 1796 1321 m cl s 1778 1321 m 7 Y s 1778 1328 m cl s 1778 1321 m -8 Y s 1778 1313 m cl s 1814 1254
 m -18 X s 1796 1254 m cl s 1814 1254 m 18 X s 1832 1254 m cl s 1814 1254 m 10 Y s 1814 1264 m cl s 1814 1254 m -10 Y s 1814 1244 m cl s 1850 1195 m -18 X s 1832 1195 m cl s 1850 1195 m 18 X s 1868 1195 m cl s 1850 1195 m 12 Y s 1850 1207 m cl s 1850
 1195 m -13 Y s 1850 1182 m cl s 1886 1129 m -18 X s 1868 1129 m cl s 1886 1129 m 18 X s 1904 1129 m cl s 1886 1129 m 16 Y s 1886 1145 m cl s 1886 1129 m -17 Y s 1886 1112 m cl s 1921 1097 m -17 X s 1904 1097 m cl s 1921 1097 m 18 X s 1939 1097 m cl
 s 1921 1097 m 19 Y s 1921 1116 m cl s 1921 1097 m -20 Y s 1921 1077 m cl s 1957 1044 m -18 X s 1939 1044 m cl s 1957 1044 m 18 X s 1975 1044 m cl s 1957 1044 m 23 Y s 1957 1067 m cl s 1957 1044 m -24 Y s 1957 1020 m cl s 1993 969 m -18 X s 1975 969
 m cl s 1993 969 m 18 X s 2011 969 m cl s 1993 969 m 31 Y s 1993 1000 m cl s 1993 969 m -33 Y s 1993 936 m cl s 2029 856 m -18 X s 2011 856 m cl s 2029 856 m 18 X s 2047 856 m cl s 2029 856 m 50 Y s 2029 906 m cl s 2029 856 m -53 Y s 2029 803 m cl s
 2065 915 m -18 X s 2047 915 m cl s 2065 915 m 18 X s 2083 915 m cl s 2065 915 m 39 Y s 2065 954 m cl s 2065 915 m -41 Y s 2065 874 m cl s 2101 823 m -18 X s 2083 823 m cl s 2101 823 m 18 X s 2119 823 m cl s 2101 823 m 57 Y s 2101 880 m cl s 2101 823
 m -62 Y s 2101 761 m cl s 381 656 m20 452 778 488 802 524 710 560 748 596 656 632 656 667 656 703 802 8 { m20} R 775 778 811 883 847 823 882 905 918 802 954 856 990 915 1026 924 1062 932 1097 955 1133 1016 1169 1044 1205 1058 1241 1101 1276 1127
 1312 1161 1348 1171 1384 1209 1420 1255 1456 1276 1491 1310 1527 1341 1563 1384 1599 1410 1635 1400 1671 1402 1706 1396 1742 1381 1778 1321 1814 1254 1850 1195 1886 1129 1921 1097 1957 1044 1993 969 2029 856 2065 915 2101 823 38 { m20} R 0.52 0.76
 0.64 c[ 4 8] 0 sd 9 lw black 0.52 0.76 0.64 c 363 740 m 36 7 d 35 7 d 36 7 d 36 8 d 36 8 d 36 8 d 36 9 d 35 8 d 36 9 d 36 10 d 36 10 d 36 10 d 36 10 d 35 11 d 36 12 d 36 12 d 36 13 d 36 13 d 36 14 d 35 15 d 36 16 d 36 17 d 36 19 d 36 19 d 36 22 d 35
 23 d 36 26 d 18 14 d 18 14 d 18 16 d 18 17 d 18 18 d 18 19 d 9 10 d 9 10 d 9 12 d 9 11 d 9 12 d 8 13 d 9 13 d 9 15 d 18 27 d 18 23 d 18 19 d 9 8 d 9 8 d 9 6 d 9 5 d 9 3 d 9 3 d 9 2 d 9 1 d 9 X 9 -1 d 9 -2 d 9 -4 d 9 -4 d 9 -5 d 8 -6 d 9 -8 d 9 -8 d
 9 -9 d 36 -48 d 9 -15 d 9 -15 d 9 -17 d 9 -17 d 9 -19 d 9 -19 d 9 -21 d 9 -22 d 9 -22 d 9 -24 d 9 -25 d 9 -26 d 9 -26 d 9 -28 d 18 -59 d 17 -63 d 18 -67 d 18 -71 d 18 -75 d 5 -22 d s 0.54 0.66 0.63 c black 0.54 0.66 0.63 c 1074 634 m 5 11 d s 1079
 645 m 36 70 d 36 66 d 18 31 d 18 30 d 18 29 d 18 28 d 18 26 d 18 26 d 17 24 d 18 23 d 18 22 d 18 20 d 18 20 d 18 18 d 18 17 d 18 16 d 36 29 d 36 24 d 17 10 d 18 9 d 18 8 d 18 6 d 18 6 d 18 4 d 18 3 d 9 1 d 9 1 d 9 1 d 27 X 9 -1 d 9 -1 d 9 -1 d 9 -2
 d 17 -4 d 18 -5 d 18 -6 d 18 -7 d 18 -9 d 18 -10 d 36 -22 d 36 -28 d 18 -16 d 18 -16 d 17 -18 d 18 -19 d 18 -21 d 18 -21 d 18 -23 d 18 -23 d 18 -25 d 18 -26 d 18 -28 d 18 -28 d 18 -30 d 18 -30 d 35 -65 d s black[  ] 0 sd 3 lw 363 634 m 1791 X s 363
 659 m -25 Y s 416 646 m -12 Y s 468 646 m -12 Y s 521 646 m -12 Y s 574 646 m -12 Y s 626 659 m -25 Y s 679 646 m -12 Y s 732 646 m -12 Y s 784 646 m -12 Y s 837 646 m -12 Y s 890 659 m -25 Y s 942 646 m -12 Y s 995 646 m -12 Y s 1048 646 m -12 Y s
 1101 646 m -12 Y s 1153 659 m -25 Y s 1206 646 m -12 Y s 1259 646 m -12 Y s 1311 646 m -12 Y s 1364 646 m -12 Y s 1417 659 m -25 Y s 1469 646 m -12 Y s 1522 646 m -12 Y s 1575 646 m -12 Y s 1627 646 m -12 Y s 1680 659 m -25 Y s 1733 646 m -12 Y s
 1785 646 m -12 Y s 1838 646 m -12 Y s 1891 646 m -12 Y s 1944 659 m -25 Y s 1944 659 m -25 Y s 1996 646 m -12 Y s 2049 646 m -12 Y s 2102 646 m -12 Y s 2154 646 m -12 Y s 363 1484 m 1791 X s 363 1459 m 25 Y s 416 1471 m 13 Y s 468 1471 m 13 Y s 521
 1471 m 13 Y s 574 1471 m 13 Y s 626 1459 m 25 Y s 679 1471 m 13 Y s 732 1471 m 13 Y s 784 1471 m 13 Y s 837 1471 m 13 Y s 890 1459 m 25 Y s 942 1471 m 13 Y s 995 1471 m 13 Y s 1048 1471 m 13 Y s 1101 1471 m 13 Y s 1153 1459 m 25 Y s 1206 1471 m 13 Y
 s 1259 1471 m 13 Y s 1311 1471 m 13 Y s 1364 1471 m 13 Y s 1417 1459 m 25 Y s 1469 1471 m 13 Y s 1522 1471 m 13 Y s 1575 1471 m 13 Y s 1627 1471 m 13 Y s 1680 1459 m 25 Y s 1733 1471 m 13 Y s 1785 1471 m 13 Y s 1838 1471 m 13 Y s 1891 1471 m 13 Y s
 1944 1459 m 25 Y s 1944 1459 m 25 Y s 1996 1471 m 13 Y s 2049 1471 m 13 Y s 2102 1471 m 13 Y s 2154 1471 m 13 Y s 363 634 m 850 Y s 390 656 m -27 X s 390 710 m -27 X s 390 748 m -27 X s 390 778 m -27 X s 390 802 m -27 X s 390 823 m -27 X s 390 840 m
 -27 X s 390 856 m -27 X s 417 870 m -54 X s 390 962 m -27 X s 390 1016 m -27 X s 390 1054 m -27 X s 390 1084 m -27 X s 390 1108 m -27 X s 390 1129 m -27 X s 390 1146 m -27 X s 390 1162 m -27 X s 417 1176 m -54 X s 390 1268 m -27 X s 390 1322 m -27 X
 s 390 1360 m -27 X s 390 1390 m -27 X s 390 1414 m -27 X s 390 1435 m -27 X s 390 1453 m -27 X s 390 1468 m -27 X s 417 1482 m -54 X s 2154 634 m 850 Y s 2127 656 m 27 X s 2127 710 m 27 X s 2127 748 m 27 X s 2127 778 m 27 X s 2127 802 m 27 X s 2127
 823 m 27 X s 2127 840 m 27 X s 2127 856 m 27 X s 2101 870 m 53 X s 2127 962 m 27 X s 2127 1016 m 27 X s 2127 1054 m 27 X s 2127 1084 m 27 X s 2127 1108 m 27 X s 2127 1129 m 27 X s 2127 1146 m 27 X s 2127 1162 m 27 X s 2101 1176 m 53 X s 2127 1268 m
 27 X s 2127 1322 m 27 X s 2127 1360 m 27 X s 2127 1390 m 27 X s 2127 1414 m 27 X s 2127 1435 m 27 X s 2127 1453 m 27 X s 2127 1468 m 27 X s 2101 1482 m 53 X s
 gsave  2268 1077 0 461 C 677.708 1215.31 t 0 r /Helvetica findfont 58.7189 sf 0 0 m (4e) show NC gr  1 1 1 c 453 161 454 1269 bf black
 gsave  2268 1077 0 461 C 566.929 1371.71 t 0 r /Helvetica-Bold findfont 48.9324 sf 0 0 m (MC15) show NC gr  510 1390 m20
 gsave  2268 1077 0 461 C 566.929 1293.51 t 0 r /Helvetica-Bold findfont 48.9324 sf 0 0 m (Projection of Signal pdf) show NC gr  0 0 1 c 9 lw 471 1309 m 79 X s black 3 lw 1 1 1 c 2268 461 0 0 bf black 1 1 1 c 1791 364 363 74 bf black 1791 364 363 74
 bl 363 74 m 1791 X s
 gsave  2268 461 0 0 C 1915.83 13.0329 t 0 r /Helvetica findfont 22.9045 sf 0 0 m (4l Invariant Mass \(GeV\)) show NC gr  363 85 m -11 Y s 416 79 m -5 Y s 468 79 m -5 Y s 521 79 m -5 Y s 574 79 m -5 Y s 626 85 m -11 Y s 679 79 m -5 Y s 732 79 m -5 Y
 s 784 79 m -5 Y s 837 79 m -5 Y s 890 85 m -11 Y s 942 79 m -5 Y s 995 79 m -5 Y s 1048 79 m -5 Y s 1101 79 m -5 Y s 1153 85 m -11 Y s 1206 79 m -5 Y s 1259 79 m -5 Y s 1311 79 m -5 Y s 1364 79 m -5 Y s 1417 85 m -11 Y s 1469 79 m -5 Y s 1522 79 m
 -5 Y s 1575 79 m -5 Y s 1627 79 m -5 Y s 1680 85 m -11 Y s 1733 79 m -5 Y s 1785 79 m -5 Y s 1838 79 m -5 Y s 1891 79 m -5 Y s 1944 85 m -11 Y s 1944 85 m -11 Y s 1996 79 m -5 Y s 2049 79 m -5 Y s 2102 79 m -5 Y s 2154 79 m -5 Y s
 gsave  2268 461 0 0 C 342.112 55.3896 t 0 r /Helvetica findfont 22.9045 sf 0 0 m (450) show NC gr 
 gsave  2268 461 0 0 C 606.028 55.3896 t 0 r /Helvetica findfont 22.9045 sf 0 0 m (460) show NC gr 
 gsave  2268 461 0 0 C 869.943 55.3896 t 0 r /Helvetica findfont 22.9045 sf 0 0 m (470) show NC gr 
 gsave  2268 461 0 0 C 1130.6 55.3896 t 0 r /Helvetica findfont 22.9045 sf 0 0 m (480) show NC gr 
 gsave  2268 461 0 0 C 1394.52 55.3896 t 0 r /Helvetica findfont 22.9045 sf 0 0 m (490) show NC gr 
 gsave  2268 461 0 0 C 1658.43 55.3896 t 0 r /Helvetica findfont 22.9045 sf 0 0 m (500) show NC gr 
 gsave  2268 461 0 0 C 1922.35 55.3896 t 0 r /Helvetica findfont 22.9045 sf 0 0 m (510) show NC gr  363 438 m 1791 X s 363 427 m 11 Y s 416 433 m 5 Y s 468 433 m 5 Y s 521 433 m 5 Y s 574 433 m 5 Y s 626 427 m 11 Y s 679 433 m 5 Y s 732 433 m 5 Y s
 784 433 m 5 Y s 837 433 m 5 Y s 890 427 m 11 Y s 942 433 m 5 Y s 995 433 m 5 Y s 1048 433 m 5 Y s 1101 433 m 5 Y s 1153 427 m 11 Y s 1206 433 m 5 Y s 1259 433 m 5 Y s 1311 433 m 5 Y s 1364 433 m 5 Y s 1417 427 m 11 Y s 1469 433 m 5 Y s 1522 433 m 5
 Y s 1575 433 m 5 Y s 1627 433 m 5 Y s 1680 427 m 11 Y s 1733 433 m 5 Y s 1785 433 m 5 Y s 1838 433 m 5 Y s 1891 433 m 5 Y s 1944 427 m 11 Y s 1944 427 m 11 Y s 1996 433 m 5 Y s 2049 433 m 5 Y s 2102 433 m 5 Y s 2154 433 m 5 Y s 363 74 m 364 Y s 417
 74 m -54 X s 390 81 m -27 X s 390 88 m -27 X s 390 96 m -27 X s 390 103 m -27 X s 417 110 m -54 X s 390 118 m -27 X s 390 125 m -27 X s 390 132 m -27 X s 390 139 m -27 X s 417 147 m -54 X s 390 154 m -27 X s 390 161 m -27 X s 390 169 m -27 X s 390
 176 m -27 X s 417 183 m -54 X s 390 190 m -27 X s 390 198 m -27 X s 390 205 m -27 X s 390 212 m -27 X s 417 220 m -54 X s 390 227 m -27 X s 390 234 m -27 X s 390 241 m -27 X s 390 249 m -27 X s 417 256 m -54 X s 390 263 m -27 X s 390 271 m -27 X s
 390 278 m -27 X s 390 285 m -27 X s 417 293 m -54 X s 390 300 m -27 X s 390 307 m -27 X s 390 314 m -27 X s 390 322 m -27 X s 417 329 m -54 X s 390 336 m -27 X s 390 344 m -27 X s 390 351 m -27 X s 390 358 m -27 X s 417 365 m -54 X s 390 373 m -27 X
 s 390 380 m -27 X s 390 387 m -27 X s 390 395 m -27 X s 417 402 m -54 X s 390 409 m -27 X s 390 416 m -27 X s 390 424 m -27 X s 390 431 m -27 X s 417 438 m -54 X s
 gsave  2268 461 0 0 C 329.08 65.1643 t 0 r /Helvetica findfont 22.9045 sf 0 0 m (\2555) show NC gr 
 gsave  2268 461 0 0 C 329.08 101.005 t 0 r /Helvetica findfont 22.9045 sf 0 0 m (\2554) show NC gr 
 gsave  2268 461 0 0 C 329.08 140.103 t 0 r /Helvetica findfont 22.9045 sf 0 0 m (\2553) show NC gr 
 gsave  2268 461 0 0 C 329.08 175.944 t 0 r /Helvetica findfont 22.9045 sf 0 0 m (\2552) show NC gr 
 gsave  2268 461 0 0 C 332.338 211.784 t 0 r /Helvetica findfont 22.9045 sf 0 0 m (\2551) show NC gr 
 gsave  2268 461 0 0 C 335.596 247.624 t 0 r /Helvetica findfont 22.9045 sf 0 0 m (0) show NC gr 
 gsave  2268 461 0 0 C 338.854 283.465 t 0 r /Helvetica findfont 22.9045 sf 0 0 m (1) show NC gr 
 gsave  2268 461 0 0 C 335.596 319.305 t 0 r /Helvetica findfont 22.9045 sf 0 0 m (2) show NC gr 
 gsave  2268 461 0 0 C 335.596 358.403 t 0 r /Helvetica findfont 22.9045 sf 0 0 m (3) show NC gr 
 gsave  2268 461 0 0 C 335.596 394.244 t 0 r /Helvetica findfont 22.9045 sf 0 0 m (4) show NC gr 
 gsave  2268 461 0 0 C 335.596 430.084 t 0 r /Helvetica findfont 22.9045 sf 0 0 m (5) show NC gr  2154 74 m 364 Y s 2101 74 m 53 X s 2127 81 m 27 X s 2127 88 m 27 X s 2127 96 m 27 X s 2127 103 m 27 X s 2101 110 m 53 X s 2127 118 m 27 X s 2127 125 m
 27 X s 2127 132 m 27 X s 2127 139 m 27 X s 2101 147 m 53 X s 2127 154 m 27 X s 2127 161 m 27 X s 2127 169 m 27 X s 2127 176 m 27 X s 2101 183 m 53 X s 2127 190 m 27 X s 2127 198 m 27 X s 2127 205 m 27 X s 2127 212 m 27 X s 2101 220 m 53 X s 2127 227
 m 27 X s 2127 234 m 27 X s 2127 241 m 27 X s 2127 249 m 27 X s 2101 256 m 53 X s 2127 263 m 27 X s 2127 271 m 27 X s 2127 278 m 27 X s 2127 285 m 27 X s 2101 293 m 53 X s 2127 300 m 27 X s 2127 307 m 27 X s 2127 314 m 27 X s 2127 322 m 27 X s 2101
 329 m 53 X s 2127 336 m 27 X s 2127 344 m 27 X s 2127 351 m 27 X s 2127 358 m 27 X s 2101 365 m 53 X s 2127 373 m 27 X s 2127 380 m 27 X s 2127 387 m 27 X s 2127 395 m 27 X s 2101 402 m 53 X s 2127 409 m 27 X s 2127 416 m 27 X s 2127 424 m 27 X s
 2127 431 m 27 X s 2101 438 m 53 X s 6 lw 0.2 0.8 0.2 c black 3 lw 0.2 0.8 0.2 c 363 256 m -26 Y 36 X -23 Y 35 X 61 Y 36 X 10 Y 36 X -45 Y 36 X 10 Y 36 X -35 Y 36 X -5 Y 35 X -5 Y 36 X 51 Y 36 X -91 Y 36 X 69 Y 36 X 58 Y 36 X -49 Y 35 X 51 Y 36 X -81
 Y 36 X 23 Y 36 X 32 Y 36 X -7 Y 36 X -10 Y 35 X 1 Y 36 X 46 Y 36 X 6 Y 36 X -21 Y 36 X 28 Y 36 X -8 Y 35 X 9 Y 36 X -52 Y 36 X 18 Y 36 X 49 Y 36 X -45 Y 36 X -15 Y 35 X -56 Y 36 X 43 Y 36 X 28 Y 36 X -116 Y 36 X 51 Y 36 X 84 Y 35 X 88 Y 36 X -99 Y
 36 X -61 Y 36 X -2 Y 36 X -10 Y 36 X 52 Y 35 X -1 Y 36 X -31 Y 36 X -44 Y 36 X 98 Y 36 X -30 Y 36 X -54 Y 35 X 56 Y f 6 lw black 0.2 0.8 0.2 c black 363 230 m 36 X -23 Y 35 X 61 Y 36 X 10 Y 36 X -45 Y 36 X 10 Y 36 X -35 Y 36 X -5 Y 35 X -5 Y 36 X 51
 Y 36 X -91 Y 36 X 69 Y 36 X 58 Y 36 X -49 Y 35 X 51 Y 36 X -81 Y 36 X 23 Y 36 X 32 Y 36 X -7 Y 36 X -10 Y 35 X 1 Y 36 X 46 Y 36 X 6 Y 36 X -21 Y 36 X 28 Y 36 X -8 Y 35 X 9 Y 36 X -52 Y 36 X 18 Y 36 X 49 Y 36 X -45 Y 36 X -15 Y 35 X -56 Y 36 X 43 Y
 36 X 28 Y 36 X -116 Y 36 X 51 Y 36 X 84 Y 35 X 88 Y 36 X -99 Y 36 X -61 Y 36 X -2 Y 36 X -10 Y 36 X 52 Y 35 X -1 Y 36 X -31 Y 36 X -44 Y 36 X 98 Y 36 X -30 Y 36 X -54 Y 35 X s 3 lw 363 74 m 1791 X s 363 85 m -11 Y s 416 79 m -5 Y s 468 79 m -5 Y s
 521 79 m -5 Y s 574 79 m -5 Y s 626 85 m -11 Y s 679 79 m -5 Y s 732 79 m -5 Y s 784 79 m -5 Y s 837 79 m -5 Y s 890 85 m -11 Y s 942 79 m -5 Y s 995 79 m -5 Y s 1048 79 m -5 Y s 1101 79 m -5 Y s 1153 85 m -11 Y s 1206 79 m -5 Y s 1259 79 m -5 Y s
 1311 79 m -5 Y s 1364 79 m -5 Y s 1417 85 m -11 Y s 1469 79 m -5 Y s 1522 79 m -5 Y s 1575 79 m -5 Y s 1627 79 m -5 Y s 1680 85 m -11 Y s 1733 79 m -5 Y s 1785 79 m -5 Y s 1838 79 m -5 Y s 1891 79 m -5 Y s 1944 85 m -11 Y s 1944 85 m -11 Y s 1996 79
 m -5 Y s 2049 79 m -5 Y s 2102 79 m -5 Y s 2154 79 m -5 Y s 363 438 m 1791 X s 363 427 m 11 Y s 416 433 m 5 Y s 468 433 m 5 Y s 521 433 m 5 Y s 574 433 m 5 Y s 626 427 m 11 Y s 679 433 m 5 Y s 732 433 m 5 Y s 784 433 m 5 Y s 837 433 m 5 Y s 890 427
 m 11 Y s 942 433 m 5 Y s 995 433 m 5 Y s 1048 433 m 5 Y s 1101 433 m 5 Y s 1153 427 m 11 Y s 1206 433 m 5 Y s 1259 433 m 5 Y s 1311 433 m 5 Y s 1364 433 m 5 Y s 1417 427 m 11 Y s 1469 433 m 5 Y s 1522 433 m 5 Y s 1575 433 m 5 Y s 1627 433 m 5 Y s
 1680 427 m 11 Y s 1733 433 m 5 Y s 1785 433 m 5 Y s 1838 433 m 5 Y s 1891 433 m 5 Y s 1944 427 m 11 Y s 1944 427 m 11 Y s 1996 433 m 5 Y s 2049 433 m 5 Y s 2102 433 m 5 Y s 2154 433 m 5 Y s 363 74 m 364 Y s 417 74 m -54 X s 390 81 m -27 X s 390 88 m
 -27 X s 390 96 m -27 X s 390 103 m -27 X s 417 110 m -54 X s 390 118 m -27 X s 390 125 m -27 X s 390 132 m -27 X s 390 139 m -27 X s 417 147 m -54 X s 390 154 m -27 X s 390 161 m -27 X s 390 169 m -27 X s 390 176 m -27 X s 417 183 m -54 X s 390 190
 m -27 X s 390 198 m -27 X s 390 205 m -27 X s 390 212 m -27 X s 417 220 m -54 X s 390 227 m -27 X s 390 234 m -27 X s 390 241 m -27 X s 390 249 m -27 X s 417 256 m -54 X s 390 263 m -27 X s 390 271 m -27 X s 390 278 m -27 X s 390 285 m -27 X s 417
 293 m -54 X s 390 300 m -27 X s 390 307 m -27 X s 390 314 m -27 X s 390 322 m -27 X s 417 329 m -54 X s 390 336 m -27 X s 390 344 m -27 X s 390 351 m -27 X s 390 358 m -27 X s 417 365 m -54 X s 390 373 m -27 X s 390 380 m -27 X s 390 387 m -27 X s
 390 395 m -27 X s 417 402 m -54 X s 390 409 m -27 X s 390 416 m -27 X s 390 424 m -27 X s 390 431 m -27 X s 417 438 m -54 X s 2154 74 m 364 Y s 2101 74 m 53 X s 2127 81 m 27 X s 2127 88 m 27 X s 2127 96 m 27 X s 2127 103 m 27 X s 2101 110 m 53 X s
 2127 118 m 27 X s 2127 125 m 27 X s 2127 132 m 27 X s 2127 139 m 27 X s 2101 147 m 53 X s 2127 154 m 27 X s 2127 161 m 27 X s 2127 169 m 27 X s 2127 176 m 27 X s 2101 183 m 53 X s 2127 190 m 27 X s 2127 198 m 27 X s 2127 205 m 27 X s 2127 212 m 27 X
 s 2101 220 m 53 X s 2127 227 m 27 X s 2127 234 m 27 X s 2127 241 m 27 X s 2127 249 m 27 X s 2101 256 m 53 X s 2127 263 m 27 X s 2127 271 m 27 X s 2127 278 m 27 X s 2127 285 m 27 X s 2101 293 m 53 X s 2127 300 m 27 X s 2127 307 m 27 X s 2127 314 m 27
 X s 2127 322 m 27 X s 2101 329 m 53 X s 2127 336 m 27 X s 2127 344 m 27 X s 2127 351 m 27 X s 2127 358 m 27 X s 2101 365 m 53 X s 2127 373 m 27 X s 2127 380 m 27 X s 2127 387 m 27 X s 2127 395 m 27 X s 2101 402 m 53 X s 2127 409 m 27 X s 2127 416 m
 27 X s 2127 424 m 27 X s 2127 431 m 27 X s 2101 438 m 53 X s
 gr  gr showpage
end
%%EOF
