%!PS-Adobe-2.0 EPSF-2.0
%%BoundingBox:  0 0 567 384
%%Title: H4l2015_plotfit/gg_mass_signal_1400_fixed_H4l_2mu2e.eps: 
%%Creator: ROOT Version 5.34/10
%%CreationDate: Thu Feb 16 15:43:07 2017
%%EndComments
%%BeginProlog
80 dict begin
/s {stroke} def /l {lineto} def /m {moveto} def /t {translate} def
/r {rotate} def /rl {roll}  def /R {repeat} def
/d {rlineto} def /rm {rmoveto} def /gr {grestore} def /f {eofill} def
/c {setrgbcolor} def /black {0 setgray} def /sd {setdash} def
/cl {closepath} def /sf {scalefont setfont} def /lw {setlinewidth} def
/box {m dup 0 exch d exch 0 d 0 exch neg d cl} def
/NC{systemdict begin initclip end}def/C{NC box clip newpath}def
/bl {box s} def /bf {box f} def /Y { 0 exch d} def /X { 0 d} def 
/K {{pop pop 0 moveto} exch kshow} bind def
/ita {/ang 15 def gsave [1 0 ang dup sin exch cos div 1 0 0] concat} def 
/mp {newpath /y exch def /x exch def} def
/side {[w .77 mul w .23 mul] .385 w mul sd w 0 l currentpoint t -144 r} def
/mr {mp x y w2 0 360 arc} def /m24 {mr s} def /m20 {mr f} def
/mb {mp x y w2 add m w2 neg 0 d 0 w neg d w 0 d 0 w d cl} def
/mt {mp x y w2 add m w2 neg w neg d w 0 d cl} def
/m21 {mb f} def /m25 {mb s} def /m22 {mt f} def /m26{mt s} def
/m23 {mp x y w2 sub m w2 w d w neg 0 d cl f} def
/m27 {mp x y w2 add m w3 neg w2 neg d w3 w2 neg d w3 w2 d cl s} def
/m28 {mp x w2 sub y w2 sub w3 add m w3 0 d  0 w3 neg d w3 0 d 0 w3 d w3 0 d  0 w3 d w3 neg 0 d 0 w3 d w3 neg 0 d 0 w3 neg d w3 neg 0 d cl s } def
/m29 {mp gsave x w2 sub y w2 add w3 sub m currentpoint t 4 {side} repeat cl fill gr} def
/m30 {mp gsave x w2 sub y w2 add w3 sub m currentpoint t 4 {side} repeat cl s gr} def
/m31 {mp x y w2 sub m 0 w d x w2 sub y m w 0 d x w2 sub y w2 add m w w neg d x w2 sub y w2 sub m w w d s} def
/m32 {mp x y w2 sub m w2 w d w neg 0 d cl s} def
/m33 {mp x y w2 add m w3 neg w2 neg d w3 w2 neg d w3 w2 d cl f} def
/m34 {mp x w2 sub y w2 sub w3 add m w3 0 d  0 w3 neg d w3 0 d 0 w3 d w3 0 d  0 w3 d w3 neg 0 d 0 w3 d w3 neg 0 d 0 w3 neg d w3 neg 0 d cl f } def
/m2 {mp x y w2 sub m 0 w d x w2 sub y m w 0 d s} def
/m5 {mp x w2 sub y w2 sub m w w d x w2 sub y w2 add m w w neg d s} def
/reEncode {exch findfont dup length dict begin {1 index /FID eq  {pop pop} {def} ifelse } forall /Encoding exch def currentdict end dup /FontName get exch definefont pop } def [/Times-Bold /Times-Italic /Times-BoldItalic /Helvetica /Helvetica-Oblique
 /Helvetica-Bold /Helvetica-BoldOblique /Courier /Courier-Oblique /Courier-Bold /Courier-BoldOblique /Times-Roman /AvantGarde-Book /AvantGarde-BookOblique /AvantGarde-Demi /AvantGarde-DemiOblique /Bookman-Demi /Bookman-DemiItalic /Bookman-Light
 /Bookman-LightItalic /Helvetica-Narrow /Helvetica-Narrow-Bold /Helvetica-Narrow-BoldOblique /Helvetica-Narrow-Oblique /NewCenturySchlbk-Roman /NewCenturySchlbk-Bold /NewCenturySchlbk-BoldItalic /NewCenturySchlbk-Italic /Palatino-Bold
 /Palatino-BoldItalic /Palatino-Italic /Palatino-Roman ] {ISOLatin1Encoding reEncode } forall
%%EndProlog
%%BeginSetup
%%EndSetup
newpath  gsave  .25 .25 scale  gsave  0 0 t black[  ] 0 sd 3 lw 1 1 1 c 2268 1538 0 0 bf black 1 1 1 c 2222 738 23 784 bf black 1 1 1 c 2222 739 23 15 bf black 1 1 1 c 2268 1077 0 461 bf black 1 1 1 c 1791 850 363 634 bf black 1791 850 363 634 bl 363
 634 m 1791 X s
 gsave  2268 1077 0 461 C 1642.14 498.507 t 0 r /Helvetica findfont 48.9324 sf 0 0 m (4l Invariant Mass \(GeV\)) show NC gr  466 659 m -25 Y s 535 646 m -12 Y s 604 646 m -12 Y s 673 646 m -12 Y s 742 646 m -12 Y s 811 659 m -25 Y s 880 646 m -12 Y s
 949 646 m -12 Y s 1017 646 m -12 Y s 1086 646 m -12 Y s 1155 659 m -25 Y s 1224 646 m -12 Y s 1293 646 m -12 Y s 1362 646 m -12 Y s 1431 646 m -12 Y s 1500 659 m -25 Y s 1569 646 m -12 Y s 1638 646 m -12 Y s 1706 646 m -12 Y s 1775 646 m -12 Y s
 1844 659 m -25 Y s 466 659 m -25 Y s 397 646 m -12 Y s 1844 659 m -25 Y s 1913 646 m -12 Y s 1982 646 m -12 Y s 2051 646 m -12 Y s 2120 646 m -12 Y s
 gsave  2268 1077 0 461 C 410.535 586.478 t 0 r /Helvetica findfont 48.9324 sf 0 0 m (1250) show NC gr 
 gsave  2268 1077 0 461 C 752.647 586.478 t 0 r /Helvetica findfont 48.9324 sf 0 0 m (1300) show NC gr 
 gsave  2268 1077 0 461 C 1098.02 586.478 t 0 r /Helvetica findfont 48.9324 sf 0 0 m (1350) show NC gr 
 gsave  2268 1077 0 461 C 1443.39 586.478 t 0 r /Helvetica findfont 48.9324 sf 0 0 m (1400) show NC gr 
 gsave  2268 1077 0 461 C 1788.76 586.478 t 0 r /Helvetica findfont 48.9324 sf 0 0 m (1450) show NC gr  363 1484 m 1791 X s 466 1459 m 25 Y s 535 1471 m 13 Y s 604 1471 m 13 Y s 673 1471 m 13 Y s 742 1471 m 13 Y s 811 1459 m 25 Y s 880 1471 m 13 Y s
 949 1471 m 13 Y s 1017 1471 m 13 Y s 1086 1471 m 13 Y s 1155 1459 m 25 Y s 1224 1471 m 13 Y s 1293 1471 m 13 Y s 1362 1471 m 13 Y s 1431 1471 m 13 Y s 1500 1459 m 25 Y s 1569 1471 m 13 Y s 1638 1471 m 13 Y s 1706 1471 m 13 Y s 1775 1471 m 13 Y s
 1844 1459 m 25 Y s 466 1459 m 25 Y s 397 1471 m 13 Y s 1844 1459 m 25 Y s 1913 1471 m 13 Y s 1982 1471 m 13 Y s 2051 1471 m 13 Y s 2120 1471 m 13 Y s 363 634 m 850 Y s
 gsave  2268 1077 0 461 C 120.554 1058.92 t 90 r /Helvetica findfont 48.9324 sf 0 0 m (Events / \( 5.2 GeV \)) show NC gr  390 658 m -27 X s 390 688 m -27 X s 390 712 m -27 X s 390 732 m -27 X s 390 750 m -27 X s 390 766 m -27 X s 417 780 m -54 X s
 gsave  2268 1077 0 461 C 342.425 758.937 t 0 r  -55 0 t /Helvetica findfont 48.9324 sf 0 0 m (10) show NC gr  390 872 m -27 X s 390 926 m -27 X s 390 964 m -27 X s 390 994 m -27 X s 390 1018 m -27 X s 390 1038 m -27 X s 390 1056 m -27 X s 390 1072 m
 -27 X s 417 1086 m -54 X s
 gsave  2268 1077 0 461 C 322.563 1084.98 t 0 r /Helvetica findfont 32.6216 sf 0 0 m (2) show NC gr 
 gsave  2268 1077 0 461 C 270.432 1065.44 t 0 r /Helvetica findfont 48.9324 sf 0 0 m (10) show NC gr  390 1178 m -27 X s 390 1232 m -27 X s 390 1270 m -27 X s 390 1300 m -27 X s 390 1324 m -27 X s 390 1345 m -27 X s 390 1362 m -27 X s 390 1378 m -27
 X s 417 1392 m -54 X s
 gsave  2268 1077 0 461 C 322.563 1394.52 t 0 r /Helvetica findfont 32.6216 sf 0 0 m (3) show NC gr 
 gsave  2268 1077 0 461 C 270.432 1371.71 t 0 r /Helvetica findfont 48.9324 sf 0 0 m (10) show NC gr  2154 634 m 850 Y s 2127 658 m 27 X s 2127 688 m 27 X s 2127 712 m 27 X s 2127 732 m 27 X s 2127 750 m 27 X s 2127 766 m 27 X s 2101 780 m 53 X s
 2127 872 m 27 X s 2127 926 m 27 X s 2127 964 m 27 X s 2127 994 m 27 X s 2127 1018 m 27 X s 2127 1038 m 27 X s 2127 1056 m 27 X s 2127 1072 m 27 X s 2101 1086 m 53 X s 2127 1178 m 27 X s 2127 1232 m 27 X s 2127 1270 m 27 X s 2127 1300 m 27 X s 2127
 1324 m 27 X s 2127 1345 m 27 X s 2127 1362 m 27 X s 2127 1378 m 27 X s 2101 1392 m 53 X s 381 815 m -18 X s 363 815 m cl s 381 815 m 18 X s 399 815 m cl s 381 815 m 41 Y s 381 856 m cl s 381 815 m -43 Y s 381 772 m cl s 417 885 m -18 X s 399 885 m
 cl s 417 885 m 17 X s 434 885 m cl s 417 885 m 31 Y s 417 916 m cl s 417 885 m -32 Y s 417 853 m cl s 452 902 m -18 X s 434 902 m cl s 452 902 m 18 X s 470 902 m cl s 452 902 m 28 Y s 452 930 m cl s 452 902 m -30 Y s 452 872 m cl s 488 917 m -18 X s
 470 917 m cl s 488 917 m 18 X s 506 917 m cl s 488 917 m 27 Y s 488 944 m cl s 488 917 m -28 Y s 488 889 m cl s 524 896 m -18 X s 506 896 m cl s 524 896 m 18 X s 542 896 m cl s 524 896 m 30 Y s 524 926 m cl s 524 896 m -30 Y s 524 866 m cl s 560 891
 m -18 X s 542 891 m cl s 560 891 m 18 X s 578 891 m cl s 560 891 m 30 Y s 560 921 m cl s 560 891 m -31 Y s 560 860 m cl s 596 926 m -18 X s 578 926 m cl s 596 926 m 18 X s 614 926 m cl s 596 926 m 26 Y s 596 952 m cl s 596 926 m -27 Y s 596 899 m cl
 s 632 961 m -18 X s 614 961 m cl s 632 961 m 17 X s 649 961 m cl s 632 961 m 23 Y s 632 984 m cl s 632 961 m -23 Y s 632 938 m cl s 667 964 m -18 X s 649 964 m cl s 667 964 m 18 X s 685 964 m cl s 667 964 m 23 Y s 667 987 m cl s 667 964 m -23 Y s
 667 941 m cl s 703 964 m -18 X s 685 964 m cl s 703 964 m 18 X s 721 964 m cl s 703 964 m 23 Y s 703 987 m cl s 703 964 m -23 Y s 703 941 m cl s 739 954 m -18 X s 721 954 m cl s 739 954 m 18 X s 757 954 m cl s 739 954 m 23 Y s 739 977 m cl s 739 954
 m -24 Y s 739 930 m cl s 775 1006 m -18 X s 757 1006 m cl s 775 1006 m 18 X s 793 1006 m cl s 775 1006 m 19 Y s 775 1025 m cl s 775 1006 m -19 Y s 775 987 m cl s 811 1016 m -18 X s 793 1016 m cl s 811 1016 m 18 X s 829 1016 m cl s 811 1016 m 18 Y s
 811 1034 m cl s 811 1016 m -19 Y s 811 997 m cl s 847 1038 m -18 X s 829 1038 m cl s 847 1038 m 17 X s 864 1038 m cl s 847 1038 m 17 Y s 847 1055 m cl s 847 1038 m -16 Y s 847 1022 m cl s 882 1049 m -18 X s 864 1049 m cl s 882 1049 m 18 X s 900 1049
 m cl s 882 1049 m 16 Y s 882 1065 m cl s 882 1049 m -16 Y s 882 1033 m cl s 918 1044 m -18 X s 900 1044 m cl s 918 1044 m 18 X s 936 1044 m cl s 918 1044 m 16 Y s 918 1060 m cl s 918 1044 m -16 Y s 918 1028 m cl s 954 1063 m -18 X s 936 1063 m cl s
 954 1063 m 18 X s 972 1063 m cl s 954 1063 m 15 Y s 954 1078 m cl s 954 1063 m -16 Y s 954 1047 m cl s 990 1110 m -18 X s 972 1110 m cl s 990 1110 m 18 X s 1008 1110 m cl s 990 1110 m 12 Y s 990 1122 m cl s 990 1110 m -12 Y s 990 1098 m cl s 1026
 1102 m -18 X s 1008 1102 m cl s 1026 1102 m 18 X s 1044 1102 m cl s 1026 1102 m 13 Y s 1026 1115 m cl s 1026 1102 m -12 Y s 1026 1090 m cl s 1062 1134 m -18 X s 1044 1134 m cl s 1062 1134 m 17 X s 1079 1134 m cl s 1062 1134 m 11 Y s 1062 1145 m cl s
 1062 1134 m -11 Y s 1062 1123 m cl s 1097 1152 m -18 X s 1079 1152 m cl s 1097 1152 m 18 X s 1115 1152 m cl s 1097 1152 m 10 Y s 1097 1162 m cl s 1097 1152 m -11 Y s 1097 1141 m cl s 1133 1160 m -18 X s 1115 1160 m cl s 1133 1160 m 18 X s 1151 1160
 m cl s 1133 1160 m 10 Y s 1133 1170 m cl s 1133 1160 m -11 Y s 1133 1149 m cl s 1169 1205 m -18 X s 1151 1205 m cl s 1169 1205 m 18 X s 1187 1205 m cl s 1169 1205 m 9 Y s 1169 1214 m cl s 1169 1205 m -8 Y s 1169 1197 m cl s 1205 1204 m -18 X s 1187
 1204 m cl s 1205 1204 m 18 X s 1223 1204 m cl s 1205 1204 m 9 Y s 1205 1213 m cl s 1205 1204 m -8 Y s 1205 1196 m cl s 1241 1264 m -18 X s 1223 1264 m cl s 1241 1264 m 18 X s 1259 1264 m cl s 1241 1264 m 7 Y s 1241 1271 m cl s 1241 1264 m -7 Y s
 1241 1257 m cl s 1276 1271 m -17 X s 1259 1271 m cl s 1276 1271 m 18 X s 1294 1271 m cl s 1276 1271 m 6 Y s 1276 1277 m cl s 1276 1271 m -7 Y s 1276 1264 m cl s 1312 1315 m -18 X s 1294 1315 m cl s 1312 1315 m 18 X s 1330 1315 m cl s 1312 1315 m 6 Y
 s 1312 1321 m cl s 1312 1315 m -5 Y s 1312 1310 m cl s 1348 1339 m -18 X s 1330 1339 m cl s 1348 1339 m 18 X s 1366 1339 m cl s 1348 1339 m 5 Y s 1348 1344 m cl s 1348 1339 m -5 Y s 1348 1334 m cl s 1384 1375 m -18 X s 1366 1375 m cl s 1384 1375 m
 18 X s 1402 1375 m cl s 1384 1375 m 5 Y s 1384 1380 m cl s 1384 1375 m -4 Y s 1384 1371 m cl s 1420 1397 m -18 X s 1402 1397 m cl s 1420 1397 m 18 X s 1438 1397 m cl s 1420 1397 m 4 Y s 1420 1401 m cl s 1420 1397 m -4 Y s 1420 1393 m cl s 1456 1420
 m -18 X s 1438 1420 m cl s 1456 1420 m 18 X s 1474 1420 m cl s 1456 1420 m 4 Y s 1456 1424 m cl s 1456 1420 m -4 Y s 1456 1416 m cl s 1491 1417 m -17 X s 1474 1417 m cl s 1491 1417 m 18 X s 1509 1417 m cl s 1491 1417 m 3 Y s 1491 1420 m cl s 1491
 1417 m -4 Y s 1491 1413 m cl s 1527 1414 m -18 X s 1509 1414 m cl s 1527 1414 m 18 X s 1545 1414 m cl s 1527 1414 m 4 Y s 1527 1418 m cl s 1527 1414 m -4 Y s 1527 1410 m cl s 1563 1384 m -18 X s 1545 1384 m cl s 1563 1384 m 18 X s 1581 1384 m cl s
 1563 1384 m 4 Y s 1563 1388 m cl s 1563 1384 m -5 Y s 1563 1379 m cl s 1599 1355 m -18 X s 1581 1355 m cl s 1599 1355 m 18 X s 1617 1355 m cl s 1599 1355 m 5 Y s 1599 1360 m cl s 1599 1355 m -5 Y s 1599 1350 m cl s 1635 1320 m -18 X s 1617 1320 m cl
 s 1635 1320 m 18 X s 1653 1320 m cl s 1635 1320 m 6 Y s 1635 1326 m cl s 1635 1320 m -5 Y s 1635 1315 m cl s 1671 1273 m -18 X s 1653 1273 m cl s 1671 1273 m 18 X s 1689 1273 m cl s 1671 1273 m 6 Y s 1671 1279 m cl s 1671 1273 m -7 Y s 1671 1266 m
 cl s 1706 1243 m -17 X s 1689 1243 m cl s 1706 1243 m 18 X s 1724 1243 m cl s 1706 1243 m 7 Y s 1706 1250 m cl s 1706 1243 m -7 Y s 1706 1236 m cl s 1742 1190 m -18 X s 1724 1190 m cl s 1742 1190 m 18 X s 1760 1190 m cl s 1742 1190 m 9 Y s 1742 1199
 m cl s 1742 1190 m -9 Y s 1742 1181 m cl s 1778 1175 m -18 X s 1760 1175 m cl s 1778 1175 m 18 X s 1796 1175 m cl s 1778 1175 m 10 Y s 1778 1185 m cl s 1778 1175 m -9 Y s 1778 1166 m cl s 1814 1128 m -18 X s 1796 1128 m cl s 1814 1128 m 18 X s 1832
 1128 m cl s 1814 1128 m 11 Y s 1814 1139 m cl s 1814 1128 m -12 Y s 1814 1116 m cl s 1850 1087 m -18 X s 1832 1087 m cl s 1850 1087 m 18 X s 1868 1087 m cl s 1850 1087 m 13 Y s 1850 1100 m cl s 1850 1087 m -13 Y s 1850 1074 m cl s 1886 1070 m -18 X
 s 1868 1070 m cl s 1886 1070 m 18 X s 1904 1070 m cl s 1886 1070 m 15 Y s 1886 1085 m cl s 1886 1070 m -14 Y s 1886 1056 m cl s 1921 1024 m -17 X s 1904 1024 m cl s 1921 1024 m 18 X s 1939 1024 m cl s 1921 1024 m 18 Y s 1921 1042 m cl s 1921 1024 m
 -17 Y s 1921 1007 m cl s 1957 996 m -18 X s 1939 996 m cl s 1957 996 m 18 X s 1975 996 m cl s 1957 996 m 20 Y s 1957 1016 m cl s 1957 996 m -20 Y s 1957 976 m cl s 1993 983 m -18 X s 1975 983 m cl s 1993 983 m 18 X s 2011 983 m cl s 1993 983 m 21 Y
 s 1993 1004 m cl s 1993 983 m -21 Y s 1993 962 m cl s 2029 902 m -18 X s 2011 902 m cl s 2029 902 m 18 X s 2047 902 m cl s 2029 902 m 28 Y s 2029 930 m cl s 2029 902 m -30 Y s 2029 872 m cl s 2065 921 m -18 X s 2047 921 m cl s 2065 921 m 18 X s 2083
 921 m cl s 2065 921 m 27 Y s 2065 948 m cl s 2065 921 m -27 Y s 2065 894 m cl s 2101 926 m -18 X s 2083 926 m cl s 2101 926 m 18 X s 2119 926 m cl s 2101 926 m 26 Y s 2101 952 m cl s 2101 926 m -27 Y s 2101 899 m cl s 2136 891 m -17 X s 2119 891 m
 cl s 2136 891 m 18 X s 2154 891 m cl s 2136 891 m 30 Y s 2136 921 m cl s 2136 891 m -31 Y s 2136 860 m cl s /w 31 def /w2 {w 2 div} def /w3 {w 3 div} def 381 815 417 885 452 902 488 917 524 896 560 891 596 926 632 961 667 964 703 964 739 954 775
 1006 811 1016 847 1038 882 1049 918 1044 954 1063 990 1110 1026 1102 1062 1134 1097 1152 1133 1160 1169 1205 1205 1204 1241 1264 1276 1271 1312 1315 1348 1339 1384 1375 1420 1397 1456 1420 1491 1417 1527 1414 1563 1384 1599 1355 1635 1320 1671 1273
 1706 1243 1742 1190 1778 1175 1814 1128 1850 1087 1886 1070 1921 1024 1957 996 1993 983 2029 902 2065 921 2101 926 2136 891 50 { m20} R 0 1 1 c 1 1 0 c black 1 1 0 c 363 866 m 36 7 d 35 8 d 36 8 d 36 9 d 36 10 d 36 10 d 36 12 d 35 13 d 36 14 d 36 14
 d 36 16 d 36 17 d 36 18 d 35 19 d 36 19 d 36 19 d 36 20 d 36 19 d 36 20 d 35 19 d 36 20 d 36 20 d 36 20 d 18 11 d 18 11 d 18 11 d 18 12 d 17 13 d 9 7 d 9 8 d 9 8 d 9 8 d 9 9 d 9 9 d 18 19 d 18 17 d 18 15 d 18 13 d 9 5 d 9 5 d 9 4 d 9 4 d 9 3 d 9 2 d
 9 2 d 9 1 d 17 X 9 -1 d 9 -2 d 9 -2 d 9 -3 d 9 -4 d 9 -4 d 9 -5 d 9 -6 d 18 -13 d 36 -32 d 18 -19 d 18 -21 d 18 -22 d 9 -11 d 9 -11 d 8 -12 d 9 -11 d 18 -23 d 18 -22 d 18 -21 d 18 -19 d 18 -18 d 18 -16 d 18 -15 d 36 -27 d 36 -25 d 35 -25 d 36 -25 d
 36 -27 d 36 -28 d 36 -31 d 36 -32 d 35 -34 d -35 34 d -36 32 d -36 31 d -36 28 d -36 27 d -36 25 d -35 25 d -36 25 d -36 27 d -18 15 d -18 16 d -18 18 d -18 19 d -18 21 d -18 22 d -18 23 d -9 11 d -8 12 d -9 11 d -9 11 d -18 22 d -18 21 d -18 19 d
 -36 32 d -18 13 d -9 6 d -9 5 d -9 4 d -9 4 d -9 3 d -9 2 d -9 2 d -9 1 d -17 X -9 -1 d -9 -2 d -9 -2 d -9 -3 d -9 -4 d -9 -4 d -9 -5 d -9 -5 d -18 -13 d -18 -15 d -18 -17 d -18 -19 d -9 -9 d -9 -9 d -9 -8 d -9 -8 d -9 -8 d -9 -7 d -17 -13 d -18 -12
 d -18 -11 d -18 -11 d -18 -11 d -36 -20 d -36 -20 d -36 -20 d -35 -19 d -36 -20 d -36 -19 d -36 -20 d -36 -19 d -36 -19 d -35 -19 d -36 -18 d -36 -17 d -36 -16 d -36 -14 d -36 -14 d -35 -13 d -36 -12 d -36 -10 d -36 -10 d -36 -9 d -36 -8 d -35 -8 d
 -36 -7 d f 0 1 1 c 0 1 0 c black 0 1 0 c 363 866 m 36 7 d 35 8 d 36 8 d 36 9 d 36 10 d 36 10 d 36 12 d 35 13 d 36 14 d 36 14 d 36 16 d 36 17 d 36 18 d 35 19 d 36 19 d 36 19 d 36 20 d 36 19 d 36 20 d 35 19 d 36 20 d 36 20 d 36 20 d 18 11 d 18 11 d 18
 11 d 18 12 d 17 13 d 9 7 d 9 8 d 9 8 d 9 8 d 9 9 d 9 9 d 18 19 d 18 17 d 18 15 d 18 13 d 9 5 d 9 5 d 9 4 d 9 4 d 9 3 d 9 2 d 9 2 d 9 1 d 17 X 9 -1 d 9 -2 d 9 -2 d 9 -3 d 9 -4 d 9 -4 d 9 -5 d 9 -6 d 18 -13 d 36 -32 d 18 -19 d 18 -21 d 18 -22 d 9 -11
 d 9 -11 d 8 -12 d 9 -11 d 18 -23 d 18 -22 d 18 -21 d 18 -19 d 18 -18 d 18 -16 d 18 -15 d 36 -27 d 36 -25 d 35 -25 d 36 -25 d 36 -27 d 36 -28 d 36 -31 d 36 -32 d 35 -34 d -35 34 d -36 32 d -36 31 d -36 28 d -36 27 d -36 25 d -35 25 d -36 25 d -36 27
 d -18 15 d -18 16 d -18 18 d -18 19 d -18 21 d -18 22 d -18 23 d -9 11 d -8 12 d -9 11 d -9 11 d -18 22 d -18 21 d -18 19 d -36 32 d -18 13 d -9 6 d -9 5 d -9 4 d -9 4 d -9 3 d -9 2 d -9 2 d -9 1 d -17 X -9 -1 d -9 -2 d -9 -2 d -9 -3 d -9 -4 d -9 -4
 d -9 -5 d -9 -5 d -18 -13 d -18 -15 d -18 -17 d -18 -19 d -9 -9 d -9 -9 d -9 -8 d -9 -8 d -9 -8 d -9 -7 d -17 -13 d -18 -12 d -18 -11 d -18 -11 d -18 -11 d -36 -20 d -36 -20 d -36 -20 d -35 -19 d -36 -20 d -36 -19 d -36 -20 d -36 -19 d -36 -19 d -35
 -19 d -36 -18 d -36 -17 d -36 -16 d -36 -14 d -36 -14 d -35 -13 d -36 -12 d -36 -10 d -36 -10 d -36 -9 d -36 -8 d -35 -8 d -36 -7 d f 0 0 1 c 9 lw black 0 0 1 c 363 866 m 36 7 d 35 8 d 36 8 d 36 9 d 36 10 d 36 10 d 36 12 d 35 13 d 36 14 d 36 14 d 36
 16 d 36 17 d 36 18 d 35 19 d 36 19 d 36 19 d 36 20 d 36 19 d 36 20 d 35 19 d 36 20 d 36 20 d 36 20 d 18 11 d 18 11 d 18 11 d 18 12 d 17 13 d 9 7 d 9 8 d 9 8 d 9 8 d 9 9 d 9 9 d 18 19 d 18 17 d 18 15 d 18 13 d 9 5 d 9 5 d 9 4 d 9 4 d 9 3 d 9 2 d 9 2
 d 9 1 d 17 X 9 -1 d 9 -2 d 9 -2 d 9 -3 d 9 -4 d 9 -4 d 9 -5 d 9 -6 d 18 -13 d 36 -32 d 18 -19 d 18 -21 d 18 -22 d 9 -11 d 9 -11 d 8 -12 d 9 -11 d 18 -23 d 18 -22 d 18 -21 d 18 -19 d 18 -18 d 18 -16 d 18 -15 d 36 -27 d 36 -25 d 35 -25 d 36 -25 d 36
 -27 d 36 -28 d 36 -31 d 36 -32 d 35 -34 d s black 3 lw 381 815 m -18 X s 363 815 m cl s 381 815 m 18 X s 399 815 m cl s 381 815 m 41 Y s 381 856 m cl s 381 815 m -43 Y s 381 772 m cl s 417 885 m -18 X s 399 885 m cl s 417 885 m 17 X s 434 885 m cl s
 417 885 m 31 Y s 417 916 m cl s 417 885 m -32 Y s 417 853 m cl s 452 902 m -18 X s 434 902 m cl s 452 902 m 18 X s 470 902 m cl s 452 902 m 28 Y s 452 930 m cl s 452 902 m -30 Y s 452 872 m cl s 488 917 m -18 X s 470 917 m cl s 488 917 m 18 X s 506
 917 m cl s 488 917 m 27 Y s 488 944 m cl s 488 917 m -28 Y s 488 889 m cl s 524 896 m -18 X s 506 896 m cl s 524 896 m 18 X s 542 896 m cl s 524 896 m 30 Y s 524 926 m cl s 524 896 m -30 Y s 524 866 m cl s 560 891 m -18 X s 542 891 m cl s 560 891 m
 18 X s 578 891 m cl s 560 891 m 30 Y s 560 921 m cl s 560 891 m -31 Y s 560 860 m cl s 596 926 m -18 X s 578 926 m cl s 596 926 m 18 X s 614 926 m cl s 596 926 m 26 Y s 596 952 m cl s 596 926 m -27 Y s 596 899 m cl s 632 961 m -18 X s 614 961 m cl s
 632 961 m 17 X s 649 961 m cl s 632 961 m 23 Y s 632 984 m cl s 632 961 m -23 Y s 632 938 m cl s 667 964 m -18 X s 649 964 m cl s 667 964 m 18 X s 685 964 m cl s 667 964 m 23 Y s 667 987 m cl s 667 964 m -23 Y s 667 941 m cl s 703 964 m -18 X s 685
 964 m cl s 703 964 m 18 X s 721 964 m cl s 703 964 m 23 Y s 703 987 m cl s 703 964 m -23 Y s 703 941 m cl s 739 954 m -18 X s 721 954 m cl s 739 954 m 18 X s 757 954 m cl s 739 954 m 23 Y s 739 977 m cl s 739 954 m -24 Y s 739 930 m cl s 775 1006 m
 -18 X s 757 1006 m cl s 775 1006 m 18 X s 793 1006 m cl s 775 1006 m 19 Y s 775 1025 m cl s 775 1006 m -19 Y s 775 987 m cl s 811 1016 m -18 X s 793 1016 m cl s 811 1016 m 18 X s 829 1016 m cl s 811 1016 m 18 Y s 811 1034 m cl s 811 1016 m -19 Y s
 811 997 m cl s 847 1038 m -18 X s 829 1038 m cl s 847 1038 m 17 X s 864 1038 m cl s 847 1038 m 17 Y s 847 1055 m cl s 847 1038 m -16 Y s 847 1022 m cl s 882 1049 m -18 X s 864 1049 m cl s 882 1049 m 18 X s 900 1049 m cl s 882 1049 m 16 Y s 882 1065
 m cl s 882 1049 m -16 Y s 882 1033 m cl s 918 1044 m -18 X s 900 1044 m cl s 918 1044 m 18 X s 936 1044 m cl s 918 1044 m 16 Y s 918 1060 m cl s 918 1044 m -16 Y s 918 1028 m cl s 954 1063 m -18 X s 936 1063 m cl s 954 1063 m 18 X s 972 1063 m cl s
 954 1063 m 15 Y s 954 1078 m cl s 954 1063 m -16 Y s 954 1047 m cl s 990 1110 m -18 X s 972 1110 m cl s 990 1110 m 18 X s 1008 1110 m cl s 990 1110 m 12 Y s 990 1122 m cl s 990 1110 m -12 Y s 990 1098 m cl s 1026 1102 m -18 X s 1008 1102 m cl s 1026
 1102 m 18 X s 1044 1102 m cl s 1026 1102 m 13 Y s 1026 1115 m cl s 1026 1102 m -12 Y s 1026 1090 m cl s 1062 1134 m -18 X s 1044 1134 m cl s 1062 1134 m 17 X s 1079 1134 m cl s 1062 1134 m 11 Y s 1062 1145 m cl s 1062 1134 m -11 Y s 1062 1123 m cl s
 1097 1152 m -18 X s 1079 1152 m cl s 1097 1152 m 18 X s 1115 1152 m cl s 1097 1152 m 10 Y s 1097 1162 m cl s 1097 1152 m -11 Y s 1097 1141 m cl s 1133 1160 m -18 X s 1115 1160 m cl s 1133 1160 m 18 X s 1151 1160 m cl s 1133 1160 m 10 Y s 1133 1170 m
 cl s 1133 1160 m -11 Y s 1133 1149 m cl s 1169 1205 m -18 X s 1151 1205 m cl s 1169 1205 m 18 X s 1187 1205 m cl s 1169 1205 m 9 Y s 1169 1214 m cl s 1169 1205 m -8 Y s 1169 1197 m cl s 1205 1204 m -18 X s 1187 1204 m cl s 1205 1204 m 18 X s 1223
 1204 m cl s 1205 1204 m 9 Y s 1205 1213 m cl s 1205 1204 m -8 Y s 1205 1196 m cl s 1241 1264 m -18 X s 1223 1264 m cl s 1241 1264 m 18 X s 1259 1264 m cl s 1241 1264 m 7 Y s 1241 1271 m cl s 1241 1264 m -7 Y s 1241 1257 m cl s 1276 1271 m -17 X s
 1259 1271 m cl s 1276 1271 m 18 X s 1294 1271 m cl s 1276 1271 m 6 Y s 1276 1277 m cl s 1276 1271 m -7 Y s 1276 1264 m cl s 1312 1315 m -18 X s 1294 1315 m cl s 1312 1315 m 18 X s 1330 1315 m cl s 1312 1315 m 6 Y s 1312 1321 m cl s 1312 1315 m -5 Y
 s 1312 1310 m cl s 1348 1339 m -18 X s 1330 1339 m cl s 1348 1339 m 18 X s 1366 1339 m cl s 1348 1339 m 5 Y s 1348 1344 m cl s 1348 1339 m -5 Y s 1348 1334 m cl s 1384 1375 m -18 X s 1366 1375 m cl s 1384 1375 m 18 X s 1402 1375 m cl s 1384 1375 m 5
 Y s 1384 1380 m cl s 1384 1375 m -4 Y s 1384 1371 m cl s 1420 1397 m -18 X s 1402 1397 m cl s 1420 1397 m 18 X s 1438 1397 m cl s 1420 1397 m 4 Y s 1420 1401 m cl s 1420 1397 m -4 Y s 1420 1393 m cl s 1456 1420 m -18 X s 1438 1420 m cl s 1456 1420 m
 18 X s 1474 1420 m cl s 1456 1420 m 4 Y s 1456 1424 m cl s 1456 1420 m -4 Y s 1456 1416 m cl s 1491 1417 m -17 X s 1474 1417 m cl s 1491 1417 m 18 X s 1509 1417 m cl s 1491 1417 m 3 Y s 1491 1420 m cl s 1491 1417 m -4 Y s 1491 1413 m cl s 1527 1414
 m -18 X s 1509 1414 m cl s 1527 1414 m 18 X s 1545 1414 m cl s 1527 1414 m 4 Y s 1527 1418 m cl s 1527 1414 m -4 Y s 1527 1410 m cl s 1563 1384 m -18 X s 1545 1384 m cl s 1563 1384 m 18 X s 1581 1384 m cl s 1563 1384 m 4 Y s 1563 1388 m cl s 1563
 1384 m -5 Y s 1563 1379 m cl s 1599 1355 m -18 X s 1581 1355 m cl s 1599 1355 m 18 X s 1617 1355 m cl s 1599 1355 m 5 Y s 1599 1360 m cl s 1599 1355 m -5 Y s 1599 1350 m cl s 1635 1320 m -18 X s 1617 1320 m cl s 1635 1320 m 18 X s 1653 1320 m cl s
 1635 1320 m 6 Y s 1635 1326 m cl s 1635 1320 m -5 Y s 1635 1315 m cl s 1671 1273 m -18 X s 1653 1273 m cl s 1671 1273 m 18 X s 1689 1273 m cl s 1671 1273 m 6 Y s 1671 1279 m cl s 1671 1273 m -7 Y s 1671 1266 m cl s 1706 1243 m -17 X s 1689 1243 m cl
 s 1706 1243 m 18 X s 1724 1243 m cl s 1706 1243 m 7 Y s 1706 1250 m cl s 1706 1243 m -7 Y s 1706 1236 m cl s 1742 1190 m -18 X s 1724 1190 m cl s 1742 1190 m 18 X s 1760 1190 m cl s 1742 1190 m 9 Y s 1742 1199 m cl s 1742 1190 m -9 Y s 1742 1181 m
 cl s 1778 1175 m -18 X s 1760 1175 m cl s 1778 1175 m 18 X s 1796 1175 m cl s 1778 1175 m 10 Y s 1778 1185 m cl s 1778 1175 m -9 Y s 1778 1166 m cl s 1814 1128 m -18 X s 1796 1128 m cl s 1814 1128 m 18 X s 1832 1128 m cl s 1814 1128 m 11 Y s 1814
 1139 m cl s 1814 1128 m -12 Y s 1814 1116 m cl s 1850 1087 m -18 X s 1832 1087 m cl s 1850 1087 m 18 X s 1868 1087 m cl s 1850 1087 m 13 Y s 1850 1100 m cl s 1850 1087 m -13 Y s 1850 1074 m cl s 1886 1070 m -18 X s 1868 1070 m cl s 1886 1070 m 18 X
 s 1904 1070 m cl s 1886 1070 m 15 Y s 1886 1085 m cl s 1886 1070 m -14 Y s 1886 1056 m cl s 1921 1024 m -17 X s 1904 1024 m cl s 1921 1024 m 18 X s 1939 1024 m cl s 1921 1024 m 18 Y s 1921 1042 m cl s 1921 1024 m -17 Y s 1921 1007 m cl s 1957 996 m
 -18 X s 1939 996 m cl s 1957 996 m 18 X s 1975 996 m cl s 1957 996 m 20 Y s 1957 1016 m cl s 1957 996 m -20 Y s 1957 976 m cl s 1993 983 m -18 X s 1975 983 m cl s 1993 983 m 18 X s 2011 983 m cl s 1993 983 m 21 Y s 1993 1004 m cl s 1993 983 m -21 Y
 s 1993 962 m cl s 2029 902 m -18 X s 2011 902 m cl s 2029 902 m 18 X s 2047 902 m cl s 2029 902 m 28 Y s 2029 930 m cl s 2029 902 m -30 Y s 2029 872 m cl s 2065 921 m -18 X s 2047 921 m cl s 2065 921 m 18 X s 2083 921 m cl s 2065 921 m 27 Y s 2065
 948 m cl s 2065 921 m -27 Y s 2065 894 m cl s 2101 926 m -18 X s 2083 926 m cl s 2101 926 m 18 X s 2119 926 m cl s 2101 926 m 26 Y s 2101 952 m cl s 2101 926 m -27 Y s 2101 899 m cl s 2136 891 m -17 X s 2119 891 m cl s 2136 891 m 18 X s 2154 891 m
 cl s 2136 891 m 30 Y s 2136 921 m cl s 2136 891 m -31 Y s 2136 860 m cl s 381 815 417 885 452 902 488 917 524 896 560 891 596 926 632 961 667 964 703 964 739 954 775 1006 811 1016 847 1038 882 1049 918 1044 954 1063 990 1110 1026 1102 1062 1134 1097
 1152 1133 1160 1169 1205 1205 1204 1241 1264 1276 1271 1312 1315 1348 1339 1384 1375 1420 1397 1456 1420 1491 1417 1527 1414 1563 1384 1599 1355 1635 1320 1671 1273 1706 1243 1742 1190 1778 1175 1814 1128 1850 1087 1886 1070 1921 1024 1957 996 1993
 983 2029 902 2065 921 2101 926 2136 891 50 { m20} R 0.52 0.76 0.64 c[ 4 8] 0 sd 9 lw black 0.52 0.76 0.64 c 363 864 m 36 7 d 35 7 d 36 7 d 36 7 d 36 7 d 36 8 d 36 9 d 35 8 d 36 9 d 36 9 d 36 10 d 36 10 d 36 11 d 35 12 d 36 12 d 36 13 d 36 14 d 36 15
 d 36 16 d 35 18 d 36 19 d 36 21 d 36 24 d 18 13 d 18 14 d 18 15 d 18 17 d 17 17 d 9 10 d 9 10 d 9 11 d 9 11 d 9 11 d 9 13 d 18 25 d 18 21 d 18 19 d 18 15 d 9 7 d 9 5 d 9 5 d 9 5 d 9 3 d 9 3 d 9 2 d 9 1 d 17 X 9 -2 d 9 -2 d 9 -2 d 9 -4 d 9 -4 d 9 -5
 d 9 -6 d 9 -7 d 18 -15 d 36 -41 d 18 -24 d 9 -14 d 9 -14 d 9 -15 d 9 -16 d 9 -17 d 9 -18 d 8 -18 d 9 -19 d 9 -19 d 9 -21 d 9 -21 d 9 -22 d 18 -47 d 18 -50 d 18 -52 d 18 -56 d 18 -59 d 36 -127 d 10 -39 d s 0.54 0.66 0.63 c black 0.54 0.66 0.63 c 618
 634 m 31 39 d s 649 673 m 36 42 d 36 40 d 36 39 d 36 37 d 36 34 d 35 33 d 36 32 d 36 29 d 36 27 d 36 26 d 36 23 d 35 22 d 36 20 d 36 18 d 36 17 d 36 14 d 36 13 d 35 10 d 18 5 d 18 4 d 18 4 d 18 3 d 18 3 d 18 2 d 18 2 d 18 1 d 18 1 d 18 1 d 17 X 18
 -1 d 18 -1 d 18 -1 d 18 -2 d 18 -2 d 18 -3 d 18 -3 d 18 -4 d 18 -4 d 36 -10 d 35 -12 d 36 -13 d 36 -16 d 36 -17 d 36 -19 d 36 -21 d 35 -23 d 36 -24 d 36 -27 d 36 -28 d 36 -31 d 36 -32 d 35 -34 d s black[  ] 0 sd 3 lw 363 634 m 1791 X s 466 659 m -25
 Y s 535 646 m -12 Y s 604 646 m -12 Y s 673 646 m -12 Y s 742 646 m -12 Y s 811 659 m -25 Y s 880 646 m -12 Y s 949 646 m -12 Y s 1017 646 m -12 Y s 1086 646 m -12 Y s 1155 659 m -25 Y s 1224 646 m -12 Y s 1293 646 m -12 Y s 1362 646 m -12 Y s 1431
 646 m -12 Y s 1500 659 m -25 Y s 1569 646 m -12 Y s 1638 646 m -12 Y s 1706 646 m -12 Y s 1775 646 m -12 Y s 1844 659 m -25 Y s 466 659 m -25 Y s 397 646 m -12 Y s 1844 659 m -25 Y s 1913 646 m -12 Y s 1982 646 m -12 Y s 2051 646 m -12 Y s 2120 646
 m -12 Y s 363 1484 m 1791 X s 466 1459 m 25 Y s 535 1471 m 13 Y s 604 1471 m 13 Y s 673 1471 m 13 Y s 742 1471 m 13 Y s 811 1459 m 25 Y s 880 1471 m 13 Y s 949 1471 m 13 Y s 1017 1471 m 13 Y s 1086 1471 m 13 Y s 1155 1459 m 25 Y s 1224 1471 m 13 Y s
 1293 1471 m 13 Y s 1362 1471 m 13 Y s 1431 1471 m 13 Y s 1500 1459 m 25 Y s 1569 1471 m 13 Y s 1638 1471 m 13 Y s 1706 1471 m 13 Y s 1775 1471 m 13 Y s 1844 1459 m 25 Y s 466 1459 m 25 Y s 397 1471 m 13 Y s 1844 1459 m 25 Y s 1913 1471 m 13 Y s 1982
 1471 m 13 Y s 2051 1471 m 13 Y s 2120 1471 m 13 Y s 363 634 m 850 Y s 390 658 m -27 X s 390 688 m -27 X s 390 712 m -27 X s 390 732 m -27 X s 390 750 m -27 X s 390 766 m -27 X s 417 780 m -54 X s 390 872 m -27 X s 390 926 m -27 X s 390 964 m -27 X s
 390 994 m -27 X s 390 1018 m -27 X s 390 1038 m -27 X s 390 1056 m -27 X s 390 1072 m -27 X s 417 1086 m -54 X s 390 1178 m -27 X s 390 1232 m -27 X s 390 1270 m -27 X s 390 1300 m -27 X s 390 1324 m -27 X s 390 1345 m -27 X s 390 1362 m -27 X s 390
 1378 m -27 X s 417 1392 m -54 X s 2154 634 m 850 Y s 2127 658 m 27 X s 2127 688 m 27 X s 2127 712 m 27 X s 2127 732 m 27 X s 2127 750 m 27 X s 2127 766 m 27 X s 2101 780 m 53 X s 2127 872 m 27 X s 2127 926 m 27 X s 2127 964 m 27 X s 2127 994 m 27 X
 s 2127 1018 m 27 X s 2127 1038 m 27 X s 2127 1056 m 27 X s 2127 1072 m 27 X s 2101 1086 m 53 X s 2127 1178 m 27 X s 2127 1232 m 27 X s 2127 1270 m 27 X s 2127 1300 m 27 X s 2127 1324 m 27 X s 2127 1345 m 27 X s 2127 1362 m 27 X s 2127 1378 m 27 X s
 2101 1392 m 53 X s
 gsave  2268 1077 0 461 C 677.708 1215.31 t 0 r /Helvetica findfont 58.7189 sf 0 0 m (2mu2e) show NC gr  1 1 1 c 453 161 454 1269 bf black
 gsave  2268 1077 0 461 C 566.929 1371.71 t 0 r /Helvetica-Bold findfont 48.9324 sf 0 0 m (MC15) show NC gr  510 1390 m20
 gsave  2268 1077 0 461 C 566.929 1293.51 t 0 r /Helvetica-Bold findfont 48.9324 sf 0 0 m (Projection of Signal pdf) show NC gr  0 0 1 c 9 lw 471 1309 m 79 X s black 3 lw 1 1 1 c 2268 461 0 0 bf black 1 1 1 c 1791 364 363 74 bf black 1791 364 363 74
 bl 363 74 m 1791 X s
 gsave  2268 461 0 0 C 1915.83 13.0329 t 0 r /Helvetica findfont 22.9045 sf 0 0 m (4l Invariant Mass \(GeV\)) show NC gr  466 85 m -11 Y s 535 79 m -5 Y s 604 79 m -5 Y s 673 79 m -5 Y s 742 79 m -5 Y s 811 85 m -11 Y s 880 79 m -5 Y s 949 79 m -5 Y
 s 1017 79 m -5 Y s 1086 79 m -5 Y s 1155 85 m -11 Y s 1224 79 m -5 Y s 1293 79 m -5 Y s 1362 79 m -5 Y s 1431 79 m -5 Y s 1500 85 m -11 Y s 1569 79 m -5 Y s 1638 79 m -5 Y s 1706 79 m -5 Y s 1775 79 m -5 Y s 1844 85 m -11 Y s 466 85 m -11 Y s 397 79
 m -5 Y s 1844 85 m -11 Y s 1913 79 m -5 Y s 1982 79 m -5 Y s 2051 79 m -5 Y s 2120 79 m -5 Y s
 gsave  2268 461 0 0 C 439.859 55.3896 t 0 r /Helvetica findfont 22.9045 sf 0 0 m (1250) show NC gr 
 gsave  2268 461 0 0 C 781.971 55.3896 t 0 r /Helvetica findfont 22.9045 sf 0 0 m (1300) show NC gr 
 gsave  2268 461 0 0 C 1127.34 55.3896 t 0 r /Helvetica findfont 22.9045 sf 0 0 m (1350) show NC gr 
 gsave  2268 461 0 0 C 1472.71 55.3896 t 0 r /Helvetica findfont 22.9045 sf 0 0 m (1400) show NC gr 
 gsave  2268 461 0 0 C 1818.08 55.3896 t 0 r /Helvetica findfont 22.9045 sf 0 0 m (1450) show NC gr  363 438 m 1791 X s 466 427 m 11 Y s 535 433 m 5 Y s 604 433 m 5 Y s 673 433 m 5 Y s 742 433 m 5 Y s 811 427 m 11 Y s 880 433 m 5 Y s 949 433 m 5 Y s
 1017 433 m 5 Y s 1086 433 m 5 Y s 1155 427 m 11 Y s 1224 433 m 5 Y s 1293 433 m 5 Y s 1362 433 m 5 Y s 1431 433 m 5 Y s 1500 427 m 11 Y s 1569 433 m 5 Y s 1638 433 m 5 Y s 1706 433 m 5 Y s 1775 433 m 5 Y s 1844 427 m 11 Y s 466 427 m 11 Y s 397 433
 m 5 Y s 1844 427 m 11 Y s 1913 433 m 5 Y s 1982 433 m 5 Y s 2051 433 m 5 Y s 2120 433 m 5 Y s 363 74 m 364 Y s 417 74 m -54 X s 390 81 m -27 X s 390 88 m -27 X s 390 96 m -27 X s 390 103 m -27 X s 417 110 m -54 X s 390 118 m -27 X s 390 125 m -27 X
 s 390 132 m -27 X s 390 139 m -27 X s 417 147 m -54 X s 390 154 m -27 X s 390 161 m -27 X s 390 169 m -27 X s 390 176 m -27 X s 417 183 m -54 X s 390 190 m -27 X s 390 198 m -27 X s 390 205 m -27 X s 390 212 m -27 X s 417 220 m -54 X s 390 227 m -27
 X s 390 234 m -27 X s 390 241 m -27 X s 390 249 m -27 X s 417 256 m -54 X s 390 263 m -27 X s 390 271 m -27 X s 390 278 m -27 X s 390 285 m -27 X s 417 293 m -54 X s 390 300 m -27 X s 390 307 m -27 X s 390 314 m -27 X s 390 322 m -27 X s 417 329 m
 -54 X s 390 336 m -27 X s 390 344 m -27 X s 390 351 m -27 X s 390 358 m -27 X s 417 365 m -54 X s 390 373 m -27 X s 390 380 m -27 X s 390 387 m -27 X s 390 395 m -27 X s 417 402 m -54 X s 390 409 m -27 X s 390 416 m -27 X s 390 424 m -27 X s 390 431
 m -27 X s 417 438 m -54 X s
 gsave  2268 461 0 0 C 329.08 65.1643 t 0 r /Helvetica findfont 22.9045 sf 0 0 m (\2555) show NC gr 
 gsave  2268 461 0 0 C 329.08 101.005 t 0 r /Helvetica findfont 22.9045 sf 0 0 m (\2554) show NC gr 
 gsave  2268 461 0 0 C 329.08 140.103 t 0 r /Helvetica findfont 22.9045 sf 0 0 m (\2553) show NC gr 
 gsave  2268 461 0 0 C 329.08 175.944 t 0 r /Helvetica findfont 22.9045 sf 0 0 m (\2552) show NC gr 
 gsave  2268 461 0 0 C 332.338 211.784 t 0 r /Helvetica findfont 22.9045 sf 0 0 m (\2551) show NC gr 
 gsave  2268 461 0 0 C 335.596 247.624 t 0 r /Helvetica findfont 22.9045 sf 0 0 m (0) show NC gr 
 gsave  2268 461 0 0 C 338.854 283.465 t 0 r /Helvetica findfont 22.9045 sf 0 0 m (1) show NC gr 
 gsave  2268 461 0 0 C 335.596 319.305 t 0 r /Helvetica findfont 22.9045 sf 0 0 m (2) show NC gr 
 gsave  2268 461 0 0 C 335.596 358.403 t 0 r /Helvetica findfont 22.9045 sf 0 0 m (3) show NC gr 
 gsave  2268 461 0 0 C 335.596 394.244 t 0 r /Helvetica findfont 22.9045 sf 0 0 m (4) show NC gr 
 gsave  2268 461 0 0 C 335.596 430.084 t 0 r /Helvetica findfont 22.9045 sf 0 0 m (5) show NC gr  2154 74 m 364 Y s 2101 74 m 53 X s 2127 81 m 27 X s 2127 88 m 27 X s 2127 96 m 27 X s 2127 103 m 27 X s 2101 110 m 53 X s 2127 118 m 27 X s 2127 125 m
 27 X s 2127 132 m 27 X s 2127 139 m 27 X s 2101 147 m 53 X s 2127 154 m 27 X s 2127 161 m 27 X s 2127 169 m 27 X s 2127 176 m 27 X s 2101 183 m 53 X s 2127 190 m 27 X s 2127 198 m 27 X s 2127 205 m 27 X s 2127 212 m 27 X s 2101 220 m 53 X s 2127 227
 m 27 X s 2127 234 m 27 X s 2127 241 m 27 X s 2127 249 m 27 X s 2101 256 m 53 X s 2127 263 m 27 X s 2127 271 m 27 X s 2127 278 m 27 X s 2127 285 m 27 X s 2101 293 m 53 X s 2127 300 m 27 X s 2127 307 m 27 X s 2127 314 m 27 X s 2127 322 m 27 X s 2101
 329 m 53 X s 2127 336 m 27 X s 2127 344 m 27 X s 2127 351 m 27 X s 2127 358 m 27 X s 2101 365 m 53 X s 2127 373 m 27 X s 2127 380 m 27 X s 2127 387 m 27 X s 2127 395 m 27 X s 2101 402 m 53 X s 2127 409 m 27 X s 2127 416 m 27 X s 2127 424 m 27 X s
 2127 431 m 27 X s 2101 438 m 53 X s 6 lw 0.2 0.8 0.2 c black 3 lw 0.2 0.8 0.2 c 363 256 m -51 Y 36 X 61 Y 35 X 12 Y 36 X 9 Y 36 X -39 Y 36 X -19 Y 36 X 29 Y 36 X 36 Y 35 X -14 Y 36 X -24 Y 36 X -41 Y 36 X 61 Y 36 X -15 Y 36 X 10 Y 35 X -17 Y 36 X
 -57 Y 36 X -7 Y 36 X 71 Y 36 X -85 Y 36 X 35 Y 35 X -12 Y 36 X -50 Y 36 X 98 Y 36 X -96 Y 36 X 178 Y 36 X -100 Y 35 X 89 Y 36 X -92 Y 36 X 33 Y 36 X -14 Y 36 X 93 Y 36 X -55 Y 35 X 50 Y 36 X -108 Y 36 X -3 Y 36 X 17 Y 36 X -27 Y 36 X 84 Y 35 X -41 Y
 36 X 93 Y 36 X -53 Y 36 X -41 Y 36 X 24 Y 36 X -47 Y 35 X -4 Y 36 X 23 Y 36 X -74 Y 36 X 70 Y 36 X 48 Y 36 X -8 Y 35 X -30 Y f 6 lw black 0.2 0.8 0.2 c black 363 205 m 36 X 61 Y 35 X 12 Y 36 X 9 Y 36 X -39 Y 36 X -19 Y 36 X 29 Y 36 X 36 Y 35 X -14 Y
 36 X -24 Y 36 X -41 Y 36 X 61 Y 36 X -15 Y 36 X 10 Y 35 X -17 Y 36 X -57 Y 36 X -7 Y 36 X 71 Y 36 X -85 Y 36 X 35 Y 35 X -12 Y 36 X -50 Y 36 X 98 Y 36 X -96 Y 36 X 178 Y 36 X -100 Y 35 X 89 Y 36 X -92 Y 36 X 33 Y 36 X -14 Y 36 X 93 Y 36 X -55 Y 35 X
 50 Y 36 X -108 Y 36 X -3 Y 36 X 17 Y 36 X -27 Y 36 X 84 Y 35 X -41 Y 36 X 93 Y 36 X -53 Y 36 X -41 Y 36 X 24 Y 36 X -47 Y 35 X -4 Y 36 X 23 Y 36 X -74 Y 36 X 70 Y 36 X 48 Y 36 X -8 Y 35 X s 3 lw 363 74 m 1791 X s 466 85 m -11 Y s 535 79 m -5 Y s 604
 79 m -5 Y s 673 79 m -5 Y s 742 79 m -5 Y s 811 85 m -11 Y s 880 79 m -5 Y s 949 79 m -5 Y s 1017 79 m -5 Y s 1086 79 m -5 Y s 1155 85 m -11 Y s 1224 79 m -5 Y s 1293 79 m -5 Y s 1362 79 m -5 Y s 1431 79 m -5 Y s 1500 85 m -11 Y s 1569 79 m -5 Y s
 1638 79 m -5 Y s 1706 79 m -5 Y s 1775 79 m -5 Y s 1844 85 m -11 Y s 466 85 m -11 Y s 397 79 m -5 Y s 1844 85 m -11 Y s 1913 79 m -5 Y s 1982 79 m -5 Y s 2051 79 m -5 Y s 2120 79 m -5 Y s 363 438 m 1791 X s 466 427 m 11 Y s 535 433 m 5 Y s 604 433 m
 5 Y s 673 433 m 5 Y s 742 433 m 5 Y s 811 427 m 11 Y s 880 433 m 5 Y s 949 433 m 5 Y s 1017 433 m 5 Y s 1086 433 m 5 Y s 1155 427 m 11 Y s 1224 433 m 5 Y s 1293 433 m 5 Y s 1362 433 m 5 Y s 1431 433 m 5 Y s 1500 427 m 11 Y s 1569 433 m 5 Y s 1638
 433 m 5 Y s 1706 433 m 5 Y s 1775 433 m 5 Y s 1844 427 m 11 Y s 466 427 m 11 Y s 397 433 m 5 Y s 1844 427 m 11 Y s 1913 433 m 5 Y s 1982 433 m 5 Y s 2051 433 m 5 Y s 2120 433 m 5 Y s 363 74 m 364 Y s 417 74 m -54 X s 390 81 m -27 X s 390 88 m -27 X
 s 390 96 m -27 X s 390 103 m -27 X s 417 110 m -54 X s 390 118 m -27 X s 390 125 m -27 X s 390 132 m -27 X s 390 139 m -27 X s 417 147 m -54 X s 390 154 m -27 X s 390 161 m -27 X s 390 169 m -27 X s 390 176 m -27 X s 417 183 m -54 X s 390 190 m -27
 X s 390 198 m -27 X s 390 205 m -27 X s 390 212 m -27 X s 417 220 m -54 X s 390 227 m -27 X s 390 234 m -27 X s 390 241 m -27 X s 390 249 m -27 X s 417 256 m -54 X s 390 263 m -27 X s 390 271 m -27 X s 390 278 m -27 X s 390 285 m -27 X s 417 293 m
 -54 X s 390 300 m -27 X s 390 307 m -27 X s 390 314 m -27 X s 390 322 m -27 X s 417 329 m -54 X s 390 336 m -27 X s 390 344 m -27 X s 390 351 m -27 X s 390 358 m -27 X s 417 365 m -54 X s 390 373 m -27 X s 390 380 m -27 X s 390 387 m -27 X s 390 395
 m -27 X s 417 402 m -54 X s 390 409 m -27 X s 390 416 m -27 X s 390 424 m -27 X s 390 431 m -27 X s 417 438 m -54 X s 2154 74 m 364 Y s 2101 74 m 53 X s 2127 81 m 27 X s 2127 88 m 27 X s 2127 96 m 27 X s 2127 103 m 27 X s 2101 110 m 53 X s 2127 118
 m 27 X s 2127 125 m 27 X s 2127 132 m 27 X s 2127 139 m 27 X s 2101 147 m 53 X s 2127 154 m 27 X s 2127 161 m 27 X s 2127 169 m 27 X s 2127 176 m 27 X s 2101 183 m 53 X s 2127 190 m 27 X s 2127 198 m 27 X s 2127 205 m 27 X s 2127 212 m 27 X s 2101
 220 m 53 X s 2127 227 m 27 X s 2127 234 m 27 X s 2127 241 m 27 X s 2127 249 m 27 X s 2101 256 m 53 X s 2127 263 m 27 X s 2127 271 m 27 X s 2127 278 m 27 X s 2127 285 m 27 X s 2101 293 m 53 X s 2127 300 m 27 X s 2127 307 m 27 X s 2127 314 m 27 X s
 2127 322 m 27 X s 2101 329 m 53 X s 2127 336 m 27 X s 2127 344 m 27 X s 2127 351 m 27 X s 2127 358 m 27 X s 2101 365 m 53 X s 2127 373 m 27 X s 2127 380 m 27 X s 2127 387 m 27 X s 2127 395 m 27 X s 2101 402 m 53 X s 2127 409 m 27 X s 2127 416 m 27 X
 s 2127 424 m 27 X s 2127 431 m 27 X s 2101 438 m 53 X s
 gr  gr showpage
end
%%EOF
