%!PS-Adobe-2.0 EPSF-2.0
%%BoundingBox:  0 0 567 384
%%Title: H4l2015_plotfit/gg_mass_signal_200_H4l_4e.eps: 
%%Creator: ROOT Version 5.34/10
%%CreationDate: Thu Feb 16 13:49:23 2017
%%EndComments
%%BeginProlog
80 dict begin
/s {stroke} def /l {lineto} def /m {moveto} def /t {translate} def
/r {rotate} def /rl {roll}  def /R {repeat} def
/d {rlineto} def /rm {rmoveto} def /gr {grestore} def /f {eofill} def
/c {setrgbcolor} def /black {0 setgray} def /sd {setdash} def
/cl {closepath} def /sf {scalefont setfont} def /lw {setlinewidth} def
/box {m dup 0 exch d exch 0 d 0 exch neg d cl} def
/NC{systemdict begin initclip end}def/C{NC box clip newpath}def
/bl {box s} def /bf {box f} def /Y { 0 exch d} def /X { 0 d} def 
/K {{pop pop 0 moveto} exch kshow} bind def
/ita {/ang 15 def gsave [1 0 ang dup sin exch cos div 1 0 0] concat} def 
/mp {newpath /y exch def /x exch def} def
/side {[w .77 mul w .23 mul] .385 w mul sd w 0 l currentpoint t -144 r} def
/mr {mp x y w2 0 360 arc} def /m24 {mr s} def /m20 {mr f} def
/mb {mp x y w2 add m w2 neg 0 d 0 w neg d w 0 d 0 w d cl} def
/mt {mp x y w2 add m w2 neg w neg d w 0 d cl} def
/m21 {mb f} def /m25 {mb s} def /m22 {mt f} def /m26{mt s} def
/m23 {mp x y w2 sub m w2 w d w neg 0 d cl f} def
/m27 {mp x y w2 add m w3 neg w2 neg d w3 w2 neg d w3 w2 d cl s} def
/m28 {mp x w2 sub y w2 sub w3 add m w3 0 d  0 w3 neg d w3 0 d 0 w3 d w3 0 d  0 w3 d w3 neg 0 d 0 w3 d w3 neg 0 d 0 w3 neg d w3 neg 0 d cl s } def
/m29 {mp gsave x w2 sub y w2 add w3 sub m currentpoint t 4 {side} repeat cl fill gr} def
/m30 {mp gsave x w2 sub y w2 add w3 sub m currentpoint t 4 {side} repeat cl s gr} def
/m31 {mp x y w2 sub m 0 w d x w2 sub y m w 0 d x w2 sub y w2 add m w w neg d x w2 sub y w2 sub m w w d s} def
/m32 {mp x y w2 sub m w2 w d w neg 0 d cl s} def
/m33 {mp x y w2 add m w3 neg w2 neg d w3 w2 neg d w3 w2 d cl f} def
/m34 {mp x w2 sub y w2 sub w3 add m w3 0 d  0 w3 neg d w3 0 d 0 w3 d w3 0 d  0 w3 d w3 neg 0 d 0 w3 d w3 neg 0 d 0 w3 neg d w3 neg 0 d cl f } def
/m2 {mp x y w2 sub m 0 w d x w2 sub y m w 0 d s} def
/m5 {mp x w2 sub y w2 sub m w w d x w2 sub y w2 add m w w neg d s} def
/reEncode {exch findfont dup length dict begin {1 index /FID eq  {pop pop} {def} ifelse } forall /Encoding exch def currentdict end dup /FontName get exch definefont pop } def [/Times-Bold /Times-Italic /Times-BoldItalic /Helvetica /Helvetica-Oblique
 /Helvetica-Bold /Helvetica-BoldOblique /Courier /Courier-Oblique /Courier-Bold /Courier-BoldOblique /Times-Roman /AvantGarde-Book /AvantGarde-BookOblique /AvantGarde-Demi /AvantGarde-DemiOblique /Bookman-Demi /Bookman-DemiItalic /Bookman-Light
 /Bookman-LightItalic /Helvetica-Narrow /Helvetica-Narrow-Bold /Helvetica-Narrow-BoldOblique /Helvetica-Narrow-Oblique /NewCenturySchlbk-Roman /NewCenturySchlbk-Bold /NewCenturySchlbk-BoldItalic /NewCenturySchlbk-Italic /Palatino-Bold
 /Palatino-BoldItalic /Palatino-Italic /Palatino-Roman ] {ISOLatin1Encoding reEncode } forall
%%EndProlog
%%BeginSetup
%%EndSetup
newpath  gsave  .25 .25 scale  gsave  0 0 t black[  ] 0 sd 3 lw 1 1 1 c 2268 1538 0 0 bf black 1 1 1 c 2222 738 23 784 bf black 1 1 1 c 2222 739 23 15 bf black 1 1 1 c 2268 1077 0 461 bf black 1 1 1 c 1791 850 363 634 bf black 1791 850 363 634 bl 363
 634 m 1791 X s
 gsave  2268 1077 0 461 C 1642.14 498.507 t 0 r /Helvetica findfont 48.9324 sf 0 0 m (4l Invariant Mass \(GeV\)) show NC gr  628 659 m -25 Y s 695 646 m -12 Y s 761 646 m -12 Y s 827 646 m -12 Y s 894 646 m -12 Y s 960 659 m -25 Y s 1026 646 m -12 Y
 s 1093 646 m -12 Y s 1159 646 m -12 Y s 1225 646 m -12 Y s 1292 659 m -25 Y s 1358 646 m -12 Y s 1424 646 m -12 Y s 1491 646 m -12 Y s 1557 646 m -12 Y s 1624 659 m -25 Y s 1690 646 m -12 Y s 1756 646 m -12 Y s 1823 646 m -12 Y s 1889 646 m -12 Y s
 1955 659 m -25 Y s 628 659 m -25 Y s 562 646 m -12 Y s 496 646 m -12 Y s 429 646 m -12 Y s 363 646 m -12 Y s 1955 659 m -25 Y s 2022 646 m -12 Y s 2088 646 m -12 Y s 2154 646 m -12 Y s
 gsave  2268 1077 0 461 C 583.22 586.478 t 0 r /Helvetica findfont 48.9324 sf 0 0 m (185) show NC gr 
 gsave  2268 1077 0 461 C 915.558 586.478 t 0 r /Helvetica findfont 48.9324 sf 0 0 m (190) show NC gr 
 gsave  2268 1077 0 461 C 1247.9 586.478 t 0 r /Helvetica findfont 48.9324 sf 0 0 m (195) show NC gr 
 gsave  2268 1077 0 461 C 1580.23 586.478 t 0 r /Helvetica findfont 48.9324 sf 0 0 m (200) show NC gr 
 gsave  2268 1077 0 461 C 1912.57 586.478 t 0 r /Helvetica findfont 48.9324 sf 0 0 m (205) show NC gr  363 1484 m 1791 X s 628 1459 m 25 Y s 695 1471 m 13 Y s 761 1471 m 13 Y s 827 1471 m 13 Y s 894 1471 m 13 Y s 960 1459 m 25 Y s 1026 1471 m 13 Y s
 1093 1471 m 13 Y s 1159 1471 m 13 Y s 1225 1471 m 13 Y s 1292 1459 m 25 Y s 1358 1471 m 13 Y s 1424 1471 m 13 Y s 1491 1471 m 13 Y s 1557 1471 m 13 Y s 1624 1459 m 25 Y s 1690 1471 m 13 Y s 1756 1471 m 13 Y s 1823 1471 m 13 Y s 1889 1471 m 13 Y s
 1955 1459 m 25 Y s 628 1459 m 25 Y s 562 1471 m 13 Y s 496 1471 m 13 Y s 429 1471 m 13 Y s 363 1471 m 13 Y s 1955 1459 m 25 Y s 2022 1471 m 13 Y s 2088 1471 m 13 Y s 2154 1471 m 13 Y s 363 634 m 850 Y s
 gsave  2268 1077 0 461 C 120.554 1032.85 t 90 r /Helvetica findfont 48.9324 sf 0 0 m (Events / \( 0.54 GeV \)) show NC gr  417 636 m -54 X s
 gsave  2268 1077 0 461 C 342.425 615.332 t 0 r  -27 0 t /Helvetica findfont 48.9324 sf 0 0 m (1) show NC gr  390 728 m -27 X s 390 782 m -27 X s 390 820 m -27 X s 390 850 m -27 X s 390 874 m -27 X s 390 895 m -27 X s 390 913 m -27 X s 390 928 m -27
 X s 417 942 m -54 X s
 gsave  2268 1077 0 461 C 342.425 921.451 t 0 r  -55 0 t /Helvetica findfont 48.9324 sf 0 0 m (10) show NC gr  390 1034 m -27 X s 390 1088 m -27 X s 390 1127 m -27 X s 390 1156 m -27 X s 390 1181 m -27 X s 390 1201 m -27 X s 390 1219 m -27 X s 390
 1234 m -27 X s 417 1248 m -54 X s
 gsave  2268 1077 0 461 C 322.563 1247.9 t 0 r /Helvetica findfont 32.6216 sf 0 0 m (2) show NC gr 
 gsave  2268 1077 0 461 C 270.432 1228.35 t 0 r /Helvetica findfont 48.9324 sf 0 0 m (10) show NC gr  390 1341 m -27 X s 390 1394 m -27 X s 390 1433 m -27 X s 390 1462 m -27 X s 2154 634 m 850 Y s 2101 636 m 53 X s 2127 728 m 27 X s 2127 782 m 27 X s
 2127 820 m 27 X s 2127 850 m 27 X s 2127 874 m 27 X s 2127 895 m 27 X s 2127 913 m 27 X s 2127 928 m 27 X s 2101 942 m 53 X s 2127 1034 m 27 X s 2127 1088 m 27 X s 2127 1127 m 27 X s 2127 1156 m 27 X s 2127 1181 m 27 X s 2127 1201 m 27 X s 2127 1219
 m 27 X s 2127 1234 m 27 X s 2101 1248 m 53 X s 2127 1341 m 27 X s 2127 1394 m 27 X s 2127 1433 m 27 X s 2127 1462 m 27 X s 381 728 m -18 X s 363 728 m cl s 381 728 m 18 X s 399 728 m cl s 381 728 m 112 Y s 381 840 m cl s 381 728 m -94 Y s 381 634 m
 cl s 417 874 m -18 X s 399 874 m cl s 417 874 m 17 X s 434 874 m cl s 417 874 m 63 Y s 417 937 m cl s 417 874 m -67 Y s 417 807 m cl s 452 928 m -18 X s 434 928 m cl s 452 928 m 18 X s 470 928 m cl s 452 928 m 50 Y s 452 978 m cl s 452 928 m -52 Y s
 452 876 m cl s 488 820 m -18 X s 470 820 m cl s 488 820 m 18 X s 506 820 m cl s 488 820 m 78 Y s 488 898 m cl s 488 820 m -86 Y s 488 734 m cl s 524 955 m -18 X s 506 955 m cl s 524 955 m 18 X s 542 955 m cl s 524 955 m 45 Y s 524 1000 m cl s 524
 955 m -47 Y s 524 908 m cl s 560 782 m -18 X s 542 782 m cl s 560 782 m 18 X s 578 782 m cl s 560 782 m 91 Y s 560 873 m cl s 560 782 m -104 Y s 560 678 m cl s 596 850 m -18 X s 578 850 m cl s 596 850 m 18 X s 614 850 m cl s 596 850 m 69 Y s 596 919
 m cl s 596 850 m -75 Y s 596 775 m cl s 632 942 m -18 X s 614 942 m cl s 632 942 m 17 X s 649 942 m cl s 632 942 m 48 Y s 632 990 m cl s 632 942 m -49 Y s 632 893 m cl s 667 1005 m -18 X s 649 1005 m cl s 667 1005 m 18 X s 685 1005 m cl s 667 1005 m
 36 Y s 667 1041 m cl s 667 1005 m -38 Y s 667 967 m cl s 703 928 m -18 X s 685 928 m cl s 703 928 m 18 X s 721 928 m cl s 703 928 m 50 Y s 703 978 m cl s 703 928 m -52 Y s 703 876 m cl s 739 1020 m -18 X s 721 1020 m cl s 739 1020 m 18 X s 757 1020
 m cl s 739 1020 m 35 Y s 739 1055 m cl s 739 1020 m -35 Y s 739 985 m cl s 775 1013 m -18 X s 757 1013 m cl s 775 1013 m 18 X s 793 1013 m cl s 775 1013 m 35 Y s 775 1048 m cl s 775 1013 m -37 Y s 775 976 m cl s 811 977 m -18 X s 793 977 m cl s 811
 977 m 18 X s 829 977 m cl s 811 977 m 41 Y s 811 1018 m cl s 811 977 m -42 Y s 811 935 m cl s 847 1047 m -18 X s 829 1047 m cl s 847 1047 m 17 X s 864 1047 m cl s 847 1047 m 31 Y s 847 1078 m cl s 847 1047 m -31 Y s 847 1016 m cl s 882 1064 m -18 X
 s 864 1064 m cl s 882 1064 m 18 X s 900 1064 m cl s 882 1064 m 29 Y s 882 1093 m cl s 882 1064 m -29 Y s 882 1035 m cl s 918 1047 m -18 X s 900 1047 m cl s 918 1047 m 18 X s 936 1047 m cl s 918 1047 m 31 Y s 918 1078 m cl s 918 1047 m -31 Y s 918
 1016 m cl s 954 1101 m -18 X s 936 1101 m cl s 954 1101 m 18 X s 972 1101 m cl s 954 1101 m 25 Y s 954 1126 m cl s 954 1101 m -25 Y s 954 1076 m cl s 990 1105 m -18 X s 972 1105 m cl s 990 1105 m 18 X s 1008 1105 m cl s 990 1105 m 25 Y s 990 1130 m
 cl s 990 1105 m -25 Y s 990 1080 m cl s 1026 1136 m -18 X s 1008 1136 m cl s 1026 1136 m 18 X s 1044 1136 m cl s 1026 1136 m 22 Y s 1026 1158 m cl s 1026 1136 m -22 Y s 1026 1114 m cl s 1062 1127 m -18 X s 1044 1127 m cl s 1062 1127 m 17 X s 1079
 1127 m cl s 1062 1127 m 22 Y s 1062 1149 m cl s 1062 1127 m -23 Y s 1062 1104 m cl s 1097 1151 m -18 X s 1079 1151 m cl s 1097 1151 m 18 X s 1115 1151 m cl s 1097 1151 m 20 Y s 1097 1171 m cl s 1097 1151 m -21 Y s 1097 1130 m cl s 1133 1171 m -18 X
 s 1115 1171 m cl s 1133 1171 m 18 X s 1151 1171 m cl s 1133 1171 m 19 Y s 1133 1190 m cl s 1133 1171 m -19 Y s 1133 1152 m cl s 1169 1156 m -18 X s 1151 1156 m cl s 1169 1156 m 18 X s 1187 1156 m cl s 1169 1156 m 20 Y s 1169 1176 m cl s 1169 1156 m
 -20 Y s 1169 1136 m cl s 1205 1185 m -18 X s 1187 1185 m cl s 1205 1185 m 18 X s 1223 1185 m cl s 1205 1185 m 18 Y s 1205 1203 m cl s 1205 1185 m -18 Y s 1205 1167 m cl s 1241 1244 m -18 X s 1223 1244 m cl s 1241 1244 m 18 X s 1259 1244 m cl s 1241
 1244 m 15 Y s 1241 1259 m cl s 1241 1244 m -14 Y s 1241 1230 m cl s 1276 1231 m -17 X s 1259 1231 m cl s 1276 1231 m 18 X s 1294 1231 m cl s 1276 1231 m 15 Y s 1276 1246 m cl s 1276 1231 m -15 Y s 1276 1216 m cl s 1312 1283 m -18 X s 1294 1283 m cl
 s 1312 1283 m 18 X s 1330 1283 m cl s 1312 1283 m 12 Y s 1312 1295 m cl s 1312 1283 m -11 Y s 1312 1272 m cl s 1348 1301 m -18 X s 1330 1301 m cl s 1348 1301 m 18 X s 1366 1301 m cl s 1348 1301 m 11 Y s 1348 1312 m cl s 1348 1301 m -10 Y s 1348 1291
 m cl s 1384 1324 m -18 X s 1366 1324 m cl s 1384 1324 m 18 X s 1402 1324 m cl s 1384 1324 m 10 Y s 1384 1334 m cl s 1384 1324 m -10 Y s 1384 1314 m cl s 1420 1333 m -18 X s 1402 1333 m cl s 1420 1333 m 18 X s 1438 1333 m cl s 1420 1333 m 10 Y s 1420
 1343 m cl s 1420 1333 m -10 Y s 1420 1323 m cl s 1456 1354 m -18 X s 1438 1354 m cl s 1456 1354 m 18 X s 1474 1354 m cl s 1456 1354 m 9 Y s 1456 1363 m cl s 1456 1354 m -8 Y s 1456 1346 m cl s 1491 1376 m -17 X s 1474 1376 m cl s 1491 1376 m 18 X s
 1509 1376 m cl s 1491 1376 m 8 Y s 1491 1384 m cl s 1491 1376 m -8 Y s 1491 1368 m cl s 1527 1391 m -18 X s 1509 1391 m cl s 1527 1391 m 18 X s 1545 1391 m cl s 1527 1391 m 8 Y s 1527 1399 m cl s 1527 1391 m -8 Y s 1527 1383 m cl s 1563 1405 m -18 X
 s 1545 1405 m cl s 1563 1405 m 18 X s 1581 1405 m cl s 1563 1405 m 7 Y s 1563 1412 m cl s 1563 1405 m -8 Y s 1563 1397 m cl s 1599 1412 m -18 X s 1581 1412 m cl s 1599 1412 m 18 X s 1617 1412 m cl s 1599 1412 m 7 Y s 1599 1419 m cl s 1599 1412 m -7
 Y s 1599 1405 m cl s 1635 1408 m -18 X s 1617 1408 m cl s 1635 1408 m 18 X s 1653 1408 m cl s 1635 1408 m 8 Y s 1635 1416 m cl s 1635 1408 m -7 Y s 1635 1401 m cl s 1671 1388 m -18 X s 1653 1388 m cl s 1671 1388 m 18 X s 1689 1388 m cl s 1671 1388 m
 8 Y s 1671 1396 m cl s 1671 1388 m -8 Y s 1671 1380 m cl s 1706 1367 m -17 X s 1689 1367 m cl s 1706 1367 m 18 X s 1724 1367 m cl s 1706 1367 m 9 Y s 1706 1376 m cl s 1706 1367 m -8 Y s 1706 1359 m cl s 1742 1326 m -18 X s 1724 1326 m cl s 1742 1326
 m 18 X s 1760 1326 m cl s 1742 1326 m 10 Y s 1742 1336 m cl s 1742 1326 m -10 Y s 1742 1316 m cl s 1778 1307 m -18 X s 1760 1307 m cl s 1778 1307 m 18 X s 1796 1307 m cl s 1778 1307 m 10 Y s 1778 1317 m cl s 1778 1307 m -11 Y s 1778 1296 m cl s 1814
 1270 m -18 X s 1796 1270 m cl s 1814 1270 m 18 X s 1832 1270 m cl s 1814 1270 m 13 Y s 1814 1283 m cl s 1814 1270 m -12 Y s 1814 1258 m cl s 1850 1187 m -18 X s 1832 1187 m cl s 1850 1187 m 18 X s 1868 1187 m cl s 1850 1187 m 18 Y s 1850 1205 m cl s
 1850 1187 m -18 Y s 1850 1169 m cl s 1886 1178 m -18 X s 1868 1178 m cl s 1886 1178 m 18 X s 1904 1178 m cl s 1886 1178 m 19 Y s 1886 1197 m cl s 1886 1178 m -18 Y s 1886 1160 m cl s 1921 1169 m -17 X s 1904 1169 m cl s 1921 1169 m 18 X s 1939 1169
 m cl s 1921 1169 m 19 Y s 1921 1188 m cl s 1921 1169 m -19 Y s 1921 1150 m cl s 1957 1088 m -18 X s 1939 1088 m cl s 1957 1088 m 18 X s 1975 1088 m cl s 1957 1088 m 27 Y s 1957 1115 m cl s 1957 1088 m -26 Y s 1957 1062 m cl s 1993 967 m -18 X s 1975
 967 m cl s 1993 967 m 18 X s 2011 967 m cl s 1993 967 m 42 Y s 1993 1009 m cl s 1993 967 m -45 Y s 1993 922 m cl s 2029 1028 m -18 X s 2011 1028 m cl s 2029 1028 m 18 X s 2047 1028 m cl s 2029 1028 m 33 Y s 2029 1061 m cl s 2029 1028 m -35 Y s 2029
 993 m cl s 2065 967 m -18 X s 2047 967 m cl s 2065 967 m 18 X s 2083 967 m cl s 2065 967 m 42 Y s 2065 1009 m cl s 2065 967 m -45 Y s 2065 922 m cl s 2101 913 m -18 X s 2083 913 m cl s 2101 913 m 18 X s 2119 913 m cl s 2101 913 m 53 Y s 2101 966 m
 cl s 2101 913 m -57 Y s 2101 856 m cl s 2136 895 m -17 X s 2119 895 m cl s 2136 895 m 18 X s 2154 895 m cl s 2136 895 m 57 Y s 2136 952 m cl s 2136 895 m -61 Y s 2136 834 m cl s /w 31 def /w2 {w 2 div} def /w3 {w 3 div} def 381 728 417 874 452 928
 488 820 524 955 560 782 596 850 632 942 667 1005 703 928 739 1020 775 1013 811 977 847 1047 882 1064 918 1047 954 1101 990 1105 1026 1136 1062 1127 1097 1151 1133 1171 1169 1156 1205 1185 1241 1244 1276 1231 1312 1283 1348 1301 1384 1324 1420 1333
 1456 1354 1491 1376 1527 1391 1563 1405 1599 1412 1635 1408 1671 1388 1706 1367 1742 1326 1778 1307 1814 1270 1850 1187 1886 1178 1921 1169 1957 1088 1993 967 2029 1028 2065 967 2101 913 2136 895 50 { m20} R 0 1 1 c 1 1 0 c black 1 1 0 c 363 923 m
 36 7 d 35 6 d 36 7 d 36 7 d 36 7 d 36 8 d 36 8 d 35 8 d 36 8 d 36 9 d 36 10 d 36 11 d 36 12 d 35 13 d 36 14 d 36 15 d 36 17 d 36 17 d 36 18 d 35 18 d 36 19 d 36 19 d 36 20 d 36 21 d 36 22 d 35 22 d 18 11 d 18 10 d 18 11 d 18 10 d 18 11 d 18 11 d 18
 12 d 18 13 d 9 7 d 9 7 d 18 12 d 17 9 d 9 4 d 9 4 d 9 3 d 9 3 d 9 3 d 9 2 d 9 3 d 9 1 d 9 1 d 9 1 d 18 X 9 -1 d 9 -2 d 9 -2 d 9 -3 d 9 -3 d 9 -4 d 9 -4 d 9 -4 d 18 -11 d 17 -12 d 18 -14 d 18 -14 d 18 -16 d 18 -17 d 18 -18 d 18 -20 d 18 -20 d 18 -21
 d 18 -21 d 18 -21 d 18 -20 d 17 -20 d 18 -19 d 18 -19 d 18 -18 d 36 -34 d 36 -33 d 36 -33 d 36 -33 d 35 -34 d -107 Y -35 56 d -36 50 d -36 46 d -36 43 d -36 43 d -18 21 d -18 22 d -18 22 d -17 21 d -18 22 d -18 22 d -18 21 d -18 22 d -18 21 d -18 21
 d -18 20 d -18 19 d -18 18 d -18 16 d -18 15 d -17 12 d -18 10 d -9 5 d -9 4 d -9 3 d -9 3 d -9 2 d -9 3 d -9 1 d -9 1 d -9 1 d -9 1 d -9 X -9 -1 d -9 -1 d -9 -2 d -9 -2 d -9 -3 d -9 -3 d -9 -5 d -9 -5 d -9 -6 d -17 -13 d -18 -13 d -9 -6 d -9 -6 d
 -18 -10 d -18 -12 d -18 -12 d -18 -11 d -18 -12 d -18 -11 d -18 -10 d -18 -11 d -35 -20 d -36 -20 d -36 -21 d -36 -22 d -36 -22 d -36 -22 d -35 -21 d -36 -20 d -36 -18 d -36 -17 d -36 -16 d -36 -14 d -35 -14 d -36 -12 d -36 -12 d -36 -11 d -36 -11 d
 -36 -9 d -35 -10 d -36 -9 d -36 -8 d -36 -9 d -36 -8 d -36 -7 d -35 -8 d -36 -7 d f 0 1 1 c 0 1 0 c black 0 1 0 c 363 914 m 36 6 d 35 7 d 36 7 d 36 7 d 36 8 d 36 8 d 36 8 d 35 8 d 36 9 d 36 9 d 36 10 d 36 11 d 36 12 d 35 13 d 36 15 d 36 15 d 36 17 d
 36 17 d 36 18 d 35 19 d 36 20 d 36 20 d 36 20 d 36 21 d 36 22 d 35 21 d 18 11 d 18 10 d 18 11 d 18 11 d 18 10 d 18 11 d 18 12 d 18 13 d 9 7 d 9 7 d 18 12 d 17 10 d 9 4 d 9 4 d 9 4 d 9 3 d 9 3 d 9 2 d 9 2 d 9 2 d 9 1 d 27 X 9 -1 d 9 -2 d 9 -2 d 9 -3
 d 9 -3 d 9 -3 d 9 -5 d 9 -4 d 18 -11 d 17 -12 d 18 -13 d 18 -15 d 18 -17 d 18 -17 d 18 -19 d 18 -20 d 18 -20 d 18 -21 d 18 -21 d 18 -21 d 18 -21 d 17 -20 d 18 -20 d 18 -19 d 18 -19 d 36 -36 d 36 -35 d 36 -35 d 36 -35 d 35 -36 d -55 Y -35 48 d -36 44
 d -36 42 d -36 40 d -36 40 d -18 20 d -18 21 d -18 21 d -17 21 d -18 21 d -18 22 d -18 21 d -18 22 d -18 21 d -18 20 d -18 20 d -18 18 d -18 18 d -18 16 d -18 14 d -17 12 d -18 10 d -9 5 d -9 4 d -9 3 d -9 3 d -9 3 d -9 2 d -9 2 d -9 1 d -9 X -9 1 d
 -9 -1 d -9 X -9 -2 d -9 -1 d -9 -3 d -9 -3 d -9 -3 d -9 -4 d -9 -5 d -9 -5 d -17 -12 d -18 -13 d -9 -6 d -9 -6 d -18 -12 d -18 -11 d -18 -12 d -18 -11 d -18 -12 d -18 -10 d -18 -11 d -18 -10 d -35 -21 d -36 -21 d -36 -21 d -36 -21 d -36 -22 d -36
 -21 d -35 -20 d -36 -19 d -36 -18 d -36 -17 d -36 -16 d -36 -14 d -35 -13 d -36 -12 d -36 -12 d -36 -10 d -36 -10 d -36 -10 d -35 -9 d -36 -9 d -36 -8 d -36 -8 d -36 -7 d -36 -8 d -35 -7 d -36 -7 d f 0 0 1 c 9 lw black 0 0 1 c 363 904 m 36 7 d 35 7
 d 36 7 d 36 7 d 36 8 d 36 8 d 36 8 d 35 9 d 36 9 d 36 10 d 36 10 d 36 11 d 36 12 d 35 13 d 36 15 d 36 15 d 36 17 d 36 18 d 36 18 d 35 20 d 36 20 d 36 21 d 36 21 d 36 21 d 36 21 d 35 21 d 18 10 d 18 11 d 18 11 d 18 11 d 18 11 d 18 11 d 18 12 d 18 12
 d 9 7 d 9 6 d 18 13 d 17 11 d 9 4 d 9 5 d 9 3 d 9 4 d 9 3 d 9 2 d 9 2 d 9 1 d 9 1 d 27 X 9 -1 d 9 -2 d 9 -2 d 9 -3 d 9 -3 d 9 -3 d 9 -4 d 9 -5 d 18 -10 d 17 -13 d 18 -13 d 18 -16 d 18 -17 d 18 -18 d 18 -19 d 18 -20 d 18 -21 d 18 -21 d 18 -21 d 18
 -21 d 18 -21 d 17 -21 d 18 -20 d 18 -20 d 18 -19 d 36 -38 d 36 -38 d 36 -38 d 36 -39 d 35 -41 d s black 3 lw 381 728 m -18 X s 363 728 m cl s 381 728 m 18 X s 399 728 m cl s 381 728 m 112 Y s 381 840 m cl s 381 728 m -94 Y s 381 634 m cl s 417 874 m
 -18 X s 399 874 m cl s 417 874 m 17 X s 434 874 m cl s 417 874 m 63 Y s 417 937 m cl s 417 874 m -67 Y s 417 807 m cl s 452 928 m -18 X s 434 928 m cl s 452 928 m 18 X s 470 928 m cl s 452 928 m 50 Y s 452 978 m cl s 452 928 m -52 Y s 452 876 m cl s
 488 820 m -18 X s 470 820 m cl s 488 820 m 18 X s 506 820 m cl s 488 820 m 78 Y s 488 898 m cl s 488 820 m -86 Y s 488 734 m cl s 524 955 m -18 X s 506 955 m cl s 524 955 m 18 X s 542 955 m cl s 524 955 m 45 Y s 524 1000 m cl s 524 955 m -47 Y s 524
 908 m cl s 560 782 m -18 X s 542 782 m cl s 560 782 m 18 X s 578 782 m cl s 560 782 m 91 Y s 560 873 m cl s 560 782 m -104 Y s 560 678 m cl s 596 850 m -18 X s 578 850 m cl s 596 850 m 18 X s 614 850 m cl s 596 850 m 69 Y s 596 919 m cl s 596 850 m
 -75 Y s 596 775 m cl s 632 942 m -18 X s 614 942 m cl s 632 942 m 17 X s 649 942 m cl s 632 942 m 48 Y s 632 990 m cl s 632 942 m -49 Y s 632 893 m cl s 667 1005 m -18 X s 649 1005 m cl s 667 1005 m 18 X s 685 1005 m cl s 667 1005 m 36 Y s 667 1041
 m cl s 667 1005 m -38 Y s 667 967 m cl s 703 928 m -18 X s 685 928 m cl s 703 928 m 18 X s 721 928 m cl s 703 928 m 50 Y s 703 978 m cl s 703 928 m -52 Y s 703 876 m cl s 739 1020 m -18 X s 721 1020 m cl s 739 1020 m 18 X s 757 1020 m cl s 739 1020
 m 35 Y s 739 1055 m cl s 739 1020 m -35 Y s 739 985 m cl s 775 1013 m -18 X s 757 1013 m cl s 775 1013 m 18 X s 793 1013 m cl s 775 1013 m 35 Y s 775 1048 m cl s 775 1013 m -37 Y s 775 976 m cl s 811 977 m -18 X s 793 977 m cl s 811 977 m 18 X s 829
 977 m cl s 811 977 m 41 Y s 811 1018 m cl s 811 977 m -42 Y s 811 935 m cl s 847 1047 m -18 X s 829 1047 m cl s 847 1047 m 17 X s 864 1047 m cl s 847 1047 m 31 Y s 847 1078 m cl s 847 1047 m -31 Y s 847 1016 m cl s 882 1064 m -18 X s 864 1064 m cl s
 882 1064 m 18 X s 900 1064 m cl s 882 1064 m 29 Y s 882 1093 m cl s 882 1064 m -29 Y s 882 1035 m cl s 918 1047 m -18 X s 900 1047 m cl s 918 1047 m 18 X s 936 1047 m cl s 918 1047 m 31 Y s 918 1078 m cl s 918 1047 m -31 Y s 918 1016 m cl s 954 1101
 m -18 X s 936 1101 m cl s 954 1101 m 18 X s 972 1101 m cl s 954 1101 m 25 Y s 954 1126 m cl s 954 1101 m -25 Y s 954 1076 m cl s 990 1105 m -18 X s 972 1105 m cl s 990 1105 m 18 X s 1008 1105 m cl s 990 1105 m 25 Y s 990 1130 m cl s 990 1105 m -25 Y
 s 990 1080 m cl s 1026 1136 m -18 X s 1008 1136 m cl s 1026 1136 m 18 X s 1044 1136 m cl s 1026 1136 m 22 Y s 1026 1158 m cl s 1026 1136 m -22 Y s 1026 1114 m cl s 1062 1127 m -18 X s 1044 1127 m cl s 1062 1127 m 17 X s 1079 1127 m cl s 1062 1127 m
 22 Y s 1062 1149 m cl s 1062 1127 m -23 Y s 1062 1104 m cl s 1097 1151 m -18 X s 1079 1151 m cl s 1097 1151 m 18 X s 1115 1151 m cl s 1097 1151 m 20 Y s 1097 1171 m cl s 1097 1151 m -21 Y s 1097 1130 m cl s 1133 1171 m -18 X s 1115 1171 m cl s 1133
 1171 m 18 X s 1151 1171 m cl s 1133 1171 m 19 Y s 1133 1190 m cl s 1133 1171 m -19 Y s 1133 1152 m cl s 1169 1156 m -18 X s 1151 1156 m cl s 1169 1156 m 18 X s 1187 1156 m cl s 1169 1156 m 20 Y s 1169 1176 m cl s 1169 1156 m -20 Y s 1169 1136 m cl s
 1205 1185 m -18 X s 1187 1185 m cl s 1205 1185 m 18 X s 1223 1185 m cl s 1205 1185 m 18 Y s 1205 1203 m cl s 1205 1185 m -18 Y s 1205 1167 m cl s 1241 1244 m -18 X s 1223 1244 m cl s 1241 1244 m 18 X s 1259 1244 m cl s 1241 1244 m 15 Y s 1241 1259 m
 cl s 1241 1244 m -14 Y s 1241 1230 m cl s 1276 1231 m -17 X s 1259 1231 m cl s 1276 1231 m 18 X s 1294 1231 m cl s 1276 1231 m 15 Y s 1276 1246 m cl s 1276 1231 m -15 Y s 1276 1216 m cl s 1312 1283 m -18 X s 1294 1283 m cl s 1312 1283 m 18 X s 1330
 1283 m cl s 1312 1283 m 12 Y s 1312 1295 m cl s 1312 1283 m -11 Y s 1312 1272 m cl s 1348 1301 m -18 X s 1330 1301 m cl s 1348 1301 m 18 X s 1366 1301 m cl s 1348 1301 m 11 Y s 1348 1312 m cl s 1348 1301 m -10 Y s 1348 1291 m cl s 1384 1324 m -18 X
 s 1366 1324 m cl s 1384 1324 m 18 X s 1402 1324 m cl s 1384 1324 m 10 Y s 1384 1334 m cl s 1384 1324 m -10 Y s 1384 1314 m cl s 1420 1333 m -18 X s 1402 1333 m cl s 1420 1333 m 18 X s 1438 1333 m cl s 1420 1333 m 10 Y s 1420 1343 m cl s 1420 1333 m
 -10 Y s 1420 1323 m cl s 1456 1354 m -18 X s 1438 1354 m cl s 1456 1354 m 18 X s 1474 1354 m cl s 1456 1354 m 9 Y s 1456 1363 m cl s 1456 1354 m -8 Y s 1456 1346 m cl s 1491 1376 m -17 X s 1474 1376 m cl s 1491 1376 m 18 X s 1509 1376 m cl s 1491
 1376 m 8 Y s 1491 1384 m cl s 1491 1376 m -8 Y s 1491 1368 m cl s 1527 1391 m -18 X s 1509 1391 m cl s 1527 1391 m 18 X s 1545 1391 m cl s 1527 1391 m 8 Y s 1527 1399 m cl s 1527 1391 m -8 Y s 1527 1383 m cl s 1563 1405 m -18 X s 1545 1405 m cl s
 1563 1405 m 18 X s 1581 1405 m cl s 1563 1405 m 7 Y s 1563 1412 m cl s 1563 1405 m -8 Y s 1563 1397 m cl s 1599 1412 m -18 X s 1581 1412 m cl s 1599 1412 m 18 X s 1617 1412 m cl s 1599 1412 m 7 Y s 1599 1419 m cl s 1599 1412 m -7 Y s 1599 1405 m cl
 s 1635 1408 m -18 X s 1617 1408 m cl s 1635 1408 m 18 X s 1653 1408 m cl s 1635 1408 m 8 Y s 1635 1416 m cl s 1635 1408 m -7 Y s 1635 1401 m cl s 1671 1388 m -18 X s 1653 1388 m cl s 1671 1388 m 18 X s 1689 1388 m cl s 1671 1388 m 8 Y s 1671 1396 m
 cl s 1671 1388 m -8 Y s 1671 1380 m cl s 1706 1367 m -17 X s 1689 1367 m cl s 1706 1367 m 18 X s 1724 1367 m cl s 1706 1367 m 9 Y s 1706 1376 m cl s 1706 1367 m -8 Y s 1706 1359 m cl s 1742 1326 m -18 X s 1724 1326 m cl s 1742 1326 m 18 X s 1760
 1326 m cl s 1742 1326 m 10 Y s 1742 1336 m cl s 1742 1326 m -10 Y s 1742 1316 m cl s 1778 1307 m -18 X s 1760 1307 m cl s 1778 1307 m 18 X s 1796 1307 m cl s 1778 1307 m 10 Y s 1778 1317 m cl s 1778 1307 m -11 Y s 1778 1296 m cl s 1814 1270 m -18 X
 s 1796 1270 m cl s 1814 1270 m 18 X s 1832 1270 m cl s 1814 1270 m 13 Y s 1814 1283 m cl s 1814 1270 m -12 Y s 1814 1258 m cl s 1850 1187 m -18 X s 1832 1187 m cl s 1850 1187 m 18 X s 1868 1187 m cl s 1850 1187 m 18 Y s 1850 1205 m cl s 1850 1187 m
 -18 Y s 1850 1169 m cl s 1886 1178 m -18 X s 1868 1178 m cl s 1886 1178 m 18 X s 1904 1178 m cl s 1886 1178 m 19 Y s 1886 1197 m cl s 1886 1178 m -18 Y s 1886 1160 m cl s 1921 1169 m -17 X s 1904 1169 m cl s 1921 1169 m 18 X s 1939 1169 m cl s 1921
 1169 m 19 Y s 1921 1188 m cl s 1921 1169 m -19 Y s 1921 1150 m cl s 1957 1088 m -18 X s 1939 1088 m cl s 1957 1088 m 18 X s 1975 1088 m cl s 1957 1088 m 27 Y s 1957 1115 m cl s 1957 1088 m -26 Y s 1957 1062 m cl s 1993 967 m -18 X s 1975 967 m cl s
 1993 967 m 18 X s 2011 967 m cl s 1993 967 m 42 Y s 1993 1009 m cl s 1993 967 m -45 Y s 1993 922 m cl s 2029 1028 m -18 X s 2011 1028 m cl s 2029 1028 m 18 X s 2047 1028 m cl s 2029 1028 m 33 Y s 2029 1061 m cl s 2029 1028 m -35 Y s 2029 993 m cl s
 2065 967 m -18 X s 2047 967 m cl s 2065 967 m 18 X s 2083 967 m cl s 2065 967 m 42 Y s 2065 1009 m cl s 2065 967 m -45 Y s 2065 922 m cl s 2101 913 m -18 X s 2083 913 m cl s 2101 913 m 18 X s 2119 913 m cl s 2101 913 m 53 Y s 2101 966 m cl s 2101
 913 m -57 Y s 2101 856 m cl s 2136 895 m -17 X s 2119 895 m cl s 2136 895 m 18 X s 2154 895 m cl s 2136 895 m 57 Y s 2136 952 m cl s 2136 895 m -61 Y s 2136 834 m cl s 381 728 417 874 452 928 488 820 524 955 560 782 596 850 632 942 667 1005 703 928
 739 1020 775 1013 811 977 847 1047 882 1064 918 1047 954 1101 990 1105 1026 1136 1062 1127 1097 1151 1133 1171 1169 1156 1205 1185 1241 1244 1276 1231 1312 1283 1348 1301 1384 1324 1420 1333 1456 1354 1491 1376 1527 1391 1563 1405 1599 1412 1635
 1408 1671 1388 1706 1367 1742 1326 1778 1307 1814 1270 1850 1187 1886 1178 1921 1169 1957 1088 1993 967 2029 1028 2065 967 2101 913 2136 895 50 { m20} R 0.52 0.76 0.64 c[ 4 8] 0 sd 9 lw black 0.52 0.76 0.64 c 363 904 m 36 7 d 35 7 d 36 7 d 36 7 d 36
 8 d 36 7 d 36 8 d 35 9 d 36 8 d 36 9 d 36 9 d 36 10 d 36 10 d 35 10 d 36 11 d 36 11 d 36 12 d 36 12 d 36 13 d 35 14 d 36 14 d 36 16 d 36 16 d 36 17 d 36 19 d 17 10 d 18 10 d 18 11 d 18 11 d 18 12 d 18 13 d 18 12 d 18 14 d 9 7 d 9 8 d 9 7 d 9 8 d 9 8
 d 9 8 d 18 16 d 17 14 d 9 6 d 9 5 d 9 4 d 9 4 d 9 4 d 9 3 d 9 2 d 9 2 d 9 1 d 18 X 9 -1 d 9 -1 d 9 -2 d 9 -3 d 9 -3 d 9 -3 d 9 -5 d 9 -5 d 9 -5 d 18 -13 d 35 -33 d 18 -20 d 18 -23 d 18 -24 d 18 -28 d 18 -29 d 18 -32 d 18 -35 d 18 -37 d 18 -39 d 18
 -42 d 17 -44 d 18 -46 d 18 -49 d 18 -51 d 36 -110 d 18 -58 d s 0.54 0.66 0.63 c black 0.54 0.66 0.63 c 829 634 m 35 52 d s 864 686 m 36 51 d 36 49 d 36 46 d 36 43 d 36 41 d 35 38 d 18 18 d 18 17 d 18 17 d 18 16 d 18 16 d 18 15 d 36 27 d 36 25 d 35
 23 d 36 19 d 36 18 d 36 14 d 18 6 d 18 6 d 18 5 d 18 4 d 17 4 d 18 3 d 18 2 d 18 2 d 18 1 d 18 1 d 18 -1 d 18 -1 d 18 -1 d 18 -2 d 18 -3 d 18 -4 d 17 -4 d 18 -5 d 18 -5 d 18 -6 d 36 -14 d 36 -17 d 36 -20 d 36 -22 d 35 -25 d 36 -27 d 18 -14 d 18 -16
 d 18 -16 d 18 -16 d 18 -17 d 18 -18 d 36 -38 d 35 -41 d s black[  ] 0 sd 3 lw 363 634 m 1791 X s 628 659 m -25 Y s 695 646 m -12 Y s 761 646 m -12 Y s 827 646 m -12 Y s 894 646 m -12 Y s 960 659 m -25 Y s 1026 646 m -12 Y s 1093 646 m -12 Y s 1159
 646 m -12 Y s 1225 646 m -12 Y s 1292 659 m -25 Y s 1358 646 m -12 Y s 1424 646 m -12 Y s 1491 646 m -12 Y s 1557 646 m -12 Y s 1624 659 m -25 Y s 1690 646 m -12 Y s 1756 646 m -12 Y s 1823 646 m -12 Y s 1889 646 m -12 Y s 1955 659 m -25 Y s 628 659
 m -25 Y s 562 646 m -12 Y s 496 646 m -12 Y s 429 646 m -12 Y s 363 646 m -12 Y s 1955 659 m -25 Y s 2022 646 m -12 Y s 2088 646 m -12 Y s 2154 646 m -12 Y s 363 1484 m 1791 X s 628 1459 m 25 Y s 695 1471 m 13 Y s 761 1471 m 13 Y s 827 1471 m 13 Y s
 894 1471 m 13 Y s 960 1459 m 25 Y s 1026 1471 m 13 Y s 1093 1471 m 13 Y s 1159 1471 m 13 Y s 1225 1471 m 13 Y s 1292 1459 m 25 Y s 1358 1471 m 13 Y s 1424 1471 m 13 Y s 1491 1471 m 13 Y s 1557 1471 m 13 Y s 1624 1459 m 25 Y s 1690 1471 m 13 Y s 1756
 1471 m 13 Y s 1823 1471 m 13 Y s 1889 1471 m 13 Y s 1955 1459 m 25 Y s 628 1459 m 25 Y s 562 1471 m 13 Y s 496 1471 m 13 Y s 429 1471 m 13 Y s 363 1471 m 13 Y s 1955 1459 m 25 Y s 2022 1471 m 13 Y s 2088 1471 m 13 Y s 2154 1471 m 13 Y s 363 634 m
 850 Y s 417 636 m -54 X s 390 728 m -27 X s 390 782 m -27 X s 390 820 m -27 X s 390 850 m -27 X s 390 874 m -27 X s 390 895 m -27 X s 390 913 m -27 X s 390 928 m -27 X s 417 942 m -54 X s 390 1034 m -27 X s 390 1088 m -27 X s 390 1127 m -27 X s 390
 1156 m -27 X s 390 1181 m -27 X s 390 1201 m -27 X s 390 1219 m -27 X s 390 1234 m -27 X s 417 1248 m -54 X s 390 1341 m -27 X s 390 1394 m -27 X s 390 1433 m -27 X s 390 1462 m -27 X s 2154 634 m 850 Y s 2101 636 m 53 X s 2127 728 m 27 X s 2127 782
 m 27 X s 2127 820 m 27 X s 2127 850 m 27 X s 2127 874 m 27 X s 2127 895 m 27 X s 2127 913 m 27 X s 2127 928 m 27 X s 2101 942 m 53 X s 2127 1034 m 27 X s 2127 1088 m 27 X s 2127 1127 m 27 X s 2127 1156 m 27 X s 2127 1181 m 27 X s 2127 1201 m 27 X s
 2127 1219 m 27 X s 2127 1234 m 27 X s 2101 1248 m 53 X s 2127 1341 m 27 X s 2127 1394 m 27 X s 2127 1433 m 27 X s 2127 1462 m 27 X s
 gsave  2268 1077 0 461 C 677.708 1215.31 t 0 r /Helvetica findfont 58.7189 sf 0 0 m (4e) show NC gr  1 1 1 c 453 161 454 1269 bf black
 gsave  2268 1077 0 461 C 566.929 1371.71 t 0 r /Helvetica-Bold findfont 48.9324 sf 0 0 m (MC15) show NC gr  510 1390 m20
 gsave  2268 1077 0 461 C 566.929 1293.51 t 0 r /Helvetica-Bold findfont 48.9324 sf 0 0 m (Projection of Signal pdf) show NC gr  0 0 1 c 9 lw 471 1309 m 79 X s black 3 lw 1 1 1 c 2268 461 0 0 bf black 1 1 1 c 1791 364 363 74 bf black 1791 364 363 74
 bl 363 74 m 1791 X s
 gsave  2268 461 0 0 C 1915.83 13.0329 t 0 r /Helvetica findfont 22.9045 sf 0 0 m (4l Invariant Mass \(GeV\)) show NC gr  628 85 m -11 Y s 695 79 m -5 Y s 761 79 m -5 Y s 827 79 m -5 Y s 894 79 m -5 Y s 960 85 m -11 Y s 1026 79 m -5 Y s 1093 79 m -5
 Y s 1159 79 m -5 Y s 1225 79 m -5 Y s 1292 85 m -11 Y s 1358 79 m -5 Y s 1424 79 m -5 Y s 1491 79 m -5 Y s 1557 79 m -5 Y s 1624 85 m -11 Y s 1690 79 m -5 Y s 1756 79 m -5 Y s 1823 79 m -5 Y s 1889 79 m -5 Y s 1955 85 m -11 Y s 628 85 m -11 Y s 562
 79 m -5 Y s 496 79 m -5 Y s 429 79 m -5 Y s 363 79 m -5 Y s 1955 85 m -11 Y s 2022 79 m -5 Y s 2088 79 m -5 Y s 2154 79 m -5 Y s
 gsave  2268 461 0 0 C 606.028 55.3896 t 0 r /Helvetica findfont 22.9045 sf 0 0 m (185) show NC gr 
 gsave  2268 461 0 0 C 938.365 55.3896 t 0 r /Helvetica findfont 22.9045 sf 0 0 m (190) show NC gr 
 gsave  2268 461 0 0 C 1270.7 55.3896 t 0 r /Helvetica findfont 22.9045 sf 0 0 m (195) show NC gr 
 gsave  2268 461 0 0 C 1603.04 55.3896 t 0 r /Helvetica findfont 22.9045 sf 0 0 m (200) show NC gr 
 gsave  2268 461 0 0 C 1935.38 55.3896 t 0 r /Helvetica findfont 22.9045 sf 0 0 m (205) show NC gr  363 438 m 1791 X s 628 427 m 11 Y s 695 433 m 5 Y s 761 433 m 5 Y s 827 433 m 5 Y s 894 433 m 5 Y s 960 427 m 11 Y s 1026 433 m 5 Y s 1093 433 m 5 Y s
 1159 433 m 5 Y s 1225 433 m 5 Y s 1292 427 m 11 Y s 1358 433 m 5 Y s 1424 433 m 5 Y s 1491 433 m 5 Y s 1557 433 m 5 Y s 1624 427 m 11 Y s 1690 433 m 5 Y s 1756 433 m 5 Y s 1823 433 m 5 Y s 1889 433 m 5 Y s 1955 427 m 11 Y s 628 427 m 11 Y s 562 433
 m 5 Y s 496 433 m 5 Y s 429 433 m 5 Y s 363 433 m 5 Y s 1955 427 m 11 Y s 2022 433 m 5 Y s 2088 433 m 5 Y s 2154 433 m 5 Y s 363 74 m 364 Y s 417 74 m -54 X s 390 81 m -27 X s 390 88 m -27 X s 390 96 m -27 X s 390 103 m -27 X s 417 110 m -54 X s 390
 118 m -27 X s 390 125 m -27 X s 390 132 m -27 X s 390 139 m -27 X s 417 147 m -54 X s 390 154 m -27 X s 390 161 m -27 X s 390 169 m -27 X s 390 176 m -27 X s 417 183 m -54 X s 390 190 m -27 X s 390 198 m -27 X s 390 205 m -27 X s 390 212 m -27 X s
 417 220 m -54 X s 390 227 m -27 X s 390 234 m -27 X s 390 241 m -27 X s 390 249 m -27 X s 417 256 m -54 X s 390 263 m -27 X s 390 271 m -27 X s 390 278 m -27 X s 390 285 m -27 X s 417 293 m -54 X s 390 300 m -27 X s 390 307 m -27 X s 390 314 m -27 X
 s 390 322 m -27 X s 417 329 m -54 X s 390 336 m -27 X s 390 344 m -27 X s 390 351 m -27 X s 390 358 m -27 X s 417 365 m -54 X s 390 373 m -27 X s 390 380 m -27 X s 390 387 m -27 X s 390 395 m -27 X s 417 402 m -54 X s 390 409 m -27 X s 390 416 m -27
 X s 390 424 m -27 X s 390 431 m -27 X s 417 438 m -54 X s
 gsave  2268 461 0 0 C 329.08 65.1643 t 0 r /Helvetica findfont 22.9045 sf 0 0 m (\2555) show NC gr 
 gsave  2268 461 0 0 C 329.08 101.005 t 0 r /Helvetica findfont 22.9045 sf 0 0 m (\2554) show NC gr 
 gsave  2268 461 0 0 C 329.08 140.103 t 0 r /Helvetica findfont 22.9045 sf 0 0 m (\2553) show NC gr 
 gsave  2268 461 0 0 C 329.08 175.944 t 0 r /Helvetica findfont 22.9045 sf 0 0 m (\2552) show NC gr 
 gsave  2268 461 0 0 C 332.338 211.784 t 0 r /Helvetica findfont 22.9045 sf 0 0 m (\2551) show NC gr 
 gsave  2268 461 0 0 C 335.596 247.624 t 0 r /Helvetica findfont 22.9045 sf 0 0 m (0) show NC gr 
 gsave  2268 461 0 0 C 338.854 283.465 t 0 r /Helvetica findfont 22.9045 sf 0 0 m (1) show NC gr 
 gsave  2268 461 0 0 C 335.596 319.305 t 0 r /Helvetica findfont 22.9045 sf 0 0 m (2) show NC gr 
 gsave  2268 461 0 0 C 335.596 358.403 t 0 r /Helvetica findfont 22.9045 sf 0 0 m (3) show NC gr 
 gsave  2268 461 0 0 C 335.596 394.244 t 0 r /Helvetica findfont 22.9045 sf 0 0 m (4) show NC gr 
 gsave  2268 461 0 0 C 335.596 430.084 t 0 r /Helvetica findfont 22.9045 sf 0 0 m (5) show NC gr  2154 74 m 364 Y s 2101 74 m 53 X s 2127 81 m 27 X s 2127 88 m 27 X s 2127 96 m 27 X s 2127 103 m 27 X s 2101 110 m 53 X s 2127 118 m 27 X s 2127 125 m
 27 X s 2127 132 m 27 X s 2127 139 m 27 X s 2101 147 m 53 X s 2127 154 m 27 X s 2127 161 m 27 X s 2127 169 m 27 X s 2127 176 m 27 X s 2101 183 m 53 X s 2127 190 m 27 X s 2127 198 m 27 X s 2127 205 m 27 X s 2127 212 m 27 X s 2101 220 m 53 X s 2127 227
 m 27 X s 2127 234 m 27 X s 2127 241 m 27 X s 2127 249 m 27 X s 2101 256 m 53 X s 2127 263 m 27 X s 2127 271 m 27 X s 2127 278 m 27 X s 2127 285 m 27 X s 2101 293 m 53 X s 2127 300 m 27 X s 2127 307 m 27 X s 2127 314 m 27 X s 2127 322 m 27 X s 2101
 329 m 53 X s 2127 336 m 27 X s 2127 344 m 27 X s 2127 351 m 27 X s 2127 358 m 27 X s 2101 365 m 53 X s 2127 373 m 27 X s 2127 380 m 27 X s 2127 387 m 27 X s 2127 395 m 27 X s 2101 402 m 53 X s 2127 409 m 27 X s 2127 416 m 27 X s 2127 424 m 27 X s
 2127 431 m 27 X s 2101 438 m 53 X s 6 lw 0.2 0.8 0.2 c black 3 lw 0.2 0.8 0.2 c 363 256 m -79 Y 36 X 58 Y 35 X 27 Y 36 X -64 Y 36 X 74 Y 36 X -105 Y 36 X 27 Y 36 X 50 Y 35 X 46 Y 36 X -71 Y 36 X 70 Y 36 X -19 Y 36 X -44 Y 36 X 57 Y 35 X 6 Y 36 X -39
 Y 36 X 51 Y 36 X -16 Y 36 X 22 Y 36 X -46 Y 35 X 9 Y 36 X 1 Y 36 X -69 Y 36 X 11 Y 36 X 88 Y 36 X -85 Y 35 X 86 Y 36 X -7 Y 36 X 4 Y 36 X -50 Y 36 X -16 Y 36 X -10 Y 35 X -9 Y 36 X 25 Y 36 X 33 Y 36 X 20 Y 36 X -26 Y 36 X 6 Y 35 X -46 Y 36 X 56 Y 36
 X 5 Y 36 X -99 Y 36 X 73 Y 36 X 58 Y 35 X -70 Y 36 X -86 Y 36 X 103 Y 36 X -21 Y 36 X -8 Y 36 X 15 Y 35 X 4 Y f 6 lw black 0.2 0.8 0.2 c black 363 177 m 36 X 58 Y 35 X 27 Y 36 X -64 Y 36 X 74 Y 36 X -105 Y 36 X 27 Y 36 X 50 Y 35 X 46 Y 36 X -71 Y 36
 X 70 Y 36 X -19 Y 36 X -44 Y 36 X 57 Y 35 X 6 Y 36 X -39 Y 36 X 51 Y 36 X -16 Y 36 X 22 Y 36 X -46 Y 35 X 9 Y 36 X 1 Y 36 X -69 Y 36 X 11 Y 36 X 88 Y 36 X -85 Y 35 X 86 Y 36 X -7 Y 36 X 4 Y 36 X -50 Y 36 X -16 Y 36 X -10 Y 35 X -9 Y 36 X 25 Y 36 X
 33 Y 36 X 20 Y 36 X -26 Y 36 X 6 Y 35 X -46 Y 36 X 56 Y 36 X 5 Y 36 X -99 Y 36 X 73 Y 36 X 58 Y 35 X -70 Y 36 X -86 Y 36 X 103 Y 36 X -21 Y 36 X -8 Y 36 X 15 Y 35 X s 3 lw 363 74 m 1791 X s 628 85 m -11 Y s 695 79 m -5 Y s 761 79 m -5 Y s 827 79 m
 -5 Y s 894 79 m -5 Y s 960 85 m -11 Y s 1026 79 m -5 Y s 1093 79 m -5 Y s 1159 79 m -5 Y s 1225 79 m -5 Y s 1292 85 m -11 Y s 1358 79 m -5 Y s 1424 79 m -5 Y s 1491 79 m -5 Y s 1557 79 m -5 Y s 1624 85 m -11 Y s 1690 79 m -5 Y s 1756 79 m -5 Y s
 1823 79 m -5 Y s 1889 79 m -5 Y s 1955 85 m -11 Y s 628 85 m -11 Y s 562 79 m -5 Y s 496 79 m -5 Y s 429 79 m -5 Y s 363 79 m -5 Y s 1955 85 m -11 Y s 2022 79 m -5 Y s 2088 79 m -5 Y s 2154 79 m -5 Y s 363 438 m 1791 X s 628 427 m 11 Y s 695 433 m 5
 Y s 761 433 m 5 Y s 827 433 m 5 Y s 894 433 m 5 Y s 960 427 m 11 Y s 1026 433 m 5 Y s 1093 433 m 5 Y s 1159 433 m 5 Y s 1225 433 m 5 Y s 1292 427 m 11 Y s 1358 433 m 5 Y s 1424 433 m 5 Y s 1491 433 m 5 Y s 1557 433 m 5 Y s 1624 427 m 11 Y s 1690 433
 m 5 Y s 1756 433 m 5 Y s 1823 433 m 5 Y s 1889 433 m 5 Y s 1955 427 m 11 Y s 628 427 m 11 Y s 562 433 m 5 Y s 496 433 m 5 Y s 429 433 m 5 Y s 363 433 m 5 Y s 1955 427 m 11 Y s 2022 433 m 5 Y s 2088 433 m 5 Y s 2154 433 m 5 Y s 363 74 m 364 Y s 417
 74 m -54 X s 390 81 m -27 X s 390 88 m -27 X s 390 96 m -27 X s 390 103 m -27 X s 417 110 m -54 X s 390 118 m -27 X s 390 125 m -27 X s 390 132 m -27 X s 390 139 m -27 X s 417 147 m -54 X s 390 154 m -27 X s 390 161 m -27 X s 390 169 m -27 X s 390
 176 m -27 X s 417 183 m -54 X s 390 190 m -27 X s 390 198 m -27 X s 390 205 m -27 X s 390 212 m -27 X s 417 220 m -54 X s 390 227 m -27 X s 390 234 m -27 X s 390 241 m -27 X s 390 249 m -27 X s 417 256 m -54 X s 390 263 m -27 X s 390 271 m -27 X s
 390 278 m -27 X s 390 285 m -27 X s 417 293 m -54 X s 390 300 m -27 X s 390 307 m -27 X s 390 314 m -27 X s 390 322 m -27 X s 417 329 m -54 X s 390 336 m -27 X s 390 344 m -27 X s 390 351 m -27 X s 390 358 m -27 X s 417 365 m -54 X s 390 373 m -27 X
 s 390 380 m -27 X s 390 387 m -27 X s 390 395 m -27 X s 417 402 m -54 X s 390 409 m -27 X s 390 416 m -27 X s 390 424 m -27 X s 390 431 m -27 X s 417 438 m -54 X s 2154 74 m 364 Y s 2101 74 m 53 X s 2127 81 m 27 X s 2127 88 m 27 X s 2127 96 m 27 X s
 2127 103 m 27 X s 2101 110 m 53 X s 2127 118 m 27 X s 2127 125 m 27 X s 2127 132 m 27 X s 2127 139 m 27 X s 2101 147 m 53 X s 2127 154 m 27 X s 2127 161 m 27 X s 2127 169 m 27 X s 2127 176 m 27 X s 2101 183 m 53 X s 2127 190 m 27 X s 2127 198 m 27 X
 s 2127 205 m 27 X s 2127 212 m 27 X s 2101 220 m 53 X s 2127 227 m 27 X s 2127 234 m 27 X s 2127 241 m 27 X s 2127 249 m 27 X s 2101 256 m 53 X s 2127 263 m 27 X s 2127 271 m 27 X s 2127 278 m 27 X s 2127 285 m 27 X s 2101 293 m 53 X s 2127 300 m 27
 X s 2127 307 m 27 X s 2127 314 m 27 X s 2127 322 m 27 X s 2101 329 m 53 X s 2127 336 m 27 X s 2127 344 m 27 X s 2127 351 m 27 X s 2127 358 m 27 X s 2101 365 m 53 X s 2127 373 m 27 X s 2127 380 m 27 X s 2127 387 m 27 X s 2127 395 m 27 X s 2101 402 m
 53 X s 2127 409 m 27 X s 2127 416 m 27 X s 2127 424 m 27 X s 2127 431 m 27 X s 2101 438 m 53 X s
 gr  gr showpage
end
%%EOF
