%!PS-Adobe-2.0 EPSF-2.0
%%BoundingBox:  0 0 567 384
%%Title: H4l2015_plotfit/gg_mass_signal_1600_fixed_H4l_4mu.eps: 
%%Creator: ROOT Version 5.34/10
%%CreationDate: Thu Feb 16 13:03:02 2017
%%EndComments
%%BeginProlog
80 dict begin
/s {stroke} def /l {lineto} def /m {moveto} def /t {translate} def
/r {rotate} def /rl {roll}  def /R {repeat} def
/d {rlineto} def /rm {rmoveto} def /gr {grestore} def /f {eofill} def
/c {setrgbcolor} def /black {0 setgray} def /sd {setdash} def
/cl {closepath} def /sf {scalefont setfont} def /lw {setlinewidth} def
/box {m dup 0 exch d exch 0 d 0 exch neg d cl} def
/NC{systemdict begin initclip end}def/C{NC box clip newpath}def
/bl {box s} def /bf {box f} def /Y { 0 exch d} def /X { 0 d} def 
/K {{pop pop 0 moveto} exch kshow} bind def
/ita {/ang 15 def gsave [1 0 ang dup sin exch cos div 1 0 0] concat} def 
/mp {newpath /y exch def /x exch def} def
/side {[w .77 mul w .23 mul] .385 w mul sd w 0 l currentpoint t -144 r} def
/mr {mp x y w2 0 360 arc} def /m24 {mr s} def /m20 {mr f} def
/mb {mp x y w2 add m w2 neg 0 d 0 w neg d w 0 d 0 w d cl} def
/mt {mp x y w2 add m w2 neg w neg d w 0 d cl} def
/m21 {mb f} def /m25 {mb s} def /m22 {mt f} def /m26{mt s} def
/m23 {mp x y w2 sub m w2 w d w neg 0 d cl f} def
/m27 {mp x y w2 add m w3 neg w2 neg d w3 w2 neg d w3 w2 d cl s} def
/m28 {mp x w2 sub y w2 sub w3 add m w3 0 d  0 w3 neg d w3 0 d 0 w3 d w3 0 d  0 w3 d w3 neg 0 d 0 w3 d w3 neg 0 d 0 w3 neg d w3 neg 0 d cl s } def
/m29 {mp gsave x w2 sub y w2 add w3 sub m currentpoint t 4 {side} repeat cl fill gr} def
/m30 {mp gsave x w2 sub y w2 add w3 sub m currentpoint t 4 {side} repeat cl s gr} def
/m31 {mp x y w2 sub m 0 w d x w2 sub y m w 0 d x w2 sub y w2 add m w w neg d x w2 sub y w2 sub m w w d s} def
/m32 {mp x y w2 sub m w2 w d w neg 0 d cl s} def
/m33 {mp x y w2 add m w3 neg w2 neg d w3 w2 neg d w3 w2 d cl f} def
/m34 {mp x w2 sub y w2 sub w3 add m w3 0 d  0 w3 neg d w3 0 d 0 w3 d w3 0 d  0 w3 d w3 neg 0 d 0 w3 d w3 neg 0 d 0 w3 neg d w3 neg 0 d cl f } def
/m2 {mp x y w2 sub m 0 w d x w2 sub y m w 0 d s} def
/m5 {mp x w2 sub y w2 sub m w w d x w2 sub y w2 add m w w neg d s} def
/reEncode {exch findfont dup length dict begin {1 index /FID eq  {pop pop} {def} ifelse } forall /Encoding exch def currentdict end dup /FontName get exch definefont pop } def [/Times-Bold /Times-Italic /Times-BoldItalic /Helvetica /Helvetica-Oblique
 /Helvetica-Bold /Helvetica-BoldOblique /Courier /Courier-Oblique /Courier-Bold /Courier-BoldOblique /Times-Roman /AvantGarde-Book /AvantGarde-BookOblique /AvantGarde-Demi /AvantGarde-DemiOblique /Bookman-Demi /Bookman-DemiItalic /Bookman-Light
 /Bookman-LightItalic /Helvetica-Narrow /Helvetica-Narrow-Bold /Helvetica-Narrow-BoldOblique /Helvetica-Narrow-Oblique /NewCenturySchlbk-Roman /NewCenturySchlbk-Bold /NewCenturySchlbk-BoldItalic /NewCenturySchlbk-Italic /Palatino-Bold
 /Palatino-BoldItalic /Palatino-Italic /Palatino-Roman ] {ISOLatin1Encoding reEncode } forall
%%EndProlog
%%BeginSetup
%%EndSetup
newpath  gsave  .25 .25 scale  gsave  0 0 t black[  ] 0 sd 3 lw 1 1 1 c 2268 1538 0 0 bf black 1 1 1 c 2222 738 23 784 bf black 1 1 1 c 2222 739 23 15 bf black 1 1 1 c 2268 1077 0 461 bf black 1 1 1 c 1791 850 363 634 bf black 1791 850 363 634 bl 363
 634 m 1791 X s
 gsave  2268 1077 0 461 C 1642.14 498.507 t 0 r /Helvetica findfont 48.9324 sf 0 0 m (4l Invariant Mass \(GeV\)) show NC gr  363 659 m -25 Y s 421 646 m -12 Y s 478 646 m -12 Y s 536 646 m -12 Y s 594 646 m -12 Y s 652 659 m -25 Y s 710 646 m -12 Y s
 767 646 m -12 Y s 825 646 m -12 Y s 883 646 m -12 Y s 941 659 m -25 Y s 999 646 m -12 Y s 1056 646 m -12 Y s 1114 646 m -12 Y s 1172 646 m -12 Y s 1230 659 m -25 Y s 1287 646 m -12 Y s 1345 646 m -12 Y s 1403 646 m -12 Y s 1461 646 m -12 Y s 1519
 659 m -25 Y s 1576 646 m -12 Y s 1634 646 m -12 Y s 1692 646 m -12 Y s 1750 646 m -12 Y s 1808 659 m -25 Y s 1865 646 m -12 Y s 1923 646 m -12 Y s 1981 646 m -12 Y s 2039 646 m -12 Y s 2097 659 m -25 Y s 2097 659 m -25 Y s
 gsave  2268 1077 0 461 C 306.272 586.478 t 0 r /Helvetica findfont 48.9324 sf 0 0 m (1400) show NC gr 
 gsave  2268 1077 0 461 C 596.253 586.478 t 0 r /Helvetica findfont 48.9324 sf 0 0 m (1450) show NC gr 
 gsave  2268 1077 0 461 C 882.976 586.478 t 0 r /Helvetica findfont 48.9324 sf 0 0 m (1500) show NC gr 
 gsave  2268 1077 0 461 C 1172.96 586.478 t 0 r /Helvetica findfont 48.9324 sf 0 0 m (1550) show NC gr 
 gsave  2268 1077 0 461 C 1462.94 586.478 t 0 r /Helvetica findfont 48.9324 sf 0 0 m (1600) show NC gr 
 gsave  2268 1077 0 461 C 1749.66 586.478 t 0 r /Helvetica findfont 48.9324 sf 0 0 m (1650) show NC gr 
 gsave  2268 1077 0 461 C 2039.64 586.478 t 0 r /Helvetica findfont 48.9324 sf 0 0 m (1700) show NC gr  363 1484 m 1791 X s 363 1459 m 25 Y s 421 1471 m 13 Y s 478 1471 m 13 Y s 536 1471 m 13 Y s 594 1471 m 13 Y s 652 1459 m 25 Y s 710 1471 m 13 Y s
 767 1471 m 13 Y s 825 1471 m 13 Y s 883 1471 m 13 Y s 941 1459 m 25 Y s 999 1471 m 13 Y s 1056 1471 m 13 Y s 1114 1471 m 13 Y s 1172 1471 m 13 Y s 1230 1459 m 25 Y s 1287 1471 m 13 Y s 1345 1471 m 13 Y s 1403 1471 m 13 Y s 1461 1471 m 13 Y s 1519
 1459 m 25 Y s 1576 1471 m 13 Y s 1634 1471 m 13 Y s 1692 1471 m 13 Y s 1750 1471 m 13 Y s 1808 1459 m 25 Y s 1865 1471 m 13 Y s 1923 1471 m 13 Y s 1981 1471 m 13 Y s 2039 1471 m 13 Y s 2097 1459 m 25 Y s 2097 1459 m 25 Y s 363 634 m 850 Y s
 gsave  2268 1077 0 461 C 120.554 1058.92 t 90 r /Helvetica findfont 48.9324 sf 0 0 m (Events / \( 6.2 GeV \)) show NC gr  390 667 m -27 X s 390 723 m -27 X s 390 763 m -27 X s 390 794 m -27 X s 390 820 m -27 X s 390 841 m -27 X s 390 860 m -27 X s
 390 876 m -27 X s 417 891 m -54 X s
 gsave  2268 1077 0 461 C 342.425 869.984 t 0 r  -55 0 t /Helvetica findfont 48.9324 sf 0 0 m (10) show NC gr  390 987 m -27 X s 390 1044 m -27 X s 390 1084 m -27 X s 390 1115 m -27 X s 390 1140 m -27 X s 390 1162 m -27 X s 390 1180 m -27 X s 390
 1197 m -27 X s 417 1211 m -54 X s
 gsave  2268 1077 0 461 C 322.563 1208.8 t 0 r /Helvetica findfont 32.6216 sf 0 0 m (2) show NC gr 
 gsave  2268 1077 0 461 C 270.432 1189.25 t 0 r /Helvetica findfont 48.9324 sf 0 0 m (10) show NC gr  390 1308 m -27 X s 390 1364 m -27 X s 390 1404 m -27 X s 390 1435 m -27 X s 390 1461 m -27 X s 390 1482 m -27 X s 2154 634 m 850 Y s 2127 667 m 27 X
 s 2127 723 m 27 X s 2127 763 m 27 X s 2127 794 m 27 X s 2127 820 m 27 X s 2127 841 m 27 X s 2127 860 m 27 X s 2127 876 m 27 X s 2101 891 m 53 X s 2127 987 m 27 X s 2127 1044 m 27 X s 2127 1084 m 27 X s 2127 1115 m 27 X s 2127 1140 m 27 X s 2127 1162
 m 27 X s 2127 1180 m 27 X s 2127 1197 m 27 X s 2101 1211 m 53 X s 2127 1308 m 27 X s 2127 1364 m 27 X s 2127 1404 m 27 X s 2127 1435 m 27 X s 2127 1461 m 27 X s 2127 1482 m 27 X s 381 973 m -18 X s 363 973 m cl s 381 973 m 18 X s 399 973 m cl s 381
 973 m 36 Y s 381 1009 m cl s 381 973 m -37 Y s 381 936 m cl s 417 1001 m -18 X s 399 1001 m cl s 417 1001 m 17 X s 434 1001 m cl s 417 1001 m 32 Y s 417 1033 m cl s 417 1001 m -33 Y s 417 968 m cl s 452 1044 m -18 X s 434 1044 m cl s 452 1044 m 18 X
 s 470 1044 m cl s 452 1044 m 27 Y s 452 1071 m cl s 452 1044 m -28 Y s 452 1016 m cl s 488 1034 m -18 X s 470 1034 m cl s 488 1034 m 18 X s 506 1034 m cl s 488 1034 m 29 Y s 488 1063 m cl s 488 1034 m -29 Y s 488 1005 m cl s 524 1029 m -18 X s 506
 1029 m cl s 524 1029 m 18 X s 542 1029 m cl s 524 1029 m 29 Y s 524 1058 m cl s 524 1029 m -29 Y s 524 1000 m cl s 560 1024 m -18 X s 542 1024 m cl s 560 1024 m 18 X s 578 1024 m cl s 560 1024 m 29 Y s 560 1053 m cl s 560 1024 m -30 Y s 560 994 m cl
 s 596 1053 m -18 X s 578 1053 m cl s 596 1053 m 18 X s 614 1053 m cl s 596 1053 m 26 Y s 596 1079 m cl s 596 1053 m -27 Y s 596 1026 m cl s 632 1065 m -18 X s 614 1065 m cl s 632 1065 m 17 X s 649 1065 m cl s 632 1065 m 26 Y s 632 1091 m cl s 632
 1065 m -25 Y s 632 1040 m cl s 667 1053 m -18 X s 649 1053 m cl s 667 1053 m 18 X s 685 1053 m cl s 667 1053 m 26 Y s 667 1079 m cl s 667 1053 m -27 Y s 667 1026 m cl s 703 1065 m -18 X s 685 1065 m cl s 703 1065 m 18 X s 721 1065 m cl s 703 1065 m
 26 Y s 703 1091 m cl s 703 1065 m -25 Y s 703 1040 m cl s 739 1149 m -18 X s 721 1149 m cl s 739 1149 m 18 X s 757 1149 m cl s 739 1149 m 19 Y s 739 1168 m cl s 739 1149 m -18 Y s 739 1131 m cl s 775 1115 m -18 X s 757 1115 m cl s 775 1115 m 18 X s
 793 1115 m cl s 775 1115 m 21 Y s 775 1136 m cl s 775 1115 m -21 Y s 775 1094 m cl s 811 1115 m -18 X s 793 1115 m cl s 811 1115 m 18 X s 829 1115 m cl s 811 1115 m 21 Y s 811 1136 m cl s 811 1115 m -21 Y s 811 1094 m cl s 847 1128 m -18 X s 829
 1128 m cl s 847 1128 m 17 X s 864 1128 m cl s 847 1128 m 20 Y s 847 1148 m cl s 847 1128 m -20 Y s 847 1108 m cl s 882 1182 m -18 X s 864 1182 m cl s 882 1182 m 18 X s 900 1182 m cl s 882 1182 m 16 Y s 882 1198 m cl s 882 1182 m -16 Y s 882 1166 m
 cl s 918 1145 m -18 X s 900 1145 m cl s 918 1145 m 18 X s 936 1145 m cl s 918 1145 m 19 Y s 918 1164 m cl s 918 1145 m -19 Y s 918 1126 m cl s 954 1154 m -18 X s 936 1154 m cl s 954 1154 m 18 X s 972 1154 m cl s 954 1154 m 18 Y s 954 1172 m cl s 954
 1154 m -19 Y s 954 1135 m cl s 990 1198 m -18 X s 972 1198 m cl s 990 1198 m 18 X s 1008 1198 m cl s 990 1198 m 16 Y s 990 1214 m cl s 990 1198 m -15 Y s 990 1183 m cl s 1026 1197 m -18 X s 1008 1197 m cl s 1026 1197 m 18 X s 1044 1197 m cl s 1026
 1197 m 15 Y s 1026 1212 m cl s 1026 1197 m -16 Y s 1026 1181 m cl s 1062 1211 m -18 X s 1044 1211 m cl s 1062 1211 m 17 X s 1079 1211 m cl s 1062 1211 m 15 Y s 1062 1226 m cl s 1062 1211 m -14 Y s 1062 1197 m cl s 1097 1240 m -18 X s 1079 1240 m cl
 s 1097 1240 m 18 X s 1115 1240 m cl s 1097 1240 m 13 Y s 1097 1253 m cl s 1097 1240 m -12 Y s 1097 1228 m cl s 1133 1251 m -18 X s 1115 1251 m cl s 1133 1251 m 18 X s 1151 1251 m cl s 1133 1251 m 12 Y s 1133 1263 m cl s 1133 1251 m -12 Y s 1133 1239
 m cl s 1169 1271 m -18 X s 1151 1271 m cl s 1169 1271 m 18 X s 1187 1271 m cl s 1169 1271 m 12 Y s 1169 1283 m cl s 1169 1271 m -11 Y s 1169 1260 m cl s 1205 1275 m -18 X s 1187 1275 m cl s 1205 1275 m 18 X s 1223 1275 m cl s 1205 1275 m 11 Y s 1205
 1286 m cl s 1205 1275 m -11 Y s 1205 1264 m cl s 1241 1315 m -18 X s 1223 1315 m cl s 1241 1315 m 18 X s 1259 1315 m cl s 1241 1315 m 10 Y s 1241 1325 m cl s 1241 1315 m -9 Y s 1241 1306 m cl s 1276 1331 m -17 X s 1259 1331 m cl s 1276 1331 m 18 X s
 1294 1331 m cl s 1276 1331 m 9 Y s 1276 1340 m cl s 1276 1331 m -9 Y s 1276 1322 m cl s 1312 1336 m -18 X s 1294 1336 m cl s 1312 1336 m 18 X s 1330 1336 m cl s 1312 1336 m 9 Y s 1312 1345 m cl s 1312 1336 m -9 Y s 1312 1327 m cl s 1348 1352 m -18 X
 s 1330 1352 m cl s 1348 1352 m 18 X s 1366 1352 m cl s 1348 1352 m 9 Y s 1348 1361 m cl s 1348 1352 m -8 Y s 1348 1344 m cl s 1384 1383 m -18 X s 1366 1383 m cl s 1384 1383 m 18 X s 1402 1383 m cl s 1384 1383 m 7 Y s 1384 1390 m cl s 1384 1383 m -8
 Y s 1384 1375 m cl s 1420 1389 m -18 X s 1402 1389 m cl s 1420 1389 m 18 X s 1438 1389 m cl s 1420 1389 m 7 Y s 1420 1396 m cl s 1420 1389 m -7 Y s 1420 1382 m cl s 1456 1398 m -18 X s 1438 1398 m cl s 1456 1398 m 18 X s 1474 1398 m cl s 1456 1398 m
 7 Y s 1456 1405 m cl s 1456 1398 m -7 Y s 1456 1391 m cl s 1491 1414 m -17 X s 1474 1414 m cl s 1491 1414 m 18 X s 1509 1414 m cl s 1491 1414 m 7 Y s 1491 1421 m cl s 1491 1414 m -7 Y s 1491 1407 m cl s 1527 1398 m -18 X s 1509 1398 m cl s 1527 1398
 m 18 X s 1545 1398 m cl s 1527 1398 m 7 Y s 1527 1405 m cl s 1527 1398 m -7 Y s 1527 1391 m cl s 1563 1413 m -18 X s 1545 1413 m cl s 1563 1413 m 18 X s 1581 1413 m cl s 1563 1413 m 7 Y s 1563 1420 m cl s 1563 1413 m -6 Y s 1563 1407 m cl s 1599
 1392 m -18 X s 1581 1392 m cl s 1599 1392 m 18 X s 1617 1392 m cl s 1599 1392 m 7 Y s 1599 1399 m cl s 1599 1392 m -8 Y s 1599 1384 m cl s 1635 1372 m -18 X s 1617 1372 m cl s 1635 1372 m 18 X s 1653 1372 m cl s 1635 1372 m 8 Y s 1635 1380 m cl s
 1635 1372 m -7 Y s 1635 1365 m cl s 1671 1340 m -18 X s 1653 1340 m cl s 1671 1340 m 18 X s 1689 1340 m cl s 1671 1340 m 9 Y s 1671 1349 m cl s 1671 1340 m -9 Y s 1671 1331 m cl s 1706 1329 m -17 X s 1689 1329 m cl s 1706 1329 m 18 X s 1724 1329 m
 cl s 1706 1329 m 9 Y s 1706 1338 m cl s 1706 1329 m -9 Y s 1706 1320 m cl s 1742 1309 m -18 X s 1724 1309 m cl s 1742 1309 m 18 X s 1760 1309 m cl s 1742 1309 m 9 Y s 1742 1318 m cl s 1742 1309 m -10 Y s 1742 1299 m cl s 1778 1250 m -18 X s 1760
 1250 m cl s 1778 1250 m 18 X s 1796 1250 m cl s 1778 1250 m 12 Y s 1778 1262 m cl s 1778 1250 m -12 Y s 1778 1238 m cl s 1814 1239 m -18 X s 1796 1239 m cl s 1814 1239 m 18 X s 1832 1239 m cl s 1814 1239 m 13 Y s 1814 1252 m cl s 1814 1239 m -13 Y s
 1814 1226 m cl s 1850 1226 m -18 X s 1832 1226 m cl s 1850 1226 m 18 X s 1868 1226 m cl s 1850 1226 m 13 Y s 1850 1239 m cl s 1850 1226 m -13 Y s 1850 1213 m cl s 1886 1200 m -18 X s 1868 1200 m cl s 1886 1200 m 18 X s 1904 1200 m cl s 1886 1200 m
 15 Y s 1886 1215 m cl s 1886 1200 m -16 Y s 1886 1184 m cl s 1921 1177 m -17 X s 1904 1177 m cl s 1921 1177 m 18 X s 1939 1177 m cl s 1921 1177 m 16 Y s 1921 1193 m cl s 1921 1177 m -17 Y s 1921 1160 m cl s 1957 1156 m -18 X s 1939 1156 m cl s 1957
 1156 m 18 X s 1975 1156 m cl s 1957 1156 m 18 Y s 1957 1174 m cl s 1957 1156 m -18 Y s 1957 1138 m cl s 1993 1133 m -18 X s 1975 1133 m cl s 1993 1133 m 18 X s 2011 1133 m cl s 1993 1133 m 20 Y s 1993 1153 m cl s 1993 1133 m -20 Y s 1993 1113 m cl s
 2029 1100 m -18 X s 2011 1100 m cl s 2029 1100 m 18 X s 2047 1100 m cl s 2029 1100 m 22 Y s 2029 1122 m cl s 2029 1100 m -22 Y s 2029 1078 m cl s 2065 1024 m -18 X s 2047 1024 m cl s 2065 1024 m 18 X s 2083 1024 m cl s 2065 1024 m 29 Y s 2065 1053 m
 cl s 2065 1024 m -30 Y s 2065 994 m cl s 2101 1013 m -18 X s 2083 1013 m cl s 2101 1013 m 18 X s 2119 1013 m cl s 2101 1013 m 31 Y s 2101 1044 m cl s 2101 1013 m -32 Y s 2101 981 m cl s 2136 938 m -17 X s 2119 938 m cl s 2136 938 m 18 X s 2154 938 m
 cl s 2136 938 m 41 Y s 2136 979 m cl s 2136 938 m -43 Y s 2136 895 m cl s /w 31 def /w2 {w 2 div} def /w3 {w 3 div} def 381 973 417 1001 452 1044 488 1034 524 1029 560 1024 596 1053 632 1065 667 1053 703 1065 739 1149 775 1115 811 1115 847 1128 882
 1182 918 1145 954 1154 990 1198 1026 1197 1062 1211 1097 1240 1133 1251 1169 1271 1205 1275 1241 1315 1276 1331 1312 1336 1348 1352 1384 1383 1420 1389 1456 1398 1491 1414 1527 1398 1563 1413 1599 1392 1635 1372 1671 1340 1706 1329 1742 1309 1778
 1250 1814 1239 1850 1226 1886 1200 1921 1177 1957 1156 1993 1133 2029 1100 2065 1024 2101 1013 2136 938 50 { m20} R 0 1 1 c 1 1 0 c black 1 1 0 c 363 999 m 36 9 d 35 9 d 36 9 d 36 10 d 36 10 d 36 9 d 36 11 d 35 10 d 36 10 d 36 11 d 36 11 d 36 11 d
 36 12 d 35 12 d 36 12 d 36 12 d 36 13 d 36 13 d 36 14 d 35 14 d 36 15 d 36 15 d 18 9 d 18 9 d 18 9 d 18 11 d 18 10 d 18 12 d 17 11 d 18 11 d 18 11 d 18 11 d 36 19 d 18 9 d 18 8 d 18 7 d 9 3 d 9 2 d 9 2 d 9 2 d 9 2 d 9 1 d 35 X 9 -1 d 9 -2 d 9 -1 d 9
 -3 d 9 -2 d 9 -3 d 18 -7 d 18 -7 d 18 -9 d 36 -20 d 18 -11 d 18 -11 d 17 -11 d 18 -11 d 18 -11 d 18 -11 d 18 -12 d 18 -11 d 36 -24 d 36 -24 d 36 -27 d 35 -28 d 36 -30 d 36 -33 d 36 -35 d 36 -38 d 36 -40 d 35 -42 d -35 42 d -36 40 d -36 38 d -36 35 d
 -36 33 d -36 30 d -35 28 d -36 27 d -36 24 d -36 24 d -18 11 d -18 12 d -18 11 d -18 11 d -18 11 d -17 11 d -18 11 d -18 11 d -36 20 d -18 9 d -18 7 d -18 7 d -9 3 d -9 2 d -9 3 d -9 1 d -9 2 d -9 1 d -35 X -9 -1 d -9 -2 d -9 -2 d -9 -2 d -9 -2 d -9
 -3 d -18 -7 d -18 -8 d -18 -9 d -36 -19 d -18 -11 d -18 -11 d -18 -11 d -17 -11 d -18 -12 d -18 -10 d -18 -11 d -18 -9 d -18 -9 d -18 -9 d -36 -15 d -36 -15 d -35 -14 d -36 -14 d -36 -13 d -36 -13 d -36 -12 d -36 -12 d -35 -12 d -36 -12 d -36 -11 d
 -36 -11 d -36 -11 d -36 -10 d -35 -10 d -36 -11 d -36 -9 d -36 -10 d -36 -10 d -36 -9 d -35 -9 d -36 -9 d f 0 1 1 c 0 1 0 c black 0 1 0 c 363 999 m 36 9 d 35 9 d 36 9 d 36 10 d 36 10 d 36 9 d 36 11 d 35 10 d 36 10 d 36 11 d 36 11 d 36 11 d 36 12 d
 35 12 d 36 12 d 36 12 d 36 13 d 36 13 d 36 14 d 35 14 d 36 15 d 36 15 d 18 9 d 18 9 d 18 9 d 18 11 d 18 10 d 18 12 d 17 11 d 18 11 d 18 11 d 18 11 d 36 19 d 18 9 d 18 8 d 18 7 d 9 3 d 9 2 d 9 2 d 9 2 d 9 2 d 9 1 d 35 X 9 -1 d 9 -2 d 9 -1 d 9 -3 d 9
 -2 d 9 -3 d 18 -7 d 18 -7 d 18 -9 d 36 -20 d 18 -11 d 18 -11 d 17 -11 d 18 -11 d 18 -11 d 18 -11 d 18 -12 d 18 -11 d 36 -24 d 36 -24 d 36 -27 d 35 -28 d 36 -30 d 36 -33 d 36 -35 d 36 -38 d 36 -40 d 35 -42 d -35 42 d -36 40 d -36 38 d -36 35 d -36 33
 d -36 30 d -35 28 d -36 27 d -36 24 d -36 24 d -18 11 d -18 12 d -18 11 d -18 11 d -18 11 d -17 11 d -18 11 d -18 11 d -36 20 d -18 9 d -18 7 d -18 7 d -9 3 d -9 2 d -9 3 d -9 1 d -9 2 d -9 1 d -35 X -9 -1 d -9 -2 d -9 -2 d -9 -2 d -9 -2 d -9 -3 d
 -18 -7 d -18 -8 d -18 -9 d -36 -19 d -18 -11 d -18 -11 d -18 -11 d -17 -11 d -18 -12 d -18 -10 d -18 -11 d -18 -9 d -18 -9 d -18 -9 d -36 -15 d -36 -15 d -35 -14 d -36 -14 d -36 -13 d -36 -13 d -36 -12 d -36 -12 d -35 -12 d -36 -12 d -36 -11 d -36
 -11 d -36 -11 d -36 -10 d -35 -10 d -36 -11 d -36 -9 d -36 -10 d -36 -10 d -36 -9 d -35 -9 d -36 -9 d f 0 0 1 c 9 lw black 0 0 1 c 363 999 m 36 9 d 35 9 d 36 9 d 36 10 d 36 10 d 36 9 d 36 11 d 35 10 d 36 10 d 36 11 d 36 11 d 36 11 d 36 12 d 35 12 d
 36 12 d 36 12 d 36 13 d 36 13 d 36 14 d 35 14 d 36 15 d 36 15 d 18 9 d 18 9 d 18 9 d 18 11 d 18 10 d 18 12 d 17 11 d 18 11 d 18 11 d 18 11 d 36 19 d 18 9 d 18 8 d 18 7 d 9 3 d 9 2 d 9 2 d 9 2 d 9 2 d 9 1 d 35 X 9 -1 d 9 -2 d 9 -1 d 9 -3 d 9 -2 d 9
 -3 d 18 -7 d 18 -7 d 18 -9 d 36 -20 d 18 -11 d 18 -11 d 17 -11 d 18 -11 d 18 -11 d 18 -11 d 18 -12 d 18 -11 d 36 -24 d 36 -24 d 36 -27 d 35 -28 d 36 -30 d 36 -33 d 36 -35 d 36 -38 d 36 -40 d 35 -42 d s black 3 lw 381 973 m -18 X s 363 973 m cl s 381
 973 m 18 X s 399 973 m cl s 381 973 m 36 Y s 381 1009 m cl s 381 973 m -37 Y s 381 936 m cl s 417 1001 m -18 X s 399 1001 m cl s 417 1001 m 17 X s 434 1001 m cl s 417 1001 m 32 Y s 417 1033 m cl s 417 1001 m -33 Y s 417 968 m cl s 452 1044 m -18 X s
 434 1044 m cl s 452 1044 m 18 X s 470 1044 m cl s 452 1044 m 27 Y s 452 1071 m cl s 452 1044 m -28 Y s 452 1016 m cl s 488 1034 m -18 X s 470 1034 m cl s 488 1034 m 18 X s 506 1034 m cl s 488 1034 m 29 Y s 488 1063 m cl s 488 1034 m -29 Y s 488 1005
 m cl s 524 1029 m -18 X s 506 1029 m cl s 524 1029 m 18 X s 542 1029 m cl s 524 1029 m 29 Y s 524 1058 m cl s 524 1029 m -29 Y s 524 1000 m cl s 560 1024 m -18 X s 542 1024 m cl s 560 1024 m 18 X s 578 1024 m cl s 560 1024 m 29 Y s 560 1053 m cl s
 560 1024 m -30 Y s 560 994 m cl s 596 1053 m -18 X s 578 1053 m cl s 596 1053 m 18 X s 614 1053 m cl s 596 1053 m 26 Y s 596 1079 m cl s 596 1053 m -27 Y s 596 1026 m cl s 632 1065 m -18 X s 614 1065 m cl s 632 1065 m 17 X s 649 1065 m cl s 632 1065
 m 26 Y s 632 1091 m cl s 632 1065 m -25 Y s 632 1040 m cl s 667 1053 m -18 X s 649 1053 m cl s 667 1053 m 18 X s 685 1053 m cl s 667 1053 m 26 Y s 667 1079 m cl s 667 1053 m -27 Y s 667 1026 m cl s 703 1065 m -18 X s 685 1065 m cl s 703 1065 m 18 X
 s 721 1065 m cl s 703 1065 m 26 Y s 703 1091 m cl s 703 1065 m -25 Y s 703 1040 m cl s 739 1149 m -18 X s 721 1149 m cl s 739 1149 m 18 X s 757 1149 m cl s 739 1149 m 19 Y s 739 1168 m cl s 739 1149 m -18 Y s 739 1131 m cl s 775 1115 m -18 X s 757
 1115 m cl s 775 1115 m 18 X s 793 1115 m cl s 775 1115 m 21 Y s 775 1136 m cl s 775 1115 m -21 Y s 775 1094 m cl s 811 1115 m -18 X s 793 1115 m cl s 811 1115 m 18 X s 829 1115 m cl s 811 1115 m 21 Y s 811 1136 m cl s 811 1115 m -21 Y s 811 1094 m
 cl s 847 1128 m -18 X s 829 1128 m cl s 847 1128 m 17 X s 864 1128 m cl s 847 1128 m 20 Y s 847 1148 m cl s 847 1128 m -20 Y s 847 1108 m cl s 882 1182 m -18 X s 864 1182 m cl s 882 1182 m 18 X s 900 1182 m cl s 882 1182 m 16 Y s 882 1198 m cl s 882
 1182 m -16 Y s 882 1166 m cl s 918 1145 m -18 X s 900 1145 m cl s 918 1145 m 18 X s 936 1145 m cl s 918 1145 m 19 Y s 918 1164 m cl s 918 1145 m -19 Y s 918 1126 m cl s 954 1154 m -18 X s 936 1154 m cl s 954 1154 m 18 X s 972 1154 m cl s 954 1154 m
 18 Y s 954 1172 m cl s 954 1154 m -19 Y s 954 1135 m cl s 990 1198 m -18 X s 972 1198 m cl s 990 1198 m 18 X s 1008 1198 m cl s 990 1198 m 16 Y s 990 1214 m cl s 990 1198 m -15 Y s 990 1183 m cl s 1026 1197 m -18 X s 1008 1197 m cl s 1026 1197 m 18
 X s 1044 1197 m cl s 1026 1197 m 15 Y s 1026 1212 m cl s 1026 1197 m -16 Y s 1026 1181 m cl s 1062 1211 m -18 X s 1044 1211 m cl s 1062 1211 m 17 X s 1079 1211 m cl s 1062 1211 m 15 Y s 1062 1226 m cl s 1062 1211 m -14 Y s 1062 1197 m cl s 1097 1240
 m -18 X s 1079 1240 m cl s 1097 1240 m 18 X s 1115 1240 m cl s 1097 1240 m 13 Y s 1097 1253 m cl s 1097 1240 m -12 Y s 1097 1228 m cl s 1133 1251 m -18 X s 1115 1251 m cl s 1133 1251 m 18 X s 1151 1251 m cl s 1133 1251 m 12 Y s 1133 1263 m cl s 1133
 1251 m -12 Y s 1133 1239 m cl s 1169 1271 m -18 X s 1151 1271 m cl s 1169 1271 m 18 X s 1187 1271 m cl s 1169 1271 m 12 Y s 1169 1283 m cl s 1169 1271 m -11 Y s 1169 1260 m cl s 1205 1275 m -18 X s 1187 1275 m cl s 1205 1275 m 18 X s 1223 1275 m cl
 s 1205 1275 m 11 Y s 1205 1286 m cl s 1205 1275 m -11 Y s 1205 1264 m cl s 1241 1315 m -18 X s 1223 1315 m cl s 1241 1315 m 18 X s 1259 1315 m cl s 1241 1315 m 10 Y s 1241 1325 m cl s 1241 1315 m -9 Y s 1241 1306 m cl s 1276 1331 m -17 X s 1259 1331
 m cl s 1276 1331 m 18 X s 1294 1331 m cl s 1276 1331 m 9 Y s 1276 1340 m cl s 1276 1331 m -9 Y s 1276 1322 m cl s 1312 1336 m -18 X s 1294 1336 m cl s 1312 1336 m 18 X s 1330 1336 m cl s 1312 1336 m 9 Y s 1312 1345 m cl s 1312 1336 m -9 Y s 1312
 1327 m cl s 1348 1352 m -18 X s 1330 1352 m cl s 1348 1352 m 18 X s 1366 1352 m cl s 1348 1352 m 9 Y s 1348 1361 m cl s 1348 1352 m -8 Y s 1348 1344 m cl s 1384 1383 m -18 X s 1366 1383 m cl s 1384 1383 m 18 X s 1402 1383 m cl s 1384 1383 m 7 Y s
 1384 1390 m cl s 1384 1383 m -8 Y s 1384 1375 m cl s 1420 1389 m -18 X s 1402 1389 m cl s 1420 1389 m 18 X s 1438 1389 m cl s 1420 1389 m 7 Y s 1420 1396 m cl s 1420 1389 m -7 Y s 1420 1382 m cl s 1456 1398 m -18 X s 1438 1398 m cl s 1456 1398 m 18
 X s 1474 1398 m cl s 1456 1398 m 7 Y s 1456 1405 m cl s 1456 1398 m -7 Y s 1456 1391 m cl s 1491 1414 m -17 X s 1474 1414 m cl s 1491 1414 m 18 X s 1509 1414 m cl s 1491 1414 m 7 Y s 1491 1421 m cl s 1491 1414 m -7 Y s 1491 1407 m cl s 1527 1398 m
 -18 X s 1509 1398 m cl s 1527 1398 m 18 X s 1545 1398 m cl s 1527 1398 m 7 Y s 1527 1405 m cl s 1527 1398 m -7 Y s 1527 1391 m cl s 1563 1413 m -18 X s 1545 1413 m cl s 1563 1413 m 18 X s 1581 1413 m cl s 1563 1413 m 7 Y s 1563 1420 m cl s 1563 1413
 m -6 Y s 1563 1407 m cl s 1599 1392 m -18 X s 1581 1392 m cl s 1599 1392 m 18 X s 1617 1392 m cl s 1599 1392 m 7 Y s 1599 1399 m cl s 1599 1392 m -8 Y s 1599 1384 m cl s 1635 1372 m -18 X s 1617 1372 m cl s 1635 1372 m 18 X s 1653 1372 m cl s 1635
 1372 m 8 Y s 1635 1380 m cl s 1635 1372 m -7 Y s 1635 1365 m cl s 1671 1340 m -18 X s 1653 1340 m cl s 1671 1340 m 18 X s 1689 1340 m cl s 1671 1340 m 9 Y s 1671 1349 m cl s 1671 1340 m -9 Y s 1671 1331 m cl s 1706 1329 m -17 X s 1689 1329 m cl s
 1706 1329 m 18 X s 1724 1329 m cl s 1706 1329 m 9 Y s 1706 1338 m cl s 1706 1329 m -9 Y s 1706 1320 m cl s 1742 1309 m -18 X s 1724 1309 m cl s 1742 1309 m 18 X s 1760 1309 m cl s 1742 1309 m 9 Y s 1742 1318 m cl s 1742 1309 m -10 Y s 1742 1299 m cl
 s 1778 1250 m -18 X s 1760 1250 m cl s 1778 1250 m 18 X s 1796 1250 m cl s 1778 1250 m 12 Y s 1778 1262 m cl s 1778 1250 m -12 Y s 1778 1238 m cl s 1814 1239 m -18 X s 1796 1239 m cl s 1814 1239 m 18 X s 1832 1239 m cl s 1814 1239 m 13 Y s 1814 1252
 m cl s 1814 1239 m -13 Y s 1814 1226 m cl s 1850 1226 m -18 X s 1832 1226 m cl s 1850 1226 m 18 X s 1868 1226 m cl s 1850 1226 m 13 Y s 1850 1239 m cl s 1850 1226 m -13 Y s 1850 1213 m cl s 1886 1200 m -18 X s 1868 1200 m cl s 1886 1200 m 18 X s
 1904 1200 m cl s 1886 1200 m 15 Y s 1886 1215 m cl s 1886 1200 m -16 Y s 1886 1184 m cl s 1921 1177 m -17 X s 1904 1177 m cl s 1921 1177 m 18 X s 1939 1177 m cl s 1921 1177 m 16 Y s 1921 1193 m cl s 1921 1177 m -17 Y s 1921 1160 m cl s 1957 1156 m
 -18 X s 1939 1156 m cl s 1957 1156 m 18 X s 1975 1156 m cl s 1957 1156 m 18 Y s 1957 1174 m cl s 1957 1156 m -18 Y s 1957 1138 m cl s 1993 1133 m -18 X s 1975 1133 m cl s 1993 1133 m 18 X s 2011 1133 m cl s 1993 1133 m 20 Y s 1993 1153 m cl s 1993
 1133 m -20 Y s 1993 1113 m cl s 2029 1100 m -18 X s 2011 1100 m cl s 2029 1100 m 18 X s 2047 1100 m cl s 2029 1100 m 22 Y s 2029 1122 m cl s 2029 1100 m -22 Y s 2029 1078 m cl s 2065 1024 m -18 X s 2047 1024 m cl s 2065 1024 m 18 X s 2083 1024 m cl
 s 2065 1024 m 29 Y s 2065 1053 m cl s 2065 1024 m -30 Y s 2065 994 m cl s 2101 1013 m -18 X s 2083 1013 m cl s 2101 1013 m 18 X s 2119 1013 m cl s 2101 1013 m 31 Y s 2101 1044 m cl s 2101 1013 m -32 Y s 2101 981 m cl s 2136 938 m -17 X s 2119 938 m
 cl s 2136 938 m 18 X s 2154 938 m cl s 2136 938 m 41 Y s 2136 979 m cl s 2136 938 m -43 Y s 2136 895 m cl s 381 973 417 1001 452 1044 488 1034 524 1029 560 1024 596 1053 632 1065 667 1053 703 1065 739 1149 775 1115 811 1115 847 1128 882 1182 918
 1145 954 1154 990 1198 1026 1197 1062 1211 1097 1240 1133 1251 1169 1271 1205 1275 1241 1315 1276 1331 1312 1336 1348 1352 1384 1383 1420 1389 1456 1398 1491 1414 1527 1398 1563 1413 1599 1392 1635 1372 1671 1340 1706 1329 1742 1309 1778 1250 1814
 1239 1850 1226 1886 1200 1921 1177 1957 1156 1993 1133 2029 1100 2065 1024 2101 1013 2136 938 50 { m20} R 0.52 0.76 0.64 c[ 4 8] 0 sd 9 lw black 0.52 0.76 0.64 c 363 999 m 36 9 d 35 9 d 36 9 d 36 10 d 36 10 d 36 9 d 36 11 d 35 10 d 36 10 d 36 11 d
 36 11 d 36 11 d 36 12 d 35 12 d 36 12 d 36 12 d 36 13 d 36 13 d 36 14 d 35 13 d 36 15 d 36 14 d 18 8 d 18 7 d 18 8 d 18 8 d 36 16 d 35 14 d 18 6 d 18 6 d 18 5 d 18 4 d 18 4 d 18 3 d 18 3 d 18 2 d 18 1 d 18 1 d 35 X 18 -1 d 18 -1 d 18 -2 d 18 -3 d 18
 -3 d 18 -4 d 18 -4 d 18 -5 d 18 -6 d 18 -6 d 35 -14 d 36 -16 d 36 -19 d 36 -21 d 36 -23 d 36 -26 d 35 -28 d 36 -31 d 36 -32 d 36 -35 d 36 -38 d 36 -40 d 35 -42 d s 0.54 0.66 0.63 c black 0.54 0.66 0.63 c 1141 634 m 10 38 d s 1151 672 m 18 61 d 18 58
 d 18 55 d 18 52 d 18 48 d 9 23 d 9 22 d 9 21 d 8 21 d 9 19 d 9 19 d 9 18 d 9 17 d 9 16 d 9 16 d 18 28 d 18 25 d 18 22 d 18 18 d 9 8 d 9 7 d 9 6 d 9 6 d 9 4 d 9 4 d 9 3 d 9 2 d 9 2 d 17 X 9 -2 d 9 -2 d 9 -3 d 9 -3 d 9 -5 d 9 -5 d 9 -6 d 9 -7 d 9 -8 d
 18 -18 d 18 -22 d 18 -25 d 18 -28 d 9 -15 d 9 -16 d 9 -17 d 9 -18 d 8 -19 d 9 -19 d 9 -21 d 9 -21 d 9 -22 d 9 -23 d 18 -48 d 18 -51 d 18 -55 d 18 -58 d 18 -61 d 11 -41 d s black[  ] 0 sd 3 lw 363 634 m 1791 X s 363 659 m -25 Y s 421 646 m -12 Y s
 478 646 m -12 Y s 536 646 m -12 Y s 594 646 m -12 Y s 652 659 m -25 Y s 710 646 m -12 Y s 767 646 m -12 Y s 825 646 m -12 Y s 883 646 m -12 Y s 941 659 m -25 Y s 999 646 m -12 Y s 1056 646 m -12 Y s 1114 646 m -12 Y s 1172 646 m -12 Y s 1230 659 m
 -25 Y s 1287 646 m -12 Y s 1345 646 m -12 Y s 1403 646 m -12 Y s 1461 646 m -12 Y s 1519 659 m -25 Y s 1576 646 m -12 Y s 1634 646 m -12 Y s 1692 646 m -12 Y s 1750 646 m -12 Y s 1808 659 m -25 Y s 1865 646 m -12 Y s 1923 646 m -12 Y s 1981 646 m
 -12 Y s 2039 646 m -12 Y s 2097 659 m -25 Y s 2097 659 m -25 Y s 363 1484 m 1791 X s 363 1459 m 25 Y s 421 1471 m 13 Y s 478 1471 m 13 Y s 536 1471 m 13 Y s 594 1471 m 13 Y s 652 1459 m 25 Y s 710 1471 m 13 Y s 767 1471 m 13 Y s 825 1471 m 13 Y s
 883 1471 m 13 Y s 941 1459 m 25 Y s 999 1471 m 13 Y s 1056 1471 m 13 Y s 1114 1471 m 13 Y s 1172 1471 m 13 Y s 1230 1459 m 25 Y s 1287 1471 m 13 Y s 1345 1471 m 13 Y s 1403 1471 m 13 Y s 1461 1471 m 13 Y s 1519 1459 m 25 Y s 1576 1471 m 13 Y s 1634
 1471 m 13 Y s 1692 1471 m 13 Y s 1750 1471 m 13 Y s 1808 1459 m 25 Y s 1865 1471 m 13 Y s 1923 1471 m 13 Y s 1981 1471 m 13 Y s 2039 1471 m 13 Y s 2097 1459 m 25 Y s 2097 1459 m 25 Y s 363 634 m 850 Y s 390 667 m -27 X s 390 723 m -27 X s 390 763 m
 -27 X s 390 794 m -27 X s 390 820 m -27 X s 390 841 m -27 X s 390 860 m -27 X s 390 876 m -27 X s 417 891 m -54 X s 390 987 m -27 X s 390 1044 m -27 X s 390 1084 m -27 X s 390 1115 m -27 X s 390 1140 m -27 X s 390 1162 m -27 X s 390 1180 m -27 X s
 390 1197 m -27 X s 417 1211 m -54 X s 390 1308 m -27 X s 390 1364 m -27 X s 390 1404 m -27 X s 390 1435 m -27 X s 390 1461 m -27 X s 390 1482 m -27 X s 2154 634 m 850 Y s 2127 667 m 27 X s 2127 723 m 27 X s 2127 763 m 27 X s 2127 794 m 27 X s 2127
 820 m 27 X s 2127 841 m 27 X s 2127 860 m 27 X s 2127 876 m 27 X s 2101 891 m 53 X s 2127 987 m 27 X s 2127 1044 m 27 X s 2127 1084 m 27 X s 2127 1115 m 27 X s 2127 1140 m 27 X s 2127 1162 m 27 X s 2127 1180 m 27 X s 2127 1197 m 27 X s 2101 1211 m
 53 X s 2127 1308 m 27 X s 2127 1364 m 27 X s 2127 1404 m 27 X s 2127 1435 m 27 X s 2127 1461 m 27 X s 2127 1482 m 27 X s
 gsave  2268 1077 0 461 C 677.708 1215.31 t 0 r /Helvetica findfont 58.7189 sf 0 0 m (4mu) show NC gr  1 1 1 c 453 161 454 1269 bf black
 gsave  2268 1077 0 461 C 566.929 1371.71 t 0 r /Helvetica-Bold findfont 48.9324 sf 0 0 m (MC15) show NC gr  510 1390 m20
 gsave  2268 1077 0 461 C 566.929 1293.51 t 0 r /Helvetica-Bold findfont 48.9324 sf 0 0 m (Projection of Signal pdf) show NC gr  0 0 1 c 9 lw 471 1309 m 79 X s black 3 lw 1 1 1 c 2268 461 0 0 bf black 1 1 1 c 1791 364 363 74 bf black 1791 364 363 74
 bl 363 74 m 1791 X s
 gsave  2268 461 0 0 C 1915.83 13.0329 t 0 r /Helvetica findfont 22.9045 sf 0 0 m (4l Invariant Mass \(GeV\)) show NC gr  363 85 m -11 Y s 421 79 m -5 Y s 478 79 m -5 Y s 536 79 m -5 Y s 594 79 m -5 Y s 652 85 m -11 Y s 710 79 m -5 Y s 767 79 m -5 Y
 s 825 79 m -5 Y s 883 79 m -5 Y s 941 85 m -11 Y s 999 79 m -5 Y s 1056 79 m -5 Y s 1114 79 m -5 Y s 1172 79 m -5 Y s 1230 85 m -11 Y s 1287 79 m -5 Y s 1345 79 m -5 Y s 1403 79 m -5 Y s 1461 79 m -5 Y s 1519 85 m -11 Y s 1576 79 m -5 Y s 1634 79 m
 -5 Y s 1692 79 m -5 Y s 1750 79 m -5 Y s 1808 85 m -11 Y s 1865 79 m -5 Y s 1923 79 m -5 Y s 1981 79 m -5 Y s 2039 79 m -5 Y s 2097 85 m -11 Y s 2097 85 m -11 Y s
 gsave  2268 461 0 0 C 335.596 55.3896 t 0 r /Helvetica findfont 22.9045 sf 0 0 m (1400) show NC gr 
 gsave  2268 461 0 0 C 625.577 55.3896 t 0 r /Helvetica findfont 22.9045 sf 0 0 m (1450) show NC gr 
 gsave  2268 461 0 0 C 912.3 55.3896 t 0 r /Helvetica findfont 22.9045 sf 0 0 m (1500) show NC gr 
 gsave  2268 461 0 0 C 1202.28 55.3896 t 0 r /Helvetica findfont 22.9045 sf 0 0 m (1550) show NC gr 
 gsave  2268 461 0 0 C 1492.26 55.3896 t 0 r /Helvetica findfont 22.9045 sf 0 0 m (1600) show NC gr 
 gsave  2268 461 0 0 C 1778.98 55.3896 t 0 r /Helvetica findfont 22.9045 sf 0 0 m (1650) show NC gr 
 gsave  2268 461 0 0 C 2068.97 55.3896 t 0 r /Helvetica findfont 22.9045 sf 0 0 m (1700) show NC gr  363 438 m 1791 X s 363 427 m 11 Y s 421 433 m 5 Y s 478 433 m 5 Y s 536 433 m 5 Y s 594 433 m 5 Y s 652 427 m 11 Y s 710 433 m 5 Y s 767 433 m 5 Y s
 825 433 m 5 Y s 883 433 m 5 Y s 941 427 m 11 Y s 999 433 m 5 Y s 1056 433 m 5 Y s 1114 433 m 5 Y s 1172 433 m 5 Y s 1230 427 m 11 Y s 1287 433 m 5 Y s 1345 433 m 5 Y s 1403 433 m 5 Y s 1461 433 m 5 Y s 1519 427 m 11 Y s 1576 433 m 5 Y s 1634 433 m 5
 Y s 1692 433 m 5 Y s 1750 433 m 5 Y s 1808 427 m 11 Y s 1865 433 m 5 Y s 1923 433 m 5 Y s 1981 433 m 5 Y s 2039 433 m 5 Y s 2097 427 m 11 Y s 2097 427 m 11 Y s 363 74 m 364 Y s 417 74 m -54 X s 390 81 m -27 X s 390 88 m -27 X s 390 96 m -27 X s 390
 103 m -27 X s 417 110 m -54 X s 390 118 m -27 X s 390 125 m -27 X s 390 132 m -27 X s 390 139 m -27 X s 417 147 m -54 X s 390 154 m -27 X s 390 161 m -27 X s 390 169 m -27 X s 390 176 m -27 X s 417 183 m -54 X s 390 190 m -27 X s 390 198 m -27 X s
 390 205 m -27 X s 390 212 m -27 X s 417 220 m -54 X s 390 227 m -27 X s 390 234 m -27 X s 390 241 m -27 X s 390 249 m -27 X s 417 256 m -54 X s 390 263 m -27 X s 390 271 m -27 X s 390 278 m -27 X s 390 285 m -27 X s 417 293 m -54 X s 390 300 m -27 X
 s 390 307 m -27 X s 390 314 m -27 X s 390 322 m -27 X s 417 329 m -54 X s 390 336 m -27 X s 390 344 m -27 X s 390 351 m -27 X s 390 358 m -27 X s 417 365 m -54 X s 390 373 m -27 X s 390 380 m -27 X s 390 387 m -27 X s 390 395 m -27 X s 417 402 m -54
 X s 390 409 m -27 X s 390 416 m -27 X s 390 424 m -27 X s 390 431 m -27 X s 417 438 m -54 X s
 gsave  2268 461 0 0 C 329.08 65.1643 t 0 r /Helvetica findfont 22.9045 sf 0 0 m (\2555) show NC gr 
 gsave  2268 461 0 0 C 329.08 101.005 t 0 r /Helvetica findfont 22.9045 sf 0 0 m (\2554) show NC gr 
 gsave  2268 461 0 0 C 329.08 140.103 t 0 r /Helvetica findfont 22.9045 sf 0 0 m (\2553) show NC gr 
 gsave  2268 461 0 0 C 329.08 175.944 t 0 r /Helvetica findfont 22.9045 sf 0 0 m (\2552) show NC gr 
 gsave  2268 461 0 0 C 332.338 211.784 t 0 r /Helvetica findfont 22.9045 sf 0 0 m (\2551) show NC gr 
 gsave  2268 461 0 0 C 335.596 247.624 t 0 r /Helvetica findfont 22.9045 sf 0 0 m (0) show NC gr 
 gsave  2268 461 0 0 C 338.854 283.465 t 0 r /Helvetica findfont 22.9045 sf 0 0 m (1) show NC gr 
 gsave  2268 461 0 0 C 335.596 319.305 t 0 r /Helvetica findfont 22.9045 sf 0 0 m (2) show NC gr 
 gsave  2268 461 0 0 C 335.596 358.403 t 0 r /Helvetica findfont 22.9045 sf 0 0 m (3) show NC gr 
 gsave  2268 461 0 0 C 335.596 394.244 t 0 r /Helvetica findfont 22.9045 sf 0 0 m (4) show NC gr 
 gsave  2268 461 0 0 C 335.596 430.084 t 0 r /Helvetica findfont 22.9045 sf 0 0 m (5) show NC gr  2154 74 m 364 Y s 2101 74 m 53 X s 2127 81 m 27 X s 2127 88 m 27 X s 2127 96 m 27 X s 2127 103 m 27 X s 2101 110 m 53 X s 2127 118 m 27 X s 2127 125 m
 27 X s 2127 132 m 27 X s 2127 139 m 27 X s 2101 147 m 53 X s 2127 154 m 27 X s 2127 161 m 27 X s 2127 169 m 27 X s 2127 176 m 27 X s 2101 183 m 53 X s 2127 190 m 27 X s 2127 198 m 27 X s 2127 205 m 27 X s 2127 212 m 27 X s 2101 220 m 53 X s 2127 227
 m 27 X s 2127 234 m 27 X s 2127 241 m 27 X s 2127 249 m 27 X s 2101 256 m 53 X s 2127 263 m 27 X s 2127 271 m 27 X s 2127 278 m 27 X s 2127 285 m 27 X s 2101 293 m 53 X s 2127 300 m 27 X s 2127 307 m 27 X s 2127 314 m 27 X s 2127 322 m 27 X s 2101
 329 m 53 X s 2127 336 m 27 X s 2127 344 m 27 X s 2127 351 m 27 X s 2127 358 m 27 X s 2101 365 m 53 X s 2127 373 m 27 X s 2127 380 m 27 X s 2127 387 m 27 X s 2127 395 m 27 X s 2101 402 m 53 X s 2127 409 m 27 X s 2127 416 m 27 X s 2127 424 m 27 X s
 2127 431 m 27 X s 2101 438 m 53 X s 6 lw 0.2 0.8 0.2 c black 3 lw 0.2 0.8 0.2 c 363 256 m -31 Y 36 X 19 Y 35 X 41 Y 36 X -25 Y 36 X -18 Y 36 X -19 Y 36 X 23 Y 36 X 3 Y 35 X -32 Y 72 X 122 Y 36 X -81 Y 36 X -19 Y 36 X 1 Y 35 X 86 Y 36 X -102 Y 36 X
 -9 Y 36 X 69 Y 36 X -36 Y 36 X 2 Y 35 X 41 Y 36 X -12 Y 36 X 14 Y 36 X -48 Y 36 X 70 Y 36 X -22 Y 35 X -69 Y 36 X -24 Y 36 X 53 Y 36 X -41 Y 36 X -1 Y 36 X 65 Y 35 X -66 Y 36 X 127 Y 36 X -41 Y 36 X -7 Y 36 X -51 Y 36 X 45 Y 35 X 5 Y 36 X -119 Y 36
 X 41 Y 36 X 33 Y 72 X 11 Y 35 X 17 Y 36 X 15 Y 36 X -2 Y 36 X -56 Y 36 X 33 Y 36 X -31 Y 35 X 26 Y f 6 lw black 0.2 0.8 0.2 c black 363 225 m 36 X 19 Y 35 X 41 Y 36 X -25 Y 36 X -18 Y 36 X -19 Y 36 X 23 Y 36 X 3 Y 35 X -32 Y 72 X 122 Y 36 X -81 Y 36
 X -19 Y 36 X 1 Y 35 X 86 Y 36 X -102 Y 36 X -9 Y 36 X 69 Y 36 X -36 Y 36 X 2 Y 35 X 41 Y 36 X -12 Y 36 X 14 Y 36 X -48 Y 36 X 70 Y 36 X -22 Y 35 X -69 Y 36 X -24 Y 36 X 53 Y 36 X -41 Y 36 X -1 Y 36 X 65 Y 35 X -66 Y 36 X 127 Y 36 X -41 Y 36 X -7 Y
 36 X -51 Y 36 X 45 Y 35 X 5 Y 36 X -119 Y 36 X 41 Y 36 X 33 Y 72 X 11 Y 35 X 17 Y 36 X 15 Y 36 X -2 Y 36 X -56 Y 36 X 33 Y 36 X -31 Y 35 X s 3 lw 363 74 m 1791 X s 363 85 m -11 Y s 421 79 m -5 Y s 478 79 m -5 Y s 536 79 m -5 Y s 594 79 m -5 Y s 652
 85 m -11 Y s 710 79 m -5 Y s 767 79 m -5 Y s 825 79 m -5 Y s 883 79 m -5 Y s 941 85 m -11 Y s 999 79 m -5 Y s 1056 79 m -5 Y s 1114 79 m -5 Y s 1172 79 m -5 Y s 1230 85 m -11 Y s 1287 79 m -5 Y s 1345 79 m -5 Y s 1403 79 m -5 Y s 1461 79 m -5 Y s
 1519 85 m -11 Y s 1576 79 m -5 Y s 1634 79 m -5 Y s 1692 79 m -5 Y s 1750 79 m -5 Y s 1808 85 m -11 Y s 1865 79 m -5 Y s 1923 79 m -5 Y s 1981 79 m -5 Y s 2039 79 m -5 Y s 2097 85 m -11 Y s 2097 85 m -11 Y s 363 438 m 1791 X s 363 427 m 11 Y s 421
 433 m 5 Y s 478 433 m 5 Y s 536 433 m 5 Y s 594 433 m 5 Y s 652 427 m 11 Y s 710 433 m 5 Y s 767 433 m 5 Y s 825 433 m 5 Y s 883 433 m 5 Y s 941 427 m 11 Y s 999 433 m 5 Y s 1056 433 m 5 Y s 1114 433 m 5 Y s 1172 433 m 5 Y s 1230 427 m 11 Y s 1287
 433 m 5 Y s 1345 433 m 5 Y s 1403 433 m 5 Y s 1461 433 m 5 Y s 1519 427 m 11 Y s 1576 433 m 5 Y s 1634 433 m 5 Y s 1692 433 m 5 Y s 1750 433 m 5 Y s 1808 427 m 11 Y s 1865 433 m 5 Y s 1923 433 m 5 Y s 1981 433 m 5 Y s 2039 433 m 5 Y s 2097 427 m 11
 Y s 2097 427 m 11 Y s 363 74 m 364 Y s 417 74 m -54 X s 390 81 m -27 X s 390 88 m -27 X s 390 96 m -27 X s 390 103 m -27 X s 417 110 m -54 X s 390 118 m -27 X s 390 125 m -27 X s 390 132 m -27 X s 390 139 m -27 X s 417 147 m -54 X s 390 154 m -27 X
 s 390 161 m -27 X s 390 169 m -27 X s 390 176 m -27 X s 417 183 m -54 X s 390 190 m -27 X s 390 198 m -27 X s 390 205 m -27 X s 390 212 m -27 X s 417 220 m -54 X s 390 227 m -27 X s 390 234 m -27 X s 390 241 m -27 X s 390 249 m -27 X s 417 256 m -54
 X s 390 263 m -27 X s 390 271 m -27 X s 390 278 m -27 X s 390 285 m -27 X s 417 293 m -54 X s 390 300 m -27 X s 390 307 m -27 X s 390 314 m -27 X s 390 322 m -27 X s 417 329 m -54 X s 390 336 m -27 X s 390 344 m -27 X s 390 351 m -27 X s 390 358 m
 -27 X s 417 365 m -54 X s 390 373 m -27 X s 390 380 m -27 X s 390 387 m -27 X s 390 395 m -27 X s 417 402 m -54 X s 390 409 m -27 X s 390 416 m -27 X s 390 424 m -27 X s 390 431 m -27 X s 417 438 m -54 X s 2154 74 m 364 Y s 2101 74 m 53 X s 2127 81
 m 27 X s 2127 88 m 27 X s 2127 96 m 27 X s 2127 103 m 27 X s 2101 110 m 53 X s 2127 118 m 27 X s 2127 125 m 27 X s 2127 132 m 27 X s 2127 139 m 27 X s 2101 147 m 53 X s 2127 154 m 27 X s 2127 161 m 27 X s 2127 169 m 27 X s 2127 176 m 27 X s 2101 183
 m 53 X s 2127 190 m 27 X s 2127 198 m 27 X s 2127 205 m 27 X s 2127 212 m 27 X s 2101 220 m 53 X s 2127 227 m 27 X s 2127 234 m 27 X s 2127 241 m 27 X s 2127 249 m 27 X s 2101 256 m 53 X s 2127 263 m 27 X s 2127 271 m 27 X s 2127 278 m 27 X s 2127
 285 m 27 X s 2101 293 m 53 X s 2127 300 m 27 X s 2127 307 m 27 X s 2127 314 m 27 X s 2127 322 m 27 X s 2101 329 m 53 X s 2127 336 m 27 X s 2127 344 m 27 X s 2127 351 m 27 X s 2127 358 m 27 X s 2101 365 m 53 X s 2127 373 m 27 X s 2127 380 m 27 X s
 2127 387 m 27 X s 2127 395 m 27 X s 2101 402 m 53 X s 2127 409 m 27 X s 2127 416 m 27 X s 2127 424 m 27 X s 2127 431 m 27 X s 2101 438 m 53 X s
 gr  gr showpage
end
%%EOF
