%!PS-Adobe-2.0 EPSF-2.0
%%BoundingBox:  0 0 567 384
%%Title: H4l2015_plotfit/gg_mass_signal_1600_H4l_2mu2e.eps: 
%%Creator: ROOT Version 5.34/10
%%CreationDate: Thu Feb 16 15:47:38 2017
%%EndComments
%%BeginProlog
80 dict begin
/s {stroke} def /l {lineto} def /m {moveto} def /t {translate} def
/r {rotate} def /rl {roll}  def /R {repeat} def
/d {rlineto} def /rm {rmoveto} def /gr {grestore} def /f {eofill} def
/c {setrgbcolor} def /black {0 setgray} def /sd {setdash} def
/cl {closepath} def /sf {scalefont setfont} def /lw {setlinewidth} def
/box {m dup 0 exch d exch 0 d 0 exch neg d cl} def
/NC{systemdict begin initclip end}def/C{NC box clip newpath}def
/bl {box s} def /bf {box f} def /Y { 0 exch d} def /X { 0 d} def 
/K {{pop pop 0 moveto} exch kshow} bind def
/ita {/ang 15 def gsave [1 0 ang dup sin exch cos div 1 0 0] concat} def 
/mp {newpath /y exch def /x exch def} def
/side {[w .77 mul w .23 mul] .385 w mul sd w 0 l currentpoint t -144 r} def
/mr {mp x y w2 0 360 arc} def /m24 {mr s} def /m20 {mr f} def
/mb {mp x y w2 add m w2 neg 0 d 0 w neg d w 0 d 0 w d cl} def
/mt {mp x y w2 add m w2 neg w neg d w 0 d cl} def
/m21 {mb f} def /m25 {mb s} def /m22 {mt f} def /m26{mt s} def
/m23 {mp x y w2 sub m w2 w d w neg 0 d cl f} def
/m27 {mp x y w2 add m w3 neg w2 neg d w3 w2 neg d w3 w2 d cl s} def
/m28 {mp x w2 sub y w2 sub w3 add m w3 0 d  0 w3 neg d w3 0 d 0 w3 d w3 0 d  0 w3 d w3 neg 0 d 0 w3 d w3 neg 0 d 0 w3 neg d w3 neg 0 d cl s } def
/m29 {mp gsave x w2 sub y w2 add w3 sub m currentpoint t 4 {side} repeat cl fill gr} def
/m30 {mp gsave x w2 sub y w2 add w3 sub m currentpoint t 4 {side} repeat cl s gr} def
/m31 {mp x y w2 sub m 0 w d x w2 sub y m w 0 d x w2 sub y w2 add m w w neg d x w2 sub y w2 sub m w w d s} def
/m32 {mp x y w2 sub m w2 w d w neg 0 d cl s} def
/m33 {mp x y w2 add m w3 neg w2 neg d w3 w2 neg d w3 w2 d cl f} def
/m34 {mp x w2 sub y w2 sub w3 add m w3 0 d  0 w3 neg d w3 0 d 0 w3 d w3 0 d  0 w3 d w3 neg 0 d 0 w3 d w3 neg 0 d 0 w3 neg d w3 neg 0 d cl f } def
/m2 {mp x y w2 sub m 0 w d x w2 sub y m w 0 d s} def
/m5 {mp x w2 sub y w2 sub m w w d x w2 sub y w2 add m w w neg d s} def
/reEncode {exch findfont dup length dict begin {1 index /FID eq  {pop pop} {def} ifelse } forall /Encoding exch def currentdict end dup /FontName get exch definefont pop } def [/Times-Bold /Times-Italic /Times-BoldItalic /Helvetica /Helvetica-Oblique
 /Helvetica-Bold /Helvetica-BoldOblique /Courier /Courier-Oblique /Courier-Bold /Courier-BoldOblique /Times-Roman /AvantGarde-Book /AvantGarde-BookOblique /AvantGarde-Demi /AvantGarde-DemiOblique /Bookman-Demi /Bookman-DemiItalic /Bookman-Light
 /Bookman-LightItalic /Helvetica-Narrow /Helvetica-Narrow-Bold /Helvetica-Narrow-BoldOblique /Helvetica-Narrow-Oblique /NewCenturySchlbk-Roman /NewCenturySchlbk-Bold /NewCenturySchlbk-BoldItalic /NewCenturySchlbk-Italic /Palatino-Bold
 /Palatino-BoldItalic /Palatino-Italic /Palatino-Roman ] {ISOLatin1Encoding reEncode } forall
%%EndProlog
%%BeginSetup
%%EndSetup
newpath  gsave  .25 .25 scale  gsave  0 0 t black[  ] 0 sd 3 lw 1 1 1 c 2268 1538 0 0 bf black 1 1 1 c 2222 738 23 784 bf black 1 1 1 c 2222 739 23 15 bf black 1 1 1 c 2268 1077 0 461 bf black 1 1 1 c 1791 850 363 634 bf black 1791 850 363 634 bl 363
 634 m 1791 X s
 gsave  2268 1077 0 461 C 1642.14 498.507 t 0 r /Helvetica findfont 48.9324 sf 0 0 m (4l Invariant Mass \(GeV\)) show NC gr  619 659 m -25 Y s 676 646 m -12 Y s 733 646 m -12 Y s 789 646 m -12 Y s 846 646 m -12 Y s 903 659 m -25 Y s 960 646 m -12 Y s
 1017 646 m -12 Y s 1074 646 m -12 Y s 1131 646 m -12 Y s 1187 659 m -25 Y s 1244 646 m -12 Y s 1301 646 m -12 Y s 1358 646 m -12 Y s 1415 646 m -12 Y s 1472 659 m -25 Y s 1529 646 m -12 Y s 1586 646 m -12 Y s 1642 646 m -12 Y s 1699 646 m -12 Y s
 1756 659 m -25 Y s 1813 646 m -12 Y s 1870 646 m -12 Y s 1927 646 m -12 Y s 1984 646 m -12 Y s 2041 659 m -25 Y s 619 659 m -25 Y s 562 646 m -12 Y s 505 646 m -12 Y s 448 646 m -12 Y s 391 646 m -12 Y s 2041 659 m -25 Y s 2097 646 m -12 Y s
 gsave  2268 1077 0 461 C 560.413 586.478 t 0 r /Helvetica findfont 48.9324 sf 0 0 m (1450) show NC gr 
 gsave  2268 1077 0 461 C 847.135 586.478 t 0 r /Helvetica findfont 48.9324 sf 0 0 m (1500) show NC gr 
 gsave  2268 1077 0 461 C 1130.6 586.478 t 0 r /Helvetica findfont 48.9324 sf 0 0 m (1550) show NC gr 
 gsave  2268 1077 0 461 C 1414.06 586.478 t 0 r /Helvetica findfont 48.9324 sf 0 0 m (1600) show NC gr 
 gsave  2268 1077 0 461 C 1700.79 586.478 t 0 r /Helvetica findfont 48.9324 sf 0 0 m (1650) show NC gr 
 gsave  2268 1077 0 461 C 1984.25 586.478 t 0 r /Helvetica findfont 48.9324 sf 0 0 m (1700) show NC gr  363 1484 m 1791 X s 619 1459 m 25 Y s 676 1471 m 13 Y s 733 1471 m 13 Y s 789 1471 m 13 Y s 846 1471 m 13 Y s 903 1459 m 25 Y s 960 1471 m 13 Y s
 1017 1471 m 13 Y s 1074 1471 m 13 Y s 1131 1471 m 13 Y s 1187 1459 m 25 Y s 1244 1471 m 13 Y s 1301 1471 m 13 Y s 1358 1471 m 13 Y s 1415 1471 m 13 Y s 1472 1459 m 25 Y s 1529 1471 m 13 Y s 1586 1471 m 13 Y s 1642 1471 m 13 Y s 1699 1471 m 13 Y s
 1756 1459 m 25 Y s 1813 1471 m 13 Y s 1870 1471 m 13 Y s 1927 1471 m 13 Y s 1984 1471 m 13 Y s 2041 1459 m 25 Y s 619 1459 m 25 Y s 562 1471 m 13 Y s 505 1471 m 13 Y s 448 1471 m 13 Y s 391 1471 m 13 Y s 2041 1459 m 25 Y s 2097 1471 m 13 Y s 363 634
 m 850 Y s
 gsave  2268 1077 0 461 C 120.554 1058.92 t 90 r /Helvetica findfont 48.9324 sf 0 0 m (Events / \( 6.3 GeV \)) show NC gr  390 651 m -27 X s 390 681 m -27 X s 390 705 m -27 X s 390 725 m -27 X s 390 743 m -27 X s 390 759 m -27 X s 417 773 m -54 X s
 gsave  2268 1077 0 461 C 342.425 752.001 t 0 r  -55 0 t /Helvetica findfont 48.9324 sf 0 0 m (10) show NC gr  390 865 m -27 X s 390 919 m -27 X s 390 957 m -27 X s 390 987 m -27 X s 390 1011 m -27 X s 390 1032 m -27 X s 390 1049 m -27 X s 390 1065 m
 -27 X s 417 1079 m -54 X s
 gsave  2268 1077 0 461 C 322.563 1078.47 t 0 r /Helvetica findfont 32.6216 sf 0 0 m (2) show NC gr 
 gsave  2268 1077 0 461 C 270.432 1058.92 t 0 r /Helvetica findfont 48.9324 sf 0 0 m (10) show NC gr  390 1171 m -27 X s 390 1225 m -27 X s 390 1263 m -27 X s 390 1293 m -27 X s 390 1317 m -27 X s 390 1338 m -27 X s 390 1355 m -27 X s 390 1371 m -27
 X s 417 1385 m -54 X s
 gsave  2268 1077 0 461 C 322.563 1388 t 0 r /Helvetica findfont 32.6216 sf 0 0 m (3) show NC gr 
 gsave  2268 1077 0 461 C 270.432 1365.19 t 0 r /Helvetica findfont 48.9324 sf 0 0 m (10) show NC gr  390 1477 m -27 X s 2154 634 m 850 Y s 2127 651 m 27 X s 2127 681 m 27 X s 2127 705 m 27 X s 2127 725 m 27 X s 2127 743 m 27 X s 2127 759 m 27 X s
 2101 773 m 53 X s 2127 865 m 27 X s 2127 919 m 27 X s 2127 957 m 27 X s 2127 987 m 27 X s 2127 1011 m 27 X s 2127 1032 m 27 X s 2127 1049 m 27 X s 2127 1065 m 27 X s 2101 1079 m 53 X s 2127 1171 m 27 X s 2127 1225 m 27 X s 2127 1263 m 27 X s 2127
 1293 m 27 X s 2127 1317 m 27 X s 2127 1338 m 27 X s 2127 1355 m 27 X s 2127 1371 m 27 X s 2101 1385 m 53 X s 2127 1477 m 27 X s 381 858 m -18 X s 363 858 m cl s 381 858 m 18 X s 399 858 m cl s 381 858 m 34 Y s 381 892 m cl s 381 858 m -34 Y s 381
 824 m cl s 417 895 m -18 X s 399 895 m cl s 417 895 m 17 X s 434 895 m cl s 417 895 m 29 Y s 417 924 m cl s 417 895 m -30 Y s 417 865 m cl s 452 878 m -18 X s 434 878 m cl s 452 878 m 18 X s 470 878 m cl s 452 878 m 31 Y s 452 909 m cl s 452 878 m
 -32 Y s 452 846 m cl s 488 878 m -18 X s 470 878 m cl s 488 878 m 18 X s 506 878 m cl s 488 878 m 31 Y s 488 909 m cl s 488 878 m -32 Y s 488 846 m cl s 524 914 m -18 X s 506 914 m cl s 524 914 m 18 X s 542 914 m cl s 524 914 m 27 Y s 524 941 m cl s
 524 914 m -27 Y s 524 887 m cl s 560 950 m -18 X s 542 950 m cl s 560 950 m 18 X s 578 950 m cl s 560 950 m 23 Y s 560 973 m cl s 560 950 m -23 Y s 560 927 m cl s 596 979 m -18 X s 578 979 m cl s 596 979 m 18 X s 614 979 m cl s 596 979 m 20 Y s 596
 999 m cl s 596 979 m -21 Y s 596 958 m cl s 632 960 m -18 X s 614 960 m cl s 632 960 m 17 X s 649 960 m cl s 632 960 m 23 Y s 632 983 m cl s 632 960 m -22 Y s 632 938 m cl s 667 984 m -18 X s 649 984 m cl s 667 984 m 18 X s 685 984 m cl s 667 984 m
 20 Y s 667 1004 m cl s 667 984 m -20 Y s 667 964 m cl s 703 957 m -18 X s 685 957 m cl s 703 957 m 18 X s 721 957 m cl s 703 957 m 23 Y s 703 980 m cl s 703 957 m -23 Y s 703 934 m cl s 739 973 m -18 X s 721 973 m cl s 739 973 m 18 X s 757 973 m cl
 s 739 973 m 21 Y s 739 994 m cl s 739 973 m -22 Y s 739 951 m cl s 775 1009 m -18 X s 757 1009 m cl s 775 1009 m 18 X s 793 1009 m cl s 775 1009 m 18 Y s 775 1027 m cl s 775 1009 m -19 Y s 775 990 m cl s 811 1035 m -18 X s 793 1035 m cl s 811 1035 m
 18 X s 829 1035 m cl s 811 1035 m 17 Y s 811 1052 m cl s 811 1035 m -16 Y s 811 1019 m cl s 847 1018 m -18 X s 829 1018 m cl s 847 1018 m 17 X s 864 1018 m cl s 847 1018 m 17 Y s 847 1035 m cl s 847 1018 m -18 Y s 847 1000 m cl s 882 1049 m -18 X s
 864 1049 m cl s 882 1049 m 18 X s 900 1049 m cl s 882 1049 m 16 Y s 882 1065 m cl s 882 1049 m -15 Y s 882 1034 m cl s 918 1062 m -18 X s 900 1062 m cl s 918 1062 m 18 X s 936 1062 m cl s 918 1062 m 15 Y s 918 1077 m cl s 918 1062 m -15 Y s 918 1047
 m cl s 954 1093 m -18 X s 936 1093 m cl s 954 1093 m 18 X s 972 1093 m cl s 954 1093 m 12 Y s 954 1105 m cl s 954 1093 m -13 Y s 954 1080 m cl s 990 1106 m -18 X s 972 1106 m cl s 990 1106 m 18 X s 1008 1106 m cl s 990 1106 m 12 Y s 990 1118 m cl s
 990 1106 m -11 Y s 990 1095 m cl s 1026 1116 m -18 X s 1008 1116 m cl s 1026 1116 m 18 X s 1044 1116 m cl s 1026 1116 m 11 Y s 1026 1127 m cl s 1026 1116 m -12 Y s 1026 1104 m cl s 1062 1166 m -18 X s 1044 1166 m cl s 1062 1166 m 17 X s 1079 1166 m
 cl s 1062 1166 m 10 Y s 1062 1176 m cl s 1062 1166 m -9 Y s 1062 1157 m cl s 1097 1127 m -18 X s 1079 1127 m cl s 1097 1127 m 18 X s 1115 1127 m cl s 1097 1127 m 12 Y s 1097 1139 m cl s 1097 1127 m -11 Y s 1097 1116 m cl s 1133 1177 m -18 X s 1115
 1177 m cl s 1133 1177 m 18 X s 1151 1177 m cl s 1133 1177 m 9 Y s 1133 1186 m cl s 1133 1177 m -9 Y s 1133 1168 m cl s 1169 1196 m -18 X s 1151 1196 m cl s 1169 1196 m 18 X s 1187 1196 m cl s 1169 1196 m 9 Y s 1169 1205 m cl s 1169 1196 m -8 Y s
 1169 1188 m cl s 1205 1242 m -18 X s 1187 1242 m cl s 1205 1242 m 18 X s 1223 1242 m cl s 1205 1242 m 7 Y s 1205 1249 m cl s 1205 1242 m -7 Y s 1205 1235 m cl s 1241 1265 m -18 X s 1223 1265 m cl s 1241 1265 m 18 X s 1259 1265 m cl s 1241 1265 m 7 Y
 s 1241 1272 m cl s 1241 1265 m -7 Y s 1241 1258 m cl s 1276 1298 m -17 X s 1259 1298 m cl s 1276 1298 m 18 X s 1294 1298 m cl s 1276 1298 m 6 Y s 1276 1304 m cl s 1276 1298 m -5 Y s 1276 1293 m cl s 1312 1339 m -18 X s 1294 1339 m cl s 1312 1339 m
 18 X s 1330 1339 m cl s 1312 1339 m 5 Y s 1312 1344 m cl s 1312 1339 m -5 Y s 1312 1334 m cl s 1348 1364 m -18 X s 1330 1364 m cl s 1348 1364 m 18 X s 1366 1364 m cl s 1348 1364 m 4 Y s 1348 1368 m cl s 1348 1364 m -5 Y s 1348 1359 m cl s 1384 1394
 m -18 X s 1366 1394 m cl s 1384 1394 m 18 X s 1402 1394 m cl s 1384 1394 m 4 Y s 1384 1398 m cl s 1384 1394 m -4 Y s 1384 1390 m cl s 1420 1411 m -18 X s 1402 1411 m cl s 1420 1411 m 18 X s 1438 1411 m cl s 1420 1411 m 4 Y s 1420 1415 m cl s 1420
 1411 m -4 Y s 1420 1407 m cl s 1456 1420 m -18 X s 1438 1420 m cl s 1456 1420 m 18 X s 1474 1420 m cl s 1456 1420 m 4 Y s 1456 1424 m cl s 1456 1420 m -4 Y s 1456 1416 m cl s 1491 1417 m -17 X s 1474 1417 m cl s 1491 1417 m 18 X s 1509 1417 m cl s
 1491 1417 m 3 Y s 1491 1420 m cl s 1491 1417 m -4 Y s 1491 1413 m cl s 1527 1390 m -18 X s 1509 1390 m cl s 1527 1390 m 18 X s 1545 1390 m cl s 1527 1390 m 4 Y s 1527 1394 m cl s 1527 1390 m -4 Y s 1527 1386 m cl s 1563 1360 m -18 X s 1545 1360 m cl
 s 1563 1360 m 18 X s 1581 1360 m cl s 1563 1360 m 5 Y s 1563 1365 m cl s 1563 1360 m -4 Y s 1563 1356 m cl s 1599 1328 m -18 X s 1581 1328 m cl s 1599 1328 m 18 X s 1617 1328 m cl s 1599 1328 m 5 Y s 1599 1333 m cl s 1599 1328 m -6 Y s 1599 1322 m
 cl s 1635 1274 m -18 X s 1617 1274 m cl s 1635 1274 m 18 X s 1653 1274 m cl s 1635 1274 m 7 Y s 1635 1281 m cl s 1635 1274 m -6 Y s 1635 1268 m cl s 1671 1251 m -18 X s 1653 1251 m cl s 1671 1251 m 18 X s 1689 1251 m cl s 1671 1251 m 7 Y s 1671 1258
 m cl s 1671 1251 m -6 Y s 1671 1245 m cl s 1706 1202 m -17 X s 1689 1202 m cl s 1706 1202 m 18 X s 1724 1202 m cl s 1706 1202 m 9 Y s 1706 1211 m cl s 1706 1202 m -8 Y s 1706 1194 m cl s 1742 1174 m -18 X s 1724 1174 m cl s 1742 1174 m 18 X s 1760
 1174 m cl s 1742 1174 m 9 Y s 1742 1183 m cl s 1742 1174 m -10 Y s 1742 1164 m cl s 1778 1113 m -18 X s 1760 1113 m cl s 1778 1113 m 18 X s 1796 1113 m cl s 1778 1113 m 12 Y s 1778 1125 m cl s 1778 1113 m -12 Y s 1778 1101 m cl s 1814 1082 m -18 X s
 1796 1082 m cl s 1814 1082 m 18 X s 1832 1082 m cl s 1814 1082 m 13 Y s 1814 1095 m cl s 1814 1082 m -14 Y s 1814 1068 m cl s 1850 1065 m -18 X s 1832 1065 m cl s 1850 1065 m 18 X s 1868 1065 m cl s 1850 1065 m 15 Y s 1850 1080 m cl s 1850 1065 m
 -15 Y s 1850 1050 m cl s 1886 1053 m -18 X s 1868 1053 m cl s 1886 1053 m 18 X s 1904 1053 m cl s 1886 1053 m 15 Y s 1886 1068 m cl s 1886 1053 m -16 Y s 1886 1037 m cl s 1921 976 m -17 X s 1904 976 m cl s 1921 976 m 18 X s 1939 976 m cl s 1921 976
 m 21 Y s 1921 997 m cl s 1921 976 m -21 Y s 1921 955 m cl s 1957 976 m -18 X s 1939 976 m cl s 1957 976 m 18 X s 1975 976 m cl s 1957 976 m 21 Y s 1957 997 m cl s 1957 976 m -21 Y s 1957 955 m cl s 1993 919 m -18 X s 1975 919 m cl s 1993 919 m 18 X
 s 2011 919 m cl s 1993 919 m 26 Y s 1993 945 m cl s 1993 919 m -27 Y s 1993 892 m cl s 2029 905 m -18 X s 2011 905 m cl s 2029 905 m 18 X s 2047 905 m cl s 2029 905 m 28 Y s 2029 933 m cl s 2029 905 m -28 Y s 2029 877 m cl s 2065 884 m -18 X s 2047
 884 m cl s 2065 884 m 18 X s 2083 884 m cl s 2065 884 m 30 Y s 2065 914 m cl s 2065 884 m -31 Y s 2065 853 m cl s 2101 858 m -18 X s 2083 858 m cl s 2101 858 m 18 X s 2119 858 m cl s 2101 858 m 34 Y s 2101 892 m cl s 2101 858 m -34 Y s 2101 824 m cl
 s 2136 843 m -17 X s 2119 843 m cl s 2136 843 m 18 X s 2154 843 m cl s 2136 843 m 36 Y s 2136 879 m cl s 2136 843 m -36 Y s 2136 807 m cl s /w 31 def /w2 {w 2 div} def /w3 {w 3 div} def 381 858 417 895 452 878 488 878 524 914 560 950 596 979 632 960
 667 984 703 957 739 973 775 1009 811 1035 847 1018 882 1049 918 1062 954 1093 990 1106 1026 1116 1062 1166 1097 1127 1133 1177 1169 1196 1205 1242 1241 1265 1276 1298 1312 1339 1348 1364 1384 1394 1420 1411 1456 1420 1491 1417 1527 1390 1563 1360
 1599 1328 1635 1274 1671 1251 1706 1202 1742 1174 1778 1113 1814 1082 1850 1065 1886 1053 1921 976 1957 976 1993 919 2029 905 2065 884 2101 858 2136 843 50 { m20} R 0 1 1 c 1 1 0 c black 1 1 0 c 363 873 m 36 8 d 35 8 d 36 8 d 36 10 d 36 10 d 36 12 d
 36 12 d 35 13 d 36 15 d 36 15 d 36 16 d 36 17 d 36 17 d 35 18 d 36 17 d 36 19 d 36 18 d 36 20 d 36 19 d 35 20 d 36 21 d 36 21 d 18 11 d 18 11 d 18 11 d 18 13 d 18 13 d 9 7 d 9 8 d 9 9 d 8 10 d 9 11 d 9 11 d 18 19 d 18 17 d 18 15 d 18 13 d 9 6 d 9 5
 d 9 5 d 9 4 d 9 4 d 9 3 d 9 2 d 9 2 d 9 1 d 18 X 9 -1 d 9 -2 d 8 -2 d 9 -3 d 9 -4 d 9 -5 d 9 -5 d 9 -5 d 9 -7 d 18 -13 d 18 -17 d 18 -17 d 18 -20 d 18 -21 d 9 -11 d 9 -12 d 9 -12 d 9 -12 d 9 -11 d 9 -13 d 17 -24 d 18 -23 d 18 -23 d 18 -20 d 18 -19 d
 18 -16 d 36 -29 d 36 -25 d 36 -24 d 35 -24 d 36 -24 d 36 -25 d 36 -25 d 36 -26 d 36 -28 d 35 -29 d -72 Y -35 41 d -36 38 d -36 36 d -36 33 d -36 30 d -36 27 d -35 25 d -36 25 d -36 27 d -36 31 d -18 19 d -18 19 d -18 21 d -18 23 d -18 23 d -17 24 d
 -9 12 d -9 13 d -9 12 d -9 12 d -9 12 d -9 12 d -18 23 d -18 21 d -18 19 d -18 17 d -18 15 d -9 6 d -9 6 d -9 5 d -9 4 d -9 3 d -9 3 d -8 3 d -9 2 d -9 1 d -18 X -9 -1 d -9 -1 d -9 -2 d -9 -3 d -9 -4 d -9 -4 d -9 -5 d -9 -5 d -9 -7 d -18 -15 d -18
 -17 d -18 -19 d -18 -22 d -9 -9 d -9 -8 d -8 -9 d -9 -8 d -9 -7 d -9 -8 d -18 -15 d -18 -13 d -18 -13 d -18 -12 d -18 -11 d -36 -21 d -36 -19 d -35 -19 d -36 -19 d -36 -19 d -36 -20 d -36 -20 d -36 -20 d -35 -19 d -36 -19 d -36 -18 d -36 -17 d -36
 -15 d -36 -15 d -35 -14 d -36 -13 d -36 -12 d -36 -11 d -36 -10 d -36 -9 d -35 -9 d -36 -8 d f 0 1 1 c 0 1 0 c black 0 1 0 c 363 867 m 36 8 d 35 8 d 36 9 d 36 10 d 36 10 d 36 12 d 36 12 d 35 14 d 36 14 d 36 16 d 36 16 d 36 17 d 36 17 d 35 18 d 36 19
 d 36 18 d 36 19 d 36 19 d 36 20 d 35 20 d 36 20 d 36 21 d 18 11 d 18 11 d 18 12 d 18 12 d 18 14 d 9 7 d 9 8 d 9 9 d 8 9 d 9 10 d 9 11 d 18 20 d 18 18 d 18 15 d 18 14 d 9 6 d 9 5 d 9 5 d 9 4 d 9 4 d 9 3 d 9 2 d 9 2 d 9 X 9 1 d 9 -1 d 9 -1 d 9 -1 d 8
 -3 d 9 -3 d 9 -4 d 9 -4 d 9 -5 d 9 -6 d 9 -6 d 18 -14 d 18 -16 d 18 -19 d 18 -20 d 18 -21 d 9 -11 d 9 -12 d 9 -12 d 9 -12 d 9 -12 d 9 -12 d 17 -24 d 18 -24 d 18 -22 d 18 -21 d 18 -18 d 18 -17 d 36 -30 d 36 -25 d 36 -25 d 35 -24 d 36 -24 d 36 -26 d
 36 -27 d 36 -28 d 36 -29 d 35 -32 d -35 Y -35 37 d -36 34 d -36 33 d -36 31 d -36 28 d -36 26 d -35 25 d -36 25 d -36 26 d -36 31 d -18 18 d -18 19 d -18 21 d -18 22 d -18 24 d -17 24 d -9 12 d -9 12 d -9 12 d -9 13 d -9 11 d -9 12 d -18 23 d -18 20
 d -18 19 d -18 17 d -18 14 d -9 6 d -9 6 d -9 5 d -9 4 d -9 4 d -9 3 d -8 2 d -9 2 d -9 1 d -9 1 d -9 -1 d -9 X -9 -2 d -9 -2 d -9 -3 d -9 -3 d -9 -5 d -9 -4 d -9 -6 d -9 -6 d -18 -15 d -18 -16 d -18 -19 d -18 -21 d -9 -10 d -9 -9 d -8 -8 d -9 -9 d
 -9 -7 d -9 -8 d -18 -14 d -18 -14 d -18 -12 d -18 -11 d -18 -11 d -36 -21 d -36 -20 d -35 -19 d -36 -20 d -36 -19 d -36 -19 d -36 -20 d -36 -19 d -35 -19 d -36 -18 d -36 -18 d -36 -16 d -36 -16 d -36 -15 d -35 -13 d -36 -13 d -36 -12 d -36 -11 d -36
 -10 d -36 -9 d -35 -8 d -36 -8 d f 0 0 1 c 9 lw black 0 0 1 c 363 861 m 36 8 d 35 8 d 36 9 d 36 10 d 36 11 d 36 11 d 36 13 d 35 13 d 36 15 d 36 16 d 36 16 d 36 17 d 36 18 d 35 19 d 36 18 d 36 19 d 36 20 d 36 19 d 36 19 d 35 20 d 36 20 d 36 21 d 18
 11 d 18 11 d 18 12 d 18 13 d 18 14 d 9 8 d 9 7 d 9 9 d 8 9 d 9 9 d 9 11 d 18 20 d 18 18 d 18 16 d 18 14 d 9 6 d 9 6 d 9 5 d 9 4 d 9 3 d 9 3 d 9 2 d 9 2 d 9 1 d 18 X 9 -1 d 9 -2 d 8 -2 d 9 -3 d 9 -4 d 9 -5 d 9 -4 d 9 -6 d 9 -6 d 18 -15 d 18 -16 d 18
 -19 d 18 -20 d 18 -22 d 9 -11 d 9 -12 d 9 -12 d 9 -12 d 9 -12 d 9 -13 d 17 -24 d 18 -23 d 18 -23 d 18 -20 d 18 -19 d 18 -18 d 36 -30 d 36 -26 d 36 -24 d 35 -25 d 36 -25 d 36 -27 d 36 -28 d 36 -31 d 36 -32 d 35 -33 d s black 3 lw 381 858 m -18 X s
 363 858 m cl s 381 858 m 18 X s 399 858 m cl s 381 858 m 34 Y s 381 892 m cl s 381 858 m -34 Y s 381 824 m cl s 417 895 m -18 X s 399 895 m cl s 417 895 m 17 X s 434 895 m cl s 417 895 m 29 Y s 417 924 m cl s 417 895 m -30 Y s 417 865 m cl s 452 878
 m -18 X s 434 878 m cl s 452 878 m 18 X s 470 878 m cl s 452 878 m 31 Y s 452 909 m cl s 452 878 m -32 Y s 452 846 m cl s 488 878 m -18 X s 470 878 m cl s 488 878 m 18 X s 506 878 m cl s 488 878 m 31 Y s 488 909 m cl s 488 878 m -32 Y s 488 846 m cl
 s 524 914 m -18 X s 506 914 m cl s 524 914 m 18 X s 542 914 m cl s 524 914 m 27 Y s 524 941 m cl s 524 914 m -27 Y s 524 887 m cl s 560 950 m -18 X s 542 950 m cl s 560 950 m 18 X s 578 950 m cl s 560 950 m 23 Y s 560 973 m cl s 560 950 m -23 Y s
 560 927 m cl s 596 979 m -18 X s 578 979 m cl s 596 979 m 18 X s 614 979 m cl s 596 979 m 20 Y s 596 999 m cl s 596 979 m -21 Y s 596 958 m cl s 632 960 m -18 X s 614 960 m cl s 632 960 m 17 X s 649 960 m cl s 632 960 m 23 Y s 632 983 m cl s 632 960
 m -22 Y s 632 938 m cl s 667 984 m -18 X s 649 984 m cl s 667 984 m 18 X s 685 984 m cl s 667 984 m 20 Y s 667 1004 m cl s 667 984 m -20 Y s 667 964 m cl s 703 957 m -18 X s 685 957 m cl s 703 957 m 18 X s 721 957 m cl s 703 957 m 23 Y s 703 980 m
 cl s 703 957 m -23 Y s 703 934 m cl s 739 973 m -18 X s 721 973 m cl s 739 973 m 18 X s 757 973 m cl s 739 973 m 21 Y s 739 994 m cl s 739 973 m -22 Y s 739 951 m cl s 775 1009 m -18 X s 757 1009 m cl s 775 1009 m 18 X s 793 1009 m cl s 775 1009 m
 18 Y s 775 1027 m cl s 775 1009 m -19 Y s 775 990 m cl s 811 1035 m -18 X s 793 1035 m cl s 811 1035 m 18 X s 829 1035 m cl s 811 1035 m 17 Y s 811 1052 m cl s 811 1035 m -16 Y s 811 1019 m cl s 847 1018 m -18 X s 829 1018 m cl s 847 1018 m 17 X s
 864 1018 m cl s 847 1018 m 17 Y s 847 1035 m cl s 847 1018 m -18 Y s 847 1000 m cl s 882 1049 m -18 X s 864 1049 m cl s 882 1049 m 18 X s 900 1049 m cl s 882 1049 m 16 Y s 882 1065 m cl s 882 1049 m -15 Y s 882 1034 m cl s 918 1062 m -18 X s 900
 1062 m cl s 918 1062 m 18 X s 936 1062 m cl s 918 1062 m 15 Y s 918 1077 m cl s 918 1062 m -15 Y s 918 1047 m cl s 954 1093 m -18 X s 936 1093 m cl s 954 1093 m 18 X s 972 1093 m cl s 954 1093 m 12 Y s 954 1105 m cl s 954 1093 m -13 Y s 954 1080 m
 cl s 990 1106 m -18 X s 972 1106 m cl s 990 1106 m 18 X s 1008 1106 m cl s 990 1106 m 12 Y s 990 1118 m cl s 990 1106 m -11 Y s 990 1095 m cl s 1026 1116 m -18 X s 1008 1116 m cl s 1026 1116 m 18 X s 1044 1116 m cl s 1026 1116 m 11 Y s 1026 1127 m
 cl s 1026 1116 m -12 Y s 1026 1104 m cl s 1062 1166 m -18 X s 1044 1166 m cl s 1062 1166 m 17 X s 1079 1166 m cl s 1062 1166 m 10 Y s 1062 1176 m cl s 1062 1166 m -9 Y s 1062 1157 m cl s 1097 1127 m -18 X s 1079 1127 m cl s 1097 1127 m 18 X s 1115
 1127 m cl s 1097 1127 m 12 Y s 1097 1139 m cl s 1097 1127 m -11 Y s 1097 1116 m cl s 1133 1177 m -18 X s 1115 1177 m cl s 1133 1177 m 18 X s 1151 1177 m cl s 1133 1177 m 9 Y s 1133 1186 m cl s 1133 1177 m -9 Y s 1133 1168 m cl s 1169 1196 m -18 X s
 1151 1196 m cl s 1169 1196 m 18 X s 1187 1196 m cl s 1169 1196 m 9 Y s 1169 1205 m cl s 1169 1196 m -8 Y s 1169 1188 m cl s 1205 1242 m -18 X s 1187 1242 m cl s 1205 1242 m 18 X s 1223 1242 m cl s 1205 1242 m 7 Y s 1205 1249 m cl s 1205 1242 m -7 Y
 s 1205 1235 m cl s 1241 1265 m -18 X s 1223 1265 m cl s 1241 1265 m 18 X s 1259 1265 m cl s 1241 1265 m 7 Y s 1241 1272 m cl s 1241 1265 m -7 Y s 1241 1258 m cl s 1276 1298 m -17 X s 1259 1298 m cl s 1276 1298 m 18 X s 1294 1298 m cl s 1276 1298 m 6
 Y s 1276 1304 m cl s 1276 1298 m -5 Y s 1276 1293 m cl s 1312 1339 m -18 X s 1294 1339 m cl s 1312 1339 m 18 X s 1330 1339 m cl s 1312 1339 m 5 Y s 1312 1344 m cl s 1312 1339 m -5 Y s 1312 1334 m cl s 1348 1364 m -18 X s 1330 1364 m cl s 1348 1364 m
 18 X s 1366 1364 m cl s 1348 1364 m 4 Y s 1348 1368 m cl s 1348 1364 m -5 Y s 1348 1359 m cl s 1384 1394 m -18 X s 1366 1394 m cl s 1384 1394 m 18 X s 1402 1394 m cl s 1384 1394 m 4 Y s 1384 1398 m cl s 1384 1394 m -4 Y s 1384 1390 m cl s 1420 1411
 m -18 X s 1402 1411 m cl s 1420 1411 m 18 X s 1438 1411 m cl s 1420 1411 m 4 Y s 1420 1415 m cl s 1420 1411 m -4 Y s 1420 1407 m cl s 1456 1420 m -18 X s 1438 1420 m cl s 1456 1420 m 18 X s 1474 1420 m cl s 1456 1420 m 4 Y s 1456 1424 m cl s 1456
 1420 m -4 Y s 1456 1416 m cl s 1491 1417 m -17 X s 1474 1417 m cl s 1491 1417 m 18 X s 1509 1417 m cl s 1491 1417 m 3 Y s 1491 1420 m cl s 1491 1417 m -4 Y s 1491 1413 m cl s 1527 1390 m -18 X s 1509 1390 m cl s 1527 1390 m 18 X s 1545 1390 m cl s
 1527 1390 m 4 Y s 1527 1394 m cl s 1527 1390 m -4 Y s 1527 1386 m cl s 1563 1360 m -18 X s 1545 1360 m cl s 1563 1360 m 18 X s 1581 1360 m cl s 1563 1360 m 5 Y s 1563 1365 m cl s 1563 1360 m -4 Y s 1563 1356 m cl s 1599 1328 m -18 X s 1581 1328 m cl
 s 1599 1328 m 18 X s 1617 1328 m cl s 1599 1328 m 5 Y s 1599 1333 m cl s 1599 1328 m -6 Y s 1599 1322 m cl s 1635 1274 m -18 X s 1617 1274 m cl s 1635 1274 m 18 X s 1653 1274 m cl s 1635 1274 m 7 Y s 1635 1281 m cl s 1635 1274 m -6 Y s 1635 1268 m
 cl s 1671 1251 m -18 X s 1653 1251 m cl s 1671 1251 m 18 X s 1689 1251 m cl s 1671 1251 m 7 Y s 1671 1258 m cl s 1671 1251 m -6 Y s 1671 1245 m cl s 1706 1202 m -17 X s 1689 1202 m cl s 1706 1202 m 18 X s 1724 1202 m cl s 1706 1202 m 9 Y s 1706 1211
 m cl s 1706 1202 m -8 Y s 1706 1194 m cl s 1742 1174 m -18 X s 1724 1174 m cl s 1742 1174 m 18 X s 1760 1174 m cl s 1742 1174 m 9 Y s 1742 1183 m cl s 1742 1174 m -10 Y s 1742 1164 m cl s 1778 1113 m -18 X s 1760 1113 m cl s 1778 1113 m 18 X s 1796
 1113 m cl s 1778 1113 m 12 Y s 1778 1125 m cl s 1778 1113 m -12 Y s 1778 1101 m cl s 1814 1082 m -18 X s 1796 1082 m cl s 1814 1082 m 18 X s 1832 1082 m cl s 1814 1082 m 13 Y s 1814 1095 m cl s 1814 1082 m -14 Y s 1814 1068 m cl s 1850 1065 m -18 X
 s 1832 1065 m cl s 1850 1065 m 18 X s 1868 1065 m cl s 1850 1065 m 15 Y s 1850 1080 m cl s 1850 1065 m -15 Y s 1850 1050 m cl s 1886 1053 m -18 X s 1868 1053 m cl s 1886 1053 m 18 X s 1904 1053 m cl s 1886 1053 m 15 Y s 1886 1068 m cl s 1886 1053 m
 -16 Y s 1886 1037 m cl s 1921 976 m -17 X s 1904 976 m cl s 1921 976 m 18 X s 1939 976 m cl s 1921 976 m 21 Y s 1921 997 m cl s 1921 976 m -21 Y s 1921 955 m cl s 1957 976 m -18 X s 1939 976 m cl s 1957 976 m 18 X s 1975 976 m cl s 1957 976 m 21 Y s
 1957 997 m cl s 1957 976 m -21 Y s 1957 955 m cl s 1993 919 m -18 X s 1975 919 m cl s 1993 919 m 18 X s 2011 919 m cl s 1993 919 m 26 Y s 1993 945 m cl s 1993 919 m -27 Y s 1993 892 m cl s 2029 905 m -18 X s 2011 905 m cl s 2029 905 m 18 X s 2047
 905 m cl s 2029 905 m 28 Y s 2029 933 m cl s 2029 905 m -28 Y s 2029 877 m cl s 2065 884 m -18 X s 2047 884 m cl s 2065 884 m 18 X s 2083 884 m cl s 2065 884 m 30 Y s 2065 914 m cl s 2065 884 m -31 Y s 2065 853 m cl s 2101 858 m -18 X s 2083 858 m
 cl s 2101 858 m 18 X s 2119 858 m cl s 2101 858 m 34 Y s 2101 892 m cl s 2101 858 m -34 Y s 2101 824 m cl s 2136 843 m -17 X s 2119 843 m cl s 2136 843 m 18 X s 2154 843 m cl s 2136 843 m 36 Y s 2136 879 m cl s 2136 843 m -36 Y s 2136 807 m cl s 381
 858 417 895 452 878 488 878 524 914 560 950 596 979 632 960 667 984 703 957 739 973 775 1009 811 1035 847 1018 882 1049 918 1062 954 1093 990 1106 1026 1116 1062 1166 1097 1127 1133 1177 1169 1196 1205 1242 1241 1265 1276 1298 1312 1339 1348 1364
 1384 1394 1420 1411 1456 1420 1491 1417 1527 1390 1563 1360 1599 1328 1635 1274 1671 1251 1706 1202 1742 1174 1778 1113 1814 1082 1850 1065 1886 1053 1921 976 1957 976 1993 919 2029 905 2065 884 2101 858 2136 843 50 { m20} R 0.52 0.76 0.64 c[ 4 8] 0
 sd 9 lw black 0.52 0.76 0.64 c 363 859 m 36 7 d 35 7 d 36 7 d 36 8 d 36 8 d 36 8 d 36 8 d 35 9 d 36 10 d 36 10 d 36 10 d 36 11 d 36 12 d 35 12 d 36 13 d 36 14 d 36 16 d 36 16 d 36 18 d 35 20 d 36 21 d 36 25 d 18 13 d 18 15 d 18 15 d 18 17 d 18 19 d
 9 10 d 9 10 d 9 11 d 8 12 d 9 12 d 9 13 d 18 26 d 18 22 d 18 19 d 18 17 d 9 7 d 9 6 d 9 5 d 9 5 d 9 4 d 9 3 d 9 3 d 9 2 d 9 1 d 18 X 9 -2 d 9 -2 d 8 -2 d 9 -4 d 9 -4 d 9 -5 d 9 -6 d 9 -6 d 9 -7 d 18 -17 d 18 -20 d 18 -22 d 18 -26 d 9 -14 d 9 -15 d 9
 -15 d 9 -16 d 9 -17 d 9 -18 d 9 -18 d 9 -20 d 8 -19 d 9 -21 d 18 -44 d 18 -46 d 18 -50 d 18 -53 d 18 -55 d 36 -120 d 26 -98 d s 0.54 0.66 0.63 c black 0.54 0.66 0.63 c 592 634 m 22 26 d s 614 660 m 35 40 d 36 39 d 36 37 d 36 36 d 36 34 d 36 31 d 35
 30 d 36 29 d 36 26 d 36 25 d 36 23 d 36 21 d 35 20 d 36 18 d 36 15 d 36 15 d 36 12 d 36 11 d 35 8 d 18 4 d 18 3 d 18 3 d 18 3 d 18 2 d 18 1 d 18 1 d 18 1 d 36 X 17 -1 d 18 -1 d 18 -2 d 18 -2 d 18 -2 d 18 -3 d 18 -3 d 18 -4 d 36 -9 d 36 -11 d 35 -12
 d 36 -15 d 36 -16 d 36 -17 d 36 -20 d 36 -21 d 35 -23 d 36 -25 d 36 -27 d 36 -28 d 36 -31 d 36 -32 d 35 -33 d s black[  ] 0 sd 3 lw 363 634 m 1791 X s 619 659 m -25 Y s 676 646 m -12 Y s 733 646 m -12 Y s 789 646 m -12 Y s 846 646 m -12 Y s 903 659
 m -25 Y s 960 646 m -12 Y s 1017 646 m -12 Y s 1074 646 m -12 Y s 1131 646 m -12 Y s 1187 659 m -25 Y s 1244 646 m -12 Y s 1301 646 m -12 Y s 1358 646 m -12 Y s 1415 646 m -12 Y s 1472 659 m -25 Y s 1529 646 m -12 Y s 1586 646 m -12 Y s 1642 646 m
 -12 Y s 1699 646 m -12 Y s 1756 659 m -25 Y s 1813 646 m -12 Y s 1870 646 m -12 Y s 1927 646 m -12 Y s 1984 646 m -12 Y s 2041 659 m -25 Y s 619 659 m -25 Y s 562 646 m -12 Y s 505 646 m -12 Y s 448 646 m -12 Y s 391 646 m -12 Y s 2041 659 m -25 Y s
 2097 646 m -12 Y s 363 1484 m 1791 X s 619 1459 m 25 Y s 676 1471 m 13 Y s 733 1471 m 13 Y s 789 1471 m 13 Y s 846 1471 m 13 Y s 903 1459 m 25 Y s 960 1471 m 13 Y s 1017 1471 m 13 Y s 1074 1471 m 13 Y s 1131 1471 m 13 Y s 1187 1459 m 25 Y s 1244
 1471 m 13 Y s 1301 1471 m 13 Y s 1358 1471 m 13 Y s 1415 1471 m 13 Y s 1472 1459 m 25 Y s 1529 1471 m 13 Y s 1586 1471 m 13 Y s 1642 1471 m 13 Y s 1699 1471 m 13 Y s 1756 1459 m 25 Y s 1813 1471 m 13 Y s 1870 1471 m 13 Y s 1927 1471 m 13 Y s 1984
 1471 m 13 Y s 2041 1459 m 25 Y s 619 1459 m 25 Y s 562 1471 m 13 Y s 505 1471 m 13 Y s 448 1471 m 13 Y s 391 1471 m 13 Y s 2041 1459 m 25 Y s 2097 1471 m 13 Y s 363 634 m 850 Y s 390 651 m -27 X s 390 681 m -27 X s 390 705 m -27 X s 390 725 m -27 X
 s 390 743 m -27 X s 390 759 m -27 X s 417 773 m -54 X s 390 865 m -27 X s 390 919 m -27 X s 390 957 m -27 X s 390 987 m -27 X s 390 1011 m -27 X s 390 1032 m -27 X s 390 1049 m -27 X s 390 1065 m -27 X s 417 1079 m -54 X s 390 1171 m -27 X s 390
 1225 m -27 X s 390 1263 m -27 X s 390 1293 m -27 X s 390 1317 m -27 X s 390 1338 m -27 X s 390 1355 m -27 X s 390 1371 m -27 X s 417 1385 m -54 X s 390 1477 m -27 X s 2154 634 m 850 Y s 2127 651 m 27 X s 2127 681 m 27 X s 2127 705 m 27 X s 2127 725
 m 27 X s 2127 743 m 27 X s 2127 759 m 27 X s 2101 773 m 53 X s 2127 865 m 27 X s 2127 919 m 27 X s 2127 957 m 27 X s 2127 987 m 27 X s 2127 1011 m 27 X s 2127 1032 m 27 X s 2127 1049 m 27 X s 2127 1065 m 27 X s 2101 1079 m 53 X s 2127 1171 m 27 X s
 2127 1225 m 27 X s 2127 1263 m 27 X s 2127 1293 m 27 X s 2127 1317 m 27 X s 2127 1338 m 27 X s 2127 1355 m 27 X s 2127 1371 m 27 X s 2101 1385 m 53 X s 2127 1477 m 27 X s
 gsave  2268 1077 0 461 C 677.708 1215.31 t 0 r /Helvetica findfont 58.7189 sf 0 0 m (2mu2e) show NC gr  1 1 1 c 453 161 454 1269 bf black
 gsave  2268 1077 0 461 C 566.929 1371.71 t 0 r /Helvetica-Bold findfont 48.9324 sf 0 0 m (MC15) show NC gr  510 1390 m20
 gsave  2268 1077 0 461 C 566.929 1293.51 t 0 r /Helvetica-Bold findfont 48.9324 sf 0 0 m (Projection of Signal pdf) show NC gr  0 0 1 c 9 lw 471 1309 m 79 X s black 3 lw 1 1 1 c 2268 461 0 0 bf black 1 1 1 c 1791 364 363 74 bf black 1791 364 363 74
 bl 363 74 m 1791 X s
 gsave  2268 461 0 0 C 1915.83 13.0329 t 0 r /Helvetica findfont 22.9045 sf 0 0 m (4l Invariant Mass \(GeV\)) show NC gr  619 85 m -11 Y s 676 79 m -5 Y s 733 79 m -5 Y s 789 79 m -5 Y s 846 79 m -5 Y s 903 85 m -11 Y s 960 79 m -5 Y s 1017 79 m -5 Y
 s 1074 79 m -5 Y s 1131 79 m -5 Y s 1187 85 m -11 Y s 1244 79 m -5 Y s 1301 79 m -5 Y s 1358 79 m -5 Y s 1415 79 m -5 Y s 1472 85 m -11 Y s 1529 79 m -5 Y s 1586 79 m -5 Y s 1642 79 m -5 Y s 1699 79 m -5 Y s 1756 85 m -11 Y s 1813 79 m -5 Y s 1870
 79 m -5 Y s 1927 79 m -5 Y s 1984 79 m -5 Y s 2041 85 m -11 Y s 619 85 m -11 Y s 562 79 m -5 Y s 505 79 m -5 Y s 448 79 m -5 Y s 391 79 m -5 Y s 2041 85 m -11 Y s 2097 79 m -5 Y s
 gsave  2268 461 0 0 C 589.737 55.3896 t 0 r /Helvetica findfont 22.9045 sf 0 0 m (1450) show NC gr 
 gsave  2268 461 0 0 C 876.459 55.3896 t 0 r /Helvetica findfont 22.9045 sf 0 0 m (1500) show NC gr 
 gsave  2268 461 0 0 C 1159.92 55.3896 t 0 r /Helvetica findfont 22.9045 sf 0 0 m (1550) show NC gr 
 gsave  2268 461 0 0 C 1443.39 55.3896 t 0 r /Helvetica findfont 22.9045 sf 0 0 m (1600) show NC gr 
 gsave  2268 461 0 0 C 1730.11 55.3896 t 0 r /Helvetica findfont 22.9045 sf 0 0 m (1650) show NC gr 
 gsave  2268 461 0 0 C 2013.58 55.3896 t 0 r /Helvetica findfont 22.9045 sf 0 0 m (1700) show NC gr  363 438 m 1791 X s 619 427 m 11 Y s 676 433 m 5 Y s 733 433 m 5 Y s 789 433 m 5 Y s 846 433 m 5 Y s 903 427 m 11 Y s 960 433 m 5 Y s 1017 433 m 5 Y s
 1074 433 m 5 Y s 1131 433 m 5 Y s 1187 427 m 11 Y s 1244 433 m 5 Y s 1301 433 m 5 Y s 1358 433 m 5 Y s 1415 433 m 5 Y s 1472 427 m 11 Y s 1529 433 m 5 Y s 1586 433 m 5 Y s 1642 433 m 5 Y s 1699 433 m 5 Y s 1756 427 m 11 Y s 1813 433 m 5 Y s 1870 433
 m 5 Y s 1927 433 m 5 Y s 1984 433 m 5 Y s 2041 427 m 11 Y s 619 427 m 11 Y s 562 433 m 5 Y s 505 433 m 5 Y s 448 433 m 5 Y s 391 433 m 5 Y s 2041 427 m 11 Y s 2097 433 m 5 Y s 363 74 m 364 Y s 417 74 m -54 X s 390 81 m -27 X s 390 88 m -27 X s 390
 96 m -27 X s 390 103 m -27 X s 417 110 m -54 X s 390 118 m -27 X s 390 125 m -27 X s 390 132 m -27 X s 390 139 m -27 X s 417 147 m -54 X s 390 154 m -27 X s 390 161 m -27 X s 390 169 m -27 X s 390 176 m -27 X s 417 183 m -54 X s 390 190 m -27 X s
 390 198 m -27 X s 390 205 m -27 X s 390 212 m -27 X s 417 220 m -54 X s 390 227 m -27 X s 390 234 m -27 X s 390 241 m -27 X s 390 249 m -27 X s 417 256 m -54 X s 390 263 m -27 X s 390 271 m -27 X s 390 278 m -27 X s 390 285 m -27 X s 417 293 m -54 X
 s 390 300 m -27 X s 390 307 m -27 X s 390 314 m -27 X s 390 322 m -27 X s 417 329 m -54 X s 390 336 m -27 X s 390 344 m -27 X s 390 351 m -27 X s 390 358 m -27 X s 417 365 m -54 X s 390 373 m -27 X s 390 380 m -27 X s 390 387 m -27 X s 390 395 m -27
 X s 417 402 m -54 X s 390 409 m -27 X s 390 416 m -27 X s 390 424 m -27 X s 390 431 m -27 X s 417 438 m -54 X s
 gsave  2268 461 0 0 C 329.08 65.1643 t 0 r /Helvetica findfont 22.9045 sf 0 0 m (\2555) show NC gr 
 gsave  2268 461 0 0 C 329.08 101.005 t 0 r /Helvetica findfont 22.9045 sf 0 0 m (\2554) show NC gr 
 gsave  2268 461 0 0 C 329.08 140.103 t 0 r /Helvetica findfont 22.9045 sf 0 0 m (\2553) show NC gr 
 gsave  2268 461 0 0 C 329.08 175.944 t 0 r /Helvetica findfont 22.9045 sf 0 0 m (\2552) show NC gr 
 gsave  2268 461 0 0 C 332.338 211.784 t 0 r /Helvetica findfont 22.9045 sf 0 0 m (\2551) show NC gr 
 gsave  2268 461 0 0 C 335.596 247.624 t 0 r /Helvetica findfont 22.9045 sf 0 0 m (0) show NC gr 
 gsave  2268 461 0 0 C 338.854 283.465 t 0 r /Helvetica findfont 22.9045 sf 0 0 m (1) show NC gr 
 gsave  2268 461 0 0 C 335.596 319.305 t 0 r /Helvetica findfont 22.9045 sf 0 0 m (2) show NC gr 
 gsave  2268 461 0 0 C 335.596 358.403 t 0 r /Helvetica findfont 22.9045 sf 0 0 m (3) show NC gr 
 gsave  2268 461 0 0 C 335.596 394.244 t 0 r /Helvetica findfont 22.9045 sf 0 0 m (4) show NC gr 
 gsave  2268 461 0 0 C 335.596 430.084 t 0 r /Helvetica findfont 22.9045 sf 0 0 m (5) show NC gr  2154 74 m 364 Y s 2101 74 m 53 X s 2127 81 m 27 X s 2127 88 m 27 X s 2127 96 m 27 X s 2127 103 m 27 X s 2101 110 m 53 X s 2127 118 m 27 X s 2127 125 m
 27 X s 2127 132 m 27 X s 2127 139 m 27 X s 2101 147 m 53 X s 2127 154 m 27 X s 2127 161 m 27 X s 2127 169 m 27 X s 2127 176 m 27 X s 2101 183 m 53 X s 2127 190 m 27 X s 2127 198 m 27 X s 2127 205 m 27 X s 2127 212 m 27 X s 2101 220 m 53 X s 2127 227
 m 27 X s 2127 234 m 27 X s 2127 241 m 27 X s 2127 249 m 27 X s 2101 256 m 53 X s 2127 263 m 27 X s 2127 271 m 27 X s 2127 278 m 27 X s 2127 285 m 27 X s 2101 293 m 53 X s 2127 300 m 27 X s 2127 307 m 27 X s 2127 314 m 27 X s 2127 322 m 27 X s 2101
 329 m 53 X s 2127 336 m 27 X s 2127 344 m 27 X s 2127 351 m 27 X s 2127 358 m 27 X s 2101 365 m 53 X s 2127 373 m 27 X s 2127 380 m 27 X s 2127 387 m 27 X s 2127 395 m 27 X s 2101 402 m 53 X s 2127 409 m 27 X s 2127 416 m 27 X s 2127 424 m 27 X s
 2127 431 m 27 X s 2101 438 m 53 X s 6 lw 0.2 0.8 0.2 c black 3 lw 0.2 0.8 0.2 c 363 256 m -7 Y 36 X 34 Y 35 X -31 Y 36 X -11 Y 36 X 33 Y 36 X 38 Y 36 X 28 Y 36 X -47 Y 35 X 18 Y 36 X -70 Y 36 X -2 Y 36 X 35 Y 36 X 21 Y 36 X -77 Y 35 X 27 Y 36 X -16
 Y 36 X 28 Y 36 X -16 Y 36 X -33 Y 36 X 108 Y 35 X -219 Y 36 X 104 Y 36 X -11 Y 36 X 101 Y 36 X -19 Y 36 X 7 Y 35 X 4 Y 36 X -72 Y 36 X 37 Y 36 X 15 Y 36 X 40 Y 36 X 21 Y 35 X -102 Y 36 X -24 Y 36 X 24 Y 36 X -58 Y 36 X 138 Y 36 X -10 Y 35 X 57 Y 36
 X -80 Y 72 X 27 Y 36 X 25 Y 36 X -106 Y 35 X 44 Y 36 X -44 Y 36 X 21 Y 36 X 11 Y 36 X 7 Y 36 X 19 Y 35 X -17 Y f 6 lw black 0.2 0.8 0.2 c black 363 249 m 36 X 34 Y 35 X -31 Y 36 X -11 Y 36 X 33 Y 36 X 38 Y 36 X 28 Y 36 X -47 Y 35 X 18 Y 36 X -70 Y
 36 X -2 Y 36 X 35 Y 36 X 21 Y 36 X -77 Y 35 X 27 Y 36 X -16 Y 36 X 28 Y 36 X -16 Y 36 X -33 Y 36 X 108 Y 35 X -219 Y 36 X 104 Y 36 X -11 Y 36 X 101 Y 36 X -19 Y 36 X 7 Y 35 X 4 Y 36 X -72 Y 36 X 37 Y 36 X 15 Y 36 X 40 Y 36 X 21 Y 35 X -102 Y 36 X
 -24 Y 36 X 24 Y 36 X -58 Y 36 X 138 Y 36 X -10 Y 35 X 57 Y 36 X -80 Y 72 X 27 Y 36 X 25 Y 36 X -106 Y 35 X 44 Y 36 X -44 Y 36 X 21 Y 36 X 11 Y 36 X 7 Y 36 X 19 Y 35 X s 3 lw 363 74 m 1791 X s 619 85 m -11 Y s 676 79 m -5 Y s 733 79 m -5 Y s 789 79 m
 -5 Y s 846 79 m -5 Y s 903 85 m -11 Y s 960 79 m -5 Y s 1017 79 m -5 Y s 1074 79 m -5 Y s 1131 79 m -5 Y s 1187 85 m -11 Y s 1244 79 m -5 Y s 1301 79 m -5 Y s 1358 79 m -5 Y s 1415 79 m -5 Y s 1472 85 m -11 Y s 1529 79 m -5 Y s 1586 79 m -5 Y s 1642
 79 m -5 Y s 1699 79 m -5 Y s 1756 85 m -11 Y s 1813 79 m -5 Y s 1870 79 m -5 Y s 1927 79 m -5 Y s 1984 79 m -5 Y s 2041 85 m -11 Y s 619 85 m -11 Y s 562 79 m -5 Y s 505 79 m -5 Y s 448 79 m -5 Y s 391 79 m -5 Y s 2041 85 m -11 Y s 2097 79 m -5 Y s
 363 438 m 1791 X s 619 427 m 11 Y s 676 433 m 5 Y s 733 433 m 5 Y s 789 433 m 5 Y s 846 433 m 5 Y s 903 427 m 11 Y s 960 433 m 5 Y s 1017 433 m 5 Y s 1074 433 m 5 Y s 1131 433 m 5 Y s 1187 427 m 11 Y s 1244 433 m 5 Y s 1301 433 m 5 Y s 1358 433 m 5
 Y s 1415 433 m 5 Y s 1472 427 m 11 Y s 1529 433 m 5 Y s 1586 433 m 5 Y s 1642 433 m 5 Y s 1699 433 m 5 Y s 1756 427 m 11 Y s 1813 433 m 5 Y s 1870 433 m 5 Y s 1927 433 m 5 Y s 1984 433 m 5 Y s 2041 427 m 11 Y s 619 427 m 11 Y s 562 433 m 5 Y s 505
 433 m 5 Y s 448 433 m 5 Y s 391 433 m 5 Y s 2041 427 m 11 Y s 2097 433 m 5 Y s 363 74 m 364 Y s 417 74 m -54 X s 390 81 m -27 X s 390 88 m -27 X s 390 96 m -27 X s 390 103 m -27 X s 417 110 m -54 X s 390 118 m -27 X s 390 125 m -27 X s 390 132 m -27
 X s 390 139 m -27 X s 417 147 m -54 X s 390 154 m -27 X s 390 161 m -27 X s 390 169 m -27 X s 390 176 m -27 X s 417 183 m -54 X s 390 190 m -27 X s 390 198 m -27 X s 390 205 m -27 X s 390 212 m -27 X s 417 220 m -54 X s 390 227 m -27 X s 390 234 m
 -27 X s 390 241 m -27 X s 390 249 m -27 X s 417 256 m -54 X s 390 263 m -27 X s 390 271 m -27 X s 390 278 m -27 X s 390 285 m -27 X s 417 293 m -54 X s 390 300 m -27 X s 390 307 m -27 X s 390 314 m -27 X s 390 322 m -27 X s 417 329 m -54 X s 390 336
 m -27 X s 390 344 m -27 X s 390 351 m -27 X s 390 358 m -27 X s 417 365 m -54 X s 390 373 m -27 X s 390 380 m -27 X s 390 387 m -27 X s 390 395 m -27 X s 417 402 m -54 X s 390 409 m -27 X s 390 416 m -27 X s 390 424 m -27 X s 390 431 m -27 X s 417
 438 m -54 X s 2154 74 m 364 Y s 2101 74 m 53 X s 2127 81 m 27 X s 2127 88 m 27 X s 2127 96 m 27 X s 2127 103 m 27 X s 2101 110 m 53 X s 2127 118 m 27 X s 2127 125 m 27 X s 2127 132 m 27 X s 2127 139 m 27 X s 2101 147 m 53 X s 2127 154 m 27 X s 2127
 161 m 27 X s 2127 169 m 27 X s 2127 176 m 27 X s 2101 183 m 53 X s 2127 190 m 27 X s 2127 198 m 27 X s 2127 205 m 27 X s 2127 212 m 27 X s 2101 220 m 53 X s 2127 227 m 27 X s 2127 234 m 27 X s 2127 241 m 27 X s 2127 249 m 27 X s 2101 256 m 53 X s
 2127 263 m 27 X s 2127 271 m 27 X s 2127 278 m 27 X s 2127 285 m 27 X s 2101 293 m 53 X s 2127 300 m 27 X s 2127 307 m 27 X s 2127 314 m 27 X s 2127 322 m 27 X s 2101 329 m 53 X s 2127 336 m 27 X s 2127 344 m 27 X s 2127 351 m 27 X s 2127 358 m 27 X
 s 2101 365 m 53 X s 2127 373 m 27 X s 2127 380 m 27 X s 2127 387 m 27 X s 2127 395 m 27 X s 2101 402 m 53 X s 2127 409 m 27 X s 2127 416 m 27 X s 2127 424 m 27 X s 2127 431 m 27 X s 2101 438 m 53 X s
 gr  gr showpage
end
%%EOF
