%!PS-Adobe-2.0 EPSF-2.0
%%BoundingBox:  0 0 567 384
%%Title: H4l2015_plotfit/VBF_graph_YieldCheck_4e.eps: 
%%Creator: ROOT Version 5.34/07
%%CreationDate: Mon Nov  9 16:30:45 2015
%%EndComments
%%BeginProlog
80 dict begin
/s {stroke} def /l {lineto} def /m {moveto} def /t {translate} def
/r {rotate} def /rl {roll}  def /R {repeat} def
/d {rlineto} def /rm {rmoveto} def /gr {grestore} def /f {eofill} def
/c {setrgbcolor} def /black {0 setgray} def /sd {setdash} def
/cl {closepath} def /sf {scalefont setfont} def /lw {setlinewidth} def
/box {m dup 0 exch d exch 0 d 0 exch neg d cl} def
/NC{systemdict begin initclip end}def/C{NC box clip newpath}def
/bl {box s} def /bf {box f} def /Y { 0 exch d} def /X { 0 d} def 
/K {{pop pop 0 moveto} exch kshow} bind def
/ita {/ang 15 def gsave [1 0 ang dup sin exch cos div 1 0 0] concat} def 
/mp {newpath /y exch def /x exch def} def
/side {[w .77 mul w .23 mul] .385 w mul sd w 0 l currentpoint t -144 r} def
/mr {mp x y w2 0 360 arc} def /m24 {mr s} def /m20 {mr f} def
/mb {mp x y w2 add m w2 neg 0 d 0 w neg d w 0 d 0 w d cl} def
/mt {mp x y w2 add m w2 neg w neg d w 0 d cl} def
/m21 {mb f} def /m25 {mb s} def /m22 {mt f} def /m26{mt s} def
/m23 {mp x y w2 sub m w2 w d w neg 0 d cl f} def
/m27 {mp x y w2 add m w3 neg w2 neg d w3 w2 neg d w3 w2 d cl s} def
/m28 {mp x w2 sub y w2 sub w3 add m w3 0 d  0 w3 neg d w3 0 d 0 w3 d w3 0 d  0 w3 d w3 neg 0 d 0 w3 d w3 neg 0 d 0 w3 neg d w3 neg 0 d cl s } def
/m29 {mp gsave x w2 sub y w2 add w3 sub m currentpoint t 4 {side} repeat cl fill gr} def
/m30 {mp gsave x w2 sub y w2 add w3 sub m currentpoint t 4 {side} repeat cl s gr} def
/m31 {mp x y w2 sub m 0 w d x w2 sub y m w 0 d x w2 sub y w2 add m w w neg d x w2 sub y w2 sub m w w d s} def
/m32 {mp x y w2 sub m w2 w d w neg 0 d cl s} def
/m33 {mp x y w2 add m w3 neg w2 neg d w3 w2 neg d w3 w2 d cl f} def
/m34 {mp x w2 sub y w2 sub w3 add m w3 0 d  0 w3 neg d w3 0 d 0 w3 d w3 0 d  0 w3 d w3 neg 0 d 0 w3 d w3 neg 0 d 0 w3 neg d w3 neg 0 d cl f } def
/m2 {mp x y w2 sub m 0 w d x w2 sub y m w 0 d s} def
/m5 {mp x w2 sub y w2 sub m w w d x w2 sub y w2 add m w w neg d s} def
/reEncode {exch findfont dup length dict begin {1 index /FID eq  {pop pop} {def} ifelse } forall /Encoding exch def currentdict end dup /FontName get exch definefont pop } def [/Times-Bold /Times-Italic /Times-BoldItalic /Helvetica /Helvetica-Oblique
 /Helvetica-Bold /Helvetica-BoldOblique /Courier /Courier-Oblique /Courier-Bold /Courier-BoldOblique /Times-Roman /AvantGarde-Book /AvantGarde-BookOblique /AvantGarde-Demi /AvantGarde-DemiOblique /Bookman-Demi /Bookman-DemiItalic /Bookman-Light
 /Bookman-LightItalic /Helvetica-Narrow /Helvetica-Narrow-Bold /Helvetica-Narrow-BoldOblique /Helvetica-Narrow-Oblique /NewCenturySchlbk-Roman /NewCenturySchlbk-Bold /NewCenturySchlbk-BoldItalic /NewCenturySchlbk-Italic /Palatino-Bold
 /Palatino-BoldItalic /Palatino-Italic /Palatino-Roman ] {ISOLatin1Encoding reEncode } forall
%%EndProlog
%%BeginSetup
%%EndSetup
newpath  gsave  .25 .25 scale  gsave  0 0 t black[  ] 0 sd 3 lw 1 1 1 c 2268 1538 0 0 bf black 1 1 1 c 1791 1215 363 246 bf black 1791 1215 363 246 bl 363 246 m 1791 X s
 gsave  2268 1538 0 0 C 1765.95 52.1314 t 0 r /Helvetica findfont 71.6807 sf 0 0 m (m\(4e\) [GeV]) show NC gr  512 283 m -37 Y s 549 264 m -18 Y s 587 264 m -18 Y s 624 264 m -18 Y s 661 264 m -18 Y s 699 283 m -37 Y s 736 264 m -18 Y s 773 264 m -18
 Y s 811 264 m -18 Y s 848 264 m -18 Y s 885 283 m -37 Y s 923 264 m -18 Y s 960 264 m -18 Y s 997 264 m -18 Y s 1035 264 m -18 Y s 1072 283 m -37 Y s 1109 264 m -18 Y s 1147 264 m -18 Y s 1184 264 m -18 Y s 1221 264 m -18 Y s 1259 283 m -37 Y s 1296
 264 m -18 Y s 1333 264 m -18 Y s 1371 264 m -18 Y s 1408 264 m -18 Y s 1445 283 m -37 Y s 1483 264 m -18 Y s 1520 264 m -18 Y s 1557 264 m -18 Y s 1594 264 m -18 Y s 1632 283 m -37 Y s 1669 264 m -18 Y s 1706 264 m -18 Y s 1744 264 m -18 Y s 1781
 264 m -18 Y s 1818 283 m -37 Y s 1856 264 m -18 Y s 1893 264 m -18 Y s 1930 264 m -18 Y s 1968 264 m -18 Y s 2005 283 m -37 Y s 512 283 m -37 Y s 475 264 m -18 Y s 437 264 m -18 Y s 400 264 m -18 Y s 363 264 m -18 Y s 2005 283 m -37 Y s 2042 264 m
 -18 Y s 2080 264 m -18 Y s 2117 264 m -18 Y s 2154 264 m -18 Y s
 gsave  2268 1538 0 0 C 452.892 179.202 t 0 r /Helvetica findfont 71.6807 sf 0 0 m (200) show NC gr 
 gsave  2268 1538 0 0 C 638.61 179.202 t 0 r /Helvetica findfont 71.6807 sf 0 0 m (300) show NC gr 
 gsave  2268 1538 0 0 C 824.328 179.202 t 0 r /Helvetica findfont 71.6807 sf 0 0 m (400) show NC gr 
 gsave  2268 1538 0 0 C 1013.3 179.202 t 0 r /Helvetica findfont 71.6807 sf 0 0 m (500) show NC gr 
 gsave  2268 1538 0 0 C 1199.02 179.202 t 0 r /Helvetica findfont 71.6807 sf 0 0 m (600) show NC gr 
 gsave  2268 1538 0 0 C 1384.74 179.202 t 0 r /Helvetica findfont 71.6807 sf 0 0 m (700) show NC gr 
 gsave  2268 1538 0 0 C 1570.46 179.202 t 0 r /Helvetica findfont 71.6807 sf 0 0 m (800) show NC gr 
 gsave  2268 1538 0 0 C 1759.44 179.202 t 0 r /Helvetica findfont 71.6807 sf 0 0 m (900) show NC gr 
 gsave  2268 1538 0 0 C 1925.6 179.202 t 0 r /Helvetica findfont 71.6807 sf 0 0 m (1000) show NC gr  363 1461 m 1791 X s 512 1425 m 36 Y s 549 1443 m 18 Y s 587 1443 m 18 Y s 624 1443 m 18 Y s 661 1443 m 18 Y s 699 1425 m 36 Y s 736 1443 m 18 Y s 773
 1443 m 18 Y s 811 1443 m 18 Y s 848 1443 m 18 Y s 885 1425 m 36 Y s 923 1443 m 18 Y s 960 1443 m 18 Y s 997 1443 m 18 Y s 1035 1443 m 18 Y s 1072 1425 m 36 Y s 1109 1443 m 18 Y s 1147 1443 m 18 Y s 1184 1443 m 18 Y s 1221 1443 m 18 Y s 1259 1425 m
 36 Y s 1296 1443 m 18 Y s 1333 1443 m 18 Y s 1371 1443 m 18 Y s 1408 1443 m 18 Y s 1445 1425 m 36 Y s 1483 1443 m 18 Y s 1520 1443 m 18 Y s 1557 1443 m 18 Y s 1594 1443 m 18 Y s 1632 1425 m 36 Y s 1669 1443 m 18 Y s 1706 1443 m 18 Y s 1744 1443 m 18
 Y s 1781 1443 m 18 Y s 1818 1425 m 36 Y s 1856 1443 m 18 Y s 1893 1443 m 18 Y s 1930 1443 m 18 Y s 1968 1443 m 18 Y s 2005 1425 m 36 Y s 512 1425 m 36 Y s 475 1443 m 18 Y s 437 1443 m 18 Y s 400 1443 m 18 Y s 363 1443 m 18 Y s 2005 1425 m 36 Y s
 2042 1443 m 18 Y s 2080 1443 m 18 Y s 2117 1443 m 18 Y s 2154 1443 m 18 Y s 363 246 m 1215 Y s
 gsave  2268 1538 0 0 C 208.526 1423.84 t 90 r /Helvetica findfont 48.8732 sf 0 0 m (fit) show NC gr 
 gsave  2268 1538 0 0 C 172.685 1332.61 t 90 r /Helvetica findfont 71.6807 sf 0 0 m (\)/N) show NC gr 
 gsave  2268 1538 0 0 C 188.976 1238.12 t 90 r /Helvetica findfont 48.8732 sf 0 0 m (reco) show NC gr 
 gsave  2268 1538 0 0 C 172.685 1127.34 t 90 r /Helvetica findfont 71.6807 sf 0 0 m ( \255 N) show NC gr 
 gsave  2268 1538 0 0 C 208.526 1088.24 t 90 r /Helvetica findfont 48.8732 sf 0 0 m (fit) show NC gr 
 gsave  2268 1538 0 0 C 172.685 1016.56 t 90 r /Helvetica findfont 71.6807 sf 0 0 m (\(N) show NC gr  417 246 m -54 X s 390 297 m -27 X s 390 347 m -27 X s 390 398 m -27 X s 417 449 m -54 X s 390 499 m -27 X s 390 550 m -27 X s 390 600 m -27 X s 417
 651 m -54 X s 390 702 m -27 X s 390 752 m -27 X s 390 803 m -27 X s 417 854 m -54 X s 390 904 m -27 X s 390 955 m -27 X s 390 1005 m -27 X s 417 1056 m -54 X s 390 1107 m -27 X s 390 1157 m -27 X s 390 1208 m -27 X s 417 1258 m -54 X s 390 1309 m
 -27 X s 390 1360 m -27 X s 390 1410 m -27 X s 417 1461 m -54 X s
 gsave  2268 1538 0 0 C 185.718 221.559 t 0 r /Helvetica findfont 71.6807 sf 0 0 m (\2550.06) show NC gr 
 gsave  2268 1538 0 0 C 185.718 423.568 t 0 r /Helvetica findfont 71.6807 sf 0 0 m (\2550.04) show NC gr 
 gsave  2268 1538 0 0 C 185.718 625.577 t 0 r /Helvetica findfont 71.6807 sf 0 0 m (\2550.02) show NC gr 
 gsave  2268 1538 0 0 C 309.53 827.586 t 0 r /Helvetica findfont 71.6807 sf 0 0 m (0) show NC gr 
 gsave  2268 1538 0 0 C 211.784 1032.85 t 0 r /Helvetica findfont 71.6807 sf 0 0 m (0.02) show NC gr 
 gsave  2268 1538 0 0 C 208.526 1234.86 t 0 r /Helvetica findfont 71.6807 sf 0 0 m (0.04) show NC gr 
 gsave  2268 1538 0 0 C 211.784 1436.87 t 0 r /Helvetica findfont 71.6807 sf 0 0 m (0.06) show NC gr  2154 246 m 1215 Y s 2101 246 m 53 X s 2127 297 m 27 X s 2127 347 m 27 X s 2127 398 m 27 X s 2101 449 m 53 X s 2127 499 m 27 X s 2127 550 m 27 X s
 2127 600 m 27 X s 2101 651 m 53 X s 2127 702 m 27 X s 2127 752 m 27 X s 2127 803 m 27 X s 2101 854 m 53 X s 2127 904 m 27 X s 2127 955 m 27 X s 2127 1005 m 27 X s 2101 1056 m 53 X s 2127 1107 m 27 X s 2127 1157 m 27 X s 2127 1208 m 27 X s 2101 1258
 m 53 X s 2127 1309 m 27 X s 2127 1360 m 27 X s 2127 1410 m 27 X s 2101 1461 m 53 X s 6 lw 3 lw /w 31 def /w2 {w 2 div} def /w3 {w 3 div} def 512 905 699 843 885 911 1072 859 1259 870 1445 862 1632 857 1818 866 2005 857 9 { m20} R 6 lw 512 918 m 137
 Y s 512 1055 m cl s 512 892 m -137 Y s 512 755 m cl s 699 856 m 131 Y s 699 987 m cl s 699 830 m -131 Y s 699 699 m cl s 885 924 m 124 Y s 885 1048 m cl s 885 898 m -123 Y s 885 775 m cl s 1072 872 m 118 Y s 1072 990 m cl s 1072 846 m -118 Y s 1072
 728 m cl s 1259 883 m 116 Y s 1259 999 m cl s 1259 857 m -116 Y s 1259 741 m cl s 1445 875 m 112 Y s 1445 987 m cl s 1445 849 m -111 Y s 1445 738 m cl s 1632 870 m 110 Y s 1632 980 m cl s 1632 844 m -109 Y s 1632 735 m cl s 1818 879 m 109 Y s 1818
 988 m cl s 1818 853 m -109 Y s 1818 744 m cl s 2005 870 m 106 Y s 2005 976 m cl s 2005 844 m -107 Y s 2005 737 m cl s 9 lw 0.95 0.95 0.95 c black 372 854 m 878 X s 1250 854 m 877 X s 2127 854 m 18 X s
 gr  gr showpage
end
%%EOF
