%!PS-Adobe-2.0 EPSF-2.0
%%BoundingBox:  0 0 567 384
%%Title: H4l2015_plotfit/VBF_mass_signal_700_H4l_4mu.eps: 
%%Creator: ROOT Version 5.34/07
%%CreationDate: Mon Nov  9 16:29:40 2015
%%EndComments
%%BeginProlog
80 dict begin
/s {stroke} def /l {lineto} def /m {moveto} def /t {translate} def
/r {rotate} def /rl {roll}  def /R {repeat} def
/d {rlineto} def /rm {rmoveto} def /gr {grestore} def /f {eofill} def
/c {setrgbcolor} def /black {0 setgray} def /sd {setdash} def
/cl {closepath} def /sf {scalefont setfont} def /lw {setlinewidth} def
/box {m dup 0 exch d exch 0 d 0 exch neg d cl} def
/NC{systemdict begin initclip end}def/C{NC box clip newpath}def
/bl {box s} def /bf {box f} def /Y { 0 exch d} def /X { 0 d} def 
/K {{pop pop 0 moveto} exch kshow} bind def
/ita {/ang 15 def gsave [1 0 ang dup sin exch cos div 1 0 0] concat} def 
/mp {newpath /y exch def /x exch def} def
/side {[w .77 mul w .23 mul] .385 w mul sd w 0 l currentpoint t -144 r} def
/mr {mp x y w2 0 360 arc} def /m24 {mr s} def /m20 {mr f} def
/mb {mp x y w2 add m w2 neg 0 d 0 w neg d w 0 d 0 w d cl} def
/mt {mp x y w2 add m w2 neg w neg d w 0 d cl} def
/m21 {mb f} def /m25 {mb s} def /m22 {mt f} def /m26{mt s} def
/m23 {mp x y w2 sub m w2 w d w neg 0 d cl f} def
/m27 {mp x y w2 add m w3 neg w2 neg d w3 w2 neg d w3 w2 d cl s} def
/m28 {mp x w2 sub y w2 sub w3 add m w3 0 d  0 w3 neg d w3 0 d 0 w3 d w3 0 d  0 w3 d w3 neg 0 d 0 w3 d w3 neg 0 d 0 w3 neg d w3 neg 0 d cl s } def
/m29 {mp gsave x w2 sub y w2 add w3 sub m currentpoint t 4 {side} repeat cl fill gr} def
/m30 {mp gsave x w2 sub y w2 add w3 sub m currentpoint t 4 {side} repeat cl s gr} def
/m31 {mp x y w2 sub m 0 w d x w2 sub y m w 0 d x w2 sub y w2 add m w w neg d x w2 sub y w2 sub m w w d s} def
/m32 {mp x y w2 sub m w2 w d w neg 0 d cl s} def
/m33 {mp x y w2 add m w3 neg w2 neg d w3 w2 neg d w3 w2 d cl f} def
/m34 {mp x w2 sub y w2 sub w3 add m w3 0 d  0 w3 neg d w3 0 d 0 w3 d w3 0 d  0 w3 d w3 neg 0 d 0 w3 d w3 neg 0 d 0 w3 neg d w3 neg 0 d cl f } def
/m2 {mp x y w2 sub m 0 w d x w2 sub y m w 0 d s} def
/m5 {mp x w2 sub y w2 sub m w w d x w2 sub y w2 add m w w neg d s} def
/reEncode {exch findfont dup length dict begin {1 index /FID eq  {pop pop} {def} ifelse } forall /Encoding exch def currentdict end dup /FontName get exch definefont pop } def [/Times-Bold /Times-Italic /Times-BoldItalic /Helvetica /Helvetica-Oblique
 /Helvetica-Bold /Helvetica-BoldOblique /Courier /Courier-Oblique /Courier-Bold /Courier-BoldOblique /Times-Roman /AvantGarde-Book /AvantGarde-BookOblique /AvantGarde-Demi /AvantGarde-DemiOblique /Bookman-Demi /Bookman-DemiItalic /Bookman-Light
 /Bookman-LightItalic /Helvetica-Narrow /Helvetica-Narrow-Bold /Helvetica-Narrow-BoldOblique /Helvetica-Narrow-Oblique /NewCenturySchlbk-Roman /NewCenturySchlbk-Bold /NewCenturySchlbk-BoldItalic /NewCenturySchlbk-Italic /Palatino-Bold
 /Palatino-BoldItalic /Palatino-Italic /Palatino-Roman ] {ISOLatin1Encoding reEncode } forall
%%EndProlog
%%BeginSetup
%%EndSetup
newpath  gsave  .25 .25 scale  gsave  0 0 t black[  ] 0 sd 3 lw 1 1 1 c 2268 1538 0 0 bf black 1 1 1 c 2222 738 23 784 bf black 1 1 1 c 2222 739 23 15 bf black 1 1 1 c 2268 1077 0 461 bf black 1 1 1 c 1791 850 363 634 bf black 1791 850 363 634 bl 363
 634 m 1791 X s
 gsave  2268 1077 0 461 C 1642.14 498.507 t 0 r /Helvetica findfont 48.9324 sf 0 0 m (4l Invariant Mass \(GeV\)) show NC gr  619 659 m -25 Y s 683 646 m -12 Y s 747 646 m -12 Y s 811 646 m -12 Y s 875 646 m -12 Y s 939 659 m -25 Y s 1003 646 m -12 Y
 s 1067 646 m -12 Y s 1131 646 m -12 Y s 1195 646 m -12 Y s 1259 659 m -25 Y s 1323 646 m -12 Y s 1387 646 m -12 Y s 1451 646 m -12 Y s 1515 646 m -12 Y s 1578 659 m -25 Y s 1642 646 m -12 Y s 1706 646 m -12 Y s 1770 646 m -12 Y s 1834 646 m -12 Y s
 1898 659 m -25 Y s 619 659 m -25 Y s 555 646 m -12 Y s 491 646 m -12 Y s 427 646 m -12 Y s 1898 659 m -25 Y s 1962 646 m -12 Y s 2026 646 m -12 Y s 2090 646 m -12 Y s
 gsave  2268 1077 0 461 C 573.446 586.478 t 0 r /Helvetica findfont 48.9324 sf 0 0 m (550) show NC gr 
 gsave  2268 1077 0 461 C 896.009 586.478 t 0 r /Helvetica findfont 48.9324 sf 0 0 m (600) show NC gr 
 gsave  2268 1077 0 461 C 1215.31 586.478 t 0 r /Helvetica findfont 48.9324 sf 0 0 m (650) show NC gr 
 gsave  2268 1077 0 461 C 1534.62 586.478 t 0 r /Helvetica findfont 48.9324 sf 0 0 m (700) show NC gr 
 gsave  2268 1077 0 461 C 1853.92 586.478 t 0 r /Helvetica findfont 48.9324 sf 0 0 m (750) show NC gr  363 1484 m 1791 X s 619 1459 m 25 Y s 683 1471 m 13 Y s 747 1471 m 13 Y s 811 1471 m 13 Y s 875 1471 m 13 Y s 939 1459 m 25 Y s 1003 1471 m 13 Y s
 1067 1471 m 13 Y s 1131 1471 m 13 Y s 1195 1471 m 13 Y s 1259 1459 m 25 Y s 1323 1471 m 13 Y s 1387 1471 m 13 Y s 1451 1471 m 13 Y s 1515 1471 m 13 Y s 1578 1459 m 25 Y s 1642 1471 m 13 Y s 1706 1471 m 13 Y s 1770 1471 m 13 Y s 1834 1471 m 13 Y s
 1898 1459 m 25 Y s 619 1459 m 25 Y s 555 1471 m 13 Y s 491 1471 m 13 Y s 427 1471 m 13 Y s 1898 1459 m 25 Y s 1962 1471 m 13 Y s 2026 1471 m 13 Y s 2090 1471 m 13 Y s 363 634 m 850 Y s
 gsave  2268 1077 0 461 C 120.554 1058.92 t 90 r /Helvetica findfont 48.9324 sf 0 0 m (Events / \( 5.6 GeV \)) show NC gr  417 634 m -54 X s
 gsave  2268 1077 0 461 C 312.788 632.093 t 0 r /Helvetica findfont 32.6216 sf 0 0 m (\2552) show NC gr 
 gsave  2268 1077 0 461 C 260.657 612.544 t 0 r /Helvetica findfont 48.9324 sf 0 0 m (10) show NC gr  390 684 m -27 X s 390 713 m -27 X s 390 734 m -27 X s 390 750 m -27 X s 390 763 m -27 X s 390 774 m -27 X s 390 784 m -27 X s 390 792 m -27 X s 417
 800 m -54 X s
 gsave  2268 1077 0 461 C 319.305 798.262 t 0 r /Helvetica findfont 32.6216 sf 0 0 m (\2551) show NC gr 
 gsave  2268 1077 0 461 C 267.173 778.713 t 0 r /Helvetica findfont 48.9324 sf 0 0 m (10) show NC gr  390 850 m -27 X s 390 879 m -27 X s 390 900 m -27 X s 390 916 m -27 X s 390 929 m -27 X s 390 940 m -27 X s 390 950 m -27 X s 390 958 m -27 X s 417
 966 m -54 X s
 gsave  2268 1077 0 461 C 342.425 944.96 t 0 r  -27 0 t /Helvetica findfont 48.9324 sf 0 0 m (1) show NC gr  390 1016 m -27 X s 390 1045 m -27 X s 390 1066 m -27 X s 390 1082 m -27 X s 390 1095 m -27 X s 390 1106 m -27 X s 390 1116 m -27 X s 390 1124
 m -27 X s 417 1132 m -54 X s
 gsave  2268 1077 0 461 C 342.425 1111.06 t 0 r  -55 0 t /Helvetica findfont 48.9324 sf 0 0 m (10) show NC gr  390 1182 m -27 X s 390 1211 m -27 X s 390 1232 m -27 X s 390 1248 m -27 X s 390 1261 m -27 X s 390 1272 m -27 X s 390 1282 m -27 X s 390
 1290 m -27 X s 417 1298 m -54 X s
 gsave  2268 1077 0 461 C 322.563 1296.77 t 0 r /Helvetica findfont 32.6216 sf 0 0 m (2) show NC gr 
 gsave  2268 1077 0 461 C 270.432 1277.22 t 0 r /Helvetica findfont 48.9324 sf 0 0 m (10) show NC gr  390 1348 m -27 X s 390 1377 m -27 X s 390 1398 m -27 X s 390 1414 m -27 X s 390 1427 m -27 X s 390 1438 m -27 X s 390 1448 m -27 X s 390 1457 m -27
 X s 417 1464 m -54 X s
 gsave  2268 1077 0 461 C 322.563 1466.2 t 0 r /Helvetica findfont 32.6216 sf 0 0 m (3) show NC gr 
 gsave  2268 1077 0 461 C 270.432 1443.39 t 0 r /Helvetica findfont 48.9324 sf 0 0 m (10) show NC gr  2154 634 m 850 Y s 2101 634 m 53 X s 2127 684 m 27 X s 2127 713 m 27 X s 2127 734 m 27 X s 2127 750 m 27 X s 2127 763 m 27 X s 2127 774 m 27 X s
 2127 784 m 27 X s 2127 792 m 27 X s 2101 800 m 53 X s 2127 850 m 27 X s 2127 879 m 27 X s 2127 900 m 27 X s 2127 916 m 27 X s 2127 929 m 27 X s 2127 940 m 27 X s 2127 950 m 27 X s 2127 958 m 27 X s 2101 966 m 53 X s 2127 1016 m 27 X s 2127 1045 m 27
 X s 2127 1066 m 27 X s 2127 1082 m 27 X s 2127 1095 m 27 X s 2127 1106 m 27 X s 2127 1116 m 27 X s 2127 1124 m 27 X s 2101 1132 m 53 X s 2127 1182 m 27 X s 2127 1211 m 27 X s 2127 1232 m 27 X s 2127 1248 m 27 X s 2127 1261 m 27 X s 2127 1272 m 27 X
 s 2127 1282 m 27 X s 2127 1290 m 27 X s 2101 1298 m 53 X s 2127 1348 m 27 X s 2127 1377 m 27 X s 2127 1398 m 27 X s 2127 1414 m 27 X s 2127 1427 m 27 X s 2127 1438 m 27 X s 2127 1448 m 27 X s 2127 1457 m 27 X s 2101 1464 m 53 X s 381 1106 m -18 X s
 363 1106 m cl s 381 1106 m 18 X s 399 1106 m cl s 381 1106 m 31 Y s 381 1137 m cl s 381 1106 m -33 Y s 381 1073 m cl s 417 1045 m -18 X s 399 1045 m cl s 417 1045 m 17 X s 434 1045 m cl s 417 1045 m 49 Y s 417 1094 m cl s 417 1045 m -57 Y s 417 988
 m cl s 452 1066 m -18 X s 434 1066 m cl s 452 1066 m 18 X s 470 1066 m cl s 452 1066 m 42 Y s 452 1108 m cl s 452 1066 m -47 Y s 452 1019 m cl s 488 1082 m -18 X s 470 1082 m cl s 488 1082 m 18 X s 506 1082 m cl s 488 1082 m 37 Y s 488 1119 m cl s
 488 1082 m -41 Y s 488 1041 m cl s 524 1139 m -18 X s 506 1139 m cl s 524 1139 m 18 X s 542 1139 m cl s 524 1139 m 24 Y s 524 1163 m cl s 524 1139 m -26 Y s 524 1113 m cl s 560 1016 m -18 X s 542 1016 m cl s 560 1016 m 18 X s 578 1016 m cl s 560
 1016 m 60 Y s 560 1076 m cl s 560 1016 m -75 Y s 560 941 m cl s 596 1045 m -18 X s 578 1045 m cl s 596 1045 m 18 X s 614 1045 m cl s 596 1045 m 49 Y s 596 1094 m cl s 596 1045 m -57 Y s 596 988 m cl s 632 1124 m -18 X s 614 1124 m cl s 632 1124 m 17
 X s 649 1124 m cl s 632 1124 m 27 Y s 632 1151 m cl s 632 1124 m -28 Y s 632 1096 m cl s 667 1124 m -18 X s 649 1124 m cl s 667 1124 m 18 X s 685 1124 m cl s 667 1124 m 27 Y s 667 1151 m cl s 667 1124 m -28 Y s 667 1096 m cl s 703 1116 m -18 X s 685
 1116 m cl s 703 1116 m 18 X s 721 1116 m cl s 703 1116 m 29 Y s 703 1145 m cl s 703 1116 m -31 Y s 703 1085 m cl s 739 1095 m -18 X s 721 1095 m cl s 739 1095 m 18 X s 757 1095 m cl s 739 1095 m 34 Y s 739 1129 m cl s 739 1095 m -36 Y s 739 1059 m
 cl s 775 1151 m -18 X s 757 1151 m cl s 775 1151 m 18 X s 793 1151 m cl s 775 1151 m 22 Y s 775 1173 m cl s 775 1151 m -23 Y s 775 1128 m cl s 811 1166 m -18 X s 793 1166 m cl s 811 1166 m 18 X s 829 1166 m cl s 811 1166 m 20 Y s 811 1186 m cl s 811
 1166 m -21 Y s 811 1145 m cl s 847 1116 m -18 X s 829 1116 m cl s 847 1116 m 17 X s 864 1116 m cl s 847 1116 m 29 Y s 847 1145 m cl s 847 1116 m -31 Y s 847 1085 m cl s 882 1178 m -18 X s 864 1178 m cl s 882 1178 m 18 X s 900 1178 m cl s 882 1178 m
 18 Y s 882 1196 m cl s 882 1178 m -18 Y s 882 1160 m cl s 918 1174 m -18 X s 900 1174 m cl s 918 1174 m 18 X s 936 1174 m cl s 918 1174 m 19 Y s 918 1193 m cl s 918 1174 m -19 Y s 918 1155 m cl s 954 1206 m -18 X s 936 1206 m cl s 954 1206 m 18 X s
 972 1206 m cl s 954 1206 m 15 Y s 954 1221 m cl s 954 1206 m -15 Y s 954 1191 m cl s 990 1185 m -18 X s 972 1185 m cl s 990 1185 m 18 X s 1008 1185 m cl s 990 1185 m 18 Y s 990 1203 m cl s 990 1185 m -17 Y s 990 1168 m cl s 1026 1198 m -18 X s 1008
 1198 m cl s 1026 1198 m 18 X s 1044 1198 m cl s 1026 1198 m 16 Y s 1026 1214 m cl s 1026 1198 m -16 Y s 1026 1182 m cl s 1062 1216 m -18 X s 1044 1216 m cl s 1062 1216 m 17 X s 1079 1216 m cl s 1062 1216 m 14 Y s 1062 1230 m cl s 1062 1216 m -14 Y s
 1062 1202 m cl s 1097 1239 m -18 X s 1079 1239 m cl s 1097 1239 m 18 X s 1115 1239 m cl s 1097 1239 m 11 Y s 1097 1250 m cl s 1097 1239 m -12 Y s 1097 1227 m cl s 1133 1242 m -18 X s 1115 1242 m cl s 1133 1242 m 18 X s 1151 1242 m cl s 1133 1242 m
 11 Y s 1133 1253 m cl s 1133 1242 m -11 Y s 1133 1231 m cl s 1169 1261 m -18 X s 1151 1261 m cl s 1169 1261 m 18 X s 1187 1261 m cl s 1169 1261 m 10 Y s 1169 1271 m cl s 1169 1261 m -10 Y s 1169 1251 m cl s 1205 1272 m -18 X s 1187 1272 m cl s 1205
 1272 m 18 X s 1223 1272 m cl s 1205 1272 m 9 Y s 1205 1281 m cl s 1205 1272 m -9 Y s 1205 1263 m cl s 1241 1285 m -18 X s 1223 1285 m cl s 1241 1285 m 18 X s 1259 1285 m cl s 1241 1285 m 8 Y s 1241 1293 m cl s 1241 1285 m -9 Y s 1241 1276 m cl s
 1276 1316 m -17 X s 1259 1316 m cl s 1276 1316 m 18 X s 1294 1316 m cl s 1276 1316 m 7 Y s 1276 1323 m cl s 1276 1316 m -6 Y s 1276 1310 m cl s 1312 1337 m -18 X s 1294 1337 m cl s 1312 1337 m 18 X s 1330 1337 m cl s 1312 1337 m 5 Y s 1312 1342 m cl
 s 1312 1337 m -6 Y s 1312 1331 m cl s 1348 1370 m -18 X s 1330 1370 m cl s 1348 1370 m 18 X s 1366 1370 m cl s 1348 1370 m 5 Y s 1348 1375 m cl s 1348 1370 m -4 Y s 1348 1366 m cl s 1384 1384 m -18 X s 1366 1384 m cl s 1384 1384 m 18 X s 1402 1384 m
 cl s 1384 1384 m 4 Y s 1384 1388 m cl s 1384 1384 m -4 Y s 1384 1380 m cl s 1420 1406 m -18 X s 1402 1406 m cl s 1420 1406 m 18 X s 1438 1406 m cl s 1420 1406 m 3 Y s 1420 1409 m cl s 1420 1406 m -4 Y s 1420 1402 m cl s 1456 1420 m -18 X s 1438 1420
 m cl s 1456 1420 m 18 X s 1474 1420 m cl s 1456 1420 m 3 Y s 1456 1423 m cl s 1456 1420 m -3 Y s 1456 1417 m cl s 1491 1439 m -17 X s 1474 1439 m cl s 1491 1439 m 18 X s 1509 1439 m cl s 1491 1439 m 3 Y s 1491 1442 m cl s 1491 1439 m -2 Y s 1491
 1437 m cl s 1527 1444 m -18 X s 1509 1444 m cl s 1527 1444 m 18 X s 1545 1444 m cl s 1527 1444 m 2 Y s 1527 1446 m cl s 1527 1444 m -3 Y s 1527 1441 m cl s 1563 1449 m -18 X s 1545 1449 m cl s 1563 1449 m 18 X s 1581 1449 m cl s 1563 1449 m 2 Y s
 1563 1451 m cl s 1563 1449 m -3 Y s 1563 1446 m cl s 1599 1447 m -18 X s 1581 1447 m cl s 1599 1447 m 18 X s 1617 1447 m cl s 1599 1447 m 2 Y s 1599 1449 m cl s 1599 1447 m -3 Y s 1599 1444 m cl s 1635 1432 m -18 X s 1617 1432 m cl s 1635 1432 m 18
 X s 1653 1432 m cl s 1635 1432 m 3 Y s 1635 1435 m cl s 1635 1432 m -3 Y s 1635 1429 m cl s 1671 1413 m -18 X s 1653 1413 m cl s 1671 1413 m 18 X s 1689 1413 m cl s 1671 1413 m 3 Y s 1671 1416 m cl s 1671 1413 m -4 Y s 1671 1409 m cl s 1706 1389 m
 -17 X s 1689 1389 m cl s 1706 1389 m 18 X s 1724 1389 m cl s 1706 1389 m 4 Y s 1706 1393 m cl s 1706 1389 m -3 Y s 1706 1386 m cl s 1742 1373 m -18 X s 1724 1373 m cl s 1742 1373 m 18 X s 1760 1373 m cl s 1742 1373 m 4 Y s 1742 1377 m cl s 1742 1373
 m -5 Y s 1742 1368 m cl s 1778 1340 m -18 X s 1760 1340 m cl s 1778 1340 m 18 X s 1796 1340 m cl s 1778 1340 m 5 Y s 1778 1345 m cl s 1778 1340 m -5 Y s 1778 1335 m cl s 1814 1311 m -18 X s 1796 1311 m cl s 1814 1311 m 18 X s 1832 1311 m cl s 1814
 1311 m 6 Y s 1814 1317 m cl s 1814 1311 m -7 Y s 1814 1304 m cl s 1850 1297 m -18 X s 1832 1297 m cl s 1850 1297 m 18 X s 1868 1297 m cl s 1850 1297 m 7 Y s 1850 1304 m cl s 1850 1297 m -8 Y s 1850 1289 m cl s 1886 1257 m -18 X s 1868 1257 m cl s
 1886 1257 m 18 X s 1904 1257 m cl s 1886 1257 m 11 Y s 1886 1268 m cl s 1886 1257 m -10 Y s 1886 1247 m cl s 1921 1232 m -17 X s 1904 1232 m cl s 1921 1232 m 18 X s 1939 1232 m cl s 1921 1232 m 12 Y s 1921 1244 m cl s 1921 1232 m -12 Y s 1921 1220 m
 cl s 1957 1198 m -18 X s 1939 1198 m cl s 1957 1198 m 18 X s 1975 1198 m cl s 1957 1198 m 16 Y s 1957 1214 m cl s 1957 1198 m -16 Y s 1957 1182 m cl s 1993 1151 m -18 X s 1975 1151 m cl s 1993 1151 m 18 X s 2011 1151 m cl s 1993 1151 m 22 Y s 1993
 1173 m cl s 1993 1151 m -23 Y s 1993 1128 m cl s 2029 1161 m -18 X s 2011 1161 m cl s 2029 1161 m 18 X s 2047 1161 m cl s 2029 1161 m 21 Y s 2029 1182 m cl s 2029 1161 m -21 Y s 2029 1140 m cl s 2065 1151 m -18 X s 2047 1151 m cl s 2065 1151 m 18 X
 s 2083 1151 m cl s 2065 1151 m 22 Y s 2065 1173 m cl s 2065 1151 m -23 Y s 2065 1128 m cl s 2101 1095 m -18 X s 2083 1095 m cl s 2101 1095 m 18 X s 2119 1095 m cl s 2101 1095 m 34 Y s 2101 1129 m cl s 2101 1095 m -36 Y s 2101 1059 m cl s 2136 1082 m
 -17 X s 2119 1082 m cl s 2136 1082 m 18 X s 2154 1082 m cl s 2136 1082 m 37 Y s 2136 1119 m cl s 2136 1082 m -41 Y s 2136 1041 m cl s /w 31 def /w2 {w 2 div} def /w3 {w 3 div} def 381 1106 417 1045 452 1066 488 1082 524 1139 560 1016 596 1045 632
 1124 667 1124 703 1116 739 1095 775 1151 811 1166 847 1116 882 1178 918 1174 954 1206 990 1185 1026 1198 1062 1216 1097 1239 1133 1242 1169 1261 1205 1272 1241 1285 1276 1316 1312 1337 1348 1370 1384 1384 1420 1406 1456 1420 1491 1439 1527 1444 1563
 1449 1599 1447 1635 1432 1671 1413 1706 1389 1742 1373 1778 1340 1814 1311 1850 1297 1886 1257 1921 1232 1957 1198 1993 1151 2029 1161 2065 1151 2101 1095 2136 1082 50 { m20} R 0 1 1 c 1 1 0 c black 1 1 0 c 363 1061 m 36 7 d 35 8 d 36 7 d 36 8 d 36
 8 d 36 8 d 36 8 d 35 8 d 36 8 d 36 9 d 36 8 d 36 9 d 36 8 d 35 9 d 36 9 d 36 10 d 36 10 d 36 10 d 36 10 d 35 11 d 36 11 d 36 12 d 36 13 d 18 7 d 18 8 d 18 8 d 18 10 d 17 11 d 18 12 d 18 13 d 9 6 d 9 7 d 9 6 d 9 7 d 9 7 d 9 6 d 18 12 d 18 11 d 18 10
 d 18 9 d 18 8 d 18 7 d 9 3 d 8 3 d 9 2 d 9 2 d 9 2 d 9 1 d 9 1 d 27 X 9 -1 d 9 -1 d 9 -2 d 9 -1 d 9 -3 d 9 -2 d 9 -3 d 9 -3 d 18 -8 d 36 -18 d 17 -10 d 18 -12 d 9 -6 d 9 -6 d 9 -7 d 9 -6 d 9 -7 d 9 -7 d 18 -14 d 18 -13 d 18 -14 d 18 -13 d 18 -13 d
 18 -12 d 18 -13 d 35 -24 d 36 -24 d 36 -25 d 36 -26 d 36 -28 d 36 -30 d 35 -31 d -65 Y -35 43 d -36 40 d -36 36 d -36 33 d -36 31 d -36 28 d -35 28 d -18 14 d -18 14 d -18 14 d -18 14 d -18 14 d -18 14 d -18 14 d -9 7 d -9 7 d -9 6 d -9 7 d -9 7 d
 -9 6 d -18 13 d -17 11 d -36 20 d -18 7 d -9 3 d -9 3 d -9 3 d -9 2 d -9 2 d -9 1 d -9 1 d -9 1 d -27 X -9 -1 d -9 -1 d -9 -2 d -9 -1 d -9 -3 d -8 -2 d -9 -3 d -18 -7 d -18 -9 d -18 -10 d -18 -11 d -18 -12 d -18 -13 d -9 -7 d -9 -7 d -9 -6 d -9 -7 d
 -9 -7 d -9 -6 d -18 -13 d -18 -12 d -17 -11 d -18 -11 d -18 -10 d -18 -9 d -18 -8 d -36 -14 d -36 -12 d -36 -10 d -35 -11 d -36 -10 d -36 -10 d -36 -10 d -36 -11 d -36 -10 d -35 -10 d -36 -11 d -36 -10 d -36 -10 d -36 -11 d -36 -10 d -35 -10 d -36
 -9 d -36 -10 d -36 -10 d -36 -10 d -36 -9 d -35 -9 d -36 -10 d f 0 1 1 c 0 1 0 c black 0 1 0 c 363 1052 m 36 8 d 35 8 d 36 8 d 36 8 d 36 8 d 36 8 d 36 9 d 35 8 d 36 9 d 36 9 d 36 8 d 36 9 d 36 9 d 35 10 d 36 9 d 36 10 d 36 9 d 36 11 d 36 10 d 35 11
 d 36 11 d 36 11 d 36 14 d 18 7 d 18 8 d 18 9 d 18 10 d 17 11 d 18 12 d 18 13 d 9 6 d 9 7 d 9 6 d 9 7 d 9 7 d 9 6 d 18 12 d 18 11 d 18 11 d 18 9 d 18 8 d 18 7 d 9 3 d 8 3 d 9 2 d 9 2 d 9 2 d 9 1 d 9 1 d 27 X 9 -1 d 9 -1 d 9 -1 d 9 -2 d 9 -3 d 9 -2 d
 9 -3 d 9 -3 d 18 -8 d 36 -18 d 17 -11 d 18 -12 d 9 -6 d 9 -6 d 9 -7 d 9 -6 d 9 -7 d 9 -7 d 18 -14 d 18 -14 d 18 -13 d 18 -14 d 18 -13 d 18 -12 d 18 -13 d 35 -25 d 36 -25 d 36 -26 d 36 -27 d 36 -30 d 36 -31 d 35 -32 d -32 Y -35 39 d -36 35 d -36 33 d
 -36 31 d -36 29 d -36 27 d -35 27 d -18 13 d -18 14 d -18 14 d -18 13 d -18 14 d -18 14 d -18 14 d -9 7 d -9 7 d -9 6 d -9 7 d -9 7 d -9 6 d -18 12 d -17 11 d -36 19 d -18 8 d -9 3 d -9 3 d -9 3 d -9 2 d -9 2 d -9 1 d -9 1 d -9 1 d -27 X -9 -1 d -9
 -1 d -9 -2 d -9 -2 d -9 -2 d -8 -2 d -9 -3 d -18 -8 d -18 -8 d -18 -10 d -18 -11 d -18 -11 d -18 -13 d -9 -7 d -9 -6 d -9 -7 d -9 -7 d -9 -6 d -9 -7 d -18 -12 d -18 -13 d -17 -11 d -18 -10 d -18 -10 d -18 -9 d -18 -7 d -36 -14 d -36 -12 d -36 -11 d
 -35 -10 d -36 -10 d -36 -10 d -36 -10 d -36 -11 d -36 -10 d -35 -10 d -36 -9 d -36 -10 d -36 -10 d -36 -9 d -36 -10 d -35 -9 d -36 -9 d -36 -10 d -36 -9 d -36 -9 d -36 -8 d -35 -9 d -36 -9 d f 0 0 1 c 9 lw black 0 0 1 c 363 1043 m 36 8 d 35 8 d 36 9
 d 36 8 d 36 9 d 36 8 d 36 9 d 35 9 d 36 9 d 36 9 d 36 9 d 36 10 d 36 9 d 35 10 d 36 9 d 36 10 d 36 10 d 36 10 d 36 11 d 35 10 d 36 11 d 36 12 d 36 13 d 18 8 d 18 8 d 18 9 d 18 10 d 17 12 d 18 12 d 18 12 d 9 7 d 9 7 d 9 6 d 9 7 d 9 6 d 9 7 d 18 12 d
 18 12 d 18 11 d 18 9 d 18 8 d 18 7 d 9 3 d 8 3 d 9 2 d 9 2 d 9 2 d 9 1 d 9 1 d 27 X 9 -1 d 9 -1 d 9 -1 d 9 -2 d 9 -2 d 9 -3 d 9 -3 d 9 -3 d 18 -8 d 36 -18 d 17 -11 d 18 -12 d 9 -7 d 9 -6 d 9 -7 d 9 -6 d 9 -7 d 9 -7 d 18 -14 d 18 -14 d 18 -13 d 18
 -14 d 18 -13 d 18 -13 d 18 -13 d 35 -26 d 36 -26 d 36 -28 d 36 -29 d 36 -30 d 36 -33 d 35 -35 d s black 3 lw 381 1106 m -18 X s 363 1106 m cl s 381 1106 m 18 X s 399 1106 m cl s 381 1106 m 31 Y s 381 1137 m cl s 381 1106 m -33 Y s 381 1073 m cl s
 417 1045 m -18 X s 399 1045 m cl s 417 1045 m 17 X s 434 1045 m cl s 417 1045 m 49 Y s 417 1094 m cl s 417 1045 m -57 Y s 417 988 m cl s 452 1066 m -18 X s 434 1066 m cl s 452 1066 m 18 X s 470 1066 m cl s 452 1066 m 42 Y s 452 1108 m cl s 452 1066
 m -47 Y s 452 1019 m cl s 488 1082 m -18 X s 470 1082 m cl s 488 1082 m 18 X s 506 1082 m cl s 488 1082 m 37 Y s 488 1119 m cl s 488 1082 m -41 Y s 488 1041 m cl s 524 1139 m -18 X s 506 1139 m cl s 524 1139 m 18 X s 542 1139 m cl s 524 1139 m 24 Y
 s 524 1163 m cl s 524 1139 m -26 Y s 524 1113 m cl s 560 1016 m -18 X s 542 1016 m cl s 560 1016 m 18 X s 578 1016 m cl s 560 1016 m 60 Y s 560 1076 m cl s 560 1016 m -75 Y s 560 941 m cl s 596 1045 m -18 X s 578 1045 m cl s 596 1045 m 18 X s 614
 1045 m cl s 596 1045 m 49 Y s 596 1094 m cl s 596 1045 m -57 Y s 596 988 m cl s 632 1124 m -18 X s 614 1124 m cl s 632 1124 m 17 X s 649 1124 m cl s 632 1124 m 27 Y s 632 1151 m cl s 632 1124 m -28 Y s 632 1096 m cl s 667 1124 m -18 X s 649 1124 m
 cl s 667 1124 m 18 X s 685 1124 m cl s 667 1124 m 27 Y s 667 1151 m cl s 667 1124 m -28 Y s 667 1096 m cl s 703 1116 m -18 X s 685 1116 m cl s 703 1116 m 18 X s 721 1116 m cl s 703 1116 m 29 Y s 703 1145 m cl s 703 1116 m -31 Y s 703 1085 m cl s 739
 1095 m -18 X s 721 1095 m cl s 739 1095 m 18 X s 757 1095 m cl s 739 1095 m 34 Y s 739 1129 m cl s 739 1095 m -36 Y s 739 1059 m cl s 775 1151 m -18 X s 757 1151 m cl s 775 1151 m 18 X s 793 1151 m cl s 775 1151 m 22 Y s 775 1173 m cl s 775 1151 m
 -23 Y s 775 1128 m cl s 811 1166 m -18 X s 793 1166 m cl s 811 1166 m 18 X s 829 1166 m cl s 811 1166 m 20 Y s 811 1186 m cl s 811 1166 m -21 Y s 811 1145 m cl s 847 1116 m -18 X s 829 1116 m cl s 847 1116 m 17 X s 864 1116 m cl s 847 1116 m 29 Y s
 847 1145 m cl s 847 1116 m -31 Y s 847 1085 m cl s 882 1178 m -18 X s 864 1178 m cl s 882 1178 m 18 X s 900 1178 m cl s 882 1178 m 18 Y s 882 1196 m cl s 882 1178 m -18 Y s 882 1160 m cl s 918 1174 m -18 X s 900 1174 m cl s 918 1174 m 18 X s 936
 1174 m cl s 918 1174 m 19 Y s 918 1193 m cl s 918 1174 m -19 Y s 918 1155 m cl s 954 1206 m -18 X s 936 1206 m cl s 954 1206 m 18 X s 972 1206 m cl s 954 1206 m 15 Y s 954 1221 m cl s 954 1206 m -15 Y s 954 1191 m cl s 990 1185 m -18 X s 972 1185 m
 cl s 990 1185 m 18 X s 1008 1185 m cl s 990 1185 m 18 Y s 990 1203 m cl s 990 1185 m -17 Y s 990 1168 m cl s 1026 1198 m -18 X s 1008 1198 m cl s 1026 1198 m 18 X s 1044 1198 m cl s 1026 1198 m 16 Y s 1026 1214 m cl s 1026 1198 m -16 Y s 1026 1182 m
 cl s 1062 1216 m -18 X s 1044 1216 m cl s 1062 1216 m 17 X s 1079 1216 m cl s 1062 1216 m 14 Y s 1062 1230 m cl s 1062 1216 m -14 Y s 1062 1202 m cl s 1097 1239 m -18 X s 1079 1239 m cl s 1097 1239 m 18 X s 1115 1239 m cl s 1097 1239 m 11 Y s 1097
 1250 m cl s 1097 1239 m -12 Y s 1097 1227 m cl s 1133 1242 m -18 X s 1115 1242 m cl s 1133 1242 m 18 X s 1151 1242 m cl s 1133 1242 m 11 Y s 1133 1253 m cl s 1133 1242 m -11 Y s 1133 1231 m cl s 1169 1261 m -18 X s 1151 1261 m cl s 1169 1261 m 18 X
 s 1187 1261 m cl s 1169 1261 m 10 Y s 1169 1271 m cl s 1169 1261 m -10 Y s 1169 1251 m cl s 1205 1272 m -18 X s 1187 1272 m cl s 1205 1272 m 18 X s 1223 1272 m cl s 1205 1272 m 9 Y s 1205 1281 m cl s 1205 1272 m -9 Y s 1205 1263 m cl s 1241 1285 m
 -18 X s 1223 1285 m cl s 1241 1285 m 18 X s 1259 1285 m cl s 1241 1285 m 8 Y s 1241 1293 m cl s 1241 1285 m -9 Y s 1241 1276 m cl s 1276 1316 m -17 X s 1259 1316 m cl s 1276 1316 m 18 X s 1294 1316 m cl s 1276 1316 m 7 Y s 1276 1323 m cl s 1276 1316
 m -6 Y s 1276 1310 m cl s 1312 1337 m -18 X s 1294 1337 m cl s 1312 1337 m 18 X s 1330 1337 m cl s 1312 1337 m 5 Y s 1312 1342 m cl s 1312 1337 m -6 Y s 1312 1331 m cl s 1348 1370 m -18 X s 1330 1370 m cl s 1348 1370 m 18 X s 1366 1370 m cl s 1348
 1370 m 5 Y s 1348 1375 m cl s 1348 1370 m -4 Y s 1348 1366 m cl s 1384 1384 m -18 X s 1366 1384 m cl s 1384 1384 m 18 X s 1402 1384 m cl s 1384 1384 m 4 Y s 1384 1388 m cl s 1384 1384 m -4 Y s 1384 1380 m cl s 1420 1406 m -18 X s 1402 1406 m cl s
 1420 1406 m 18 X s 1438 1406 m cl s 1420 1406 m 3 Y s 1420 1409 m cl s 1420 1406 m -4 Y s 1420 1402 m cl s 1456 1420 m -18 X s 1438 1420 m cl s 1456 1420 m 18 X s 1474 1420 m cl s 1456 1420 m 3 Y s 1456 1423 m cl s 1456 1420 m -3 Y s 1456 1417 m cl
 s 1491 1439 m -17 X s 1474 1439 m cl s 1491 1439 m 18 X s 1509 1439 m cl s 1491 1439 m 3 Y s 1491 1442 m cl s 1491 1439 m -2 Y s 1491 1437 m cl s 1527 1444 m -18 X s 1509 1444 m cl s 1527 1444 m 18 X s 1545 1444 m cl s 1527 1444 m 2 Y s 1527 1446 m
 cl s 1527 1444 m -3 Y s 1527 1441 m cl s 1563 1449 m -18 X s 1545 1449 m cl s 1563 1449 m 18 X s 1581 1449 m cl s 1563 1449 m 2 Y s 1563 1451 m cl s 1563 1449 m -3 Y s 1563 1446 m cl s 1599 1447 m -18 X s 1581 1447 m cl s 1599 1447 m 18 X s 1617
 1447 m cl s 1599 1447 m 2 Y s 1599 1449 m cl s 1599 1447 m -3 Y s 1599 1444 m cl s 1635 1432 m -18 X s 1617 1432 m cl s 1635 1432 m 18 X s 1653 1432 m cl s 1635 1432 m 3 Y s 1635 1435 m cl s 1635 1432 m -3 Y s 1635 1429 m cl s 1671 1413 m -18 X s
 1653 1413 m cl s 1671 1413 m 18 X s 1689 1413 m cl s 1671 1413 m 3 Y s 1671 1416 m cl s 1671 1413 m -4 Y s 1671 1409 m cl s 1706 1389 m -17 X s 1689 1389 m cl s 1706 1389 m 18 X s 1724 1389 m cl s 1706 1389 m 4 Y s 1706 1393 m cl s 1706 1389 m -3 Y
 s 1706 1386 m cl s 1742 1373 m -18 X s 1724 1373 m cl s 1742 1373 m 18 X s 1760 1373 m cl s 1742 1373 m 4 Y s 1742 1377 m cl s 1742 1373 m -5 Y s 1742 1368 m cl s 1778 1340 m -18 X s 1760 1340 m cl s 1778 1340 m 18 X s 1796 1340 m cl s 1778 1340 m 5
 Y s 1778 1345 m cl s 1778 1340 m -5 Y s 1778 1335 m cl s 1814 1311 m -18 X s 1796 1311 m cl s 1814 1311 m 18 X s 1832 1311 m cl s 1814 1311 m 6 Y s 1814 1317 m cl s 1814 1311 m -7 Y s 1814 1304 m cl s 1850 1297 m -18 X s 1832 1297 m cl s 1850 1297 m
 18 X s 1868 1297 m cl s 1850 1297 m 7 Y s 1850 1304 m cl s 1850 1297 m -8 Y s 1850 1289 m cl s 1886 1257 m -18 X s 1868 1257 m cl s 1886 1257 m 18 X s 1904 1257 m cl s 1886 1257 m 11 Y s 1886 1268 m cl s 1886 1257 m -10 Y s 1886 1247 m cl s 1921
 1232 m -17 X s 1904 1232 m cl s 1921 1232 m 18 X s 1939 1232 m cl s 1921 1232 m 12 Y s 1921 1244 m cl s 1921 1232 m -12 Y s 1921 1220 m cl s 1957 1198 m -18 X s 1939 1198 m cl s 1957 1198 m 18 X s 1975 1198 m cl s 1957 1198 m 16 Y s 1957 1214 m cl s
 1957 1198 m -16 Y s 1957 1182 m cl s 1993 1151 m -18 X s 1975 1151 m cl s 1993 1151 m 18 X s 2011 1151 m cl s 1993 1151 m 22 Y s 1993 1173 m cl s 1993 1151 m -23 Y s 1993 1128 m cl s 2029 1161 m -18 X s 2011 1161 m cl s 2029 1161 m 18 X s 2047 1161
 m cl s 2029 1161 m 21 Y s 2029 1182 m cl s 2029 1161 m -21 Y s 2029 1140 m cl s 2065 1151 m -18 X s 2047 1151 m cl s 2065 1151 m 18 X s 2083 1151 m cl s 2065 1151 m 22 Y s 2065 1173 m cl s 2065 1151 m -23 Y s 2065 1128 m cl s 2101 1095 m -18 X s
 2083 1095 m cl s 2101 1095 m 18 X s 2119 1095 m cl s 2101 1095 m 34 Y s 2101 1129 m cl s 2101 1095 m -36 Y s 2101 1059 m cl s 2136 1082 m -17 X s 2119 1082 m cl s 2136 1082 m 18 X s 2154 1082 m cl s 2136 1082 m 37 Y s 2136 1119 m cl s 2136 1082 m
 -41 Y s 2136 1041 m cl s 381 1106 417 1045 452 1066 488 1082 524 1139 560 1016 596 1045 632 1124 667 1124 703 1116 739 1095 775 1151 811 1166 847 1116 882 1178 918 1174 954 1206 990 1185 1026 1198 1062 1216 1097 1239 1133 1242 1169 1261 1205 1272
 1241 1285 1276 1316 1312 1337 1348 1370 1384 1384 1420 1406 1456 1420 1491 1439 1527 1444 1563 1449 1599 1447 1635 1432 1671 1413 1706 1389 1742 1373 1778 1340 1814 1311 1850 1297 1886 1257 1921 1232 1957 1198 1993 1151 2029 1161 2065 1151 2101 1095
 2136 1082 50 { m20} R 0.52 0.76 0.64 c[ 4 8] 0 sd 9 lw black 0.52 0.76 0.64 c 363 1043 m 36 8 d 35 8 d 36 9 d 36 8 d 36 9 d 36 8 d 36 9 d 35 9 d 36 9 d 36 9 d 36 9 d 36 10 d 36 9 d 35 10 d 36 9 d 36 10 d 36 10 d 36 10 d 36 10 d 35 11 d 36 10 d 36 11
 d 36 11 d 18 6 d 18 5 d 18 6 d 18 5 d 17 6 d 18 6 d 18 5 d 18 6 d 18 6 d 18 6 d 36 10 d 18 4 d 18 4 d 18 3 d 18 2 d 17 2 d 18 2 d 18 1 d 54 X 18 -2 d 18 -1 d 18 -3 d 18 -2 d 18 -4 d 18 -4 d 17 -4 d 18 -5 d 36 -11 d 36 -14 d 18 -7 d 18 -9 d 18 -8 d
 18 -9 d 18 -10 d 18 -10 d 17 -11 d 18 -12 d 18 -11 d 18 -13 d 18 -13 d 18 -13 d 18 -14 d 18 -15 d 36 -31 d 36 -32 d 35 -35 d s 0.54 0.66 0.63 c black 0.54 0.66 0.63 c 1020 634 m 24 68 d s 1044 702 m 35 99 d 36 92 d 36 84 d 36 77 d 36 70 d 18 32 d 18
 31 d 17 28 d 18 27 d 9 13 d 9 12 d 9 12 d 9 11 d 9 11 d 9 11 d 9 10 d 9 9 d 9 9 d 9 9 d 9 8 d 9 8 d 18 14 d 18 12 d 18 11 d 18 9 d 9 3 d 8 3 d 9 3 d 9 3 d 9 1 d 9 2 d 9 1 d 27 X 9 -1 d 9 -1 d 9 -2 d 9 -2 d 9 -3 d 9 -3 d 9 -3 d 9 -5 d 18 -9 d 36 -24
 d 17 -15 d 9 -8 d 9 -9 d 9 -9 d 9 -9 d 9 -10 d 9 -10 d 9 -11 d 9 -11 d 9 -12 d 9 -12 d 9 -13 d 9 -13 d 18 -27 d 18 -30 d 18 -31 d 18 -33 d 18 -34 d 35 -75 d 36 -82 d 36 -90 d 36 -96 d 34 -100 d s black[  ] 0 sd 3 lw 363 634 m 1791 X s 619 659 m -25
 Y s 683 646 m -12 Y s 747 646 m -12 Y s 811 646 m -12 Y s 875 646 m -12 Y s 939 659 m -25 Y s 1003 646 m -12 Y s 1067 646 m -12 Y s 1131 646 m -12 Y s 1195 646 m -12 Y s 1259 659 m -25 Y s 1323 646 m -12 Y s 1387 646 m -12 Y s 1451 646 m -12 Y s
 1515 646 m -12 Y s 1578 659 m -25 Y s 1642 646 m -12 Y s 1706 646 m -12 Y s 1770 646 m -12 Y s 1834 646 m -12 Y s 1898 659 m -25 Y s 619 659 m -25 Y s 555 646 m -12 Y s 491 646 m -12 Y s 427 646 m -12 Y s 1898 659 m -25 Y s 1962 646 m -12 Y s 2026
 646 m -12 Y s 2090 646 m -12 Y s 363 1484 m 1791 X s 619 1459 m 25 Y s 683 1471 m 13 Y s 747 1471 m 13 Y s 811 1471 m 13 Y s 875 1471 m 13 Y s 939 1459 m 25 Y s 1003 1471 m 13 Y s 1067 1471 m 13 Y s 1131 1471 m 13 Y s 1195 1471 m 13 Y s 1259 1459 m
 25 Y s 1323 1471 m 13 Y s 1387 1471 m 13 Y s 1451 1471 m 13 Y s 1515 1471 m 13 Y s 1578 1459 m 25 Y s 1642 1471 m 13 Y s 1706 1471 m 13 Y s 1770 1471 m 13 Y s 1834 1471 m 13 Y s 1898 1459 m 25 Y s 619 1459 m 25 Y s 555 1471 m 13 Y s 491 1471 m 13 Y
 s 427 1471 m 13 Y s 1898 1459 m 25 Y s 1962 1471 m 13 Y s 2026 1471 m 13 Y s 2090 1471 m 13 Y s 363 634 m 850 Y s 417 634 m -54 X s 390 684 m -27 X s 390 713 m -27 X s 390 734 m -27 X s 390 750 m -27 X s 390 763 m -27 X s 390 774 m -27 X s 390 784 m
 -27 X s 390 792 m -27 X s 417 800 m -54 X s 390 850 m -27 X s 390 879 m -27 X s 390 900 m -27 X s 390 916 m -27 X s 390 929 m -27 X s 390 940 m -27 X s 390 950 m -27 X s 390 958 m -27 X s 417 966 m -54 X s 390 1016 m -27 X s 390 1045 m -27 X s 390
 1066 m -27 X s 390 1082 m -27 X s 390 1095 m -27 X s 390 1106 m -27 X s 390 1116 m -27 X s 390 1124 m -27 X s 417 1132 m -54 X s 390 1182 m -27 X s 390 1211 m -27 X s 390 1232 m -27 X s 390 1248 m -27 X s 390 1261 m -27 X s 390 1272 m -27 X s 390
 1282 m -27 X s 390 1290 m -27 X s 417 1298 m -54 X s 390 1348 m -27 X s 390 1377 m -27 X s 390 1398 m -27 X s 390 1414 m -27 X s 390 1427 m -27 X s 390 1438 m -27 X s 390 1448 m -27 X s 390 1457 m -27 X s 417 1464 m -54 X s 2154 634 m 850 Y s 2101
 634 m 53 X s 2127 684 m 27 X s 2127 713 m 27 X s 2127 734 m 27 X s 2127 750 m 27 X s 2127 763 m 27 X s 2127 774 m 27 X s 2127 784 m 27 X s 2127 792 m 27 X s 2101 800 m 53 X s 2127 850 m 27 X s 2127 879 m 27 X s 2127 900 m 27 X s 2127 916 m 27 X s
 2127 929 m 27 X s 2127 940 m 27 X s 2127 950 m 27 X s 2127 958 m 27 X s 2101 966 m 53 X s 2127 1016 m 27 X s 2127 1045 m 27 X s 2127 1066 m 27 X s 2127 1082 m 27 X s 2127 1095 m 27 X s 2127 1106 m 27 X s 2127 1116 m 27 X s 2127 1124 m 27 X s 2101
 1132 m 53 X s 2127 1182 m 27 X s 2127 1211 m 27 X s 2127 1232 m 27 X s 2127 1248 m 27 X s 2127 1261 m 27 X s 2127 1272 m 27 X s 2127 1282 m 27 X s 2127 1290 m 27 X s 2101 1298 m 53 X s 2127 1348 m 27 X s 2127 1377 m 27 X s 2127 1398 m 27 X s 2127
 1414 m 27 X s 2127 1427 m 27 X s 2127 1438 m 27 X s 2127 1448 m 27 X s 2127 1457 m 27 X s 2101 1464 m 53 X s
 gsave  2268 1077 0 461 C 677.708 1215.31 t 0 r /Helvetica findfont 58.7189 sf 0 0 m (4mu) show NC gr  1 1 1 c 453 161 454 1269 bf black
 gsave  2268 1077 0 461 C 566.929 1371.71 t 0 r /Helvetica-Bold findfont 48.9324 sf 0 0 m (MC15) show NC gr  510 1390 m20
 gsave  2268 1077 0 461 C 566.929 1293.51 t 0 r /Helvetica-Bold findfont 48.9324 sf 0 0 m (Projection of Signal pdf) show NC gr  0 0 1 c 9 lw 471 1309 m 79 X s black 3 lw 1 1 1 c 2268 461 0 0 bf black 1 1 1 c 1791 364 363 74 bf black 1791 364 363 74
 bl 363 74 m 1791 X s
 gsave  2268 461 0 0 C 1915.83 13.0329 t 0 r /Helvetica findfont 22.9045 sf 0 0 m (4l Invariant Mass \(GeV\)) show NC gr  619 85 m -11 Y s 683 79 m -5 Y s 747 79 m -5 Y s 811 79 m -5 Y s 875 79 m -5 Y s 939 85 m -11 Y s 1003 79 m -5 Y s 1067 79 m -5
 Y s 1131 79 m -5 Y s 1195 79 m -5 Y s 1259 85 m -11 Y s 1323 79 m -5 Y s 1387 79 m -5 Y s 1451 79 m -5 Y s 1515 79 m -5 Y s 1578 85 m -11 Y s 1642 79 m -5 Y s 1706 79 m -5 Y s 1770 79 m -5 Y s 1834 79 m -5 Y s 1898 85 m -11 Y s 619 85 m -11 Y s 555
 79 m -5 Y s 491 79 m -5 Y s 427 79 m -5 Y s 1898 85 m -11 Y s 1962 79 m -5 Y s 2026 79 m -5 Y s 2090 79 m -5 Y s
 gsave  2268 461 0 0 C 596.253 55.3896 t 0 r /Helvetica findfont 22.9045 sf 0 0 m (550) show NC gr 
 gsave  2268 461 0 0 C 918.816 55.3896 t 0 r /Helvetica findfont 22.9045 sf 0 0 m (600) show NC gr 
 gsave  2268 461 0 0 C 1238.12 55.3896 t 0 r /Helvetica findfont 22.9045 sf 0 0 m (650) show NC gr 
 gsave  2268 461 0 0 C 1557.43 55.3896 t 0 r /Helvetica findfont 22.9045 sf 0 0 m (700) show NC gr 
 gsave  2268 461 0 0 C 1876.73 55.3896 t 0 r /Helvetica findfont 22.9045 sf 0 0 m (750) show NC gr  363 438 m 1791 X s 619 427 m 11 Y s 683 433 m 5 Y s 747 433 m 5 Y s 811 433 m 5 Y s 875 433 m 5 Y s 939 427 m 11 Y s 1003 433 m 5 Y s 1067 433 m 5 Y s
 1131 433 m 5 Y s 1195 433 m 5 Y s 1259 427 m 11 Y s 1323 433 m 5 Y s 1387 433 m 5 Y s 1451 433 m 5 Y s 1515 433 m 5 Y s 1578 427 m 11 Y s 1642 433 m 5 Y s 1706 433 m 5 Y s 1770 433 m 5 Y s 1834 433 m 5 Y s 1898 427 m 11 Y s 619 427 m 11 Y s 555 433
 m 5 Y s 491 433 m 5 Y s 427 433 m 5 Y s 1898 427 m 11 Y s 1962 433 m 5 Y s 2026 433 m 5 Y s 2090 433 m 5 Y s 363 74 m 364 Y s 417 74 m -54 X s 390 81 m -27 X s 390 88 m -27 X s 390 96 m -27 X s 390 103 m -27 X s 417 110 m -54 X s 390 118 m -27 X s
 390 125 m -27 X s 390 132 m -27 X s 390 139 m -27 X s 417 147 m -54 X s 390 154 m -27 X s 390 161 m -27 X s 390 169 m -27 X s 390 176 m -27 X s 417 183 m -54 X s 390 190 m -27 X s 390 198 m -27 X s 390 205 m -27 X s 390 212 m -27 X s 417 220 m -54 X
 s 390 227 m -27 X s 390 234 m -27 X s 390 241 m -27 X s 390 249 m -27 X s 417 256 m -54 X s 390 263 m -27 X s 390 271 m -27 X s 390 278 m -27 X s 390 285 m -27 X s 417 293 m -54 X s 390 300 m -27 X s 390 307 m -27 X s 390 314 m -27 X s 390 322 m -27
 X s 417 329 m -54 X s 390 336 m -27 X s 390 344 m -27 X s 390 351 m -27 X s 390 358 m -27 X s 417 365 m -54 X s 390 373 m -27 X s 390 380 m -27 X s 390 387 m -27 X s 390 395 m -27 X s 417 402 m -54 X s 390 409 m -27 X s 390 416 m -27 X s 390 424 m
 -27 X s 390 431 m -27 X s 417 438 m -54 X s
 gsave  2268 461 0 0 C 329.08 65.1643 t 0 r /Helvetica findfont 22.9045 sf 0 0 m (\2555) show NC gr 
 gsave  2268 461 0 0 C 329.08 101.005 t 0 r /Helvetica findfont 22.9045 sf 0 0 m (\2554) show NC gr 
 gsave  2268 461 0 0 C 329.08 140.103 t 0 r /Helvetica findfont 22.9045 sf 0 0 m (\2553) show NC gr 
 gsave  2268 461 0 0 C 329.08 175.944 t 0 r /Helvetica findfont 22.9045 sf 0 0 m (\2552) show NC gr 
 gsave  2268 461 0 0 C 332.338 211.784 t 0 r /Helvetica findfont 22.9045 sf 0 0 m (\2551) show NC gr 
 gsave  2268 461 0 0 C 335.596 247.624 t 0 r /Helvetica findfont 22.9045 sf 0 0 m (0) show NC gr 
 gsave  2268 461 0 0 C 338.854 283.465 t 0 r /Helvetica findfont 22.9045 sf 0 0 m (1) show NC gr 
 gsave  2268 461 0 0 C 335.596 319.305 t 0 r /Helvetica findfont 22.9045 sf 0 0 m (2) show NC gr 
 gsave  2268 461 0 0 C 335.596 358.403 t 0 r /Helvetica findfont 22.9045 sf 0 0 m (3) show NC gr 
 gsave  2268 461 0 0 C 335.596 394.244 t 0 r /Helvetica findfont 22.9045 sf 0 0 m (4) show NC gr 
 gsave  2268 461 0 0 C 335.596 430.084 t 0 r /Helvetica findfont 22.9045 sf 0 0 m (5) show NC gr  2154 74 m 364 Y s 2101 74 m 53 X s 2127 81 m 27 X s 2127 88 m 27 X s 2127 96 m 27 X s 2127 103 m 27 X s 2101 110 m 53 X s 2127 118 m 27 X s 2127 125 m
 27 X s 2127 132 m 27 X s 2127 139 m 27 X s 2101 147 m 53 X s 2127 154 m 27 X s 2127 161 m 27 X s 2127 169 m 27 X s 2127 176 m 27 X s 2101 183 m 53 X s 2127 190 m 27 X s 2127 198 m 27 X s 2127 205 m 27 X s 2127 212 m 27 X s 2101 220 m 53 X s 2127 227
 m 27 X s 2127 234 m 27 X s 2127 241 m 27 X s 2127 249 m 27 X s 2101 256 m 53 X s 2127 263 m 27 X s 2127 271 m 27 X s 2127 278 m 27 X s 2127 285 m 27 X s 2101 293 m 53 X s 2127 300 m 27 X s 2127 307 m 27 X s 2127 314 m 27 X s 2127 322 m 27 X s 2101
 329 m 53 X s 2127 336 m 27 X s 2127 344 m 27 X s 2127 351 m 27 X s 2127 358 m 27 X s 2101 365 m 53 X s 2127 373 m 27 X s 2127 380 m 27 X s 2127 387 m 27 X s 2127 395 m 27 X s 2101 402 m 53 X s 2127 409 m 27 X s 2127 416 m 27 X s 2127 424 m 27 X s
 2127 431 m 27 X s 2101 438 m 53 X s 6 lw 0.2 0.8 0.2 c black 3 lw 0.2 0.8 0.2 c 363 256 m 55 Y 36 X -61 Y 35 X 8 Y 36 X 9 Y 36 X 57 Y 36 X -117 Y 36 X 9 Y 36 X 64 Y 35 X -11 Y 36 X -23 Y 36 X -33 Y 36 X 57 Y 36 X 11 Y 36 X -91 Y 35 X 80 Y 36 X -27 Y
 36 X 49 Y 36 X -69 Y 36 X 2 Y 36 X 16 Y 35 X 35 Y 36 X -26 Y 36 X 23 Y 36 X -10 Y 36 X -23 Y 36 X 55 Y 35 X -23 Y 36 X 62 Y 36 X -98 Y 36 X -10 Y 36 X -45 Y 36 X 81 Y 35 X -34 Y 36 X 56 Y 36 X 41 Y 36 X -59 Y 36 X -34 Y 36 X -17 Y 35 X 71 Y 36 X -44
 Y 36 X -6 Y 36 X 65 Y 36 X -56 Y 71 X -16 Y 36 X -30 Y 36 X 68 Y 36 X 28 Y 36 X -38 Y 36 X 21 Y 35 X -22 Y f 6 lw black 0.2 0.8 0.2 c black 363 311 m 36 X -61 Y 35 X 8 Y 36 X 9 Y 36 X 57 Y 36 X -117 Y 36 X 9 Y 36 X 64 Y 35 X -11 Y 36 X -23 Y 36 X
 -33 Y 36 X 57 Y 36 X 11 Y 36 X -91 Y 35 X 80 Y 36 X -27 Y 36 X 49 Y 36 X -69 Y 36 X 2 Y 36 X 16 Y 35 X 35 Y 36 X -26 Y 36 X 23 Y 36 X -10 Y 36 X -23 Y 36 X 55 Y 35 X -23 Y 36 X 62 Y 36 X -98 Y 36 X -10 Y 36 X -45 Y 36 X 81 Y 35 X -34 Y 36 X 56 Y 36
 X 41 Y 36 X -59 Y 36 X -34 Y 36 X -17 Y 35 X 71 Y 36 X -44 Y 36 X -6 Y 36 X 65 Y 36 X -56 Y 71 X -16 Y 36 X -30 Y 36 X 68 Y 36 X 28 Y 36 X -38 Y 36 X 21 Y 35 X s 3 lw 363 74 m 1791 X s 619 85 m -11 Y s 683 79 m -5 Y s 747 79 m -5 Y s 811 79 m -5 Y s
 875 79 m -5 Y s 939 85 m -11 Y s 1003 79 m -5 Y s 1067 79 m -5 Y s 1131 79 m -5 Y s 1195 79 m -5 Y s 1259 85 m -11 Y s 1323 79 m -5 Y s 1387 79 m -5 Y s 1451 79 m -5 Y s 1515 79 m -5 Y s 1578 85 m -11 Y s 1642 79 m -5 Y s 1706 79 m -5 Y s 1770 79 m
 -5 Y s 1834 79 m -5 Y s 1898 85 m -11 Y s 619 85 m -11 Y s 555 79 m -5 Y s 491 79 m -5 Y s 427 79 m -5 Y s 1898 85 m -11 Y s 1962 79 m -5 Y s 2026 79 m -5 Y s 2090 79 m -5 Y s 363 438 m 1791 X s 619 427 m 11 Y s 683 433 m 5 Y s 747 433 m 5 Y s 811
 433 m 5 Y s 875 433 m 5 Y s 939 427 m 11 Y s 1003 433 m 5 Y s 1067 433 m 5 Y s 1131 433 m 5 Y s 1195 433 m 5 Y s 1259 427 m 11 Y s 1323 433 m 5 Y s 1387 433 m 5 Y s 1451 433 m 5 Y s 1515 433 m 5 Y s 1578 427 m 11 Y s 1642 433 m 5 Y s 1706 433 m 5 Y
 s 1770 433 m 5 Y s 1834 433 m 5 Y s 1898 427 m 11 Y s 619 427 m 11 Y s 555 433 m 5 Y s 491 433 m 5 Y s 427 433 m 5 Y s 1898 427 m 11 Y s 1962 433 m 5 Y s 2026 433 m 5 Y s 2090 433 m 5 Y s 363 74 m 364 Y s 417 74 m -54 X s 390 81 m -27 X s 390 88 m
 -27 X s 390 96 m -27 X s 390 103 m -27 X s 417 110 m -54 X s 390 118 m -27 X s 390 125 m -27 X s 390 132 m -27 X s 390 139 m -27 X s 417 147 m -54 X s 390 154 m -27 X s 390 161 m -27 X s 390 169 m -27 X s 390 176 m -27 X s 417 183 m -54 X s 390 190
 m -27 X s 390 198 m -27 X s 390 205 m -27 X s 390 212 m -27 X s 417 220 m -54 X s 390 227 m -27 X s 390 234 m -27 X s 390 241 m -27 X s 390 249 m -27 X s 417 256 m -54 X s 390 263 m -27 X s 390 271 m -27 X s 390 278 m -27 X s 390 285 m -27 X s 417
 293 m -54 X s 390 300 m -27 X s 390 307 m -27 X s 390 314 m -27 X s 390 322 m -27 X s 417 329 m -54 X s 390 336 m -27 X s 390 344 m -27 X s 390 351 m -27 X s 390 358 m -27 X s 417 365 m -54 X s 390 373 m -27 X s 390 380 m -27 X s 390 387 m -27 X s
 390 395 m -27 X s 417 402 m -54 X s 390 409 m -27 X s 390 416 m -27 X s 390 424 m -27 X s 390 431 m -27 X s 417 438 m -54 X s 2154 74 m 364 Y s 2101 74 m 53 X s 2127 81 m 27 X s 2127 88 m 27 X s 2127 96 m 27 X s 2127 103 m 27 X s 2101 110 m 53 X s
 2127 118 m 27 X s 2127 125 m 27 X s 2127 132 m 27 X s 2127 139 m 27 X s 2101 147 m 53 X s 2127 154 m 27 X s 2127 161 m 27 X s 2127 169 m 27 X s 2127 176 m 27 X s 2101 183 m 53 X s 2127 190 m 27 X s 2127 198 m 27 X s 2127 205 m 27 X s 2127 212 m 27 X
 s 2101 220 m 53 X s 2127 227 m 27 X s 2127 234 m 27 X s 2127 241 m 27 X s 2127 249 m 27 X s 2101 256 m 53 X s 2127 263 m 27 X s 2127 271 m 27 X s 2127 278 m 27 X s 2127 285 m 27 X s 2101 293 m 53 X s 2127 300 m 27 X s 2127 307 m 27 X s 2127 314 m 27
 X s 2127 322 m 27 X s 2101 329 m 53 X s 2127 336 m 27 X s 2127 344 m 27 X s 2127 351 m 27 X s 2127 358 m 27 X s 2101 365 m 53 X s 2127 373 m 27 X s 2127 380 m 27 X s 2127 387 m 27 X s 2127 395 m 27 X s 2101 402 m 53 X s 2127 409 m 27 X s 2127 416 m
 27 X s 2127 424 m 27 X s 2127 431 m 27 X s 2101 438 m 53 X s
 gr  gr showpage
end
%%EOF
