%!PS-Adobe-2.0 EPSF-2.0
%%BoundingBox:  0 0 567 384
%%Title: H4l2015_plotfit/VBF_mass_signal_900_H4l_4mu.eps: 
%%Creator: ROOT Version 5.34/07
%%CreationDate: Mon Nov  9 16:29:44 2015
%%EndComments
%%BeginProlog
80 dict begin
/s {stroke} def /l {lineto} def /m {moveto} def /t {translate} def
/r {rotate} def /rl {roll}  def /R {repeat} def
/d {rlineto} def /rm {rmoveto} def /gr {grestore} def /f {eofill} def
/c {setrgbcolor} def /black {0 setgray} def /sd {setdash} def
/cl {closepath} def /sf {scalefont setfont} def /lw {setlinewidth} def
/box {m dup 0 exch d exch 0 d 0 exch neg d cl} def
/NC{systemdict begin initclip end}def/C{NC box clip newpath}def
/bl {box s} def /bf {box f} def /Y { 0 exch d} def /X { 0 d} def 
/K {{pop pop 0 moveto} exch kshow} bind def
/ita {/ang 15 def gsave [1 0 ang dup sin exch cos div 1 0 0] concat} def 
/mp {newpath /y exch def /x exch def} def
/side {[w .77 mul w .23 mul] .385 w mul sd w 0 l currentpoint t -144 r} def
/mr {mp x y w2 0 360 arc} def /m24 {mr s} def /m20 {mr f} def
/mb {mp x y w2 add m w2 neg 0 d 0 w neg d w 0 d 0 w d cl} def
/mt {mp x y w2 add m w2 neg w neg d w 0 d cl} def
/m21 {mb f} def /m25 {mb s} def /m22 {mt f} def /m26{mt s} def
/m23 {mp x y w2 sub m w2 w d w neg 0 d cl f} def
/m27 {mp x y w2 add m w3 neg w2 neg d w3 w2 neg d w3 w2 d cl s} def
/m28 {mp x w2 sub y w2 sub w3 add m w3 0 d  0 w3 neg d w3 0 d 0 w3 d w3 0 d  0 w3 d w3 neg 0 d 0 w3 d w3 neg 0 d 0 w3 neg d w3 neg 0 d cl s } def
/m29 {mp gsave x w2 sub y w2 add w3 sub m currentpoint t 4 {side} repeat cl fill gr} def
/m30 {mp gsave x w2 sub y w2 add w3 sub m currentpoint t 4 {side} repeat cl s gr} def
/m31 {mp x y w2 sub m 0 w d x w2 sub y m w 0 d x w2 sub y w2 add m w w neg d x w2 sub y w2 sub m w w d s} def
/m32 {mp x y w2 sub m w2 w d w neg 0 d cl s} def
/m33 {mp x y w2 add m w3 neg w2 neg d w3 w2 neg d w3 w2 d cl f} def
/m34 {mp x w2 sub y w2 sub w3 add m w3 0 d  0 w3 neg d w3 0 d 0 w3 d w3 0 d  0 w3 d w3 neg 0 d 0 w3 d w3 neg 0 d 0 w3 neg d w3 neg 0 d cl f } def
/m2 {mp x y w2 sub m 0 w d x w2 sub y m w 0 d s} def
/m5 {mp x w2 sub y w2 sub m w w d x w2 sub y w2 add m w w neg d s} def
/reEncode {exch findfont dup length dict begin {1 index /FID eq  {pop pop} {def} ifelse } forall /Encoding exch def currentdict end dup /FontName get exch definefont pop } def [/Times-Bold /Times-Italic /Times-BoldItalic /Helvetica /Helvetica-Oblique
 /Helvetica-Bold /Helvetica-BoldOblique /Courier /Courier-Oblique /Courier-Bold /Courier-BoldOblique /Times-Roman /AvantGarde-Book /AvantGarde-BookOblique /AvantGarde-Demi /AvantGarde-DemiOblique /Bookman-Demi /Bookman-DemiItalic /Bookman-Light
 /Bookman-LightItalic /Helvetica-Narrow /Helvetica-Narrow-Bold /Helvetica-Narrow-BoldOblique /Helvetica-Narrow-Oblique /NewCenturySchlbk-Roman /NewCenturySchlbk-Bold /NewCenturySchlbk-BoldItalic /NewCenturySchlbk-Italic /Palatino-Bold
 /Palatino-BoldItalic /Palatino-Italic /Palatino-Roman ] {ISOLatin1Encoding reEncode } forall
%%EndProlog
%%BeginSetup
%%EndSetup
newpath  gsave  .25 .25 scale  gsave  0 0 t black[  ] 0 sd 3 lw 1 1 1 c 2268 1538 0 0 bf black 1 1 1 c 2222 738 23 784 bf black 1 1 1 c 2222 739 23 15 bf black 1 1 1 c 2268 1077 0 461 bf black 1 1 1 c 1791 850 363 634 bf black 1791 850 363 634 bl 363
 634 m 1791 X s
 gsave  2268 1077 0 461 C 1642.14 498.507 t 0 r /Helvetica findfont 48.9324 sf 0 0 m (4l Invariant Mass \(GeV\)) show NC gr  455 659 m -25 Y s 501 646 m -12 Y s 547 646 m -12 Y s 593 646 m -12 Y s 638 646 m -12 Y s 684 659 m -25 Y s 730 646 m -12 Y s
 776 646 m -12 Y s 822 646 m -12 Y s 868 646 m -12 Y s 914 659 m -25 Y s 960 646 m -12 Y s 1006 646 m -12 Y s 1052 646 m -12 Y s 1098 646 m -12 Y s 1144 659 m -25 Y s 1190 646 m -12 Y s 1236 646 m -12 Y s 1282 646 m -12 Y s 1327 646 m -12 Y s 1373
 659 m -25 Y s 1419 646 m -12 Y s 1465 646 m -12 Y s 1511 646 m -12 Y s 1557 646 m -12 Y s 1603 659 m -25 Y s 1649 646 m -12 Y s 1695 646 m -12 Y s 1741 646 m -12 Y s 1787 646 m -12 Y s 1833 659 m -25 Y s 1879 646 m -12 Y s 1925 646 m -12 Y s 1971
 646 m -12 Y s 2017 646 m -12 Y s 2062 659 m -25 Y s 455 659 m -25 Y s 409 646 m -12 Y s 363 646 m -12 Y s 2062 659 m -25 Y s 2108 646 m -12 Y s 2154 646 m -12 Y s
 gsave  2268 1077 0 461 C 410.535 586.478 t 0 r /Helvetica findfont 48.9324 sf 0 0 m (650) show NC gr 
 gsave  2268 1077 0 461 C 641.868 586.478 t 0 r /Helvetica findfont 48.9324 sf 0 0 m (700) show NC gr 
 gsave  2268 1077 0 461 C 869.943 586.478 t 0 r /Helvetica findfont 48.9324 sf 0 0 m (750) show NC gr 
 gsave  2268 1077 0 461 C 1101.28 586.478 t 0 r /Helvetica findfont 48.9324 sf 0 0 m (800) show NC gr 
 gsave  2268 1077 0 461 C 1329.35 586.478 t 0 r /Helvetica findfont 48.9324 sf 0 0 m (850) show NC gr 
 gsave  2268 1077 0 461 C 1560.68 586.478 t 0 r /Helvetica findfont 48.9324 sf 0 0 m (900) show NC gr 
 gsave  2268 1077 0 461 C 1788.76 586.478 t 0 r /Helvetica findfont 48.9324 sf 0 0 m (950) show NC gr 
 gsave  2268 1077 0 461 C 2007.06 586.478 t 0 r /Helvetica findfont 48.9324 sf 0 0 m (1000) show NC gr  363 1484 m 1791 X s 455 1459 m 25 Y s 501 1471 m 13 Y s 547 1471 m 13 Y s 593 1471 m 13 Y s 638 1471 m 13 Y s 684 1459 m 25 Y s 730 1471 m 13 Y s
 776 1471 m 13 Y s 822 1471 m 13 Y s 868 1471 m 13 Y s 914 1459 m 25 Y s 960 1471 m 13 Y s 1006 1471 m 13 Y s 1052 1471 m 13 Y s 1098 1471 m 13 Y s 1144 1459 m 25 Y s 1190 1471 m 13 Y s 1236 1471 m 13 Y s 1282 1471 m 13 Y s 1327 1471 m 13 Y s 1373
 1459 m 25 Y s 1419 1471 m 13 Y s 1465 1471 m 13 Y s 1511 1471 m 13 Y s 1557 1471 m 13 Y s 1603 1459 m 25 Y s 1649 1471 m 13 Y s 1695 1471 m 13 Y s 1741 1471 m 13 Y s 1787 1471 m 13 Y s 1833 1459 m 25 Y s 1879 1471 m 13 Y s 1925 1471 m 13 Y s 1971
 1471 m 13 Y s 2017 1471 m 13 Y s 2062 1459 m 25 Y s 455 1459 m 25 Y s 409 1471 m 13 Y s 363 1471 m 13 Y s 2062 1459 m 25 Y s 2108 1471 m 13 Y s 2154 1471 m 13 Y s 363 634 m 850 Y s
 gsave  2268 1077 0 461 C 120.554 1058.92 t 90 r /Helvetica findfont 48.9324 sf 0 0 m (Events / \( 7.8 GeV \)) show NC gr  417 634 m -54 X s
 gsave  2268 1077 0 461 C 312.788 632.093 t 0 r /Helvetica findfont 32.6216 sf 0 0 m (\2552) show NC gr 
 gsave  2268 1077 0 461 C 260.657 612.544 t 0 r /Helvetica findfont 48.9324 sf 0 0 m (10) show NC gr  390 684 m -27 X s 390 713 m -27 X s 390 734 m -27 X s 390 750 m -27 X s 390 763 m -27 X s 390 774 m -27 X s 390 784 m -27 X s 390 793 m -27 X s 417
 800 m -54 X s
 gsave  2268 1077 0 461 C 319.305 798.262 t 0 r /Helvetica findfont 32.6216 sf 0 0 m (\2551) show NC gr 
 gsave  2268 1077 0 461 C 267.173 778.713 t 0 r /Helvetica findfont 48.9324 sf 0 0 m (10) show NC gr  390 850 m -27 X s 390 880 m -27 X s 390 901 m -27 X s 390 917 m -27 X s 390 930 m -27 X s 390 941 m -27 X s 390 951 m -27 X s 390 959 m -27 X s 417
 967 m -54 X s
 gsave  2268 1077 0 461 C 342.425 946.118 t 0 r  -27 0 t /Helvetica findfont 48.9324 sf 0 0 m (1) show NC gr  390 1017 m -27 X s 390 1046 m -27 X s 390 1067 m -27 X s 390 1083 m -27 X s 390 1097 m -27 X s 390 1108 m -27 X s 390 1118 m -27 X s 390
 1126 m -27 X s 417 1134 m -54 X s
 gsave  2268 1077 0 461 C 342.425 1112.8 t 0 r  -55 0 t /Helvetica findfont 48.9324 sf 0 0 m (10) show NC gr  390 1184 m -27 X s 390 1213 m -27 X s 390 1234 m -27 X s 390 1250 m -27 X s 390 1263 m -27 X s 390 1275 m -27 X s 390 1284 m -27 X s 390
 1293 m -27 X s 417 1300 m -54 X s
 gsave  2268 1077 0 461 C 322.563 1300.03 t 0 r /Helvetica findfont 32.6216 sf 0 0 m (2) show NC gr 
 gsave  2268 1077 0 461 C 270.432 1280.48 t 0 r /Helvetica findfont 48.9324 sf 0 0 m (10) show NC gr  390 1351 m -27 X s 390 1380 m -27 X s 390 1401 m -27 X s 390 1417 m -27 X s 390 1430 m -27 X s 390 1441 m -27 X s 390 1451 m -27 X s 390 1459 m -27
 X s 417 1467 m -54 X s
 gsave  2268 1077 0 461 C 322.563 1469.45 t 0 r /Helvetica findfont 32.6216 sf 0 0 m (3) show NC gr 
 gsave  2268 1077 0 461 C 270.432 1446.65 t 0 r /Helvetica findfont 48.9324 sf 0 0 m (10) show NC gr  2154 634 m 850 Y s 2101 634 m 53 X s 2127 684 m 27 X s 2127 713 m 27 X s 2127 734 m 27 X s 2127 750 m 27 X s 2127 763 m 27 X s 2127 774 m 27 X s
 2127 784 m 27 X s 2127 793 m 27 X s 2101 800 m 53 X s 2127 850 m 27 X s 2127 880 m 27 X s 2127 901 m 27 X s 2127 917 m 27 X s 2127 930 m 27 X s 2127 941 m 27 X s 2127 951 m 27 X s 2127 959 m 27 X s 2101 967 m 53 X s 2127 1017 m 27 X s 2127 1046 m 27
 X s 2127 1067 m 27 X s 2127 1083 m 27 X s 2127 1097 m 27 X s 2127 1108 m 27 X s 2127 1118 m 27 X s 2127 1126 m 27 X s 2101 1134 m 53 X s 2127 1184 m 27 X s 2127 1213 m 27 X s 2127 1234 m 27 X s 2127 1250 m 27 X s 2127 1263 m 27 X s 2127 1275 m 27 X
 s 2127 1284 m 27 X s 2127 1293 m 27 X s 2101 1300 m 53 X s 2127 1351 m 27 X s 2127 1380 m 27 X s 2127 1401 m 27 X s 2127 1417 m 27 X s 2127 1430 m 27 X s 2127 1441 m 27 X s 2127 1451 m 27 X s 2127 1459 m 27 X s 2101 1467 m 53 X s 381 1046 m -18 X s
 363 1046 m cl s 381 1046 m 18 X s 399 1046 m cl s 381 1046 m 50 Y s 381 1096 m cl s 381 1046 m -56 Y s 381 990 m cl s 417 1067 m -18 X s 399 1067 m cl s 417 1067 m 17 X s 434 1067 m cl s 417 1067 m 42 Y s 417 1109 m cl s 417 1067 m -47 Y s 417 1020
 m cl s 452 1067 m -18 X s 434 1067 m cl s 452 1067 m 18 X s 470 1067 m cl s 452 1067 m 42 Y s 452 1109 m cl s 452 1067 m -47 Y s 452 1020 m cl s 488 1017 m -18 X s 470 1017 m cl s 488 1017 m 18 X s 506 1017 m cl s 488 1017 m 61 Y s 488 1078 m cl s
 488 1017 m -75 Y s 488 942 m cl s 524 1118 m -18 X s 506 1118 m cl s 524 1118 m 18 X s 542 1118 m cl s 524 1118 m 29 Y s 524 1147 m cl s 524 1118 m -31 Y s 524 1087 m cl s 560 1067 m -18 X s 542 1067 m cl s 560 1067 m 18 X s 578 1067 m cl s 560 1067
 m 42 Y s 560 1109 m cl s 560 1067 m -47 Y s 560 1020 m cl s 596 1097 m -18 X s 578 1097 m cl s 596 1097 m 18 X s 614 1097 m cl s 596 1097 m 34 Y s 596 1131 m cl s 596 1097 m -37 Y s 596 1060 m cl s 632 1118 m -18 X s 614 1118 m cl s 632 1118 m 17 X
 s 649 1118 m cl s 632 1118 m 29 Y s 632 1147 m cl s 632 1118 m -31 Y s 632 1087 m cl s 667 1158 m -18 X s 649 1158 m cl s 667 1158 m 18 X s 685 1158 m cl s 667 1158 m 21 Y s 667 1179 m cl s 667 1158 m -22 Y s 667 1136 m cl s 703 1108 m -18 X s 685
 1108 m cl s 703 1108 m 18 X s 721 1108 m cl s 703 1108 m 31 Y s 703 1139 m cl s 703 1108 m -33 Y s 703 1075 m cl s 739 1158 m -18 X s 721 1158 m cl s 739 1158 m 18 X s 757 1158 m cl s 739 1158 m 21 Y s 739 1179 m cl s 739 1158 m -22 Y s 739 1136 m
 cl s 775 1141 m -18 X s 757 1141 m cl s 775 1141 m 18 X s 793 1141 m cl s 775 1141 m 24 Y s 775 1165 m cl s 775 1141 m -26 Y s 775 1115 m cl s 811 1180 m -18 X s 793 1180 m cl s 811 1180 m 18 X s 829 1180 m cl s 811 1180 m 18 Y s 811 1198 m cl s 811
 1180 m -19 Y s 811 1161 m cl s 847 1118 m -18 X s 829 1118 m cl s 847 1118 m 17 X s 864 1118 m cl s 847 1118 m 29 Y s 847 1147 m cl s 847 1118 m -31 Y s 847 1087 m cl s 882 1147 m -18 X s 864 1147 m cl s 882 1147 m 18 X s 900 1147 m cl s 882 1147 m
 23 Y s 882 1170 m cl s 882 1147 m -24 Y s 882 1123 m cl s 918 1163 m -18 X s 900 1163 m cl s 918 1163 m 18 X s 936 1163 m cl s 918 1163 m 21 Y s 918 1184 m cl s 918 1163 m -21 Y s 918 1142 m cl s 954 1126 m -18 X s 936 1126 m cl s 954 1126 m 18 X s
 972 1126 m cl s 954 1126 m 27 Y s 954 1153 m cl s 954 1126 m -29 Y s 954 1097 m cl s 990 1180 m -18 X s 972 1180 m cl s 990 1180 m 18 X s 1008 1180 m cl s 990 1180 m 18 Y s 990 1198 m cl s 990 1180 m -19 Y s 990 1161 m cl s 1026 1216 m -18 X s 1008
 1216 m cl s 1026 1216 m 18 X s 1044 1216 m cl s 1026 1216 m 14 Y s 1026 1230 m cl s 1026 1216 m -15 Y s 1026 1201 m cl s 1062 1228 m -18 X s 1044 1228 m cl s 1062 1228 m 17 X s 1079 1228 m cl s 1062 1228 m 13 Y s 1062 1241 m cl s 1062 1228 m -13 Y s
 1062 1215 m cl s 1097 1224 m -18 X s 1079 1224 m cl s 1097 1224 m 18 X s 1115 1224 m cl s 1097 1224 m 13 Y s 1097 1237 m cl s 1097 1224 m -13 Y s 1097 1211 m cl s 1133 1246 m -18 X s 1115 1246 m cl s 1133 1246 m 18 X s 1151 1246 m cl s 1133 1246 m
 11 Y s 1133 1257 m cl s 1133 1246 m -12 Y s 1133 1234 m cl s 1169 1236 m -18 X s 1151 1236 m cl s 1169 1236 m 18 X s 1187 1236 m cl s 1169 1236 m 12 Y s 1169 1248 m cl s 1169 1236 m -12 Y s 1169 1224 m cl s 1205 1270 m -18 X s 1187 1270 m cl s 1205
 1270 m 18 X s 1223 1270 m cl s 1205 1270 m 10 Y s 1205 1280 m cl s 1205 1270 m -9 Y s 1205 1261 m cl s 1241 1284 m -18 X s 1223 1284 m cl s 1241 1284 m 18 X s 1259 1284 m cl s 1241 1284 m 9 Y s 1241 1293 m cl s 1241 1284 m -8 Y s 1241 1276 m cl s
 1276 1318 m -17 X s 1259 1318 m cl s 1276 1318 m 18 X s 1294 1318 m cl s 1276 1318 m 6 Y s 1276 1324 m cl s 1276 1318 m -7 Y s 1276 1311 m cl s 1312 1337 m -18 X s 1294 1337 m cl s 1312 1337 m 18 X s 1330 1337 m cl s 1312 1337 m 5 Y s 1312 1342 m cl
 s 1312 1337 m -6 Y s 1312 1331 m cl s 1348 1354 m -18 X s 1330 1354 m cl s 1348 1354 m 18 X s 1366 1354 m cl s 1348 1354 m 5 Y s 1348 1359 m cl s 1348 1354 m -5 Y s 1348 1349 m cl s 1384 1374 m -18 X s 1366 1374 m cl s 1384 1374 m 18 X s 1402 1374 m
 cl s 1384 1374 m 4 Y s 1384 1378 m cl s 1384 1374 m -5 Y s 1384 1369 m cl s 1420 1395 m -18 X s 1402 1395 m cl s 1420 1395 m 18 X s 1438 1395 m cl s 1420 1395 m 4 Y s 1420 1399 m cl s 1420 1395 m -4 Y s 1420 1391 m cl s 1456 1417 m -18 X s 1438 1417
 m cl s 1456 1417 m 18 X s 1474 1417 m cl s 1456 1417 m 3 Y s 1456 1420 m cl s 1456 1417 m -3 Y s 1456 1414 m cl s 1491 1431 m -17 X s 1474 1431 m cl s 1491 1431 m 18 X s 1509 1431 m cl s 1491 1431 m 3 Y s 1491 1434 m cl s 1491 1431 m -3 Y s 1491
 1428 m cl s 1527 1441 m -18 X s 1509 1441 m cl s 1527 1441 m 18 X s 1545 1441 m cl s 1527 1441 m 3 Y s 1527 1444 m cl s 1527 1441 m -3 Y s 1527 1438 m cl s 1563 1449 m -18 X s 1545 1449 m cl s 1563 1449 m 18 X s 1581 1449 m cl s 1563 1449 m 2 Y s
 1563 1451 m cl s 1563 1449 m -3 Y s 1563 1446 m cl s 1599 1445 m -18 X s 1581 1445 m cl s 1599 1445 m 18 X s 1617 1445 m cl s 1599 1445 m 3 Y s 1599 1448 m cl s 1599 1445 m -3 Y s 1599 1442 m cl s 1635 1437 m -18 X s 1617 1437 m cl s 1635 1437 m 18
 X s 1653 1437 m cl s 1635 1437 m 3 Y s 1635 1440 m cl s 1635 1437 m -3 Y s 1635 1434 m cl s 1671 1427 m -18 X s 1653 1427 m cl s 1671 1427 m 18 X s 1689 1427 m cl s 1671 1427 m 3 Y s 1671 1430 m cl s 1671 1427 m -3 Y s 1671 1424 m cl s 1706 1413 m
 -17 X s 1689 1413 m cl s 1706 1413 m 18 X s 1724 1413 m cl s 1706 1413 m 4 Y s 1706 1417 m cl s 1706 1413 m -3 Y s 1706 1410 m cl s 1742 1391 m -18 X s 1724 1391 m cl s 1742 1391 m 18 X s 1760 1391 m cl s 1742 1391 m 4 Y s 1742 1395 m cl s 1742 1391
 m -4 Y s 1742 1387 m cl s 1778 1372 m -18 X s 1760 1372 m cl s 1778 1372 m 18 X s 1796 1372 m cl s 1778 1372 m 4 Y s 1778 1376 m cl s 1778 1372 m -5 Y s 1778 1367 m cl s 1814 1347 m -18 X s 1796 1347 m cl s 1814 1347 m 18 X s 1832 1347 m cl s 1814
 1347 m 5 Y s 1814 1352 m cl s 1814 1347 m -5 Y s 1814 1342 m cl s 1850 1329 m -18 X s 1832 1329 m cl s 1850 1329 m 18 X s 1868 1329 m cl s 1850 1329 m 6 Y s 1850 1335 m cl s 1850 1329 m -6 Y s 1850 1323 m cl s 1886 1309 m -18 X s 1868 1309 m cl s
 1886 1309 m 18 X s 1904 1309 m cl s 1886 1309 m 7 Y s 1886 1316 m cl s 1886 1309 m -7 Y s 1886 1302 m cl s 1921 1270 m -17 X s 1904 1270 m cl s 1921 1270 m 18 X s 1939 1270 m cl s 1921 1270 m 10 Y s 1921 1280 m cl s 1921 1270 m -9 Y s 1921 1261 m cl
 s 1957 1236 m -18 X s 1939 1236 m cl s 1957 1236 m 18 X s 1975 1236 m cl s 1957 1236 m 12 Y s 1957 1248 m cl s 1957 1236 m -12 Y s 1957 1224 m cl s 1993 1203 m -18 X s 1975 1203 m cl s 1993 1203 m 18 X s 2011 1203 m cl s 1993 1203 m 15 Y s 1993 1218
 m cl s 1993 1203 m -16 Y s 1993 1187 m cl s 2029 1176 m -18 X s 2011 1176 m cl s 2029 1176 m 18 X s 2047 1176 m cl s 2029 1176 m 19 Y s 2029 1195 m cl s 2029 1176 m -19 Y s 2029 1157 m cl s 2065 1191 m -18 X s 2047 1191 m cl s 2065 1191 m 18 X s
 2083 1191 m cl s 2065 1191 m 17 Y s 2065 1208 m cl s 2065 1191 m -17 Y s 2065 1174 m cl s 2101 1147 m -18 X s 2083 1147 m cl s 2101 1147 m 18 X s 2119 1147 m cl s 2101 1147 m 23 Y s 2101 1170 m cl s 2101 1147 m -24 Y s 2101 1123 m cl s 2136 1163 m
 -17 X s 2119 1163 m cl s 2136 1163 m 18 X s 2154 1163 m cl s 2136 1163 m 21 Y s 2136 1184 m cl s 2136 1163 m -21 Y s 2136 1142 m cl s /w 31 def /w2 {w 2 div} def /w3 {w 3 div} def 381 1046 417 1067 452 1067 488 1017 524 1118 560 1067 596 1097 632
 1118 667 1158 703 1108 739 1158 775 1141 811 1180 847 1118 882 1147 918 1163 954 1126 990 1180 1026 1216 1062 1228 1097 1224 1133 1246 1169 1236 1205 1270 1241 1284 1276 1318 1312 1337 1348 1354 1384 1374 1420 1395 1456 1417 1491 1431 1527 1441 1563
 1449 1599 1445 1635 1437 1671 1427 1706 1413 1742 1391 1778 1372 1814 1347 1850 1329 1886 1309 1921 1270 1957 1236 1993 1203 2029 1176 2065 1191 2101 1147 2136 1163 50 { m20} R 0 1 1 c 1 1 0 c black 1 1 0 c 363 1068 m 36 7 d 35 7 d 36 7 d 36 7 d 36
 7 d 36 7 d 36 8 d 35 7 d 36 7 d 36 8 d 36 8 d 36 7 d 36 8 d 35 9 d 36 8 d 36 9 d 36 9 d 36 9 d 36 10 d 35 11 d 36 11 d 36 11 d 36 13 d 18 8 d 18 8 d 18 9 d 18 11 d 17 11 d 18 12 d 18 12 d 18 13 d 18 12 d 18 12 d 18 12 d 18 10 d 18 10 d 18 9 d 36 15
 d 17 6 d 9 3 d 9 2 d 9 2 d 9 2 d 9 2 d 9 1 d 9 1 d 9 X 9 1 d 9 X 9 -1 d 9 X 9 -1 d 9 -2 d 9 -1 d 9 -2 d 9 -2 d 9 -3 d 18 -5 d 18 -7 d 35 -16 d 18 -10 d 18 -10 d 18 -11 d 18 -12 d 18 -12 d 18 -13 d 18 -13 d 18 -13 d 18 -12 d 18 -13 d 17 -12 d 18 -11
 d 36 -22 d 36 -21 d 36 -21 d 36 -20 d 36 -22 d 35 -22 d -52 Y -35 33 d -36 29 d -36 28 d -36 26 d -36 26 d -36 25 d -18 13 d -17 13 d -18 14 d -18 13 d -18 13 d -18 13 d -18 13 d -18 13 d -18 12 d -18 12 d -18 11 d -18 10 d -35 17 d -18 7 d -18 6 d
 -9 2 d -9 3 d -9 1 d -9 2 d -9 1 d -9 1 d -9 1 d -27 X -9 -1 d -9 -1 d -9 -1 d -9 -1 d -9 -2 d -9 -2 d -9 -3 d -9 -2 d -17 -6 d -36 -17 d -18 -9 d -18 -11 d -18 -12 d -18 -12 d -18 -12 d -18 -13 d -18 -13 d -18 -12 d -18 -12 d -17 -12 d -18 -11 d
 -18 -11 d -18 -10 d -18 -8 d -36 -16 d -36 -12 d -36 -11 d -35 -9 d -36 -9 d -36 -9 d -36 -9 d -36 -10 d -36 -9 d -35 -10 d -36 -9 d -36 -10 d -36 -10 d -36 -9 d -36 -10 d -35 -9 d -36 -10 d -36 -9 d -36 -9 d -36 -9 d -36 -10 d -35 -9 d -36 -9 d f 0
 1 1 c 0 1 0 c black 0 1 0 c 363 1059 m 36 7 d 35 8 d 36 7 d 36 7 d 36 8 d 36 8 d 36 7 d 35 8 d 36 8 d 36 8 d 36 8 d 36 8 d 36 8 d 35 9 d 36 8 d 36 9 d 36 9 d 36 10 d 36 10 d 35 10 d 36 11 d 36 11 d 36 14 d 18 8 d 18 8 d 18 10 d 18 10 d 17 12 d 18 12
 d 18 12 d 18 13 d 18 12 d 18 12 d 18 12 d 18 11 d 18 10 d 18 9 d 36 15 d 17 6 d 9 3 d 9 2 d 9 2 d 9 2 d 9 2 d 9 1 d 9 1 d 9 X 9 1 d 9 X 9 -1 d 9 X 9 -1 d 9 -2 d 9 -1 d 9 -2 d 9 -2 d 9 -2 d 18 -6 d 18 -7 d 35 -16 d 18 -10 d 18 -10 d 18 -12 d 18 -11 d
 18 -13 d 18 -13 d 18 -13 d 18 -13 d 18 -13 d 18 -12 d 17 -12 d 18 -12 d 36 -23 d 36 -22 d 36 -21 d 36 -22 d 36 -23 d 35 -24 d -25 Y -35 28 d -36 27 d -36 25 d -36 25 d -36 24 d -36 25 d -18 12 d -17 13 d -18 13 d -18 13 d -18 13 d -18 13 d -18 13 d
 -18 13 d -18 12 d -18 11 d -18 11 d -18 10 d -35 17 d -18 7 d -18 6 d -9 2 d -9 2 d -9 2 d -9 2 d -9 1 d -9 1 d -9 X -9 1 d -18 X -9 -1 d -9 -1 d -9 -1 d -9 -2 d -9 -1 d -9 -2 d -9 -3 d -9 -2 d -17 -7 d -36 -16 d -18 -9 d -18 -10 d -18 -12 d -18 -12
 d -18 -12 d -18 -13 d -18 -12 d -18 -13 d -18 -12 d -17 -11 d -18 -11 d -18 -10 d -18 -10 d -18 -8 d -36 -15 d -36 -12 d -36 -11 d -35 -10 d -36 -9 d -36 -9 d -36 -9 d -36 -9 d -36 -10 d -35 -9 d -36 -9 d -36 -9 d -36 -9 d -36 -9 d -36 -9 d -35 -8 d
 -36 -9 d -36 -9 d -36 -8 d -36 -9 d -36 -8 d -35 -8 d -36 -8 d f 0 0 1 c 9 lw black 0 0 1 c 363 1049 m 36 8 d 35 8 d 36 7 d 36 8 d 36 8 d 36 8 d 36 8 d 35 8 d 36 9 d 36 8 d 36 9 d 36 8 d 36 9 d 35 9 d 36 9 d 36 9 d 36 9 d 36 9 d 36 10 d 35 10 d 36
 10 d 36 12 d 36 14 d 18 9 d 18 9 d 18 9 d 18 11 d 17 12 d 18 12 d 18 12 d 18 13 d 18 12 d 18 13 d 18 11 d 18 11 d 18 10 d 18 10 d 36 15 d 17 6 d 9 3 d 9 2 d 9 3 d 9 1 d 9 2 d 9 1 d 9 1 d 9 X 9 1 d 9 X 9 -1 d 9 X 9 -1 d 9 -1 d 9 -2 d 9 -2 d 9 -2 d 9
 -2 d 18 -6 d 18 -7 d 35 -17 d 18 -9 d 18 -11 d 18 -11 d 18 -12 d 18 -13 d 18 -13 d 18 -13 d 18 -13 d 18 -13 d 18 -13 d 17 -12 d 18 -12 d 36 -24 d 36 -23 d 36 -23 d 36 -23 d 36 -25 d 35 -25 d s black 3 lw 381 1046 m -18 X s 363 1046 m cl s 381 1046 m
 18 X s 399 1046 m cl s 381 1046 m 50 Y s 381 1096 m cl s 381 1046 m -56 Y s 381 990 m cl s 417 1067 m -18 X s 399 1067 m cl s 417 1067 m 17 X s 434 1067 m cl s 417 1067 m 42 Y s 417 1109 m cl s 417 1067 m -47 Y s 417 1020 m cl s 452 1067 m -18 X s
 434 1067 m cl s 452 1067 m 18 X s 470 1067 m cl s 452 1067 m 42 Y s 452 1109 m cl s 452 1067 m -47 Y s 452 1020 m cl s 488 1017 m -18 X s 470 1017 m cl s 488 1017 m 18 X s 506 1017 m cl s 488 1017 m 61 Y s 488 1078 m cl s 488 1017 m -75 Y s 488 942
 m cl s 524 1118 m -18 X s 506 1118 m cl s 524 1118 m 18 X s 542 1118 m cl s 524 1118 m 29 Y s 524 1147 m cl s 524 1118 m -31 Y s 524 1087 m cl s 560 1067 m -18 X s 542 1067 m cl s 560 1067 m 18 X s 578 1067 m cl s 560 1067 m 42 Y s 560 1109 m cl s
 560 1067 m -47 Y s 560 1020 m cl s 596 1097 m -18 X s 578 1097 m cl s 596 1097 m 18 X s 614 1097 m cl s 596 1097 m 34 Y s 596 1131 m cl s 596 1097 m -37 Y s 596 1060 m cl s 632 1118 m -18 X s 614 1118 m cl s 632 1118 m 17 X s 649 1118 m cl s 632
 1118 m 29 Y s 632 1147 m cl s 632 1118 m -31 Y s 632 1087 m cl s 667 1158 m -18 X s 649 1158 m cl s 667 1158 m 18 X s 685 1158 m cl s 667 1158 m 21 Y s 667 1179 m cl s 667 1158 m -22 Y s 667 1136 m cl s 703 1108 m -18 X s 685 1108 m cl s 703 1108 m
 18 X s 721 1108 m cl s 703 1108 m 31 Y s 703 1139 m cl s 703 1108 m -33 Y s 703 1075 m cl s 739 1158 m -18 X s 721 1158 m cl s 739 1158 m 18 X s 757 1158 m cl s 739 1158 m 21 Y s 739 1179 m cl s 739 1158 m -22 Y s 739 1136 m cl s 775 1141 m -18 X s
 757 1141 m cl s 775 1141 m 18 X s 793 1141 m cl s 775 1141 m 24 Y s 775 1165 m cl s 775 1141 m -26 Y s 775 1115 m cl s 811 1180 m -18 X s 793 1180 m cl s 811 1180 m 18 X s 829 1180 m cl s 811 1180 m 18 Y s 811 1198 m cl s 811 1180 m -19 Y s 811 1161
 m cl s 847 1118 m -18 X s 829 1118 m cl s 847 1118 m 17 X s 864 1118 m cl s 847 1118 m 29 Y s 847 1147 m cl s 847 1118 m -31 Y s 847 1087 m cl s 882 1147 m -18 X s 864 1147 m cl s 882 1147 m 18 X s 900 1147 m cl s 882 1147 m 23 Y s 882 1170 m cl s
 882 1147 m -24 Y s 882 1123 m cl s 918 1163 m -18 X s 900 1163 m cl s 918 1163 m 18 X s 936 1163 m cl s 918 1163 m 21 Y s 918 1184 m cl s 918 1163 m -21 Y s 918 1142 m cl s 954 1126 m -18 X s 936 1126 m cl s 954 1126 m 18 X s 972 1126 m cl s 954
 1126 m 27 Y s 954 1153 m cl s 954 1126 m -29 Y s 954 1097 m cl s 990 1180 m -18 X s 972 1180 m cl s 990 1180 m 18 X s 1008 1180 m cl s 990 1180 m 18 Y s 990 1198 m cl s 990 1180 m -19 Y s 990 1161 m cl s 1026 1216 m -18 X s 1008 1216 m cl s 1026
 1216 m 18 X s 1044 1216 m cl s 1026 1216 m 14 Y s 1026 1230 m cl s 1026 1216 m -15 Y s 1026 1201 m cl s 1062 1228 m -18 X s 1044 1228 m cl s 1062 1228 m 17 X s 1079 1228 m cl s 1062 1228 m 13 Y s 1062 1241 m cl s 1062 1228 m -13 Y s 1062 1215 m cl s
 1097 1224 m -18 X s 1079 1224 m cl s 1097 1224 m 18 X s 1115 1224 m cl s 1097 1224 m 13 Y s 1097 1237 m cl s 1097 1224 m -13 Y s 1097 1211 m cl s 1133 1246 m -18 X s 1115 1246 m cl s 1133 1246 m 18 X s 1151 1246 m cl s 1133 1246 m 11 Y s 1133 1257 m
 cl s 1133 1246 m -12 Y s 1133 1234 m cl s 1169 1236 m -18 X s 1151 1236 m cl s 1169 1236 m 18 X s 1187 1236 m cl s 1169 1236 m 12 Y s 1169 1248 m cl s 1169 1236 m -12 Y s 1169 1224 m cl s 1205 1270 m -18 X s 1187 1270 m cl s 1205 1270 m 18 X s 1223
 1270 m cl s 1205 1270 m 10 Y s 1205 1280 m cl s 1205 1270 m -9 Y s 1205 1261 m cl s 1241 1284 m -18 X s 1223 1284 m cl s 1241 1284 m 18 X s 1259 1284 m cl s 1241 1284 m 9 Y s 1241 1293 m cl s 1241 1284 m -8 Y s 1241 1276 m cl s 1276 1318 m -17 X s
 1259 1318 m cl s 1276 1318 m 18 X s 1294 1318 m cl s 1276 1318 m 6 Y s 1276 1324 m cl s 1276 1318 m -7 Y s 1276 1311 m cl s 1312 1337 m -18 X s 1294 1337 m cl s 1312 1337 m 18 X s 1330 1337 m cl s 1312 1337 m 5 Y s 1312 1342 m cl s 1312 1337 m -6 Y
 s 1312 1331 m cl s 1348 1354 m -18 X s 1330 1354 m cl s 1348 1354 m 18 X s 1366 1354 m cl s 1348 1354 m 5 Y s 1348 1359 m cl s 1348 1354 m -5 Y s 1348 1349 m cl s 1384 1374 m -18 X s 1366 1374 m cl s 1384 1374 m 18 X s 1402 1374 m cl s 1384 1374 m 4
 Y s 1384 1378 m cl s 1384 1374 m -5 Y s 1384 1369 m cl s 1420 1395 m -18 X s 1402 1395 m cl s 1420 1395 m 18 X s 1438 1395 m cl s 1420 1395 m 4 Y s 1420 1399 m cl s 1420 1395 m -4 Y s 1420 1391 m cl s 1456 1417 m -18 X s 1438 1417 m cl s 1456 1417 m
 18 X s 1474 1417 m cl s 1456 1417 m 3 Y s 1456 1420 m cl s 1456 1417 m -3 Y s 1456 1414 m cl s 1491 1431 m -17 X s 1474 1431 m cl s 1491 1431 m 18 X s 1509 1431 m cl s 1491 1431 m 3 Y s 1491 1434 m cl s 1491 1431 m -3 Y s 1491 1428 m cl s 1527 1441
 m -18 X s 1509 1441 m cl s 1527 1441 m 18 X s 1545 1441 m cl s 1527 1441 m 3 Y s 1527 1444 m cl s 1527 1441 m -3 Y s 1527 1438 m cl s 1563 1449 m -18 X s 1545 1449 m cl s 1563 1449 m 18 X s 1581 1449 m cl s 1563 1449 m 2 Y s 1563 1451 m cl s 1563
 1449 m -3 Y s 1563 1446 m cl s 1599 1445 m -18 X s 1581 1445 m cl s 1599 1445 m 18 X s 1617 1445 m cl s 1599 1445 m 3 Y s 1599 1448 m cl s 1599 1445 m -3 Y s 1599 1442 m cl s 1635 1437 m -18 X s 1617 1437 m cl s 1635 1437 m 18 X s 1653 1437 m cl s
 1635 1437 m 3 Y s 1635 1440 m cl s 1635 1437 m -3 Y s 1635 1434 m cl s 1671 1427 m -18 X s 1653 1427 m cl s 1671 1427 m 18 X s 1689 1427 m cl s 1671 1427 m 3 Y s 1671 1430 m cl s 1671 1427 m -3 Y s 1671 1424 m cl s 1706 1413 m -17 X s 1689 1413 m cl
 s 1706 1413 m 18 X s 1724 1413 m cl s 1706 1413 m 4 Y s 1706 1417 m cl s 1706 1413 m -3 Y s 1706 1410 m cl s 1742 1391 m -18 X s 1724 1391 m cl s 1742 1391 m 18 X s 1760 1391 m cl s 1742 1391 m 4 Y s 1742 1395 m cl s 1742 1391 m -4 Y s 1742 1387 m
 cl s 1778 1372 m -18 X s 1760 1372 m cl s 1778 1372 m 18 X s 1796 1372 m cl s 1778 1372 m 4 Y s 1778 1376 m cl s 1778 1372 m -5 Y s 1778 1367 m cl s 1814 1347 m -18 X s 1796 1347 m cl s 1814 1347 m 18 X s 1832 1347 m cl s 1814 1347 m 5 Y s 1814 1352
 m cl s 1814 1347 m -5 Y s 1814 1342 m cl s 1850 1329 m -18 X s 1832 1329 m cl s 1850 1329 m 18 X s 1868 1329 m cl s 1850 1329 m 6 Y s 1850 1335 m cl s 1850 1329 m -6 Y s 1850 1323 m cl s 1886 1309 m -18 X s 1868 1309 m cl s 1886 1309 m 18 X s 1904
 1309 m cl s 1886 1309 m 7 Y s 1886 1316 m cl s 1886 1309 m -7 Y s 1886 1302 m cl s 1921 1270 m -17 X s 1904 1270 m cl s 1921 1270 m 18 X s 1939 1270 m cl s 1921 1270 m 10 Y s 1921 1280 m cl s 1921 1270 m -9 Y s 1921 1261 m cl s 1957 1236 m -18 X s
 1939 1236 m cl s 1957 1236 m 18 X s 1975 1236 m cl s 1957 1236 m 12 Y s 1957 1248 m cl s 1957 1236 m -12 Y s 1957 1224 m cl s 1993 1203 m -18 X s 1975 1203 m cl s 1993 1203 m 18 X s 2011 1203 m cl s 1993 1203 m 15 Y s 1993 1218 m cl s 1993 1203 m
 -16 Y s 1993 1187 m cl s 2029 1176 m -18 X s 2011 1176 m cl s 2029 1176 m 18 X s 2047 1176 m cl s 2029 1176 m 19 Y s 2029 1195 m cl s 2029 1176 m -19 Y s 2029 1157 m cl s 2065 1191 m -18 X s 2047 1191 m cl s 2065 1191 m 18 X s 2083 1191 m cl s 2065
 1191 m 17 Y s 2065 1208 m cl s 2065 1191 m -17 Y s 2065 1174 m cl s 2101 1147 m -18 X s 2083 1147 m cl s 2101 1147 m 18 X s 2119 1147 m cl s 2101 1147 m 23 Y s 2101 1170 m cl s 2101 1147 m -24 Y s 2101 1123 m cl s 2136 1163 m -17 X s 2119 1163 m cl
 s 2136 1163 m 18 X s 2154 1163 m cl s 2136 1163 m 21 Y s 2136 1184 m cl s 2136 1163 m -21 Y s 2136 1142 m cl s 381 1046 417 1067 452 1067 488 1017 524 1118 560 1067 596 1097 632 1118 667 1158 703 1108 739 1158 775 1141 811 1180 847 1118 882 1147 918
 1163 954 1126 990 1180 1026 1216 1062 1228 1097 1224 1133 1246 1169 1236 1205 1270 1241 1284 1276 1318 1312 1337 1348 1354 1384 1374 1420 1395 1456 1417 1491 1431 1527 1441 1563 1449 1599 1445 1635 1437 1671 1427 1706 1413 1742 1391 1778 1372 1814
 1347 1850 1329 1886 1309 1921 1270 1957 1236 1993 1203 2029 1176 2065 1191 2101 1147 2136 1163 50 { m20} R 0.52 0.76 0.64 c[ 4 8] 0 sd 9 lw black 0.52 0.76 0.64 c 363 1049 m 36 8 d 35 8 d 36 7 d 36 8 d 36 8 d 36 8 d 36 8 d 35 8 d 36 9 d 36 8 d 36 9
 d 36 8 d 36 9 d 35 9 d 36 9 d 36 9 d 36 9 d 36 9 d 36 9 d 35 10 d 36 9 d 36 10 d 36 10 d 36 10 d 18 5 d 18 5 d 17 5 d 18 6 d 18 5 d 18 5 d 36 10 d 36 9 d 18 4 d 18 3 d 18 3 d 18 3 d 17 2 d 18 1 d 18 2 d 18 1 d 54 X 18 -1 d 18 -1 d 18 -2 d 18 -2 d 18
 -2 d 17 -3 d 18 -3 d 18 -3 d 18 -4 d 36 -9 d 36 -11 d 36 -13 d 36 -14 d 17 -7 d 18 -8 d 18 -9 d 18 -9 d 18 -9 d 18 -10 d 18 -10 d 18 -10 d 18 -11 d 18 -11 d 36 -24 d 35 -25 d s 0.54 0.66 0.63 c black 0.54 0.66 0.63 c 975 634 m 33 83 d s 1008 717 m
 36 87 d 35 81 d 36 76 d 36 70 d 36 64 d 18 30 d 18 29 d 18 27 d 18 26 d 17 24 d 18 23 d 18 22 d 9 10 d 9 10 d 9 9 d 9 10 d 9 8 d 9 9 d 9 8 d 9 8 d 18 14 d 18 13 d 18 12 d 36 19 d 17 7 d 9 3 d 9 3 d 9 3 d 9 2 d 9 1 d 9 2 d 9 1 d 9 1 d 18 X 9 -1 d 9 X
 9 -1 d 9 -2 d 9 -2 d 9 -2 d 9 -2 d 9 -3 d 9 -3 d 9 -4 d 18 -8 d 35 -21 d 18 -12 d 18 -14 d 18 -15 d 9 -8 d 9 -9 d 9 -9 d 9 -9 d 9 -10 d 9 -9 d 18 -21 d 18 -23 d 18 -24 d 18 -25 d 17 -26 d 18 -28 d 36 -61 d 36 -65 d 36 -72 d 36 -77 d 36 -83 d 35 -89
 d s black[  ] 0 sd 3 lw 363 634 m 1791 X s 455 659 m -25 Y s 501 646 m -12 Y s 547 646 m -12 Y s 593 646 m -12 Y s 638 646 m -12 Y s 684 659 m -25 Y s 730 646 m -12 Y s 776 646 m -12 Y s 822 646 m -12 Y s 868 646 m -12 Y s 914 659 m -25 Y s 960 646
 m -12 Y s 1006 646 m -12 Y s 1052 646 m -12 Y s 1098 646 m -12 Y s 1144 659 m -25 Y s 1190 646 m -12 Y s 1236 646 m -12 Y s 1282 646 m -12 Y s 1327 646 m -12 Y s 1373 659 m -25 Y s 1419 646 m -12 Y s 1465 646 m -12 Y s 1511 646 m -12 Y s 1557 646 m
 -12 Y s 1603 659 m -25 Y s 1649 646 m -12 Y s 1695 646 m -12 Y s 1741 646 m -12 Y s 1787 646 m -12 Y s 1833 659 m -25 Y s 1879 646 m -12 Y s 1925 646 m -12 Y s 1971 646 m -12 Y s 2017 646 m -12 Y s 2062 659 m -25 Y s 455 659 m -25 Y s 409 646 m -12
 Y s 363 646 m -12 Y s 2062 659 m -25 Y s 2108 646 m -12 Y s 2154 646 m -12 Y s 363 1484 m 1791 X s 455 1459 m 25 Y s 501 1471 m 13 Y s 547 1471 m 13 Y s 593 1471 m 13 Y s 638 1471 m 13 Y s 684 1459 m 25 Y s 730 1471 m 13 Y s 776 1471 m 13 Y s 822
 1471 m 13 Y s 868 1471 m 13 Y s 914 1459 m 25 Y s 960 1471 m 13 Y s 1006 1471 m 13 Y s 1052 1471 m 13 Y s 1098 1471 m 13 Y s 1144 1459 m 25 Y s 1190 1471 m 13 Y s 1236 1471 m 13 Y s 1282 1471 m 13 Y s 1327 1471 m 13 Y s 1373 1459 m 25 Y s 1419 1471
 m 13 Y s 1465 1471 m 13 Y s 1511 1471 m 13 Y s 1557 1471 m 13 Y s 1603 1459 m 25 Y s 1649 1471 m 13 Y s 1695 1471 m 13 Y s 1741 1471 m 13 Y s 1787 1471 m 13 Y s 1833 1459 m 25 Y s 1879 1471 m 13 Y s 1925 1471 m 13 Y s 1971 1471 m 13 Y s 2017 1471 m
 13 Y s 2062 1459 m 25 Y s 455 1459 m 25 Y s 409 1471 m 13 Y s 363 1471 m 13 Y s 2062 1459 m 25 Y s 2108 1471 m 13 Y s 2154 1471 m 13 Y s 363 634 m 850 Y s 417 634 m -54 X s 390 684 m -27 X s 390 713 m -27 X s 390 734 m -27 X s 390 750 m -27 X s 390
 763 m -27 X s 390 774 m -27 X s 390 784 m -27 X s 390 793 m -27 X s 417 800 m -54 X s 390 850 m -27 X s 390 880 m -27 X s 390 901 m -27 X s 390 917 m -27 X s 390 930 m -27 X s 390 941 m -27 X s 390 951 m -27 X s 390 959 m -27 X s 417 967 m -54 X s
 390 1017 m -27 X s 390 1046 m -27 X s 390 1067 m -27 X s 390 1083 m -27 X s 390 1097 m -27 X s 390 1108 m -27 X s 390 1118 m -27 X s 390 1126 m -27 X s 417 1134 m -54 X s 390 1184 m -27 X s 390 1213 m -27 X s 390 1234 m -27 X s 390 1250 m -27 X s
 390 1263 m -27 X s 390 1275 m -27 X s 390 1284 m -27 X s 390 1293 m -27 X s 417 1300 m -54 X s 390 1351 m -27 X s 390 1380 m -27 X s 390 1401 m -27 X s 390 1417 m -27 X s 390 1430 m -27 X s 390 1441 m -27 X s 390 1451 m -27 X s 390 1459 m -27 X s
 417 1467 m -54 X s 2154 634 m 850 Y s 2101 634 m 53 X s 2127 684 m 27 X s 2127 713 m 27 X s 2127 734 m 27 X s 2127 750 m 27 X s 2127 763 m 27 X s 2127 774 m 27 X s 2127 784 m 27 X s 2127 793 m 27 X s 2101 800 m 53 X s 2127 850 m 27 X s 2127 880 m 27
 X s 2127 901 m 27 X s 2127 917 m 27 X s 2127 930 m 27 X s 2127 941 m 27 X s 2127 951 m 27 X s 2127 959 m 27 X s 2101 967 m 53 X s 2127 1017 m 27 X s 2127 1046 m 27 X s 2127 1067 m 27 X s 2127 1083 m 27 X s 2127 1097 m 27 X s 2127 1108 m 27 X s 2127
 1118 m 27 X s 2127 1126 m 27 X s 2101 1134 m 53 X s 2127 1184 m 27 X s 2127 1213 m 27 X s 2127 1234 m 27 X s 2127 1250 m 27 X s 2127 1263 m 27 X s 2127 1275 m 27 X s 2127 1284 m 27 X s 2127 1293 m 27 X s 2101 1300 m 53 X s 2127 1351 m 27 X s 2127
 1380 m 27 X s 2127 1401 m 27 X s 2127 1417 m 27 X s 2127 1430 m 27 X s 2127 1441 m 27 X s 2127 1451 m 27 X s 2127 1459 m 27 X s 2101 1467 m 53 X s
 gsave  2268 1077 0 461 C 677.708 1215.31 t 0 r /Helvetica findfont 58.7189 sf 0 0 m (4mu) show NC gr  1 1 1 c 453 161 454 1269 bf black
 gsave  2268 1077 0 461 C 566.929 1371.71 t 0 r /Helvetica-Bold findfont 48.9324 sf 0 0 m (MC15) show NC gr  510 1390 m20
 gsave  2268 1077 0 461 C 566.929 1293.51 t 0 r /Helvetica-Bold findfont 48.9324 sf 0 0 m (Projection of Signal pdf) show NC gr  0 0 1 c 9 lw 471 1309 m 79 X s black 3 lw 1 1 1 c 2268 461 0 0 bf black 1 1 1 c 1791 364 363 74 bf black 1791 364 363 74
 bl 363 74 m 1791 X s
 gsave  2268 461 0 0 C 1915.83 13.0329 t 0 r /Helvetica findfont 22.9045 sf 0 0 m (4l Invariant Mass \(GeV\)) show NC gr  455 85 m -11 Y s 501 79 m -5 Y s 547 79 m -5 Y s 593 79 m -5 Y s 638 79 m -5 Y s 684 85 m -11 Y s 730 79 m -5 Y s 776 79 m -5 Y
 s 822 79 m -5 Y s 868 79 m -5 Y s 914 85 m -11 Y s 960 79 m -5 Y s 1006 79 m -5 Y s 1052 79 m -5 Y s 1098 79 m -5 Y s 1144 85 m -11 Y s 1190 79 m -5 Y s 1236 79 m -5 Y s 1282 79 m -5 Y s 1327 79 m -5 Y s 1373 85 m -11 Y s 1419 79 m -5 Y s 1465 79 m
 -5 Y s 1511 79 m -5 Y s 1557 79 m -5 Y s 1603 85 m -11 Y s 1649 79 m -5 Y s 1695 79 m -5 Y s 1741 79 m -5 Y s 1787 79 m -5 Y s 1833 85 m -11 Y s 1879 79 m -5 Y s 1925 79 m -5 Y s 1971 79 m -5 Y s 2017 79 m -5 Y s 2062 85 m -11 Y s 455 85 m -11 Y s
 409 79 m -5 Y s 363 79 m -5 Y s 2062 85 m -11 Y s 2108 79 m -5 Y s 2154 79 m -5 Y s
 gsave  2268 461 0 0 C 433.342 55.3896 t 0 r /Helvetica findfont 22.9045 sf 0 0 m (650) show NC gr 
 gsave  2268 461 0 0 C 664.676 55.3896 t 0 r /Helvetica findfont 22.9045 sf 0 0 m (700) show NC gr 
 gsave  2268 461 0 0 C 892.75 55.3896 t 0 r /Helvetica findfont 22.9045 sf 0 0 m (750) show NC gr 
 gsave  2268 461 0 0 C 1124.08 55.3896 t 0 r /Helvetica findfont 22.9045 sf 0 0 m (800) show NC gr 
 gsave  2268 461 0 0 C 1352.16 55.3896 t 0 r /Helvetica findfont 22.9045 sf 0 0 m (850) show NC gr 
 gsave  2268 461 0 0 C 1583.49 55.3896 t 0 r /Helvetica findfont 22.9045 sf 0 0 m (900) show NC gr 
 gsave  2268 461 0 0 C 1811.57 55.3896 t 0 r /Helvetica findfont 22.9045 sf 0 0 m (950) show NC gr 
 gsave  2268 461 0 0 C 2036.38 55.3896 t 0 r /Helvetica findfont 22.9045 sf 0 0 m (1000) show NC gr  363 438 m 1791 X s 455 427 m 11 Y s 501 433 m 5 Y s 547 433 m 5 Y s 593 433 m 5 Y s 638 433 m 5 Y s 684 427 m 11 Y s 730 433 m 5 Y s 776 433 m 5 Y s
 822 433 m 5 Y s 868 433 m 5 Y s 914 427 m 11 Y s 960 433 m 5 Y s 1006 433 m 5 Y s 1052 433 m 5 Y s 1098 433 m 5 Y s 1144 427 m 11 Y s 1190 433 m 5 Y s 1236 433 m 5 Y s 1282 433 m 5 Y s 1327 433 m 5 Y s 1373 427 m 11 Y s 1419 433 m 5 Y s 1465 433 m 5
 Y s 1511 433 m 5 Y s 1557 433 m 5 Y s 1603 427 m 11 Y s 1649 433 m 5 Y s 1695 433 m 5 Y s 1741 433 m 5 Y s 1787 433 m 5 Y s 1833 427 m 11 Y s 1879 433 m 5 Y s 1925 433 m 5 Y s 1971 433 m 5 Y s 2017 433 m 5 Y s 2062 427 m 11 Y s 455 427 m 11 Y s 409
 433 m 5 Y s 363 433 m 5 Y s 2062 427 m 11 Y s 2108 433 m 5 Y s 2154 433 m 5 Y s 363 74 m 364 Y s 417 74 m -54 X s 390 81 m -27 X s 390 88 m -27 X s 390 96 m -27 X s 390 103 m -27 X s 417 110 m -54 X s 390 118 m -27 X s 390 125 m -27 X s 390 132 m
 -27 X s 390 139 m -27 X s 417 147 m -54 X s 390 154 m -27 X s 390 161 m -27 X s 390 169 m -27 X s 390 176 m -27 X s 417 183 m -54 X s 390 190 m -27 X s 390 198 m -27 X s 390 205 m -27 X s 390 212 m -27 X s 417 220 m -54 X s 390 227 m -27 X s 390 234
 m -27 X s 390 241 m -27 X s 390 249 m -27 X s 417 256 m -54 X s 390 263 m -27 X s 390 271 m -27 X s 390 278 m -27 X s 390 285 m -27 X s 417 293 m -54 X s 390 300 m -27 X s 390 307 m -27 X s 390 314 m -27 X s 390 322 m -27 X s 417 329 m -54 X s 390
 336 m -27 X s 390 344 m -27 X s 390 351 m -27 X s 390 358 m -27 X s 417 365 m -54 X s 390 373 m -27 X s 390 380 m -27 X s 390 387 m -27 X s 390 395 m -27 X s 417 402 m -54 X s 390 409 m -27 X s 390 416 m -27 X s 390 424 m -27 X s 390 431 m -27 X s
 417 438 m -54 X s
 gsave  2268 461 0 0 C 329.08 65.1643 t 0 r /Helvetica findfont 22.9045 sf 0 0 m (\2555) show NC gr 
 gsave  2268 461 0 0 C 329.08 101.005 t 0 r /Helvetica findfont 22.9045 sf 0 0 m (\2554) show NC gr 
 gsave  2268 461 0 0 C 329.08 140.103 t 0 r /Helvetica findfont 22.9045 sf 0 0 m (\2553) show NC gr 
 gsave  2268 461 0 0 C 329.08 175.944 t 0 r /Helvetica findfont 22.9045 sf 0 0 m (\2552) show NC gr 
 gsave  2268 461 0 0 C 332.338 211.784 t 0 r /Helvetica findfont 22.9045 sf 0 0 m (\2551) show NC gr 
 gsave  2268 461 0 0 C 335.596 247.624 t 0 r /Helvetica findfont 22.9045 sf 0 0 m (0) show NC gr 
 gsave  2268 461 0 0 C 338.854 283.465 t 0 r /Helvetica findfont 22.9045 sf 0 0 m (1) show NC gr 
 gsave  2268 461 0 0 C 335.596 319.305 t 0 r /Helvetica findfont 22.9045 sf 0 0 m (2) show NC gr 
 gsave  2268 461 0 0 C 335.596 358.403 t 0 r /Helvetica findfont 22.9045 sf 0 0 m (3) show NC gr 
 gsave  2268 461 0 0 C 335.596 394.244 t 0 r /Helvetica findfont 22.9045 sf 0 0 m (4) show NC gr 
 gsave  2268 461 0 0 C 335.596 430.084 t 0 r /Helvetica findfont 22.9045 sf 0 0 m (5) show NC gr  2154 74 m 364 Y s 2101 74 m 53 X s 2127 81 m 27 X s 2127 88 m 27 X s 2127 96 m 27 X s 2127 103 m 27 X s 2101 110 m 53 X s 2127 118 m 27 X s 2127 125 m
 27 X s 2127 132 m 27 X s 2127 139 m 27 X s 2101 147 m 53 X s 2127 154 m 27 X s 2127 161 m 27 X s 2127 169 m 27 X s 2127 176 m 27 X s 2101 183 m 53 X s 2127 190 m 27 X s 2127 198 m 27 X s 2127 205 m 27 X s 2127 212 m 27 X s 2101 220 m 53 X s 2127 227
 m 27 X s 2127 234 m 27 X s 2127 241 m 27 X s 2127 249 m 27 X s 2101 256 m 53 X s 2127 263 m 27 X s 2127 271 m 27 X s 2127 278 m 27 X s 2127 285 m 27 X s 2101 293 m 53 X s 2127 300 m 27 X s 2127 307 m 27 X s 2127 314 m 27 X s 2127 322 m 27 X s 2101
 329 m 53 X s 2127 336 m 27 X s 2127 344 m 27 X s 2127 351 m 27 X s 2127 358 m 27 X s 2101 365 m 53 X s 2127 373 m 27 X s 2127 380 m 27 X s 2127 387 m 27 X s 2127 395 m 27 X s 2101 402 m 53 X s 2127 409 m 27 X s 2127 416 m 27 X s 2127 424 m 27 X s
 2127 431 m 27 X s 2101 438 m 53 X s 6 lw 0.2 0.8 0.2 c black 3 lw 0.2 0.8 0.2 c 363 256 m -4 Y 36 X 11 Y 35 X -8 Y 36 X -34 Y 36 X 74 Y 36 X -58 Y 36 X 16 Y 36 X 15 Y 35 X 48 Y 36 X -78 Y 36 X 58 Y 36 X -42 Y 36 X 56 Y 36 X -112 Y 35 X 25 Y 36 X 9 Y
 36 X -80 Y 36 X 74 Y 36 X 58 Y 36 X 10 Y 35 X -40 Y 36 X 32 Y 36 X -72 Y 36 X 65 Y 36 X -19 Y 36 X 62 Y 35 X -24 Y 36 X -48 Y 36 X -39 Y 36 X -7 Y 36 X 44 Y 36 X 3 Y 35 X 13 Y 36 X 49 Y 36 X -41 Y 36 X -33 Y 72 X 17 Y 35 X -34 Y 36 X 27 Y 36 X 1 Y
 36 X 48 Y 36 X 25 Y 36 X -69 Y 35 X -34 Y 36 X -18 Y 36 X 2 Y 36 X 79 Y 36 X -38 Y 36 X 64 Y 35 X -53 Y f 6 lw black 0.2 0.8 0.2 c black 363 252 m 36 X 11 Y 35 X -8 Y 36 X -34 Y 36 X 74 Y 36 X -58 Y 36 X 16 Y 36 X 15 Y 35 X 48 Y 36 X -78 Y 36 X 58 Y
 36 X -42 Y 36 X 56 Y 36 X -112 Y 35 X 25 Y 36 X 9 Y 36 X -80 Y 36 X 74 Y 36 X 58 Y 36 X 10 Y 35 X -40 Y 36 X 32 Y 36 X -72 Y 36 X 65 Y 36 X -19 Y 36 X 62 Y 35 X -24 Y 36 X -48 Y 36 X -39 Y 36 X -7 Y 36 X 44 Y 36 X 3 Y 35 X 13 Y 36 X 49 Y 36 X -41 Y
 36 X -33 Y 72 X 17 Y 35 X -34 Y 36 X 27 Y 36 X 1 Y 36 X 48 Y 36 X 25 Y 36 X -69 Y 35 X -34 Y 36 X -18 Y 36 X 2 Y 36 X 79 Y 36 X -38 Y 36 X 64 Y 35 X s 3 lw 363 74 m 1791 X s 455 85 m -11 Y s 501 79 m -5 Y s 547 79 m -5 Y s 593 79 m -5 Y s 638 79 m
 -5 Y s 684 85 m -11 Y s 730 79 m -5 Y s 776 79 m -5 Y s 822 79 m -5 Y s 868 79 m -5 Y s 914 85 m -11 Y s 960 79 m -5 Y s 1006 79 m -5 Y s 1052 79 m -5 Y s 1098 79 m -5 Y s 1144 85 m -11 Y s 1190 79 m -5 Y s 1236 79 m -5 Y s 1282 79 m -5 Y s 1327 79
 m -5 Y s 1373 85 m -11 Y s 1419 79 m -5 Y s 1465 79 m -5 Y s 1511 79 m -5 Y s 1557 79 m -5 Y s 1603 85 m -11 Y s 1649 79 m -5 Y s 1695 79 m -5 Y s 1741 79 m -5 Y s 1787 79 m -5 Y s 1833 85 m -11 Y s 1879 79 m -5 Y s 1925 79 m -5 Y s 1971 79 m -5 Y s
 2017 79 m -5 Y s 2062 85 m -11 Y s 455 85 m -11 Y s 409 79 m -5 Y s 363 79 m -5 Y s 2062 85 m -11 Y s 2108 79 m -5 Y s 2154 79 m -5 Y s 363 438 m 1791 X s 455 427 m 11 Y s 501 433 m 5 Y s 547 433 m 5 Y s 593 433 m 5 Y s 638 433 m 5 Y s 684 427 m 11
 Y s 730 433 m 5 Y s 776 433 m 5 Y s 822 433 m 5 Y s 868 433 m 5 Y s 914 427 m 11 Y s 960 433 m 5 Y s 1006 433 m 5 Y s 1052 433 m 5 Y s 1098 433 m 5 Y s 1144 427 m 11 Y s 1190 433 m 5 Y s 1236 433 m 5 Y s 1282 433 m 5 Y s 1327 433 m 5 Y s 1373 427 m
 11 Y s 1419 433 m 5 Y s 1465 433 m 5 Y s 1511 433 m 5 Y s 1557 433 m 5 Y s 1603 427 m 11 Y s 1649 433 m 5 Y s 1695 433 m 5 Y s 1741 433 m 5 Y s 1787 433 m 5 Y s 1833 427 m 11 Y s 1879 433 m 5 Y s 1925 433 m 5 Y s 1971 433 m 5 Y s 2017 433 m 5 Y s
 2062 427 m 11 Y s 455 427 m 11 Y s 409 433 m 5 Y s 363 433 m 5 Y s 2062 427 m 11 Y s 2108 433 m 5 Y s 2154 433 m 5 Y s 363 74 m 364 Y s 417 74 m -54 X s 390 81 m -27 X s 390 88 m -27 X s 390 96 m -27 X s 390 103 m -27 X s 417 110 m -54 X s 390 118 m
 -27 X s 390 125 m -27 X s 390 132 m -27 X s 390 139 m -27 X s 417 147 m -54 X s 390 154 m -27 X s 390 161 m -27 X s 390 169 m -27 X s 390 176 m -27 X s 417 183 m -54 X s 390 190 m -27 X s 390 198 m -27 X s 390 205 m -27 X s 390 212 m -27 X s 417 220
 m -54 X s 390 227 m -27 X s 390 234 m -27 X s 390 241 m -27 X s 390 249 m -27 X s 417 256 m -54 X s 390 263 m -27 X s 390 271 m -27 X s 390 278 m -27 X s 390 285 m -27 X s 417 293 m -54 X s 390 300 m -27 X s 390 307 m -27 X s 390 314 m -27 X s 390
 322 m -27 X s 417 329 m -54 X s 390 336 m -27 X s 390 344 m -27 X s 390 351 m -27 X s 390 358 m -27 X s 417 365 m -54 X s 390 373 m -27 X s 390 380 m -27 X s 390 387 m -27 X s 390 395 m -27 X s 417 402 m -54 X s 390 409 m -27 X s 390 416 m -27 X s
 390 424 m -27 X s 390 431 m -27 X s 417 438 m -54 X s 2154 74 m 364 Y s 2101 74 m 53 X s 2127 81 m 27 X s 2127 88 m 27 X s 2127 96 m 27 X s 2127 103 m 27 X s 2101 110 m 53 X s 2127 118 m 27 X s 2127 125 m 27 X s 2127 132 m 27 X s 2127 139 m 27 X s
 2101 147 m 53 X s 2127 154 m 27 X s 2127 161 m 27 X s 2127 169 m 27 X s 2127 176 m 27 X s 2101 183 m 53 X s 2127 190 m 27 X s 2127 198 m 27 X s 2127 205 m 27 X s 2127 212 m 27 X s 2101 220 m 53 X s 2127 227 m 27 X s 2127 234 m 27 X s 2127 241 m 27 X
 s 2127 249 m 27 X s 2101 256 m 53 X s 2127 263 m 27 X s 2127 271 m 27 X s 2127 278 m 27 X s 2127 285 m 27 X s 2101 293 m 53 X s 2127 300 m 27 X s 2127 307 m 27 X s 2127 314 m 27 X s 2127 322 m 27 X s 2101 329 m 53 X s 2127 336 m 27 X s 2127 344 m 27
 X s 2127 351 m 27 X s 2127 358 m 27 X s 2101 365 m 53 X s 2127 373 m 27 X s 2127 380 m 27 X s 2127 387 m 27 X s 2127 395 m 27 X s 2101 402 m 53 X s 2127 409 m 27 X s 2127 416 m 27 X s 2127 424 m 27 X s 2127 431 m 27 X s 2101 438 m 53 X s
 gr  gr showpage
end
%%EOF
