%!PS-Adobe-2.0 EPSF-2.0
%%BoundingBox:  0 0 567 384
%%Title: H4l2015_plotfit/VBF_mass_signal_400_H4l_2mu2e.eps: 
%%Creator: ROOT Version 5.34/07
%%CreationDate: Mon Nov  9 16:28:25 2015
%%EndComments
%%BeginProlog
80 dict begin
/s {stroke} def /l {lineto} def /m {moveto} def /t {translate} def
/r {rotate} def /rl {roll}  def /R {repeat} def
/d {rlineto} def /rm {rmoveto} def /gr {grestore} def /f {eofill} def
/c {setrgbcolor} def /black {0 setgray} def /sd {setdash} def
/cl {closepath} def /sf {scalefont setfont} def /lw {setlinewidth} def
/box {m dup 0 exch d exch 0 d 0 exch neg d cl} def
/NC{systemdict begin initclip end}def/C{NC box clip newpath}def
/bl {box s} def /bf {box f} def /Y { 0 exch d} def /X { 0 d} def 
/K {{pop pop 0 moveto} exch kshow} bind def
/ita {/ang 15 def gsave [1 0 ang dup sin exch cos div 1 0 0] concat} def 
/mp {newpath /y exch def /x exch def} def
/side {[w .77 mul w .23 mul] .385 w mul sd w 0 l currentpoint t -144 r} def
/mr {mp x y w2 0 360 arc} def /m24 {mr s} def /m20 {mr f} def
/mb {mp x y w2 add m w2 neg 0 d 0 w neg d w 0 d 0 w d cl} def
/mt {mp x y w2 add m w2 neg w neg d w 0 d cl} def
/m21 {mb f} def /m25 {mb s} def /m22 {mt f} def /m26{mt s} def
/m23 {mp x y w2 sub m w2 w d w neg 0 d cl f} def
/m27 {mp x y w2 add m w3 neg w2 neg d w3 w2 neg d w3 w2 d cl s} def
/m28 {mp x w2 sub y w2 sub w3 add m w3 0 d  0 w3 neg d w3 0 d 0 w3 d w3 0 d  0 w3 d w3 neg 0 d 0 w3 d w3 neg 0 d 0 w3 neg d w3 neg 0 d cl s } def
/m29 {mp gsave x w2 sub y w2 add w3 sub m currentpoint t 4 {side} repeat cl fill gr} def
/m30 {mp gsave x w2 sub y w2 add w3 sub m currentpoint t 4 {side} repeat cl s gr} def
/m31 {mp x y w2 sub m 0 w d x w2 sub y m w 0 d x w2 sub y w2 add m w w neg d x w2 sub y w2 sub m w w d s} def
/m32 {mp x y w2 sub m w2 w d w neg 0 d cl s} def
/m33 {mp x y w2 add m w3 neg w2 neg d w3 w2 neg d w3 w2 d cl f} def
/m34 {mp x w2 sub y w2 sub w3 add m w3 0 d  0 w3 neg d w3 0 d 0 w3 d w3 0 d  0 w3 d w3 neg 0 d 0 w3 d w3 neg 0 d 0 w3 neg d w3 neg 0 d cl f } def
/m2 {mp x y w2 sub m 0 w d x w2 sub y m w 0 d s} def
/m5 {mp x w2 sub y w2 sub m w w d x w2 sub y w2 add m w w neg d s} def
/reEncode {exch findfont dup length dict begin {1 index /FID eq  {pop pop} {def} ifelse } forall /Encoding exch def currentdict end dup /FontName get exch definefont pop } def [/Times-Bold /Times-Italic /Times-BoldItalic /Helvetica /Helvetica-Oblique
 /Helvetica-Bold /Helvetica-BoldOblique /Courier /Courier-Oblique /Courier-Bold /Courier-BoldOblique /Times-Roman /AvantGarde-Book /AvantGarde-BookOblique /AvantGarde-Demi /AvantGarde-DemiOblique /Bookman-Demi /Bookman-DemiItalic /Bookman-Light
 /Bookman-LightItalic /Helvetica-Narrow /Helvetica-Narrow-Bold /Helvetica-Narrow-BoldOblique /Helvetica-Narrow-Oblique /NewCenturySchlbk-Roman /NewCenturySchlbk-Bold /NewCenturySchlbk-BoldItalic /NewCenturySchlbk-Italic /Palatino-Bold
 /Palatino-BoldItalic /Palatino-Italic /Palatino-Roman ] {ISOLatin1Encoding reEncode } forall
%%EndProlog
%%BeginSetup
%%EndSetup
newpath  gsave  .25 .25 scale  gsave  0 0 t black[  ] 0 sd 3 lw 1 1 1 c 2268 1538 0 0 bf black 1 1 1 c 2222 738 23 784 bf black 1 1 1 c 2222 739 23 15 bf black 1 1 1 c 2268 1077 0 461 bf black 1 1 1 c 1791 850 363 634 bf black 1791 850 363 634 bl 363
 634 m 1791 X s
 gsave  2268 1077 0 461 C 1642.14 498.507 t 0 r /Helvetica findfont 48.9324 sf 0 0 m (4l Invariant Mass \(GeV\)) show NC gr  363 659 m -25 Y s 400 646 m -12 Y s 437 646 m -12 Y s 474 646 m -12 Y s 511 646 m -12 Y s 548 659 m -25 Y s 584 646 m -12 Y s
 621 646 m -12 Y s 658 646 m -12 Y s 695 646 m -12 Y s 732 659 m -25 Y s 769 646 m -12 Y s 806 646 m -12 Y s 843 646 m -12 Y s 880 646 m -12 Y s 917 659 m -25 Y s 954 646 m -12 Y s 991 646 m -12 Y s 1028 646 m -12 Y s 1065 646 m -12 Y s 1102 659 m
 -25 Y s 1139 646 m -12 Y s 1175 646 m -12 Y s 1212 646 m -12 Y s 1249 646 m -12 Y s 1286 659 m -25 Y s 1323 646 m -12 Y s 1360 646 m -12 Y s 1397 646 m -12 Y s 1434 646 m -12 Y s 1471 659 m -25 Y s 1508 646 m -12 Y s 1545 646 m -12 Y s 1582 646 m
 -12 Y s 1619 646 m -12 Y s 1656 659 m -25 Y s 1693 646 m -12 Y s 1730 646 m -12 Y s 1766 646 m -12 Y s 1803 646 m -12 Y s 1840 659 m -25 Y s 1877 646 m -12 Y s 1914 646 m -12 Y s 1951 646 m -12 Y s 1988 646 m -12 Y s 2025 659 m -25 Y s 2025 659 m
 -25 Y s 2062 646 m -12 Y s 2099 646 m -12 Y s 2136 646 m -12 Y s
 gsave  2268 1077 0 461 C 319.305 586.478 t 0 r /Helvetica findfont 48.9324 sf 0 0 m (330) show NC gr 
 gsave  2268 1077 0 461 C 505.023 586.478 t 0 r /Helvetica findfont 48.9324 sf 0 0 m (340) show NC gr 
 gsave  2268 1077 0 461 C 687.483 586.478 t 0 r /Helvetica findfont 48.9324 sf 0 0 m (350) show NC gr 
 gsave  2268 1077 0 461 C 873.201 586.478 t 0 r /Helvetica findfont 48.9324 sf 0 0 m (360) show NC gr 
 gsave  2268 1077 0 461 C 1058.92 586.478 t 0 r /Helvetica findfont 48.9324 sf 0 0 m (370) show NC gr 
 gsave  2268 1077 0 461 C 1241.38 586.478 t 0 r /Helvetica findfont 48.9324 sf 0 0 m (380) show NC gr 
 gsave  2268 1077 0 461 C 1427.1 586.478 t 0 r /Helvetica findfont 48.9324 sf 0 0 m (390) show NC gr 
 gsave  2268 1077 0 461 C 1612.82 586.478 t 0 r /Helvetica findfont 48.9324 sf 0 0 m (400) show NC gr 
 gsave  2268 1077 0 461 C 1795.28 586.478 t 0 r /Helvetica findfont 48.9324 sf 0 0 m (410) show NC gr 
 gsave  2268 1077 0 461 C 1980.99 586.478 t 0 r /Helvetica findfont 48.9324 sf 0 0 m (420) show NC gr  363 1484 m 1791 X s 363 1459 m 25 Y s 400 1471 m 13 Y s 437 1471 m 13 Y s 474 1471 m 13 Y s 511 1471 m 13 Y s 548 1459 m 25 Y s 584 1471 m 13 Y s
 621 1471 m 13 Y s 658 1471 m 13 Y s 695 1471 m 13 Y s 732 1459 m 25 Y s 769 1471 m 13 Y s 806 1471 m 13 Y s 843 1471 m 13 Y s 880 1471 m 13 Y s 917 1459 m 25 Y s 954 1471 m 13 Y s 991 1471 m 13 Y s 1028 1471 m 13 Y s 1065 1471 m 13 Y s 1102 1459 m
 25 Y s 1139 1471 m 13 Y s 1175 1471 m 13 Y s 1212 1471 m 13 Y s 1249 1471 m 13 Y s 1286 1459 m 25 Y s 1323 1471 m 13 Y s 1360 1471 m 13 Y s 1397 1471 m 13 Y s 1434 1471 m 13 Y s 1471 1459 m 25 Y s 1508 1471 m 13 Y s 1545 1471 m 13 Y s 1582 1471 m 13
 Y s 1619 1471 m 13 Y s 1656 1459 m 25 Y s 1693 1471 m 13 Y s 1730 1471 m 13 Y s 1766 1471 m 13 Y s 1803 1471 m 13 Y s 1840 1459 m 25 Y s 1877 1471 m 13 Y s 1914 1471 m 13 Y s 1951 1471 m 13 Y s 1988 1471 m 13 Y s 2025 1459 m 25 Y s 2025 1459 m 25 Y
 s 2062 1471 m 13 Y s 2099 1471 m 13 Y s 2136 1471 m 13 Y s 363 634 m 850 Y s
 gsave  2268 1077 0 461 C 120.554 1032.85 t 90 r /Helvetica findfont 48.9324 sf 0 0 m (Events / \( 1.94 GeV \)) show NC gr  417 634 m -54 X s
 gsave  2268 1077 0 461 C 312.788 632.093 t 0 r /Helvetica findfont 32.6216 sf 0 0 m (\2552) show NC gr 
 gsave  2268 1077 0 461 C 260.657 612.544 t 0 r /Helvetica findfont 48.9324 sf 0 0 m (10) show NC gr  390 682 m -27 X s 390 710 m -27 X s 390 730 m -27 X s 390 745 m -27 X s 390 758 m -27 X s 390 769 m -27 X s 390 778 m -27 X s 390 786 m -27 X s 417
 793 m -54 X s
 gsave  2268 1077 0 461 C 319.305 791.746 t 0 r /Helvetica findfont 32.6216 sf 0 0 m (\2551) show NC gr 
 gsave  2268 1077 0 461 C 267.173 772.197 t 0 r /Helvetica findfont 48.9324 sf 0 0 m (10) show NC gr  390 842 m -27 X s 390 870 m -27 X s 390 890 m -27 X s 390 905 m -27 X s 390 918 m -27 X s 390 929 m -27 X s 390 938 m -27 X s 390 946 m -27 X s 417
 953 m -54 X s
 gsave  2268 1077 0 461 C 342.425 932.452 t 0 r  -27 0 t /Helvetica findfont 48.9324 sf 0 0 m (1) show NC gr  390 1001 m -27 X s 390 1030 m -27 X s 390 1050 m -27 X s 390 1065 m -27 X s 390 1078 m -27 X s 390 1088 m -27 X s 390 1098 m -27 X s 390
 1106 m -27 X s 417 1113 m -54 X s
 gsave  2268 1077 0 461 C 342.425 1092.3 t 0 r  -55 0 t /Helvetica findfont 48.9324 sf 0 0 m (10) show NC gr  390 1161 m -27 X s 390 1189 m -27 X s 390 1209 m -27 X s 390 1225 m -27 X s 390 1238 m -27 X s 390 1248 m -27 X s 390 1258 m -27 X s 390
 1266 m -27 X s 417 1273 m -54 X s
 gsave  2268 1077 0 461 C 322.563 1270.7 t 0 r /Helvetica findfont 32.6216 sf 0 0 m (2) show NC gr 
 gsave  2268 1077 0 461 C 270.432 1251.15 t 0 r /Helvetica findfont 48.9324 sf 0 0 m (10) show NC gr  390 1321 m -27 X s 390 1349 m -27 X s 390 1369 m -27 X s 390 1385 m -27 X s 390 1397 m -27 X s 390 1408 m -27 X s 390 1417 m -27 X s 390 1426 m -27
 X s 417 1433 m -54 X s
 gsave  2268 1077 0 461 C 322.563 1433.61 t 0 r /Helvetica findfont 32.6216 sf 0 0 m (3) show NC gr 
 gsave  2268 1077 0 461 C 270.432 1410.81 t 0 r /Helvetica findfont 48.9324 sf 0 0 m (10) show NC gr  390 1481 m -27 X s 2154 634 m 850 Y s 2101 634 m 53 X s 2127 682 m 27 X s 2127 710 m 27 X s 2127 730 m 27 X s 2127 745 m 27 X s 2127 758 m 27 X s
 2127 769 m 27 X s 2127 778 m 27 X s 2127 786 m 27 X s 2101 793 m 53 X s 2127 842 m 27 X s 2127 870 m 27 X s 2127 890 m 27 X s 2127 905 m 27 X s 2127 918 m 27 X s 2127 929 m 27 X s 2127 938 m 27 X s 2127 946 m 27 X s 2101 953 m 53 X s 2127 1001 m 27
 X s 2127 1030 m 27 X s 2127 1050 m 27 X s 2127 1065 m 27 X s 2127 1078 m 27 X s 2127 1088 m 27 X s 2127 1098 m 27 X s 2127 1106 m 27 X s 2101 1113 m 53 X s 2127 1161 m 27 X s 2127 1189 m 27 X s 2127 1209 m 27 X s 2127 1225 m 27 X s 2127 1238 m 27 X
 s 2127 1248 m 27 X s 2127 1258 m 27 X s 2127 1266 m 27 X s 2101 1273 m 53 X s 2127 1321 m 27 X s 2127 1349 m 27 X s 2127 1369 m 27 X s 2127 1385 m 27 X s 2127 1397 m 27 X s 2127 1408 m 27 X s 2127 1417 m 27 X s 2127 1426 m 27 X s 2101 1433 m 53 X s
 2127 1481 m 27 X s 381 1113 m -18 X s 363 1113 m cl s 381 1113 m 18 X s 399 1113 m cl s 381 1113 m 25 Y s 381 1138 m cl s 381 1113 m -26 Y s 381 1087 m cl s 417 1106 m -18 X s 399 1106 m cl s 417 1106 m 17 X s 434 1106 m cl s 417 1106 m 26 Y s 417
 1132 m cl s 417 1106 m -28 Y s 417 1078 m cl s 452 1106 m -18 X s 434 1106 m cl s 452 1106 m 18 X s 470 1106 m cl s 452 1106 m 26 Y s 452 1132 m cl s 452 1106 m -28 Y s 452 1078 m cl s 488 1131 m -18 X s 470 1131 m cl s 488 1131 m 18 X s 506 1131 m
 cl s 488 1131 m 22 Y s 488 1153 m cl s 488 1131 m -22 Y s 488 1109 m cl s 524 1150 m -18 X s 506 1150 m cl s 524 1150 m 18 X s 542 1150 m cl s 524 1150 m 19 Y s 524 1169 m cl s 524 1150 m -19 Y s 524 1131 m cl s 560 1168 m -18 X s 542 1168 m cl s
 560 1168 m 18 X s 578 1168 m cl s 560 1168 m 16 Y s 560 1184 m cl s 560 1168 m -17 Y s 560 1151 m cl s 596 1137 m -18 X s 578 1137 m cl s 596 1137 m 18 X s 614 1137 m cl s 596 1137 m 20 Y s 596 1157 m cl s 596 1137 m -22 Y s 596 1115 m cl s 632 1141
 m -18 X s 614 1141 m cl s 632 1141 m 17 X s 649 1141 m cl s 632 1141 m 20 Y s 632 1161 m cl s 632 1141 m -20 Y s 632 1121 m cl s 667 1141 m -18 X s 649 1141 m cl s 667 1141 m 18 X s 685 1141 m cl s 667 1141 m 20 Y s 667 1161 m cl s 667 1141 m -20 Y
 s 667 1121 m cl s 703 1154 m -18 X s 685 1154 m cl s 703 1154 m 18 X s 721 1154 m cl s 703 1154 m 18 Y s 703 1172 m cl s 703 1154 m -19 Y s 703 1135 m cl s 739 1171 m -18 X s 721 1171 m cl s 739 1171 m 18 X s 757 1171 m cl s 739 1171 m 16 Y s 739
 1187 m cl s 739 1171 m -16 Y s 739 1155 m cl s 775 1174 m -18 X s 757 1174 m cl s 775 1174 m 18 X s 793 1174 m cl s 775 1174 m 15 Y s 775 1189 m cl s 775 1174 m -16 Y s 775 1158 m cl s 811 1165 m -18 X s 793 1165 m cl s 811 1165 m 18 X s 829 1165 m
 cl s 811 1165 m 16 Y s 811 1181 m cl s 811 1165 m -17 Y s 811 1148 m cl s 847 1177 m -18 X s 829 1177 m cl s 847 1177 m 17 X s 864 1177 m cl s 847 1177 m 15 Y s 847 1192 m cl s 847 1177 m -16 Y s 847 1161 m cl s 882 1150 m -18 X s 864 1150 m cl s
 882 1150 m 18 X s 900 1150 m cl s 882 1150 m 19 Y s 882 1169 m cl s 882 1150 m -19 Y s 882 1131 m cl s 918 1213 m -18 X s 900 1213 m cl s 918 1213 m 18 X s 936 1213 m cl s 918 1213 m 11 Y s 918 1224 m cl s 918 1213 m -12 Y s 918 1201 m cl s 954 1194
 m -18 X s 936 1194 m cl s 954 1194 m 18 X s 972 1194 m cl s 954 1194 m 13 Y s 954 1207 m cl s 954 1194 m -14 Y s 954 1180 m cl s 990 1202 m -18 X s 972 1202 m cl s 990 1202 m 18 X s 1008 1202 m cl s 990 1202 m 13 Y s 990 1215 m cl s 990 1202 m -13 Y
 s 990 1189 m cl s 1026 1204 m -18 X s 1008 1204 m cl s 1026 1204 m 18 X s 1044 1204 m cl s 1026 1204 m 12 Y s 1026 1216 m cl s 1026 1204 m -12 Y s 1026 1192 m cl s 1062 1218 m -18 X s 1044 1218 m cl s 1062 1218 m 17 X s 1079 1218 m cl s 1062 1218 m
 11 Y s 1062 1229 m cl s 1062 1218 m -12 Y s 1062 1206 m cl s 1097 1228 m -18 X s 1079 1228 m cl s 1097 1228 m 18 X s 1115 1228 m cl s 1097 1228 m 10 Y s 1097 1238 m cl s 1097 1228 m -11 Y s 1097 1217 m cl s 1133 1247 m -18 X s 1115 1247 m cl s 1133
 1247 m 18 X s 1151 1247 m cl s 1133 1247 m 9 Y s 1133 1256 m cl s 1133 1247 m -9 Y s 1133 1238 m cl s 1169 1258 m -18 X s 1151 1258 m cl s 1169 1258 m 18 X s 1187 1258 m cl s 1169 1258 m 8 Y s 1169 1266 m cl s 1169 1258 m -8 Y s 1169 1250 m cl s
 1205 1258 m -18 X s 1187 1258 m cl s 1205 1258 m 18 X s 1223 1258 m cl s 1205 1258 m 8 Y s 1205 1266 m cl s 1205 1258 m -9 Y s 1205 1249 m cl s 1241 1282 m -18 X s 1223 1282 m cl s 1241 1282 m 18 X s 1259 1282 m cl s 1241 1282 m 7 Y s 1241 1289 m cl
 s 1241 1282 m -6 Y s 1241 1276 m cl s 1276 1298 m -17 X s 1259 1298 m cl s 1276 1298 m 18 X s 1294 1298 m cl s 1276 1298 m 6 Y s 1276 1304 m cl s 1276 1298 m -6 Y s 1276 1292 m cl s 1312 1318 m -18 X s 1294 1318 m cl s 1312 1318 m 18 X s 1330 1318 m
 cl s 1312 1318 m 5 Y s 1312 1323 m cl s 1312 1318 m -5 Y s 1312 1313 m cl s 1348 1340 m -18 X s 1330 1340 m cl s 1348 1340 m 18 X s 1366 1340 m cl s 1348 1340 m 5 Y s 1348 1345 m cl s 1348 1340 m -4 Y s 1348 1336 m cl s 1384 1360 m -18 X s 1366 1360
 m cl s 1384 1360 m 18 X s 1402 1360 m cl s 1384 1360 m 3 Y s 1384 1363 m cl s 1384 1360 m -4 Y s 1384 1356 m cl s 1420 1378 m -18 X s 1402 1378 m cl s 1420 1378 m 18 X s 1438 1378 m cl s 1420 1378 m 3 Y s 1420 1381 m cl s 1420 1378 m -3 Y s 1420
 1375 m cl s 1456 1395 m -18 X s 1438 1395 m cl s 1456 1395 m 18 X s 1474 1395 m cl s 1456 1395 m 3 Y s 1456 1398 m cl s 1456 1395 m -3 Y s 1456 1392 m cl s 1491 1412 m -17 X s 1474 1412 m cl s 1491 1412 m 18 X s 1509 1412 m cl s 1491 1412 m 2 Y s
 1491 1414 m cl s 1491 1412 m -3 Y s 1491 1409 m cl s 1527 1431 m -18 X s 1509 1431 m cl s 1527 1431 m 18 X s 1545 1431 m cl s 1527 1431 m 2 Y s 1527 1433 m cl s 1527 1431 m -2 Y s 1527 1429 m cl s 1563 1445 m -18 X s 1545 1445 m cl s 1563 1445 m 18
 X s 1581 1445 m cl s 1563 1445 m 2 Y s 1563 1447 m cl s 1563 1445 m -2 Y s 1563 1443 m cl s 1599 1449 m -18 X s 1581 1449 m cl s 1599 1449 m 18 X s 1617 1449 m cl s 1599 1449 m 2 Y s 1599 1451 m cl s 1599 1449 m -2 Y s 1599 1447 m cl s 1635 1451 m
 -18 X s 1617 1451 m cl s 1635 1451 m 18 X s 1653 1451 m cl s 1635 1451 m 2 Y s 1635 1453 m cl s 1635 1451 m -2 Y s 1635 1449 m cl s 1671 1444 m -18 X s 1653 1444 m cl s 1671 1444 m 18 X s 1689 1444 m cl s 1671 1444 m 2 Y s 1671 1446 m cl s 1671 1444
 m -3 Y s 1671 1441 m cl s 1706 1434 m -17 X s 1689 1434 m cl s 1706 1434 m 18 X s 1724 1434 m cl s 1706 1434 m 2 Y s 1706 1436 m cl s 1706 1434 m -2 Y s 1706 1432 m cl s 1742 1409 m -18 X s 1724 1409 m cl s 1742 1409 m 18 X s 1760 1409 m cl s 1742
 1409 m 3 Y s 1742 1412 m cl s 1742 1409 m -2 Y s 1742 1407 m cl s 1778 1385 m -18 X s 1760 1385 m cl s 1778 1385 m 18 X s 1796 1385 m cl s 1778 1385 m 3 Y s 1778 1388 m cl s 1778 1385 m -3 Y s 1778 1382 m cl s 1814 1367 m -18 X s 1796 1367 m cl s
 1814 1367 m 18 X s 1832 1367 m cl s 1814 1367 m 3 Y s 1814 1370 m cl s 1814 1367 m -4 Y s 1814 1363 m cl s 1850 1331 m -18 X s 1832 1331 m cl s 1850 1331 m 18 X s 1868 1331 m cl s 1850 1331 m 5 Y s 1850 1336 m cl s 1850 1331 m -4 Y s 1850 1327 m cl
 s 1886 1293 m -18 X s 1868 1293 m cl s 1886 1293 m 18 X s 1904 1293 m cl s 1886 1293 m 6 Y s 1886 1299 m cl s 1886 1293 m -6 Y s 1886 1287 m cl s 1921 1270 m -17 X s 1904 1270 m cl s 1921 1270 m 18 X s 1939 1270 m cl s 1921 1270 m 8 Y s 1921 1278 m
 cl s 1921 1270 m -7 Y s 1921 1263 m cl s 1957 1264 m -18 X s 1939 1264 m cl s 1957 1264 m 18 X s 1975 1264 m cl s 1957 1264 m 8 Y s 1957 1272 m cl s 1957 1264 m -8 Y s 1957 1256 m cl s 1993 1219 m -18 X s 1975 1219 m cl s 1993 1219 m 18 X s 2011
 1219 m cl s 1993 1219 m 11 Y s 1993 1230 m cl s 1993 1219 m -11 Y s 1993 1208 m cl s 2029 1171 m -18 X s 2011 1171 m cl s 2029 1171 m 18 X s 2047 1171 m cl s 2029 1171 m 16 Y s 2029 1187 m cl s 2029 1171 m -16 Y s 2029 1155 m cl s 2065 1154 m -18 X
 s 2047 1154 m cl s 2065 1154 m 18 X s 2083 1154 m cl s 2065 1154 m 18 Y s 2065 1172 m cl s 2065 1154 m -19 Y s 2065 1135 m cl s 2101 1120 m -18 X s 2083 1120 m cl s 2101 1120 m 18 X s 2119 1120 m cl s 2101 1120 m 23 Y s 2101 1143 m cl s 2101 1120 m
 -25 Y s 2101 1095 m cl s 2136 1146 m -17 X s 2119 1146 m cl s 2136 1146 m 18 X s 2154 1146 m cl s 2136 1146 m 19 Y s 2136 1165 m cl s 2136 1146 m -20 Y s 2136 1126 m cl s /w 31 def /w2 {w 2 div} def /w3 {w 3 div} def 381 1113 417 1106 452 1106 488
 1131 524 1150 560 1168 596 1137 632 1141 667 1141 703 1154 739 1171 775 1174 811 1165 847 1177 882 1150 918 1213 954 1194 990 1202 1026 1204 1062 1218 1097 1228 1133 1247 1169 1258 1205 1258 1241 1282 1276 1298 1312 1318 1348 1340 1384 1360 1420
 1378 1456 1395 1491 1412 1527 1431 1563 1445 1599 1449 1635 1451 1671 1444 1706 1434 1742 1409 1778 1385 1814 1367 1850 1331 1886 1293 1921 1270 1957 1264 1993 1219 2029 1171 2065 1154 2101 1120 2136 1146 50 { m20} R 0 1 1 c 1 1 0 c black 1 1 0 c
 363 1103 m 36 6 d 35 6 d 36 6 d 36 7 d 36 6 d 36 6 d 36 7 d 35 6 d 36 7 d 36 7 d 36 6 d 36 7 d 36 7 d 35 7 d 36 7 d 36 8 d 36 7 d 36 8 d 36 8 d 35 9 d 36 8 d 36 9 d 36 9 d 36 10 d 36 11 d 17 7 d 18 7 d 18 9 d 18 9 d 18 11 d 18 12 d 18 12 d 9 6 d 9 6
 d 9 6 d 9 6 d 9 6 d 9 6 d 18 11 d 18 10 d 35 17 d 18 7 d 9 3 d 9 2 d 9 3 d 9 2 d 9 1 d 9 2 d 9 1 d 9 X 9 1 d 9 X 9 -1 d 9 -1 d 9 -1 d 9 -1 d 9 -2 d 9 -3 d 9 -2 d 9 -3 d 17 -7 d 18 -8 d 18 -9 d 18 -10 d 18 -11 d 18 -12 d 9 -6 d 9 -7 d 9 -6 d 9 -7 d
 18 -14 d 18 -15 d 18 -15 d 18 -14 d 17 -15 d 18 -14 d 18 -14 d 18 -14 d 36 -27 d 36 -28 d 36 -29 d 36 -30 d 35 -33 d -45 Y -35 40 d -36 38 d -36 35 d -36 33 d -36 33 d -18 15 d -18 16 d -18 16 d -17 15 d -18 15 d -18 15 d -18 15 d -18 14 d -9 7 d -9
 7 d -9 7 d -9 7 d -18 12 d -18 12 d -18 11 d -18 9 d -18 9 d -17 6 d -9 3 d -9 3 d -9 2 d -9 2 d -9 1 d -9 1 d -9 1 d -9 1 d -18 X -9 -1 d -9 -1 d -9 -1 d -9 -2 d -9 -2 d -9 -2 d -9 -3 d -9 -3 d -18 -7 d -35 -19 d -18 -11 d -18 -11 d -9 -6 d -9 -6 d
 -9 -7 d -9 -6 d -9 -6 d -9 -6 d -18 -12 d -18 -11 d -18 -11 d -18 -10 d -18 -10 d -18 -8 d -17 -8 d -36 -13 d -36 -10 d -36 -9 d -36 -8 d -36 -7 d -35 -8 d -36 -8 d -36 -8 d -36 -8 d -36 -8 d -36 -8 d -35 -8 d -36 -8 d -36 -8 d -36 -8 d -36 -7 d -36
 -8 d -35 -8 d -36 -8 d -36 -7 d -36 -8 d -36 -7 d -36 -7 d -35 -8 d -36 -7 d f 0 1 1 c 0 1 0 c black 0 1 0 c 363 1097 m 36 6 d 35 7 d 36 6 d 36 7 d 36 6 d 36 7 d 36 7 d 35 6 d 36 7 d 36 7 d 36 7 d 36 7 d 36 7 d 35 8 d 36 7 d 36 8 d 36 7 d 36 8 d 36
 8 d 35 8 d 36 9 d 36 8 d 36 9 d 36 10 d 36 12 d 17 7 d 18 7 d 18 9 d 18 10 d 18 11 d 18 11 d 18 12 d 9 6 d 9 7 d 9 6 d 9 6 d 9 6 d 9 5 d 18 11 d 18 11 d 35 17 d 18 7 d 9 3 d 9 3 d 9 2 d 9 2 d 9 2 d 9 1 d 9 1 d 9 1 d 18 X 9 -1 d 9 X 9 -2 d 9 -1 d 9
 -2 d 9 -2 d 9 -3 d 9 -3 d 17 -6 d 18 -8 d 18 -9 d 18 -11 d 18 -11 d 18 -12 d 9 -6 d 9 -7 d 9 -7 d 9 -7 d 18 -14 d 18 -15 d 18 -14 d 18 -15 d 17 -15 d 18 -14 d 18 -15 d 18 -14 d 36 -28 d 36 -29 d 36 -30 d 36 -32 d 35 -33 d -23 Y -35 38 d -36 35 d -36
 33 d -36 32 d -36 30 d -18 16 d -18 15 d -18 15 d -17 15 d -18 15 d -18 15 d -18 15 d -18 14 d -9 7 d -9 7 d -9 7 d -9 6 d -18 13 d -18 11 d -18 11 d -18 9 d -18 8 d -17 7 d -9 3 d -9 2 d -9 3 d -9 1 d -9 2 d -9 1 d -9 1 d -9 X -9 1 d -9 -1 d -9 X
 -9 -1 d -9 -2 d -9 -1 d -9 -2 d -9 -2 d -9 -3 d -9 -3 d -18 -7 d -35 -19 d -18 -10 d -18 -12 d -9 -6 d -9 -6 d -9 -6 d -9 -6 d -9 -6 d -9 -6 d -18 -12 d -18 -12 d -18 -10 d -18 -11 d -18 -9 d -18 -8 d -17 -7 d -36 -13 d -36 -10 d -36 -9 d -36 -8 d
 -36 -8 d -35 -8 d -36 -8 d -36 -7 d -36 -8 d -36 -8 d -36 -8 d -35 -8 d -36 -7 d -36 -8 d -36 -7 d -36 -8 d -36 -7 d -35 -8 d -36 -7 d -36 -7 d -36 -7 d -36 -7 d -36 -7 d -35 -7 d -36 -7 d f 0 0 1 c 9 lw black 0 0 1 c 363 1091 m 36 6 d 35 7 d 36 7 d
 36 6 d 36 7 d 36 7 d 36 7 d 35 7 d 36 7 d 36 7 d 36 8 d 36 7 d 36 7 d 35 8 d 36 8 d 36 7 d 36 8 d 36 8 d 36 8 d 35 8 d 36 8 d 36 8 d 36 9 d 36 10 d 36 12 d 17 7 d 18 8 d 18 9 d 18 10 d 18 11 d 18 12 d 18 12 d 9 6 d 9 6 d 9 6 d 9 6 d 9 6 d 9 6 d 18
 11 d 18 11 d 35 17 d 18 7 d 9 3 d 9 3 d 9 2 d 9 2 d 9 2 d 9 1 d 9 1 d 9 1 d 27 X 9 -1 d 9 -1 d 9 -2 d 9 -2 d 9 -2 d 9 -2 d 9 -3 d 17 -7 d 18 -8 d 18 -9 d 18 -11 d 18 -11 d 18 -12 d 9 -7 d 9 -7 d 9 -6 d 9 -7 d 18 -15 d 18 -14 d 18 -15 d 18 -15 d 17
 -15 d 18 -15 d 18 -14 d 18 -15 d 36 -30 d 36 -30 d 36 -31 d 36 -33 d 35 -36 d s black 3 lw 381 1113 m -18 X s 363 1113 m cl s 381 1113 m 18 X s 399 1113 m cl s 381 1113 m 25 Y s 381 1138 m cl s 381 1113 m -26 Y s 381 1087 m cl s 417 1106 m -18 X s
 399 1106 m cl s 417 1106 m 17 X s 434 1106 m cl s 417 1106 m 26 Y s 417 1132 m cl s 417 1106 m -28 Y s 417 1078 m cl s 452 1106 m -18 X s 434 1106 m cl s 452 1106 m 18 X s 470 1106 m cl s 452 1106 m 26 Y s 452 1132 m cl s 452 1106 m -28 Y s 452 1078
 m cl s 488 1131 m -18 X s 470 1131 m cl s 488 1131 m 18 X s 506 1131 m cl s 488 1131 m 22 Y s 488 1153 m cl s 488 1131 m -22 Y s 488 1109 m cl s 524 1150 m -18 X s 506 1150 m cl s 524 1150 m 18 X s 542 1150 m cl s 524 1150 m 19 Y s 524 1169 m cl s
 524 1150 m -19 Y s 524 1131 m cl s 560 1168 m -18 X s 542 1168 m cl s 560 1168 m 18 X s 578 1168 m cl s 560 1168 m 16 Y s 560 1184 m cl s 560 1168 m -17 Y s 560 1151 m cl s 596 1137 m -18 X s 578 1137 m cl s 596 1137 m 18 X s 614 1137 m cl s 596
 1137 m 20 Y s 596 1157 m cl s 596 1137 m -22 Y s 596 1115 m cl s 632 1141 m -18 X s 614 1141 m cl s 632 1141 m 17 X s 649 1141 m cl s 632 1141 m 20 Y s 632 1161 m cl s 632 1141 m -20 Y s 632 1121 m cl s 667 1141 m -18 X s 649 1141 m cl s 667 1141 m
 18 X s 685 1141 m cl s 667 1141 m 20 Y s 667 1161 m cl s 667 1141 m -20 Y s 667 1121 m cl s 703 1154 m -18 X s 685 1154 m cl s 703 1154 m 18 X s 721 1154 m cl s 703 1154 m 18 Y s 703 1172 m cl s 703 1154 m -19 Y s 703 1135 m cl s 739 1171 m -18 X s
 721 1171 m cl s 739 1171 m 18 X s 757 1171 m cl s 739 1171 m 16 Y s 739 1187 m cl s 739 1171 m -16 Y s 739 1155 m cl s 775 1174 m -18 X s 757 1174 m cl s 775 1174 m 18 X s 793 1174 m cl s 775 1174 m 15 Y s 775 1189 m cl s 775 1174 m -16 Y s 775 1158
 m cl s 811 1165 m -18 X s 793 1165 m cl s 811 1165 m 18 X s 829 1165 m cl s 811 1165 m 16 Y s 811 1181 m cl s 811 1165 m -17 Y s 811 1148 m cl s 847 1177 m -18 X s 829 1177 m cl s 847 1177 m 17 X s 864 1177 m cl s 847 1177 m 15 Y s 847 1192 m cl s
 847 1177 m -16 Y s 847 1161 m cl s 882 1150 m -18 X s 864 1150 m cl s 882 1150 m 18 X s 900 1150 m cl s 882 1150 m 19 Y s 882 1169 m cl s 882 1150 m -19 Y s 882 1131 m cl s 918 1213 m -18 X s 900 1213 m cl s 918 1213 m 18 X s 936 1213 m cl s 918
 1213 m 11 Y s 918 1224 m cl s 918 1213 m -12 Y s 918 1201 m cl s 954 1194 m -18 X s 936 1194 m cl s 954 1194 m 18 X s 972 1194 m cl s 954 1194 m 13 Y s 954 1207 m cl s 954 1194 m -14 Y s 954 1180 m cl s 990 1202 m -18 X s 972 1202 m cl s 990 1202 m
 18 X s 1008 1202 m cl s 990 1202 m 13 Y s 990 1215 m cl s 990 1202 m -13 Y s 990 1189 m cl s 1026 1204 m -18 X s 1008 1204 m cl s 1026 1204 m 18 X s 1044 1204 m cl s 1026 1204 m 12 Y s 1026 1216 m cl s 1026 1204 m -12 Y s 1026 1192 m cl s 1062 1218
 m -18 X s 1044 1218 m cl s 1062 1218 m 17 X s 1079 1218 m cl s 1062 1218 m 11 Y s 1062 1229 m cl s 1062 1218 m -12 Y s 1062 1206 m cl s 1097 1228 m -18 X s 1079 1228 m cl s 1097 1228 m 18 X s 1115 1228 m cl s 1097 1228 m 10 Y s 1097 1238 m cl s 1097
 1228 m -11 Y s 1097 1217 m cl s 1133 1247 m -18 X s 1115 1247 m cl s 1133 1247 m 18 X s 1151 1247 m cl s 1133 1247 m 9 Y s 1133 1256 m cl s 1133 1247 m -9 Y s 1133 1238 m cl s 1169 1258 m -18 X s 1151 1258 m cl s 1169 1258 m 18 X s 1187 1258 m cl s
 1169 1258 m 8 Y s 1169 1266 m cl s 1169 1258 m -8 Y s 1169 1250 m cl s 1205 1258 m -18 X s 1187 1258 m cl s 1205 1258 m 18 X s 1223 1258 m cl s 1205 1258 m 8 Y s 1205 1266 m cl s 1205 1258 m -9 Y s 1205 1249 m cl s 1241 1282 m -18 X s 1223 1282 m cl
 s 1241 1282 m 18 X s 1259 1282 m cl s 1241 1282 m 7 Y s 1241 1289 m cl s 1241 1282 m -6 Y s 1241 1276 m cl s 1276 1298 m -17 X s 1259 1298 m cl s 1276 1298 m 18 X s 1294 1298 m cl s 1276 1298 m 6 Y s 1276 1304 m cl s 1276 1298 m -6 Y s 1276 1292 m
 cl s 1312 1318 m -18 X s 1294 1318 m cl s 1312 1318 m 18 X s 1330 1318 m cl s 1312 1318 m 5 Y s 1312 1323 m cl s 1312 1318 m -5 Y s 1312 1313 m cl s 1348 1340 m -18 X s 1330 1340 m cl s 1348 1340 m 18 X s 1366 1340 m cl s 1348 1340 m 5 Y s 1348 1345
 m cl s 1348 1340 m -4 Y s 1348 1336 m cl s 1384 1360 m -18 X s 1366 1360 m cl s 1384 1360 m 18 X s 1402 1360 m cl s 1384 1360 m 3 Y s 1384 1363 m cl s 1384 1360 m -4 Y s 1384 1356 m cl s 1420 1378 m -18 X s 1402 1378 m cl s 1420 1378 m 18 X s 1438
 1378 m cl s 1420 1378 m 3 Y s 1420 1381 m cl s 1420 1378 m -3 Y s 1420 1375 m cl s 1456 1395 m -18 X s 1438 1395 m cl s 1456 1395 m 18 X s 1474 1395 m cl s 1456 1395 m 3 Y s 1456 1398 m cl s 1456 1395 m -3 Y s 1456 1392 m cl s 1491 1412 m -17 X s
 1474 1412 m cl s 1491 1412 m 18 X s 1509 1412 m cl s 1491 1412 m 2 Y s 1491 1414 m cl s 1491 1412 m -3 Y s 1491 1409 m cl s 1527 1431 m -18 X s 1509 1431 m cl s 1527 1431 m 18 X s 1545 1431 m cl s 1527 1431 m 2 Y s 1527 1433 m cl s 1527 1431 m -2 Y
 s 1527 1429 m cl s 1563 1445 m -18 X s 1545 1445 m cl s 1563 1445 m 18 X s 1581 1445 m cl s 1563 1445 m 2 Y s 1563 1447 m cl s 1563 1445 m -2 Y s 1563 1443 m cl s 1599 1449 m -18 X s 1581 1449 m cl s 1599 1449 m 18 X s 1617 1449 m cl s 1599 1449 m 2
 Y s 1599 1451 m cl s 1599 1449 m -2 Y s 1599 1447 m cl s 1635 1451 m -18 X s 1617 1451 m cl s 1635 1451 m 18 X s 1653 1451 m cl s 1635 1451 m 2 Y s 1635 1453 m cl s 1635 1451 m -2 Y s 1635 1449 m cl s 1671 1444 m -18 X s 1653 1444 m cl s 1671 1444 m
 18 X s 1689 1444 m cl s 1671 1444 m 2 Y s 1671 1446 m cl s 1671 1444 m -3 Y s 1671 1441 m cl s 1706 1434 m -17 X s 1689 1434 m cl s 1706 1434 m 18 X s 1724 1434 m cl s 1706 1434 m 2 Y s 1706 1436 m cl s 1706 1434 m -2 Y s 1706 1432 m cl s 1742 1409
 m -18 X s 1724 1409 m cl s 1742 1409 m 18 X s 1760 1409 m cl s 1742 1409 m 3 Y s 1742 1412 m cl s 1742 1409 m -2 Y s 1742 1407 m cl s 1778 1385 m -18 X s 1760 1385 m cl s 1778 1385 m 18 X s 1796 1385 m cl s 1778 1385 m 3 Y s 1778 1388 m cl s 1778
 1385 m -3 Y s 1778 1382 m cl s 1814 1367 m -18 X s 1796 1367 m cl s 1814 1367 m 18 X s 1832 1367 m cl s 1814 1367 m 3 Y s 1814 1370 m cl s 1814 1367 m -4 Y s 1814 1363 m cl s 1850 1331 m -18 X s 1832 1331 m cl s 1850 1331 m 18 X s 1868 1331 m cl s
 1850 1331 m 5 Y s 1850 1336 m cl s 1850 1331 m -4 Y s 1850 1327 m cl s 1886 1293 m -18 X s 1868 1293 m cl s 1886 1293 m 18 X s 1904 1293 m cl s 1886 1293 m 6 Y s 1886 1299 m cl s 1886 1293 m -6 Y s 1886 1287 m cl s 1921 1270 m -17 X s 1904 1270 m cl
 s 1921 1270 m 18 X s 1939 1270 m cl s 1921 1270 m 8 Y s 1921 1278 m cl s 1921 1270 m -7 Y s 1921 1263 m cl s 1957 1264 m -18 X s 1939 1264 m cl s 1957 1264 m 18 X s 1975 1264 m cl s 1957 1264 m 8 Y s 1957 1272 m cl s 1957 1264 m -8 Y s 1957 1256 m
 cl s 1993 1219 m -18 X s 1975 1219 m cl s 1993 1219 m 18 X s 2011 1219 m cl s 1993 1219 m 11 Y s 1993 1230 m cl s 1993 1219 m -11 Y s 1993 1208 m cl s 2029 1171 m -18 X s 2011 1171 m cl s 2029 1171 m 18 X s 2047 1171 m cl s 2029 1171 m 16 Y s 2029
 1187 m cl s 2029 1171 m -16 Y s 2029 1155 m cl s 2065 1154 m -18 X s 2047 1154 m cl s 2065 1154 m 18 X s 2083 1154 m cl s 2065 1154 m 18 Y s 2065 1172 m cl s 2065 1154 m -19 Y s 2065 1135 m cl s 2101 1120 m -18 X s 2083 1120 m cl s 2101 1120 m 18 X
 s 2119 1120 m cl s 2101 1120 m 23 Y s 2101 1143 m cl s 2101 1120 m -25 Y s 2101 1095 m cl s 2136 1146 m -17 X s 2119 1146 m cl s 2136 1146 m 18 X s 2154 1146 m cl s 2136 1146 m 19 Y s 2136 1165 m cl s 2136 1146 m -20 Y s 2136 1126 m cl s 381 1113
 417 1106 452 1106 488 1131 524 1150 560 1168 596 1137 632 1141 667 1141 703 1154 739 1171 775 1174 811 1165 847 1177 882 1150 918 1213 954 1194 990 1202 1026 1204 1062 1218 1097 1228 1133 1247 1169 1258 1205 1258 1241 1282 1276 1298 1312 1318 1348
 1340 1384 1360 1420 1378 1456 1395 1491 1412 1527 1431 1563 1445 1599 1449 1635 1451 1671 1444 1706 1434 1742 1409 1778 1385 1814 1367 1850 1331 1886 1293 1921 1270 1957 1264 1993 1219 2029 1171 2065 1154 2101 1120 2136 1146 50 { m20} R 0.52 0.76
 0.64 c[ 4 8] 0 sd 9 lw black 0.52 0.76 0.64 c 363 1091 m 36 6 d 35 7 d 36 7 d 36 6 d 36 7 d 36 7 d 36 7 d 35 7 d 36 7 d 36 7 d 36 8 d 36 7 d 36 7 d 35 8 d 36 8 d 36 7 d 36 8 d 36 8 d 36 8 d 35 8 d 36 8 d 36 8 d 36 8 d 36 9 d 36 8 d 35 9 d 36 9 d 18
 4 d 18 4 d 18 5 d 18 4 d 18 5 d 18 4 d 18 5 d 18 5 d 17 4 d 18 3 d 18 3 d 18 3 d 18 2 d 9 X 9 1 d 9 X 9 1 d 27 X 9 -1 d 9 X 9 -1 d 18 -2 d 18 -2 d 17 -3 d 18 -3 d 18 -4 d 18 -5 d 36 -11 d 36 -14 d 18 -8 d 18 -8 d 18 -9 d 18 -9 d 17 -10 d 18 -11 d 18
 -11 d 18 -12 d 18 -12 d 18 -13 d 18 -14 d 18 -14 d 18 -15 d 18 -15 d 36 -33 d 35 -35 d s 0.54 0.66 0.63 c black 0.54 0.66 0.63 c 1056 634 m 23 67 d s 1079 701 m 36 95 d 36 89 d 36 82 d 36 75 d 36 69 d 17 32 d 18 30 d 18 28 d 18 27 d 18 25 d 9 12 d 9
 12 d 9 11 d 9 11 d 9 10 d 9 10 d 9 9 d 9 9 d 9 9 d 9 8 d 9 8 d 9 7 d 18 14 d 35 22 d 18 8 d 9 4 d 9 3 d 9 3 d 9 2 d 9 2 d 9 2 d 9 1 d 9 1 d 18 X 9 -1 d 9 -1 d 9 -1 d 9 -2 d 9 -2 d 9 -3 d 9 -3 d 9 -3 d 17 -8 d 18 -10 d 18 -12 d 18 -13 d 9 -7 d 9 -8 d
 9 -8 d 9 -8 d 9 -9 d 9 -9 d 9 -10 d 9 -10 d 9 -11 d 9 -11 d 9 -11 d 9 -12 d 18 -25 d 18 -26 d 17 -28 d 18 -30 d 18 -32 d 18 -33 d 36 -71 d 36 -78 d 36 -85 d 36 -91 d 35 -98 d s black[  ] 0 sd 3 lw 363 634 m 1791 X s 363 659 m -25 Y s 400 646 m -12 Y
 s 437 646 m -12 Y s 474 646 m -12 Y s 511 646 m -12 Y s 548 659 m -25 Y s 584 646 m -12 Y s 621 646 m -12 Y s 658 646 m -12 Y s 695 646 m -12 Y s 732 659 m -25 Y s 769 646 m -12 Y s 806 646 m -12 Y s 843 646 m -12 Y s 880 646 m -12 Y s 917 659 m -25
 Y s 954 646 m -12 Y s 991 646 m -12 Y s 1028 646 m -12 Y s 1065 646 m -12 Y s 1102 659 m -25 Y s 1139 646 m -12 Y s 1175 646 m -12 Y s 1212 646 m -12 Y s 1249 646 m -12 Y s 1286 659 m -25 Y s 1323 646 m -12 Y s 1360 646 m -12 Y s 1397 646 m -12 Y s
 1434 646 m -12 Y s 1471 659 m -25 Y s 1508 646 m -12 Y s 1545 646 m -12 Y s 1582 646 m -12 Y s 1619 646 m -12 Y s 1656 659 m -25 Y s 1693 646 m -12 Y s 1730 646 m -12 Y s 1766 646 m -12 Y s 1803 646 m -12 Y s 1840 659 m -25 Y s 1877 646 m -12 Y s
 1914 646 m -12 Y s 1951 646 m -12 Y s 1988 646 m -12 Y s 2025 659 m -25 Y s 2025 659 m -25 Y s 2062 646 m -12 Y s 2099 646 m -12 Y s 2136 646 m -12 Y s 363 1484 m 1791 X s 363 1459 m 25 Y s 400 1471 m 13 Y s 437 1471 m 13 Y s 474 1471 m 13 Y s 511
 1471 m 13 Y s 548 1459 m 25 Y s 584 1471 m 13 Y s 621 1471 m 13 Y s 658 1471 m 13 Y s 695 1471 m 13 Y s 732 1459 m 25 Y s 769 1471 m 13 Y s 806 1471 m 13 Y s 843 1471 m 13 Y s 880 1471 m 13 Y s 917 1459 m 25 Y s 954 1471 m 13 Y s 991 1471 m 13 Y s
 1028 1471 m 13 Y s 1065 1471 m 13 Y s 1102 1459 m 25 Y s 1139 1471 m 13 Y s 1175 1471 m 13 Y s 1212 1471 m 13 Y s 1249 1471 m 13 Y s 1286 1459 m 25 Y s 1323 1471 m 13 Y s 1360 1471 m 13 Y s 1397 1471 m 13 Y s 1434 1471 m 13 Y s 1471 1459 m 25 Y s
 1508 1471 m 13 Y s 1545 1471 m 13 Y s 1582 1471 m 13 Y s 1619 1471 m 13 Y s 1656 1459 m 25 Y s 1693 1471 m 13 Y s 1730 1471 m 13 Y s 1766 1471 m 13 Y s 1803 1471 m 13 Y s 1840 1459 m 25 Y s 1877 1471 m 13 Y s 1914 1471 m 13 Y s 1951 1471 m 13 Y s
 1988 1471 m 13 Y s 2025 1459 m 25 Y s 2025 1459 m 25 Y s 2062 1471 m 13 Y s 2099 1471 m 13 Y s 2136 1471 m 13 Y s 363 634 m 850 Y s 417 634 m -54 X s 390 682 m -27 X s 390 710 m -27 X s 390 730 m -27 X s 390 745 m -27 X s 390 758 m -27 X s 390 769 m
 -27 X s 390 778 m -27 X s 390 786 m -27 X s 417 793 m -54 X s 390 842 m -27 X s 390 870 m -27 X s 390 890 m -27 X s 390 905 m -27 X s 390 918 m -27 X s 390 929 m -27 X s 390 938 m -27 X s 390 946 m -27 X s 417 953 m -54 X s 390 1001 m -27 X s 390
 1030 m -27 X s 390 1050 m -27 X s 390 1065 m -27 X s 390 1078 m -27 X s 390 1088 m -27 X s 390 1098 m -27 X s 390 1106 m -27 X s 417 1113 m -54 X s 390 1161 m -27 X s 390 1189 m -27 X s 390 1209 m -27 X s 390 1225 m -27 X s 390 1238 m -27 X s 390
 1248 m -27 X s 390 1258 m -27 X s 390 1266 m -27 X s 417 1273 m -54 X s 390 1321 m -27 X s 390 1349 m -27 X s 390 1369 m -27 X s 390 1385 m -27 X s 390 1397 m -27 X s 390 1408 m -27 X s 390 1417 m -27 X s 390 1426 m -27 X s 417 1433 m -54 X s 390
 1481 m -27 X s 2154 634 m 850 Y s 2101 634 m 53 X s 2127 682 m 27 X s 2127 710 m 27 X s 2127 730 m 27 X s 2127 745 m 27 X s 2127 758 m 27 X s 2127 769 m 27 X s 2127 778 m 27 X s 2127 786 m 27 X s 2101 793 m 53 X s 2127 842 m 27 X s 2127 870 m 27 X s
 2127 890 m 27 X s 2127 905 m 27 X s 2127 918 m 27 X s 2127 929 m 27 X s 2127 938 m 27 X s 2127 946 m 27 X s 2101 953 m 53 X s 2127 1001 m 27 X s 2127 1030 m 27 X s 2127 1050 m 27 X s 2127 1065 m 27 X s 2127 1078 m 27 X s 2127 1088 m 27 X s 2127 1098
 m 27 X s 2127 1106 m 27 X s 2101 1113 m 53 X s 2127 1161 m 27 X s 2127 1189 m 27 X s 2127 1209 m 27 X s 2127 1225 m 27 X s 2127 1238 m 27 X s 2127 1248 m 27 X s 2127 1258 m 27 X s 2127 1266 m 27 X s 2101 1273 m 53 X s 2127 1321 m 27 X s 2127 1349 m
 27 X s 2127 1369 m 27 X s 2127 1385 m 27 X s 2127 1397 m 27 X s 2127 1408 m 27 X s 2127 1417 m 27 X s 2127 1426 m 27 X s 2101 1433 m 53 X s 2127 1481 m 27 X s
 gsave  2268 1077 0 461 C 677.708 1215.31 t 0 r /Helvetica findfont 58.7189 sf 0 0 m (2mu2e) show NC gr  1 1 1 c 453 161 454 1269 bf black
 gsave  2268 1077 0 461 C 566.929 1371.71 t 0 r /Helvetica-Bold findfont 48.9324 sf 0 0 m (MC15) show NC gr  510 1390 m20
 gsave  2268 1077 0 461 C 566.929 1293.51 t 0 r /Helvetica-Bold findfont 48.9324 sf 0 0 m (Projection of Signal pdf) show NC gr  0 0 1 c 9 lw 471 1309 m 79 X s black 3 lw 1 1 1 c 2268 461 0 0 bf black 1 1 1 c 1791 364 363 74 bf black 1791 364 363 74
 bl 363 74 m 1791 X s
 gsave  2268 461 0 0 C 1915.83 13.0329 t 0 r /Helvetica findfont 22.9045 sf 0 0 m (4l Invariant Mass \(GeV\)) show NC gr  363 85 m -11 Y s 400 79 m -5 Y s 437 79 m -5 Y s 474 79 m -5 Y s 511 79 m -5 Y s 548 85 m -11 Y s 584 79 m -5 Y s 621 79 m -5 Y
 s 658 79 m -5 Y s 695 79 m -5 Y s 732 85 m -11 Y s 769 79 m -5 Y s 806 79 m -5 Y s 843 79 m -5 Y s 880 79 m -5 Y s 917 85 m -11 Y s 954 79 m -5 Y s 991 79 m -5 Y s 1028 79 m -5 Y s 1065 79 m -5 Y s 1102 85 m -11 Y s 1139 79 m -5 Y s 1175 79 m -5 Y s
 1212 79 m -5 Y s 1249 79 m -5 Y s 1286 85 m -11 Y s 1323 79 m -5 Y s 1360 79 m -5 Y s 1397 79 m -5 Y s 1434 79 m -5 Y s 1471 85 m -11 Y s 1508 79 m -5 Y s 1545 79 m -5 Y s 1582 79 m -5 Y s 1619 79 m -5 Y s 1656 85 m -11 Y s 1693 79 m -5 Y s 1730 79
 m -5 Y s 1766 79 m -5 Y s 1803 79 m -5 Y s 1840 85 m -11 Y s 1877 79 m -5 Y s 1914 79 m -5 Y s 1951 79 m -5 Y s 1988 79 m -5 Y s 2025 85 m -11 Y s 2025 85 m -11 Y s 2062 79 m -5 Y s 2099 79 m -5 Y s 2136 79 m -5 Y s
 gsave  2268 461 0 0 C 342.112 55.3896 t 0 r /Helvetica findfont 22.9045 sf 0 0 m (330) show NC gr 
 gsave  2268 461 0 0 C 527.831 55.3896 t 0 r /Helvetica findfont 22.9045 sf 0 0 m (340) show NC gr 
 gsave  2268 461 0 0 C 710.291 55.3896 t 0 r /Helvetica findfont 22.9045 sf 0 0 m (350) show NC gr 
 gsave  2268 461 0 0 C 896.009 55.3896 t 0 r /Helvetica findfont 22.9045 sf 0 0 m (360) show NC gr 
 gsave  2268 461 0 0 C 1081.73 55.3896 t 0 r /Helvetica findfont 22.9045 sf 0 0 m (370) show NC gr 
 gsave  2268 461 0 0 C 1264.19 55.3896 t 0 r /Helvetica findfont 22.9045 sf 0 0 m (380) show NC gr 
 gsave  2268 461 0 0 C 1449.91 55.3896 t 0 r /Helvetica findfont 22.9045 sf 0 0 m (390) show NC gr 
 gsave  2268 461 0 0 C 1635.62 55.3896 t 0 r /Helvetica findfont 22.9045 sf 0 0 m (400) show NC gr 
 gsave  2268 461 0 0 C 1818.08 55.3896 t 0 r /Helvetica findfont 22.9045 sf 0 0 m (410) show NC gr 
 gsave  2268 461 0 0 C 2003.8 55.3896 t 0 r /Helvetica findfont 22.9045 sf 0 0 m (420) show NC gr  363 438 m 1791 X s 363 427 m 11 Y s 400 433 m 5 Y s 437 433 m 5 Y s 474 433 m 5 Y s 511 433 m 5 Y s 548 427 m 11 Y s 584 433 m 5 Y s 621 433 m 5 Y s
 658 433 m 5 Y s 695 433 m 5 Y s 732 427 m 11 Y s 769 433 m 5 Y s 806 433 m 5 Y s 843 433 m 5 Y s 880 433 m 5 Y s 917 427 m 11 Y s 954 433 m 5 Y s 991 433 m 5 Y s 1028 433 m 5 Y s 1065 433 m 5 Y s 1102 427 m 11 Y s 1139 433 m 5 Y s 1175 433 m 5 Y s
 1212 433 m 5 Y s 1249 433 m 5 Y s 1286 427 m 11 Y s 1323 433 m 5 Y s 1360 433 m 5 Y s 1397 433 m 5 Y s 1434 433 m 5 Y s 1471 427 m 11 Y s 1508 433 m 5 Y s 1545 433 m 5 Y s 1582 433 m 5 Y s 1619 433 m 5 Y s 1656 427 m 11 Y s 1693 433 m 5 Y s 1730 433
 m 5 Y s 1766 433 m 5 Y s 1803 433 m 5 Y s 1840 427 m 11 Y s 1877 433 m 5 Y s 1914 433 m 5 Y s 1951 433 m 5 Y s 1988 433 m 5 Y s 2025 427 m 11 Y s 2025 427 m 11 Y s 2062 433 m 5 Y s 2099 433 m 5 Y s 2136 433 m 5 Y s 363 74 m 364 Y s 417 74 m -54 X s
 390 81 m -27 X s 390 88 m -27 X s 390 96 m -27 X s 390 103 m -27 X s 417 110 m -54 X s 390 118 m -27 X s 390 125 m -27 X s 390 132 m -27 X s 390 139 m -27 X s 417 147 m -54 X s 390 154 m -27 X s 390 161 m -27 X s 390 169 m -27 X s 390 176 m -27 X s
 417 183 m -54 X s 390 190 m -27 X s 390 198 m -27 X s 390 205 m -27 X s 390 212 m -27 X s 417 220 m -54 X s 390 227 m -27 X s 390 234 m -27 X s 390 241 m -27 X s 390 249 m -27 X s 417 256 m -54 X s 390 263 m -27 X s 390 271 m -27 X s 390 278 m -27 X
 s 390 285 m -27 X s 417 293 m -54 X s 390 300 m -27 X s 390 307 m -27 X s 390 314 m -27 X s 390 322 m -27 X s 417 329 m -54 X s 390 336 m -27 X s 390 344 m -27 X s 390 351 m -27 X s 390 358 m -27 X s 417 365 m -54 X s 390 373 m -27 X s 390 380 m -27
 X s 390 387 m -27 X s 390 395 m -27 X s 417 402 m -54 X s 390 409 m -27 X s 390 416 m -27 X s 390 424 m -27 X s 390 431 m -27 X s 417 438 m -54 X s
 gsave  2268 461 0 0 C 329.08 65.1643 t 0 r /Helvetica findfont 22.9045 sf 0 0 m (\2555) show NC gr 
 gsave  2268 461 0 0 C 329.08 101.005 t 0 r /Helvetica findfont 22.9045 sf 0 0 m (\2554) show NC gr 
 gsave  2268 461 0 0 C 329.08 140.103 t 0 r /Helvetica findfont 22.9045 sf 0 0 m (\2553) show NC gr 
 gsave  2268 461 0 0 C 329.08 175.944 t 0 r /Helvetica findfont 22.9045 sf 0 0 m (\2552) show NC gr 
 gsave  2268 461 0 0 C 332.338 211.784 t 0 r /Helvetica findfont 22.9045 sf 0 0 m (\2551) show NC gr 
 gsave  2268 461 0 0 C 335.596 247.624 t 0 r /Helvetica findfont 22.9045 sf 0 0 m (0) show NC gr 
 gsave  2268 461 0 0 C 338.854 283.465 t 0 r /Helvetica findfont 22.9045 sf 0 0 m (1) show NC gr 
 gsave  2268 461 0 0 C 335.596 319.305 t 0 r /Helvetica findfont 22.9045 sf 0 0 m (2) show NC gr 
 gsave  2268 461 0 0 C 335.596 358.403 t 0 r /Helvetica findfont 22.9045 sf 0 0 m (3) show NC gr 
 gsave  2268 461 0 0 C 335.596 394.244 t 0 r /Helvetica findfont 22.9045 sf 0 0 m (4) show NC gr 
 gsave  2268 461 0 0 C 335.596 430.084 t 0 r /Helvetica findfont 22.9045 sf 0 0 m (5) show NC gr  2154 74 m 364 Y s 2101 74 m 53 X s 2127 81 m 27 X s 2127 88 m 27 X s 2127 96 m 27 X s 2127 103 m 27 X s 2101 110 m 53 X s 2127 118 m 27 X s 2127 125 m
 27 X s 2127 132 m 27 X s 2127 139 m 27 X s 2101 147 m 53 X s 2127 154 m 27 X s 2127 161 m 27 X s 2127 169 m 27 X s 2127 176 m 27 X s 2101 183 m 53 X s 2127 190 m 27 X s 2127 198 m 27 X s 2127 205 m 27 X s 2127 212 m 27 X s 2101 220 m 53 X s 2127 227
 m 27 X s 2127 234 m 27 X s 2127 241 m 27 X s 2127 249 m 27 X s 2101 256 m 53 X s 2127 263 m 27 X s 2127 271 m 27 X s 2127 278 m 27 X s 2127 285 m 27 X s 2101 293 m 53 X s 2127 300 m 27 X s 2127 307 m 27 X s 2127 314 m 27 X s 2127 322 m 27 X s 2101
 329 m 53 X s 2127 336 m 27 X s 2127 344 m 27 X s 2127 351 m 27 X s 2127 358 m 27 X s 2101 365 m 53 X s 2127 373 m 27 X s 2127 380 m 27 X s 2127 387 m 27 X s 2127 395 m 27 X s 2101 402 m 53 X s 2127 409 m 27 X s 2127 416 m 27 X s 2127 424 m 27 X s
 2127 431 m 27 X s 2101 438 m 53 X s 6 lw 0.2 0.8 0.2 c black 3 lw 0.2 0.8 0.2 c 363 256 m 28 Y 36 X -20 Y 35 X -10 Y 36 X 31 Y 36 X 23 Y 36 X 24 Y 36 X -72 Y 36 X -5 Y 35 X -11 Y 36 X 8 Y 36 X 23 Y 36 X -10 Y 36 X -37 Y 36 X 8 Y 35 X -82 Y 36 X 141
 Y 36 X -79 Y 36 X -1 Y 36 X -22 Y 36 X 15 Y 35 X 3 Y 36 X 41 Y 36 X 10 Y 36 X -47 Y 36 X 67 Y 36 X 20 Y 35 X 28 Y 36 X 26 Y 36 X -22 Y 36 X -57 Y 36 X -72 Y 36 X -59 Y 35 X 52 Y 36 X 61 Y 36 X -9 Y 36 X 57 Y 36 X -8 Y 36 X 36 Y 35 X -109 Y 36 X -24
 Y 36 X 81 Y 36 X -66 Y 36 X -51 Y 36 X 56 Y 35 X 107 Y 36 X -75 Y 36 X -43 Y 36 X 35 Y 72 X 88 Y 35 X -78 Y f 6 lw black 0.2 0.8 0.2 c black 363 284 m 36 X -20 Y 35 X -10 Y 36 X 31 Y 36 X 23 Y 36 X 24 Y 36 X -72 Y 36 X -5 Y 35 X -11 Y 36 X 8 Y 36 X
 23 Y 36 X -10 Y 36 X -37 Y 36 X 8 Y 35 X -82 Y 36 X 141 Y 36 X -79 Y 36 X -1 Y 36 X -22 Y 36 X 15 Y 35 X 3 Y 36 X 41 Y 36 X 10 Y 36 X -47 Y 36 X 67 Y 36 X 20 Y 35 X 28 Y 36 X 26 Y 36 X -22 Y 36 X -57 Y 36 X -72 Y 36 X -59 Y 35 X 52 Y 36 X 61 Y 36 X
 -9 Y 36 X 57 Y 36 X -8 Y 36 X 36 Y 35 X -109 Y 36 X -24 Y 36 X 81 Y 36 X -66 Y 36 X -51 Y 36 X 56 Y 35 X 107 Y 36 X -75 Y 36 X -43 Y 36 X 35 Y 72 X 88 Y 35 X s 3 lw 363 74 m 1791 X s 363 85 m -11 Y s 400 79 m -5 Y s 437 79 m -5 Y s 474 79 m -5 Y s
 511 79 m -5 Y s 548 85 m -11 Y s 584 79 m -5 Y s 621 79 m -5 Y s 658 79 m -5 Y s 695 79 m -5 Y s 732 85 m -11 Y s 769 79 m -5 Y s 806 79 m -5 Y s 843 79 m -5 Y s 880 79 m -5 Y s 917 85 m -11 Y s 954 79 m -5 Y s 991 79 m -5 Y s 1028 79 m -5 Y s 1065
 79 m -5 Y s 1102 85 m -11 Y s 1139 79 m -5 Y s 1175 79 m -5 Y s 1212 79 m -5 Y s 1249 79 m -5 Y s 1286 85 m -11 Y s 1323 79 m -5 Y s 1360 79 m -5 Y s 1397 79 m -5 Y s 1434 79 m -5 Y s 1471 85 m -11 Y s 1508 79 m -5 Y s 1545 79 m -5 Y s 1582 79 m -5
 Y s 1619 79 m -5 Y s 1656 85 m -11 Y s 1693 79 m -5 Y s 1730 79 m -5 Y s 1766 79 m -5 Y s 1803 79 m -5 Y s 1840 85 m -11 Y s 1877 79 m -5 Y s 1914 79 m -5 Y s 1951 79 m -5 Y s 1988 79 m -5 Y s 2025 85 m -11 Y s 2025 85 m -11 Y s 2062 79 m -5 Y s
 2099 79 m -5 Y s 2136 79 m -5 Y s 363 438 m 1791 X s 363 427 m 11 Y s 400 433 m 5 Y s 437 433 m 5 Y s 474 433 m 5 Y s 511 433 m 5 Y s 548 427 m 11 Y s 584 433 m 5 Y s 621 433 m 5 Y s 658 433 m 5 Y s 695 433 m 5 Y s 732 427 m 11 Y s 769 433 m 5 Y s
 806 433 m 5 Y s 843 433 m 5 Y s 880 433 m 5 Y s 917 427 m 11 Y s 954 433 m 5 Y s 991 433 m 5 Y s 1028 433 m 5 Y s 1065 433 m 5 Y s 1102 427 m 11 Y s 1139 433 m 5 Y s 1175 433 m 5 Y s 1212 433 m 5 Y s 1249 433 m 5 Y s 1286 427 m 11 Y s 1323 433 m 5 Y
 s 1360 433 m 5 Y s 1397 433 m 5 Y s 1434 433 m 5 Y s 1471 427 m 11 Y s 1508 433 m 5 Y s 1545 433 m 5 Y s 1582 433 m 5 Y s 1619 433 m 5 Y s 1656 427 m 11 Y s 1693 433 m 5 Y s 1730 433 m 5 Y s 1766 433 m 5 Y s 1803 433 m 5 Y s 1840 427 m 11 Y s 1877
 433 m 5 Y s 1914 433 m 5 Y s 1951 433 m 5 Y s 1988 433 m 5 Y s 2025 427 m 11 Y s 2025 427 m 11 Y s 2062 433 m 5 Y s 2099 433 m 5 Y s 2136 433 m 5 Y s 363 74 m 364 Y s 417 74 m -54 X s 390 81 m -27 X s 390 88 m -27 X s 390 96 m -27 X s 390 103 m -27
 X s 417 110 m -54 X s 390 118 m -27 X s 390 125 m -27 X s 390 132 m -27 X s 390 139 m -27 X s 417 147 m -54 X s 390 154 m -27 X s 390 161 m -27 X s 390 169 m -27 X s 390 176 m -27 X s 417 183 m -54 X s 390 190 m -27 X s 390 198 m -27 X s 390 205 m
 -27 X s 390 212 m -27 X s 417 220 m -54 X s 390 227 m -27 X s 390 234 m -27 X s 390 241 m -27 X s 390 249 m -27 X s 417 256 m -54 X s 390 263 m -27 X s 390 271 m -27 X s 390 278 m -27 X s 390 285 m -27 X s 417 293 m -54 X s 390 300 m -27 X s 390 307
 m -27 X s 390 314 m -27 X s 390 322 m -27 X s 417 329 m -54 X s 390 336 m -27 X s 390 344 m -27 X s 390 351 m -27 X s 390 358 m -27 X s 417 365 m -54 X s 390 373 m -27 X s 390 380 m -27 X s 390 387 m -27 X s 390 395 m -27 X s 417 402 m -54 X s 390
 409 m -27 X s 390 416 m -27 X s 390 424 m -27 X s 390 431 m -27 X s 417 438 m -54 X s 2154 74 m 364 Y s 2101 74 m 53 X s 2127 81 m 27 X s 2127 88 m 27 X s 2127 96 m 27 X s 2127 103 m 27 X s 2101 110 m 53 X s 2127 118 m 27 X s 2127 125 m 27 X s 2127
 132 m 27 X s 2127 139 m 27 X s 2101 147 m 53 X s 2127 154 m 27 X s 2127 161 m 27 X s 2127 169 m 27 X s 2127 176 m 27 X s 2101 183 m 53 X s 2127 190 m 27 X s 2127 198 m 27 X s 2127 205 m 27 X s 2127 212 m 27 X s 2101 220 m 53 X s 2127 227 m 27 X s
 2127 234 m 27 X s 2127 241 m 27 X s 2127 249 m 27 X s 2101 256 m 53 X s 2127 263 m 27 X s 2127 271 m 27 X s 2127 278 m 27 X s 2127 285 m 27 X s 2101 293 m 53 X s 2127 300 m 27 X s 2127 307 m 27 X s 2127 314 m 27 X s 2127 322 m 27 X s 2101 329 m 53 X
 s 2127 336 m 27 X s 2127 344 m 27 X s 2127 351 m 27 X s 2127 358 m 27 X s 2101 365 m 53 X s 2127 373 m 27 X s 2127 380 m 27 X s 2127 387 m 27 X s 2127 395 m 27 X s 2101 402 m 53 X s 2127 409 m 27 X s 2127 416 m 27 X s 2127 424 m 27 X s 2127 431 m 27
 X s 2101 438 m 53 X s
 gr  gr showpage
end
%%EOF
