%!PS-Adobe-2.0 EPSF-2.0
%%BoundingBox:  0 0 567 384
%%Title: H4l2015_plotfit/VBF_mass_signal_600_H4l_4e.eps: 
%%Creator: ROOT Version 5.34/07
%%CreationDate: Mon Nov  9 16:30:39 2015
%%EndComments
%%BeginProlog
80 dict begin
/s {stroke} def /l {lineto} def /m {moveto} def /t {translate} def
/r {rotate} def /rl {roll}  def /R {repeat} def
/d {rlineto} def /rm {rmoveto} def /gr {grestore} def /f {eofill} def
/c {setrgbcolor} def /black {0 setgray} def /sd {setdash} def
/cl {closepath} def /sf {scalefont setfont} def /lw {setlinewidth} def
/box {m dup 0 exch d exch 0 d 0 exch neg d cl} def
/NC{systemdict begin initclip end}def/C{NC box clip newpath}def
/bl {box s} def /bf {box f} def /Y { 0 exch d} def /X { 0 d} def 
/K {{pop pop 0 moveto} exch kshow} bind def
/ita {/ang 15 def gsave [1 0 ang dup sin exch cos div 1 0 0] concat} def 
/mp {newpath /y exch def /x exch def} def
/side {[w .77 mul w .23 mul] .385 w mul sd w 0 l currentpoint t -144 r} def
/mr {mp x y w2 0 360 arc} def /m24 {mr s} def /m20 {mr f} def
/mb {mp x y w2 add m w2 neg 0 d 0 w neg d w 0 d 0 w d cl} def
/mt {mp x y w2 add m w2 neg w neg d w 0 d cl} def
/m21 {mb f} def /m25 {mb s} def /m22 {mt f} def /m26{mt s} def
/m23 {mp x y w2 sub m w2 w d w neg 0 d cl f} def
/m27 {mp x y w2 add m w3 neg w2 neg d w3 w2 neg d w3 w2 d cl s} def
/m28 {mp x w2 sub y w2 sub w3 add m w3 0 d  0 w3 neg d w3 0 d 0 w3 d w3 0 d  0 w3 d w3 neg 0 d 0 w3 d w3 neg 0 d 0 w3 neg d w3 neg 0 d cl s } def
/m29 {mp gsave x w2 sub y w2 add w3 sub m currentpoint t 4 {side} repeat cl fill gr} def
/m30 {mp gsave x w2 sub y w2 add w3 sub m currentpoint t 4 {side} repeat cl s gr} def
/m31 {mp x y w2 sub m 0 w d x w2 sub y m w 0 d x w2 sub y w2 add m w w neg d x w2 sub y w2 sub m w w d s} def
/m32 {mp x y w2 sub m w2 w d w neg 0 d cl s} def
/m33 {mp x y w2 add m w3 neg w2 neg d w3 w2 neg d w3 w2 d cl f} def
/m34 {mp x w2 sub y w2 sub w3 add m w3 0 d  0 w3 neg d w3 0 d 0 w3 d w3 0 d  0 w3 d w3 neg 0 d 0 w3 d w3 neg 0 d 0 w3 neg d w3 neg 0 d cl f } def
/m2 {mp x y w2 sub m 0 w d x w2 sub y m w 0 d s} def
/m5 {mp x w2 sub y w2 sub m w w d x w2 sub y w2 add m w w neg d s} def
/reEncode {exch findfont dup length dict begin {1 index /FID eq  {pop pop} {def} ifelse } forall /Encoding exch def currentdict end dup /FontName get exch definefont pop } def [/Times-Bold /Times-Italic /Times-BoldItalic /Helvetica /Helvetica-Oblique
 /Helvetica-Bold /Helvetica-BoldOblique /Courier /Courier-Oblique /Courier-Bold /Courier-BoldOblique /Times-Roman /AvantGarde-Book /AvantGarde-BookOblique /AvantGarde-Demi /AvantGarde-DemiOblique /Bookman-Demi /Bookman-DemiItalic /Bookman-Light
 /Bookman-LightItalic /Helvetica-Narrow /Helvetica-Narrow-Bold /Helvetica-Narrow-BoldOblique /Helvetica-Narrow-Oblique /NewCenturySchlbk-Roman /NewCenturySchlbk-Bold /NewCenturySchlbk-BoldItalic /NewCenturySchlbk-Italic /Palatino-Bold
 /Palatino-BoldItalic /Palatino-Italic /Palatino-Roman ] {ISOLatin1Encoding reEncode } forall
%%EndProlog
%%BeginSetup
%%EndSetup
newpath  gsave  .25 .25 scale  gsave  0 0 t black[  ] 0 sd 3 lw 1 1 1 c 2268 1538 0 0 bf black 1 1 1 c 2222 738 23 784 bf black 1 1 1 c 2222 739 23 15 bf black 1 1 1 c 2268 1077 0 461 bf black 1 1 1 c 1791 850 363 634 bf black 1791 850 363 634 bl 363
 634 m 1791 X s
 gsave  2268 1077 0 461 C 1642.14 498.507 t 0 r /Helvetica findfont 48.9324 sf 0 0 m (4l Invariant Mass \(GeV\)) show NC gr  363 659 m -25 Y s 423 646 m -12 Y s 482 646 m -12 Y s 542 646 m -12 Y s 602 659 m -25 Y s 661 646 m -12 Y s 721 646 m -12 Y s
 781 646 m -12 Y s 841 659 m -25 Y s 900 646 m -12 Y s 960 646 m -12 Y s 1020 646 m -12 Y s 1079 659 m -25 Y s 1139 646 m -12 Y s 1199 646 m -12 Y s 1259 646 m -12 Y s 1318 659 m -25 Y s 1378 646 m -12 Y s 1438 646 m -12 Y s 1497 646 m -12 Y s 1557
 659 m -25 Y s 1617 646 m -12 Y s 1677 646 m -12 Y s 1736 646 m -12 Y s 1796 659 m -25 Y s 1856 646 m -12 Y s 1915 646 m -12 Y s 1975 646 m -12 Y s 2035 659 m -25 Y s 2035 659 m -25 Y s 2095 646 m -12 Y s 2154 646 m -12 Y s
 gsave  2268 1077 0 461 C 319.305 586.478 t 0 r /Helvetica findfont 48.9324 sf 0 0 m (480) show NC gr 
 gsave  2268 1077 0 461 C 557.154 586.478 t 0 r /Helvetica findfont 48.9324 sf 0 0 m (500) show NC gr 
 gsave  2268 1077 0 461 C 795.004 586.478 t 0 r /Helvetica findfont 48.9324 sf 0 0 m (520) show NC gr 
 gsave  2268 1077 0 461 C 1036.11 586.478 t 0 r /Helvetica findfont 48.9324 sf 0 0 m (540) show NC gr 
 gsave  2268 1077 0 461 C 1273.96 586.478 t 0 r /Helvetica findfont 48.9324 sf 0 0 m (560) show NC gr 
 gsave  2268 1077 0 461 C 1511.81 586.478 t 0 r /Helvetica findfont 48.9324 sf 0 0 m (580) show NC gr 
 gsave  2268 1077 0 461 C 1752.92 586.478 t 0 r /Helvetica findfont 48.9324 sf 0 0 m (600) show NC gr 
 gsave  2268 1077 0 461 C 1990.77 586.478 t 0 r /Helvetica findfont 48.9324 sf 0 0 m (620) show NC gr  363 1484 m 1791 X s 363 1459 m 25 Y s 423 1471 m 13 Y s 482 1471 m 13 Y s 542 1471 m 13 Y s 602 1459 m 25 Y s 661 1471 m 13 Y s 721 1471 m 13 Y s
 781 1471 m 13 Y s 841 1459 m 25 Y s 900 1471 m 13 Y s 960 1471 m 13 Y s 1020 1471 m 13 Y s 1079 1459 m 25 Y s 1139 1471 m 13 Y s 1199 1471 m 13 Y s 1259 1471 m 13 Y s 1318 1459 m 25 Y s 1378 1471 m 13 Y s 1438 1471 m 13 Y s 1497 1471 m 13 Y s 1557
 1459 m 25 Y s 1617 1471 m 13 Y s 1677 1471 m 13 Y s 1736 1471 m 13 Y s 1796 1459 m 25 Y s 1856 1471 m 13 Y s 1915 1471 m 13 Y s 1975 1471 m 13 Y s 2035 1459 m 25 Y s 2035 1459 m 25 Y s 2095 1471 m 13 Y s 2154 1471 m 13 Y s 363 634 m 850 Y s
 gsave  2268 1077 0 461 C 120.554 1098.02 t 90 r /Helvetica findfont 48.9324 sf 0 0 m (Events / \( 3 GeV \)) show NC gr  417 634 m -54 X s
 gsave  2268 1077 0 461 C 312.788 632.093 t 0 r /Helvetica findfont 32.6216 sf 0 0 m (\2552) show NC gr 
 gsave  2268 1077 0 461 C 260.657 612.544 t 0 r /Helvetica findfont 48.9324 sf 0 0 m (10) show NC gr  390 682 m -27 X s 390 710 m -27 X s 390 730 m -27 X s 390 746 m -27 X s 390 758 m -27 X s 390 769 m -27 X s 390 778 m -27 X s 390 787 m -27 X s 417
 794 m -54 X s
 gsave  2268 1077 0 461 C 319.305 791.746 t 0 r /Helvetica findfont 32.6216 sf 0 0 m (\2551) show NC gr 
 gsave  2268 1077 0 461 C 267.173 772.197 t 0 r /Helvetica findfont 48.9324 sf 0 0 m (10) show NC gr  390 842 m -27 X s 390 870 m -27 X s 390 890 m -27 X s 390 906 m -27 X s 390 919 m -27 X s 390 929 m -27 X s 390 939 m -27 X s 390 947 m -27 X s 417
 954 m -54 X s
 gsave  2268 1077 0 461 C 342.425 933.267 t 0 r  -27 0 t /Helvetica findfont 48.9324 sf 0 0 m (1) show NC gr  390 1002 m -27 X s 390 1031 m -27 X s 390 1051 m -27 X s 390 1066 m -27 X s 390 1079 m -27 X s 390 1090 m -27 X s 390 1099 m -27 X s 390
 1107 m -27 X s 417 1114 m -54 X s
 gsave  2268 1077 0 461 C 342.425 1093.52 t 0 r  -55 0 t /Helvetica findfont 48.9324 sf 0 0 m (10) show NC gr  390 1163 m -27 X s 390 1191 m -27 X s 390 1211 m -27 X s 390 1226 m -27 X s 390 1239 m -27 X s 390 1250 m -27 X s 390 1259 m -27 X s 390
 1267 m -27 X s 417 1275 m -54 X s
 gsave  2268 1077 0 461 C 322.563 1273.96 t 0 r /Helvetica findfont 32.6216 sf 0 0 m (2) show NC gr 
 gsave  2268 1077 0 461 C 270.432 1254.41 t 0 r /Helvetica findfont 48.9324 sf 0 0 m (10) show NC gr  390 1323 m -27 X s 390 1351 m -27 X s 390 1371 m -27 X s 390 1387 m -27 X s 390 1399 m -27 X s 390 1410 m -27 X s 390 1419 m -27 X s 390 1428 m -27
 X s 417 1435 m -54 X s
 gsave  2268 1077 0 461 C 322.563 1436.87 t 0 r /Helvetica findfont 32.6216 sf 0 0 m (3) show NC gr 
 gsave  2268 1077 0 461 C 270.432 1414.06 t 0 r /Helvetica findfont 48.9324 sf 0 0 m (10) show NC gr  390 1483 m -27 X s 2154 634 m 850 Y s 2101 634 m 53 X s 2127 682 m 27 X s 2127 710 m 27 X s 2127 730 m 27 X s 2127 746 m 27 X s 2127 758 m 27 X s
 2127 769 m 27 X s 2127 778 m 27 X s 2127 787 m 27 X s 2101 794 m 53 X s 2127 842 m 27 X s 2127 870 m 27 X s 2127 890 m 27 X s 2127 906 m 27 X s 2127 919 m 27 X s 2127 929 m 27 X s 2127 939 m 27 X s 2127 947 m 27 X s 2101 954 m 53 X s 2127 1002 m 27
 X s 2127 1031 m 27 X s 2127 1051 m 27 X s 2127 1066 m 27 X s 2127 1079 m 27 X s 2127 1090 m 27 X s 2127 1099 m 27 X s 2127 1107 m 27 X s 2101 1114 m 53 X s 2127 1163 m 27 X s 2127 1191 m 27 X s 2127 1211 m 27 X s 2127 1226 m 27 X s 2127 1239 m 27 X
 s 2127 1250 m 27 X s 2127 1259 m 27 X s 2127 1267 m 27 X s 2101 1275 m 53 X s 2127 1323 m 27 X s 2127 1351 m 27 X s 2127 1371 m 27 X s 2127 1387 m 27 X s 2127 1399 m 27 X s 2127 1410 m 27 X s 2127 1419 m 27 X s 2127 1428 m 27 X s 2101 1435 m 53 X s
 2127 1483 m 27 X s 381 1002 m -18 X s 363 1002 m cl s 381 1002 m 18 X s 399 1002 m cl s 381 1002 m 59 Y s 381 1061 m cl s 381 1002 m -72 Y s 381 930 m cl s 417 954 m -18 X s 399 954 m cl s 417 954 m 17 X s 434 954 m cl s 417 954 m 83 Y s 417 1037 m
 cl s 417 954 m -122 Y s 417 832 m cl s 452 1031 m -18 X s 434 1031 m cl s 452 1031 m 18 X s 470 1031 m cl s 452 1031 m 47 Y s 452 1078 m cl s 452 1031 m -55 Y s 452 976 m cl s 488 1031 m -18 X s 470 1031 m cl s 488 1031 m 18 X s 506 1031 m cl s 488
 1031 m 47 Y s 488 1078 m cl s 488 1031 m -55 Y s 488 976 m cl s 524 954 m -18 X s 506 954 m cl s 524 954 m 18 X s 542 954 m cl s 524 954 m 83 Y s 524 1037 m cl s 524 954 m -122 Y s 524 832 m cl s 560 954 m -18 X s 542 954 m cl s 560 954 m 18 X s 578
 954 m cl s 560 954 m 83 Y s 560 1037 m cl s 560 954 m -122 Y s 560 832 m cl s 596 1002 m -18 X s 578 1002 m cl s 596 1002 m 18 X s 614 1002 m cl s 596 1002 m 59 Y s 596 1061 m cl s 596 1002 m -72 Y s 596 930 m cl s 632 1002 m -18 X s 614 1002 m cl s
 632 1002 m 17 X s 649 1002 m cl s 632 1002 m 59 Y s 632 1061 m cl s 632 1002 m -72 Y s 632 930 m cl s 667 1002 m -18 X s 649 1002 m cl s 667 1002 m 18 X s 685 1002 m cl s 667 1002 m 59 Y s 667 1061 m cl s 667 1002 m -72 Y s 667 930 m cl s 703 1031 m
 -18 X s 685 1031 m cl s 703 1031 m 18 X s 721 1031 m cl s 703 1031 m 47 Y s 703 1078 m cl s 703 1031 m -55 Y s 703 976 m cl s 739 1002 m -18 X s 721 1002 m cl s 739 1002 m 18 X s 757 1002 m cl s 739 1002 m 59 Y s 739 1061 m cl s 739 1002 m -72 Y s
 739 930 m cl s 775 1002 m -18 X s 757 1002 m cl s 775 1002 m 18 X s 793 1002 m cl s 775 1002 m 59 Y s 775 1061 m cl s 775 1002 m -72 Y s 775 930 m cl s 811 1002 m -18 X s 793 1002 m cl s 811 1002 m 18 X s 829 1002 m cl s 811 1002 m 59 Y s 811 1061 m
 cl s 811 1002 m -72 Y s 811 930 m cl s 847 1051 m -18 X s 829 1051 m cl s 847 1051 m 17 X s 864 1051 m cl s 847 1051 m 40 Y s 847 1091 m cl s 847 1051 m -46 Y s 847 1005 m cl s 882 954 m -18 X s 864 954 m cl s 882 954 m 18 X s 900 954 m cl s 882 954
 m 83 Y s 882 1037 m cl s 882 954 m -122 Y s 882 832 m cl s 918 1079 m -18 X s 900 1079 m cl s 918 1079 m 18 X s 936 1079 m cl s 918 1079 m 32 Y s 918 1111 m cl s 918 1079 m -35 Y s 918 1044 m cl s 954 1079 m -18 X s 936 1079 m cl s 954 1079 m 18 X s
 972 1079 m cl s 954 1079 m 32 Y s 954 1111 m cl s 954 1079 m -35 Y s 954 1044 m cl s 990 1031 m -18 X s 972 1031 m cl s 990 1031 m 18 X s 1008 1031 m cl s 990 1031 m 47 Y s 990 1078 m cl s 990 1031 m -55 Y s 990 976 m cl s 1026 1051 m -18 X s 1008
 1051 m cl s 1026 1051 m 18 X s 1044 1051 m cl s 1026 1051 m 40 Y s 1026 1091 m cl s 1026 1051 m -46 Y s 1026 1005 m cl s 1062 1099 m -18 X s 1044 1099 m cl s 1062 1099 m 17 X s 1079 1099 m cl s 1062 1099 m 28 Y s 1062 1127 m cl s 1062 1099 m -30 Y s
 1062 1069 m cl s 1097 1099 m -18 X s 1079 1099 m cl s 1097 1099 m 18 X s 1115 1099 m cl s 1097 1099 m 28 Y s 1097 1127 m cl s 1097 1099 m -30 Y s 1097 1069 m cl s 1133 1099 m -18 X s 1115 1099 m cl s 1133 1099 m 18 X s 1151 1099 m cl s 1133 1099 m
 28 Y s 1133 1127 m cl s 1133 1099 m -30 Y s 1133 1069 m cl s 1169 1121 m -18 X s 1151 1121 m cl s 1169 1121 m 18 X s 1187 1121 m cl s 1169 1121 m 24 Y s 1169 1145 m cl s 1169 1121 m -25 Y s 1169 1096 m cl s 1205 1127 m -18 X s 1187 1127 m cl s 1205
 1127 m 18 X s 1223 1127 m cl s 1205 1127 m 22 Y s 1205 1149 m cl s 1205 1127 m -23 Y s 1205 1104 m cl s 1241 1133 m -18 X s 1223 1133 m cl s 1241 1133 m 18 X s 1259 1133 m cl s 1241 1133 m 21 Y s 1241 1154 m cl s 1241 1133 m -23 Y s 1241 1110 m cl s
 1276 1133 m -17 X s 1259 1133 m cl s 1276 1133 m 18 X s 1294 1133 m cl s 1276 1133 m 21 Y s 1276 1154 m cl s 1276 1133 m -23 Y s 1276 1110 m cl s 1312 1172 m -18 X s 1294 1172 m cl s 1312 1172 m 18 X s 1330 1172 m cl s 1312 1172 m 16 Y s 1312 1188 m
 cl s 1312 1172 m -16 Y s 1312 1156 m cl s 1348 1163 m -18 X s 1330 1163 m cl s 1348 1163 m 18 X s 1366 1163 m cl s 1348 1163 m 17 Y s 1348 1180 m cl s 1348 1163 m -18 Y s 1348 1145 m cl s 1384 1213 m -18 X s 1366 1213 m cl s 1384 1213 m 18 X s 1402
 1213 m cl s 1384 1213 m 11 Y s 1384 1224 m cl s 1384 1213 m -12 Y s 1384 1201 m cl s 1420 1188 m -18 X s 1402 1188 m cl s 1420 1188 m 18 X s 1438 1188 m cl s 1420 1188 m 14 Y s 1420 1202 m cl s 1420 1188 m -14 Y s 1420 1174 m cl s 1456 1207 m -18 X
 s 1438 1207 m cl s 1456 1207 m 18 X s 1474 1207 m cl s 1456 1207 m 12 Y s 1456 1219 m cl s 1456 1207 m -12 Y s 1456 1195 m cl s 1491 1233 m -17 X s 1474 1233 m cl s 1491 1233 m 18 X s 1509 1233 m cl s 1491 1233 m 10 Y s 1491 1243 m cl s 1491 1233 m
 -10 Y s 1491 1223 m cl s 1527 1267 m -18 X s 1509 1267 m cl s 1527 1267 m 18 X s 1545 1267 m cl s 1527 1267 m 8 Y s 1527 1275 m cl s 1527 1267 m -7 Y s 1527 1260 m cl s 1563 1287 m -18 X s 1545 1287 m cl s 1563 1287 m 18 X s 1581 1287 m cl s 1563
 1287 m 6 Y s 1563 1293 m cl s 1563 1287 m -7 Y s 1563 1280 m cl s 1599 1319 m -18 X s 1581 1319 m cl s 1599 1319 m 18 X s 1617 1319 m cl s 1599 1319 m 5 Y s 1599 1324 m cl s 1599 1319 m -5 Y s 1599 1314 m cl s 1635 1340 m -18 X s 1617 1340 m cl s
 1635 1340 m 18 X s 1653 1340 m cl s 1635 1340 m 4 Y s 1635 1344 m cl s 1635 1340 m -5 Y s 1635 1335 m cl s 1671 1381 m -18 X s 1653 1381 m cl s 1671 1381 m 18 X s 1689 1381 m cl s 1671 1381 m 4 Y s 1671 1385 m cl s 1671 1381 m -3 Y s 1671 1378 m cl
 s 1706 1413 m -17 X s 1689 1413 m cl s 1706 1413 m 18 X s 1724 1413 m cl s 1706 1413 m 2 Y s 1706 1415 m cl s 1706 1413 m -3 Y s 1706 1410 m cl s 1742 1439 m -18 X s 1724 1439 m cl s 1742 1439 m 18 X s 1760 1439 m cl s 1742 1439 m 2 Y s 1742 1441 m
 cl s 1742 1439 m -3 Y s 1742 1436 m cl s 1778 1444 m -18 X s 1760 1444 m cl s 1778 1444 m 18 X s 1796 1444 m cl s 1778 1444 m 2 Y s 1778 1446 m cl s 1778 1444 m -2 Y s 1778 1442 m cl s 1814 1433 m -18 X s 1796 1433 m cl s 1814 1433 m 18 X s 1832
 1433 m cl s 1814 1433 m 2 Y s 1814 1435 m cl s 1814 1433 m -2 Y s 1814 1431 m cl s 1850 1385 m -18 X s 1832 1385 m cl s 1850 1385 m 18 X s 1868 1385 m cl s 1850 1385 m 3 Y s 1850 1388 m cl s 1850 1385 m -4 Y s 1850 1381 m cl s 1886 1316 m -18 X s
 1868 1316 m cl s 1886 1316 m 18 X s 1904 1316 m cl s 1886 1316 m 5 Y s 1886 1321 m cl s 1886 1316 m -5 Y s 1886 1311 m cl s 1921 1264 m -17 X s 1904 1264 m cl s 1921 1264 m 18 X s 1939 1264 m cl s 1921 1264 m 8 Y s 1921 1272 m cl s 1921 1264 m -8 Y
 s 1921 1256 m cl s 1957 1202 m -18 X s 1939 1202 m cl s 1957 1202 m 18 X s 1975 1202 m cl s 1957 1202 m 12 Y s 1957 1214 m cl s 1957 1202 m -13 Y s 1957 1189 m cl s 1993 1181 m -18 X s 1975 1181 m cl s 1993 1181 m 18 X s 2011 1181 m cl s 1993 1181 m
 15 Y s 1993 1196 m cl s 1993 1181 m -15 Y s 1993 1166 m cl s 2029 1121 m -18 X s 2011 1121 m cl s 2029 1121 m 18 X s 2047 1121 m cl s 2029 1121 m 24 Y s 2029 1145 m cl s 2029 1121 m -25 Y s 2029 1096 m cl s 2065 1090 m -18 X s 2047 1090 m cl s 2065
 1090 m 18 X s 2083 1090 m cl s 2065 1090 m 30 Y s 2065 1120 m cl s 2065 1090 m -32 Y s 2065 1058 m cl s 2101 1079 m -18 X s 2083 1079 m cl s 2101 1079 m 18 X s 2119 1079 m cl s 2101 1079 m 32 Y s 2101 1111 m cl s 2101 1079 m -35 Y s 2101 1044 m cl s
 2136 1066 m -17 X s 2119 1066 m cl s 2136 1066 m 18 X s 2154 1066 m cl s 2136 1066 m 36 Y s 2136 1102 m cl s 2136 1066 m -39 Y s 2136 1027 m cl s /w 31 def /w2 {w 2 div} def /w3 {w 3 div} def 381 1002 417 954 452 1031 488 1031 524 954 560 954 596
 1002 632 1002 667 1002 703 1031 739 1002 775 1002 811 1002 847 1051 882 954 918 1079 954 1079 990 1031 1026 1051 1062 1099 1097 1099 1133 1099 1169 1121 1205 1127 1241 1133 1276 1133 1312 1172 1348 1163 1384 1213 1420 1188 1456 1207 1491 1233 1527
 1267 1563 1287 1599 1319 1635 1340 1671 1381 1706 1413 1742 1439 1778 1444 1814 1433 1850 1385 1886 1316 1921 1264 1957 1202 1993 1181 2029 1121 2065 1090 2101 1079 2136 1066 50 { m20} R 0 1 1 c 1 1 0 c black 1 1 0 c 363 1009 m 36 4 d 35 3 d 36 4 d
 36 4 d 36 4 d 36 4 d 36 4 d 35 5 d 36 4 d 36 5 d 36 4 d 36 5 d 36 5 d 35 6 d 36 5 d 36 6 d 36 6 d 36 6 d 36 7 d 35 7 d 36 7 d 36 7 d 36 9 d 36 8 d 36 10 d 35 10 d 36 12 d 36 13 d 36 15 d 36 17 d 36 19 d 35 20 d 18 11 d 18 11 d 18 12 d 18 13 d 18 12
 d 18 14 d 9 7 d 9 7 d 9 7 d 9 8 d 9 9 d 4 5 d 5 5 d 4 5 d 5 6 d 4 6 d 5 6 d 35 36 d 5 3 d 4 3 d 5 3 d 4 2 d 5 2 d 4 1 d 5 1 d 4 1 d 14 X 4 -1 d 5 -1 d 4 -2 d 5 -2 d 4 -2 d 5 -3 d 4 -3 d 9 -7 d 18 -19 d 9 -10 d 9 -13 d 4 -6 d 5 -7 d 4 -7 d 5 -7 d 4
 -7 d 5 -8 d 4 -7 d 5 -8 d 9 -16 d 9 -16 d 8 -15 d 9 -14 d 9 -13 d 9 -12 d 18 -20 d 18 -17 d 36 -33 d 36 -33 d 36 -33 d 36 -36 d 35 -40 d -126 Y -35 87 d -36 63 d -36 50 d -36 39 d -36 34 d -18 20 d -18 25 d -9 14 d -9 15 d -9 16 d -8 16 d -9 17 d -9
 16 d -5 8 d -4 8 d -5 8 d -4 8 d -5 8 d -4 8 d -5 7 d -4 7 d -9 13 d -9 12 d -18 19 d -9 8 d -4 3 d -5 2 d -4 3 d -5 2 d -4 1 d -5 2 d -4 X -5 1 d -9 X -4 -1 d -5 -1 d -4 -1 d -5 -2 d -4 -2 d -5 -3 d -4 -3 d -5 -3 d -35 -42 d -5 -6 d -4 -5 d -5 -4 d
 -4 -5 d -5 -5 d -4 -4 d -9 -9 d -9 -8 d -9 -8 d -9 -8 d -9 -7 d -18 -14 d -18 -12 d -18 -12 d -18 -12 d -18 -12 d -18 -11 d -35 -23 d -36 -20 d -36 -18 d -36 -16 d -36 -14 d -36 -12 d -35 -10 d -36 -10 d -36 -9 d -36 -8 d -36 -8 d -36 -8 d -35 -7 d
 -36 -6 d -36 -7 d -36 -6 d -36 -6 d -36 -5 d -35 -6 d -36 -5 d -36 -5 d -36 -5 d -36 -5 d -36 -4 d -35 -4 d -36 -5 d -36 -4 d -36 -4 d -36 -4 d -36 -3 d -35 -4 d -36 -4 d f 0 1 1 c 0 1 0 c black 0 1 0 c 363 1005 m 36 4 d 35 3 d 36 4 d 36 4 d 36 4 d
 36 4 d 36 4 d 35 5 d 36 4 d 36 5 d 36 4 d 36 5 d 36 5 d 35 6 d 36 5 d 36 6 d 36 6 d 36 6 d 36 7 d 35 7 d 36 7 d 36 8 d 36 8 d 36 9 d 36 9 d 35 11 d 36 11 d 36 14 d 36 15 d 36 17 d 36 20 d 35 20 d 18 11 d 18 12 d 18 11 d 18 13 d 18 12 d 18 14 d 9 7 d
 9 7 d 9 8 d 9 8 d 9 9 d 4 4 d 5 5 d 4 5 d 5 6 d 4 6 d 5 6 d 35 37 d 5 3 d 4 3 d 5 3 d 4 2 d 5 2 d 4 1 d 5 1 d 4 1 d 14 X 4 -1 d 5 -1 d 4 -2 d 5 -2 d 4 -2 d 5 -3 d 4 -3 d 9 -7 d 18 -19 d 9 -11 d 9 -12 d 4 -7 d 5 -7 d 4 -7 d 5 -7 d 4 -8 d 5 -7 d 4 -8
 d 5 -8 d 9 -16 d 9 -16 d 8 -15 d 9 -15 d 9 -13 d 9 -12 d 18 -21 d 18 -18 d 36 -33 d 36 -34 d 36 -35 d 36 -39 d 35 -44 d -53 Y -35 58 d -36 51 d -36 44 d -36 37 d -36 34 d -18 19 d -18 24 d -9 13 d -9 14 d -9 16 d -8 16 d -9 16 d -9 16 d -5 8 d -4 8
 d -5 8 d -4 8 d -5 8 d -4 7 d -5 7 d -4 7 d -9 13 d -9 12 d -18 19 d -9 7 d -4 3 d -5 3 d -4 2 d -5 2 d -4 2 d -5 1 d -4 1 d -14 X -4 -1 d -5 -1 d -4 -1 d -5 -2 d -4 -2 d -5 -3 d -4 -3 d -5 -3 d -35 -41 d -5 -5 d -4 -5 d -5 -5 d -4 -5 d -5 -5 d -4
 -5 d -9 -8 d -9 -9 d -9 -8 d -9 -7 d -9 -7 d -18 -14 d -18 -12 d -18 -12 d -18 -12 d -18 -12 d -18 -11 d -35 -22 d -36 -20 d -36 -18 d -36 -15 d -36 -14 d -36 -12 d -35 -10 d -36 -10 d -36 -9 d -36 -8 d -36 -8 d -36 -7 d -35 -7 d -36 -7 d -36 -6 d
 -36 -6 d -36 -6 d -36 -6 d -35 -5 d -36 -5 d -36 -5 d -36 -5 d -36 -5 d -36 -4 d -35 -5 d -36 -4 d -36 -4 d -36 -4 d -36 -4 d -36 -4 d -35 -3 d -36 -4 d f 0 0 1 c 9 lw black 0 0 1 c 363 1001 m 36 3 d 35 4 d 36 4 d 36 4 d 36 4 d 36 4 d 36 4 d 35 4 d
 36 5 d 36 4 d 36 5 d 36 5 d 36 5 d 35 6 d 36 5 d 36 6 d 36 6 d 36 6 d 36 7 d 35 7 d 36 7 d 36 8 d 36 8 d 36 9 d 36 10 d 35 10 d 36 12 d 36 13 d 36 16 d 36 17 d 36 20 d 35 21 d 18 11 d 18 12 d 18 12 d 18 12 d 18 12 d 18 14 d 9 7 d 9 7 d 9 8 d 9 8 d 9
 9 d 4 5 d 5 4 d 4 6 d 5 5 d 4 5 d 5 6 d 35 39 d 5 3 d 4 3 d 5 3 d 4 2 d 5 2 d 4 1 d 5 1 d 4 1 d 14 X 4 -1 d 5 -1 d 4 -2 d 5 -2 d 4 -2 d 5 -3 d 4 -3 d 9 -7 d 18 -19 d 9 -11 d 9 -13 d 4 -7 d 5 -7 d 4 -7 d 5 -7 d 4 -8 d 5 -8 d 4 -8 d 5 -8 d 9 -16 d 9
 -16 d 8 -16 d 9 -14 d 9 -14 d 9 -13 d 18 -22 d 18 -19 d 36 -33 d 36 -35 d 36 -39 d 36 -44 d 35 -48 d s black 3 lw 381 1002 m -18 X s 363 1002 m cl s 381 1002 m 18 X s 399 1002 m cl s 381 1002 m 59 Y s 381 1061 m cl s 381 1002 m -72 Y s 381 930 m cl
 s 417 954 m -18 X s 399 954 m cl s 417 954 m 17 X s 434 954 m cl s 417 954 m 83 Y s 417 1037 m cl s 417 954 m -122 Y s 417 832 m cl s 452 1031 m -18 X s 434 1031 m cl s 452 1031 m 18 X s 470 1031 m cl s 452 1031 m 47 Y s 452 1078 m cl s 452 1031 m
 -55 Y s 452 976 m cl s 488 1031 m -18 X s 470 1031 m cl s 488 1031 m 18 X s 506 1031 m cl s 488 1031 m 47 Y s 488 1078 m cl s 488 1031 m -55 Y s 488 976 m cl s 524 954 m -18 X s 506 954 m cl s 524 954 m 18 X s 542 954 m cl s 524 954 m 83 Y s 524
 1037 m cl s 524 954 m -122 Y s 524 832 m cl s 560 954 m -18 X s 542 954 m cl s 560 954 m 18 X s 578 954 m cl s 560 954 m 83 Y s 560 1037 m cl s 560 954 m -122 Y s 560 832 m cl s 596 1002 m -18 X s 578 1002 m cl s 596 1002 m 18 X s 614 1002 m cl s
 596 1002 m 59 Y s 596 1061 m cl s 596 1002 m -72 Y s 596 930 m cl s 632 1002 m -18 X s 614 1002 m cl s 632 1002 m 17 X s 649 1002 m cl s 632 1002 m 59 Y s 632 1061 m cl s 632 1002 m -72 Y s 632 930 m cl s 667 1002 m -18 X s 649 1002 m cl s 667 1002
 m 18 X s 685 1002 m cl s 667 1002 m 59 Y s 667 1061 m cl s 667 1002 m -72 Y s 667 930 m cl s 703 1031 m -18 X s 685 1031 m cl s 703 1031 m 18 X s 721 1031 m cl s 703 1031 m 47 Y s 703 1078 m cl s 703 1031 m -55 Y s 703 976 m cl s 739 1002 m -18 X s
 721 1002 m cl s 739 1002 m 18 X s 757 1002 m cl s 739 1002 m 59 Y s 739 1061 m cl s 739 1002 m -72 Y s 739 930 m cl s 775 1002 m -18 X s 757 1002 m cl s 775 1002 m 18 X s 793 1002 m cl s 775 1002 m 59 Y s 775 1061 m cl s 775 1002 m -72 Y s 775 930 m
 cl s 811 1002 m -18 X s 793 1002 m cl s 811 1002 m 18 X s 829 1002 m cl s 811 1002 m 59 Y s 811 1061 m cl s 811 1002 m -72 Y s 811 930 m cl s 847 1051 m -18 X s 829 1051 m cl s 847 1051 m 17 X s 864 1051 m cl s 847 1051 m 40 Y s 847 1091 m cl s 847
 1051 m -46 Y s 847 1005 m cl s 882 954 m -18 X s 864 954 m cl s 882 954 m 18 X s 900 954 m cl s 882 954 m 83 Y s 882 1037 m cl s 882 954 m -122 Y s 882 832 m cl s 918 1079 m -18 X s 900 1079 m cl s 918 1079 m 18 X s 936 1079 m cl s 918 1079 m 32 Y s
 918 1111 m cl s 918 1079 m -35 Y s 918 1044 m cl s 954 1079 m -18 X s 936 1079 m cl s 954 1079 m 18 X s 972 1079 m cl s 954 1079 m 32 Y s 954 1111 m cl s 954 1079 m -35 Y s 954 1044 m cl s 990 1031 m -18 X s 972 1031 m cl s 990 1031 m 18 X s 1008
 1031 m cl s 990 1031 m 47 Y s 990 1078 m cl s 990 1031 m -55 Y s 990 976 m cl s 1026 1051 m -18 X s 1008 1051 m cl s 1026 1051 m 18 X s 1044 1051 m cl s 1026 1051 m 40 Y s 1026 1091 m cl s 1026 1051 m -46 Y s 1026 1005 m cl s 1062 1099 m -18 X s
 1044 1099 m cl s 1062 1099 m 17 X s 1079 1099 m cl s 1062 1099 m 28 Y s 1062 1127 m cl s 1062 1099 m -30 Y s 1062 1069 m cl s 1097 1099 m -18 X s 1079 1099 m cl s 1097 1099 m 18 X s 1115 1099 m cl s 1097 1099 m 28 Y s 1097 1127 m cl s 1097 1099 m
 -30 Y s 1097 1069 m cl s 1133 1099 m -18 X s 1115 1099 m cl s 1133 1099 m 18 X s 1151 1099 m cl s 1133 1099 m 28 Y s 1133 1127 m cl s 1133 1099 m -30 Y s 1133 1069 m cl s 1169 1121 m -18 X s 1151 1121 m cl s 1169 1121 m 18 X s 1187 1121 m cl s 1169
 1121 m 24 Y s 1169 1145 m cl s 1169 1121 m -25 Y s 1169 1096 m cl s 1205 1127 m -18 X s 1187 1127 m cl s 1205 1127 m 18 X s 1223 1127 m cl s 1205 1127 m 22 Y s 1205 1149 m cl s 1205 1127 m -23 Y s 1205 1104 m cl s 1241 1133 m -18 X s 1223 1133 m cl
 s 1241 1133 m 18 X s 1259 1133 m cl s 1241 1133 m 21 Y s 1241 1154 m cl s 1241 1133 m -23 Y s 1241 1110 m cl s 1276 1133 m -17 X s 1259 1133 m cl s 1276 1133 m 18 X s 1294 1133 m cl s 1276 1133 m 21 Y s 1276 1154 m cl s 1276 1133 m -23 Y s 1276 1110
 m cl s 1312 1172 m -18 X s 1294 1172 m cl s 1312 1172 m 18 X s 1330 1172 m cl s 1312 1172 m 16 Y s 1312 1188 m cl s 1312 1172 m -16 Y s 1312 1156 m cl s 1348 1163 m -18 X s 1330 1163 m cl s 1348 1163 m 18 X s 1366 1163 m cl s 1348 1163 m 17 Y s 1348
 1180 m cl s 1348 1163 m -18 Y s 1348 1145 m cl s 1384 1213 m -18 X s 1366 1213 m cl s 1384 1213 m 18 X s 1402 1213 m cl s 1384 1213 m 11 Y s 1384 1224 m cl s 1384 1213 m -12 Y s 1384 1201 m cl s 1420 1188 m -18 X s 1402 1188 m cl s 1420 1188 m 18 X
 s 1438 1188 m cl s 1420 1188 m 14 Y s 1420 1202 m cl s 1420 1188 m -14 Y s 1420 1174 m cl s 1456 1207 m -18 X s 1438 1207 m cl s 1456 1207 m 18 X s 1474 1207 m cl s 1456 1207 m 12 Y s 1456 1219 m cl s 1456 1207 m -12 Y s 1456 1195 m cl s 1491 1233 m
 -17 X s 1474 1233 m cl s 1491 1233 m 18 X s 1509 1233 m cl s 1491 1233 m 10 Y s 1491 1243 m cl s 1491 1233 m -10 Y s 1491 1223 m cl s 1527 1267 m -18 X s 1509 1267 m cl s 1527 1267 m 18 X s 1545 1267 m cl s 1527 1267 m 8 Y s 1527 1275 m cl s 1527
 1267 m -7 Y s 1527 1260 m cl s 1563 1287 m -18 X s 1545 1287 m cl s 1563 1287 m 18 X s 1581 1287 m cl s 1563 1287 m 6 Y s 1563 1293 m cl s 1563 1287 m -7 Y s 1563 1280 m cl s 1599 1319 m -18 X s 1581 1319 m cl s 1599 1319 m 18 X s 1617 1319 m cl s
 1599 1319 m 5 Y s 1599 1324 m cl s 1599 1319 m -5 Y s 1599 1314 m cl s 1635 1340 m -18 X s 1617 1340 m cl s 1635 1340 m 18 X s 1653 1340 m cl s 1635 1340 m 4 Y s 1635 1344 m cl s 1635 1340 m -5 Y s 1635 1335 m cl s 1671 1381 m -18 X s 1653 1381 m cl
 s 1671 1381 m 18 X s 1689 1381 m cl s 1671 1381 m 4 Y s 1671 1385 m cl s 1671 1381 m -3 Y s 1671 1378 m cl s 1706 1413 m -17 X s 1689 1413 m cl s 1706 1413 m 18 X s 1724 1413 m cl s 1706 1413 m 2 Y s 1706 1415 m cl s 1706 1413 m -3 Y s 1706 1410 m
 cl s 1742 1439 m -18 X s 1724 1439 m cl s 1742 1439 m 18 X s 1760 1439 m cl s 1742 1439 m 2 Y s 1742 1441 m cl s 1742 1439 m -3 Y s 1742 1436 m cl s 1778 1444 m -18 X s 1760 1444 m cl s 1778 1444 m 18 X s 1796 1444 m cl s 1778 1444 m 2 Y s 1778 1446
 m cl s 1778 1444 m -2 Y s 1778 1442 m cl s 1814 1433 m -18 X s 1796 1433 m cl s 1814 1433 m 18 X s 1832 1433 m cl s 1814 1433 m 2 Y s 1814 1435 m cl s 1814 1433 m -2 Y s 1814 1431 m cl s 1850 1385 m -18 X s 1832 1385 m cl s 1850 1385 m 18 X s 1868
 1385 m cl s 1850 1385 m 3 Y s 1850 1388 m cl s 1850 1385 m -4 Y s 1850 1381 m cl s 1886 1316 m -18 X s 1868 1316 m cl s 1886 1316 m 18 X s 1904 1316 m cl s 1886 1316 m 5 Y s 1886 1321 m cl s 1886 1316 m -5 Y s 1886 1311 m cl s 1921 1264 m -17 X s
 1904 1264 m cl s 1921 1264 m 18 X s 1939 1264 m cl s 1921 1264 m 8 Y s 1921 1272 m cl s 1921 1264 m -8 Y s 1921 1256 m cl s 1957 1202 m -18 X s 1939 1202 m cl s 1957 1202 m 18 X s 1975 1202 m cl s 1957 1202 m 12 Y s 1957 1214 m cl s 1957 1202 m -13
 Y s 1957 1189 m cl s 1993 1181 m -18 X s 1975 1181 m cl s 1993 1181 m 18 X s 2011 1181 m cl s 1993 1181 m 15 Y s 1993 1196 m cl s 1993 1181 m -15 Y s 1993 1166 m cl s 2029 1121 m -18 X s 2011 1121 m cl s 2029 1121 m 18 X s 2047 1121 m cl s 2029 1121
 m 24 Y s 2029 1145 m cl s 2029 1121 m -25 Y s 2029 1096 m cl s 2065 1090 m -18 X s 2047 1090 m cl s 2065 1090 m 18 X s 2083 1090 m cl s 2065 1090 m 30 Y s 2065 1120 m cl s 2065 1090 m -32 Y s 2065 1058 m cl s 2101 1079 m -18 X s 2083 1079 m cl s
 2101 1079 m 18 X s 2119 1079 m cl s 2101 1079 m 32 Y s 2101 1111 m cl s 2101 1079 m -35 Y s 2101 1044 m cl s 2136 1066 m -17 X s 2119 1066 m cl s 2136 1066 m 18 X s 2154 1066 m cl s 2136 1066 m 36 Y s 2136 1102 m cl s 2136 1066 m -39 Y s 2136 1027 m
 cl s 381 1002 417 954 452 1031 488 1031 524 954 560 954 596 1002 632 1002 667 1002 703 1031 739 1002 775 1002 811 1002 847 1051 882 954 918 1079 954 1079 990 1031 1026 1051 1062 1099 1097 1099 1133 1099 1169 1121 1205 1127 1241 1133 1276 1133 1312
 1172 1348 1163 1384 1213 1420 1188 1456 1207 1491 1233 1527 1267 1563 1287 1599 1319 1635 1340 1671 1381 1706 1413 1742 1439 1778 1444 1814 1433 1850 1385 1886 1316 1921 1264 1957 1202 1993 1181 2029 1121 2065 1090 2101 1079 2136 1066 50 { m20} R
 0.52 0.76 0.64 c[ 4 8] 0 sd 9 lw black 0.52 0.76 0.64 c 363 1001 m 36 3 d 35 4 d 36 4 d 36 4 d 36 4 d 36 4 d 36 4 d 35 4 d 36 5 d 36 4 d 36 5 d 36 5 d 36 5 d 35 6 d 36 5 d 36 6 d 36 6 d 36 6 d 36 7 d 35 7 d 36 7 d 36 8 d 36 8 d 36 9 d 36 9 d 35 10 d
 36 11 d 36 11 d 36 13 d 36 14 d 36 15 d 35 17 d 36 20 d 18 11 d 18 12 d 18 13 d 18 15 d 9 8 d 9 8 d 9 9 d 9 9 d 9 10 d 4 6 d 5 5 d 4 6 d 5 6 d 4 7 d 5 6 d 35 43 d 5 4 d 4 3 d 5 3 d 4 2 d 5 2 d 4 2 d 5 1 d 4 X 5 1 d 4 X 5 -1 d 4 -1 d 5 -1 d 4 -2 d 5
 -2 d 4 -2 d 5 -3 d 4 -4 d 9 -8 d 18 -20 d 9 -13 d 9 -14 d 4 -8 d 5 -8 d 4 -9 d 5 -9 d 4 -9 d 5 -10 d 4 -10 d 5 -11 d 4 -11 d 5 -12 d 9 -24 d 8 -25 d 9 -28 d 9 -29 d 9 -30 d 18 -67 d 18 -72 d 36 -165 d 36 -190 d 2 -11 d s 0.54 0.66 0.63 c black 0.54
 0.66 0.63 c 1176 634 m 11 24 d s 1187 658 m 36 74 d 36 68 d 35 64 d 36 60 d 36 54 d 18 26 d 18 24 d 18 23 d 18 22 d 18 21 d 18 20 d 17 18 d 18 18 d 18 16 d 18 15 d 18 14 d 18 12 d 18 12 d 18 10 d 36 17 d 18 7 d 9 3 d 9 3 d 8 2 d 9 2 d 9 2 d 9 2 d 9
 1 d 9 1 d 9 X 9 1 d 18 X 9 -1 d 9 -1 d 9 -1 d 9 -1 d 9 -2 d 9 -2 d 9 -2 d 9 -3 d 18 -6 d 18 -7 d 18 -9 d 17 -9 d 18 -11 d 18 -12 d 18 -13 d 18 -14 d 18 -16 d 18 -16 d 18 -18 d 18 -19 d 18 -20 d 18 -22 d 18 -22 d 17 -24 d 18 -24 d s black[  ] 0 sd 3
 lw 363 634 m 1791 X s 363 659 m -25 Y s 423 646 m -12 Y s 482 646 m -12 Y s 542 646 m -12 Y s 602 659 m -25 Y s 661 646 m -12 Y s 721 646 m -12 Y s 781 646 m -12 Y s 841 659 m -25 Y s 900 646 m -12 Y s 960 646 m -12 Y s 1020 646 m -12 Y s 1079 659 m
 -25 Y s 1139 646 m -12 Y s 1199 646 m -12 Y s 1259 646 m -12 Y s 1318 659 m -25 Y s 1378 646 m -12 Y s 1438 646 m -12 Y s 1497 646 m -12 Y s 1557 659 m -25 Y s 1617 646 m -12 Y s 1677 646 m -12 Y s 1736 646 m -12 Y s 1796 659 m -25 Y s 1856 646 m
 -12 Y s 1915 646 m -12 Y s 1975 646 m -12 Y s 2035 659 m -25 Y s 2035 659 m -25 Y s 2095 646 m -12 Y s 2154 646 m -12 Y s 363 1484 m 1791 X s 363 1459 m 25 Y s 423 1471 m 13 Y s 482 1471 m 13 Y s 542 1471 m 13 Y s 602 1459 m 25 Y s 661 1471 m 13 Y s
 721 1471 m 13 Y s 781 1471 m 13 Y s 841 1459 m 25 Y s 900 1471 m 13 Y s 960 1471 m 13 Y s 1020 1471 m 13 Y s 1079 1459 m 25 Y s 1139 1471 m 13 Y s 1199 1471 m 13 Y s 1259 1471 m 13 Y s 1318 1459 m 25 Y s 1378 1471 m 13 Y s 1438 1471 m 13 Y s 1497
 1471 m 13 Y s 1557 1459 m 25 Y s 1617 1471 m 13 Y s 1677 1471 m 13 Y s 1736 1471 m 13 Y s 1796 1459 m 25 Y s 1856 1471 m 13 Y s 1915 1471 m 13 Y s 1975 1471 m 13 Y s 2035 1459 m 25 Y s 2035 1459 m 25 Y s 2095 1471 m 13 Y s 2154 1471 m 13 Y s 363 634
 m 850 Y s 417 634 m -54 X s 390 682 m -27 X s 390 710 m -27 X s 390 730 m -27 X s 390 746 m -27 X s 390 758 m -27 X s 390 769 m -27 X s 390 778 m -27 X s 390 787 m -27 X s 417 794 m -54 X s 390 842 m -27 X s 390 870 m -27 X s 390 890 m -27 X s 390
 906 m -27 X s 390 919 m -27 X s 390 929 m -27 X s 390 939 m -27 X s 390 947 m -27 X s 417 954 m -54 X s 390 1002 m -27 X s 390 1031 m -27 X s 390 1051 m -27 X s 390 1066 m -27 X s 390 1079 m -27 X s 390 1090 m -27 X s 390 1099 m -27 X s 390 1107 m
 -27 X s 417 1114 m -54 X s 390 1163 m -27 X s 390 1191 m -27 X s 390 1211 m -27 X s 390 1226 m -27 X s 390 1239 m -27 X s 390 1250 m -27 X s 390 1259 m -27 X s 390 1267 m -27 X s 417 1275 m -54 X s 390 1323 m -27 X s 390 1351 m -27 X s 390 1371 m
 -27 X s 390 1387 m -27 X s 390 1399 m -27 X s 390 1410 m -27 X s 390 1419 m -27 X s 390 1428 m -27 X s 417 1435 m -54 X s 390 1483 m -27 X s 2154 634 m 850 Y s 2101 634 m 53 X s 2127 682 m 27 X s 2127 710 m 27 X s 2127 730 m 27 X s 2127 746 m 27 X s
 2127 758 m 27 X s 2127 769 m 27 X s 2127 778 m 27 X s 2127 787 m 27 X s 2101 794 m 53 X s 2127 842 m 27 X s 2127 870 m 27 X s 2127 890 m 27 X s 2127 906 m 27 X s 2127 919 m 27 X s 2127 929 m 27 X s 2127 939 m 27 X s 2127 947 m 27 X s 2101 954 m 53 X
 s 2127 1002 m 27 X s 2127 1031 m 27 X s 2127 1051 m 27 X s 2127 1066 m 27 X s 2127 1079 m 27 X s 2127 1090 m 27 X s 2127 1099 m 27 X s 2127 1107 m 27 X s 2101 1114 m 53 X s 2127 1163 m 27 X s 2127 1191 m 27 X s 2127 1211 m 27 X s 2127 1226 m 27 X s
 2127 1239 m 27 X s 2127 1250 m 27 X s 2127 1259 m 27 X s 2127 1267 m 27 X s 2101 1275 m 53 X s 2127 1323 m 27 X s 2127 1351 m 27 X s 2127 1371 m 27 X s 2127 1387 m 27 X s 2127 1399 m 27 X s 2127 1410 m 27 X s 2127 1419 m 27 X s 2127 1428 m 27 X s
 2101 1435 m 53 X s 2127 1483 m 27 X s
 gsave  2268 1077 0 461 C 677.708 1215.31 t 0 r /Helvetica findfont 58.7189 sf 0 0 m (4e) show NC gr  1 1 1 c 453 161 454 1269 bf black
 gsave  2268 1077 0 461 C 566.929 1371.71 t 0 r /Helvetica-Bold findfont 48.9324 sf 0 0 m (MC15) show NC gr  510 1390 m20
 gsave  2268 1077 0 461 C 566.929 1293.51 t 0 r /Helvetica-Bold findfont 48.9324 sf 0 0 m (Projection of Signal pdf) show NC gr  0 0 1 c 9 lw 471 1309 m 79 X s black 3 lw 1 1 1 c 2268 461 0 0 bf black 1 1 1 c 1791 364 363 74 bf black 1791 364 363 74
 bl 363 74 m 1791 X s
 gsave  2268 461 0 0 C 1915.83 13.0329 t 0 r /Helvetica findfont 22.9045 sf 0 0 m (4l Invariant Mass \(GeV\)) show NC gr  363 85 m -11 Y s 423 79 m -5 Y s 482 79 m -5 Y s 542 79 m -5 Y s 602 85 m -11 Y s 661 79 m -5 Y s 721 79 m -5 Y s 781 79 m -5 Y
 s 841 85 m -11 Y s 900 79 m -5 Y s 960 79 m -5 Y s 1020 79 m -5 Y s 1079 85 m -11 Y s 1139 79 m -5 Y s 1199 79 m -5 Y s 1259 79 m -5 Y s 1318 85 m -11 Y s 1378 79 m -5 Y s 1438 79 m -5 Y s 1497 79 m -5 Y s 1557 85 m -11 Y s 1617 79 m -5 Y s 1677 79
 m -5 Y s 1736 79 m -5 Y s 1796 85 m -11 Y s 1856 79 m -5 Y s 1915 79 m -5 Y s 1975 79 m -5 Y s 2035 85 m -11 Y s 2035 85 m -11 Y s 2095 79 m -5 Y s 2154 79 m -5 Y s
 gsave  2268 461 0 0 C 342.112 55.3896 t 0 r /Helvetica findfont 22.9045 sf 0 0 m (480) show NC gr 
 gsave  2268 461 0 0 C 579.962 55.3896 t 0 r /Helvetica findfont 22.9045 sf 0 0 m (500) show NC gr 
 gsave  2268 461 0 0 C 817.812 55.3896 t 0 r /Helvetica findfont 22.9045 sf 0 0 m (520) show NC gr 
 gsave  2268 461 0 0 C 1058.92 55.3896 t 0 r /Helvetica findfont 22.9045 sf 0 0 m (540) show NC gr 
 gsave  2268 461 0 0 C 1296.77 55.3896 t 0 r /Helvetica findfont 22.9045 sf 0 0 m (560) show NC gr 
 gsave  2268 461 0 0 C 1534.62 55.3896 t 0 r /Helvetica findfont 22.9045 sf 0 0 m (580) show NC gr 
 gsave  2268 461 0 0 C 1775.73 55.3896 t 0 r /Helvetica findfont 22.9045 sf 0 0 m (600) show NC gr 
 gsave  2268 461 0 0 C 2013.58 55.3896 t 0 r /Helvetica findfont 22.9045 sf 0 0 m (620) show NC gr  363 438 m 1791 X s 363 427 m 11 Y s 423 433 m 5 Y s 482 433 m 5 Y s 542 433 m 5 Y s 602 427 m 11 Y s 661 433 m 5 Y s 721 433 m 5 Y s 781 433 m 5 Y s
 841 427 m 11 Y s 900 433 m 5 Y s 960 433 m 5 Y s 1020 433 m 5 Y s 1079 427 m 11 Y s 1139 433 m 5 Y s 1199 433 m 5 Y s 1259 433 m 5 Y s 1318 427 m 11 Y s 1378 433 m 5 Y s 1438 433 m 5 Y s 1497 433 m 5 Y s 1557 427 m 11 Y s 1617 433 m 5 Y s 1677 433 m
 5 Y s 1736 433 m 5 Y s 1796 427 m 11 Y s 1856 433 m 5 Y s 1915 433 m 5 Y s 1975 433 m 5 Y s 2035 427 m 11 Y s 2035 427 m 11 Y s 2095 433 m 5 Y s 2154 433 m 5 Y s 363 74 m 364 Y s 417 74 m -54 X s 390 81 m -27 X s 390 88 m -27 X s 390 96 m -27 X s
 390 103 m -27 X s 417 110 m -54 X s 390 118 m -27 X s 390 125 m -27 X s 390 132 m -27 X s 390 139 m -27 X s 417 147 m -54 X s 390 154 m -27 X s 390 161 m -27 X s 390 169 m -27 X s 390 176 m -27 X s 417 183 m -54 X s 390 190 m -27 X s 390 198 m -27 X
 s 390 205 m -27 X s 390 212 m -27 X s 417 220 m -54 X s 390 227 m -27 X s 390 234 m -27 X s 390 241 m -27 X s 390 249 m -27 X s 417 256 m -54 X s 390 263 m -27 X s 390 271 m -27 X s 390 278 m -27 X s 390 285 m -27 X s 417 293 m -54 X s 390 300 m -27
 X s 390 307 m -27 X s 390 314 m -27 X s 390 322 m -27 X s 417 329 m -54 X s 390 336 m -27 X s 390 344 m -27 X s 390 351 m -27 X s 390 358 m -27 X s 417 365 m -54 X s 390 373 m -27 X s 390 380 m -27 X s 390 387 m -27 X s 390 395 m -27 X s 417 402 m
 -54 X s 390 409 m -27 X s 390 416 m -27 X s 390 424 m -27 X s 390 431 m -27 X s 417 438 m -54 X s
 gsave  2268 461 0 0 C 329.08 65.1643 t 0 r /Helvetica findfont 22.9045 sf 0 0 m (\2555) show NC gr 
 gsave  2268 461 0 0 C 329.08 101.005 t 0 r /Helvetica findfont 22.9045 sf 0 0 m (\2554) show NC gr 
 gsave  2268 461 0 0 C 329.08 140.103 t 0 r /Helvetica findfont 22.9045 sf 0 0 m (\2553) show NC gr 
 gsave  2268 461 0 0 C 329.08 175.944 t 0 r /Helvetica findfont 22.9045 sf 0 0 m (\2552) show NC gr 
 gsave  2268 461 0 0 C 332.338 211.784 t 0 r /Helvetica findfont 22.9045 sf 0 0 m (\2551) show NC gr 
 gsave  2268 461 0 0 C 335.596 247.624 t 0 r /Helvetica findfont 22.9045 sf 0 0 m (0) show NC gr 
 gsave  2268 461 0 0 C 338.854 283.465 t 0 r /Helvetica findfont 22.9045 sf 0 0 m (1) show NC gr 
 gsave  2268 461 0 0 C 335.596 319.305 t 0 r /Helvetica findfont 22.9045 sf 0 0 m (2) show NC gr 
 gsave  2268 461 0 0 C 335.596 358.403 t 0 r /Helvetica findfont 22.9045 sf 0 0 m (3) show NC gr 
 gsave  2268 461 0 0 C 335.596 394.244 t 0 r /Helvetica findfont 22.9045 sf 0 0 m (4) show NC gr 
 gsave  2268 461 0 0 C 335.596 430.084 t 0 r /Helvetica findfont 22.9045 sf 0 0 m (5) show NC gr  2154 74 m 364 Y s 2101 74 m 53 X s 2127 81 m 27 X s 2127 88 m 27 X s 2127 96 m 27 X s 2127 103 m 27 X s 2101 110 m 53 X s 2127 118 m 27 X s 2127 125 m
 27 X s 2127 132 m 27 X s 2127 139 m 27 X s 2101 147 m 53 X s 2127 154 m 27 X s 2127 161 m 27 X s 2127 169 m 27 X s 2127 176 m 27 X s 2101 183 m 53 X s 2127 190 m 27 X s 2127 198 m 27 X s 2127 205 m 27 X s 2127 212 m 27 X s 2101 220 m 53 X s 2127 227
 m 27 X s 2127 234 m 27 X s 2127 241 m 27 X s 2127 249 m 27 X s 2101 256 m 53 X s 2127 263 m 27 X s 2127 271 m 27 X s 2127 278 m 27 X s 2127 285 m 27 X s 2101 293 m 53 X s 2127 300 m 27 X s 2127 307 m 27 X s 2127 314 m 27 X s 2127 322 m 27 X s 2101
 329 m 53 X s 2127 336 m 27 X s 2127 344 m 27 X s 2127 351 m 27 X s 2127 358 m 27 X s 2101 365 m 53 X s 2127 373 m 27 X s 2127 380 m 27 X s 2127 387 m 27 X s 2127 395 m 27 X s 2101 402 m 53 X s 2127 409 m 27 X s 2127 416 m 27 X s 2127 424 m 27 X s
 2127 431 m 27 X s 2101 438 m 53 X s 6 lw 0.2 0.8 0.2 c black 3 lw 0.2 0.8 0.2 c 363 256 m 36 X -18 Y 35 X 35 Y 36 X -3 Y 36 X -38 Y 36 X -2 Y 36 X 15 Y 36 X -3 Y 35 X -2 Y 36 X 11 Y 36 X -17 Y 36 X -4 Y 36 X -4 Y 36 X 24 Y 35 X -55 Y 36 X 72 Y 36 X
 -7 Y 36 X -45 Y 36 X 7 Y 36 X 39 Y 35 X -9 Y 36 X -9 Y 36 X 18 Y 36 X -4 Y 36 X -6 Y 36 X -16 Y 35 X 55 Y 36 X -48 Y 36 X 92 Y 36 X -110 Y 36 X -5 Y 36 X 11 Y 35 X 55 Y 36 X -16 Y 36 X 56 Y 36 X -50 Y 36 X 89 Y 36 X -148 Y 35 X -38 Y 36 X 31 Y 36 X
 148 Y 36 X -93 Y 36 X -65 Y 36 X 70 Y 35 X -45 Y 36 X 36 Y 36 X -42 Y 36 X 16 Y 36 X 35 Y 36 X 26 Y 35 X -39 Y f 6 lw black 0.2 0.8 0.2 c black 363 256 m 36 X -18 Y 35 X 35 Y 36 X -3 Y 36 X -38 Y 36 X -2 Y 36 X 15 Y 36 X -3 Y 35 X -2 Y 36 X 11 Y 36
 X -17 Y 36 X -4 Y 36 X -4 Y 36 X 24 Y 35 X -55 Y 36 X 72 Y 36 X -7 Y 36 X -45 Y 36 X 7 Y 36 X 39 Y 35 X -9 Y 36 X -9 Y 36 X 18 Y 36 X -4 Y 36 X -6 Y 36 X -16 Y 35 X 55 Y 36 X -48 Y 36 X 92 Y 36 X -110 Y 36 X -5 Y 36 X 11 Y 35 X 55 Y 36 X -16 Y 36 X
 56 Y 36 X -50 Y 36 X 89 Y 36 X -148 Y 35 X -38 Y 36 X 31 Y 36 X 148 Y 36 X -93 Y 36 X -65 Y 36 X 70 Y 35 X -45 Y 36 X 36 Y 36 X -42 Y 36 X 16 Y 36 X 35 Y 36 X 26 Y 35 X s 3 lw 363 74 m 1791 X s 363 85 m -11 Y s 423 79 m -5 Y s 482 79 m -5 Y s 542 79
 m -5 Y s 602 85 m -11 Y s 661 79 m -5 Y s 721 79 m -5 Y s 781 79 m -5 Y s 841 85 m -11 Y s 900 79 m -5 Y s 960 79 m -5 Y s 1020 79 m -5 Y s 1079 85 m -11 Y s 1139 79 m -5 Y s 1199 79 m -5 Y s 1259 79 m -5 Y s 1318 85 m -11 Y s 1378 79 m -5 Y s 1438
 79 m -5 Y s 1497 79 m -5 Y s 1557 85 m -11 Y s 1617 79 m -5 Y s 1677 79 m -5 Y s 1736 79 m -5 Y s 1796 85 m -11 Y s 1856 79 m -5 Y s 1915 79 m -5 Y s 1975 79 m -5 Y s 2035 85 m -11 Y s 2035 85 m -11 Y s 2095 79 m -5 Y s 2154 79 m -5 Y s 363 438 m
 1791 X s 363 427 m 11 Y s 423 433 m 5 Y s 482 433 m 5 Y s 542 433 m 5 Y s 602 427 m 11 Y s 661 433 m 5 Y s 721 433 m 5 Y s 781 433 m 5 Y s 841 427 m 11 Y s 900 433 m 5 Y s 960 433 m 5 Y s 1020 433 m 5 Y s 1079 427 m 11 Y s 1139 433 m 5 Y s 1199 433
 m 5 Y s 1259 433 m 5 Y s 1318 427 m 11 Y s 1378 433 m 5 Y s 1438 433 m 5 Y s 1497 433 m 5 Y s 1557 427 m 11 Y s 1617 433 m 5 Y s 1677 433 m 5 Y s 1736 433 m 5 Y s 1796 427 m 11 Y s 1856 433 m 5 Y s 1915 433 m 5 Y s 1975 433 m 5 Y s 2035 427 m 11 Y s
 2035 427 m 11 Y s 2095 433 m 5 Y s 2154 433 m 5 Y s 363 74 m 364 Y s 417 74 m -54 X s 390 81 m -27 X s 390 88 m -27 X s 390 96 m -27 X s 390 103 m -27 X s 417 110 m -54 X s 390 118 m -27 X s 390 125 m -27 X s 390 132 m -27 X s 390 139 m -27 X s 417
 147 m -54 X s 390 154 m -27 X s 390 161 m -27 X s 390 169 m -27 X s 390 176 m -27 X s 417 183 m -54 X s 390 190 m -27 X s 390 198 m -27 X s 390 205 m -27 X s 390 212 m -27 X s 417 220 m -54 X s 390 227 m -27 X s 390 234 m -27 X s 390 241 m -27 X s
 390 249 m -27 X s 417 256 m -54 X s 390 263 m -27 X s 390 271 m -27 X s 390 278 m -27 X s 390 285 m -27 X s 417 293 m -54 X s 390 300 m -27 X s 390 307 m -27 X s 390 314 m -27 X s 390 322 m -27 X s 417 329 m -54 X s 390 336 m -27 X s 390 344 m -27 X
 s 390 351 m -27 X s 390 358 m -27 X s 417 365 m -54 X s 390 373 m -27 X s 390 380 m -27 X s 390 387 m -27 X s 390 395 m -27 X s 417 402 m -54 X s 390 409 m -27 X s 390 416 m -27 X s 390 424 m -27 X s 390 431 m -27 X s 417 438 m -54 X s 2154 74 m 364
 Y s 2101 74 m 53 X s 2127 81 m 27 X s 2127 88 m 27 X s 2127 96 m 27 X s 2127 103 m 27 X s 2101 110 m 53 X s 2127 118 m 27 X s 2127 125 m 27 X s 2127 132 m 27 X s 2127 139 m 27 X s 2101 147 m 53 X s 2127 154 m 27 X s 2127 161 m 27 X s 2127 169 m 27 X
 s 2127 176 m 27 X s 2101 183 m 53 X s 2127 190 m 27 X s 2127 198 m 27 X s 2127 205 m 27 X s 2127 212 m 27 X s 2101 220 m 53 X s 2127 227 m 27 X s 2127 234 m 27 X s 2127 241 m 27 X s 2127 249 m 27 X s 2101 256 m 53 X s 2127 263 m 27 X s 2127 271 m 27
 X s 2127 278 m 27 X s 2127 285 m 27 X s 2101 293 m 53 X s 2127 300 m 27 X s 2127 307 m 27 X s 2127 314 m 27 X s 2127 322 m 27 X s 2101 329 m 53 X s 2127 336 m 27 X s 2127 344 m 27 X s 2127 351 m 27 X s 2127 358 m 27 X s 2101 365 m 53 X s 2127 373 m
 27 X s 2127 380 m 27 X s 2127 387 m 27 X s 2127 395 m 27 X s 2101 402 m 53 X s 2127 409 m 27 X s 2127 416 m 27 X s 2127 424 m 27 X s 2127 431 m 27 X s 2101 438 m 53 X s
 gr  gr showpage
end
%%EOF
