%!PS-Adobe-2.0 EPSF-2.0
%%BoundingBox:  0 0 567 384
%%Title: H4l2015_plotfit/VBF_mass_signal_900_H4l_4e.eps: 
%%Creator: ROOT Version 5.34/07
%%CreationDate: Mon Nov  9 16:30:43 2015
%%EndComments
%%BeginProlog
80 dict begin
/s {stroke} def /l {lineto} def /m {moveto} def /t {translate} def
/r {rotate} def /rl {roll}  def /R {repeat} def
/d {rlineto} def /rm {rmoveto} def /gr {grestore} def /f {eofill} def
/c {setrgbcolor} def /black {0 setgray} def /sd {setdash} def
/cl {closepath} def /sf {scalefont setfont} def /lw {setlinewidth} def
/box {m dup 0 exch d exch 0 d 0 exch neg d cl} def
/NC{systemdict begin initclip end}def/C{NC box clip newpath}def
/bl {box s} def /bf {box f} def /Y { 0 exch d} def /X { 0 d} def 
/K {{pop pop 0 moveto} exch kshow} bind def
/ita {/ang 15 def gsave [1 0 ang dup sin exch cos div 1 0 0] concat} def 
/mp {newpath /y exch def /x exch def} def
/side {[w .77 mul w .23 mul] .385 w mul sd w 0 l currentpoint t -144 r} def
/mr {mp x y w2 0 360 arc} def /m24 {mr s} def /m20 {mr f} def
/mb {mp x y w2 add m w2 neg 0 d 0 w neg d w 0 d 0 w d cl} def
/mt {mp x y w2 add m w2 neg w neg d w 0 d cl} def
/m21 {mb f} def /m25 {mb s} def /m22 {mt f} def /m26{mt s} def
/m23 {mp x y w2 sub m w2 w d w neg 0 d cl f} def
/m27 {mp x y w2 add m w3 neg w2 neg d w3 w2 neg d w3 w2 d cl s} def
/m28 {mp x w2 sub y w2 sub w3 add m w3 0 d  0 w3 neg d w3 0 d 0 w3 d w3 0 d  0 w3 d w3 neg 0 d 0 w3 d w3 neg 0 d 0 w3 neg d w3 neg 0 d cl s } def
/m29 {mp gsave x w2 sub y w2 add w3 sub m currentpoint t 4 {side} repeat cl fill gr} def
/m30 {mp gsave x w2 sub y w2 add w3 sub m currentpoint t 4 {side} repeat cl s gr} def
/m31 {mp x y w2 sub m 0 w d x w2 sub y m w 0 d x w2 sub y w2 add m w w neg d x w2 sub y w2 sub m w w d s} def
/m32 {mp x y w2 sub m w2 w d w neg 0 d cl s} def
/m33 {mp x y w2 add m w3 neg w2 neg d w3 w2 neg d w3 w2 d cl f} def
/m34 {mp x w2 sub y w2 sub w3 add m w3 0 d  0 w3 neg d w3 0 d 0 w3 d w3 0 d  0 w3 d w3 neg 0 d 0 w3 d w3 neg 0 d 0 w3 neg d w3 neg 0 d cl f } def
/m2 {mp x y w2 sub m 0 w d x w2 sub y m w 0 d s} def
/m5 {mp x w2 sub y w2 sub m w w d x w2 sub y w2 add m w w neg d s} def
/reEncode {exch findfont dup length dict begin {1 index /FID eq  {pop pop} {def} ifelse } forall /Encoding exch def currentdict end dup /FontName get exch definefont pop } def [/Times-Bold /Times-Italic /Times-BoldItalic /Helvetica /Helvetica-Oblique
 /Helvetica-Bold /Helvetica-BoldOblique /Courier /Courier-Oblique /Courier-Bold /Courier-BoldOblique /Times-Roman /AvantGarde-Book /AvantGarde-BookOblique /AvantGarde-Demi /AvantGarde-DemiOblique /Bookman-Demi /Bookman-DemiItalic /Bookman-Light
 /Bookman-LightItalic /Helvetica-Narrow /Helvetica-Narrow-Bold /Helvetica-Narrow-BoldOblique /Helvetica-Narrow-Oblique /NewCenturySchlbk-Roman /NewCenturySchlbk-Bold /NewCenturySchlbk-BoldItalic /NewCenturySchlbk-Italic /Palatino-Bold
 /Palatino-BoldItalic /Palatino-Italic /Palatino-Roman ] {ISOLatin1Encoding reEncode } forall
%%EndProlog
%%BeginSetup
%%EndSetup
newpath  gsave  .25 .25 scale  gsave  0 0 t black[  ] 0 sd 3 lw 1 1 1 c 2268 1538 0 0 bf black 1 1 1 c 2222 738 23 784 bf black 1 1 1 c 2222 739 23 15 bf black 1 1 1 c 2268 1077 0 461 bf black 1 1 1 c 1791 850 363 634 bf black 1791 850 363 634 bl 363
 634 m 1791 X s
 gsave  2268 1077 0 461 C 1642.14 498.507 t 0 r /Helvetica findfont 48.9324 sf 0 0 m (4l Invariant Mass \(GeV\)) show NC gr  363 659 m -25 Y s 413 646 m -12 Y s 462 646 m -12 Y s 512 646 m -12 Y s 562 659 m -25 Y s 612 646 m -12 Y s 661 646 m -12 Y s
 711 646 m -12 Y s 761 659 m -25 Y s 811 646 m -12 Y s 860 646 m -12 Y s 910 646 m -12 Y s 960 659 m -25 Y s 1010 646 m -12 Y s 1060 646 m -12 Y s 1109 646 m -12 Y s 1159 659 m -25 Y s 1209 646 m -12 Y s 1259 646 m -12 Y s 1308 646 m -12 Y s 1358 659
 m -25 Y s 1408 646 m -12 Y s 1458 646 m -12 Y s 1507 646 m -12 Y s 1557 659 m -25 Y s 1607 646 m -12 Y s 1657 646 m -12 Y s 1706 646 m -12 Y s 1756 659 m -25 Y s 1806 646 m -12 Y s 1856 646 m -12 Y s 1906 646 m -12 Y s 1955 659 m -25 Y s 2005 646 m
 -12 Y s 2055 646 m -12 Y s 2105 646 m -12 Y s 2154 659 m -25 Y s
 gsave  2268 1077 0 461 C 319.305 586.478 t 0 r /Helvetica findfont 48.9324 sf 0 0 m (760) show NC gr 
 gsave  2268 1077 0 461 C 518.056 586.478 t 0 r /Helvetica findfont 48.9324 sf 0 0 m (780) show NC gr 
 gsave  2268 1077 0 461 C 716.807 586.478 t 0 r /Helvetica findfont 48.9324 sf 0 0 m (800) show NC gr 
 gsave  2268 1077 0 461 C 915.558 586.478 t 0 r /Helvetica findfont 48.9324 sf 0 0 m (820) show NC gr 
 gsave  2268 1077 0 461 C 1114.31 586.478 t 0 r /Helvetica findfont 48.9324 sf 0 0 m (840) show NC gr 
 gsave  2268 1077 0 461 C 1313.06 586.478 t 0 r /Helvetica findfont 48.9324 sf 0 0 m (860) show NC gr 
 gsave  2268 1077 0 461 C 1511.81 586.478 t 0 r /Helvetica findfont 48.9324 sf 0 0 m (880) show NC gr 
 gsave  2268 1077 0 461 C 1713.82 586.478 t 0 r /Helvetica findfont 48.9324 sf 0 0 m (900) show NC gr 
 gsave  2268 1077 0 461 C 1912.57 586.478 t 0 r /Helvetica findfont 48.9324 sf 0 0 m (920) show NC gr 
 gsave  2268 1077 0 461 C 2111.32 586.478 t 0 r /Helvetica findfont 48.9324 sf 0 0 m (940) show NC gr  363 1484 m 1791 X s 363 1459 m 25 Y s 413 1471 m 13 Y s 462 1471 m 13 Y s 512 1471 m 13 Y s 562 1459 m 25 Y s 612 1471 m 13 Y s 661 1471 m 13 Y s
 711 1471 m 13 Y s 761 1459 m 25 Y s 811 1471 m 13 Y s 860 1471 m 13 Y s 910 1471 m 13 Y s 960 1459 m 25 Y s 1010 1471 m 13 Y s 1060 1471 m 13 Y s 1109 1471 m 13 Y s 1159 1459 m 25 Y s 1209 1471 m 13 Y s 1259 1471 m 13 Y s 1308 1471 m 13 Y s 1358
 1459 m 25 Y s 1408 1471 m 13 Y s 1458 1471 m 13 Y s 1507 1471 m 13 Y s 1557 1459 m 25 Y s 1607 1471 m 13 Y s 1657 1471 m 13 Y s 1706 1471 m 13 Y s 1756 1459 m 25 Y s 1806 1471 m 13 Y s 1856 1471 m 13 Y s 1906 1471 m 13 Y s 1955 1459 m 25 Y s 2005
 1471 m 13 Y s 2055 1471 m 13 Y s 2105 1471 m 13 Y s 2154 1459 m 25 Y s 363 634 m 850 Y s
 gsave  2268 1077 0 461 C 120.554 1058.92 t 90 r /Helvetica findfont 48.9324 sf 0 0 m (Events / \( 3.6 GeV \)) show NC gr  417 634 m -54 X s
 gsave  2268 1077 0 461 C 312.788 632.093 t 0 r /Helvetica findfont 32.6216 sf 0 0 m (\2552) show NC gr 
 gsave  2268 1077 0 461 C 260.657 612.544 t 0 r /Helvetica findfont 48.9324 sf 0 0 m (10) show NC gr  390 682 m -27 X s 390 710 m -27 X s 390 730 m -27 X s 390 745 m -27 X s 390 758 m -27 X s 390 769 m -27 X s 390 778 m -27 X s 390 786 m -27 X s 417
 793 m -54 X s
 gsave  2268 1077 0 461 C 319.305 791.746 t 0 r /Helvetica findfont 32.6216 sf 0 0 m (\2551) show NC gr 
 gsave  2268 1077 0 461 C 267.173 772.197 t 0 r /Helvetica findfont 48.9324 sf 0 0 m (10) show NC gr  390 841 m -27 X s 390 869 m -27 X s 390 889 m -27 X s 390 905 m -27 X s 390 918 m -27 X s 390 928 m -27 X s 390 937 m -27 X s 390 946 m -27 X s 417
 953 m -54 X s
 gsave  2268 1077 0 461 C 342.425 932.116 t 0 r  -27 0 t /Helvetica findfont 48.9324 sf 0 0 m (1) show NC gr  390 1001 m -27 X s 390 1029 m -27 X s 390 1049 m -27 X s 390 1065 m -27 X s 390 1077 m -27 X s 390 1088 m -27 X s 390 1097 m -27 X s 390
 1105 m -27 X s 417 1113 m -54 X s
 gsave  2268 1077 0 461 C 342.425 1091.8 t 0 r  -55 0 t /Helvetica findfont 48.9324 sf 0 0 m (10) show NC gr  390 1161 m -27 X s 390 1189 m -27 X s 390 1209 m -27 X s 390 1224 m -27 X s 390 1237 m -27 X s 390 1248 m -27 X s 390 1257 m -27 X s 390
 1265 m -27 X s 417 1272 m -54 X s
 gsave  2268 1077 0 461 C 322.563 1270.7 t 0 r /Helvetica findfont 32.6216 sf 0 0 m (2) show NC gr 
 gsave  2268 1077 0 461 C 270.432 1251.15 t 0 r /Helvetica findfont 48.9324 sf 0 0 m (10) show NC gr  390 1320 m -27 X s 390 1349 m -27 X s 390 1368 m -27 X s 390 1384 m -27 X s 390 1397 m -27 X s 390 1407 m -27 X s 390 1417 m -27 X s 390 1425 m -27
 X s 417 1432 m -54 X s
 gsave  2268 1077 0 461 C 322.563 1433.61 t 0 r /Helvetica findfont 32.6216 sf 0 0 m (3) show NC gr 
 gsave  2268 1077 0 461 C 270.432 1410.81 t 0 r /Helvetica findfont 48.9324 sf 0 0 m (10) show NC gr  390 1480 m -27 X s 2154 634 m 850 Y s 2101 634 m 53 X s 2127 682 m 27 X s 2127 710 m 27 X s 2127 730 m 27 X s 2127 745 m 27 X s 2127 758 m 27 X s
 2127 769 m 27 X s 2127 778 m 27 X s 2127 786 m 27 X s 2101 793 m 53 X s 2127 841 m 27 X s 2127 869 m 27 X s 2127 889 m 27 X s 2127 905 m 27 X s 2127 918 m 27 X s 2127 928 m 27 X s 2127 937 m 27 X s 2127 946 m 27 X s 2101 953 m 53 X s 2127 1001 m 27
 X s 2127 1029 m 27 X s 2127 1049 m 27 X s 2127 1065 m 27 X s 2127 1077 m 27 X s 2127 1088 m 27 X s 2127 1097 m 27 X s 2127 1105 m 27 X s 2101 1113 m 53 X s 2127 1161 m 27 X s 2127 1189 m 27 X s 2127 1209 m 27 X s 2127 1224 m 27 X s 2127 1237 m 27 X
 s 2127 1248 m 27 X s 2127 1257 m 27 X s 2127 1265 m 27 X s 2101 1272 m 53 X s 2127 1320 m 27 X s 2127 1349 m 27 X s 2127 1368 m 27 X s 2127 1384 m 27 X s 2127 1397 m 27 X s 2127 1407 m 27 X s 2127 1417 m 27 X s 2127 1425 m 27 X s 2101 1432 m 53 X s
 2127 1480 m 27 X s 381 1029 m -18 X s 363 1029 m cl s 381 1029 m 18 X s 399 1029 m cl s 381 1029 m 47 Y s 381 1076 m cl s 381 1029 m -54 Y s 381 975 m cl s 417 1001 m -18 X s 399 1001 m cl s 417 1001 m 17 X s 434 1001 m cl s 417 1001 m 58 Y s 417
 1059 m cl s 417 1001 m -72 Y s 417 929 m cl s 452 953 m -18 X s 434 953 m cl s 452 953 m 18 X s 470 953 m cl s 452 953 m 83 Y s 452 1036 m cl s 452 953 m -122 Y s 452 831 m cl s 488 1097 m -18 X s 470 1097 m cl s 488 1097 m 18 X s 506 1097 m cl s
 488 1097 m 28 Y s 488 1125 m cl s 488 1097 m -29 Y s 488 1068 m cl s 524 1029 m -18 X s 506 1029 m cl s 524 1029 m 18 X s 542 1029 m cl s 524 1029 m 47 Y s 524 1076 m cl s 524 1029 m -54 Y s 524 975 m cl s 560 1029 m -18 X s 542 1029 m cl s 560 1029
 m 18 X s 578 1029 m cl s 560 1029 m 47 Y s 560 1076 m cl s 560 1029 m -54 Y s 560 975 m cl s 596 1088 m -18 X s 578 1088 m cl s 596 1088 m 18 X s 614 1088 m cl s 596 1088 m 30 Y s 596 1118 m cl s 596 1088 m -32 Y s 596 1056 m cl s 632 1001 m -18 X s
 614 1001 m cl s 632 1001 m 17 X s 649 1001 m cl s 632 1001 m 58 Y s 632 1059 m cl s 632 1001 m -72 Y s 632 929 m cl s 667 1049 m -18 X s 649 1049 m cl s 667 1049 m 18 X s 685 1049 m cl s 667 1049 m 41 Y s 667 1090 m cl s 667 1049 m -45 Y s 667 1004
 m cl s 703 1065 m -18 X s 685 1065 m cl s 703 1065 m 18 X s 721 1065 m cl s 703 1065 m 35 Y s 703 1100 m cl s 703 1065 m -40 Y s 703 1025 m cl s 739 1001 m -18 X s 721 1001 m cl s 739 1001 m 18 X s 757 1001 m cl s 739 1001 m 58 Y s 739 1059 m cl s
 739 1001 m -72 Y s 739 929 m cl s 775 1065 m -18 X s 757 1065 m cl s 775 1065 m 18 X s 793 1065 m cl s 775 1065 m 35 Y s 775 1100 m cl s 775 1065 m -40 Y s 775 1025 m cl s 811 1088 m -18 X s 793 1088 m cl s 811 1088 m 18 X s 829 1088 m cl s 811 1088
 m 30 Y s 811 1118 m cl s 811 1088 m -32 Y s 811 1056 m cl s 847 1049 m -18 X s 829 1049 m cl s 847 1049 m 17 X s 864 1049 m cl s 847 1049 m 41 Y s 847 1090 m cl s 847 1049 m -45 Y s 847 1004 m cl s 882 1049 m -18 X s 864 1049 m cl s 882 1049 m 18 X
 s 900 1049 m cl s 882 1049 m 41 Y s 882 1090 m cl s 882 1049 m -45 Y s 882 1004 m cl s 918 1105 m -18 X s 900 1105 m cl s 918 1105 m 18 X s 936 1105 m cl s 918 1105 m 26 Y s 918 1131 m cl s 918 1105 m -27 Y s 918 1078 m cl s 954 1029 m -18 X s 936
 1029 m cl s 954 1029 m 18 X s 972 1029 m cl s 954 1029 m 47 Y s 954 1076 m cl s 954 1029 m -54 Y s 954 975 m cl s 990 1113 m -18 X s 972 1113 m cl s 990 1113 m 18 X s 1008 1113 m cl s 990 1113 m 24 Y s 990 1137 m cl s 990 1113 m -26 Y s 990 1087 m
 cl s 1026 1125 m -18 X s 1008 1125 m cl s 1026 1125 m 18 X s 1044 1125 m cl s 1026 1125 m 23 Y s 1026 1148 m cl s 1026 1125 m -23 Y s 1026 1102 m cl s 1062 1113 m -18 X s 1044 1113 m cl s 1062 1113 m 17 X s 1079 1113 m cl s 1062 1113 m 24 Y s 1062
 1137 m cl s 1062 1113 m -26 Y s 1062 1087 m cl s 1097 1145 m -18 X s 1079 1145 m cl s 1097 1145 m 18 X s 1115 1145 m cl s 1097 1145 m 19 Y s 1097 1164 m cl s 1097 1145 m -19 Y s 1097 1126 m cl s 1133 1125 m -18 X s 1115 1125 m cl s 1133 1125 m 18 X
 s 1151 1125 m cl s 1133 1125 m 23 Y s 1133 1148 m cl s 1133 1125 m -23 Y s 1133 1102 m cl s 1169 1131 m -18 X s 1151 1131 m cl s 1169 1131 m 18 X s 1187 1131 m cl s 1169 1131 m 21 Y s 1169 1152 m cl s 1169 1131 m -22 Y s 1169 1109 m cl s 1205 1157 m
 -18 X s 1187 1157 m cl s 1205 1157 m 18 X s 1223 1157 m cl s 1205 1157 m 18 Y s 1205 1175 m cl s 1205 1157 m -18 Y s 1205 1139 m cl s 1241 1186 m -18 X s 1223 1186 m cl s 1241 1186 m 18 X s 1259 1186 m cl s 1241 1186 m 14 Y s 1241 1200 m cl s 1241
 1186 m -14 Y s 1241 1172 m cl s 1276 1201 m -17 X s 1259 1201 m cl s 1276 1201 m 18 X s 1294 1201 m cl s 1276 1201 m 13 Y s 1276 1214 m cl s 1276 1201 m -12 Y s 1276 1189 m cl s 1312 1207 m -18 X s 1294 1207 m cl s 1312 1207 m 18 X s 1330 1207 m cl
 s 1312 1207 m 12 Y s 1312 1219 m cl s 1312 1207 m -12 Y s 1312 1195 m cl s 1348 1201 m -18 X s 1330 1201 m cl s 1348 1201 m 18 X s 1366 1201 m cl s 1348 1201 m 13 Y s 1348 1214 m cl s 1348 1201 m -12 Y s 1348 1189 m cl s 1384 1218 m -18 X s 1366
 1218 m cl s 1384 1218 m 18 X s 1402 1218 m cl s 1384 1218 m 11 Y s 1384 1229 m cl s 1384 1218 m -11 Y s 1384 1207 m cl s 1420 1226 m -18 X s 1402 1226 m cl s 1420 1226 m 18 X s 1438 1226 m cl s 1420 1226 m 10 Y s 1420 1236 m cl s 1420 1226 m -11 Y s
 1420 1215 m cl s 1456 1247 m -18 X s 1438 1247 m cl s 1456 1247 m 18 X s 1474 1247 m cl s 1456 1247 m 8 Y s 1456 1255 m cl s 1456 1247 m -9 Y s 1456 1238 m cl s 1491 1269 m -17 X s 1474 1269 m cl s 1491 1269 m 18 X s 1509 1269 m cl s 1491 1269 m 7 Y
 s 1491 1276 m cl s 1491 1269 m -8 Y s 1491 1261 m cl s 1527 1292 m -18 X s 1509 1292 m cl s 1527 1292 m 18 X s 1545 1292 m cl s 1527 1292 m 6 Y s 1527 1298 m cl s 1527 1292 m -6 Y s 1527 1286 m cl s 1563 1322 m -18 X s 1545 1322 m cl s 1563 1322 m
 18 X s 1581 1322 m cl s 1563 1322 m 5 Y s 1563 1327 m cl s 1563 1322 m -5 Y s 1563 1317 m cl s 1599 1354 m -18 X s 1581 1354 m cl s 1599 1354 m 18 X s 1617 1354 m cl s 1599 1354 m 4 Y s 1599 1358 m cl s 1599 1354 m -4 Y s 1599 1350 m cl s 1635 1384
 m -18 X s 1617 1384 m cl s 1635 1384 m 18 X s 1653 1384 m cl s 1635 1384 m 3 Y s 1635 1387 m cl s 1635 1384 m -3 Y s 1635 1381 m cl s 1671 1418 m -18 X s 1653 1418 m cl s 1671 1418 m 18 X s 1689 1418 m cl s 1671 1418 m 2 Y s 1671 1420 m cl s 1671
 1418 m -3 Y s 1671 1415 m cl s 1706 1441 m -17 X s 1689 1441 m cl s 1706 1441 m 18 X s 1724 1441 m cl s 1706 1441 m 2 Y s 1706 1443 m cl s 1706 1441 m -2 Y s 1706 1439 m cl s 1742 1449 m -18 X s 1724 1449 m cl s 1742 1449 m 18 X s 1760 1449 m cl s
 1742 1449 m 2 Y s 1742 1451 m cl s 1742 1449 m -2 Y s 1742 1447 m cl s 1778 1429 m -18 X s 1760 1429 m cl s 1778 1429 m 18 X s 1796 1429 m cl s 1778 1429 m 3 Y s 1778 1432 m cl s 1778 1429 m -2 Y s 1778 1427 m cl s 1814 1394 m -18 X s 1796 1394 m cl
 s 1814 1394 m 18 X s 1832 1394 m cl s 1814 1394 m 2 Y s 1814 1396 m cl s 1814 1394 m -3 Y s 1814 1391 m cl s 1850 1331 m -18 X s 1832 1331 m cl s 1850 1331 m 18 X s 1868 1331 m cl s 1850 1331 m 5 Y s 1850 1336 m cl s 1850 1331 m -5 Y s 1850 1326 m
 cl s 1886 1270 m -18 X s 1868 1270 m cl s 1886 1270 m 18 X s 1904 1270 m cl s 1886 1270 m 7 Y s 1886 1277 m cl s 1886 1270 m -8 Y s 1886 1262 m cl s 1921 1211 m -17 X s 1904 1211 m cl s 1921 1211 m 18 X s 1939 1211 m cl s 1921 1211 m 11 Y s 1921
 1222 m cl s 1921 1211 m -12 Y s 1921 1199 m cl s 1957 1173 m -18 X s 1939 1173 m cl s 1957 1173 m 18 X s 1975 1173 m cl s 1957 1173 m 16 Y s 1957 1189 m cl s 1957 1173 m -15 Y s 1957 1158 m cl s 1993 1131 m -18 X s 1975 1131 m cl s 1993 1131 m 18 X
 s 2011 1131 m cl s 1993 1131 m 21 Y s 1993 1152 m cl s 1993 1131 m -22 Y s 1993 1109 m cl s 2029 1119 m -18 X s 2011 1119 m cl s 2029 1119 m 18 X s 2047 1119 m cl s 2029 1119 m 24 Y s 2029 1143 m cl s 2029 1119 m -24 Y s 2029 1095 m cl s 2065 1077 m
 -18 X s 2047 1077 m cl s 2065 1077 m 18 X s 2083 1077 m cl s 2065 1077 m 33 Y s 2065 1110 m cl s 2065 1077 m -35 Y s 2065 1042 m cl s 2101 1065 m -18 X s 2083 1065 m cl s 2101 1065 m 18 X s 2119 1065 m cl s 2101 1065 m 35 Y s 2101 1100 m cl s 2101
 1065 m -40 Y s 2101 1025 m cl s 2136 1049 m -17 X s 2119 1049 m cl s 2136 1049 m 18 X s 2154 1049 m cl s 2136 1049 m 41 Y s 2136 1090 m cl s 2136 1049 m -45 Y s 2136 1004 m cl s /w 31 def /w2 {w 2 div} def /w3 {w 3 div} def 381 1029 417 1001 452 953
 488 1097 524 1029 560 1029 596 1088 632 1001 667 1049 703 1065 739 1001 775 1065 811 1088 847 1049 882 1049 918 1105 954 1029 990 1113 1026 1125 1062 1113 1097 1145 1133 1125 1169 1131 1205 1157 1241 1186 1276 1201 1312 1207 1348 1201 1384 1218 1420
 1226 1456 1247 1491 1269 1527 1292 1563 1322 1599 1354 1635 1384 1671 1418 1706 1441 1742 1449 1778 1429 1814 1394 1850 1331 1886 1270 1921 1211 1957 1173 1993 1131 2029 1119 2065 1077 2101 1065 2136 1049 50 { m20} R 0 1 1 c 1 1 0 c black 1 1 0 c
 363 1034 m 36 4 d 35 3 d 36 4 d 36 4 d 36 4 d 36 4 d 36 5 d 35 4 d 36 5 d 36 4 d 36 5 d 36 5 d 36 5 d 35 6 d 36 6 d 36 6 d 36 6 d 36 6 d 36 7 d 35 7 d 36 8 d 36 8 d 36 9 d 36 9 d 36 11 d 35 12 d 36 13 d 36 14 d 36 16 d 36 16 d 36 18 d 17 10 d 18 10
 d 18 11 d 18 11 d 18 12 d 9 6 d 9 6 d 9 7 d 9 7 d 9 8 d 9 8 d 9 9 d 4 4 d 5 5 d 4 6 d 5 5 d 4 6 d 5 6 d 18 18 d 9 8 d 9 6 d 4 3 d 4 2 d 5 2 d 4 2 d 5 2 d 4 1 d 5 1 d 4 1 d 14 X 4 -1 d 5 -1 d 4 -2 d 5 -2 d 4 -2 d 5 -2 d 4 -3 d 9 -7 d 9 -8 d 9 -9 d 9
 -10 d 9 -11 d 9 -12 d 4 -7 d 5 -6 d 4 -7 d 5 -8 d 4 -7 d 5 -8 d 9 -15 d 9 -17 d 9 -16 d 9 -16 d 9 -15 d 9 -14 d 8 -13 d 9 -11 d 18 -19 d 36 -31 d 36 -27 d 36 -26 d 36 -27 d 36 -28 d 35 -31 d -144 Y -35 85 d -36 59 d -36 45 d -36 35 d -36 28 d -36 33
 d -18 24 d -9 14 d -8 16 d -9 16 d -9 17 d -9 17 d -9 17 d -9 17 d -9 16 d -5 8 d -4 9 d -5 7 d -4 8 d -5 7 d -4 7 d -9 14 d -9 12 d -9 11 d -9 9 d -9 8 d -9 7 d -4 3 d -5 2 d -4 2 d -5 2 d -4 1 d -5 2 d -4 X -5 1 d -9 X -4 -1 d -5 X -4 -1 d -5 -2 d
 -4 -2 d -5 -2 d -4 -3 d -4 -3 d -9 -7 d -9 -9 d -18 -22 d -5 -5 d -4 -5 d -5 -5 d -4 -4 d -5 -5 d -4 -4 d -9 -9 d -9 -8 d -9 -8 d -9 -7 d -9 -7 d -9 -7 d -9 -6 d -18 -12 d -18 -11 d -18 -11 d -18 -10 d -17 -10 d -36 -19 d -36 -18 d -36 -17 d -36 -15
 d -36 -13 d -35 -12 d -36 -11 d -36 -10 d -36 -9 d -36 -8 d -36 -8 d -35 -7 d -36 -7 d -36 -7 d -36 -6 d -36 -6 d -36 -6 d -35 -6 d -36 -5 d -36 -5 d -36 -5 d -36 -5 d -36 -4 d -35 -5 d -36 -4 d -36 -4 d -36 -5 d -36 -3 d -36 -4 d -35 -4 d -36 -4 d
 f 0 1 1 c 0 1 0 c black 0 1 0 c 363 1031 m 36 3 d 35 4 d 36 4 d 36 4 d 36 4 d 36 4 d 36 4 d 35 5 d 36 4 d 36 5 d 36 5 d 36 5 d 36 5 d 35 6 d 36 5 d 36 6 d 36 7 d 36 6 d 36 7 d 35 7 d 36 8 d 36 8 d 36 9 d 36 9 d 36 11 d 35 12 d 36 13 d 36 15 d 36 15
 d 36 17 d 36 19 d 17 9 d 18 10 d 18 11 d 18 11 d 18 12 d 9 6 d 9 7 d 9 7 d 9 7 d 9 7 d 9 8 d 9 9 d 4 5 d 5 5 d 4 5 d 5 5 d 4 6 d 5 6 d 18 19 d 9 8 d 9 6 d 4 3 d 4 2 d 5 3 d 4 2 d 5 1 d 4 1 d 5 1 d 4 1 d 14 X 4 -1 d 5 -1 d 4 -2 d 5 -2 d 4 -2 d 5 -2 d
 4 -3 d 9 -7 d 9 -8 d 9 -9 d 9 -10 d 9 -11 d 9 -13 d 4 -6 d 5 -7 d 4 -8 d 5 -7 d 4 -7 d 5 -8 d 9 -16 d 9 -16 d 9 -17 d 9 -16 d 9 -16 d 9 -14 d 8 -13 d 9 -12 d 18 -20 d 36 -31 d 36 -28 d 36 -27 d 36 -28 d 36 -32 d 35 -34 d -61 Y -35 51 d -36 45 d -36
 38 d -36 32 d -36 28 d -36 32 d -18 23 d -9 13 d -8 15 d -9 15 d -9 17 d -9 16 d -9 17 d -9 17 d -9 16 d -5 8 d -4 8 d -5 8 d -4 7 d -5 7 d -4 7 d -9 13 d -9 12 d -9 11 d -9 9 d -9 8 d -9 7 d -4 3 d -5 2 d -4 2 d -5 2 d -4 1 d -5 2 d -4 X -5 1 d -9
 X -4 -1 d -5 X -4 -2 d -5 -1 d -4 -2 d -5 -2 d -4 -3 d -4 -3 d -9 -7 d -9 -8 d -18 -21 d -5 -6 d -4 -5 d -5 -5 d -4 -5 d -5 -4 d -4 -5 d -9 -8 d -9 -9 d -9 -7 d -9 -8 d -9 -7 d -9 -6 d -9 -7 d -18 -11 d -18 -12 d -18 -10 d -18 -10 d -17 -10 d -36
 -19 d -36 -18 d -36 -16 d -36 -15 d -36 -13 d -35 -12 d -36 -11 d -36 -9 d -36 -9 d -36 -9 d -36 -7 d -35 -8 d -36 -7 d -36 -6 d -36 -7 d -36 -6 d -36 -5 d -35 -6 d -36 -5 d -36 -5 d -36 -5 d -36 -5 d -36 -5 d -35 -4 d -36 -4 d -36 -4 d -36 -5 d -36
 -3 d -36 -4 d -35 -4 d -36 -4 d f 0 0 1 c 9 lw black 0 0 1 c 363 1027 m 36 4 d 35 3 d 36 4 d 36 4 d 36 4 d 36 4 d 36 5 d 35 4 d 36 5 d 36 5 d 36 4 d 36 6 d 36 5 d 35 5 d 36 6 d 36 6 d 36 6 d 36 7 d 36 7 d 35 7 d 36 8 d 36 8 d 36 9 d 36 9 d 36 11 d
 35 12 d 36 13 d 36 15 d 36 16 d 36 17 d 36 19 d 17 10 d 18 10 d 18 10 d 18 11 d 18 12 d 9 7 d 9 6 d 9 7 d 9 7 d 9 8 d 9 8 d 9 9 d 4 4 d 5 5 d 4 5 d 5 5 d 4 6 d 5 5 d 18 20 d 9 8 d 9 7 d 4 3 d 4 3 d 5 2 d 4 2 d 5 1 d 4 1 d 5 1 d 4 1 d 14 X 4 -1 d 5
 -1 d 4 -2 d 5 -2 d 4 -2 d 5 -2 d 4 -3 d 9 -7 d 9 -8 d 9 -9 d 9 -10 d 9 -12 d 9 -13 d 4 -7 d 5 -7 d 4 -7 d 5 -7 d 4 -8 d 5 -8 d 9 -16 d 9 -17 d 9 -16 d 9 -17 d 9 -16 d 9 -15 d 8 -13 d 9 -13 d 18 -21 d 36 -32 d 36 -27 d 36 -30 d 36 -32 d 36 -36 d 35
 -40 d s black 3 lw 381 1029 m -18 X s 363 1029 m cl s 381 1029 m 18 X s 399 1029 m cl s 381 1029 m 47 Y s 381 1076 m cl s 381 1029 m -54 Y s 381 975 m cl s 417 1001 m -18 X s 399 1001 m cl s 417 1001 m 17 X s 434 1001 m cl s 417 1001 m 58 Y s 417
 1059 m cl s 417 1001 m -72 Y s 417 929 m cl s 452 953 m -18 X s 434 953 m cl s 452 953 m 18 X s 470 953 m cl s 452 953 m 83 Y s 452 1036 m cl s 452 953 m -122 Y s 452 831 m cl s 488 1097 m -18 X s 470 1097 m cl s 488 1097 m 18 X s 506 1097 m cl s
 488 1097 m 28 Y s 488 1125 m cl s 488 1097 m -29 Y s 488 1068 m cl s 524 1029 m -18 X s 506 1029 m cl s 524 1029 m 18 X s 542 1029 m cl s 524 1029 m 47 Y s 524 1076 m cl s 524 1029 m -54 Y s 524 975 m cl s 560 1029 m -18 X s 542 1029 m cl s 560 1029
 m 18 X s 578 1029 m cl s 560 1029 m 47 Y s 560 1076 m cl s 560 1029 m -54 Y s 560 975 m cl s 596 1088 m -18 X s 578 1088 m cl s 596 1088 m 18 X s 614 1088 m cl s 596 1088 m 30 Y s 596 1118 m cl s 596 1088 m -32 Y s 596 1056 m cl s 632 1001 m -18 X s
 614 1001 m cl s 632 1001 m 17 X s 649 1001 m cl s 632 1001 m 58 Y s 632 1059 m cl s 632 1001 m -72 Y s 632 929 m cl s 667 1049 m -18 X s 649 1049 m cl s 667 1049 m 18 X s 685 1049 m cl s 667 1049 m 41 Y s 667 1090 m cl s 667 1049 m -45 Y s 667 1004
 m cl s 703 1065 m -18 X s 685 1065 m cl s 703 1065 m 18 X s 721 1065 m cl s 703 1065 m 35 Y s 703 1100 m cl s 703 1065 m -40 Y s 703 1025 m cl s 739 1001 m -18 X s 721 1001 m cl s 739 1001 m 18 X s 757 1001 m cl s 739 1001 m 58 Y s 739 1059 m cl s
 739 1001 m -72 Y s 739 929 m cl s 775 1065 m -18 X s 757 1065 m cl s 775 1065 m 18 X s 793 1065 m cl s 775 1065 m 35 Y s 775 1100 m cl s 775 1065 m -40 Y s 775 1025 m cl s 811 1088 m -18 X s 793 1088 m cl s 811 1088 m 18 X s 829 1088 m cl s 811 1088
 m 30 Y s 811 1118 m cl s 811 1088 m -32 Y s 811 1056 m cl s 847 1049 m -18 X s 829 1049 m cl s 847 1049 m 17 X s 864 1049 m cl s 847 1049 m 41 Y s 847 1090 m cl s 847 1049 m -45 Y s 847 1004 m cl s 882 1049 m -18 X s 864 1049 m cl s 882 1049 m 18 X
 s 900 1049 m cl s 882 1049 m 41 Y s 882 1090 m cl s 882 1049 m -45 Y s 882 1004 m cl s 918 1105 m -18 X s 900 1105 m cl s 918 1105 m 18 X s 936 1105 m cl s 918 1105 m 26 Y s 918 1131 m cl s 918 1105 m -27 Y s 918 1078 m cl s 954 1029 m -18 X s 936
 1029 m cl s 954 1029 m 18 X s 972 1029 m cl s 954 1029 m 47 Y s 954 1076 m cl s 954 1029 m -54 Y s 954 975 m cl s 990 1113 m -18 X s 972 1113 m cl s 990 1113 m 18 X s 1008 1113 m cl s 990 1113 m 24 Y s 990 1137 m cl s 990 1113 m -26 Y s 990 1087 m
 cl s 1026 1125 m -18 X s 1008 1125 m cl s 1026 1125 m 18 X s 1044 1125 m cl s 1026 1125 m 23 Y s 1026 1148 m cl s 1026 1125 m -23 Y s 1026 1102 m cl s 1062 1113 m -18 X s 1044 1113 m cl s 1062 1113 m 17 X s 1079 1113 m cl s 1062 1113 m 24 Y s 1062
 1137 m cl s 1062 1113 m -26 Y s 1062 1087 m cl s 1097 1145 m -18 X s 1079 1145 m cl s 1097 1145 m 18 X s 1115 1145 m cl s 1097 1145 m 19 Y s 1097 1164 m cl s 1097 1145 m -19 Y s 1097 1126 m cl s 1133 1125 m -18 X s 1115 1125 m cl s 1133 1125 m 18 X
 s 1151 1125 m cl s 1133 1125 m 23 Y s 1133 1148 m cl s 1133 1125 m -23 Y s 1133 1102 m cl s 1169 1131 m -18 X s 1151 1131 m cl s 1169 1131 m 18 X s 1187 1131 m cl s 1169 1131 m 21 Y s 1169 1152 m cl s 1169 1131 m -22 Y s 1169 1109 m cl s 1205 1157 m
 -18 X s 1187 1157 m cl s 1205 1157 m 18 X s 1223 1157 m cl s 1205 1157 m 18 Y s 1205 1175 m cl s 1205 1157 m -18 Y s 1205 1139 m cl s 1241 1186 m -18 X s 1223 1186 m cl s 1241 1186 m 18 X s 1259 1186 m cl s 1241 1186 m 14 Y s 1241 1200 m cl s 1241
 1186 m -14 Y s 1241 1172 m cl s 1276 1201 m -17 X s 1259 1201 m cl s 1276 1201 m 18 X s 1294 1201 m cl s 1276 1201 m 13 Y s 1276 1214 m cl s 1276 1201 m -12 Y s 1276 1189 m cl s 1312 1207 m -18 X s 1294 1207 m cl s 1312 1207 m 18 X s 1330 1207 m cl
 s 1312 1207 m 12 Y s 1312 1219 m cl s 1312 1207 m -12 Y s 1312 1195 m cl s 1348 1201 m -18 X s 1330 1201 m cl s 1348 1201 m 18 X s 1366 1201 m cl s 1348 1201 m 13 Y s 1348 1214 m cl s 1348 1201 m -12 Y s 1348 1189 m cl s 1384 1218 m -18 X s 1366
 1218 m cl s 1384 1218 m 18 X s 1402 1218 m cl s 1384 1218 m 11 Y s 1384 1229 m cl s 1384 1218 m -11 Y s 1384 1207 m cl s 1420 1226 m -18 X s 1402 1226 m cl s 1420 1226 m 18 X s 1438 1226 m cl s 1420 1226 m 10 Y s 1420 1236 m cl s 1420 1226 m -11 Y s
 1420 1215 m cl s 1456 1247 m -18 X s 1438 1247 m cl s 1456 1247 m 18 X s 1474 1247 m cl s 1456 1247 m 8 Y s 1456 1255 m cl s 1456 1247 m -9 Y s 1456 1238 m cl s 1491 1269 m -17 X s 1474 1269 m cl s 1491 1269 m 18 X s 1509 1269 m cl s 1491 1269 m 7 Y
 s 1491 1276 m cl s 1491 1269 m -8 Y s 1491 1261 m cl s 1527 1292 m -18 X s 1509 1292 m cl s 1527 1292 m 18 X s 1545 1292 m cl s 1527 1292 m 6 Y s 1527 1298 m cl s 1527 1292 m -6 Y s 1527 1286 m cl s 1563 1322 m -18 X s 1545 1322 m cl s 1563 1322 m
 18 X s 1581 1322 m cl s 1563 1322 m 5 Y s 1563 1327 m cl s 1563 1322 m -5 Y s 1563 1317 m cl s 1599 1354 m -18 X s 1581 1354 m cl s 1599 1354 m 18 X s 1617 1354 m cl s 1599 1354 m 4 Y s 1599 1358 m cl s 1599 1354 m -4 Y s 1599 1350 m cl s 1635 1384
 m -18 X s 1617 1384 m cl s 1635 1384 m 18 X s 1653 1384 m cl s 1635 1384 m 3 Y s 1635 1387 m cl s 1635 1384 m -3 Y s 1635 1381 m cl s 1671 1418 m -18 X s 1653 1418 m cl s 1671 1418 m 18 X s 1689 1418 m cl s 1671 1418 m 2 Y s 1671 1420 m cl s 1671
 1418 m -3 Y s 1671 1415 m cl s 1706 1441 m -17 X s 1689 1441 m cl s 1706 1441 m 18 X s 1724 1441 m cl s 1706 1441 m 2 Y s 1706 1443 m cl s 1706 1441 m -2 Y s 1706 1439 m cl s 1742 1449 m -18 X s 1724 1449 m cl s 1742 1449 m 18 X s 1760 1449 m cl s
 1742 1449 m 2 Y s 1742 1451 m cl s 1742 1449 m -2 Y s 1742 1447 m cl s 1778 1429 m -18 X s 1760 1429 m cl s 1778 1429 m 18 X s 1796 1429 m cl s 1778 1429 m 3 Y s 1778 1432 m cl s 1778 1429 m -2 Y s 1778 1427 m cl s 1814 1394 m -18 X s 1796 1394 m cl
 s 1814 1394 m 18 X s 1832 1394 m cl s 1814 1394 m 2 Y s 1814 1396 m cl s 1814 1394 m -3 Y s 1814 1391 m cl s 1850 1331 m -18 X s 1832 1331 m cl s 1850 1331 m 18 X s 1868 1331 m cl s 1850 1331 m 5 Y s 1850 1336 m cl s 1850 1331 m -5 Y s 1850 1326 m
 cl s 1886 1270 m -18 X s 1868 1270 m cl s 1886 1270 m 18 X s 1904 1270 m cl s 1886 1270 m 7 Y s 1886 1277 m cl s 1886 1270 m -8 Y s 1886 1262 m cl s 1921 1211 m -17 X s 1904 1211 m cl s 1921 1211 m 18 X s 1939 1211 m cl s 1921 1211 m 11 Y s 1921
 1222 m cl s 1921 1211 m -12 Y s 1921 1199 m cl s 1957 1173 m -18 X s 1939 1173 m cl s 1957 1173 m 18 X s 1975 1173 m cl s 1957 1173 m 16 Y s 1957 1189 m cl s 1957 1173 m -15 Y s 1957 1158 m cl s 1993 1131 m -18 X s 1975 1131 m cl s 1993 1131 m 18 X
 s 2011 1131 m cl s 1993 1131 m 21 Y s 1993 1152 m cl s 1993 1131 m -22 Y s 1993 1109 m cl s 2029 1119 m -18 X s 2011 1119 m cl s 2029 1119 m 18 X s 2047 1119 m cl s 2029 1119 m 24 Y s 2029 1143 m cl s 2029 1119 m -24 Y s 2029 1095 m cl s 2065 1077 m
 -18 X s 2047 1077 m cl s 2065 1077 m 18 X s 2083 1077 m cl s 2065 1077 m 33 Y s 2065 1110 m cl s 2065 1077 m -35 Y s 2065 1042 m cl s 2101 1065 m -18 X s 2083 1065 m cl s 2101 1065 m 18 X s 2119 1065 m cl s 2101 1065 m 35 Y s 2101 1100 m cl s 2101
 1065 m -40 Y s 2101 1025 m cl s 2136 1049 m -17 X s 2119 1049 m cl s 2136 1049 m 18 X s 2154 1049 m cl s 2136 1049 m 41 Y s 2136 1090 m cl s 2136 1049 m -45 Y s 2136 1004 m cl s 381 1029 417 1001 452 953 488 1097 524 1029 560 1029 596 1088 632 1001
 667 1049 703 1065 739 1001 775 1065 811 1088 847 1049 882 1049 918 1105 954 1029 990 1113 1026 1125 1062 1113 1097 1145 1133 1125 1169 1131 1205 1157 1241 1186 1276 1201 1312 1207 1348 1201 1384 1218 1420 1226 1456 1247 1491 1269 1527 1292 1563 1322
 1599 1354 1635 1384 1671 1418 1706 1441 1742 1449 1778 1429 1814 1394 1850 1331 1886 1270 1921 1211 1957 1173 1993 1131 2029 1119 2065 1077 2101 1065 2136 1049 50 { m20} R 0.52 0.76 0.64 c[ 4 8] 0 sd 9 lw black 0.52 0.76 0.64 c 363 1027 m 36 4 d 35
 3 d 36 4 d 36 4 d 36 4 d 36 4 d 36 5 d 35 4 d 36 5 d 36 5 d 36 4 d 36 6 d 36 5 d 35 5 d 36 6 d 36 6 d 36 6 d 36 7 d 36 7 d 35 7 d 36 7 d 36 8 d 36 9 d 36 9 d 36 10 d 35 10 d 36 12 d 36 12 d 36 14 d 36 15 d 36 16 d 35 20 d 18 10 d 18 12 d 18 12 d 9 7
 d 9 7 d 9 8 d 9 8 d 9 8 d 9 9 d 9 10 d 4 5 d 5 5 d 4 6 d 5 5 d 4 6 d 5 6 d 18 22 d 9 8 d 9 7 d 4 3 d 4 3 d 5 2 d 4 2 d 5 2 d 4 1 d 5 1 d 4 1 d 9 X 5 -1 d 4 -1 d 5 -1 d 4 -1 d 5 -2 d 4 -3 d 5 -2 d 4 -3 d 5 -3 d 4 -4 d 9 -8 d 9 -10 d 9 -11 d 9 -13 d 9
 -14 d 4 -7 d 5 -8 d 4 -9 d 5 -8 d 4 -9 d 5 -9 d 4 -10 d 5 -10 d 9 -21 d 9 -22 d 9 -24 d 9 -25 d 9 -27 d 8 -28 d 9 -30 d 18 -63 d 36 -143 d 36 -166 d 22 -116 d s 0.54 0.66 0.63 c black 0.54 0.66 0.63 c 1062 634 m 17 30 d s 1079 664 m 36 62 d 36 58 d
 36 54 d 36 51 d 36 48 d 35 44 d 18 20 d 18 20 d 18 19 d 18 18 d 18 17 d 18 17 d 18 15 d 18 15 d 18 14 d 18 12 d 17 12 d 18 11 d 18 11 d 18 9 d 36 16 d 18 7 d 18 6 d 18 5 d 18 4 d 9 2 d 9 1 d 9 2 d 9 1 d 8 1 d 9 X 9 1 d 27 X 9 -1 d 9 X 9 -1 d 9 -1 d
 9 -1 d 9 -2 d 9 -2 d 9 -2 d 18 -4 d 18 -6 d 18 -6 d 36 -15 d 17 -9 d 18 -10 d 18 -10 d 18 -12 d 18 -12 d 18 -13 d 18 -15 d 18 -15 d 18 -15 d 18 -17 d 18 -18 d 18 -18 d 17 -20 d 18 -20 d s black[  ] 0 sd 3 lw 363 634 m 1791 X s 363 659 m -25 Y s 413
 646 m -12 Y s 462 646 m -12 Y s 512 646 m -12 Y s 562 659 m -25 Y s 612 646 m -12 Y s 661 646 m -12 Y s 711 646 m -12 Y s 761 659 m -25 Y s 811 646 m -12 Y s 860 646 m -12 Y s 910 646 m -12 Y s 960 659 m -25 Y s 1010 646 m -12 Y s 1060 646 m -12 Y s
 1109 646 m -12 Y s 1159 659 m -25 Y s 1209 646 m -12 Y s 1259 646 m -12 Y s 1308 646 m -12 Y s 1358 659 m -25 Y s 1408 646 m -12 Y s 1458 646 m -12 Y s 1507 646 m -12 Y s 1557 659 m -25 Y s 1607 646 m -12 Y s 1657 646 m -12 Y s 1706 646 m -12 Y s
 1756 659 m -25 Y s 1806 646 m -12 Y s 1856 646 m -12 Y s 1906 646 m -12 Y s 1955 659 m -25 Y s 2005 646 m -12 Y s 2055 646 m -12 Y s 2105 646 m -12 Y s 2154 659 m -25 Y s 363 1484 m 1791 X s 363 1459 m 25 Y s 413 1471 m 13 Y s 462 1471 m 13 Y s 512
 1471 m 13 Y s 562 1459 m 25 Y s 612 1471 m 13 Y s 661 1471 m 13 Y s 711 1471 m 13 Y s 761 1459 m 25 Y s 811 1471 m 13 Y s 860 1471 m 13 Y s 910 1471 m 13 Y s 960 1459 m 25 Y s 1010 1471 m 13 Y s 1060 1471 m 13 Y s 1109 1471 m 13 Y s 1159 1459 m 25 Y
 s 1209 1471 m 13 Y s 1259 1471 m 13 Y s 1308 1471 m 13 Y s 1358 1459 m 25 Y s 1408 1471 m 13 Y s 1458 1471 m 13 Y s 1507 1471 m 13 Y s 1557 1459 m 25 Y s 1607 1471 m 13 Y s 1657 1471 m 13 Y s 1706 1471 m 13 Y s 1756 1459 m 25 Y s 1806 1471 m 13 Y s
 1856 1471 m 13 Y s 1906 1471 m 13 Y s 1955 1459 m 25 Y s 2005 1471 m 13 Y s 2055 1471 m 13 Y s 2105 1471 m 13 Y s 2154 1459 m 25 Y s 363 634 m 850 Y s 417 634 m -54 X s 390 682 m -27 X s 390 710 m -27 X s 390 730 m -27 X s 390 745 m -27 X s 390 758
 m -27 X s 390 769 m -27 X s 390 778 m -27 X s 390 786 m -27 X s 417 793 m -54 X s 390 841 m -27 X s 390 869 m -27 X s 390 889 m -27 X s 390 905 m -27 X s 390 918 m -27 X s 390 928 m -27 X s 390 937 m -27 X s 390 946 m -27 X s 417 953 m -54 X s 390
 1001 m -27 X s 390 1029 m -27 X s 390 1049 m -27 X s 390 1065 m -27 X s 390 1077 m -27 X s 390 1088 m -27 X s 390 1097 m -27 X s 390 1105 m -27 X s 417 1113 m -54 X s 390 1161 m -27 X s 390 1189 m -27 X s 390 1209 m -27 X s 390 1224 m -27 X s 390
 1237 m -27 X s 390 1248 m -27 X s 390 1257 m -27 X s 390 1265 m -27 X s 417 1272 m -54 X s 390 1320 m -27 X s 390 1349 m -27 X s 390 1368 m -27 X s 390 1384 m -27 X s 390 1397 m -27 X s 390 1407 m -27 X s 390 1417 m -27 X s 390 1425 m -27 X s 417
 1432 m -54 X s 390 1480 m -27 X s 2154 634 m 850 Y s 2101 634 m 53 X s 2127 682 m 27 X s 2127 710 m 27 X s 2127 730 m 27 X s 2127 745 m 27 X s 2127 758 m 27 X s 2127 769 m 27 X s 2127 778 m 27 X s 2127 786 m 27 X s 2101 793 m 53 X s 2127 841 m 27 X
 s 2127 869 m 27 X s 2127 889 m 27 X s 2127 905 m 27 X s 2127 918 m 27 X s 2127 928 m 27 X s 2127 937 m 27 X s 2127 946 m 27 X s 2101 953 m 53 X s 2127 1001 m 27 X s 2127 1029 m 27 X s 2127 1049 m 27 X s 2127 1065 m 27 X s 2127 1077 m 27 X s 2127
 1088 m 27 X s 2127 1097 m 27 X s 2127 1105 m 27 X s 2101 1113 m 53 X s 2127 1161 m 27 X s 2127 1189 m 27 X s 2127 1209 m 27 X s 2127 1224 m 27 X s 2127 1237 m 27 X s 2127 1248 m 27 X s 2127 1257 m 27 X s 2127 1265 m 27 X s 2101 1272 m 53 X s 2127
 1320 m 27 X s 2127 1349 m 27 X s 2127 1368 m 27 X s 2127 1384 m 27 X s 2127 1397 m 27 X s 2127 1407 m 27 X s 2127 1417 m 27 X s 2127 1425 m 27 X s 2101 1432 m 53 X s 2127 1480 m 27 X s
 gsave  2268 1077 0 461 C 677.708 1215.31 t 0 r /Helvetica findfont 58.7189 sf 0 0 m (4e) show NC gr  1 1 1 c 453 161 454 1269 bf black
 gsave  2268 1077 0 461 C 566.929 1371.71 t 0 r /Helvetica-Bold findfont 48.9324 sf 0 0 m (MC15) show NC gr  510 1390 m20
 gsave  2268 1077 0 461 C 566.929 1293.51 t 0 r /Helvetica-Bold findfont 48.9324 sf 0 0 m (Projection of Signal pdf) show NC gr  0 0 1 c 9 lw 471 1309 m 79 X s black 3 lw 1 1 1 c 2268 461 0 0 bf black 1 1 1 c 1791 364 363 74 bf black 1791 364 363 74
 bl 363 74 m 1791 X s
 gsave  2268 461 0 0 C 1915.83 13.0329 t 0 r /Helvetica findfont 22.9045 sf 0 0 m (4l Invariant Mass \(GeV\)) show NC gr  363 85 m -11 Y s 413 79 m -5 Y s 462 79 m -5 Y s 512 79 m -5 Y s 562 85 m -11 Y s 612 79 m -5 Y s 661 79 m -5 Y s 711 79 m -5 Y
 s 761 85 m -11 Y s 811 79 m -5 Y s 860 79 m -5 Y s 910 79 m -5 Y s 960 85 m -11 Y s 1010 79 m -5 Y s 1060 79 m -5 Y s 1109 79 m -5 Y s 1159 85 m -11 Y s 1209 79 m -5 Y s 1259 79 m -5 Y s 1308 79 m -5 Y s 1358 85 m -11 Y s 1408 79 m -5 Y s 1458 79 m
 -5 Y s 1507 79 m -5 Y s 1557 85 m -11 Y s 1607 79 m -5 Y s 1657 79 m -5 Y s 1706 79 m -5 Y s 1756 85 m -11 Y s 1806 79 m -5 Y s 1856 79 m -5 Y s 1906 79 m -5 Y s 1955 85 m -11 Y s 2005 79 m -5 Y s 2055 79 m -5 Y s 2105 79 m -5 Y s 2154 85 m -11 Y s
 gsave  2268 461 0 0 C 342.112 55.3896 t 0 r /Helvetica findfont 22.9045 sf 0 0 m (760) show NC gr 
 gsave  2268 461 0 0 C 540.863 55.3896 t 0 r /Helvetica findfont 22.9045 sf 0 0 m (780) show NC gr 
 gsave  2268 461 0 0 C 739.614 55.3896 t 0 r /Helvetica findfont 22.9045 sf 0 0 m (800) show NC gr 
 gsave  2268 461 0 0 C 938.365 55.3896 t 0 r /Helvetica findfont 22.9045 sf 0 0 m (820) show NC gr 
 gsave  2268 461 0 0 C 1137.12 55.3896 t 0 r /Helvetica findfont 22.9045 sf 0 0 m (840) show NC gr 
 gsave  2268 461 0 0 C 1335.87 55.3896 t 0 r /Helvetica findfont 22.9045 sf 0 0 m (860) show NC gr 
 gsave  2268 461 0 0 C 1534.62 55.3896 t 0 r /Helvetica findfont 22.9045 sf 0 0 m (880) show NC gr 
 gsave  2268 461 0 0 C 1736.63 55.3896 t 0 r /Helvetica findfont 22.9045 sf 0 0 m (900) show NC gr 
 gsave  2268 461 0 0 C 1935.38 55.3896 t 0 r /Helvetica findfont 22.9045 sf 0 0 m (920) show NC gr 
 gsave  2268 461 0 0 C 2134.13 55.3896 t 0 r /Helvetica findfont 22.9045 sf 0 0 m (940) show NC gr  363 438 m 1791 X s 363 427 m 11 Y s 413 433 m 5 Y s 462 433 m 5 Y s 512 433 m 5 Y s 562 427 m 11 Y s 612 433 m 5 Y s 661 433 m 5 Y s 711 433 m 5 Y s
 761 427 m 11 Y s 811 433 m 5 Y s 860 433 m 5 Y s 910 433 m 5 Y s 960 427 m 11 Y s 1010 433 m 5 Y s 1060 433 m 5 Y s 1109 433 m 5 Y s 1159 427 m 11 Y s 1209 433 m 5 Y s 1259 433 m 5 Y s 1308 433 m 5 Y s 1358 427 m 11 Y s 1408 433 m 5 Y s 1458 433 m 5
 Y s 1507 433 m 5 Y s 1557 427 m 11 Y s 1607 433 m 5 Y s 1657 433 m 5 Y s 1706 433 m 5 Y s 1756 427 m 11 Y s 1806 433 m 5 Y s 1856 433 m 5 Y s 1906 433 m 5 Y s 1955 427 m 11 Y s 2005 433 m 5 Y s 2055 433 m 5 Y s 2105 433 m 5 Y s 2154 427 m 11 Y s 363
 74 m 364 Y s 417 74 m -54 X s 390 81 m -27 X s 390 88 m -27 X s 390 96 m -27 X s 390 103 m -27 X s 417 110 m -54 X s 390 118 m -27 X s 390 125 m -27 X s 390 132 m -27 X s 390 139 m -27 X s 417 147 m -54 X s 390 154 m -27 X s 390 161 m -27 X s 390
 169 m -27 X s 390 176 m -27 X s 417 183 m -54 X s 390 190 m -27 X s 390 198 m -27 X s 390 205 m -27 X s 390 212 m -27 X s 417 220 m -54 X s 390 227 m -27 X s 390 234 m -27 X s 390 241 m -27 X s 390 249 m -27 X s 417 256 m -54 X s 390 263 m -27 X s
 390 271 m -27 X s 390 278 m -27 X s 390 285 m -27 X s 417 293 m -54 X s 390 300 m -27 X s 390 307 m -27 X s 390 314 m -27 X s 390 322 m -27 X s 417 329 m -54 X s 390 336 m -27 X s 390 344 m -27 X s 390 351 m -27 X s 390 358 m -27 X s 417 365 m -54 X
 s 390 373 m -27 X s 390 380 m -27 X s 390 387 m -27 X s 390 395 m -27 X s 417 402 m -54 X s 390 409 m -27 X s 390 416 m -27 X s 390 424 m -27 X s 390 431 m -27 X s 417 438 m -54 X s
 gsave  2268 461 0 0 C 329.08 65.1643 t 0 r /Helvetica findfont 22.9045 sf 0 0 m (\2555) show NC gr 
 gsave  2268 461 0 0 C 329.08 101.005 t 0 r /Helvetica findfont 22.9045 sf 0 0 m (\2554) show NC gr 
 gsave  2268 461 0 0 C 329.08 140.103 t 0 r /Helvetica findfont 22.9045 sf 0 0 m (\2553) show NC gr 
 gsave  2268 461 0 0 C 329.08 175.944 t 0 r /Helvetica findfont 22.9045 sf 0 0 m (\2552) show NC gr 
 gsave  2268 461 0 0 C 332.338 211.784 t 0 r /Helvetica findfont 22.9045 sf 0 0 m (\2551) show NC gr 
 gsave  2268 461 0 0 C 335.596 247.624 t 0 r /Helvetica findfont 22.9045 sf 0 0 m (0) show NC gr 
 gsave  2268 461 0 0 C 338.854 283.465 t 0 r /Helvetica findfont 22.9045 sf 0 0 m (1) show NC gr 
 gsave  2268 461 0 0 C 335.596 319.305 t 0 r /Helvetica findfont 22.9045 sf 0 0 m (2) show NC gr 
 gsave  2268 461 0 0 C 335.596 358.403 t 0 r /Helvetica findfont 22.9045 sf 0 0 m (3) show NC gr 
 gsave  2268 461 0 0 C 335.596 394.244 t 0 r /Helvetica findfont 22.9045 sf 0 0 m (4) show NC gr 
 gsave  2268 461 0 0 C 335.596 430.084 t 0 r /Helvetica findfont 22.9045 sf 0 0 m (5) show NC gr  2154 74 m 364 Y s 2101 74 m 53 X s 2127 81 m 27 X s 2127 88 m 27 X s 2127 96 m 27 X s 2127 103 m 27 X s 2101 110 m 53 X s 2127 118 m 27 X s 2127 125 m
 27 X s 2127 132 m 27 X s 2127 139 m 27 X s 2101 147 m 53 X s 2127 154 m 27 X s 2127 161 m 27 X s 2127 169 m 27 X s 2127 176 m 27 X s 2101 183 m 53 X s 2127 190 m 27 X s 2127 198 m 27 X s 2127 205 m 27 X s 2127 212 m 27 X s 2101 220 m 53 X s 2127 227
 m 27 X s 2127 234 m 27 X s 2127 241 m 27 X s 2127 249 m 27 X s 2101 256 m 53 X s 2127 263 m 27 X s 2127 271 m 27 X s 2127 278 m 27 X s 2127 285 m 27 X s 2101 293 m 53 X s 2127 300 m 27 X s 2127 307 m 27 X s 2127 314 m 27 X s 2127 322 m 27 X s 2101
 329 m 53 X s 2127 336 m 27 X s 2127 344 m 27 X s 2127 351 m 27 X s 2127 358 m 27 X s 2101 365 m 53 X s 2127 373 m 27 X s 2127 380 m 27 X s 2127 387 m 27 X s 2127 395 m 27 X s 2101 402 m 53 X s 2127 409 m 27 X s 2127 416 m 27 X s 2127 424 m 27 X s
 2127 431 m 27 X s 2101 438 m 53 X s 6 lw 0.2 0.8 0.2 c black 3 lw 0.2 0.8 0.2 c 363 256 m 36 X -16 Y 35 X -21 Y 36 X 96 Y 36 X -68 Y 36 X -3 Y 36 X 51 Y 36 X -73 Y 35 X 25 Y 36 X 8 Y 36 X -47 Y 36 X 38 Y 36 X 19 Y 36 X -42 Y 35 X -7 Y 36 X 51 Y 36 X
 -84 Y 36 X 77 Y 36 X 10 Y 36 X -30 Y 35 X 42 Y 36 X -48 Y 36 X -7 Y 36 X 28 Y 36 X 47 Y 36 X 14 Y 35 X -15 Y 36 X -57 Y 36 X 3 Y 36 X -36 Y 36 X 6 Y 36 X 11 Y 35 X 9 Y 36 X 48 Y 36 X 54 Y 36 X -28 Y 36 X -94 Y 36 X -33 Y 35 X 92 Y 36 X -17 Y 36 X 41
 Y 36 X -61 Y 36 X 28 Y 36 X -9 Y 35 X -5 Y 36 X -20 Y 36 X 28 Y 36 X -13 Y 36 X 22 Y 36 X 16 Y 35 X -30 Y f 6 lw black 0.2 0.8 0.2 c black 363 256 m 36 X -16 Y 35 X -21 Y 36 X 96 Y 36 X -68 Y 36 X -3 Y 36 X 51 Y 36 X -73 Y 35 X 25 Y 36 X 8 Y 36 X
 -47 Y 36 X 38 Y 36 X 19 Y 36 X -42 Y 35 X -7 Y 36 X 51 Y 36 X -84 Y 36 X 77 Y 36 X 10 Y 36 X -30 Y 35 X 42 Y 36 X -48 Y 36 X -7 Y 36 X 28 Y 36 X 47 Y 36 X 14 Y 35 X -15 Y 36 X -57 Y 36 X 3 Y 36 X -36 Y 36 X 6 Y 36 X 11 Y 35 X 9 Y 36 X 48 Y 36 X 54 Y
 36 X -28 Y 36 X -94 Y 36 X -33 Y 35 X 92 Y 36 X -17 Y 36 X 41 Y 36 X -61 Y 36 X 28 Y 36 X -9 Y 35 X -5 Y 36 X -20 Y 36 X 28 Y 36 X -13 Y 36 X 22 Y 36 X 16 Y 35 X s 3 lw 363 74 m 1791 X s 363 85 m -11 Y s 413 79 m -5 Y s 462 79 m -5 Y s 512 79 m -5 Y
 s 562 85 m -11 Y s 612 79 m -5 Y s 661 79 m -5 Y s 711 79 m -5 Y s 761 85 m -11 Y s 811 79 m -5 Y s 860 79 m -5 Y s 910 79 m -5 Y s 960 85 m -11 Y s 1010 79 m -5 Y s 1060 79 m -5 Y s 1109 79 m -5 Y s 1159 85 m -11 Y s 1209 79 m -5 Y s 1259 79 m -5 Y
 s 1308 79 m -5 Y s 1358 85 m -11 Y s 1408 79 m -5 Y s 1458 79 m -5 Y s 1507 79 m -5 Y s 1557 85 m -11 Y s 1607 79 m -5 Y s 1657 79 m -5 Y s 1706 79 m -5 Y s 1756 85 m -11 Y s 1806 79 m -5 Y s 1856 79 m -5 Y s 1906 79 m -5 Y s 1955 85 m -11 Y s 2005
 79 m -5 Y s 2055 79 m -5 Y s 2105 79 m -5 Y s 2154 85 m -11 Y s 363 438 m 1791 X s 363 427 m 11 Y s 413 433 m 5 Y s 462 433 m 5 Y s 512 433 m 5 Y s 562 427 m 11 Y s 612 433 m 5 Y s 661 433 m 5 Y s 711 433 m 5 Y s 761 427 m 11 Y s 811 433 m 5 Y s 860
 433 m 5 Y s 910 433 m 5 Y s 960 427 m 11 Y s 1010 433 m 5 Y s 1060 433 m 5 Y s 1109 433 m 5 Y s 1159 427 m 11 Y s 1209 433 m 5 Y s 1259 433 m 5 Y s 1308 433 m 5 Y s 1358 427 m 11 Y s 1408 433 m 5 Y s 1458 433 m 5 Y s 1507 433 m 5 Y s 1557 427 m 11 Y
 s 1607 433 m 5 Y s 1657 433 m 5 Y s 1706 433 m 5 Y s 1756 427 m 11 Y s 1806 433 m 5 Y s 1856 433 m 5 Y s 1906 433 m 5 Y s 1955 427 m 11 Y s 2005 433 m 5 Y s 2055 433 m 5 Y s 2105 433 m 5 Y s 2154 427 m 11 Y s 363 74 m 364 Y s 417 74 m -54 X s 390 81
 m -27 X s 390 88 m -27 X s 390 96 m -27 X s 390 103 m -27 X s 417 110 m -54 X s 390 118 m -27 X s 390 125 m -27 X s 390 132 m -27 X s 390 139 m -27 X s 417 147 m -54 X s 390 154 m -27 X s 390 161 m -27 X s 390 169 m -27 X s 390 176 m -27 X s 417 183
 m -54 X s 390 190 m -27 X s 390 198 m -27 X s 390 205 m -27 X s 390 212 m -27 X s 417 220 m -54 X s 390 227 m -27 X s 390 234 m -27 X s 390 241 m -27 X s 390 249 m -27 X s 417 256 m -54 X s 390 263 m -27 X s 390 271 m -27 X s 390 278 m -27 X s 390
 285 m -27 X s 417 293 m -54 X s 390 300 m -27 X s 390 307 m -27 X s 390 314 m -27 X s 390 322 m -27 X s 417 329 m -54 X s 390 336 m -27 X s 390 344 m -27 X s 390 351 m -27 X s 390 358 m -27 X s 417 365 m -54 X s 390 373 m -27 X s 390 380 m -27 X s
 390 387 m -27 X s 390 395 m -27 X s 417 402 m -54 X s 390 409 m -27 X s 390 416 m -27 X s 390 424 m -27 X s 390 431 m -27 X s 417 438 m -54 X s 2154 74 m 364 Y s 2101 74 m 53 X s 2127 81 m 27 X s 2127 88 m 27 X s 2127 96 m 27 X s 2127 103 m 27 X s
 2101 110 m 53 X s 2127 118 m 27 X s 2127 125 m 27 X s 2127 132 m 27 X s 2127 139 m 27 X s 2101 147 m 53 X s 2127 154 m 27 X s 2127 161 m 27 X s 2127 169 m 27 X s 2127 176 m 27 X s 2101 183 m 53 X s 2127 190 m 27 X s 2127 198 m 27 X s 2127 205 m 27 X
 s 2127 212 m 27 X s 2101 220 m 53 X s 2127 227 m 27 X s 2127 234 m 27 X s 2127 241 m 27 X s 2127 249 m 27 X s 2101 256 m 53 X s 2127 263 m 27 X s 2127 271 m 27 X s 2127 278 m 27 X s 2127 285 m 27 X s 2101 293 m 53 X s 2127 300 m 27 X s 2127 307 m 27
 X s 2127 314 m 27 X s 2127 322 m 27 X s 2101 329 m 53 X s 2127 336 m 27 X s 2127 344 m 27 X s 2127 351 m 27 X s 2127 358 m 27 X s 2101 365 m 53 X s 2127 373 m 27 X s 2127 380 m 27 X s 2127 387 m 27 X s 2127 395 m 27 X s 2101 402 m 53 X s 2127 409 m
 27 X s 2127 416 m 27 X s 2127 424 m 27 X s 2127 431 m 27 X s 2101 438 m 53 X s
 gr  gr showpage
end
%%EOF
