%!PS-Adobe-2.0 EPSF-2.0
%%BoundingBox:  0 0 567 384
%%Title: H4l2015_plotfit/VBF_mass_signal_800_H4l_4mu.eps: 
%%Creator: ROOT Version 5.34/07
%%CreationDate: Mon Nov  9 16:29:42 2015
%%EndComments
%%BeginProlog
80 dict begin
/s {stroke} def /l {lineto} def /m {moveto} def /t {translate} def
/r {rotate} def /rl {roll}  def /R {repeat} def
/d {rlineto} def /rm {rmoveto} def /gr {grestore} def /f {eofill} def
/c {setrgbcolor} def /black {0 setgray} def /sd {setdash} def
/cl {closepath} def /sf {scalefont setfont} def /lw {setlinewidth} def
/box {m dup 0 exch d exch 0 d 0 exch neg d cl} def
/NC{systemdict begin initclip end}def/C{NC box clip newpath}def
/bl {box s} def /bf {box f} def /Y { 0 exch d} def /X { 0 d} def 
/K {{pop pop 0 moveto} exch kshow} bind def
/ita {/ang 15 def gsave [1 0 ang dup sin exch cos div 1 0 0] concat} def 
/mp {newpath /y exch def /x exch def} def
/side {[w .77 mul w .23 mul] .385 w mul sd w 0 l currentpoint t -144 r} def
/mr {mp x y w2 0 360 arc} def /m24 {mr s} def /m20 {mr f} def
/mb {mp x y w2 add m w2 neg 0 d 0 w neg d w 0 d 0 w d cl} def
/mt {mp x y w2 add m w2 neg w neg d w 0 d cl} def
/m21 {mb f} def /m25 {mb s} def /m22 {mt f} def /m26{mt s} def
/m23 {mp x y w2 sub m w2 w d w neg 0 d cl f} def
/m27 {mp x y w2 add m w3 neg w2 neg d w3 w2 neg d w3 w2 d cl s} def
/m28 {mp x w2 sub y w2 sub w3 add m w3 0 d  0 w3 neg d w3 0 d 0 w3 d w3 0 d  0 w3 d w3 neg 0 d 0 w3 d w3 neg 0 d 0 w3 neg d w3 neg 0 d cl s } def
/m29 {mp gsave x w2 sub y w2 add w3 sub m currentpoint t 4 {side} repeat cl fill gr} def
/m30 {mp gsave x w2 sub y w2 add w3 sub m currentpoint t 4 {side} repeat cl s gr} def
/m31 {mp x y w2 sub m 0 w d x w2 sub y m w 0 d x w2 sub y w2 add m w w neg d x w2 sub y w2 sub m w w d s} def
/m32 {mp x y w2 sub m w2 w d w neg 0 d cl s} def
/m33 {mp x y w2 add m w3 neg w2 neg d w3 w2 neg d w3 w2 d cl f} def
/m34 {mp x w2 sub y w2 sub w3 add m w3 0 d  0 w3 neg d w3 0 d 0 w3 d w3 0 d  0 w3 d w3 neg 0 d 0 w3 d w3 neg 0 d 0 w3 neg d w3 neg 0 d cl f } def
/m2 {mp x y w2 sub m 0 w d x w2 sub y m w 0 d s} def
/m5 {mp x w2 sub y w2 sub m w w d x w2 sub y w2 add m w w neg d s} def
/reEncode {exch findfont dup length dict begin {1 index /FID eq  {pop pop} {def} ifelse } forall /Encoding exch def currentdict end dup /FontName get exch definefont pop } def [/Times-Bold /Times-Italic /Times-BoldItalic /Helvetica /Helvetica-Oblique
 /Helvetica-Bold /Helvetica-BoldOblique /Courier /Courier-Oblique /Courier-Bold /Courier-BoldOblique /Times-Roman /AvantGarde-Book /AvantGarde-BookOblique /AvantGarde-Demi /AvantGarde-DemiOblique /Bookman-Demi /Bookman-DemiItalic /Bookman-Light
 /Bookman-LightItalic /Helvetica-Narrow /Helvetica-Narrow-Bold /Helvetica-Narrow-BoldOblique /Helvetica-Narrow-Oblique /NewCenturySchlbk-Roman /NewCenturySchlbk-Bold /NewCenturySchlbk-BoldItalic /NewCenturySchlbk-Italic /Palatino-Bold
 /Palatino-BoldItalic /Palatino-Italic /Palatino-Roman ] {ISOLatin1Encoding reEncode } forall
%%EndProlog
%%BeginSetup
%%EndSetup
newpath  gsave  .25 .25 scale  gsave  0 0 t black[  ] 0 sd 3 lw 1 1 1 c 2268 1538 0 0 bf black 1 1 1 c 2222 738 23 784 bf black 1 1 1 c 2222 739 23 15 bf black 1 1 1 c 2268 1077 0 461 bf black 1 1 1 c 1791 850 363 634 bf black 1791 850 363 634 bl 363
 634 m 1791 X s
 gsave  2268 1077 0 461 C 1642.14 498.507 t 0 r /Helvetica findfont 48.9324 sf 0 0 m (4l Invariant Mass \(GeV\)) show NC gr  363 659 m -25 Y s 414 646 m -12 Y s 465 646 m -12 Y s 516 646 m -12 Y s 568 646 m -12 Y s 619 659 m -25 Y s 670 646 m -12 Y s
 721 646 m -12 Y s 772 646 m -12 Y s 824 646 m -12 Y s 875 659 m -25 Y s 926 646 m -12 Y s 977 646 m -12 Y s 1028 646 m -12 Y s 1079 646 m -12 Y s 1131 659 m -25 Y s 1182 646 m -12 Y s 1233 646 m -12 Y s 1284 646 m -12 Y s 1335 646 m -12 Y s 1387 659
 m -25 Y s 1438 646 m -12 Y s 1489 646 m -12 Y s 1540 646 m -12 Y s 1591 646 m -12 Y s 1642 659 m -25 Y s 1694 646 m -12 Y s 1745 646 m -12 Y s 1796 646 m -12 Y s 1847 646 m -12 Y s 1898 659 m -25 Y s 1950 646 m -12 Y s 2001 646 m -12 Y s 2052 646 m
 -12 Y s 2103 646 m -12 Y s 2154 659 m -25 Y s
 gsave  2268 1077 0 461 C 319.305 586.478 t 0 r /Helvetica findfont 48.9324 sf 0 0 m (550) show NC gr 
 gsave  2268 1077 0 461 C 573.446 586.478 t 0 r /Helvetica findfont 48.9324 sf 0 0 m (600) show NC gr 
 gsave  2268 1077 0 461 C 830.844 586.478 t 0 r /Helvetica findfont 48.9324 sf 0 0 m (650) show NC gr 
 gsave  2268 1077 0 461 C 1088.24 586.478 t 0 r /Helvetica findfont 48.9324 sf 0 0 m (700) show NC gr 
 gsave  2268 1077 0 461 C 1342.38 586.478 t 0 r /Helvetica findfont 48.9324 sf 0 0 m (750) show NC gr 
 gsave  2268 1077 0 461 C 1599.78 586.478 t 0 r /Helvetica findfont 48.9324 sf 0 0 m (800) show NC gr 
 gsave  2268 1077 0 461 C 1853.92 586.478 t 0 r /Helvetica findfont 48.9324 sf 0 0 m (850) show NC gr 
 gsave  2268 1077 0 461 C 2111.32 586.478 t 0 r /Helvetica findfont 48.9324 sf 0 0 m (900) show NC gr  363 1484 m 1791 X s 363 1459 m 25 Y s 414 1471 m 13 Y s 465 1471 m 13 Y s 516 1471 m 13 Y s 568 1471 m 13 Y s 619 1459 m 25 Y s 670 1471 m 13 Y s
 721 1471 m 13 Y s 772 1471 m 13 Y s 824 1471 m 13 Y s 875 1459 m 25 Y s 926 1471 m 13 Y s 977 1471 m 13 Y s 1028 1471 m 13 Y s 1079 1471 m 13 Y s 1131 1459 m 25 Y s 1182 1471 m 13 Y s 1233 1471 m 13 Y s 1284 1471 m 13 Y s 1335 1471 m 13 Y s 1387
 1459 m 25 Y s 1438 1471 m 13 Y s 1489 1471 m 13 Y s 1540 1471 m 13 Y s 1591 1471 m 13 Y s 1642 1459 m 25 Y s 1694 1471 m 13 Y s 1745 1471 m 13 Y s 1796 1471 m 13 Y s 1847 1471 m 13 Y s 1898 1459 m 25 Y s 1950 1471 m 13 Y s 2001 1471 m 13 Y s 2052
 1471 m 13 Y s 2103 1471 m 13 Y s 2154 1459 m 25 Y s 363 634 m 850 Y s
 gsave  2268 1077 0 461 C 120.554 1098.02 t 90 r /Helvetica findfont 48.9324 sf 0 0 m (Events / \( 7 GeV \)) show NC gr  417 634 m -54 X s
 gsave  2268 1077 0 461 C 312.788 632.093 t 0 r /Helvetica findfont 32.6216 sf 0 0 m (\2552) show NC gr 
 gsave  2268 1077 0 461 C 260.657 612.544 t 0 r /Helvetica findfont 48.9324 sf 0 0 m (10) show NC gr  390 683 m -27 X s 390 712 m -27 X s 390 733 m -27 X s 390 749 m -27 X s 390 762 m -27 X s 390 773 m -27 X s 390 783 m -27 X s 390 791 m -27 X s 417
 799 m -54 X s
 gsave  2268 1077 0 461 C 319.305 798.262 t 0 r /Helvetica findfont 32.6216 sf 0 0 m (\2551) show NC gr 
 gsave  2268 1077 0 461 C 267.173 778.713 t 0 r /Helvetica findfont 48.9324 sf 0 0 m (10) show NC gr  390 848 m -27 X s 390 877 m -27 X s 390 898 m -27 X s 390 914 m -27 X s 390 927 m -27 X s 390 938 m -27 X s 390 948 m -27 X s 390 956 m -27 X s 417
 964 m -54 X s
 gsave  2268 1077 0 461 C 342.425 942.769 t 0 r  -27 0 t /Helvetica findfont 48.9324 sf 0 0 m (1) show NC gr  390 1013 m -27 X s 390 1042 m -27 X s 390 1063 m -27 X s 390 1079 m -27 X s 390 1092 m -27 X s 390 1103 m -27 X s 390 1113 m -27 X s 390
 1121 m -27 X s 417 1129 m -54 X s
 gsave  2268 1077 0 461 C 342.425 1107.78 t 0 r  -55 0 t /Helvetica findfont 48.9324 sf 0 0 m (10) show NC gr  390 1178 m -27 X s 390 1207 m -27 X s 390 1228 m -27 X s 390 1244 m -27 X s 390 1257 m -27 X s 390 1268 m -27 X s 390 1278 m -27 X s 390
 1286 m -27 X s 417 1294 m -54 X s
 gsave  2268 1077 0 461 C 322.563 1293.51 t 0 r /Helvetica findfont 32.6216 sf 0 0 m (2) show NC gr 
 gsave  2268 1077 0 461 C 270.432 1273.96 t 0 r /Helvetica findfont 48.9324 sf 0 0 m (10) show NC gr  390 1343 m -27 X s 390 1372 m -27 X s 390 1393 m -27 X s 390 1409 m -27 X s 390 1422 m -27 X s 390 1433 m -27 X s 390 1443 m -27 X s 390 1451 m -27
 X s 417 1459 m -54 X s
 gsave  2268 1077 0 461 C 322.563 1459.68 t 0 r /Helvetica findfont 32.6216 sf 0 0 m (3) show NC gr 
 gsave  2268 1077 0 461 C 270.432 1436.87 t 0 r /Helvetica findfont 48.9324 sf 0 0 m (10) show NC gr  2154 634 m 850 Y s 2101 634 m 53 X s 2127 683 m 27 X s 2127 712 m 27 X s 2127 733 m 27 X s 2127 749 m 27 X s 2127 762 m 27 X s 2127 773 m 27 X s
 2127 783 m 27 X s 2127 791 m 27 X s 2101 799 m 53 X s 2127 848 m 27 X s 2127 877 m 27 X s 2127 898 m 27 X s 2127 914 m 27 X s 2127 927 m 27 X s 2127 938 m 27 X s 2127 948 m 27 X s 2127 956 m 27 X s 2101 964 m 53 X s 2127 1013 m 27 X s 2127 1042 m 27
 X s 2127 1063 m 27 X s 2127 1079 m 27 X s 2127 1092 m 27 X s 2127 1103 m 27 X s 2127 1113 m 27 X s 2127 1121 m 27 X s 2101 1129 m 53 X s 2127 1178 m 27 X s 2127 1207 m 27 X s 2127 1228 m 27 X s 2127 1244 m 27 X s 2127 1257 m 27 X s 2127 1268 m 27 X
 s 2127 1278 m 27 X s 2127 1286 m 27 X s 2101 1294 m 53 X s 2127 1343 m 27 X s 2127 1372 m 27 X s 2127 1393 m 27 X s 2127 1409 m 27 X s 2127 1422 m 27 X s 2127 1433 m 27 X s 2127 1443 m 27 X s 2127 1451 m 27 X s 2101 1459 m 53 X s 381 1042 m -18 X s
 363 1042 m cl s 381 1042 m 18 X s 399 1042 m cl s 381 1042 m 49 Y s 381 1091 m cl s 381 1042 m -56 Y s 381 986 m cl s 417 1042 m -18 X s 399 1042 m cl s 417 1042 m 17 X s 434 1042 m cl s 417 1042 m 49 Y s 417 1091 m cl s 417 1042 m -56 Y s 417 986 m
 cl s 452 634 m -18 X s 434 634 m cl s 452 634 m 18 X s 470 634 m cl s 452 634 m 340 Y s 452 974 m cl s 488 1013 m -18 X s 470 1013 m cl s 488 1013 m 18 X s 506 1013 m cl s 488 1013 m 61 Y s 488 1074 m cl s 488 1013 m -74 Y s 488 939 m cl s 524 1013
 m -18 X s 506 1013 m cl s 524 1013 m 18 X s 542 1013 m cl s 524 1013 m 61 Y s 524 1074 m cl s 524 1013 m -74 Y s 524 939 m cl s 560 1092 m -18 X s 542 1092 m cl s 560 1092 m 18 X s 578 1092 m cl s 560 1092 m 34 Y s 560 1126 m cl s 560 1092 m -36 Y s
 560 1056 m cl s 596 1113 m -18 X s 578 1113 m cl s 596 1113 m 18 X s 614 1113 m cl s 596 1113 m 28 Y s 596 1141 m cl s 596 1113 m -31 Y s 596 1082 m cl s 632 1092 m -18 X s 614 1092 m cl s 632 1092 m 17 X s 649 1092 m cl s 632 1092 m 34 Y s 632 1126
 m cl s 632 1092 m -36 Y s 632 1056 m cl s 667 1013 m -18 X s 649 1013 m cl s 667 1013 m 18 X s 685 1013 m cl s 667 1013 m 61 Y s 667 1074 m cl s 667 1013 m -74 Y s 667 939 m cl s 703 1129 m -18 X s 685 1129 m cl s 703 1129 m 18 X s 721 1129 m cl s
 703 1129 m 25 Y s 703 1154 m cl s 703 1129 m -27 Y s 703 1102 m cl s 739 1092 m -18 X s 721 1092 m cl s 739 1092 m 18 X s 757 1092 m cl s 739 1092 m 34 Y s 739 1126 m cl s 739 1092 m -36 Y s 739 1056 m cl s 775 1142 m -18 X s 757 1142 m cl s 775
 1142 m 18 X s 793 1142 m cl s 775 1142 m 23 Y s 775 1165 m cl s 775 1142 m -24 Y s 775 1118 m cl s 811 1142 m -18 X s 793 1142 m cl s 811 1142 m 18 X s 829 1142 m cl s 811 1142 m 23 Y s 811 1165 m cl s 811 1142 m -24 Y s 811 1118 m cl s 847 1092 m
 -18 X s 829 1092 m cl s 847 1092 m 17 X s 864 1092 m cl s 847 1092 m 34 Y s 847 1126 m cl s 847 1092 m -36 Y s 847 1056 m cl s 882 1153 m -18 X s 864 1153 m cl s 882 1153 m 18 X s 900 1153 m cl s 882 1153 m 21 Y s 882 1174 m cl s 882 1153 m -22 Y s
 882 1131 m cl s 918 1182 m -18 X s 900 1182 m cl s 918 1182 m 18 X s 936 1182 m cl s 918 1182 m 17 Y s 918 1199 m cl s 918 1182 m -18 Y s 918 1164 m cl s 954 1182 m -18 X s 936 1182 m cl s 954 1182 m 18 X s 972 1182 m cl s 954 1182 m 17 Y s 954 1199
 m cl s 954 1182 m -18 Y s 954 1164 m cl s 990 1178 m -18 X s 972 1178 m cl s 990 1178 m 18 X s 1008 1178 m cl s 990 1178 m 18 Y s 990 1196 m cl s 990 1178 m -18 Y s 990 1160 m cl s 1026 1185 m -18 X s 1008 1185 m cl s 1026 1185 m 18 X s 1044 1185 m
 cl s 1026 1185 m 17 Y s 1026 1202 m cl s 1026 1185 m -17 Y s 1026 1168 m cl s 1062 1191 m -18 X s 1044 1191 m cl s 1062 1191 m 17 X s 1079 1191 m cl s 1062 1191 m 16 Y s 1062 1207 m cl s 1062 1191 m -16 Y s 1062 1175 m cl s 1097 1207 m -18 X s 1079
 1207 m cl s 1097 1207 m 18 X s 1115 1207 m cl s 1097 1207 m 14 Y s 1097 1221 m cl s 1097 1207 m -14 Y s 1097 1193 m cl s 1133 1207 m -18 X s 1115 1207 m cl s 1133 1207 m 18 X s 1151 1207 m cl s 1133 1207 m 14 Y s 1133 1221 m cl s 1133 1207 m -14 Y s
 1133 1193 m cl s 1169 1240 m -18 X s 1151 1240 m cl s 1169 1240 m 18 X s 1187 1240 m cl s 1169 1240 m 11 Y s 1169 1251 m cl s 1169 1240 m -12 Y s 1169 1228 m cl s 1205 1240 m -18 X s 1187 1240 m cl s 1205 1240 m 18 X s 1223 1240 m cl s 1205 1240 m
 11 Y s 1205 1251 m cl s 1205 1240 m -12 Y s 1205 1228 m cl s 1241 1263 m -18 X s 1223 1263 m cl s 1241 1263 m 18 X s 1259 1263 m cl s 1241 1263 m 9 Y s 1241 1272 m cl s 1241 1263 m -10 Y s 1241 1253 m cl s 1276 1278 m -17 X s 1259 1278 m cl s 1276
 1278 m 18 X s 1294 1278 m cl s 1276 1278 m 8 Y s 1276 1286 m cl s 1276 1278 m -9 Y s 1276 1269 m cl s 1312 1298 m -18 X s 1294 1298 m cl s 1312 1298 m 18 X s 1330 1298 m cl s 1312 1298 m 7 Y s 1312 1305 m cl s 1312 1298 m -6 Y s 1312 1292 m cl s
 1348 1312 m -18 X s 1330 1312 m cl s 1348 1312 m 18 X s 1366 1312 m cl s 1348 1312 m 7 Y s 1348 1319 m cl s 1348 1312 m -6 Y s 1348 1306 m cl s 1384 1343 m -18 X s 1366 1343 m cl s 1384 1343 m 18 X s 1402 1343 m cl s 1384 1343 m 5 Y s 1384 1348 m cl
 s 1384 1343 m -5 Y s 1384 1338 m cl s 1420 1361 m -18 X s 1402 1361 m cl s 1420 1361 m 18 X s 1438 1361 m cl s 1420 1361 m 5 Y s 1420 1366 m cl s 1420 1361 m -4 Y s 1420 1357 m cl s 1456 1387 m -18 X s 1438 1387 m cl s 1456 1387 m 18 X s 1474 1387 m
 cl s 1456 1387 m 4 Y s 1456 1391 m cl s 1456 1387 m -4 Y s 1456 1383 m cl s 1491 1405 m -17 X s 1474 1405 m cl s 1491 1405 m 18 X s 1509 1405 m cl s 1491 1405 m 4 Y s 1491 1409 m cl s 1491 1405 m -3 Y s 1491 1402 m cl s 1527 1429 m -18 X s 1509 1429
 m cl s 1527 1429 m 18 X s 1545 1429 m cl s 1527 1429 m 3 Y s 1527 1432 m cl s 1527 1429 m -3 Y s 1527 1426 m cl s 1563 1438 m -18 X s 1545 1438 m cl s 1563 1438 m 18 X s 1581 1438 m cl s 1563 1438 m 3 Y s 1563 1441 m cl s 1563 1438 m -2 Y s 1563
 1436 m cl s 1599 1446 m -18 X s 1581 1446 m cl s 1599 1446 m 18 X s 1617 1446 m cl s 1599 1446 m 3 Y s 1599 1449 m cl s 1599 1446 m -2 Y s 1599 1444 m cl s 1635 1449 m -18 X s 1617 1449 m cl s 1635 1449 m 18 X s 1653 1449 m cl s 1635 1449 m 2 Y s
 1635 1451 m cl s 1635 1449 m -2 Y s 1635 1447 m cl s 1671 1441 m -18 X s 1653 1441 m cl s 1671 1441 m 18 X s 1689 1441 m cl s 1671 1441 m 3 Y s 1671 1444 m cl s 1671 1441 m -2 Y s 1671 1439 m cl s 1706 1426 m -17 X s 1689 1426 m cl s 1706 1426 m 18
 X s 1724 1426 m cl s 1706 1426 m 3 Y s 1706 1429 m cl s 1706 1426 m -3 Y s 1706 1423 m cl s 1742 1411 m -18 X s 1724 1411 m cl s 1742 1411 m 18 X s 1760 1411 m cl s 1742 1411 m 3 Y s 1742 1414 m cl s 1742 1411 m -3 Y s 1742 1408 m cl s 1778 1382 m
 -18 X s 1760 1382 m cl s 1778 1382 m 18 X s 1796 1382 m cl s 1778 1382 m 4 Y s 1778 1386 m cl s 1778 1382 m -4 Y s 1778 1378 m cl s 1814 1357 m -18 X s 1796 1357 m cl s 1814 1357 m 18 X s 1832 1357 m cl s 1814 1357 m 5 Y s 1814 1362 m cl s 1814 1357
 m -5 Y s 1814 1352 m cl s 1850 1341 m -18 X s 1832 1341 m cl s 1850 1341 m 18 X s 1868 1341 m cl s 1850 1341 m 6 Y s 1850 1347 m cl s 1850 1341 m -5 Y s 1850 1336 m cl s 1886 1304 m -18 X s 1868 1304 m cl s 1886 1304 m 18 X s 1904 1304 m cl s 1886
 1304 m 6 Y s 1886 1310 m cl s 1886 1304 m -7 Y s 1886 1297 m cl s 1921 1265 m -17 X s 1904 1265 m cl s 1921 1265 m 18 X s 1939 1265 m cl s 1921 1265 m 9 Y s 1921 1274 m cl s 1921 1265 m -9 Y s 1921 1256 m cl s 1957 1224 m -18 X s 1939 1224 m cl s
 1957 1224 m 18 X s 1975 1224 m cl s 1957 1224 m 13 Y s 1957 1237 m cl s 1957 1224 m -12 Y s 1957 1212 m cl s 1993 1214 m -18 X s 1975 1214 m cl s 1993 1214 m 18 X s 2011 1214 m cl s 1993 1214 m 14 Y s 1993 1228 m cl s 1993 1214 m -13 Y s 1993 1201 m
 cl s 2029 1171 m -18 X s 2011 1171 m cl s 2029 1171 m 18 X s 2047 1171 m cl s 2029 1171 m 18 Y s 2029 1189 m cl s 2029 1171 m -19 Y s 2029 1152 m cl s 2065 1167 m -18 X s 2047 1167 m cl s 2065 1167 m 18 X s 2083 1167 m cl s 2065 1167 m 19 Y s 2065
 1186 m cl s 2065 1167 m -20 Y s 2065 1147 m cl s 2101 1142 m -18 X s 2083 1142 m cl s 2101 1142 m 18 X s 2119 1142 m cl s 2101 1142 m 23 Y s 2101 1165 m cl s 2101 1142 m -24 Y s 2101 1118 m cl s 2136 1063 m -17 X s 2119 1063 m cl s 2136 1063 m 18 X
 s 2154 1063 m cl s 2136 1063 m 42 Y s 2136 1105 m cl s 2136 1063 m -47 Y s 2136 1016 m cl s /w 31 def /w2 {w 2 div} def /w3 {w 3 div} def 381 1042 417 1042 2 { m20} R 488 1013 524 1013 560 1092 596 1113 632 1092 667 1013 703 1129 739 1092 775 1142
 811 1142 847 1092 882 1153 918 1182 954 1182 990 1178 1026 1185 1062 1191 1097 1207 1133 1207 1169 1240 1205 1240 1241 1263 1276 1278 1312 1298 1348 1312 1384 1343 1420 1361 1456 1387 1491 1405 1527 1429 1563 1438 1599 1446 1635 1449 1671 1441 1706
 1426 1742 1411 1778 1382 1814 1357 1850 1341 1886 1304 1921 1265 1957 1224 1993 1214 2029 1171 2065 1167 2101 1142 2136 1063 47 { m20} R 0 1 1 c 1 1 0 c black 1 1 0 c 363 1034 m 36 7 d 35 8 d 36 9 d 36 8 d 36 8 d 36 8 d 36 9 d 35 8 d 36 9 d 36 9 d
 36 9 d 36 9 d 36 9 d 35 9 d 36 10 d 36 9 d 36 10 d 36 10 d 36 11 d 35 11 d 36 11 d 36 11 d 36 12 d 36 13 d 36 13 d 35 14 d 18 8 d 18 9 d 18 11 d 18 11 d 18 12 d 9 6 d 9 7 d 9 7 d 9 6 d 9 7 d 9 6 d 9 7 d 9 6 d 18 11 d 17 11 d 18 9 d 18 8 d 9 3 d 9 4
 d 9 3 d 9 2 d 9 2 d 9 2 d 9 2 d 9 1 d 27 X 9 -1 d 9 -1 d 9 -1 d 9 -2 d 9 -2 d 9 -3 d 9 -3 d 8 -3 d 9 -4 d 18 -8 d 18 -10 d 18 -10 d 18 -12 d 9 -6 d 9 -6 d 9 -7 d 9 -7 d 9 -7 d 9 -7 d 9 -7 d 9 -7 d 18 -15 d 18 -14 d 18 -14 d 17 -14 d 18 -14 d 18 -14
 d 18 -14 d 36 -28 d 36 -30 d 36 -31 d 36 -34 d 35 -36 d -59 Y -35 48 d -36 43 d -36 40 d -36 36 d -36 34 d -18 16 d -18 16 d -18 16 d -17 15 d -18 15 d -18 15 d -18 15 d -9 7 d -9 7 d -9 7 d -9 8 d -9 7 d -9 6 d -9 7 d -9 7 d -18 12 d -18 11 d -18
 11 d -18 9 d -9 3 d -8 4 d -9 3 d -9 2 d -9 2 d -9 2 d -9 2 d -9 1 d -9 X -9 1 d -9 -1 d -9 X -9 -1 d -9 -1 d -9 -2 d -9 -2 d -9 -3 d -9 -3 d -9 -3 d -9 -4 d -18 -9 d -18 -10 d -17 -11 d -18 -13 d -9 -6 d -9 -7 d -9 -6 d -9 -7 d -9 -7 d -9 -6 d -9
 -7 d -9 -6 d -18 -12 d -18 -12 d -18 -11 d -18 -10 d -18 -10 d -35 -16 d -36 -14 d -36 -12 d -36 -11 d -36 -11 d -36 -11 d -35 -11 d -36 -11 d -36 -11 d -36 -11 d -36 -12 d -36 -11 d -35 -11 d -36 -10 d -36 -11 d -36 -11 d -36 -10 d -36 -11 d -35
 -10 d -36 -10 d -36 -10 d -36 -10 d -36 -10 d -36 -9 d -35 -10 d -36 -10 d f 0 1 1 c 0 1 0 c black 0 1 0 c 363 1025 m 36 8 d 35 8 d 36 9 d 36 8 d 36 9 d 36 8 d 36 9 d 35 9 d 36 9 d 36 9 d 36 9 d 36 10 d 36 9 d 35 10 d 36 10 d 36 10 d 36 10 d 36 10 d
 36 11 d 35 11 d 36 11 d 36 11 d 36 12 d 36 12 d 36 14 d 35 14 d 18 9 d 18 9 d 18 10 d 18 12 d 18 12 d 9 7 d 9 6 d 9 7 d 9 6 d 9 7 d 9 6 d 9 7 d 9 6 d 18 12 d 17 10 d 18 10 d 18 8 d 9 4 d 9 3 d 9 3 d 9 2 d 9 2 d 9 2 d 9 2 d 9 1 d 36 X 9 -2 d 9 -1 d 9
 -2 d 9 -2 d 9 -3 d 9 -3 d 8 -3 d 9 -4 d 18 -8 d 18 -10 d 18 -11 d 18 -11 d 9 -7 d 9 -6 d 9 -7 d 9 -7 d 9 -6 d 9 -8 d 9 -7 d 9 -7 d 18 -15 d 18 -14 d 18 -15 d 17 -14 d 18 -14 d 18 -14 d 18 -15 d 36 -29 d 36 -31 d 36 -33 d 36 -35 d 35 -38 d -28 Y -35
 43 d -36 39 d -36 37 d -36 34 d -36 32 d -18 16 d -18 15 d -18 16 d -17 15 d -18 15 d -18 14 d -18 15 d -9 7 d -9 7 d -9 8 d -9 7 d -9 7 d -9 6 d -9 7 d -9 6 d -18 13 d -18 11 d -18 10 d -18 8 d -9 4 d -8 4 d -9 3 d -9 2 d -9 2 d -9 2 d -9 2 d -9 1
 d -9 X -9 1 d -9 -1 d -9 X -9 -1 d -9 -1 d -9 -2 d -9 -2 d -9 -3 d -9 -3 d -9 -3 d -9 -4 d -18 -8 d -18 -10 d -17 -12 d -18 -12 d -9 -6 d -9 -7 d -9 -6 d -9 -7 d -9 -7 d -9 -6 d -9 -6 d -9 -7 d -18 -12 d -18 -12 d -18 -11 d -18 -10 d -18 -9 d -35
 -15 d -36 -14 d -36 -12 d -36 -11 d -36 -11 d -36 -12 d -35 -11 d -36 -11 d -36 -10 d -36 -11 d -36 -11 d -36 -10 d -35 -11 d -36 -10 d -36 -10 d -36 -10 d -36 -10 d -36 -10 d -35 -10 d -36 -9 d -36 -10 d -36 -9 d -36 -9 d -36 -9 d -35 -9 d -36 -9 d
 f 0 0 1 c 9 lw black 0 0 1 c 363 1016 m 36 8 d 35 9 d 36 8 d 36 9 d 36 9 d 36 9 d 36 9 d 35 9 d 36 10 d 36 9 d 36 10 d 36 10 d 36 9 d 35 10 d 36 11 d 36 10 d 36 10 d 36 11 d 36 11 d 35 11 d 36 11 d 36 11 d 36 12 d 36 12 d 36 13 d 35 15 d 18 9 d 18
 10 d 18 10 d 18 12 d 18 12 d 9 7 d 9 6 d 9 7 d 9 6 d 9 7 d 9 6 d 9 7 d 9 6 d 18 12 d 17 11 d 18 10 d 18 8 d 9 4 d 9 3 d 9 3 d 9 2 d 9 3 d 9 1 d 9 2 d 9 1 d 36 X 9 -1 d 9 -2 d 9 -2 d 9 -2 d 9 -3 d 9 -3 d 8 -3 d 9 -4 d 18 -8 d 18 -10 d 18 -11 d 18 -12
 d 9 -6 d 9 -7 d 9 -7 d 9 -6 d 9 -7 d 9 -8 d 9 -7 d 9 -7 d 18 -15 d 18 -14 d 18 -15 d 17 -15 d 18 -14 d 18 -15 d 18 -15 d 36 -31 d 36 -32 d 36 -35 d 36 -37 d 35 -39 d s black 3 lw 381 1042 m -18 X s 363 1042 m cl s 381 1042 m 18 X s 399 1042 m cl s
 381 1042 m 49 Y s 381 1091 m cl s 381 1042 m -56 Y s 381 986 m cl s 417 1042 m -18 X s 399 1042 m cl s 417 1042 m 17 X s 434 1042 m cl s 417 1042 m 49 Y s 417 1091 m cl s 417 1042 m -56 Y s 417 986 m cl s 452 634 m -18 X s 434 634 m cl s 452 634 m
 18 X s 470 634 m cl s 452 634 m 340 Y s 452 974 m cl s 488 1013 m -18 X s 470 1013 m cl s 488 1013 m 18 X s 506 1013 m cl s 488 1013 m 61 Y s 488 1074 m cl s 488 1013 m -74 Y s 488 939 m cl s 524 1013 m -18 X s 506 1013 m cl s 524 1013 m 18 X s 542
 1013 m cl s 524 1013 m 61 Y s 524 1074 m cl s 524 1013 m -74 Y s 524 939 m cl s 560 1092 m -18 X s 542 1092 m cl s 560 1092 m 18 X s 578 1092 m cl s 560 1092 m 34 Y s 560 1126 m cl s 560 1092 m -36 Y s 560 1056 m cl s 596 1113 m -18 X s 578 1113 m
 cl s 596 1113 m 18 X s 614 1113 m cl s 596 1113 m 28 Y s 596 1141 m cl s 596 1113 m -31 Y s 596 1082 m cl s 632 1092 m -18 X s 614 1092 m cl s 632 1092 m 17 X s 649 1092 m cl s 632 1092 m 34 Y s 632 1126 m cl s 632 1092 m -36 Y s 632 1056 m cl s 667
 1013 m -18 X s 649 1013 m cl s 667 1013 m 18 X s 685 1013 m cl s 667 1013 m 61 Y s 667 1074 m cl s 667 1013 m -74 Y s 667 939 m cl s 703 1129 m -18 X s 685 1129 m cl s 703 1129 m 18 X s 721 1129 m cl s 703 1129 m 25 Y s 703 1154 m cl s 703 1129 m
 -27 Y s 703 1102 m cl s 739 1092 m -18 X s 721 1092 m cl s 739 1092 m 18 X s 757 1092 m cl s 739 1092 m 34 Y s 739 1126 m cl s 739 1092 m -36 Y s 739 1056 m cl s 775 1142 m -18 X s 757 1142 m cl s 775 1142 m 18 X s 793 1142 m cl s 775 1142 m 23 Y s
 775 1165 m cl s 775 1142 m -24 Y s 775 1118 m cl s 811 1142 m -18 X s 793 1142 m cl s 811 1142 m 18 X s 829 1142 m cl s 811 1142 m 23 Y s 811 1165 m cl s 811 1142 m -24 Y s 811 1118 m cl s 847 1092 m -18 X s 829 1092 m cl s 847 1092 m 17 X s 864
 1092 m cl s 847 1092 m 34 Y s 847 1126 m cl s 847 1092 m -36 Y s 847 1056 m cl s 882 1153 m -18 X s 864 1153 m cl s 882 1153 m 18 X s 900 1153 m cl s 882 1153 m 21 Y s 882 1174 m cl s 882 1153 m -22 Y s 882 1131 m cl s 918 1182 m -18 X s 900 1182 m
 cl s 918 1182 m 18 X s 936 1182 m cl s 918 1182 m 17 Y s 918 1199 m cl s 918 1182 m -18 Y s 918 1164 m cl s 954 1182 m -18 X s 936 1182 m cl s 954 1182 m 18 X s 972 1182 m cl s 954 1182 m 17 Y s 954 1199 m cl s 954 1182 m -18 Y s 954 1164 m cl s 990
 1178 m -18 X s 972 1178 m cl s 990 1178 m 18 X s 1008 1178 m cl s 990 1178 m 18 Y s 990 1196 m cl s 990 1178 m -18 Y s 990 1160 m cl s 1026 1185 m -18 X s 1008 1185 m cl s 1026 1185 m 18 X s 1044 1185 m cl s 1026 1185 m 17 Y s 1026 1202 m cl s 1026
 1185 m -17 Y s 1026 1168 m cl s 1062 1191 m -18 X s 1044 1191 m cl s 1062 1191 m 17 X s 1079 1191 m cl s 1062 1191 m 16 Y s 1062 1207 m cl s 1062 1191 m -16 Y s 1062 1175 m cl s 1097 1207 m -18 X s 1079 1207 m cl s 1097 1207 m 18 X s 1115 1207 m cl
 s 1097 1207 m 14 Y s 1097 1221 m cl s 1097 1207 m -14 Y s 1097 1193 m cl s 1133 1207 m -18 X s 1115 1207 m cl s 1133 1207 m 18 X s 1151 1207 m cl s 1133 1207 m 14 Y s 1133 1221 m cl s 1133 1207 m -14 Y s 1133 1193 m cl s 1169 1240 m -18 X s 1151
 1240 m cl s 1169 1240 m 18 X s 1187 1240 m cl s 1169 1240 m 11 Y s 1169 1251 m cl s 1169 1240 m -12 Y s 1169 1228 m cl s 1205 1240 m -18 X s 1187 1240 m cl s 1205 1240 m 18 X s 1223 1240 m cl s 1205 1240 m 11 Y s 1205 1251 m cl s 1205 1240 m -12 Y s
 1205 1228 m cl s 1241 1263 m -18 X s 1223 1263 m cl s 1241 1263 m 18 X s 1259 1263 m cl s 1241 1263 m 9 Y s 1241 1272 m cl s 1241 1263 m -10 Y s 1241 1253 m cl s 1276 1278 m -17 X s 1259 1278 m cl s 1276 1278 m 18 X s 1294 1278 m cl s 1276 1278 m 8
 Y s 1276 1286 m cl s 1276 1278 m -9 Y s 1276 1269 m cl s 1312 1298 m -18 X s 1294 1298 m cl s 1312 1298 m 18 X s 1330 1298 m cl s 1312 1298 m 7 Y s 1312 1305 m cl s 1312 1298 m -6 Y s 1312 1292 m cl s 1348 1312 m -18 X s 1330 1312 m cl s 1348 1312 m
 18 X s 1366 1312 m cl s 1348 1312 m 7 Y s 1348 1319 m cl s 1348 1312 m -6 Y s 1348 1306 m cl s 1384 1343 m -18 X s 1366 1343 m cl s 1384 1343 m 18 X s 1402 1343 m cl s 1384 1343 m 5 Y s 1384 1348 m cl s 1384 1343 m -5 Y s 1384 1338 m cl s 1420 1361
 m -18 X s 1402 1361 m cl s 1420 1361 m 18 X s 1438 1361 m cl s 1420 1361 m 5 Y s 1420 1366 m cl s 1420 1361 m -4 Y s 1420 1357 m cl s 1456 1387 m -18 X s 1438 1387 m cl s 1456 1387 m 18 X s 1474 1387 m cl s 1456 1387 m 4 Y s 1456 1391 m cl s 1456
 1387 m -4 Y s 1456 1383 m cl s 1491 1405 m -17 X s 1474 1405 m cl s 1491 1405 m 18 X s 1509 1405 m cl s 1491 1405 m 4 Y s 1491 1409 m cl s 1491 1405 m -3 Y s 1491 1402 m cl s 1527 1429 m -18 X s 1509 1429 m cl s 1527 1429 m 18 X s 1545 1429 m cl s
 1527 1429 m 3 Y s 1527 1432 m cl s 1527 1429 m -3 Y s 1527 1426 m cl s 1563 1438 m -18 X s 1545 1438 m cl s 1563 1438 m 18 X s 1581 1438 m cl s 1563 1438 m 3 Y s 1563 1441 m cl s 1563 1438 m -2 Y s 1563 1436 m cl s 1599 1446 m -18 X s 1581 1446 m cl
 s 1599 1446 m 18 X s 1617 1446 m cl s 1599 1446 m 3 Y s 1599 1449 m cl s 1599 1446 m -2 Y s 1599 1444 m cl s 1635 1449 m -18 X s 1617 1449 m cl s 1635 1449 m 18 X s 1653 1449 m cl s 1635 1449 m 2 Y s 1635 1451 m cl s 1635 1449 m -2 Y s 1635 1447 m
 cl s 1671 1441 m -18 X s 1653 1441 m cl s 1671 1441 m 18 X s 1689 1441 m cl s 1671 1441 m 3 Y s 1671 1444 m cl s 1671 1441 m -2 Y s 1671 1439 m cl s 1706 1426 m -17 X s 1689 1426 m cl s 1706 1426 m 18 X s 1724 1426 m cl s 1706 1426 m 3 Y s 1706 1429
 m cl s 1706 1426 m -3 Y s 1706 1423 m cl s 1742 1411 m -18 X s 1724 1411 m cl s 1742 1411 m 18 X s 1760 1411 m cl s 1742 1411 m 3 Y s 1742 1414 m cl s 1742 1411 m -3 Y s 1742 1408 m cl s 1778 1382 m -18 X s 1760 1382 m cl s 1778 1382 m 18 X s 1796
 1382 m cl s 1778 1382 m 4 Y s 1778 1386 m cl s 1778 1382 m -4 Y s 1778 1378 m cl s 1814 1357 m -18 X s 1796 1357 m cl s 1814 1357 m 18 X s 1832 1357 m cl s 1814 1357 m 5 Y s 1814 1362 m cl s 1814 1357 m -5 Y s 1814 1352 m cl s 1850 1341 m -18 X s
 1832 1341 m cl s 1850 1341 m 18 X s 1868 1341 m cl s 1850 1341 m 6 Y s 1850 1347 m cl s 1850 1341 m -5 Y s 1850 1336 m cl s 1886 1304 m -18 X s 1868 1304 m cl s 1886 1304 m 18 X s 1904 1304 m cl s 1886 1304 m 6 Y s 1886 1310 m cl s 1886 1304 m -7 Y
 s 1886 1297 m cl s 1921 1265 m -17 X s 1904 1265 m cl s 1921 1265 m 18 X s 1939 1265 m cl s 1921 1265 m 9 Y s 1921 1274 m cl s 1921 1265 m -9 Y s 1921 1256 m cl s 1957 1224 m -18 X s 1939 1224 m cl s 1957 1224 m 18 X s 1975 1224 m cl s 1957 1224 m
 13 Y s 1957 1237 m cl s 1957 1224 m -12 Y s 1957 1212 m cl s 1993 1214 m -18 X s 1975 1214 m cl s 1993 1214 m 18 X s 2011 1214 m cl s 1993 1214 m 14 Y s 1993 1228 m cl s 1993 1214 m -13 Y s 1993 1201 m cl s 2029 1171 m -18 X s 2011 1171 m cl s 2029
 1171 m 18 X s 2047 1171 m cl s 2029 1171 m 18 Y s 2029 1189 m cl s 2029 1171 m -19 Y s 2029 1152 m cl s 2065 1167 m -18 X s 2047 1167 m cl s 2065 1167 m 18 X s 2083 1167 m cl s 2065 1167 m 19 Y s 2065 1186 m cl s 2065 1167 m -20 Y s 2065 1147 m cl s
 2101 1142 m -18 X s 2083 1142 m cl s 2101 1142 m 18 X s 2119 1142 m cl s 2101 1142 m 23 Y s 2101 1165 m cl s 2101 1142 m -24 Y s 2101 1118 m cl s 2136 1063 m -17 X s 2119 1063 m cl s 2136 1063 m 18 X s 2154 1063 m cl s 2136 1063 m 42 Y s 2136 1105 m
 cl s 2136 1063 m -47 Y s 2136 1016 m cl s 381 1042 417 1042 2 { m20} R 488 1013 524 1013 560 1092 596 1113 632 1092 667 1013 703 1129 739 1092 775 1142 811 1142 847 1092 882 1153 918 1182 954 1182 990 1178 1026 1185 1062 1191 1097 1207 1133 1207
 1169 1240 1205 1240 1241 1263 1276 1278 1312 1298 1348 1312 1384 1343 1420 1361 1456 1387 1491 1405 1527 1429 1563 1438 1599 1446 1635 1449 1671 1441 1706 1426 1742 1411 1778 1382 1814 1357 1850 1341 1886 1304 1921 1265 1957 1224 1993 1214 2029 1171
 2065 1167 2101 1142 2136 1063 47 { m20} R 0.52 0.76 0.64 c[ 4 8] 0 sd 9 lw black 0.52 0.76 0.64 c 363 1016 m 36 8 d 35 9 d 36 8 d 36 9 d 36 9 d 36 9 d 36 9 d 35 9 d 36 10 d 36 9 d 36 10 d 36 10 d 36 9 d 35 10 d 36 11 d 36 10 d 36 10 d 36 11 d 36 11
 d 35 11 d 36 11 d 36 11 d 36 11 d 36 12 d 36 12 d 17 6 d 18 6 d 18 6 d 18 6 d 18 6 d 18 7 d 18 6 d 18 6 d 18 7 d 18 6 d 36 12 d 17 5 d 18 5 d 18 3 d 18 3 d 9 2 d 9 1 d 9 1 d 9 1 d 18 X 9 1 d 18 X 9 -1 d 9 X 9 -1 d 9 X 9 -1 d 18 -3 d 17 -3 d 18 -4 d
 18 -4 d 18 -5 d 36 -13 d 36 -15 d 18 -8 d 18 -9 d 18 -10 d 18 -11 d 17 -11 d 18 -12 d 18 -13 d 18 -13 d 18 -14 d 18 -15 d 18 -15 d 18 -16 d 18 -17 d 18 -17 d 36 -37 d 35 -39 d s 0.54 0.66 0.63 c black 0.54 0.66 0.63 c 1115 634 m s 1115 634 m 36 109
 d 36 100 d 36 93 d 36 85 d 35 76 d 18 35 d 18 33 d 18 32 d 18 29 d 9 14 d 9 13 d 9 13 d 9 12 d 9 12 d 9 11 d 9 11 d 9 10 d 9 10 d 9 9 d 9 9 d 9 8 d 17 15 d 18 13 d 18 11 d 9 5 d 9 4 d 9 4 d 9 3 d 9 3 d 9 2 d 9 2 d 9 1 d 9 1 d 18 X 9 -1 d 9 -1 d 9 -2
 d 9 -2 d 9 -3 d 9 -4 d 9 -3 d 8 -5 d 9 -5 d 18 -11 d 18 -13 d 18 -15 d 9 -9 d 9 -8 d 9 -10 d 9 -10 d 9 -10 d 9 -11 d 9 -11 d 9 -12 d 9 -13 d 9 -13 d 9 -13 d 9 -14 d 18 -29 d 18 -32 d 17 -33 d 18 -35 d 36 -77 d 36 -85 d 36 -93 d 36 -101 d 34 -104 d s
 black[  ] 0 sd 3 lw 363 634 m 1791 X s 363 659 m -25 Y s 414 646 m -12 Y s 465 646 m -12 Y s 516 646 m -12 Y s 568 646 m -12 Y s 619 659 m -25 Y s 670 646 m -12 Y s 721 646 m -12 Y s 772 646 m -12 Y s 824 646 m -12 Y s 875 659 m -25 Y s 926 646 m
 -12 Y s 977 646 m -12 Y s 1028 646 m -12 Y s 1079 646 m -12 Y s 1131 659 m -25 Y s 1182 646 m -12 Y s 1233 646 m -12 Y s 1284 646 m -12 Y s 1335 646 m -12 Y s 1387 659 m -25 Y s 1438 646 m -12 Y s 1489 646 m -12 Y s 1540 646 m -12 Y s 1591 646 m -12
 Y s 1642 659 m -25 Y s 1694 646 m -12 Y s 1745 646 m -12 Y s 1796 646 m -12 Y s 1847 646 m -12 Y s 1898 659 m -25 Y s 1950 646 m -12 Y s 2001 646 m -12 Y s 2052 646 m -12 Y s 2103 646 m -12 Y s 2154 659 m -25 Y s 363 1484 m 1791 X s 363 1459 m 25 Y
 s 414 1471 m 13 Y s 465 1471 m 13 Y s 516 1471 m 13 Y s 568 1471 m 13 Y s 619 1459 m 25 Y s 670 1471 m 13 Y s 721 1471 m 13 Y s 772 1471 m 13 Y s 824 1471 m 13 Y s 875 1459 m 25 Y s 926 1471 m 13 Y s 977 1471 m 13 Y s 1028 1471 m 13 Y s 1079 1471 m
 13 Y s 1131 1459 m 25 Y s 1182 1471 m 13 Y s 1233 1471 m 13 Y s 1284 1471 m 13 Y s 1335 1471 m 13 Y s 1387 1459 m 25 Y s 1438 1471 m 13 Y s 1489 1471 m 13 Y s 1540 1471 m 13 Y s 1591 1471 m 13 Y s 1642 1459 m 25 Y s 1694 1471 m 13 Y s 1745 1471 m 13
 Y s 1796 1471 m 13 Y s 1847 1471 m 13 Y s 1898 1459 m 25 Y s 1950 1471 m 13 Y s 2001 1471 m 13 Y s 2052 1471 m 13 Y s 2103 1471 m 13 Y s 2154 1459 m 25 Y s 363 634 m 850 Y s 417 634 m -54 X s 390 683 m -27 X s 390 712 m -27 X s 390 733 m -27 X s 390
 749 m -27 X s 390 762 m -27 X s 390 773 m -27 X s 390 783 m -27 X s 390 791 m -27 X s 417 799 m -54 X s 390 848 m -27 X s 390 877 m -27 X s 390 898 m -27 X s 390 914 m -27 X s 390 927 m -27 X s 390 938 m -27 X s 390 948 m -27 X s 390 956 m -27 X s
 417 964 m -54 X s 390 1013 m -27 X s 390 1042 m -27 X s 390 1063 m -27 X s 390 1079 m -27 X s 390 1092 m -27 X s 390 1103 m -27 X s 390 1113 m -27 X s 390 1121 m -27 X s 417 1129 m -54 X s 390 1178 m -27 X s 390 1207 m -27 X s 390 1228 m -27 X s 390
 1244 m -27 X s 390 1257 m -27 X s 390 1268 m -27 X s 390 1278 m -27 X s 390 1286 m -27 X s 417 1294 m -54 X s 390 1343 m -27 X s 390 1372 m -27 X s 390 1393 m -27 X s 390 1409 m -27 X s 390 1422 m -27 X s 390 1433 m -27 X s 390 1443 m -27 X s 390
 1451 m -27 X s 417 1459 m -54 X s 2154 634 m 850 Y s 2101 634 m 53 X s 2127 683 m 27 X s 2127 712 m 27 X s 2127 733 m 27 X s 2127 749 m 27 X s 2127 762 m 27 X s 2127 773 m 27 X s 2127 783 m 27 X s 2127 791 m 27 X s 2101 799 m 53 X s 2127 848 m 27 X
 s 2127 877 m 27 X s 2127 898 m 27 X s 2127 914 m 27 X s 2127 927 m 27 X s 2127 938 m 27 X s 2127 948 m 27 X s 2127 956 m 27 X s 2101 964 m 53 X s 2127 1013 m 27 X s 2127 1042 m 27 X s 2127 1063 m 27 X s 2127 1079 m 27 X s 2127 1092 m 27 X s 2127
 1103 m 27 X s 2127 1113 m 27 X s 2127 1121 m 27 X s 2101 1129 m 53 X s 2127 1178 m 27 X s 2127 1207 m 27 X s 2127 1228 m 27 X s 2127 1244 m 27 X s 2127 1257 m 27 X s 2127 1268 m 27 X s 2127 1278 m 27 X s 2127 1286 m 27 X s 2101 1294 m 53 X s 2127
 1343 m 27 X s 2127 1372 m 27 X s 2127 1393 m 27 X s 2127 1409 m 27 X s 2127 1422 m 27 X s 2127 1433 m 27 X s 2127 1443 m 27 X s 2127 1451 m 27 X s 2101 1459 m 53 X s
 gsave  2268 1077 0 461 C 677.708 1215.31 t 0 r /Helvetica findfont 58.7189 sf 0 0 m (4mu) show NC gr  1 1 1 c 453 161 454 1269 bf black
 gsave  2268 1077 0 461 C 566.929 1371.71 t 0 r /Helvetica-Bold findfont 48.9324 sf 0 0 m (MC15) show NC gr  510 1390 m20
 gsave  2268 1077 0 461 C 566.929 1293.51 t 0 r /Helvetica-Bold findfont 48.9324 sf 0 0 m (Projection of Signal pdf) show NC gr  0 0 1 c 9 lw 471 1309 m 79 X s black 3 lw 1 1 1 c 2268 461 0 0 bf black 1 1 1 c 1791 364 363 74 bf black 1791 364 363 74
 bl 363 74 m 1791 X s
 gsave  2268 461 0 0 C 1915.83 13.0329 t 0 r /Helvetica findfont 22.9045 sf 0 0 m (4l Invariant Mass \(GeV\)) show NC gr  363 85 m -11 Y s 414 79 m -5 Y s 465 79 m -5 Y s 516 79 m -5 Y s 568 79 m -5 Y s 619 85 m -11 Y s 670 79 m -5 Y s 721 79 m -5 Y
 s 772 79 m -5 Y s 824 79 m -5 Y s 875 85 m -11 Y s 926 79 m -5 Y s 977 79 m -5 Y s 1028 79 m -5 Y s 1079 79 m -5 Y s 1131 85 m -11 Y s 1182 79 m -5 Y s 1233 79 m -5 Y s 1284 79 m -5 Y s 1335 79 m -5 Y s 1387 85 m -11 Y s 1438 79 m -5 Y s 1489 79 m
 -5 Y s 1540 79 m -5 Y s 1591 79 m -5 Y s 1642 85 m -11 Y s 1694 79 m -5 Y s 1745 79 m -5 Y s 1796 79 m -5 Y s 1847 79 m -5 Y s 1898 85 m -11 Y s 1950 79 m -5 Y s 2001 79 m -5 Y s 2052 79 m -5 Y s 2103 79 m -5 Y s 2154 85 m -11 Y s
 gsave  2268 461 0 0 C 342.112 55.3896 t 0 r /Helvetica findfont 22.9045 sf 0 0 m (550) show NC gr 
 gsave  2268 461 0 0 C 596.253 55.3896 t 0 r /Helvetica findfont 22.9045 sf 0 0 m (600) show NC gr 
 gsave  2268 461 0 0 C 853.652 55.3896 t 0 r /Helvetica findfont 22.9045 sf 0 0 m (650) show NC gr 
 gsave  2268 461 0 0 C 1111.05 55.3896 t 0 r /Helvetica findfont 22.9045 sf 0 0 m (700) show NC gr 
 gsave  2268 461 0 0 C 1365.19 55.3896 t 0 r /Helvetica findfont 22.9045 sf 0 0 m (750) show NC gr 
 gsave  2268 461 0 0 C 1622.59 55.3896 t 0 r /Helvetica findfont 22.9045 sf 0 0 m (800) show NC gr 
 gsave  2268 461 0 0 C 1876.73 55.3896 t 0 r /Helvetica findfont 22.9045 sf 0 0 m (850) show NC gr 
 gsave  2268 461 0 0 C 2134.13 55.3896 t 0 r /Helvetica findfont 22.9045 sf 0 0 m (900) show NC gr  363 438 m 1791 X s 363 427 m 11 Y s 414 433 m 5 Y s 465 433 m 5 Y s 516 433 m 5 Y s 568 433 m 5 Y s 619 427 m 11 Y s 670 433 m 5 Y s 721 433 m 5 Y s
 772 433 m 5 Y s 824 433 m 5 Y s 875 427 m 11 Y s 926 433 m 5 Y s 977 433 m 5 Y s 1028 433 m 5 Y s 1079 433 m 5 Y s 1131 427 m 11 Y s 1182 433 m 5 Y s 1233 433 m 5 Y s 1284 433 m 5 Y s 1335 433 m 5 Y s 1387 427 m 11 Y s 1438 433 m 5 Y s 1489 433 m 5
 Y s 1540 433 m 5 Y s 1591 433 m 5 Y s 1642 427 m 11 Y s 1694 433 m 5 Y s 1745 433 m 5 Y s 1796 433 m 5 Y s 1847 433 m 5 Y s 1898 427 m 11 Y s 1950 433 m 5 Y s 2001 433 m 5 Y s 2052 433 m 5 Y s 2103 433 m 5 Y s 2154 427 m 11 Y s 363 74 m 364 Y s 417
 74 m -54 X s 390 81 m -27 X s 390 88 m -27 X s 390 96 m -27 X s 390 103 m -27 X s 417 110 m -54 X s 390 118 m -27 X s 390 125 m -27 X s 390 132 m -27 X s 390 139 m -27 X s 417 147 m -54 X s 390 154 m -27 X s 390 161 m -27 X s 390 169 m -27 X s 390
 176 m -27 X s 417 183 m -54 X s 390 190 m -27 X s 390 198 m -27 X s 390 205 m -27 X s 390 212 m -27 X s 417 220 m -54 X s 390 227 m -27 X s 390 234 m -27 X s 390 241 m -27 X s 390 249 m -27 X s 417 256 m -54 X s 390 263 m -27 X s 390 271 m -27 X s
 390 278 m -27 X s 390 285 m -27 X s 417 293 m -54 X s 390 300 m -27 X s 390 307 m -27 X s 390 314 m -27 X s 390 322 m -27 X s 417 329 m -54 X s 390 336 m -27 X s 390 344 m -27 X s 390 351 m -27 X s 390 358 m -27 X s 417 365 m -54 X s 390 373 m -27 X
 s 390 380 m -27 X s 390 387 m -27 X s 390 395 m -27 X s 417 402 m -54 X s 390 409 m -27 X s 390 416 m -27 X s 390 424 m -27 X s 390 431 m -27 X s 417 438 m -54 X s
 gsave  2268 461 0 0 C 329.08 65.1643 t 0 r /Helvetica findfont 22.9045 sf 0 0 m (\2555) show NC gr 
 gsave  2268 461 0 0 C 329.08 101.005 t 0 r /Helvetica findfont 22.9045 sf 0 0 m (\2554) show NC gr 
 gsave  2268 461 0 0 C 329.08 140.103 t 0 r /Helvetica findfont 22.9045 sf 0 0 m (\2553) show NC gr 
 gsave  2268 461 0 0 C 329.08 175.944 t 0 r /Helvetica findfont 22.9045 sf 0 0 m (\2552) show NC gr 
 gsave  2268 461 0 0 C 332.338 211.784 t 0 r /Helvetica findfont 22.9045 sf 0 0 m (\2551) show NC gr 
 gsave  2268 461 0 0 C 335.596 247.624 t 0 r /Helvetica findfont 22.9045 sf 0 0 m (0) show NC gr 
 gsave  2268 461 0 0 C 338.854 283.465 t 0 r /Helvetica findfont 22.9045 sf 0 0 m (1) show NC gr 
 gsave  2268 461 0 0 C 335.596 319.305 t 0 r /Helvetica findfont 22.9045 sf 0 0 m (2) show NC gr 
 gsave  2268 461 0 0 C 335.596 358.403 t 0 r /Helvetica findfont 22.9045 sf 0 0 m (3) show NC gr 
 gsave  2268 461 0 0 C 335.596 394.244 t 0 r /Helvetica findfont 22.9045 sf 0 0 m (4) show NC gr 
 gsave  2268 461 0 0 C 335.596 430.084 t 0 r /Helvetica findfont 22.9045 sf 0 0 m (5) show NC gr  2154 74 m 364 Y s 2101 74 m 53 X s 2127 81 m 27 X s 2127 88 m 27 X s 2127 96 m 27 X s 2127 103 m 27 X s 2101 110 m 53 X s 2127 118 m 27 X s 2127 125 m
 27 X s 2127 132 m 27 X s 2127 139 m 27 X s 2101 147 m 53 X s 2127 154 m 27 X s 2127 161 m 27 X s 2127 169 m 27 X s 2127 176 m 27 X s 2101 183 m 53 X s 2127 190 m 27 X s 2127 198 m 27 X s 2127 205 m 27 X s 2127 212 m 27 X s 2101 220 m 53 X s 2127 227
 m 27 X s 2127 234 m 27 X s 2127 241 m 27 X s 2127 249 m 27 X s 2101 256 m 53 X s 2127 263 m 27 X s 2127 271 m 27 X s 2127 278 m 27 X s 2127 285 m 27 X s 2101 293 m 53 X s 2127 300 m 27 X s 2127 307 m 27 X s 2127 314 m 27 X s 2127 322 m 27 X s 2101
 329 m 53 X s 2127 336 m 27 X s 2127 344 m 27 X s 2127 351 m 27 X s 2127 358 m 27 X s 2101 365 m 53 X s 2127 373 m 27 X s 2127 380 m 27 X s 2127 387 m 27 X s 2127 395 m 27 X s 2101 402 m 53 X s 2127 409 m 27 X s 2127 416 m 27 X s 2127 424 m 27 X s
 2127 431 m 27 X s 2101 438 m 53 X s 6 lw 0.2 0.8 0.2 c black 3 lw 0.2 0.8 0.2 c 363 256 m 18 Y 36 X -6 Y 35 X -100 Y 36 X 72 Y 36 X -6 Y 36 X 52 Y 36 X 15 Y 36 X -33 Y 35 X -66 Y 36 X 92 Y 36 X -56 Y 36 X 52 Y 36 X -14 Y 36 X -77 Y 35 X 63 Y 36 X 38
 Y 36 X -19 Y 36 X -30 Y 36 X -8 Y 36 X -11 Y 35 X 9 Y 36 X -30 Y 36 X 57 Y 36 X -39 Y 36 X 35 Y 36 X 3 Y 35 X 27 Y 36 X -32 Y 36 X 51 Y 36 X -56 Y 36 X -4 Y 36 X -47 Y 35 X 60 Y 36 X -41 Y 36 X 23 Y 36 X 45 Y 36 X -20 Y 36 X -35 Y 35 X 37 Y 36 X -57
 Y 36 X 18 Y 36 X 92 Y 36 X -61 Y 36 X -40 Y 35 X -28 Y 36 X 57 Y 36 X -23 Y 36 X 55 Y 36 X 9 Y 36 X -50 Y 35 X 9 Y f 6 lw black 0.2 0.8 0.2 c black 363 274 m 36 X -6 Y 35 X -100 Y 36 X 72 Y 36 X -6 Y 36 X 52 Y 36 X 15 Y 36 X -33 Y 35 X -66 Y 36 X 92
 Y 36 X -56 Y 36 X 52 Y 36 X -14 Y 36 X -77 Y 35 X 63 Y 36 X 38 Y 36 X -19 Y 36 X -30 Y 36 X -8 Y 36 X -11 Y 35 X 9 Y 36 X -30 Y 36 X 57 Y 36 X -39 Y 36 X 35 Y 36 X 3 Y 35 X 27 Y 36 X -32 Y 36 X 51 Y 36 X -56 Y 36 X -4 Y 36 X -47 Y 35 X 60 Y 36 X -41
 Y 36 X 23 Y 36 X 45 Y 36 X -20 Y 36 X -35 Y 35 X 37 Y 36 X -57 Y 36 X 18 Y 36 X 92 Y 36 X -61 Y 36 X -40 Y 35 X -28 Y 36 X 57 Y 36 X -23 Y 36 X 55 Y 36 X 9 Y 36 X -50 Y 35 X s 3 lw 363 74 m 1791 X s 363 85 m -11 Y s 414 79 m -5 Y s 465 79 m -5 Y s
 516 79 m -5 Y s 568 79 m -5 Y s 619 85 m -11 Y s 670 79 m -5 Y s 721 79 m -5 Y s 772 79 m -5 Y s 824 79 m -5 Y s 875 85 m -11 Y s 926 79 m -5 Y s 977 79 m -5 Y s 1028 79 m -5 Y s 1079 79 m -5 Y s 1131 85 m -11 Y s 1182 79 m -5 Y s 1233 79 m -5 Y s
 1284 79 m -5 Y s 1335 79 m -5 Y s 1387 85 m -11 Y s 1438 79 m -5 Y s 1489 79 m -5 Y s 1540 79 m -5 Y s 1591 79 m -5 Y s 1642 85 m -11 Y s 1694 79 m -5 Y s 1745 79 m -5 Y s 1796 79 m -5 Y s 1847 79 m -5 Y s 1898 85 m -11 Y s 1950 79 m -5 Y s 2001 79
 m -5 Y s 2052 79 m -5 Y s 2103 79 m -5 Y s 2154 85 m -11 Y s 363 438 m 1791 X s 363 427 m 11 Y s 414 433 m 5 Y s 465 433 m 5 Y s 516 433 m 5 Y s 568 433 m 5 Y s 619 427 m 11 Y s 670 433 m 5 Y s 721 433 m 5 Y s 772 433 m 5 Y s 824 433 m 5 Y s 875 427
 m 11 Y s 926 433 m 5 Y s 977 433 m 5 Y s 1028 433 m 5 Y s 1079 433 m 5 Y s 1131 427 m 11 Y s 1182 433 m 5 Y s 1233 433 m 5 Y s 1284 433 m 5 Y s 1335 433 m 5 Y s 1387 427 m 11 Y s 1438 433 m 5 Y s 1489 433 m 5 Y s 1540 433 m 5 Y s 1591 433 m 5 Y s
 1642 427 m 11 Y s 1694 433 m 5 Y s 1745 433 m 5 Y s 1796 433 m 5 Y s 1847 433 m 5 Y s 1898 427 m 11 Y s 1950 433 m 5 Y s 2001 433 m 5 Y s 2052 433 m 5 Y s 2103 433 m 5 Y s 2154 427 m 11 Y s 363 74 m 364 Y s 417 74 m -54 X s 390 81 m -27 X s 390 88 m
 -27 X s 390 96 m -27 X s 390 103 m -27 X s 417 110 m -54 X s 390 118 m -27 X s 390 125 m -27 X s 390 132 m -27 X s 390 139 m -27 X s 417 147 m -54 X s 390 154 m -27 X s 390 161 m -27 X s 390 169 m -27 X s 390 176 m -27 X s 417 183 m -54 X s 390 190
 m -27 X s 390 198 m -27 X s 390 205 m -27 X s 390 212 m -27 X s 417 220 m -54 X s 390 227 m -27 X s 390 234 m -27 X s 390 241 m -27 X s 390 249 m -27 X s 417 256 m -54 X s 390 263 m -27 X s 390 271 m -27 X s 390 278 m -27 X s 390 285 m -27 X s 417
 293 m -54 X s 390 300 m -27 X s 390 307 m -27 X s 390 314 m -27 X s 390 322 m -27 X s 417 329 m -54 X s 390 336 m -27 X s 390 344 m -27 X s 390 351 m -27 X s 390 358 m -27 X s 417 365 m -54 X s 390 373 m -27 X s 390 380 m -27 X s 390 387 m -27 X s
 390 395 m -27 X s 417 402 m -54 X s 390 409 m -27 X s 390 416 m -27 X s 390 424 m -27 X s 390 431 m -27 X s 417 438 m -54 X s 2154 74 m 364 Y s 2101 74 m 53 X s 2127 81 m 27 X s 2127 88 m 27 X s 2127 96 m 27 X s 2127 103 m 27 X s 2101 110 m 53 X s
 2127 118 m 27 X s 2127 125 m 27 X s 2127 132 m 27 X s 2127 139 m 27 X s 2101 147 m 53 X s 2127 154 m 27 X s 2127 161 m 27 X s 2127 169 m 27 X s 2127 176 m 27 X s 2101 183 m 53 X s 2127 190 m 27 X s 2127 198 m 27 X s 2127 205 m 27 X s 2127 212 m 27 X
 s 2101 220 m 53 X s 2127 227 m 27 X s 2127 234 m 27 X s 2127 241 m 27 X s 2127 249 m 27 X s 2101 256 m 53 X s 2127 263 m 27 X s 2127 271 m 27 X s 2127 278 m 27 X s 2127 285 m 27 X s 2101 293 m 53 X s 2127 300 m 27 X s 2127 307 m 27 X s 2127 314 m 27
 X s 2127 322 m 27 X s 2101 329 m 53 X s 2127 336 m 27 X s 2127 344 m 27 X s 2127 351 m 27 X s 2127 358 m 27 X s 2101 365 m 53 X s 2127 373 m 27 X s 2127 380 m 27 X s 2127 387 m 27 X s 2127 395 m 27 X s 2101 402 m 53 X s 2127 409 m 27 X s 2127 416 m
 27 X s 2127 424 m 27 X s 2127 431 m 27 X s 2101 438 m 53 X s
 gr  gr showpage
end
%%EOF
