%!PS-Adobe-2.0 EPSF-2.0
%%BoundingBox:  0 0 567 384
%%Title: H4l2015_plotfit/VBF_mass_signal_700_H4l_4e.eps: 
%%Creator: ROOT Version 5.34/07
%%CreationDate: Mon Nov  9 16:30:40 2015
%%EndComments
%%BeginProlog
80 dict begin
/s {stroke} def /l {lineto} def /m {moveto} def /t {translate} def
/r {rotate} def /rl {roll}  def /R {repeat} def
/d {rlineto} def /rm {rmoveto} def /gr {grestore} def /f {eofill} def
/c {setrgbcolor} def /black {0 setgray} def /sd {setdash} def
/cl {closepath} def /sf {scalefont setfont} def /lw {setlinewidth} def
/box {m dup 0 exch d exch 0 d 0 exch neg d cl} def
/NC{systemdict begin initclip end}def/C{NC box clip newpath}def
/bl {box s} def /bf {box f} def /Y { 0 exch d} def /X { 0 d} def 
/K {{pop pop 0 moveto} exch kshow} bind def
/ita {/ang 15 def gsave [1 0 ang dup sin exch cos div 1 0 0] concat} def 
/mp {newpath /y exch def /x exch def} def
/side {[w .77 mul w .23 mul] .385 w mul sd w 0 l currentpoint t -144 r} def
/mr {mp x y w2 0 360 arc} def /m24 {mr s} def /m20 {mr f} def
/mb {mp x y w2 add m w2 neg 0 d 0 w neg d w 0 d 0 w d cl} def
/mt {mp x y w2 add m w2 neg w neg d w 0 d cl} def
/m21 {mb f} def /m25 {mb s} def /m22 {mt f} def /m26{mt s} def
/m23 {mp x y w2 sub m w2 w d w neg 0 d cl f} def
/m27 {mp x y w2 add m w3 neg w2 neg d w3 w2 neg d w3 w2 d cl s} def
/m28 {mp x w2 sub y w2 sub w3 add m w3 0 d  0 w3 neg d w3 0 d 0 w3 d w3 0 d  0 w3 d w3 neg 0 d 0 w3 d w3 neg 0 d 0 w3 neg d w3 neg 0 d cl s } def
/m29 {mp gsave x w2 sub y w2 add w3 sub m currentpoint t 4 {side} repeat cl fill gr} def
/m30 {mp gsave x w2 sub y w2 add w3 sub m currentpoint t 4 {side} repeat cl s gr} def
/m31 {mp x y w2 sub m 0 w d x w2 sub y m w 0 d x w2 sub y w2 add m w w neg d x w2 sub y w2 sub m w w d s} def
/m32 {mp x y w2 sub m w2 w d w neg 0 d cl s} def
/m33 {mp x y w2 add m w3 neg w2 neg d w3 w2 neg d w3 w2 d cl f} def
/m34 {mp x w2 sub y w2 sub w3 add m w3 0 d  0 w3 neg d w3 0 d 0 w3 d w3 0 d  0 w3 d w3 neg 0 d 0 w3 d w3 neg 0 d 0 w3 neg d w3 neg 0 d cl f } def
/m2 {mp x y w2 sub m 0 w d x w2 sub y m w 0 d s} def
/m5 {mp x w2 sub y w2 sub m w w d x w2 sub y w2 add m w w neg d s} def
/reEncode {exch findfont dup length dict begin {1 index /FID eq  {pop pop} {def} ifelse } forall /Encoding exch def currentdict end dup /FontName get exch definefont pop } def [/Times-Bold /Times-Italic /Times-BoldItalic /Helvetica /Helvetica-Oblique
 /Helvetica-Bold /Helvetica-BoldOblique /Courier /Courier-Oblique /Courier-Bold /Courier-BoldOblique /Times-Roman /AvantGarde-Book /AvantGarde-BookOblique /AvantGarde-Demi /AvantGarde-DemiOblique /Bookman-Demi /Bookman-DemiItalic /Bookman-Light
 /Bookman-LightItalic /Helvetica-Narrow /Helvetica-Narrow-Bold /Helvetica-Narrow-BoldOblique /Helvetica-Narrow-Oblique /NewCenturySchlbk-Roman /NewCenturySchlbk-Bold /NewCenturySchlbk-BoldItalic /NewCenturySchlbk-Italic /Palatino-Bold
 /Palatino-BoldItalic /Palatino-Italic /Palatino-Roman ] {ISOLatin1Encoding reEncode } forall
%%EndProlog
%%BeginSetup
%%EndSetup
newpath  gsave  .25 .25 scale  gsave  0 0 t black[  ] 0 sd 3 lw 1 1 1 c 2268 1538 0 0 bf black 1 1 1 c 2222 738 23 784 bf black 1 1 1 c 2222 739 23 15 bf black 1 1 1 c 2268 1077 0 461 bf black 1 1 1 c 1791 850 363 634 bf black 1791 850 363 634 bl 363
 634 m 1791 X s
 gsave  2268 1077 0 461 C 1642.14 498.507 t 0 r /Helvetica findfont 48.9324 sf 0 0 m (4l Invariant Mass \(GeV\)) show NC gr  462 659 m -25 Y s 512 646 m -12 Y s 562 646 m -12 Y s 612 646 m -12 Y s 661 659 m -25 Y s 711 646 m -12 Y s 761 646 m -12 Y s
 811 646 m -12 Y s 860 659 m -25 Y s 910 646 m -12 Y s 960 646 m -12 Y s 1010 646 m -12 Y s 1060 659 m -25 Y s 1109 646 m -12 Y s 1159 646 m -12 Y s 1209 646 m -12 Y s 1259 659 m -25 Y s 1308 646 m -12 Y s 1358 646 m -12 Y s 1408 646 m -12 Y s 1458
 659 m -25 Y s 1507 646 m -12 Y s 1557 646 m -12 Y s 1607 646 m -12 Y s 1657 659 m -25 Y s 1706 646 m -12 Y s 1756 646 m -12 Y s 1806 646 m -12 Y s 1856 659 m -25 Y s 1906 646 m -12 Y s 1955 646 m -12 Y s 2005 646 m -12 Y s 2055 659 m -25 Y s 462 659
 m -25 Y s 413 646 m -12 Y s 363 646 m -12 Y s 2055 659 m -25 Y s 2105 646 m -12 Y s
 gsave  2268 1077 0 461 C 417.051 586.478 t 0 r /Helvetica findfont 48.9324 sf 0 0 m (560) show NC gr 
 gsave  2268 1077 0 461 C 619.061 586.478 t 0 r /Helvetica findfont 48.9324 sf 0 0 m (580) show NC gr 
 gsave  2268 1077 0 461 C 817.812 586.478 t 0 r /Helvetica findfont 48.9324 sf 0 0 m (600) show NC gr 
 gsave  2268 1077 0 461 C 1016.56 586.478 t 0 r /Helvetica findfont 48.9324 sf 0 0 m (620) show NC gr 
 gsave  2268 1077 0 461 C 1215.31 586.478 t 0 r /Helvetica findfont 48.9324 sf 0 0 m (640) show NC gr 
 gsave  2268 1077 0 461 C 1414.06 586.478 t 0 r /Helvetica findfont 48.9324 sf 0 0 m (660) show NC gr 
 gsave  2268 1077 0 461 C 1612.82 586.478 t 0 r /Helvetica findfont 48.9324 sf 0 0 m (680) show NC gr 
 gsave  2268 1077 0 461 C 1811.57 586.478 t 0 r /Helvetica findfont 48.9324 sf 0 0 m (700) show NC gr 
 gsave  2268 1077 0 461 C 2010.32 586.478 t 0 r /Helvetica findfont 48.9324 sf 0 0 m (720) show NC gr  363 1484 m 1791 X s 462 1459 m 25 Y s 512 1471 m 13 Y s 562 1471 m 13 Y s 612 1471 m 13 Y s 661 1459 m 25 Y s 711 1471 m 13 Y s 761 1471 m 13 Y s
 811 1471 m 13 Y s 860 1459 m 25 Y s 910 1471 m 13 Y s 960 1471 m 13 Y s 1010 1471 m 13 Y s 1060 1459 m 25 Y s 1109 1471 m 13 Y s 1159 1471 m 13 Y s 1209 1471 m 13 Y s 1259 1459 m 25 Y s 1308 1471 m 13 Y s 1358 1471 m 13 Y s 1408 1471 m 13 Y s 1458
 1459 m 25 Y s 1507 1471 m 13 Y s 1557 1471 m 13 Y s 1607 1471 m 13 Y s 1657 1459 m 25 Y s 1706 1471 m 13 Y s 1756 1471 m 13 Y s 1806 1471 m 13 Y s 1856 1459 m 25 Y s 1906 1471 m 13 Y s 1955 1471 m 13 Y s 2005 1471 m 13 Y s 2055 1459 m 25 Y s 462
 1459 m 25 Y s 413 1471 m 13 Y s 363 1471 m 13 Y s 2055 1459 m 25 Y s 2105 1471 m 13 Y s 363 634 m 850 Y s
 gsave  2268 1077 0 461 C 120.554 1058.92 t 90 r /Helvetica findfont 48.9324 sf 0 0 m (Events / \( 3.6 GeV \)) show NC gr  417 634 m -54 X s
 gsave  2268 1077 0 461 C 312.788 632.093 t 0 r /Helvetica findfont 32.6216 sf 0 0 m (\2552) show NC gr 
 gsave  2268 1077 0 461 C 260.657 612.544 t 0 r /Helvetica findfont 48.9324 sf 0 0 m (10) show NC gr  390 681 m -27 X s 390 709 m -27 X s 390 729 m -27 X s 390 744 m -27 X s 390 757 m -27 X s 390 767 m -27 X s 390 777 m -27 X s 390 785 m -27 X s 417
 792 m -54 X s
 gsave  2268 1077 0 461 C 319.305 791.746 t 0 r /Helvetica findfont 32.6216 sf 0 0 m (\2551) show NC gr 
 gsave  2268 1077 0 461 C 267.173 772.197 t 0 r /Helvetica findfont 48.9324 sf 0 0 m (10) show NC gr  390 840 m -27 X s 390 867 m -27 X s 390 887 m -27 X s 390 902 m -27 X s 390 915 m -27 X s 390 926 m -27 X s 390 935 m -27 X s 390 943 m -27 X s 417
 950 m -54 X s
 gsave  2268 1077 0 461 C 342.425 929.264 t 0 r  -27 0 t /Helvetica findfont 48.9324 sf 0 0 m (1) show NC gr  390 998 m -27 X s 390 1026 m -27 X s 390 1045 m -27 X s 390 1061 m -27 X s 390 1073 m -27 X s 390 1084 m -27 X s 390 1093 m -27 X s 390 1101
 m -27 X s 417 1108 m -54 X s
 gsave  2268 1077 0 461 C 342.425 1087.52 t 0 r  -55 0 t /Helvetica findfont 48.9324 sf 0 0 m (10) show NC gr  390 1156 m -27 X s 390 1184 m -27 X s 390 1204 m -27 X s 390 1219 m -27 X s 390 1232 m -27 X s 390 1242 m -27 X s 390 1251 m -27 X s 390
 1259 m -27 X s 417 1267 m -54 X s
 gsave  2268 1077 0 461 C 322.563 1264.19 t 0 r /Helvetica findfont 32.6216 sf 0 0 m (2) show NC gr 
 gsave  2268 1077 0 461 C 270.432 1244.64 t 0 r /Helvetica findfont 48.9324 sf 0 0 m (10) show NC gr  390 1314 m -27 X s 390 1342 m -27 X s 390 1362 m -27 X s 390 1377 m -27 X s 390 1390 m -27 X s 390 1400 m -27 X s 390 1410 m -27 X s 390 1418 m -27
 X s 417 1425 m -54 X s
 gsave  2268 1077 0 461 C 322.563 1427.1 t 0 r /Helvetica findfont 32.6216 sf 0 0 m (3) show NC gr 
 gsave  2268 1077 0 461 C 270.432 1404.29 t 0 r /Helvetica findfont 48.9324 sf 0 0 m (10) show NC gr  390 1473 m -27 X s 2154 634 m 850 Y s 2101 634 m 53 X s 2127 681 m 27 X s 2127 709 m 27 X s 2127 729 m 27 X s 2127 744 m 27 X s 2127 757 m 27 X s
 2127 767 m 27 X s 2127 777 m 27 X s 2127 785 m 27 X s 2101 792 m 53 X s 2127 840 m 27 X s 2127 867 m 27 X s 2127 887 m 27 X s 2127 902 m 27 X s 2127 915 m 27 X s 2127 926 m 27 X s 2127 935 m 27 X s 2127 943 m 27 X s 2101 950 m 53 X s 2127 998 m 27 X
 s 2127 1026 m 27 X s 2127 1045 m 27 X s 2127 1061 m 27 X s 2127 1073 m 27 X s 2127 1084 m 27 X s 2127 1093 m 27 X s 2127 1101 m 27 X s 2101 1108 m 53 X s 2127 1156 m 27 X s 2127 1184 m 27 X s 2127 1204 m 27 X s 2127 1219 m 27 X s 2127 1232 m 27 X s
 2127 1242 m 27 X s 2127 1251 m 27 X s 2127 1259 m 27 X s 2101 1267 m 53 X s 2127 1314 m 27 X s 2127 1342 m 27 X s 2127 1362 m 27 X s 2127 1377 m 27 X s 2127 1390 m 27 X s 2127 1400 m 27 X s 2127 1410 m 27 X s 2127 1418 m 27 X s 2101 1425 m 53 X s
 2127 1473 m 27 X s 381 1026 m -18 X s 363 1026 m cl s 381 1026 m 18 X s 399 1026 m cl s 381 1026 m 46 Y s 381 1072 m cl s 381 1026 m -54 Y s 381 972 m cl s 417 1045 m -18 X s 399 1045 m cl s 417 1045 m 17 X s 434 1045 m cl s 417 1045 m 40 Y s 417
 1085 m cl s 417 1045 m -44 Y s 417 1001 m cl s 452 950 m -18 X s 434 950 m cl s 452 950 m 18 X s 470 950 m cl s 452 950 m 82 Y s 452 1032 m cl s 452 950 m -121 Y s 452 829 m cl s 488 1026 m -18 X s 470 1026 m cl s 488 1026 m 18 X s 506 1026 m cl s
 488 1026 m 46 Y s 488 1072 m cl s 488 1026 m -54 Y s 488 972 m cl s 524 1045 m -18 X s 506 1045 m cl s 524 1045 m 18 X s 542 1045 m cl s 524 1045 m 40 Y s 524 1085 m cl s 524 1045 m -44 Y s 524 1001 m cl s 560 634 m -18 X s 542 634 m cl s 560 634 m
 18 X s 578 634 m cl s 560 634 m 326 Y s 560 960 m cl s 596 1026 m -18 X s 578 1026 m cl s 596 1026 m 18 X s 614 1026 m cl s 596 1026 m 46 Y s 596 1072 m cl s 596 1026 m -54 Y s 596 972 m cl s 632 1061 m -18 X s 614 1061 m cl s 632 1061 m 17 X s 649
 1061 m cl s 632 1061 m 35 Y s 632 1096 m cl s 632 1061 m -39 Y s 632 1022 m cl s 667 998 m -18 X s 649 998 m cl s 667 998 m 18 X s 685 998 m cl s 667 998 m 58 Y s 667 1056 m cl s 667 998 m -72 Y s 667 926 m cl s 703 1045 m -18 X s 685 1045 m cl s
 703 1045 m 18 X s 721 1045 m cl s 703 1045 m 40 Y s 703 1085 m cl s 703 1045 m -44 Y s 703 1001 m cl s 739 1026 m -18 X s 721 1026 m cl s 739 1026 m 18 X s 757 1026 m cl s 739 1026 m 46 Y s 739 1072 m cl s 739 1026 m -54 Y s 739 972 m cl s 775 1084
 m -18 X s 757 1084 m cl s 775 1084 m 18 X s 793 1084 m cl s 775 1084 m 29 Y s 775 1113 m cl s 775 1084 m -32 Y s 775 1052 m cl s 811 1061 m -18 X s 793 1061 m cl s 811 1061 m 18 X s 829 1061 m cl s 811 1061 m 35 Y s 811 1096 m cl s 811 1061 m -39 Y
 s 811 1022 m cl s 847 998 m -18 X s 829 998 m cl s 847 998 m 17 X s 864 998 m cl s 847 998 m 58 Y s 847 1056 m cl s 847 998 m -72 Y s 847 926 m cl s 882 1045 m -18 X s 864 1045 m cl s 882 1045 m 18 X s 900 1045 m cl s 882 1045 m 40 Y s 882 1085 m cl
 s 882 1045 m -44 Y s 882 1001 m cl s 918 1073 m -18 X s 900 1073 m cl s 918 1073 m 18 X s 936 1073 m cl s 918 1073 m 32 Y s 918 1105 m cl s 918 1073 m -34 Y s 918 1039 m cl s 954 1045 m -18 X s 936 1045 m cl s 954 1045 m 18 X s 972 1045 m cl s 954
 1045 m 40 Y s 954 1085 m cl s 954 1045 m -44 Y s 954 1001 m cl s 990 1026 m -18 X s 972 1026 m cl s 990 1026 m 18 X s 1008 1026 m cl s 990 1026 m 46 Y s 990 1072 m cl s 990 1026 m -54 Y s 990 972 m cl s 1026 1061 m -18 X s 1008 1061 m cl s 1026 1061
 m 18 X s 1044 1061 m cl s 1026 1061 m 35 Y s 1026 1096 m cl s 1026 1061 m -39 Y s 1026 1022 m cl s 1062 1108 m -18 X s 1044 1108 m cl s 1062 1108 m 17 X s 1079 1108 m cl s 1062 1108 m 25 Y s 1062 1133 m cl s 1062 1108 m -25 Y s 1062 1083 m cl s 1097
 1101 m -18 X s 1079 1101 m cl s 1097 1101 m 18 X s 1115 1101 m cl s 1097 1101 m 26 Y s 1097 1127 m cl s 1097 1101 m -27 Y s 1097 1074 m cl s 1133 1101 m -18 X s 1115 1101 m cl s 1133 1101 m 18 X s 1151 1101 m cl s 1133 1101 m 26 Y s 1133 1127 m cl s
 1133 1101 m -27 Y s 1133 1074 m cl s 1169 1073 m -18 X s 1151 1073 m cl s 1169 1073 m 18 X s 1187 1073 m cl s 1169 1073 m 32 Y s 1169 1105 m cl s 1169 1073 m -34 Y s 1169 1039 m cl s 1205 1108 m -18 X s 1187 1108 m cl s 1205 1108 m 18 X s 1223 1108
 m cl s 1205 1108 m 25 Y s 1205 1133 m cl s 1205 1108 m -25 Y s 1205 1083 m cl s 1241 1131 m -18 X s 1223 1131 m cl s 1241 1131 m 18 X s 1259 1131 m cl s 1241 1131 m 21 Y s 1241 1152 m cl s 1241 1131 m -21 Y s 1241 1110 m cl s 1276 1108 m -17 X s
 1259 1108 m cl s 1276 1108 m 18 X s 1294 1108 m cl s 1276 1108 m 25 Y s 1276 1133 m cl s 1276 1108 m -25 Y s 1276 1083 m cl s 1312 1101 m -18 X s 1294 1101 m cl s 1312 1101 m 18 X s 1330 1101 m cl s 1312 1101 m 26 Y s 1312 1127 m cl s 1312 1101 m
 -27 Y s 1312 1074 m cl s 1348 1136 m -18 X s 1330 1136 m cl s 1348 1136 m 18 X s 1366 1136 m cl s 1348 1136 m 20 Y s 1348 1156 m cl s 1348 1136 m -20 Y s 1348 1116 m cl s 1384 1156 m -18 X s 1366 1156 m cl s 1384 1156 m 18 X s 1402 1156 m cl s 1384
 1156 m 17 Y s 1384 1173 m cl s 1384 1156 m -17 Y s 1384 1139 m cl s 1420 1152 m -18 X s 1402 1152 m cl s 1420 1152 m 18 X s 1438 1152 m cl s 1420 1152 m 18 Y s 1420 1170 m cl s 1420 1152 m -17 Y s 1420 1135 m cl s 1456 1188 m -18 X s 1438 1188 m cl
 s 1456 1188 m 18 X s 1474 1188 m cl s 1456 1188 m 13 Y s 1456 1201 m cl s 1456 1188 m -13 Y s 1456 1175 m cl s 1491 1207 m -17 X s 1474 1207 m cl s 1491 1207 m 18 X s 1509 1207 m cl s 1491 1207 m 11 Y s 1491 1218 m cl s 1491 1207 m -11 Y s 1491 1196
 m cl s 1527 1202 m -18 X s 1509 1202 m cl s 1527 1202 m 18 X s 1545 1202 m cl s 1527 1202 m 12 Y s 1527 1214 m cl s 1527 1202 m -12 Y s 1527 1190 m cl s 1563 1213 m -18 X s 1545 1213 m cl s 1563 1213 m 18 X s 1581 1213 m cl s 1563 1213 m 11 Y s 1563
 1224 m cl s 1563 1213 m -11 Y s 1563 1202 m cl s 1599 1260 m -18 X s 1581 1260 m cl s 1599 1260 m 18 X s 1617 1260 m cl s 1599 1260 m 8 Y s 1599 1268 m cl s 1599 1260 m -7 Y s 1599 1253 m cl s 1635 1280 m -18 X s 1617 1280 m cl s 1635 1280 m 18 X s
 1653 1280 m cl s 1635 1280 m 6 Y s 1635 1286 m cl s 1635 1280 m -7 Y s 1635 1273 m cl s 1671 1305 m -18 X s 1653 1305 m cl s 1671 1305 m 18 X s 1689 1305 m cl s 1671 1305 m 6 Y s 1671 1311 m cl s 1671 1305 m -5 Y s 1671 1300 m cl s 1706 1342 m -17 X
 s 1689 1342 m cl s 1706 1342 m 18 X s 1724 1342 m cl s 1706 1342 m 4 Y s 1706 1346 m cl s 1706 1342 m -4 Y s 1706 1338 m cl s 1742 1382 m -18 X s 1724 1382 m cl s 1742 1382 m 18 X s 1760 1382 m cl s 1742 1382 m 2 Y s 1742 1384 m cl s 1742 1382 m -3
 Y s 1742 1379 m cl s 1778 1415 m -18 X s 1760 1415 m cl s 1778 1415 m 18 X s 1796 1415 m cl s 1778 1415 m 3 Y s 1778 1418 m cl s 1778 1415 m -2 Y s 1778 1413 m cl s 1814 1443 m -18 X s 1796 1443 m cl s 1814 1443 m 18 X s 1832 1443 m cl s 1814 1443 m
 2 Y s 1814 1445 m cl s 1814 1443 m -2 Y s 1814 1441 m cl s 1850 1445 m -18 X s 1832 1445 m cl s 1850 1445 m 18 X s 1868 1445 m cl s 1850 1445 m 2 Y s 1850 1447 m cl s 1850 1445 m -2 Y s 1850 1443 m cl s 1886 1416 m -18 X s 1868 1416 m cl s 1886 1416
 m 18 X s 1904 1416 m cl s 1886 1416 m 2 Y s 1886 1418 m cl s 1886 1416 m -3 Y s 1886 1413 m cl s 1921 1362 m -17 X s 1904 1362 m cl s 1921 1362 m 18 X s 1939 1362 m cl s 1921 1362 m 4 Y s 1921 1366 m cl s 1921 1362 m -3 Y s 1921 1359 m cl s 1957
 1290 m -18 X s 1939 1290 m cl s 1957 1290 m 18 X s 1975 1290 m cl s 1957 1290 m 6 Y s 1957 1296 m cl s 1957 1290 m -6 Y s 1957 1284 m cl s 1993 1229 m -18 X s 1975 1229 m cl s 1993 1229 m 18 X s 2011 1229 m cl s 1993 1229 m 10 Y s 1993 1239 m cl s
 1993 1229 m -9 Y s 1993 1220 m cl s 2029 1169 m -18 X s 2011 1169 m cl s 2029 1169 m 18 X s 2047 1169 m cl s 2029 1169 m 15 Y s 2029 1184 m cl s 2029 1169 m -16 Y s 2029 1153 m cl s 2065 1126 m -18 X s 2047 1126 m cl s 2065 1126 m 18 X s 2083 1126 m
 cl s 2065 1126 m 22 Y s 2065 1148 m cl s 2065 1126 m -22 Y s 2065 1104 m cl s 2101 1101 m -18 X s 2083 1101 m cl s 2101 1101 m 18 X s 2119 1101 m cl s 2101 1101 m 26 Y s 2101 1127 m cl s 2101 1101 m -27 Y s 2101 1074 m cl s 2136 1093 m -17 X s 2119
 1093 m cl s 2136 1093 m 18 X s 2154 1093 m cl s 2136 1093 m 28 Y s 2136 1121 m cl s 2136 1093 m -29 Y s 2136 1064 m cl s /w 31 def /w2 {w 2 div} def /w3 {w 3 div} def 381 1026 417 1045 452 950 488 1026 524 1045 5 { m20} R 596 1026 632 1061 667 998
 703 1045 739 1026 775 1084 811 1061 847 998 882 1045 918 1073 954 1045 990 1026 1026 1061 1062 1108 1097 1101 1133 1101 1169 1073 1205 1108 1241 1131 1276 1108 1312 1101 1348 1136 1384 1156 1420 1152 1456 1188 1491 1207 1527 1202 1563 1213 1599 1260
 1635 1280 1671 1305 1706 1342 1742 1382 1778 1415 1814 1443 1850 1445 1886 1416 1921 1362 1957 1290 1993 1229 2029 1169 2065 1126 2101 1101 2136 1093 44 { m20} R 0 1 1 c 1 1 0 c black 1 1 0 c 363 1002 m 36 3 d 35 4 d 36 3 d 36 4 d 36 3 d 36 4 d 36 4
 d 35 4 d 36 4 d 36 5 d 36 4 d 36 5 d 36 4 d 35 5 d 36 5 d 36 6 d 36 5 d 36 6 d 36 6 d 35 6 d 36 7 d 36 6 d 36 8 d 36 7 d 36 8 d 35 9 d 36 9 d 36 10 d 36 11 d 36 12 d 36 15 d 35 16 d 36 18 d 36 21 d 18 11 d 18 11 d 18 13 d 18 13 d 18 13 d 18 15 d 8 7
 d 9 8 d 9 8 d 9 8 d 9 9 d 5 5 d 4 6 d 5 5 d 4 6 d 5 7 d 4 7 d 9 11 d 9 10 d 9 9 d 5 3 d 4 4 d 5 3 d 4 2 d 4 2 d 5 2 d 4 2 d 5 1 d 4 1 d 5 X 4 -1 d 5 X 4 -2 d 5 -1 d 4 -3 d 5 -2 d 4 -3 d 5 -4 d 36 -41 d 4 -7 d 4 -7 d 5 -7 d 4 -8 d 5 -8 d 4 -8 d 5 -8
 d 4 -9 d 5 -8 d 4 -9 d 5 -9 d 4 -9 d 9 -17 d 9 -16 d 9 -14 d 9 -13 d 18 -23 d 18 -20 d 18 -20 d 36 -37 d 36 -37 d 35 -40 d -108 Y -35 87 d -36 60 d -36 45 d -18 19 d -18 23 d -18 28 d -9 17 d -9 17 d -9 18 d -9 18 d -4 10 d -5 9 d -4 9 d -5 9 d -4 9
 d -5 9 d -4 9 d -5 8 d -4 8 d -5 8 d -4 8 d -4 7 d -36 44 d -5 3 d -4 3 d -5 3 d -4 2 d -5 2 d -4 1 d -5 1 d -13 X -5 -1 d -4 -1 d -5 -2 d -4 -2 d -4 -3 d -5 -3 d -4 -4 d -5 -5 d -9 -10 d -9 -11 d -9 -14 d -4 -5 d -5 -5 d -4 -6 d -5 -5 d -4 -5 d -5
 -4 d -9 -10 d -9 -9 d -9 -9 d -9 -8 d -8 -7 d -18 -14 d -18 -14 d -18 -12 d -18 -13 d -18 -13 d -18 -12 d -36 -22 d -36 -20 d -35 -16 d -36 -14 d -36 -13 d -36 -11 d -36 -10 d -36 -10 d -35 -9 d -36 -8 d -36 -8 d -36 -7 d -36 -7 d -36 -7 d -35 -6 d
 -36 -6 d -36 -6 d -36 -5 d -36 -6 d -36 -5 d -35 -5 d -36 -5 d -36 -4 d -36 -5 d -36 -4 d -36 -4 d -35 -5 d -36 -4 d -36 -3 d -36 -4 d -36 -4 d -36 -3 d -35 -4 d -36 -3 d f 0 1 1 c 0 1 0 c black 0 1 0 c 363 998 m 36 4 d 35 3 d 36 3 d 36 4 d 36 4 d
 36 4 d 36 4 d 35 4 d 36 4 d 36 4 d 36 5 d 36 4 d 36 5 d 35 5 d 36 5 d 36 5 d 36 6 d 36 5 d 36 6 d 35 7 d 36 6 d 36 7 d 36 7 d 36 8 d 36 8 d 35 9 d 36 9 d 36 10 d 36 11 d 36 12 d 36 15 d 35 16 d 36 19 d 36 21 d 18 11 d 18 12 d 18 12 d 18 13 d 18 14 d
 18 14 d 8 7 d 9 8 d 9 8 d 9 9 d 9 9 d 5 5 d 4 5 d 5 6 d 4 6 d 5 6 d 4 6 d 9 12 d 9 11 d 9 9 d 5 3 d 4 4 d 5 3 d 4 2 d 4 3 d 5 2 d 4 1 d 5 1 d 4 1 d 5 X 4 -1 d 5 -1 d 4 -1 d 5 -2 d 4 -2 d 5 -2 d 4 -3 d 5 -4 d 36 -42 d 4 -6 d 4 -8 d 5 -7 d 4 -8 d 5 -8
 d 4 -8 d 5 -9 d 4 -8 d 5 -9 d 4 -9 d 5 -9 d 4 -9 d 9 -17 d 9 -16 d 9 -15 d 9 -14 d 18 -24 d 18 -20 d 18 -20 d 36 -39 d 36 -39 d 35 -44 d -50 Y -35 62 d -36 52 d -36 43 d -18 18 d -18 23 d -18 27 d -9 15 d -9 16 d -9 18 d -9 18 d -4 9 d -5 9 d -4 9 d
 -5 9 d -4 9 d -5 9 d -4 8 d -5 9 d -4 8 d -5 7 d -4 8 d -4 7 d -36 43 d -5 4 d -4 3 d -5 2 d -4 2 d -5 2 d -4 1 d -5 1 d -13 X -5 -1 d -4 -1 d -5 -2 d -4 -2 d -4 -3 d -5 -3 d -4 -4 d -5 -4 d -9 -10 d -9 -11 d -9 -13 d -4 -6 d -5 -5 d -4 -6 d -5 -5 d
 -4 -5 d -5 -5 d -9 -9 d -9 -9 d -9 -9 d -9 -8 d -8 -7 d -18 -14 d -18 -14 d -18 -13 d -18 -12 d -18 -12 d -18 -12 d -36 -22 d -36 -19 d -35 -17 d -36 -14 d -36 -12 d -36 -12 d -36 -10 d -36 -9 d -35 -9 d -36 -8 d -36 -8 d -36 -7 d -36 -7 d -36 -7 d
 -35 -6 d -36 -6 d -36 -6 d -36 -5 d -36 -6 d -36 -5 d -35 -5 d -36 -5 d -36 -4 d -36 -5 d -36 -4 d -36 -4 d -35 -4 d -36 -4 d -36 -4 d -36 -4 d -36 -3 d -36 -4 d -35 -3 d -36 -4 d f 0 0 1 c 9 lw black 0 0 1 c 363 994 m 36 4 d 35 3 d 36 4 d 36 3 d 36
 4 d 36 4 d 36 4 d 35 4 d 36 4 d 36 4 d 36 5 d 36 4 d 36 5 d 35 5 d 36 5 d 36 5 d 36 6 d 36 6 d 36 6 d 35 6 d 36 7 d 36 7 d 36 7 d 36 8 d 36 8 d 35 8 d 36 10 d 36 10 d 36 11 d 36 12 d 36 14 d 35 17 d 36 19 d 36 21 d 18 12 d 18 12 d 18 12 d 18 13 d 18
 14 d 18 14 d 8 7 d 9 8 d 9 8 d 9 9 d 9 10 d 5 4 d 4 6 d 5 5 d 4 6 d 5 6 d 4 6 d 9 12 d 9 11 d 9 9 d 5 4 d 4 4 d 5 3 d 4 3 d 4 2 d 5 2 d 4 1 d 5 1 d 4 X 5 1 d 4 -1 d 5 -1 d 4 -1 d 5 -2 d 4 -2 d 5 -2 d 4 -3 d 5 -4 d 36 -42 d 4 -7 d 4 -8 d 5 -7 d 4 -8
 d 5 -8 d 4 -9 d 5 -8 d 4 -9 d 5 -9 d 4 -9 d 5 -9 d 4 -9 d 9 -18 d 9 -16 d 9 -16 d 9 -15 d 18 -25 d 18 -21 d 18 -19 d 36 -40 d 36 -45 d 35 -51 d s black 3 lw 381 1026 m -18 X s 363 1026 m cl s 381 1026 m 18 X s 399 1026 m cl s 381 1026 m 46 Y s 381
 1072 m cl s 381 1026 m -54 Y s 381 972 m cl s 417 1045 m -18 X s 399 1045 m cl s 417 1045 m 17 X s 434 1045 m cl s 417 1045 m 40 Y s 417 1085 m cl s 417 1045 m -44 Y s 417 1001 m cl s 452 950 m -18 X s 434 950 m cl s 452 950 m 18 X s 470 950 m cl s
 452 950 m 82 Y s 452 1032 m cl s 452 950 m -121 Y s 452 829 m cl s 488 1026 m -18 X s 470 1026 m cl s 488 1026 m 18 X s 506 1026 m cl s 488 1026 m 46 Y s 488 1072 m cl s 488 1026 m -54 Y s 488 972 m cl s 524 1045 m -18 X s 506 1045 m cl s 524 1045 m
 18 X s 542 1045 m cl s 524 1045 m 40 Y s 524 1085 m cl s 524 1045 m -44 Y s 524 1001 m cl s 560 634 m -18 X s 542 634 m cl s 560 634 m 18 X s 578 634 m cl s 560 634 m 326 Y s 560 960 m cl s 596 1026 m -18 X s 578 1026 m cl s 596 1026 m 18 X s 614
 1026 m cl s 596 1026 m 46 Y s 596 1072 m cl s 596 1026 m -54 Y s 596 972 m cl s 632 1061 m -18 X s 614 1061 m cl s 632 1061 m 17 X s 649 1061 m cl s 632 1061 m 35 Y s 632 1096 m cl s 632 1061 m -39 Y s 632 1022 m cl s 667 998 m -18 X s 649 998 m cl
 s 667 998 m 18 X s 685 998 m cl s 667 998 m 58 Y s 667 1056 m cl s 667 998 m -72 Y s 667 926 m cl s 703 1045 m -18 X s 685 1045 m cl s 703 1045 m 18 X s 721 1045 m cl s 703 1045 m 40 Y s 703 1085 m cl s 703 1045 m -44 Y s 703 1001 m cl s 739 1026 m
 -18 X s 721 1026 m cl s 739 1026 m 18 X s 757 1026 m cl s 739 1026 m 46 Y s 739 1072 m cl s 739 1026 m -54 Y s 739 972 m cl s 775 1084 m -18 X s 757 1084 m cl s 775 1084 m 18 X s 793 1084 m cl s 775 1084 m 29 Y s 775 1113 m cl s 775 1084 m -32 Y s
 775 1052 m cl s 811 1061 m -18 X s 793 1061 m cl s 811 1061 m 18 X s 829 1061 m cl s 811 1061 m 35 Y s 811 1096 m cl s 811 1061 m -39 Y s 811 1022 m cl s 847 998 m -18 X s 829 998 m cl s 847 998 m 17 X s 864 998 m cl s 847 998 m 58 Y s 847 1056 m cl
 s 847 998 m -72 Y s 847 926 m cl s 882 1045 m -18 X s 864 1045 m cl s 882 1045 m 18 X s 900 1045 m cl s 882 1045 m 40 Y s 882 1085 m cl s 882 1045 m -44 Y s 882 1001 m cl s 918 1073 m -18 X s 900 1073 m cl s 918 1073 m 18 X s 936 1073 m cl s 918
 1073 m 32 Y s 918 1105 m cl s 918 1073 m -34 Y s 918 1039 m cl s 954 1045 m -18 X s 936 1045 m cl s 954 1045 m 18 X s 972 1045 m cl s 954 1045 m 40 Y s 954 1085 m cl s 954 1045 m -44 Y s 954 1001 m cl s 990 1026 m -18 X s 972 1026 m cl s 990 1026 m
 18 X s 1008 1026 m cl s 990 1026 m 46 Y s 990 1072 m cl s 990 1026 m -54 Y s 990 972 m cl s 1026 1061 m -18 X s 1008 1061 m cl s 1026 1061 m 18 X s 1044 1061 m cl s 1026 1061 m 35 Y s 1026 1096 m cl s 1026 1061 m -39 Y s 1026 1022 m cl s 1062 1108 m
 -18 X s 1044 1108 m cl s 1062 1108 m 17 X s 1079 1108 m cl s 1062 1108 m 25 Y s 1062 1133 m cl s 1062 1108 m -25 Y s 1062 1083 m cl s 1097 1101 m -18 X s 1079 1101 m cl s 1097 1101 m 18 X s 1115 1101 m cl s 1097 1101 m 26 Y s 1097 1127 m cl s 1097
 1101 m -27 Y s 1097 1074 m cl s 1133 1101 m -18 X s 1115 1101 m cl s 1133 1101 m 18 X s 1151 1101 m cl s 1133 1101 m 26 Y s 1133 1127 m cl s 1133 1101 m -27 Y s 1133 1074 m cl s 1169 1073 m -18 X s 1151 1073 m cl s 1169 1073 m 18 X s 1187 1073 m cl
 s 1169 1073 m 32 Y s 1169 1105 m cl s 1169 1073 m -34 Y s 1169 1039 m cl s 1205 1108 m -18 X s 1187 1108 m cl s 1205 1108 m 18 X s 1223 1108 m cl s 1205 1108 m 25 Y s 1205 1133 m cl s 1205 1108 m -25 Y s 1205 1083 m cl s 1241 1131 m -18 X s 1223
 1131 m cl s 1241 1131 m 18 X s 1259 1131 m cl s 1241 1131 m 21 Y s 1241 1152 m cl s 1241 1131 m -21 Y s 1241 1110 m cl s 1276 1108 m -17 X s 1259 1108 m cl s 1276 1108 m 18 X s 1294 1108 m cl s 1276 1108 m 25 Y s 1276 1133 m cl s 1276 1108 m -25 Y s
 1276 1083 m cl s 1312 1101 m -18 X s 1294 1101 m cl s 1312 1101 m 18 X s 1330 1101 m cl s 1312 1101 m 26 Y s 1312 1127 m cl s 1312 1101 m -27 Y s 1312 1074 m cl s 1348 1136 m -18 X s 1330 1136 m cl s 1348 1136 m 18 X s 1366 1136 m cl s 1348 1136 m
 20 Y s 1348 1156 m cl s 1348 1136 m -20 Y s 1348 1116 m cl s 1384 1156 m -18 X s 1366 1156 m cl s 1384 1156 m 18 X s 1402 1156 m cl s 1384 1156 m 17 Y s 1384 1173 m cl s 1384 1156 m -17 Y s 1384 1139 m cl s 1420 1152 m -18 X s 1402 1152 m cl s 1420
 1152 m 18 X s 1438 1152 m cl s 1420 1152 m 18 Y s 1420 1170 m cl s 1420 1152 m -17 Y s 1420 1135 m cl s 1456 1188 m -18 X s 1438 1188 m cl s 1456 1188 m 18 X s 1474 1188 m cl s 1456 1188 m 13 Y s 1456 1201 m cl s 1456 1188 m -13 Y s 1456 1175 m cl s
 1491 1207 m -17 X s 1474 1207 m cl s 1491 1207 m 18 X s 1509 1207 m cl s 1491 1207 m 11 Y s 1491 1218 m cl s 1491 1207 m -11 Y s 1491 1196 m cl s 1527 1202 m -18 X s 1509 1202 m cl s 1527 1202 m 18 X s 1545 1202 m cl s 1527 1202 m 12 Y s 1527 1214 m
 cl s 1527 1202 m -12 Y s 1527 1190 m cl s 1563 1213 m -18 X s 1545 1213 m cl s 1563 1213 m 18 X s 1581 1213 m cl s 1563 1213 m 11 Y s 1563 1224 m cl s 1563 1213 m -11 Y s 1563 1202 m cl s 1599 1260 m -18 X s 1581 1260 m cl s 1599 1260 m 18 X s 1617
 1260 m cl s 1599 1260 m 8 Y s 1599 1268 m cl s 1599 1260 m -7 Y s 1599 1253 m cl s 1635 1280 m -18 X s 1617 1280 m cl s 1635 1280 m 18 X s 1653 1280 m cl s 1635 1280 m 6 Y s 1635 1286 m cl s 1635 1280 m -7 Y s 1635 1273 m cl s 1671 1305 m -18 X s
 1653 1305 m cl s 1671 1305 m 18 X s 1689 1305 m cl s 1671 1305 m 6 Y s 1671 1311 m cl s 1671 1305 m -5 Y s 1671 1300 m cl s 1706 1342 m -17 X s 1689 1342 m cl s 1706 1342 m 18 X s 1724 1342 m cl s 1706 1342 m 4 Y s 1706 1346 m cl s 1706 1342 m -4 Y
 s 1706 1338 m cl s 1742 1382 m -18 X s 1724 1382 m cl s 1742 1382 m 18 X s 1760 1382 m cl s 1742 1382 m 2 Y s 1742 1384 m cl s 1742 1382 m -3 Y s 1742 1379 m cl s 1778 1415 m -18 X s 1760 1415 m cl s 1778 1415 m 18 X s 1796 1415 m cl s 1778 1415 m 3
 Y s 1778 1418 m cl s 1778 1415 m -2 Y s 1778 1413 m cl s 1814 1443 m -18 X s 1796 1443 m cl s 1814 1443 m 18 X s 1832 1443 m cl s 1814 1443 m 2 Y s 1814 1445 m cl s 1814 1443 m -2 Y s 1814 1441 m cl s 1850 1445 m -18 X s 1832 1445 m cl s 1850 1445 m
 18 X s 1868 1445 m cl s 1850 1445 m 2 Y s 1850 1447 m cl s 1850 1445 m -2 Y s 1850 1443 m cl s 1886 1416 m -18 X s 1868 1416 m cl s 1886 1416 m 18 X s 1904 1416 m cl s 1886 1416 m 2 Y s 1886 1418 m cl s 1886 1416 m -3 Y s 1886 1413 m cl s 1921 1362
 m -17 X s 1904 1362 m cl s 1921 1362 m 18 X s 1939 1362 m cl s 1921 1362 m 4 Y s 1921 1366 m cl s 1921 1362 m -3 Y s 1921 1359 m cl s 1957 1290 m -18 X s 1939 1290 m cl s 1957 1290 m 18 X s 1975 1290 m cl s 1957 1290 m 6 Y s 1957 1296 m cl s 1957
 1290 m -6 Y s 1957 1284 m cl s 1993 1229 m -18 X s 1975 1229 m cl s 1993 1229 m 18 X s 2011 1229 m cl s 1993 1229 m 10 Y s 1993 1239 m cl s 1993 1229 m -9 Y s 1993 1220 m cl s 2029 1169 m -18 X s 2011 1169 m cl s 2029 1169 m 18 X s 2047 1169 m cl s
 2029 1169 m 15 Y s 2029 1184 m cl s 2029 1169 m -16 Y s 2029 1153 m cl s 2065 1126 m -18 X s 2047 1126 m cl s 2065 1126 m 18 X s 2083 1126 m cl s 2065 1126 m 22 Y s 2065 1148 m cl s 2065 1126 m -22 Y s 2065 1104 m cl s 2101 1101 m -18 X s 2083 1101
 m cl s 2101 1101 m 18 X s 2119 1101 m cl s 2101 1101 m 26 Y s 2101 1127 m cl s 2101 1101 m -27 Y s 2101 1074 m cl s 2136 1093 m -17 X s 2119 1093 m cl s 2136 1093 m 18 X s 2154 1093 m cl s 2136 1093 m 28 Y s 2136 1121 m cl s 2136 1093 m -29 Y s 2136
 1064 m cl s 381 1026 417 1045 452 950 488 1026 524 1045 5 { m20} R 596 1026 632 1061 667 998 703 1045 739 1026 775 1084 811 1061 847 998 882 1045 918 1073 954 1045 990 1026 1026 1061 1062 1108 1097 1101 1133 1101 1169 1073 1205 1108 1241 1131 1276
 1108 1312 1101 1348 1136 1384 1156 1420 1152 1456 1188 1491 1207 1527 1202 1563 1213 1599 1260 1635 1280 1671 1305 1706 1342 1742 1382 1778 1415 1814 1443 1850 1445 1886 1416 1921 1362 1957 1290 1993 1229 2029 1169 2065 1126 2101 1101 2136 1093 44 {
 m20} R 0.52 0.76 0.64 c[ 4 8] 0 sd 9 lw black 0.52 0.76 0.64 c 363 994 m 36 4 d 35 3 d 36 4 d 36 3 d 36 4 d 36 4 d 36 4 d 35 4 d 36 4 d 36 4 d 36 5 d 36 4 d 36 5 d 35 5 d 36 5 d 36 5 d 36 6 d 36 6 d 36 6 d 35 6 d 36 7 d 36 7 d 36 7 d 36 7 d 36 9 d
 35 8 d 36 10 d 36 9 d 36 11 d 36 12 d 36 12 d 35 14 d 36 16 d 36 17 d 36 20 d 18 11 d 18 12 d 18 14 d 9 7 d 9 8 d 8 8 d 9 8 d 9 9 d 9 10 d 5 5 d 4 6 d 5 5 d 4 6 d 5 6 d 4 7 d 5 6 d 4 7 d 9 14 d 9 12 d 9 10 d 5 4 d 4 4 d 5 3 d 4 3 d 4 2 d 5 2 d 4 2 d
 5 1 d 13 X 5 -1 d 4 -1 d 5 -2 d 4 -2 d 5 -3 d 4 -3 d 5 -4 d 36 -46 d 4 -8 d 4 -9 d 5 -9 d 4 -9 d 5 -10 d 4 -10 d 5 -11 d 4 -11 d 5 -12 d 4 -12 d 5 -12 d 4 -13 d 9 -28 d 9 -29 d 9 -32 d 9 -33 d 18 -72 d 36 -166 d 36 -197 d 10 -64 d s 0.54 0.66 0.63 c
 black 0.54 0.66 0.63 c 1306 634 m 24 57 d s 1330 691 m 36 80 d 36 74 d 36 67 d 36 62 d 17 29 d 18 27 d 18 26 d 18 24 d 18 23 d 18 21 d 9 10 d 9 10 d 9 9 d 9 9 d 9 9 d 9 8 d 9 8 d 9 8 d 18 14 d 18 12 d 35 20 d 18 8 d 9 4 d 9 3 d 9 3 d 9 2 d 9 2 d 9 1
 d 9 2 d 9 1 d 27 X 9 -1 d 9 -1 d 9 -1 d 9 -2 d 9 -2 d 9 -2 d 9 -3 d 8 -3 d 9 -4 d 18 -8 d 36 -21 d 18 -13 d 18 -14 d 9 -8 d 9 -8 d 9 -8 d 9 -9 d 9 -9 d 9 -10 d 9 -9 d 9 -11 d 18 -21 d 18 -23 d 17 -25 d 18 -26 d s black[  ] 0 sd 3 lw 363 634 m 1791 X
 s 462 659 m -25 Y s 512 646 m -12 Y s 562 646 m -12 Y s 612 646 m -12 Y s 661 659 m -25 Y s 711 646 m -12 Y s 761 646 m -12 Y s 811 646 m -12 Y s 860 659 m -25 Y s 910 646 m -12 Y s 960 646 m -12 Y s 1010 646 m -12 Y s 1060 659 m -25 Y s 1109 646 m
 -12 Y s 1159 646 m -12 Y s 1209 646 m -12 Y s 1259 659 m -25 Y s 1308 646 m -12 Y s 1358 646 m -12 Y s 1408 646 m -12 Y s 1458 659 m -25 Y s 1507 646 m -12 Y s 1557 646 m -12 Y s 1607 646 m -12 Y s 1657 659 m -25 Y s 1706 646 m -12 Y s 1756 646 m
 -12 Y s 1806 646 m -12 Y s 1856 659 m -25 Y s 1906 646 m -12 Y s 1955 646 m -12 Y s 2005 646 m -12 Y s 2055 659 m -25 Y s 462 659 m -25 Y s 413 646 m -12 Y s 363 646 m -12 Y s 2055 659 m -25 Y s 2105 646 m -12 Y s 363 1484 m 1791 X s 462 1459 m 25 Y
 s 512 1471 m 13 Y s 562 1471 m 13 Y s 612 1471 m 13 Y s 661 1459 m 25 Y s 711 1471 m 13 Y s 761 1471 m 13 Y s 811 1471 m 13 Y s 860 1459 m 25 Y s 910 1471 m 13 Y s 960 1471 m 13 Y s 1010 1471 m 13 Y s 1060 1459 m 25 Y s 1109 1471 m 13 Y s 1159 1471
 m 13 Y s 1209 1471 m 13 Y s 1259 1459 m 25 Y s 1308 1471 m 13 Y s 1358 1471 m 13 Y s 1408 1471 m 13 Y s 1458 1459 m 25 Y s 1507 1471 m 13 Y s 1557 1471 m 13 Y s 1607 1471 m 13 Y s 1657 1459 m 25 Y s 1706 1471 m 13 Y s 1756 1471 m 13 Y s 1806 1471 m
 13 Y s 1856 1459 m 25 Y s 1906 1471 m 13 Y s 1955 1471 m 13 Y s 2005 1471 m 13 Y s 2055 1459 m 25 Y s 462 1459 m 25 Y s 413 1471 m 13 Y s 363 1471 m 13 Y s 2055 1459 m 25 Y s 2105 1471 m 13 Y s 363 634 m 850 Y s 417 634 m -54 X s 390 681 m -27 X s
 390 709 m -27 X s 390 729 m -27 X s 390 744 m -27 X s 390 757 m -27 X s 390 767 m -27 X s 390 777 m -27 X s 390 785 m -27 X s 417 792 m -54 X s 390 840 m -27 X s 390 867 m -27 X s 390 887 m -27 X s 390 902 m -27 X s 390 915 m -27 X s 390 926 m -27 X
 s 390 935 m -27 X s 390 943 m -27 X s 417 950 m -54 X s 390 998 m -27 X s 390 1026 m -27 X s 390 1045 m -27 X s 390 1061 m -27 X s 390 1073 m -27 X s 390 1084 m -27 X s 390 1093 m -27 X s 390 1101 m -27 X s 417 1108 m -54 X s 390 1156 m -27 X s 390
 1184 m -27 X s 390 1204 m -27 X s 390 1219 m -27 X s 390 1232 m -27 X s 390 1242 m -27 X s 390 1251 m -27 X s 390 1259 m -27 X s 417 1267 m -54 X s 390 1314 m -27 X s 390 1342 m -27 X s 390 1362 m -27 X s 390 1377 m -27 X s 390 1390 m -27 X s 390
 1400 m -27 X s 390 1410 m -27 X s 390 1418 m -27 X s 417 1425 m -54 X s 390 1473 m -27 X s 2154 634 m 850 Y s 2101 634 m 53 X s 2127 681 m 27 X s 2127 709 m 27 X s 2127 729 m 27 X s 2127 744 m 27 X s 2127 757 m 27 X s 2127 767 m 27 X s 2127 777 m 27
 X s 2127 785 m 27 X s 2101 792 m 53 X s 2127 840 m 27 X s 2127 867 m 27 X s 2127 887 m 27 X s 2127 902 m 27 X s 2127 915 m 27 X s 2127 926 m 27 X s 2127 935 m 27 X s 2127 943 m 27 X s 2101 950 m 53 X s 2127 998 m 27 X s 2127 1026 m 27 X s 2127 1045
 m 27 X s 2127 1061 m 27 X s 2127 1073 m 27 X s 2127 1084 m 27 X s 2127 1093 m 27 X s 2127 1101 m 27 X s 2101 1108 m 53 X s 2127 1156 m 27 X s 2127 1184 m 27 X s 2127 1204 m 27 X s 2127 1219 m 27 X s 2127 1232 m 27 X s 2127 1242 m 27 X s 2127 1251 m
 27 X s 2127 1259 m 27 X s 2101 1267 m 53 X s 2127 1314 m 27 X s 2127 1342 m 27 X s 2127 1362 m 27 X s 2127 1377 m 27 X s 2127 1390 m 27 X s 2127 1400 m 27 X s 2127 1410 m 27 X s 2127 1418 m 27 X s 2101 1425 m 53 X s 2127 1473 m 27 X s
 gsave  2268 1077 0 461 C 677.708 1215.31 t 0 r /Helvetica findfont 58.7189 sf 0 0 m (4e) show NC gr  1 1 1 c 453 161 454 1269 bf black
 gsave  2268 1077 0 461 C 566.929 1371.71 t 0 r /Helvetica-Bold findfont 48.9324 sf 0 0 m (MC15) show NC gr  510 1390 m20
 gsave  2268 1077 0 461 C 566.929 1293.51 t 0 r /Helvetica-Bold findfont 48.9324 sf 0 0 m (Projection of Signal pdf) show NC gr  0 0 1 c 9 lw 471 1309 m 79 X s black 3 lw 1 1 1 c 2268 461 0 0 bf black 1 1 1 c 1791 364 363 74 bf black 1791 364 363 74
 bl 363 74 m 1791 X s
 gsave  2268 461 0 0 C 1915.83 13.0329 t 0 r /Helvetica findfont 22.9045 sf 0 0 m (4l Invariant Mass \(GeV\)) show NC gr  462 85 m -11 Y s 512 79 m -5 Y s 562 79 m -5 Y s 612 79 m -5 Y s 661 85 m -11 Y s 711 79 m -5 Y s 761 79 m -5 Y s 811 79 m -5 Y
 s 860 85 m -11 Y s 910 79 m -5 Y s 960 79 m -5 Y s 1010 79 m -5 Y s 1060 85 m -11 Y s 1109 79 m -5 Y s 1159 79 m -5 Y s 1209 79 m -5 Y s 1259 85 m -11 Y s 1308 79 m -5 Y s 1358 79 m -5 Y s 1408 79 m -5 Y s 1458 85 m -11 Y s 1507 79 m -5 Y s 1557 79
 m -5 Y s 1607 79 m -5 Y s 1657 85 m -11 Y s 1706 79 m -5 Y s 1756 79 m -5 Y s 1806 79 m -5 Y s 1856 85 m -11 Y s 1906 79 m -5 Y s 1955 79 m -5 Y s 2005 79 m -5 Y s 2055 85 m -11 Y s 462 85 m -11 Y s 413 79 m -5 Y s 363 79 m -5 Y s 2055 85 m -11 Y s
 2105 79 m -5 Y s
 gsave  2268 461 0 0 C 439.859 55.3896 t 0 r /Helvetica findfont 22.9045 sf 0 0 m (560) show NC gr 
 gsave  2268 461 0 0 C 641.868 55.3896 t 0 r /Helvetica findfont 22.9045 sf 0 0 m (580) show NC gr 
 gsave  2268 461 0 0 C 840.619 55.3896 t 0 r /Helvetica findfont 22.9045 sf 0 0 m (600) show NC gr 
 gsave  2268 461 0 0 C 1039.37 55.3896 t 0 r /Helvetica findfont 22.9045 sf 0 0 m (620) show NC gr 
 gsave  2268 461 0 0 C 1238.12 55.3896 t 0 r /Helvetica findfont 22.9045 sf 0 0 m (640) show NC gr 
 gsave  2268 461 0 0 C 1436.87 55.3896 t 0 r /Helvetica findfont 22.9045 sf 0 0 m (660) show NC gr 
 gsave  2268 461 0 0 C 1635.62 55.3896 t 0 r /Helvetica findfont 22.9045 sf 0 0 m (680) show NC gr 
 gsave  2268 461 0 0 C 1834.37 55.3896 t 0 r /Helvetica findfont 22.9045 sf 0 0 m (700) show NC gr 
 gsave  2268 461 0 0 C 2033.13 55.3896 t 0 r /Helvetica findfont 22.9045 sf 0 0 m (720) show NC gr  363 438 m 1791 X s 462 427 m 11 Y s 512 433 m 5 Y s 562 433 m 5 Y s 612 433 m 5 Y s 661 427 m 11 Y s 711 433 m 5 Y s 761 433 m 5 Y s 811 433 m 5 Y s
 860 427 m 11 Y s 910 433 m 5 Y s 960 433 m 5 Y s 1010 433 m 5 Y s 1060 427 m 11 Y s 1109 433 m 5 Y s 1159 433 m 5 Y s 1209 433 m 5 Y s 1259 427 m 11 Y s 1308 433 m 5 Y s 1358 433 m 5 Y s 1408 433 m 5 Y s 1458 427 m 11 Y s 1507 433 m 5 Y s 1557 433 m
 5 Y s 1607 433 m 5 Y s 1657 427 m 11 Y s 1706 433 m 5 Y s 1756 433 m 5 Y s 1806 433 m 5 Y s 1856 427 m 11 Y s 1906 433 m 5 Y s 1955 433 m 5 Y s 2005 433 m 5 Y s 2055 427 m 11 Y s 462 427 m 11 Y s 413 433 m 5 Y s 363 433 m 5 Y s 2055 427 m 11 Y s
 2105 433 m 5 Y s 363 74 m 364 Y s 417 74 m -54 X s 390 81 m -27 X s 390 88 m -27 X s 390 96 m -27 X s 390 103 m -27 X s 417 110 m -54 X s 390 118 m -27 X s 390 125 m -27 X s 390 132 m -27 X s 390 139 m -27 X s 417 147 m -54 X s 390 154 m -27 X s 390
 161 m -27 X s 390 169 m -27 X s 390 176 m -27 X s 417 183 m -54 X s 390 190 m -27 X s 390 198 m -27 X s 390 205 m -27 X s 390 212 m -27 X s 417 220 m -54 X s 390 227 m -27 X s 390 234 m -27 X s 390 241 m -27 X s 390 249 m -27 X s 417 256 m -54 X s
 390 263 m -27 X s 390 271 m -27 X s 390 278 m -27 X s 390 285 m -27 X s 417 293 m -54 X s 390 300 m -27 X s 390 307 m -27 X s 390 314 m -27 X s 390 322 m -27 X s 417 329 m -54 X s 390 336 m -27 X s 390 344 m -27 X s 390 351 m -27 X s 390 358 m -27 X
 s 417 365 m -54 X s 390 373 m -27 X s 390 380 m -27 X s 390 387 m -27 X s 390 395 m -27 X s 417 402 m -54 X s 390 409 m -27 X s 390 416 m -27 X s 390 424 m -27 X s 390 431 m -27 X s 417 438 m -54 X s
 gsave  2268 461 0 0 C 329.08 65.1643 t 0 r /Helvetica findfont 22.9045 sf 0 0 m (\2555) show NC gr 
 gsave  2268 461 0 0 C 329.08 101.005 t 0 r /Helvetica findfont 22.9045 sf 0 0 m (\2554) show NC gr 
 gsave  2268 461 0 0 C 329.08 140.103 t 0 r /Helvetica findfont 22.9045 sf 0 0 m (\2553) show NC gr 
 gsave  2268 461 0 0 C 329.08 175.944 t 0 r /Helvetica findfont 22.9045 sf 0 0 m (\2552) show NC gr 
 gsave  2268 461 0 0 C 332.338 211.784 t 0 r /Helvetica findfont 22.9045 sf 0 0 m (\2551) show NC gr 
 gsave  2268 461 0 0 C 335.596 247.624 t 0 r /Helvetica findfont 22.9045 sf 0 0 m (0) show NC gr 
 gsave  2268 461 0 0 C 338.854 283.465 t 0 r /Helvetica findfont 22.9045 sf 0 0 m (1) show NC gr 
 gsave  2268 461 0 0 C 335.596 319.305 t 0 r /Helvetica findfont 22.9045 sf 0 0 m (2) show NC gr 
 gsave  2268 461 0 0 C 335.596 358.403 t 0 r /Helvetica findfont 22.9045 sf 0 0 m (3) show NC gr 
 gsave  2268 461 0 0 C 335.596 394.244 t 0 r /Helvetica findfont 22.9045 sf 0 0 m (4) show NC gr 
 gsave  2268 461 0 0 C 335.596 430.084 t 0 r /Helvetica findfont 22.9045 sf 0 0 m (5) show NC gr  2154 74 m 364 Y s 2101 74 m 53 X s 2127 81 m 27 X s 2127 88 m 27 X s 2127 96 m 27 X s 2127 103 m 27 X s 2101 110 m 53 X s 2127 118 m 27 X s 2127 125 m
 27 X s 2127 132 m 27 X s 2127 139 m 27 X s 2101 147 m 53 X s 2127 154 m 27 X s 2127 161 m 27 X s 2127 169 m 27 X s 2127 176 m 27 X s 2101 183 m 53 X s 2127 190 m 27 X s 2127 198 m 27 X s 2127 205 m 27 X s 2127 212 m 27 X s 2101 220 m 53 X s 2127 227
 m 27 X s 2127 234 m 27 X s 2127 241 m 27 X s 2127 249 m 27 X s 2101 256 m 53 X s 2127 263 m 27 X s 2127 271 m 27 X s 2127 278 m 27 X s 2127 285 m 27 X s 2101 293 m 53 X s 2127 300 m 27 X s 2127 307 m 27 X s 2127 314 m 27 X s 2127 322 m 27 X s 2101
 329 m 53 X s 2127 336 m 27 X s 2127 344 m 27 X s 2127 351 m 27 X s 2127 358 m 27 X s 2101 365 m 53 X s 2127 373 m 27 X s 2127 380 m 27 X s 2127 387 m 27 X s 2127 395 m 27 X s 2101 402 m 53 X s 2127 409 m 27 X s 2127 416 m 27 X s 2127 424 m 27 X s
 2127 431 m 27 X s 2101 438 m 53 X s 6 lw 0.2 0.8 0.2 c black 3 lw 0.2 0.8 0.2 c 363 256 m 23 Y 36 X 14 Y 35 X -55 Y 36 X 34 Y 36 X 15 Y 36 X -111 Y 36 X 87 Y 36 X 30 Y 35 X -51 Y 36 X 29 Y 36 X -20 Y 36 X 52 Y 36 X -29 Y 36 X -48 Y 35 X 24 Y 36 X 23
 Y 36 X -32 Y 36 X -19 Y 36 X 21 Y 36 X 50 Y 35 X -18 Y 36 X -10 Y 36 X -41 Y 36 X 30 Y 36 X 27 Y 36 X -50 Y 35 X -26 Y 36 X 36 Y 36 X 16 Y 36 X -32 Y 36 X 53 Y 36 X 13 Y 35 X -73 Y 36 X -39 Y 36 X 98 Y 36 X -24 Y 36 X -5 Y 36 X 59 Y 35 X 54 Y 36 X
 -163 Y 36 X 14 Y 36 X 57 Y 36 X -7 Y 36 X 7 Y 35 X -18 Y 36 X 16 Y 36 X -38 Y 36 X -1 Y 36 X 27 Y 36 X 46 Y 35 X -45 Y f 6 lw black 0.2 0.8 0.2 c black 363 279 m 36 X 14 Y 35 X -55 Y 36 X 34 Y 36 X 15 Y 36 X -111 Y 36 X 87 Y 36 X 30 Y 35 X -51 Y 36
 X 29 Y 36 X -20 Y 36 X 52 Y 36 X -29 Y 36 X -48 Y 35 X 24 Y 36 X 23 Y 36 X -32 Y 36 X -19 Y 36 X 21 Y 36 X 50 Y 35 X -18 Y 36 X -10 Y 36 X -41 Y 36 X 30 Y 36 X 27 Y 36 X -50 Y 35 X -26 Y 36 X 36 Y 36 X 16 Y 36 X -32 Y 36 X 53 Y 36 X 13 Y 35 X -73 Y
 36 X -39 Y 36 X 98 Y 36 X -24 Y 36 X -5 Y 36 X 59 Y 35 X 54 Y 36 X -163 Y 36 X 14 Y 36 X 57 Y 36 X -7 Y 36 X 7 Y 35 X -18 Y 36 X 16 Y 36 X -38 Y 36 X -1 Y 36 X 27 Y 36 X 46 Y 35 X s 3 lw 363 74 m 1791 X s 462 85 m -11 Y s 512 79 m -5 Y s 562 79 m -5
 Y s 612 79 m -5 Y s 661 85 m -11 Y s 711 79 m -5 Y s 761 79 m -5 Y s 811 79 m -5 Y s 860 85 m -11 Y s 910 79 m -5 Y s 960 79 m -5 Y s 1010 79 m -5 Y s 1060 85 m -11 Y s 1109 79 m -5 Y s 1159 79 m -5 Y s 1209 79 m -5 Y s 1259 85 m -11 Y s 1308 79 m
 -5 Y s 1358 79 m -5 Y s 1408 79 m -5 Y s 1458 85 m -11 Y s 1507 79 m -5 Y s 1557 79 m -5 Y s 1607 79 m -5 Y s 1657 85 m -11 Y s 1706 79 m -5 Y s 1756 79 m -5 Y s 1806 79 m -5 Y s 1856 85 m -11 Y s 1906 79 m -5 Y s 1955 79 m -5 Y s 2005 79 m -5 Y s
 2055 85 m -11 Y s 462 85 m -11 Y s 413 79 m -5 Y s 363 79 m -5 Y s 2055 85 m -11 Y s 2105 79 m -5 Y s 363 438 m 1791 X s 462 427 m 11 Y s 512 433 m 5 Y s 562 433 m 5 Y s 612 433 m 5 Y s 661 427 m 11 Y s 711 433 m 5 Y s 761 433 m 5 Y s 811 433 m 5 Y
 s 860 427 m 11 Y s 910 433 m 5 Y s 960 433 m 5 Y s 1010 433 m 5 Y s 1060 427 m 11 Y s 1109 433 m 5 Y s 1159 433 m 5 Y s 1209 433 m 5 Y s 1259 427 m 11 Y s 1308 433 m 5 Y s 1358 433 m 5 Y s 1408 433 m 5 Y s 1458 427 m 11 Y s 1507 433 m 5 Y s 1557 433
 m 5 Y s 1607 433 m 5 Y s 1657 427 m 11 Y s 1706 433 m 5 Y s 1756 433 m 5 Y s 1806 433 m 5 Y s 1856 427 m 11 Y s 1906 433 m 5 Y s 1955 433 m 5 Y s 2005 433 m 5 Y s 2055 427 m 11 Y s 462 427 m 11 Y s 413 433 m 5 Y s 363 433 m 5 Y s 2055 427 m 11 Y s
 2105 433 m 5 Y s 363 74 m 364 Y s 417 74 m -54 X s 390 81 m -27 X s 390 88 m -27 X s 390 96 m -27 X s 390 103 m -27 X s 417 110 m -54 X s 390 118 m -27 X s 390 125 m -27 X s 390 132 m -27 X s 390 139 m -27 X s 417 147 m -54 X s 390 154 m -27 X s 390
 161 m -27 X s 390 169 m -27 X s 390 176 m -27 X s 417 183 m -54 X s 390 190 m -27 X s 390 198 m -27 X s 390 205 m -27 X s 390 212 m -27 X s 417 220 m -54 X s 390 227 m -27 X s 390 234 m -27 X s 390 241 m -27 X s 390 249 m -27 X s 417 256 m -54 X s
 390 263 m -27 X s 390 271 m -27 X s 390 278 m -27 X s 390 285 m -27 X s 417 293 m -54 X s 390 300 m -27 X s 390 307 m -27 X s 390 314 m -27 X s 390 322 m -27 X s 417 329 m -54 X s 390 336 m -27 X s 390 344 m -27 X s 390 351 m -27 X s 390 358 m -27 X
 s 417 365 m -54 X s 390 373 m -27 X s 390 380 m -27 X s 390 387 m -27 X s 390 395 m -27 X s 417 402 m -54 X s 390 409 m -27 X s 390 416 m -27 X s 390 424 m -27 X s 390 431 m -27 X s 417 438 m -54 X s 2154 74 m 364 Y s 2101 74 m 53 X s 2127 81 m 27 X
 s 2127 88 m 27 X s 2127 96 m 27 X s 2127 103 m 27 X s 2101 110 m 53 X s 2127 118 m 27 X s 2127 125 m 27 X s 2127 132 m 27 X s 2127 139 m 27 X s 2101 147 m 53 X s 2127 154 m 27 X s 2127 161 m 27 X s 2127 169 m 27 X s 2127 176 m 27 X s 2101 183 m 53 X
 s 2127 190 m 27 X s 2127 198 m 27 X s 2127 205 m 27 X s 2127 212 m 27 X s 2101 220 m 53 X s 2127 227 m 27 X s 2127 234 m 27 X s 2127 241 m 27 X s 2127 249 m 27 X s 2101 256 m 53 X s 2127 263 m 27 X s 2127 271 m 27 X s 2127 278 m 27 X s 2127 285 m 27
 X s 2101 293 m 53 X s 2127 300 m 27 X s 2127 307 m 27 X s 2127 314 m 27 X s 2127 322 m 27 X s 2101 329 m 53 X s 2127 336 m 27 X s 2127 344 m 27 X s 2127 351 m 27 X s 2127 358 m 27 X s 2101 365 m 53 X s 2127 373 m 27 X s 2127 380 m 27 X s 2127 387 m
 27 X s 2127 395 m 27 X s 2101 402 m 53 X s 2127 409 m 27 X s 2127 416 m 27 X s 2127 424 m 27 X s 2127 431 m 27 X s 2101 438 m 53 X s
 gr  gr showpage
end
%%EOF
