%!PS-Adobe-2.0 EPSF-2.0
%%BoundingBox:  0 0 567 384
%%Title: H4l2015_plotfit/VBF_mass_signal_500_H4l_4mu.eps: 
%%Creator: ROOT Version 5.34/07
%%CreationDate: Mon Nov  9 16:29:38 2015
%%EndComments
%%BeginProlog
80 dict begin
/s {stroke} def /l {lineto} def /m {moveto} def /t {translate} def
/r {rotate} def /rl {roll}  def /R {repeat} def
/d {rlineto} def /rm {rmoveto} def /gr {grestore} def /f {eofill} def
/c {setrgbcolor} def /black {0 setgray} def /sd {setdash} def
/cl {closepath} def /sf {scalefont setfont} def /lw {setlinewidth} def
/box {m dup 0 exch d exch 0 d 0 exch neg d cl} def
/NC{systemdict begin initclip end}def/C{NC box clip newpath}def
/bl {box s} def /bf {box f} def /Y { 0 exch d} def /X { 0 d} def 
/K {{pop pop 0 moveto} exch kshow} bind def
/ita {/ang 15 def gsave [1 0 ang dup sin exch cos div 1 0 0] concat} def 
/mp {newpath /y exch def /x exch def} def
/side {[w .77 mul w .23 mul] .385 w mul sd w 0 l currentpoint t -144 r} def
/mr {mp x y w2 0 360 arc} def /m24 {mr s} def /m20 {mr f} def
/mb {mp x y w2 add m w2 neg 0 d 0 w neg d w 0 d 0 w d cl} def
/mt {mp x y w2 add m w2 neg w neg d w 0 d cl} def
/m21 {mb f} def /m25 {mb s} def /m22 {mt f} def /m26{mt s} def
/m23 {mp x y w2 sub m w2 w d w neg 0 d cl f} def
/m27 {mp x y w2 add m w3 neg w2 neg d w3 w2 neg d w3 w2 d cl s} def
/m28 {mp x w2 sub y w2 sub w3 add m w3 0 d  0 w3 neg d w3 0 d 0 w3 d w3 0 d  0 w3 d w3 neg 0 d 0 w3 d w3 neg 0 d 0 w3 neg d w3 neg 0 d cl s } def
/m29 {mp gsave x w2 sub y w2 add w3 sub m currentpoint t 4 {side} repeat cl fill gr} def
/m30 {mp gsave x w2 sub y w2 add w3 sub m currentpoint t 4 {side} repeat cl s gr} def
/m31 {mp x y w2 sub m 0 w d x w2 sub y m w 0 d x w2 sub y w2 add m w w neg d x w2 sub y w2 sub m w w d s} def
/m32 {mp x y w2 sub m w2 w d w neg 0 d cl s} def
/m33 {mp x y w2 add m w3 neg w2 neg d w3 w2 neg d w3 w2 d cl f} def
/m34 {mp x w2 sub y w2 sub w3 add m w3 0 d  0 w3 neg d w3 0 d 0 w3 d w3 0 d  0 w3 d w3 neg 0 d 0 w3 d w3 neg 0 d 0 w3 neg d w3 neg 0 d cl f } def
/m2 {mp x y w2 sub m 0 w d x w2 sub y m w 0 d s} def
/m5 {mp x w2 sub y w2 sub m w w d x w2 sub y w2 add m w w neg d s} def
/reEncode {exch findfont dup length dict begin {1 index /FID eq  {pop pop} {def} ifelse } forall /Encoding exch def currentdict end dup /FontName get exch definefont pop } def [/Times-Bold /Times-Italic /Times-BoldItalic /Helvetica /Helvetica-Oblique
 /Helvetica-Bold /Helvetica-BoldOblique /Courier /Courier-Oblique /Courier-Bold /Courier-BoldOblique /Times-Roman /AvantGarde-Book /AvantGarde-BookOblique /AvantGarde-Demi /AvantGarde-DemiOblique /Bookman-Demi /Bookman-DemiItalic /Bookman-Light
 /Bookman-LightItalic /Helvetica-Narrow /Helvetica-Narrow-Bold /Helvetica-Narrow-BoldOblique /Helvetica-Narrow-Oblique /NewCenturySchlbk-Roman /NewCenturySchlbk-Bold /NewCenturySchlbk-BoldItalic /NewCenturySchlbk-Italic /Palatino-Bold
 /Palatino-BoldItalic /Palatino-Italic /Palatino-Roman ] {ISOLatin1Encoding reEncode } forall
%%EndProlog
%%BeginSetup
%%EndSetup
newpath  gsave  .25 .25 scale  gsave  0 0 t black[  ] 0 sd 3 lw 1 1 1 c 2268 1538 0 0 bf black 1 1 1 c 2222 738 23 784 bf black 1 1 1 c 2222 739 23 15 bf black 1 1 1 c 2268 1077 0 461 bf black 1 1 1 c 1791 850 363 634 bf black 1791 850 363 634 bl 363
 634 m 1791 X s
 gsave  2268 1077 0 461 C 1642.14 498.507 t 0 r /Helvetica findfont 48.9324 sf 0 0 m (4l Invariant Mass \(GeV\)) show NC gr  452 659 m -25 Y s 497 646 m -12 Y s 542 646 m -12 Y s 587 646 m -12 Y s 632 659 m -25 Y s 676 646 m -12 Y s 721 646 m -12 Y s
 766 646 m -12 Y s 811 659 m -25 Y s 855 646 m -12 Y s 900 646 m -12 Y s 945 646 m -12 Y s 990 659 m -25 Y s 1035 646 m -12 Y s 1079 646 m -12 Y s 1124 646 m -12 Y s 1169 659 m -25 Y s 1214 646 m -12 Y s 1259 646 m -12 Y s 1303 646 m -12 Y s 1348 659
 m -25 Y s 1393 646 m -12 Y s 1438 646 m -12 Y s 1483 646 m -12 Y s 1527 659 m -25 Y s 1572 646 m -12 Y s 1617 646 m -12 Y s 1662 646 m -12 Y s 1706 659 m -25 Y s 1751 646 m -12 Y s 1796 646 m -12 Y s 1841 646 m -12 Y s 1886 659 m -25 Y s 1930 646 m
 -12 Y s 1975 646 m -12 Y s 2020 646 m -12 Y s 2065 659 m -25 Y s 452 659 m -25 Y s 408 646 m -12 Y s 363 646 m -12 Y s 2065 659 m -25 Y s 2110 646 m -12 Y s
 gsave  2268 1077 0 461 C 407.277 586.478 t 0 r /Helvetica findfont 48.9324 sf 0 0 m (360) show NC gr 
 gsave  2268 1077 0 461 C 586.478 586.478 t 0 r /Helvetica findfont 48.9324 sf 0 0 m (380) show NC gr 
 gsave  2268 1077 0 461 C 765.68 586.478 t 0 r /Helvetica findfont 48.9324 sf 0 0 m (400) show NC gr 
 gsave  2268 1077 0 461 C 944.882 586.478 t 0 r /Helvetica findfont 48.9324 sf 0 0 m (420) show NC gr 
 gsave  2268 1077 0 461 C 1124.08 586.478 t 0 r /Helvetica findfont 48.9324 sf 0 0 m (440) show NC gr 
 gsave  2268 1077 0 461 C 1303.29 586.478 t 0 r /Helvetica findfont 48.9324 sf 0 0 m (460) show NC gr 
 gsave  2268 1077 0 461 C 1482.49 586.478 t 0 r /Helvetica findfont 48.9324 sf 0 0 m (480) show NC gr 
 gsave  2268 1077 0 461 C 1661.69 586.478 t 0 r /Helvetica findfont 48.9324 sf 0 0 m (500) show NC gr 
 gsave  2268 1077 0 461 C 1840.89 586.478 t 0 r /Helvetica findfont 48.9324 sf 0 0 m (520) show NC gr 
 gsave  2268 1077 0 461 C 2020.09 586.478 t 0 r /Helvetica findfont 48.9324 sf 0 0 m (540) show NC gr  363 1484 m 1791 X s 452 1459 m 25 Y s 497 1471 m 13 Y s 542 1471 m 13 Y s 587 1471 m 13 Y s 632 1459 m 25 Y s 676 1471 m 13 Y s 721 1471 m 13 Y s
 766 1471 m 13 Y s 811 1459 m 25 Y s 855 1471 m 13 Y s 900 1471 m 13 Y s 945 1471 m 13 Y s 990 1459 m 25 Y s 1035 1471 m 13 Y s 1079 1471 m 13 Y s 1124 1471 m 13 Y s 1169 1459 m 25 Y s 1214 1471 m 13 Y s 1259 1471 m 13 Y s 1303 1471 m 13 Y s 1348
 1459 m 25 Y s 1393 1471 m 13 Y s 1438 1471 m 13 Y s 1483 1471 m 13 Y s 1527 1459 m 25 Y s 1572 1471 m 13 Y s 1617 1471 m 13 Y s 1662 1471 m 13 Y s 1706 1459 m 25 Y s 1751 1471 m 13 Y s 1796 1471 m 13 Y s 1841 1471 m 13 Y s 1886 1459 m 25 Y s 1930
 1471 m 13 Y s 1975 1471 m 13 Y s 2020 1471 m 13 Y s 2065 1459 m 25 Y s 452 1459 m 25 Y s 408 1471 m 13 Y s 363 1471 m 13 Y s 2065 1459 m 25 Y s 2110 1471 m 13 Y s 363 634 m 850 Y s
 gsave  2268 1077 0 461 C 120.554 1098.02 t 90 r /Helvetica findfont 48.9324 sf 0 0 m (Events / \( 4 GeV \)) show NC gr  417 634 m -54 X s
 gsave  2268 1077 0 461 C 312.788 632.093 t 0 r /Helvetica findfont 32.6216 sf 0 0 m (\2552) show NC gr 
 gsave  2268 1077 0 461 C 260.657 612.544 t 0 r /Helvetica findfont 48.9324 sf 0 0 m (10) show NC gr  390 683 m -27 X s 390 712 m -27 X s 390 732 m -27 X s 390 748 m -27 X s 390 761 m -27 X s 390 772 m -27 X s 390 782 m -27 X s 390 790 m -27 X s 417
 798 m -54 X s
 gsave  2268 1077 0 461 C 319.305 795.004 t 0 r /Helvetica findfont 32.6216 sf 0 0 m (\2551) show NC gr 
 gsave  2268 1077 0 461 C 267.173 775.455 t 0 r /Helvetica findfont 48.9324 sf 0 0 m (10) show NC gr  390 847 m -27 X s 390 876 m -27 X s 390 896 m -27 X s 390 912 m -27 X s 390 925 m -27 X s 390 936 m -27 X s 390 946 m -27 X s 390 954 m -27 X s 417
 962 m -54 X s
 gsave  2268 1077 0 461 C 342.425 940.849 t 0 r  -27 0 t /Helvetica findfont 48.9324 sf 0 0 m (1) show NC gr  390 1011 m -27 X s 390 1040 m -27 X s 390 1060 m -27 X s 390 1076 m -27 X s 390 1089 m -27 X s 390 1100 m -27 X s 390 1110 m -27 X s 390
 1118 m -27 X s 417 1126 m -54 X s
 gsave  2268 1077 0 461 C 342.425 1104.9 t 0 r  -55 0 t /Helvetica findfont 48.9324 sf 0 0 m (10) show NC gr  390 1175 m -27 X s 390 1204 m -27 X s 390 1225 m -27 X s 390 1240 m -27 X s 390 1253 m -27 X s 390 1264 m -27 X s 390 1274 m -27 X s 390
 1282 m -27 X s 417 1290 m -54 X s
 gsave  2268 1077 0 461 C 322.563 1286.99 t 0 r /Helvetica findfont 32.6216 sf 0 0 m (2) show NC gr 
 gsave  2268 1077 0 461 C 270.432 1267.44 t 0 r /Helvetica findfont 48.9324 sf 0 0 m (10) show NC gr  390 1339 m -27 X s 390 1368 m -27 X s 390 1389 m -27 X s 390 1404 m -27 X s 390 1417 m -27 X s 390 1428 m -27 X s 390 1438 m -27 X s 390 1446 m -27
 X s 417 1454 m -54 X s
 gsave  2268 1077 0 461 C 322.563 1456.42 t 0 r /Helvetica findfont 32.6216 sf 0 0 m (3) show NC gr 
 gsave  2268 1077 0 461 C 270.432 1433.61 t 0 r /Helvetica findfont 48.9324 sf 0 0 m (10) show NC gr  2154 634 m 850 Y s 2101 634 m 53 X s 2127 683 m 27 X s 2127 712 m 27 X s 2127 732 m 27 X s 2127 748 m 27 X s 2127 761 m 27 X s 2127 772 m 27 X s
 2127 782 m 27 X s 2127 790 m 27 X s 2101 798 m 53 X s 2127 847 m 27 X s 2127 876 m 27 X s 2127 896 m 27 X s 2127 912 m 27 X s 2127 925 m 27 X s 2127 936 m 27 X s 2127 946 m 27 X s 2127 954 m 27 X s 2101 962 m 53 X s 2127 1011 m 27 X s 2127 1040 m 27
 X s 2127 1060 m 27 X s 2127 1076 m 27 X s 2127 1089 m 27 X s 2127 1100 m 27 X s 2127 1110 m 27 X s 2127 1118 m 27 X s 2101 1126 m 53 X s 2127 1175 m 27 X s 2127 1204 m 27 X s 2127 1225 m 27 X s 2127 1240 m 27 X s 2127 1253 m 27 X s 2127 1264 m 27 X
 s 2127 1274 m 27 X s 2127 1282 m 27 X s 2101 1290 m 53 X s 2127 1339 m 27 X s 2127 1368 m 27 X s 2127 1389 m 27 X s 2127 1404 m 27 X s 2127 1417 m 27 X s 2127 1428 m 27 X s 2127 1438 m 27 X s 2127 1446 m 27 X s 2101 1454 m 53 X s 381 962 m -18 X s
 363 962 m cl s 381 962 m 18 X s 399 962 m cl s 381 962 m 85 Y s 381 1047 m cl s 381 962 m -125 Y s 381 837 m cl s 417 1040 m -18 X s 399 1040 m cl s 417 1040 m 17 X s 434 1040 m cl s 417 1040 m 48 Y s 417 1088 m cl s 417 1040 m -56 Y s 417 984 m cl
 s 452 1060 m -18 X s 434 1060 m cl s 452 1060 m 18 X s 470 1060 m cl s 452 1060 m 42 Y s 452 1102 m cl s 452 1060 m -46 Y s 452 1014 m cl s 488 1040 m -18 X s 470 1040 m cl s 488 1040 m 18 X s 506 1040 m cl s 488 1040 m 48 Y s 488 1088 m cl s 488
 1040 m -56 Y s 488 984 m cl s 524 1040 m -18 X s 506 1040 m cl s 524 1040 m 18 X s 542 1040 m cl s 524 1040 m 48 Y s 524 1088 m cl s 524 1040 m -56 Y s 524 984 m cl s 560 962 m -18 X s 542 962 m cl s 560 962 m 18 X s 578 962 m cl s 560 962 m 85 Y s
 560 1047 m cl s 560 962 m -125 Y s 560 837 m cl s 596 1110 m -18 X s 578 1110 m cl s 596 1110 m 18 X s 614 1110 m cl s 596 1110 m 28 Y s 596 1138 m cl s 596 1110 m -30 Y s 596 1080 m cl s 632 1076 m -18 X s 614 1076 m cl s 632 1076 m 17 X s 649 1076
 m cl s 632 1076 m 37 Y s 632 1113 m cl s 632 1076 m -40 Y s 632 1036 m cl s 667 1100 m -18 X s 649 1100 m cl s 667 1100 m 18 X s 685 1100 m cl s 667 1100 m 31 Y s 667 1131 m cl s 667 1100 m -32 Y s 667 1068 m cl s 703 962 m -18 X s 685 962 m cl s
 703 962 m 18 X s 721 962 m cl s 703 962 m 85 Y s 703 1047 m cl s 703 962 m -125 Y s 703 837 m cl s 739 1133 m -18 X s 721 1133 m cl s 739 1133 m 18 X s 757 1133 m cl s 739 1133 m 24 Y s 739 1157 m cl s 739 1133 m -26 Y s 739 1107 m cl s 775 1133 m
 -18 X s 757 1133 m cl s 775 1133 m 18 X s 793 1133 m cl s 775 1133 m 24 Y s 775 1157 m cl s 775 1133 m -26 Y s 775 1107 m cl s 811 1100 m -18 X s 793 1100 m cl s 811 1100 m 18 X s 829 1100 m cl s 811 1100 m 31 Y s 811 1131 m cl s 811 1100 m -32 Y s
 811 1068 m cl s 847 1144 m -18 X s 829 1144 m cl s 847 1144 m 17 X s 864 1144 m cl s 847 1144 m 22 Y s 847 1166 m cl s 847 1144 m -22 Y s 847 1122 m cl s 882 1089 m -18 X s 864 1089 m cl s 882 1089 m 18 X s 900 1089 m cl s 882 1089 m 34 Y s 882 1123
 m cl s 882 1089 m -36 Y s 882 1053 m cl s 918 1133 m -18 X s 900 1133 m cl s 918 1133 m 18 X s 936 1133 m cl s 918 1133 m 24 Y s 918 1157 m cl s 918 1133 m -26 Y s 918 1107 m cl s 954 1126 m -18 X s 936 1126 m cl s 954 1126 m 18 X s 972 1126 m cl s
 954 1126 m 25 Y s 954 1151 m cl s 954 1126 m -27 Y s 954 1099 m cl s 990 1171 m -18 X s 972 1171 m cl s 990 1171 m 18 X s 1008 1171 m cl s 990 1171 m 18 Y s 990 1189 m cl s 990 1171 m -18 Y s 990 1153 m cl s 1026 1150 m -18 X s 1008 1150 m cl s 1026
 1150 m 18 X s 1044 1150 m cl s 1026 1150 m 21 Y s 1026 1171 m cl s 1026 1150 m -22 Y s 1026 1128 m cl s 1062 1155 m -18 X s 1044 1155 m cl s 1062 1155 m 17 X s 1079 1155 m cl s 1062 1155 m 20 Y s 1062 1175 m cl s 1062 1155 m -21 Y s 1062 1134 m cl s
 1097 1182 m -18 X s 1079 1182 m cl s 1097 1182 m 18 X s 1115 1182 m cl s 1097 1182 m 16 Y s 1097 1198 m cl s 1097 1182 m -17 Y s 1097 1165 m cl s 1133 1155 m -18 X s 1115 1155 m cl s 1133 1155 m 18 X s 1151 1155 m cl s 1133 1155 m 20 Y s 1133 1175 m
 cl s 1133 1155 m -21 Y s 1133 1134 m cl s 1169 1188 m -18 X s 1151 1188 m cl s 1169 1188 m 18 X s 1187 1188 m cl s 1169 1188 m 16 Y s 1169 1204 m cl s 1169 1188 m -16 Y s 1169 1172 m cl s 1205 1209 m -18 X s 1187 1209 m cl s 1205 1209 m 18 X s 1223
 1209 m cl s 1205 1209 m 13 Y s 1205 1222 m cl s 1205 1209 m -14 Y s 1205 1195 m cl s 1241 1209 m -18 X s 1223 1209 m cl s 1241 1209 m 18 X s 1259 1209 m cl s 1241 1209 m 13 Y s 1241 1222 m cl s 1241 1209 m -14 Y s 1241 1195 m cl s 1276 1251 m -17 X
 s 1259 1251 m cl s 1276 1251 m 18 X s 1294 1251 m cl s 1276 1251 m 10 Y s 1276 1261 m cl s 1276 1251 m -10 Y s 1276 1241 m cl s 1312 1246 m -18 X s 1294 1246 m cl s 1312 1246 m 18 X s 1330 1246 m cl s 1312 1246 m 10 Y s 1312 1256 m cl s 1312 1246 m
 -10 Y s 1312 1236 m cl s 1348 1267 m -18 X s 1330 1267 m cl s 1348 1267 m 18 X s 1366 1267 m cl s 1348 1267 m 9 Y s 1348 1276 m cl s 1348 1267 m -8 Y s 1348 1259 m cl s 1384 1284 m -18 X s 1366 1284 m cl s 1384 1284 m 18 X s 1402 1284 m cl s 1384
 1284 m 8 Y s 1384 1292 m cl s 1384 1284 m -8 Y s 1384 1276 m cl s 1420 1297 m -18 X s 1402 1297 m cl s 1420 1297 m 18 X s 1438 1297 m cl s 1420 1297 m 7 Y s 1420 1304 m cl s 1420 1297 m -7 Y s 1420 1290 m cl s 1456 1334 m -18 X s 1438 1334 m cl s
 1456 1334 m 18 X s 1474 1334 m cl s 1456 1334 m 6 Y s 1456 1340 m cl s 1456 1334 m -5 Y s 1456 1329 m cl s 1491 1342 m -17 X s 1474 1342 m cl s 1491 1342 m 18 X s 1509 1342 m cl s 1491 1342 m 5 Y s 1491 1347 m cl s 1491 1342 m -5 Y s 1491 1337 m cl
 s 1527 1375 m -18 X s 1509 1375 m cl s 1527 1375 m 18 X s 1545 1375 m cl s 1527 1375 m 4 Y s 1527 1379 m cl s 1527 1375 m -4 Y s 1527 1371 m cl s 1563 1402 m -18 X s 1545 1402 m cl s 1563 1402 m 18 X s 1581 1402 m cl s 1563 1402 m 4 Y s 1563 1406 m
 cl s 1563 1402 m -3 Y s 1563 1399 m cl s 1599 1421 m -18 X s 1581 1421 m cl s 1599 1421 m 18 X s 1617 1421 m cl s 1599 1421 m 3 Y s 1599 1424 m cl s 1599 1421 m -3 Y s 1599 1418 m cl s 1635 1432 m -18 X s 1617 1432 m cl s 1635 1432 m 18 X s 1653
 1432 m cl s 1635 1432 m 3 Y s 1635 1435 m cl s 1635 1432 m -2 Y s 1635 1430 m cl s 1671 1449 m -18 X s 1653 1449 m cl s 1671 1449 m 18 X s 1689 1449 m cl s 1671 1449 m 3 Y s 1671 1452 m cl s 1671 1449 m -2 Y s 1671 1447 m cl s 1706 1445 m -17 X s
 1689 1445 m cl s 1706 1445 m 18 X s 1724 1445 m cl s 1706 1445 m 2 Y s 1706 1447 m cl s 1706 1445 m -2 Y s 1706 1443 m cl s 1742 1437 m -18 X s 1724 1437 m cl s 1742 1437 m 18 X s 1760 1437 m cl s 1742 1437 m 3 Y s 1742 1440 m cl s 1742 1437 m -2 Y
 s 1742 1435 m cl s 1778 1415 m -18 X s 1760 1415 m cl s 1778 1415 m 18 X s 1796 1415 m cl s 1778 1415 m 3 Y s 1778 1418 m cl s 1778 1415 m -3 Y s 1778 1412 m cl s 1814 1394 m -18 X s 1796 1394 m cl s 1814 1394 m 18 X s 1832 1394 m cl s 1814 1394 m 3
 Y s 1814 1397 m cl s 1814 1394 m -4 Y s 1814 1390 m cl s 1850 1357 m -18 X s 1832 1357 m cl s 1850 1357 m 18 X s 1868 1357 m cl s 1850 1357 m 4 Y s 1850 1361 m cl s 1850 1357 m -5 Y s 1850 1352 m cl s 1886 1327 m -18 X s 1868 1327 m cl s 1886 1327 m
 18 X s 1904 1327 m cl s 1886 1327 m 6 Y s 1886 1333 m cl s 1886 1327 m -5 Y s 1886 1322 m cl s 1921 1290 m -17 X s 1904 1290 m cl s 1921 1290 m 18 X s 1939 1290 m cl s 1921 1290 m 7 Y s 1921 1297 m cl s 1921 1290 m -8 Y s 1921 1282 m cl s 1957 1243
 m -18 X s 1939 1243 m cl s 1957 1243 m 18 X s 1975 1243 m cl s 1957 1243 m 11 Y s 1957 1254 m cl s 1957 1243 m -10 Y s 1957 1233 m cl s 1993 1230 m -18 X s 1975 1230 m cl s 1993 1230 m 18 X s 2011 1230 m cl s 1993 1230 m 11 Y s 1993 1241 m cl s 1993
 1230 m -12 Y s 1993 1218 m cl s 2029 1182 m -18 X s 2011 1182 m cl s 2029 1182 m 18 X s 2047 1182 m cl s 2029 1182 m 16 Y s 2029 1198 m cl s 2029 1182 m -17 Y s 2029 1165 m cl s 2065 1150 m -18 X s 2047 1150 m cl s 2065 1150 m 18 X s 2083 1150 m cl
 s 2065 1150 m 21 Y s 2065 1171 m cl s 2065 1150 m -22 Y s 2065 1128 m cl s 2101 1126 m -18 X s 2083 1126 m cl s 2101 1126 m 18 X s 2119 1126 m cl s 2101 1126 m 25 Y s 2101 1151 m cl s 2101 1126 m -27 Y s 2101 1099 m cl s 2136 1118 m -17 X s 2119
 1118 m cl s 2136 1118 m 18 X s 2154 1118 m cl s 2136 1118 m 27 Y s 2136 1145 m cl s 2136 1118 m -28 Y s 2136 1090 m cl s /w 31 def /w2 {w 2 div} def /w3 {w 3 div} def 381 962 417 1040 452 1060 488 1040 524 1040 560 962 596 1110 632 1076 667 1100 703
 962 739 1133 775 1133 811 1100 847 1144 882 1089 918 1133 954 1126 990 1171 1026 1150 1062 1155 1097 1182 1133 1155 1169 1188 1205 1209 1241 1209 1276 1251 1312 1246 1348 1267 1384 1284 1420 1297 1456 1334 1491 1342 1527 1375 1563 1402 1599 1421
 1635 1432 1671 1449 1706 1445 1742 1437 1778 1415 1814 1394 1850 1357 1886 1327 1921 1290 1957 1243 1993 1230 2029 1182 2065 1150 2101 1126 2136 1118 50 { m20} R 0 1 1 c 1 1 0 c black 1 1 0 c 363 1019 m 36 8 d 35 7 d 36 8 d 36 7 d 36 8 d 36 8 d 36 8
 d 35 8 d 36 8 d 36 8 d 36 9 d 36 8 d 36 9 d 35 8 d 36 9 d 36 9 d 36 9 d 36 9 d 36 10 d 35 9 d 36 10 d 36 10 d 36 11 d 36 11 d 36 11 d 35 11 d 36 12 d 36 13 d 18 7 d 18 8 d 18 9 d 18 10 d 18 12 d 9 6 d 9 7 d 9 7 d 8 7 d 9 8 d 9 7 d 9 8 d 9 7 d 9 7 d
 9 7 d 9 7 d 9 6 d 18 11 d 18 10 d 9 5 d 9 3 d 9 4 d 9 3 d 9 2 d 9 2 d 9 2 d 9 1 d 26 X 9 -2 d 9 -1 d 9 -3 d 9 -3 d 9 -3 d 9 -4 d 9 -4 d 36 -21 d 18 -13 d 9 -7 d 9 -7 d 9 -7 d 9 -8 d 9 -8 d 9 -9 d 9 -8 d 9 -8 d 9 -9 d 9 -9 d 17 -17 d 18 -17 d 18 -16
 d 18 -16 d 18 -16 d 18 -16 d 36 -34 d 36 -35 d 36 -38 d 35 -40 d -63 Y -35 54 d -36 49 d -36 44 d -36 41 d -18 19 d -18 19 d -18 19 d -18 18 d -18 19 d -17 17 d -9 9 d -9 9 d -9 9 d -9 8 d -9 9 d -9 8 d -9 8 d -9 8 d -9 8 d -9 7 d -18 14 d -36 22 d
 -9 5 d -9 4 d -9 3 d -9 3 d -9 2 d -9 1 d -9 2 d -26 X -9 -1 d -9 -1 d -9 -2 d -9 -2 d -9 -3 d -9 -4 d -9 -4 d -9 -5 d -18 -11 d -18 -12 d -9 -7 d -9 -8 d -9 -7 d -9 -7 d -9 -8 d -9 -8 d -9 -7 d -9 -7 d -8 -8 d -9 -6 d -9 -7 d -9 -7 d -18 -12 d -18
 -12 d -18 -10 d -18 -9 d -18 -8 d -36 -13 d -36 -11 d -35 -11 d -36 -10 d -36 -11 d -36 -10 d -36 -11 d -36 -11 d -35 -10 d -36 -11 d -36 -10 d -36 -11 d -36 -10 d -36 -11 d -35 -10 d -36 -10 d -36 -10 d -36 -9 d -36 -10 d -36 -10 d -35 -9 d -36 -10
 d -36 -9 d -36 -9 d -36 -9 d -36 -9 d -35 -9 d -36 -9 d f 0 1 1 c 0 1 0 c black 0 1 0 c 363 1011 m 36 7 d 35 8 d 36 8 d 36 8 d 36 8 d 36 8 d 36 8 d 35 9 d 36 8 d 36 9 d 36 8 d 36 9 d 36 9 d 35 9 d 36 9 d 36 9 d 36 9 d 36 10 d 36 9 d 35 10 d 36 10 d
 36 11 d 36 10 d 36 11 d 36 11 d 35 11 d 36 12 d 36 13 d 18 7 d 18 8 d 18 9 d 18 11 d 18 12 d 9 6 d 9 7 d 9 7 d 8 7 d 9 8 d 9 7 d 9 8 d 9 7 d 9 7 d 9 7 d 9 7 d 9 6 d 18 12 d 18 10 d 9 5 d 9 4 d 9 3 d 9 3 d 9 3 d 9 2 d 9 1 d 9 1 d 26 X 9 -2 d 9 -1 d 9
 -3 d 9 -2 d 9 -4 d 9 -4 d 9 -4 d 36 -21 d 18 -13 d 9 -7 d 9 -8 d 9 -7 d 9 -8 d 9 -8 d 9 -9 d 9 -8 d 9 -9 d 9 -8 d 9 -9 d 17 -17 d 18 -17 d 18 -17 d 18 -17 d 18 -16 d 18 -17 d 36 -35 d 36 -36 d 36 -40 d 35 -42 d -30 Y -35 48 d -36 45 d -36 41 d -36
 38 d -18 18 d -18 19 d -18 17 d -18 18 d -18 18 d -17 18 d -9 8 d -9 9 d -9 9 d -9 8 d -9 9 d -9 8 d -9 8 d -9 8 d -9 8 d -9 7 d -18 13 d -36 22 d -9 5 d -9 3 d -9 4 d -9 2 d -9 3 d -9 1 d -9 2 d -26 X -9 -1 d -9 -1 d -9 -2 d -9 -3 d -9 -3 d -9 -3 d
 -9 -4 d -9 -5 d -18 -10 d -18 -13 d -9 -7 d -9 -7 d -9 -7 d -9 -7 d -9 -8 d -9 -7 d -9 -8 d -9 -7 d -8 -7 d -9 -7 d -9 -7 d -9 -7 d -18 -12 d -18 -11 d -18 -10 d -18 -9 d -18 -7 d -36 -13 d -36 -12 d -35 -10 d -36 -11 d -36 -11 d -36 -10 d -36 -11 d
 -36 -10 d -35 -11 d -36 -10 d -36 -10 d -36 -10 d -36 -10 d -36 -10 d -35 -9 d -36 -10 d -36 -9 d -36 -10 d -36 -9 d -36 -9 d -35 -9 d -36 -9 d -36 -9 d -36 -8 d -36 -9 d -36 -8 d -35 -9 d -36 -8 d f 0 0 1 c 9 lw black 0 0 1 c 363 1002 m 36 8 d 35 8
 d 36 8 d 36 8 d 36 8 d 36 9 d 36 8 d 35 9 d 36 8 d 36 9 d 36 9 d 36 9 d 36 9 d 35 10 d 36 9 d 36 10 d 36 9 d 36 10 d 36 10 d 35 10 d 36 10 d 36 11 d 36 10 d 36 11 d 36 11 d 35 11 d 36 12 d 36 13 d 18 7 d 18 8 d 18 10 d 18 10 d 18 12 d 9 7 d 9 7 d 9
 7 d 8 7 d 9 8 d 9 7 d 9 7 d 9 8 d 9 7 d 9 7 d 9 7 d 9 7 d 18 12 d 18 10 d 9 5 d 9 4 d 9 3 d 9 3 d 9 3 d 9 2 d 9 1 d 9 1 d 26 X 9 -2 d 9 -1 d 9 -3 d 9 -2 d 9 -4 d 9 -3 d 9 -5 d 36 -21 d 18 -14 d 9 -7 d 9 -7 d 9 -8 d 9 -8 d 9 -8 d 9 -9 d 9 -8 d 9 -9 d
 9 -8 d 9 -9 d 17 -17 d 18 -18 d 18 -17 d 18 -18 d 18 -17 d 18 -17 d 36 -37 d 36 -38 d 36 -42 d 35 -45 d s black 3 lw 381 962 m -18 X s 363 962 m cl s 381 962 m 18 X s 399 962 m cl s 381 962 m 85 Y s 381 1047 m cl s 381 962 m -125 Y s 381 837 m cl s
 417 1040 m -18 X s 399 1040 m cl s 417 1040 m 17 X s 434 1040 m cl s 417 1040 m 48 Y s 417 1088 m cl s 417 1040 m -56 Y s 417 984 m cl s 452 1060 m -18 X s 434 1060 m cl s 452 1060 m 18 X s 470 1060 m cl s 452 1060 m 42 Y s 452 1102 m cl s 452 1060
 m -46 Y s 452 1014 m cl s 488 1040 m -18 X s 470 1040 m cl s 488 1040 m 18 X s 506 1040 m cl s 488 1040 m 48 Y s 488 1088 m cl s 488 1040 m -56 Y s 488 984 m cl s 524 1040 m -18 X s 506 1040 m cl s 524 1040 m 18 X s 542 1040 m cl s 524 1040 m 48 Y s
 524 1088 m cl s 524 1040 m -56 Y s 524 984 m cl s 560 962 m -18 X s 542 962 m cl s 560 962 m 18 X s 578 962 m cl s 560 962 m 85 Y s 560 1047 m cl s 560 962 m -125 Y s 560 837 m cl s 596 1110 m -18 X s 578 1110 m cl s 596 1110 m 18 X s 614 1110 m cl
 s 596 1110 m 28 Y s 596 1138 m cl s 596 1110 m -30 Y s 596 1080 m cl s 632 1076 m -18 X s 614 1076 m cl s 632 1076 m 17 X s 649 1076 m cl s 632 1076 m 37 Y s 632 1113 m cl s 632 1076 m -40 Y s 632 1036 m cl s 667 1100 m -18 X s 649 1100 m cl s 667
 1100 m 18 X s 685 1100 m cl s 667 1100 m 31 Y s 667 1131 m cl s 667 1100 m -32 Y s 667 1068 m cl s 703 962 m -18 X s 685 962 m cl s 703 962 m 18 X s 721 962 m cl s 703 962 m 85 Y s 703 1047 m cl s 703 962 m -125 Y s 703 837 m cl s 739 1133 m -18 X s
 721 1133 m cl s 739 1133 m 18 X s 757 1133 m cl s 739 1133 m 24 Y s 739 1157 m cl s 739 1133 m -26 Y s 739 1107 m cl s 775 1133 m -18 X s 757 1133 m cl s 775 1133 m 18 X s 793 1133 m cl s 775 1133 m 24 Y s 775 1157 m cl s 775 1133 m -26 Y s 775 1107
 m cl s 811 1100 m -18 X s 793 1100 m cl s 811 1100 m 18 X s 829 1100 m cl s 811 1100 m 31 Y s 811 1131 m cl s 811 1100 m -32 Y s 811 1068 m cl s 847 1144 m -18 X s 829 1144 m cl s 847 1144 m 17 X s 864 1144 m cl s 847 1144 m 22 Y s 847 1166 m cl s
 847 1144 m -22 Y s 847 1122 m cl s 882 1089 m -18 X s 864 1089 m cl s 882 1089 m 18 X s 900 1089 m cl s 882 1089 m 34 Y s 882 1123 m cl s 882 1089 m -36 Y s 882 1053 m cl s 918 1133 m -18 X s 900 1133 m cl s 918 1133 m 18 X s 936 1133 m cl s 918
 1133 m 24 Y s 918 1157 m cl s 918 1133 m -26 Y s 918 1107 m cl s 954 1126 m -18 X s 936 1126 m cl s 954 1126 m 18 X s 972 1126 m cl s 954 1126 m 25 Y s 954 1151 m cl s 954 1126 m -27 Y s 954 1099 m cl s 990 1171 m -18 X s 972 1171 m cl s 990 1171 m
 18 X s 1008 1171 m cl s 990 1171 m 18 Y s 990 1189 m cl s 990 1171 m -18 Y s 990 1153 m cl s 1026 1150 m -18 X s 1008 1150 m cl s 1026 1150 m 18 X s 1044 1150 m cl s 1026 1150 m 21 Y s 1026 1171 m cl s 1026 1150 m -22 Y s 1026 1128 m cl s 1062 1155
 m -18 X s 1044 1155 m cl s 1062 1155 m 17 X s 1079 1155 m cl s 1062 1155 m 20 Y s 1062 1175 m cl s 1062 1155 m -21 Y s 1062 1134 m cl s 1097 1182 m -18 X s 1079 1182 m cl s 1097 1182 m 18 X s 1115 1182 m cl s 1097 1182 m 16 Y s 1097 1198 m cl s 1097
 1182 m -17 Y s 1097 1165 m cl s 1133 1155 m -18 X s 1115 1155 m cl s 1133 1155 m 18 X s 1151 1155 m cl s 1133 1155 m 20 Y s 1133 1175 m cl s 1133 1155 m -21 Y s 1133 1134 m cl s 1169 1188 m -18 X s 1151 1188 m cl s 1169 1188 m 18 X s 1187 1188 m cl
 s 1169 1188 m 16 Y s 1169 1204 m cl s 1169 1188 m -16 Y s 1169 1172 m cl s 1205 1209 m -18 X s 1187 1209 m cl s 1205 1209 m 18 X s 1223 1209 m cl s 1205 1209 m 13 Y s 1205 1222 m cl s 1205 1209 m -14 Y s 1205 1195 m cl s 1241 1209 m -18 X s 1223
 1209 m cl s 1241 1209 m 18 X s 1259 1209 m cl s 1241 1209 m 13 Y s 1241 1222 m cl s 1241 1209 m -14 Y s 1241 1195 m cl s 1276 1251 m -17 X s 1259 1251 m cl s 1276 1251 m 18 X s 1294 1251 m cl s 1276 1251 m 10 Y s 1276 1261 m cl s 1276 1251 m -10 Y s
 1276 1241 m cl s 1312 1246 m -18 X s 1294 1246 m cl s 1312 1246 m 18 X s 1330 1246 m cl s 1312 1246 m 10 Y s 1312 1256 m cl s 1312 1246 m -10 Y s 1312 1236 m cl s 1348 1267 m -18 X s 1330 1267 m cl s 1348 1267 m 18 X s 1366 1267 m cl s 1348 1267 m 9
 Y s 1348 1276 m cl s 1348 1267 m -8 Y s 1348 1259 m cl s 1384 1284 m -18 X s 1366 1284 m cl s 1384 1284 m 18 X s 1402 1284 m cl s 1384 1284 m 8 Y s 1384 1292 m cl s 1384 1284 m -8 Y s 1384 1276 m cl s 1420 1297 m -18 X s 1402 1297 m cl s 1420 1297 m
 18 X s 1438 1297 m cl s 1420 1297 m 7 Y s 1420 1304 m cl s 1420 1297 m -7 Y s 1420 1290 m cl s 1456 1334 m -18 X s 1438 1334 m cl s 1456 1334 m 18 X s 1474 1334 m cl s 1456 1334 m 6 Y s 1456 1340 m cl s 1456 1334 m -5 Y s 1456 1329 m cl s 1491 1342
 m -17 X s 1474 1342 m cl s 1491 1342 m 18 X s 1509 1342 m cl s 1491 1342 m 5 Y s 1491 1347 m cl s 1491 1342 m -5 Y s 1491 1337 m cl s 1527 1375 m -18 X s 1509 1375 m cl s 1527 1375 m 18 X s 1545 1375 m cl s 1527 1375 m 4 Y s 1527 1379 m cl s 1527
 1375 m -4 Y s 1527 1371 m cl s 1563 1402 m -18 X s 1545 1402 m cl s 1563 1402 m 18 X s 1581 1402 m cl s 1563 1402 m 4 Y s 1563 1406 m cl s 1563 1402 m -3 Y s 1563 1399 m cl s 1599 1421 m -18 X s 1581 1421 m cl s 1599 1421 m 18 X s 1617 1421 m cl s
 1599 1421 m 3 Y s 1599 1424 m cl s 1599 1421 m -3 Y s 1599 1418 m cl s 1635 1432 m -18 X s 1617 1432 m cl s 1635 1432 m 18 X s 1653 1432 m cl s 1635 1432 m 3 Y s 1635 1435 m cl s 1635 1432 m -2 Y s 1635 1430 m cl s 1671 1449 m -18 X s 1653 1449 m cl
 s 1671 1449 m 18 X s 1689 1449 m cl s 1671 1449 m 3 Y s 1671 1452 m cl s 1671 1449 m -2 Y s 1671 1447 m cl s 1706 1445 m -17 X s 1689 1445 m cl s 1706 1445 m 18 X s 1724 1445 m cl s 1706 1445 m 2 Y s 1706 1447 m cl s 1706 1445 m -2 Y s 1706 1443 m
 cl s 1742 1437 m -18 X s 1724 1437 m cl s 1742 1437 m 18 X s 1760 1437 m cl s 1742 1437 m 3 Y s 1742 1440 m cl s 1742 1437 m -2 Y s 1742 1435 m cl s 1778 1415 m -18 X s 1760 1415 m cl s 1778 1415 m 18 X s 1796 1415 m cl s 1778 1415 m 3 Y s 1778 1418
 m cl s 1778 1415 m -3 Y s 1778 1412 m cl s 1814 1394 m -18 X s 1796 1394 m cl s 1814 1394 m 18 X s 1832 1394 m cl s 1814 1394 m 3 Y s 1814 1397 m cl s 1814 1394 m -4 Y s 1814 1390 m cl s 1850 1357 m -18 X s 1832 1357 m cl s 1850 1357 m 18 X s 1868
 1357 m cl s 1850 1357 m 4 Y s 1850 1361 m cl s 1850 1357 m -5 Y s 1850 1352 m cl s 1886 1327 m -18 X s 1868 1327 m cl s 1886 1327 m 18 X s 1904 1327 m cl s 1886 1327 m 6 Y s 1886 1333 m cl s 1886 1327 m -5 Y s 1886 1322 m cl s 1921 1290 m -17 X s
 1904 1290 m cl s 1921 1290 m 18 X s 1939 1290 m cl s 1921 1290 m 7 Y s 1921 1297 m cl s 1921 1290 m -8 Y s 1921 1282 m cl s 1957 1243 m -18 X s 1939 1243 m cl s 1957 1243 m 18 X s 1975 1243 m cl s 1957 1243 m 11 Y s 1957 1254 m cl s 1957 1243 m -10
 Y s 1957 1233 m cl s 1993 1230 m -18 X s 1975 1230 m cl s 1993 1230 m 18 X s 2011 1230 m cl s 1993 1230 m 11 Y s 1993 1241 m cl s 1993 1230 m -12 Y s 1993 1218 m cl s 2029 1182 m -18 X s 2011 1182 m cl s 2029 1182 m 18 X s 2047 1182 m cl s 2029 1182
 m 16 Y s 2029 1198 m cl s 2029 1182 m -17 Y s 2029 1165 m cl s 2065 1150 m -18 X s 2047 1150 m cl s 2065 1150 m 18 X s 2083 1150 m cl s 2065 1150 m 21 Y s 2065 1171 m cl s 2065 1150 m -22 Y s 2065 1128 m cl s 2101 1126 m -18 X s 2083 1126 m cl s
 2101 1126 m 18 X s 2119 1126 m cl s 2101 1126 m 25 Y s 2101 1151 m cl s 2101 1126 m -27 Y s 2101 1099 m cl s 2136 1118 m -17 X s 2119 1118 m cl s 2136 1118 m 18 X s 2154 1118 m cl s 2136 1118 m 27 Y s 2136 1145 m cl s 2136 1118 m -28 Y s 2136 1090 m
 cl s 381 962 417 1040 452 1060 488 1040 524 1040 560 962 596 1110 632 1076 667 1100 703 962 739 1133 775 1133 811 1100 847 1144 882 1089 918 1133 954 1126 990 1171 1026 1150 1062 1155 1097 1182 1133 1155 1169 1188 1205 1209 1241 1209 1276 1251 1312
 1246 1348 1267 1384 1284 1420 1297 1456 1334 1491 1342 1527 1375 1563 1402 1599 1421 1635 1432 1671 1449 1706 1445 1742 1437 1778 1415 1814 1394 1850 1357 1886 1327 1921 1290 1957 1243 1993 1230 2029 1182 2065 1150 2101 1126 2136 1118 50 { m20} R
 0.52 0.76 0.64 c[ 4 8] 0 sd 9 lw black 0.52 0.76 0.64 c 363 1002 m 36 8 d 35 8 d 36 8 d 36 8 d 36 8 d 36 9 d 36 8 d 35 9 d 36 8 d 36 9 d 36 9 d 36 9 d 36 9 d 35 10 d 36 9 d 36 10 d 36 9 d 36 10 d 36 10 d 35 10 d 36 10 d 36 11 d 36 10 d 36 11 d 36 11
 d 35 11 d 36 11 d 36 11 d 18 6 d 18 6 d 18 6 d 18 6 d 18 5 d 18 6 d 17 7 d 18 6 d 18 6 d 18 6 d 18 6 d 18 5 d 18 5 d 9 2 d 9 2 d 9 1 d 9 1 d 9 1 d 9 1 d 9 1 d 44 X 9 -1 d 9 -1 d 9 -1 d 9 -2 d 9 -1 d 9 -2 d 18 -4 d 18 -6 d 18 -6 d 18 -7 d 36 -16 d 18
 -10 d 18 -10 d 17 -12 d 18 -12 d 18 -13 d 18 -14 d 18 -15 d 18 -16 d 18 -16 d 18 -18 d 18 -18 d 18 -20 d 18 -20 d 18 -21 d 35 -45 d s 0.54 0.66 0.63 c black 0.54 0.66 0.63 c 1239 634 m 20 70 d s 1259 704 m 35 117 d 36 107 d 36 96 d 18 44 d 18 42 d
 18 39 d 18 36 d 9 18 d 9 16 d 9 16 d 9 15 d 9 15 d 8 14 d 9 14 d 9 12 d 9 12 d 9 12 d 9 11 d 9 10 d 9 9 d 9 9 d 18 16 d 18 13 d 9 6 d 9 5 d 9 4 d 9 4 d 9 3 d 9 2 d 4 1 d 5 1 d 4 1 d 5 X 4 1 d 14 X 4 -1 d 4 X 5 -1 d 4 -1 d 9 -2 d 9 -3 d 9 -3 d 9 -4 d
 9 -5 d 9 -5 d 36 -28 d 9 -9 d 9 -9 d 9 -10 d 9 -10 d 9 -11 d 9 -12 d 9 -13 d 9 -13 d 9 -14 d 9 -14 d 9 -15 d 9 -16 d 8 -16 d 9 -17 d 18 -36 d 18 -38 d 18 -41 d 36 -90 d 36 -101 d 36 -110 d 36 -121 d 6 -22 d s black[  ] 0 sd 3 lw 363 634 m 1791 X s
 452 659 m -25 Y s 497 646 m -12 Y s 542 646 m -12 Y s 587 646 m -12 Y s 632 659 m -25 Y s 676 646 m -12 Y s 721 646 m -12 Y s 766 646 m -12 Y s 811 659 m -25 Y s 855 646 m -12 Y s 900 646 m -12 Y s 945 646 m -12 Y s 990 659 m -25 Y s 1035 646 m -12
 Y s 1079 646 m -12 Y s 1124 646 m -12 Y s 1169 659 m -25 Y s 1214 646 m -12 Y s 1259 646 m -12 Y s 1303 646 m -12 Y s 1348 659 m -25 Y s 1393 646 m -12 Y s 1438 646 m -12 Y s 1483 646 m -12 Y s 1527 659 m -25 Y s 1572 646 m -12 Y s 1617 646 m -12 Y
 s 1662 646 m -12 Y s 1706 659 m -25 Y s 1751 646 m -12 Y s 1796 646 m -12 Y s 1841 646 m -12 Y s 1886 659 m -25 Y s 1930 646 m -12 Y s 1975 646 m -12 Y s 2020 646 m -12 Y s 2065 659 m -25 Y s 452 659 m -25 Y s 408 646 m -12 Y s 363 646 m -12 Y s
 2065 659 m -25 Y s 2110 646 m -12 Y s 363 1484 m 1791 X s 452 1459 m 25 Y s 497 1471 m 13 Y s 542 1471 m 13 Y s 587 1471 m 13 Y s 632 1459 m 25 Y s 676 1471 m 13 Y s 721 1471 m 13 Y s 766 1471 m 13 Y s 811 1459 m 25 Y s 855 1471 m 13 Y s 900 1471 m
 13 Y s 945 1471 m 13 Y s 990 1459 m 25 Y s 1035 1471 m 13 Y s 1079 1471 m 13 Y s 1124 1471 m 13 Y s 1169 1459 m 25 Y s 1214 1471 m 13 Y s 1259 1471 m 13 Y s 1303 1471 m 13 Y s 1348 1459 m 25 Y s 1393 1471 m 13 Y s 1438 1471 m 13 Y s 1483 1471 m 13 Y
 s 1527 1459 m 25 Y s 1572 1471 m 13 Y s 1617 1471 m 13 Y s 1662 1471 m 13 Y s 1706 1459 m 25 Y s 1751 1471 m 13 Y s 1796 1471 m 13 Y s 1841 1471 m 13 Y s 1886 1459 m 25 Y s 1930 1471 m 13 Y s 1975 1471 m 13 Y s 2020 1471 m 13 Y s 2065 1459 m 25 Y s
 452 1459 m 25 Y s 408 1471 m 13 Y s 363 1471 m 13 Y s 2065 1459 m 25 Y s 2110 1471 m 13 Y s 363 634 m 850 Y s 417 634 m -54 X s 390 683 m -27 X s 390 712 m -27 X s 390 732 m -27 X s 390 748 m -27 X s 390 761 m -27 X s 390 772 m -27 X s 390 782 m -27
 X s 390 790 m -27 X s 417 798 m -54 X s 390 847 m -27 X s 390 876 m -27 X s 390 896 m -27 X s 390 912 m -27 X s 390 925 m -27 X s 390 936 m -27 X s 390 946 m -27 X s 390 954 m -27 X s 417 962 m -54 X s 390 1011 m -27 X s 390 1040 m -27 X s 390 1060
 m -27 X s 390 1076 m -27 X s 390 1089 m -27 X s 390 1100 m -27 X s 390 1110 m -27 X s 390 1118 m -27 X s 417 1126 m -54 X s 390 1175 m -27 X s 390 1204 m -27 X s 390 1225 m -27 X s 390 1240 m -27 X s 390 1253 m -27 X s 390 1264 m -27 X s 390 1274 m
 -27 X s 390 1282 m -27 X s 417 1290 m -54 X s 390 1339 m -27 X s 390 1368 m -27 X s 390 1389 m -27 X s 390 1404 m -27 X s 390 1417 m -27 X s 390 1428 m -27 X s 390 1438 m -27 X s 390 1446 m -27 X s 417 1454 m -54 X s 2154 634 m 850 Y s 2101 634 m 53
 X s 2127 683 m 27 X s 2127 712 m 27 X s 2127 732 m 27 X s 2127 748 m 27 X s 2127 761 m 27 X s 2127 772 m 27 X s 2127 782 m 27 X s 2127 790 m 27 X s 2101 798 m 53 X s 2127 847 m 27 X s 2127 876 m 27 X s 2127 896 m 27 X s 2127 912 m 27 X s 2127 925 m
 27 X s 2127 936 m 27 X s 2127 946 m 27 X s 2127 954 m 27 X s 2101 962 m 53 X s 2127 1011 m 27 X s 2127 1040 m 27 X s 2127 1060 m 27 X s 2127 1076 m 27 X s 2127 1089 m 27 X s 2127 1100 m 27 X s 2127 1110 m 27 X s 2127 1118 m 27 X s 2101 1126 m 53 X s
 2127 1175 m 27 X s 2127 1204 m 27 X s 2127 1225 m 27 X s 2127 1240 m 27 X s 2127 1253 m 27 X s 2127 1264 m 27 X s 2127 1274 m 27 X s 2127 1282 m 27 X s 2101 1290 m 53 X s 2127 1339 m 27 X s 2127 1368 m 27 X s 2127 1389 m 27 X s 2127 1404 m 27 X s
 2127 1417 m 27 X s 2127 1428 m 27 X s 2127 1438 m 27 X s 2127 1446 m 27 X s 2101 1454 m 53 X s
 gsave  2268 1077 0 461 C 677.708 1215.31 t 0 r /Helvetica findfont 58.7189 sf 0 0 m (4mu) show NC gr  1 1 1 c 453 161 454 1269 bf black
 gsave  2268 1077 0 461 C 566.929 1371.71 t 0 r /Helvetica-Bold findfont 48.9324 sf 0 0 m (MC15) show NC gr  510 1390 m20
 gsave  2268 1077 0 461 C 566.929 1293.51 t 0 r /Helvetica-Bold findfont 48.9324 sf 0 0 m (Projection of Signal pdf) show NC gr  0 0 1 c 9 lw 471 1309 m 79 X s black 3 lw 1 1 1 c 2268 461 0 0 bf black 1 1 1 c 1791 364 363 74 bf black 1791 364 363 74
 bl 363 74 m 1791 X s
 gsave  2268 461 0 0 C 1915.83 13.0329 t 0 r /Helvetica findfont 22.9045 sf 0 0 m (4l Invariant Mass \(GeV\)) show NC gr  452 85 m -11 Y s 497 79 m -5 Y s 542 79 m -5 Y s 587 79 m -5 Y s 632 85 m -11 Y s 676 79 m -5 Y s 721 79 m -5 Y s 766 79 m -5 Y
 s 811 85 m -11 Y s 855 79 m -5 Y s 900 79 m -5 Y s 945 79 m -5 Y s 990 85 m -11 Y s 1035 79 m -5 Y s 1079 79 m -5 Y s 1124 79 m -5 Y s 1169 85 m -11 Y s 1214 79 m -5 Y s 1259 79 m -5 Y s 1303 79 m -5 Y s 1348 85 m -11 Y s 1393 79 m -5 Y s 1438 79 m
 -5 Y s 1483 79 m -5 Y s 1527 85 m -11 Y s 1572 79 m -5 Y s 1617 79 m -5 Y s 1662 79 m -5 Y s 1706 85 m -11 Y s 1751 79 m -5 Y s 1796 79 m -5 Y s 1841 79 m -5 Y s 1886 85 m -11 Y s 1930 79 m -5 Y s 1975 79 m -5 Y s 2020 79 m -5 Y s 2065 85 m -11 Y s
 452 85 m -11 Y s 408 79 m -5 Y s 363 79 m -5 Y s 2065 85 m -11 Y s 2110 79 m -5 Y s
 gsave  2268 461 0 0 C 430.084 55.3896 t 0 r /Helvetica findfont 22.9045 sf 0 0 m (360) show NC gr 
 gsave  2268 461 0 0 C 609.286 55.3896 t 0 r /Helvetica findfont 22.9045 sf 0 0 m (380) show NC gr 
 gsave  2268 461 0 0 C 788.488 55.3896 t 0 r /Helvetica findfont 22.9045 sf 0 0 m (400) show NC gr 
 gsave  2268 461 0 0 C 967.689 55.3896 t 0 r /Helvetica findfont 22.9045 sf 0 0 m (420) show NC gr 
 gsave  2268 461 0 0 C 1146.89 55.3896 t 0 r /Helvetica findfont 22.9045 sf 0 0 m (440) show NC gr 
 gsave  2268 461 0 0 C 1326.09 55.3896 t 0 r /Helvetica findfont 22.9045 sf 0 0 m (460) show NC gr 
 gsave  2268 461 0 0 C 1505.29 55.3896 t 0 r /Helvetica findfont 22.9045 sf 0 0 m (480) show NC gr 
 gsave  2268 461 0 0 C 1684.5 55.3896 t 0 r /Helvetica findfont 22.9045 sf 0 0 m (500) show NC gr 
 gsave  2268 461 0 0 C 1863.7 55.3896 t 0 r /Helvetica findfont 22.9045 sf 0 0 m (520) show NC gr 
 gsave  2268 461 0 0 C 2042.9 55.3896 t 0 r /Helvetica findfont 22.9045 sf 0 0 m (540) show NC gr  363 438 m 1791 X s 452 427 m 11 Y s 497 433 m 5 Y s 542 433 m 5 Y s 587 433 m 5 Y s 632 427 m 11 Y s 676 433 m 5 Y s 721 433 m 5 Y s 766 433 m 5 Y s
 811 427 m 11 Y s 855 433 m 5 Y s 900 433 m 5 Y s 945 433 m 5 Y s 990 427 m 11 Y s 1035 433 m 5 Y s 1079 433 m 5 Y s 1124 433 m 5 Y s 1169 427 m 11 Y s 1214 433 m 5 Y s 1259 433 m 5 Y s 1303 433 m 5 Y s 1348 427 m 11 Y s 1393 433 m 5 Y s 1438 433 m 5
 Y s 1483 433 m 5 Y s 1527 427 m 11 Y s 1572 433 m 5 Y s 1617 433 m 5 Y s 1662 433 m 5 Y s 1706 427 m 11 Y s 1751 433 m 5 Y s 1796 433 m 5 Y s 1841 433 m 5 Y s 1886 427 m 11 Y s 1930 433 m 5 Y s 1975 433 m 5 Y s 2020 433 m 5 Y s 2065 427 m 11 Y s 452
 427 m 11 Y s 408 433 m 5 Y s 363 433 m 5 Y s 2065 427 m 11 Y s 2110 433 m 5 Y s 363 74 m 364 Y s 417 74 m -54 X s 390 81 m -27 X s 390 88 m -27 X s 390 96 m -27 X s 390 103 m -27 X s 417 110 m -54 X s 390 118 m -27 X s 390 125 m -27 X s 390 132 m
 -27 X s 390 139 m -27 X s 417 147 m -54 X s 390 154 m -27 X s 390 161 m -27 X s 390 169 m -27 X s 390 176 m -27 X s 417 183 m -54 X s 390 190 m -27 X s 390 198 m -27 X s 390 205 m -27 X s 390 212 m -27 X s 417 220 m -54 X s 390 227 m -27 X s 390 234
 m -27 X s 390 241 m -27 X s 390 249 m -27 X s 417 256 m -54 X s 390 263 m -27 X s 390 271 m -27 X s 390 278 m -27 X s 390 285 m -27 X s 417 293 m -54 X s 390 300 m -27 X s 390 307 m -27 X s 390 314 m -27 X s 390 322 m -27 X s 417 329 m -54 X s 390
 336 m -27 X s 390 344 m -27 X s 390 351 m -27 X s 390 358 m -27 X s 417 365 m -54 X s 390 373 m -27 X s 390 380 m -27 X s 390 387 m -27 X s 390 395 m -27 X s 417 402 m -54 X s 390 409 m -27 X s 390 416 m -27 X s 390 424 m -27 X s 390 431 m -27 X s
 417 438 m -54 X s
 gsave  2268 461 0 0 C 329.08 65.1643 t 0 r /Helvetica findfont 22.9045 sf 0 0 m (\2555) show NC gr 
 gsave  2268 461 0 0 C 329.08 101.005 t 0 r /Helvetica findfont 22.9045 sf 0 0 m (\2554) show NC gr 
 gsave  2268 461 0 0 C 329.08 140.103 t 0 r /Helvetica findfont 22.9045 sf 0 0 m (\2553) show NC gr 
 gsave  2268 461 0 0 C 329.08 175.944 t 0 r /Helvetica findfont 22.9045 sf 0 0 m (\2552) show NC gr 
 gsave  2268 461 0 0 C 332.338 211.784 t 0 r /Helvetica findfont 22.9045 sf 0 0 m (\2551) show NC gr 
 gsave  2268 461 0 0 C 335.596 247.624 t 0 r /Helvetica findfont 22.9045 sf 0 0 m (0) show NC gr 
 gsave  2268 461 0 0 C 338.854 283.465 t 0 r /Helvetica findfont 22.9045 sf 0 0 m (1) show NC gr 
 gsave  2268 461 0 0 C 335.596 319.305 t 0 r /Helvetica findfont 22.9045 sf 0 0 m (2) show NC gr 
 gsave  2268 461 0 0 C 335.596 358.403 t 0 r /Helvetica findfont 22.9045 sf 0 0 m (3) show NC gr 
 gsave  2268 461 0 0 C 335.596 394.244 t 0 r /Helvetica findfont 22.9045 sf 0 0 m (4) show NC gr 
 gsave  2268 461 0 0 C 335.596 430.084 t 0 r /Helvetica findfont 22.9045 sf 0 0 m (5) show NC gr  2154 74 m 364 Y s 2101 74 m 53 X s 2127 81 m 27 X s 2127 88 m 27 X s 2127 96 m 27 X s 2127 103 m 27 X s 2101 110 m 53 X s 2127 118 m 27 X s 2127 125 m
 27 X s 2127 132 m 27 X s 2127 139 m 27 X s 2101 147 m 53 X s 2127 154 m 27 X s 2127 161 m 27 X s 2127 169 m 27 X s 2127 176 m 27 X s 2101 183 m 53 X s 2127 190 m 27 X s 2127 198 m 27 X s 2127 205 m 27 X s 2127 212 m 27 X s 2101 220 m 53 X s 2127 227
 m 27 X s 2127 234 m 27 X s 2127 241 m 27 X s 2127 249 m 27 X s 2101 256 m 53 X s 2127 263 m 27 X s 2127 271 m 27 X s 2127 278 m 27 X s 2127 285 m 27 X s 2101 293 m 53 X s 2127 300 m 27 X s 2127 307 m 27 X s 2127 314 m 27 X s 2127 322 m 27 X s 2101
 329 m 53 X s 2127 336 m 27 X s 2127 344 m 27 X s 2127 351 m 27 X s 2127 358 m 27 X s 2101 365 m 53 X s 2127 373 m 27 X s 2127 380 m 27 X s 2127 387 m 27 X s 2127 395 m 27 X s 2101 402 m 53 X s 2127 409 m 27 X s 2127 416 m 27 X s 2127 424 m 27 X s
 2127 431 m 27 X s 2101 438 m 53 X s 6 lw 0.2 0.8 0.2 c black 3 lw 0.2 0.8 0.2 c 363 256 m -13 Y 36 X 34 Y 35 X 11 Y 36 X -23 Y 36 X -7 Y 36 X -38 Y 36 X 93 Y 36 X -43 Y 35 X 18 Y 36 X -101 Y 36 X 124 Y 36 X -9 Y 36 X -54 Y 36 X 50 Y 35 X -84 Y 36 X
 37 Y 36 X -22 Y 36 X 59 Y 36 X -58 Y 36 X -11 Y 35 X 30 Y 36 X -79 Y 36 X 44 Y 36 X 21 Y 36 X -32 Y 36 X 98 Y 35 X -59 Y 36 X 35 Y 36 X 16 Y 36 X -17 Y 36 X 95 Y 36 X -131 Y 35 X 24 Y 36 X -2 Y 36 X -45 Y 36 X -58 Y 36 X 148 Y 36 X -43 Y 35 X 33 Y
 36 X -53 Y 36 X 38 Y 36 X -60 Y 36 X 33 Y 36 X -12 Y 35 X -39 Y 36 X 73 Y 36 X -37 Y 36 X 12 Y 36 X 23 Y 36 X 36 Y 35 X -55 Y f 6 lw black 0.2 0.8 0.2 c black 363 243 m 36 X 34 Y 35 X 11 Y 36 X -23 Y 36 X -7 Y 36 X -38 Y 36 X 93 Y 36 X -43 Y 35 X 18
 Y 36 X -101 Y 36 X 124 Y 36 X -9 Y 36 X -54 Y 36 X 50 Y 35 X -84 Y 36 X 37 Y 36 X -22 Y 36 X 59 Y 36 X -58 Y 36 X -11 Y 35 X 30 Y 36 X -79 Y 36 X 44 Y 36 X 21 Y 36 X -32 Y 36 X 98 Y 35 X -59 Y 36 X 35 Y 36 X 16 Y 36 X -17 Y 36 X 95 Y 36 X -131 Y 35
 X 24 Y 36 X -2 Y 36 X -45 Y 36 X -58 Y 36 X 148 Y 36 X -43 Y 35 X 33 Y 36 X -53 Y 36 X 38 Y 36 X -60 Y 36 X 33 Y 36 X -12 Y 35 X -39 Y 36 X 73 Y 36 X -37 Y 36 X 12 Y 36 X 23 Y 36 X 36 Y 35 X s 3 lw 363 74 m 1791 X s 452 85 m -11 Y s 497 79 m -5 Y s
 542 79 m -5 Y s 587 79 m -5 Y s 632 85 m -11 Y s 676 79 m -5 Y s 721 79 m -5 Y s 766 79 m -5 Y s 811 85 m -11 Y s 855 79 m -5 Y s 900 79 m -5 Y s 945 79 m -5 Y s 990 85 m -11 Y s 1035 79 m -5 Y s 1079 79 m -5 Y s 1124 79 m -5 Y s 1169 85 m -11 Y s
 1214 79 m -5 Y s 1259 79 m -5 Y s 1303 79 m -5 Y s 1348 85 m -11 Y s 1393 79 m -5 Y s 1438 79 m -5 Y s 1483 79 m -5 Y s 1527 85 m -11 Y s 1572 79 m -5 Y s 1617 79 m -5 Y s 1662 79 m -5 Y s 1706 85 m -11 Y s 1751 79 m -5 Y s 1796 79 m -5 Y s 1841 79
 m -5 Y s 1886 85 m -11 Y s 1930 79 m -5 Y s 1975 79 m -5 Y s 2020 79 m -5 Y s 2065 85 m -11 Y s 452 85 m -11 Y s 408 79 m -5 Y s 363 79 m -5 Y s 2065 85 m -11 Y s 2110 79 m -5 Y s 363 438 m 1791 X s 452 427 m 11 Y s 497 433 m 5 Y s 542 433 m 5 Y s
 587 433 m 5 Y s 632 427 m 11 Y s 676 433 m 5 Y s 721 433 m 5 Y s 766 433 m 5 Y s 811 427 m 11 Y s 855 433 m 5 Y s 900 433 m 5 Y s 945 433 m 5 Y s 990 427 m 11 Y s 1035 433 m 5 Y s 1079 433 m 5 Y s 1124 433 m 5 Y s 1169 427 m 11 Y s 1214 433 m 5 Y s
 1259 433 m 5 Y s 1303 433 m 5 Y s 1348 427 m 11 Y s 1393 433 m 5 Y s 1438 433 m 5 Y s 1483 433 m 5 Y s 1527 427 m 11 Y s 1572 433 m 5 Y s 1617 433 m 5 Y s 1662 433 m 5 Y s 1706 427 m 11 Y s 1751 433 m 5 Y s 1796 433 m 5 Y s 1841 433 m 5 Y s 1886 427
 m 11 Y s 1930 433 m 5 Y s 1975 433 m 5 Y s 2020 433 m 5 Y s 2065 427 m 11 Y s 452 427 m 11 Y s 408 433 m 5 Y s 363 433 m 5 Y s 2065 427 m 11 Y s 2110 433 m 5 Y s 363 74 m 364 Y s 417 74 m -54 X s 390 81 m -27 X s 390 88 m -27 X s 390 96 m -27 X s
 390 103 m -27 X s 417 110 m -54 X s 390 118 m -27 X s 390 125 m -27 X s 390 132 m -27 X s 390 139 m -27 X s 417 147 m -54 X s 390 154 m -27 X s 390 161 m -27 X s 390 169 m -27 X s 390 176 m -27 X s 417 183 m -54 X s 390 190 m -27 X s 390 198 m -27 X
 s 390 205 m -27 X s 390 212 m -27 X s 417 220 m -54 X s 390 227 m -27 X s 390 234 m -27 X s 390 241 m -27 X s 390 249 m -27 X s 417 256 m -54 X s 390 263 m -27 X s 390 271 m -27 X s 390 278 m -27 X s 390 285 m -27 X s 417 293 m -54 X s 390 300 m -27
 X s 390 307 m -27 X s 390 314 m -27 X s 390 322 m -27 X s 417 329 m -54 X s 390 336 m -27 X s 390 344 m -27 X s 390 351 m -27 X s 390 358 m -27 X s 417 365 m -54 X s 390 373 m -27 X s 390 380 m -27 X s 390 387 m -27 X s 390 395 m -27 X s 417 402 m
 -54 X s 390 409 m -27 X s 390 416 m -27 X s 390 424 m -27 X s 390 431 m -27 X s 417 438 m -54 X s 2154 74 m 364 Y s 2101 74 m 53 X s 2127 81 m 27 X s 2127 88 m 27 X s 2127 96 m 27 X s 2127 103 m 27 X s 2101 110 m 53 X s 2127 118 m 27 X s 2127 125 m
 27 X s 2127 132 m 27 X s 2127 139 m 27 X s 2101 147 m 53 X s 2127 154 m 27 X s 2127 161 m 27 X s 2127 169 m 27 X s 2127 176 m 27 X s 2101 183 m 53 X s 2127 190 m 27 X s 2127 198 m 27 X s 2127 205 m 27 X s 2127 212 m 27 X s 2101 220 m 53 X s 2127 227
 m 27 X s 2127 234 m 27 X s 2127 241 m 27 X s 2127 249 m 27 X s 2101 256 m 53 X s 2127 263 m 27 X s 2127 271 m 27 X s 2127 278 m 27 X s 2127 285 m 27 X s 2101 293 m 53 X s 2127 300 m 27 X s 2127 307 m 27 X s 2127 314 m 27 X s 2127 322 m 27 X s 2101
 329 m 53 X s 2127 336 m 27 X s 2127 344 m 27 X s 2127 351 m 27 X s 2127 358 m 27 X s 2101 365 m 53 X s 2127 373 m 27 X s 2127 380 m 27 X s 2127 387 m 27 X s 2127 395 m 27 X s 2101 402 m 53 X s 2127 409 m 27 X s 2127 416 m 27 X s 2127 424 m 27 X s
 2127 431 m 27 X s 2101 438 m 53 X s
 gr  gr showpage
end
%%EOF
