%!PS-Adobe-2.0 EPSF-2.0
%%BoundingBox:  0 0 567 384
%%Title: H4l2015_plotfit/VBF_mass_signal_200_H4l_4e.eps: 
%%Creator: ROOT Version 5.34/07
%%CreationDate: Mon Nov  9 16:30:34 2015
%%EndComments
%%BeginProlog
80 dict begin
/s {stroke} def /l {lineto} def /m {moveto} def /t {translate} def
/r {rotate} def /rl {roll}  def /R {repeat} def
/d {rlineto} def /rm {rmoveto} def /gr {grestore} def /f {eofill} def
/c {setrgbcolor} def /black {0 setgray} def /sd {setdash} def
/cl {closepath} def /sf {scalefont setfont} def /lw {setlinewidth} def
/box {m dup 0 exch d exch 0 d 0 exch neg d cl} def
/NC{systemdict begin initclip end}def/C{NC box clip newpath}def
/bl {box s} def /bf {box f} def /Y { 0 exch d} def /X { 0 d} def 
/K {{pop pop 0 moveto} exch kshow} bind def
/ita {/ang 15 def gsave [1 0 ang dup sin exch cos div 1 0 0] concat} def 
/mp {newpath /y exch def /x exch def} def
/side {[w .77 mul w .23 mul] .385 w mul sd w 0 l currentpoint t -144 r} def
/mr {mp x y w2 0 360 arc} def /m24 {mr s} def /m20 {mr f} def
/mb {mp x y w2 add m w2 neg 0 d 0 w neg d w 0 d 0 w d cl} def
/mt {mp x y w2 add m w2 neg w neg d w 0 d cl} def
/m21 {mb f} def /m25 {mb s} def /m22 {mt f} def /m26{mt s} def
/m23 {mp x y w2 sub m w2 w d w neg 0 d cl f} def
/m27 {mp x y w2 add m w3 neg w2 neg d w3 w2 neg d w3 w2 d cl s} def
/m28 {mp x w2 sub y w2 sub w3 add m w3 0 d  0 w3 neg d w3 0 d 0 w3 d w3 0 d  0 w3 d w3 neg 0 d 0 w3 d w3 neg 0 d 0 w3 neg d w3 neg 0 d cl s } def
/m29 {mp gsave x w2 sub y w2 add w3 sub m currentpoint t 4 {side} repeat cl fill gr} def
/m30 {mp gsave x w2 sub y w2 add w3 sub m currentpoint t 4 {side} repeat cl s gr} def
/m31 {mp x y w2 sub m 0 w d x w2 sub y m w 0 d x w2 sub y w2 add m w w neg d x w2 sub y w2 sub m w w d s} def
/m32 {mp x y w2 sub m w2 w d w neg 0 d cl s} def
/m33 {mp x y w2 add m w3 neg w2 neg d w3 w2 neg d w3 w2 d cl f} def
/m34 {mp x w2 sub y w2 sub w3 add m w3 0 d  0 w3 neg d w3 0 d 0 w3 d w3 0 d  0 w3 d w3 neg 0 d 0 w3 d w3 neg 0 d 0 w3 neg d w3 neg 0 d cl f } def
/m2 {mp x y w2 sub m 0 w d x w2 sub y m w 0 d s} def
/m5 {mp x w2 sub y w2 sub m w w d x w2 sub y w2 add m w w neg d s} def
/reEncode {exch findfont dup length dict begin {1 index /FID eq  {pop pop} {def} ifelse } forall /Encoding exch def currentdict end dup /FontName get exch definefont pop } def [/Times-Bold /Times-Italic /Times-BoldItalic /Helvetica /Helvetica-Oblique
 /Helvetica-Bold /Helvetica-BoldOblique /Courier /Courier-Oblique /Courier-Bold /Courier-BoldOblique /Times-Roman /AvantGarde-Book /AvantGarde-BookOblique /AvantGarde-Demi /AvantGarde-DemiOblique /Bookman-Demi /Bookman-DemiItalic /Bookman-Light
 /Bookman-LightItalic /Helvetica-Narrow /Helvetica-Narrow-Bold /Helvetica-Narrow-BoldOblique /Helvetica-Narrow-Oblique /NewCenturySchlbk-Roman /NewCenturySchlbk-Bold /NewCenturySchlbk-BoldItalic /NewCenturySchlbk-Italic /Palatino-Bold
 /Palatino-BoldItalic /Palatino-Italic /Palatino-Roman ] {ISOLatin1Encoding reEncode } forall
%%EndProlog
%%BeginSetup
%%EndSetup
newpath  gsave  .25 .25 scale  gsave  0 0 t black[  ] 0 sd 3 lw 1 1 1 c 2268 1538 0 0 bf black 1 1 1 c 2222 738 23 784 bf black 1 1 1 c 2222 739 23 15 bf black 1 1 1 c 2268 1077 0 461 bf black 1 1 1 c 1791 850 363 634 bf black 1791 850 363 634 bl 363
 634 m 1791 X s
 gsave  2268 1077 0 461 C 1642.14 498.507 t 0 r /Helvetica findfont 48.9324 sf 0 0 m (4l Invariant Mass \(GeV\)) show NC gr  574 659 m -25 Y s 626 646 m -12 Y s 679 646 m -12 Y s 732 646 m -12 Y s 784 646 m -12 Y s 837 659 m -25 Y s 890 646 m -12 Y s
 942 646 m -12 Y s 995 646 m -12 Y s 1048 646 m -12 Y s 1101 659 m -25 Y s 1153 646 m -12 Y s 1206 646 m -12 Y s 1259 646 m -12 Y s 1311 646 m -12 Y s 1364 659 m -25 Y s 1417 646 m -12 Y s 1469 646 m -12 Y s 1522 646 m -12 Y s 1575 646 m -12 Y s 1627
 659 m -25 Y s 1680 646 m -12 Y s 1733 646 m -12 Y s 1785 646 m -12 Y s 1838 646 m -12 Y s 1891 659 m -25 Y s 1944 646 m -12 Y s 1996 646 m -12 Y s 2049 646 m -12 Y s 2102 646 m -12 Y s 2154 659 m -25 Y s 574 659 m -25 Y s 521 646 m -12 Y s 468 646 m
 -12 Y s 416 646 m -12 Y s
 gsave  2268 1077 0 461 C 531.089 586.478 t 0 r /Helvetica findfont 48.9324 sf 0 0 m (160) show NC gr 
 gsave  2268 1077 0 461 C 791.746 586.478 t 0 r /Helvetica findfont 48.9324 sf 0 0 m (170) show NC gr 
 gsave  2268 1077 0 461 C 1055.66 586.478 t 0 r /Helvetica findfont 48.9324 sf 0 0 m (180) show NC gr 
 gsave  2268 1077 0 461 C 1319.58 586.478 t 0 r /Helvetica findfont 48.9324 sf 0 0 m (190) show NC gr 
 gsave  2268 1077 0 461 C 1583.49 586.478 t 0 r /Helvetica findfont 48.9324 sf 0 0 m (200) show NC gr 
 gsave  2268 1077 0 461 C 1847.41 586.478 t 0 r /Helvetica findfont 48.9324 sf 0 0 m (210) show NC gr 
 gsave  2268 1077 0 461 C 2111.32 586.478 t 0 r /Helvetica findfont 48.9324 sf 0 0 m (220) show NC gr  363 1484 m 1791 X s 574 1459 m 25 Y s 626 1471 m 13 Y s 679 1471 m 13 Y s 732 1471 m 13 Y s 784 1471 m 13 Y s 837 1459 m 25 Y s 890 1471 m 13 Y s
 942 1471 m 13 Y s 995 1471 m 13 Y s 1048 1471 m 13 Y s 1101 1459 m 25 Y s 1153 1471 m 13 Y s 1206 1471 m 13 Y s 1259 1471 m 13 Y s 1311 1471 m 13 Y s 1364 1459 m 25 Y s 1417 1471 m 13 Y s 1469 1471 m 13 Y s 1522 1471 m 13 Y s 1575 1471 m 13 Y s 1627
 1459 m 25 Y s 1680 1471 m 13 Y s 1733 1471 m 13 Y s 1785 1471 m 13 Y s 1838 1471 m 13 Y s 1891 1459 m 25 Y s 1944 1471 m 13 Y s 1996 1471 m 13 Y s 2049 1471 m 13 Y s 2102 1471 m 13 Y s 2154 1459 m 25 Y s 574 1459 m 25 Y s 521 1471 m 13 Y s 468 1471
 m 13 Y s 416 1471 m 13 Y s 363 634 m 850 Y s
 gsave  2268 1077 0 461 C 120.554 1032.85 t 90 r /Helvetica findfont 48.9324 sf 0 0 m (Events / \( 1.36 GeV \)) show NC gr  417 634 m -54 X s
 gsave  2268 1077 0 461 C 312.788 632.093 t 0 r /Helvetica findfont 32.6216 sf 0 0 m (\2552) show NC gr 
 gsave  2268 1077 0 461 C 260.657 612.544 t 0 r /Helvetica findfont 48.9324 sf 0 0 m (10) show NC gr  390 685 m -27 X s 390 714 m -27 X s 390 736 m -27 X s 390 752 m -27 X s 390 765 m -27 X s 390 777 m -27 X s 390 786 m -27 X s 390 795 m -27 X s 417
 803 m -54 X s
 gsave  2268 1077 0 461 C 319.305 801.521 t 0 r /Helvetica findfont 32.6216 sf 0 0 m (\2551) show NC gr 
 gsave  2268 1077 0 461 C 267.173 781.971 t 0 r /Helvetica findfont 48.9324 sf 0 0 m (10) show NC gr  390 854 m -27 X s 390 884 m -27 X s 390 905 m -27 X s 390 921 m -27 X s 390 935 m -27 X s 390 946 m -27 X s 390 956 m -27 X s 390 964 m -27 X s 417
 972 m -54 X s
 gsave  2268 1077 0 461 C 342.425 951.328 t 0 r  -27 0 t /Helvetica findfont 48.9324 sf 0 0 m (1) show NC gr  390 1023 m -27 X s 390 1053 m -27 X s 390 1074 m -27 X s 390 1091 m -27 X s 390 1104 m -27 X s 390 1115 m -27 X s 390 1125 m -27 X s 390
 1134 m -27 X s 417 1141 m -54 X s
 gsave  2268 1077 0 461 C 342.425 1120.61 t 0 r  -55 0 t /Helvetica findfont 48.9324 sf 0 0 m (10) show NC gr  390 1192 m -27 X s 390 1222 m -27 X s 390 1243 m -27 X s 390 1260 m -27 X s 390 1273 m -27 X s 390 1285 m -27 X s 390 1294 m -27 X s 390
 1303 m -27 X s 417 1311 m -54 X s
 gsave  2268 1077 0 461 C 322.563 1309.8 t 0 r /Helvetica findfont 32.6216 sf 0 0 m (2) show NC gr 
 gsave  2268 1077 0 461 C 270.432 1290.25 t 0 r /Helvetica findfont 48.9324 sf 0 0 m (10) show NC gr  390 1362 m -27 X s 390 1392 m -27 X s 390 1413 m -27 X s 390 1429 m -27 X s 390 1442 m -27 X s 390 1454 m -27 X s 390 1464 m -27 X s 390 1472 m -27
 X s 417 1480 m -54 X s
 gsave  2268 1077 0 461 C 322.563 1482.49 t 0 r /Helvetica findfont 32.6216 sf 0 0 m (3) show NC gr 
 gsave  2268 1077 0 461 C 270.432 1459.68 t 0 r /Helvetica findfont 48.9324 sf 0 0 m (10) show NC gr  2154 634 m 850 Y s 2101 634 m 53 X s 2127 685 m 27 X s 2127 714 m 27 X s 2127 736 m 27 X s 2127 752 m 27 X s 2127 765 m 27 X s 2127 777 m 27 X s
 2127 786 m 27 X s 2127 795 m 27 X s 2101 803 m 53 X s 2127 854 m 27 X s 2127 884 m 27 X s 2127 905 m 27 X s 2127 921 m 27 X s 2127 935 m 27 X s 2127 946 m 27 X s 2127 956 m 27 X s 2127 964 m 27 X s 2101 972 m 53 X s 2127 1023 m 27 X s 2127 1053 m 27
 X s 2127 1074 m 27 X s 2127 1091 m 27 X s 2127 1104 m 27 X s 2127 1115 m 27 X s 2127 1125 m 27 X s 2127 1134 m 27 X s 2101 1141 m 53 X s 2127 1192 m 27 X s 2127 1222 m 27 X s 2127 1243 m 27 X s 2127 1260 m 27 X s 2127 1273 m 27 X s 2127 1285 m 27 X
 s 2127 1294 m 27 X s 2127 1303 m 27 X s 2101 1311 m 53 X s 2127 1362 m 27 X s 2127 1392 m 27 X s 2127 1413 m 27 X s 2127 1429 m 27 X s 2127 1442 m 27 X s 2127 1454 m 27 X s 2127 1464 m 27 X s 2127 1472 m 27 X s 2101 1480 m 53 X s 381 1074 m -18 X s
 363 1074 m cl s 381 1074 m 18 X s 399 1074 m cl s 381 1074 m 43 Y s 381 1117 m cl s 381 1074 m -48 Y s 381 1026 m cl s 417 1053 m -18 X s 399 1053 m cl s 417 1053 m 17 X s 434 1053 m cl s 417 1053 m 50 Y s 417 1103 m cl s 417 1053 m -58 Y s 417 995
 m cl s 452 1074 m -18 X s 434 1074 m cl s 452 1074 m 18 X s 470 1074 m cl s 452 1074 m 43 Y s 452 1117 m cl s 452 1074 m -48 Y s 452 1026 m cl s 488 1053 m -18 X s 470 1053 m cl s 488 1053 m 18 X s 506 1053 m cl s 488 1053 m 50 Y s 488 1103 m cl s
 488 1053 m -58 Y s 488 995 m cl s 524 1104 m -18 X s 506 1104 m cl s 524 1104 m 18 X s 542 1104 m cl s 524 1104 m 34 Y s 524 1138 m cl s 524 1104 m -37 Y s 524 1067 m cl s 560 1091 m -18 X s 542 1091 m cl s 560 1091 m 18 X s 578 1091 m cl s 560 1091
 m 37 Y s 560 1128 m cl s 560 1091 m -42 Y s 560 1049 m cl s 596 1141 m -18 X s 578 1141 m cl s 596 1141 m 18 X s 614 1141 m cl s 596 1141 m 27 Y s 596 1168 m cl s 596 1141 m -27 Y s 596 1114 m cl s 632 1053 m -18 X s 614 1053 m cl s 632 1053 m 17 X
 s 649 1053 m cl s 632 1053 m 50 Y s 632 1103 m cl s 632 1053 m -58 Y s 632 995 m cl s 667 1148 m -18 X s 649 1148 m cl s 667 1148 m 18 X s 685 1148 m cl s 667 1148 m 25 Y s 667 1173 m cl s 667 1148 m -25 Y s 667 1123 m cl s 703 1091 m -18 X s 685
 1091 m cl s 703 1091 m 18 X s 721 1091 m cl s 703 1091 m 37 Y s 703 1128 m cl s 703 1091 m -42 Y s 703 1049 m cl s 739 1053 m -18 X s 721 1053 m cl s 739 1053 m 18 X s 757 1053 m cl s 739 1053 m 50 Y s 739 1103 m cl s 739 1053 m -58 Y s 739 995 m cl
 s 775 1091 m -18 X s 757 1091 m cl s 775 1091 m 18 X s 793 1091 m cl s 775 1091 m 37 Y s 775 1128 m cl s 775 1091 m -42 Y s 775 1049 m cl s 811 1074 m -18 X s 793 1074 m cl s 811 1074 m 18 X s 829 1074 m cl s 811 1074 m 43 Y s 811 1117 m cl s 811
 1074 m -48 Y s 811 1026 m cl s 847 1134 m -18 X s 829 1134 m cl s 847 1134 m 17 X s 864 1134 m cl s 847 1134 m 27 Y s 847 1161 m cl s 847 1134 m -29 Y s 847 1105 m cl s 882 1104 m -18 X s 864 1104 m cl s 882 1104 m 18 X s 900 1104 m cl s 882 1104 m
 34 Y s 882 1138 m cl s 882 1104 m -37 Y s 882 1067 m cl s 918 1166 m -18 X s 900 1166 m cl s 918 1166 m 18 X s 936 1166 m cl s 918 1166 m 22 Y s 918 1188 m cl s 918 1166 m -22 Y s 918 1144 m cl s 954 1125 m -18 X s 936 1125 m cl s 954 1125 m 18 X s
 972 1125 m cl s 954 1125 m 30 Y s 954 1155 m cl s 954 1125 m -31 Y s 954 1094 m cl s 990 1148 m -18 X s 972 1148 m cl s 990 1148 m 18 X s 1008 1148 m cl s 990 1148 m 25 Y s 990 1173 m cl s 990 1148 m -25 Y s 990 1123 m cl s 1026 1125 m -18 X s 1008
 1125 m cl s 1026 1125 m 18 X s 1044 1125 m cl s 1026 1125 m 30 Y s 1026 1155 m cl s 1026 1125 m -31 Y s 1026 1094 m cl s 1062 1148 m -18 X s 1044 1148 m cl s 1062 1148 m 17 X s 1079 1148 m cl s 1062 1148 m 25 Y s 1062 1173 m cl s 1062 1148 m -25 Y s
 1062 1123 m cl s 1097 1192 m -18 X s 1079 1192 m cl s 1097 1192 m 18 X s 1115 1192 m cl s 1097 1192 m 18 Y s 1097 1210 m cl s 1097 1192 m -18 Y s 1097 1174 m cl s 1133 1196 m -18 X s 1115 1196 m cl s 1133 1196 m 18 X s 1151 1196 m cl s 1133 1196 m
 18 Y s 1133 1214 m cl s 1133 1196 m -18 Y s 1133 1178 m cl s 1169 1231 m -18 X s 1151 1231 m cl s 1169 1231 m 18 X s 1187 1231 m cl s 1169 1231 m 14 Y s 1169 1245 m cl s 1169 1231 m -13 Y s 1169 1218 m cl s 1205 1231 m -18 X s 1187 1231 m cl s 1205
 1231 m 18 X s 1223 1231 m cl s 1205 1231 m 14 Y s 1205 1245 m cl s 1205 1231 m -13 Y s 1205 1218 m cl s 1241 1252 m -18 X s 1223 1252 m cl s 1241 1252 m 18 X s 1259 1252 m cl s 1241 1252 m 12 Y s 1241 1264 m cl s 1241 1252 m -12 Y s 1241 1240 m cl s
 1276 1249 m -17 X s 1259 1249 m cl s 1276 1249 m 18 X s 1294 1249 m cl s 1276 1249 m 12 Y s 1276 1261 m cl s 1276 1249 m -12 Y s 1276 1237 m cl s 1312 1294 m -18 X s 1294 1294 m cl s 1312 1294 m 18 X s 1330 1294 m cl s 1312 1294 m 9 Y s 1312 1303 m
 cl s 1312 1294 m -8 Y s 1312 1286 m cl s 1348 1318 m -18 X s 1330 1318 m cl s 1348 1318 m 18 X s 1366 1318 m cl s 1348 1318 m 7 Y s 1348 1325 m cl s 1348 1318 m -7 Y s 1348 1311 m cl s 1384 1334 m -18 X s 1366 1334 m cl s 1384 1334 m 18 X s 1402
 1334 m cl s 1384 1334 m 7 Y s 1384 1341 m cl s 1384 1334 m -6 Y s 1384 1328 m cl s 1420 1367 m -18 X s 1402 1367 m cl s 1420 1367 m 18 X s 1438 1367 m cl s 1420 1367 m 5 Y s 1420 1372 m cl s 1420 1367 m -5 Y s 1420 1362 m cl s 1456 1379 m -18 X s
 1438 1379 m cl s 1456 1379 m 18 X s 1474 1379 m cl s 1456 1379 m 5 Y s 1456 1384 m cl s 1456 1379 m -5 Y s 1456 1374 m cl s 1491 1408 m -17 X s 1474 1408 m cl s 1491 1408 m 18 X s 1509 1408 m cl s 1491 1408 m 4 Y s 1491 1412 m cl s 1491 1408 m -3 Y
 s 1491 1405 m cl s 1527 1427 m -18 X s 1509 1427 m cl s 1527 1427 m 18 X s 1545 1427 m cl s 1527 1427 m 3 Y s 1527 1430 m cl s 1527 1427 m -3 Y s 1527 1424 m cl s 1563 1443 m -18 X s 1545 1443 m cl s 1563 1443 m 18 X s 1581 1443 m cl s 1563 1443 m 3
 Y s 1563 1446 m cl s 1563 1443 m -3 Y s 1563 1440 m cl s 1599 1443 m -18 X s 1581 1443 m cl s 1599 1443 m 18 X s 1617 1443 m cl s 1599 1443 m 3 Y s 1599 1446 m cl s 1599 1443 m -3 Y s 1599 1440 m cl s 1635 1435 m -18 X s 1617 1435 m cl s 1635 1435 m
 18 X s 1653 1435 m cl s 1635 1435 m 3 Y s 1635 1438 m cl s 1635 1435 m -4 Y s 1635 1431 m cl s 1671 1402 m -18 X s 1653 1402 m cl s 1671 1402 m 18 X s 1689 1402 m cl s 1671 1402 m 4 Y s 1671 1406 m cl s 1671 1402 m -4 Y s 1671 1398 m cl s 1706 1371
 m -17 X s 1689 1371 m cl s 1706 1371 m 18 X s 1724 1371 m cl s 1706 1371 m 5 Y s 1706 1376 m cl s 1706 1371 m -5 Y s 1706 1366 m cl s 1742 1323 m -18 X s 1724 1323 m cl s 1742 1323 m 18 X s 1760 1323 m cl s 1742 1323 m 7 Y s 1742 1330 m cl s 1742
 1323 m -7 Y s 1742 1316 m cl s 1778 1265 m -18 X s 1760 1265 m cl s 1778 1265 m 18 X s 1796 1265 m cl s 1778 1265 m 11 Y s 1778 1276 m cl s 1778 1265 m -10 Y s 1778 1255 m cl s 1814 1212 m -18 X s 1796 1212 m cl s 1814 1212 m 18 X s 1832 1212 m cl s
 1814 1212 m 15 Y s 1814 1227 m cl s 1814 1212 m -16 Y s 1814 1196 m cl s 1850 1166 m -18 X s 1832 1166 m cl s 1850 1166 m 18 X s 1868 1166 m cl s 1850 1166 m 22 Y s 1850 1188 m cl s 1850 1166 m -22 Y s 1850 1144 m cl s 1886 1148 m -18 X s 1868 1148
 m cl s 1886 1148 m 18 X s 1904 1148 m cl s 1886 1148 m 25 Y s 1886 1173 m cl s 1886 1148 m -25 Y s 1886 1123 m cl s 1921 1134 m -17 X s 1904 1134 m cl s 1921 1134 m 18 X s 1939 1134 m cl s 1921 1134 m 27 Y s 1921 1161 m cl s 1921 1134 m -29 Y s 1921
 1105 m cl s 1957 1125 m -18 X s 1939 1125 m cl s 1957 1125 m 18 X s 1975 1125 m cl s 1957 1125 m 30 Y s 1957 1155 m cl s 1957 1125 m -31 Y s 1957 1094 m cl s 1993 1053 m -18 X s 1975 1053 m cl s 1993 1053 m 18 X s 2011 1053 m cl s 1993 1053 m 50 Y s
 1993 1103 m cl s 1993 1053 m -58 Y s 1993 995 m cl s 2029 1104 m -18 X s 2011 1104 m cl s 2029 1104 m 18 X s 2047 1104 m cl s 2029 1104 m 34 Y s 2029 1138 m cl s 2029 1104 m -37 Y s 2029 1067 m cl s 2065 972 m -18 X s 2047 972 m cl s 2065 972 m 18 X
 s 2083 972 m cl s 2065 972 m 88 Y s 2065 1060 m cl s 2065 972 m -129 Y s 2065 843 m cl s 2101 1023 m -18 X s 2083 1023 m cl s 2101 1023 m 18 X s 2119 1023 m cl s 2101 1023 m 62 Y s 2101 1085 m cl s 2101 1023 m -76 Y s 2101 947 m cl s 2136 972 m -17
 X s 2119 972 m cl s 2136 972 m 18 X s 2154 972 m cl s 2136 972 m 88 Y s 2136 1060 m cl s 2136 972 m -129 Y s 2136 843 m cl s /w 31 def /w2 {w 2 div} def /w3 {w 3 div} def 381 1074 417 1053 452 1074 488 1053 524 1104 560 1091 596 1141 632 1053 667
 1148 703 1091 739 1053 775 1091 811 1074 847 1134 882 1104 918 1166 954 1125 990 1148 1026 1125 1062 1148 1097 1192 1133 1196 1169 1231 1205 1231 1241 1252 1276 1249 1312 1294 1348 1318 1384 1334 1420 1367 1456 1379 1491 1408 1527 1427 1563 1443
 1599 1443 1635 1435 1671 1402 1706 1371 1742 1323 1778 1265 1814 1212 1850 1166 1886 1148 1921 1134 1957 1125 1993 1053 2029 1104 2065 972 2101 1023 2136 972 50 { m20} R 0 1 1 c 1 1 0 c black 1 1 0 c 363 1066 m 36 5 d 35 4 d 36 5 d 36 4 d 36 5 d 36
 5 d 36 5 d 35 5 d 36 6 d 36 6 d 36 6 d 36 6 d 36 6 d 35 7 d 36 8 d 36 8 d 36 8 d 36 9 d 36 10 d 35 12 d 36 12 d 36 13 d 36 14 d 36 15 d 36 16 d 35 18 d 18 9 d 18 9 d 18 10 d 18 10 d 18 10 d 18 11 d 9 6 d 9 5 d 9 6 d 9 7 d 9 7 d 9 8 d 9 8 d 4 4 d 5 5
 d 35 27 d 9 5 d 9 5 d 9 4 d 9 3 d 5 1 d 4 1 d 5 1 d 4 1 d 5 1 d 4 X 5 1 d 4 X 5 -1 d 4 X 4 -1 d 5 -1 d 4 -1 d 5 -1 d 4 -1 d 5 -2 d 9 -4 d 9 -4 d 9 -6 d 9 -6 d 18 -14 d 9 -8 d 9 -9 d 8 -9 d 9 -10 d 9 -10 d 9 -10 d 9 -12 d 9 -11 d 9 -12 d 9 -11 d 9
 -12 d 9 -12 d 9 -11 d 9 -10 d 18 -20 d 18 -17 d 18 -15 d 18 -15 d 36 -28 d 35 -27 d 36 -28 d 36 -28 d 36 -29 d 36 -32 d 36 -33 d 35 -35 d -319 Y -17 X -18 178 d -36 96 d -36 64 d -36 51 d -36 42 d -36 35 d -35 29 d -36 29 d -18 16 d -18 20 d -18 22
 d -18 24 d -9 12 d -9 12 d -9 13 d -9 13 d -9 12 d -9 13 d -9 12 d -9 12 d -9 11 d -9 12 d -9 10 d -8 10 d -9 10 d -9 8 d -18 15 d -9 7 d -9 5 d -9 5 d -9 4 d -5 1 d -4 2 d -5 1 d -4 1 d -5 1 d -4 1 d -27 X -4 -1 d -5 -1 d -4 -1 d -5 -1 d -9 -4 d -9
 -4 d -9 -5 d -9 -6 d -35 -33 d -5 -3 d -4 -4 d -9 -7 d -9 -7 d -9 -6 d -9 -7 d -9 -6 d -9 -6 d -9 -6 d -18 -12 d -18 -10 d -18 -10 d -18 -10 d -18 -9 d -18 -9 d -35 -18 d -36 -18 d -36 -17 d -36 -15 d -36 -15 d -36 -13 d -35 -12 d -36 -10 d -36 -10
 d -36 -8 d -36 -8 d -36 -8 d -35 -7 d -36 -7 d -36 -6 d -36 -6 d -36 -6 d -36 -6 d -35 -5 d -36 -6 d -36 -5 d -36 -5 d -36 -4 d -36 -5 d -35 -5 d -36 -4 d f 0 1 1 c 0 1 0 c black 0 1 0 c 363 1062 m 36 4 d 35 4 d 36 5 d 36 5 d 36 4 d 36 5 d 36 6 d 35
 5 d 36 6 d 36 5 d 36 6 d 36 7 d 36 6 d 35 7 d 36 8 d 36 7 d 36 9 d 36 9 d 36 11 d 35 11 d 36 12 d 36 14 d 36 14 d 36 16 d 36 16 d 35 18 d 18 9 d 18 9 d 18 10 d 18 10 d 18 10 d 18 11 d 9 6 d 9 6 d 9 6 d 9 6 d 9 7 d 9 8 d 9 8 d 4 4 d 5 4 d 35 29 d 9 5
 d 9 5 d 9 4 d 9 3 d 5 1 d 4 1 d 5 1 d 4 1 d 5 1 d 22 X 4 -1 d 5 -1 d 4 -1 d 5 -1 d 4 -2 d 5 -1 d 9 -4 d 9 -5 d 9 -5 d 9 -6 d 18 -15 d 9 -8 d 9 -9 d 8 -9 d 9 -10 d 9 -10 d 9 -11 d 9 -12 d 9 -11 d 9 -12 d 9 -12 d 9 -12 d 9 -11 d 9 -12 d 9 -11 d 18 -20
 d 18 -18 d 18 -16 d 18 -15 d 36 -28 d 35 -28 d 36 -29 d 36 -29 d 36 -32 d 36 -34 d 36 -37 d 35 -39 d -83 Y -35 57 d -36 51 d -36 46 d -36 41 d -36 37 d -36 32 d -35 29 d -36 29 d -18 15 d -18 19 d -18 20 d -18 22 d -9 12 d -9 12 d -9 12 d -9 13 d -9
 12 d -9 12 d -9 12 d -9 12 d -9 11 d -9 11 d -9 11 d -8 9 d -9 10 d -9 8 d -18 15 d -9 6 d -9 6 d -9 4 d -9 4 d -5 2 d -4 1 d -5 1 d -4 1 d -5 1 d -4 1 d -4 X -5 1 d -9 X -4 -1 d -5 X -4 -1 d -5 -1 d -4 -1 d -5 -1 d -9 -4 d -9 -4 d -9 -5 d -9 -6 d
 -35 -31 d -5 -4 d -4 -3 d -9 -8 d -9 -7 d -9 -6 d -9 -7 d -9 -6 d -9 -6 d -9 -6 d -18 -11 d -18 -11 d -18 -10 d -18 -9 d -18 -10 d -18 -9 d -35 -18 d -36 -17 d -36 -16 d -36 -16 d -36 -14 d -36 -12 d -35 -12 d -36 -10 d -36 -10 d -36 -8 d -36 -8 d
 -36 -8 d -35 -7 d -36 -7 d -36 -6 d -36 -6 d -36 -6 d -36 -6 d -35 -5 d -36 -5 d -36 -5 d -36 -5 d -36 -5 d -36 -5 d -35 -4 d -36 -4 d f 0 0 1 c 9 lw black 0 0 1 c 363 1057 m 36 4 d 35 5 d 36 4 d 36 5 d 36 5 d 36 5 d 36 5 d 35 5 d 36 6 d 36 6 d 36 6
 d 36 6 d 36 7 d 35 7 d 36 7 d 36 8 d 36 9 d 36 9 d 36 10 d 35 12 d 36 12 d 36 14 d 36 15 d 36 16 d 36 17 d 35 17 d 18 10 d 18 9 d 18 10 d 18 10 d 18 10 d 18 11 d 9 6 d 9 6 d 9 6 d 9 6 d 9 7 d 9 7 d 9 8 d 4 4 d 5 4 d 35 30 d 9 6 d 9 4 d 9 5 d 9 3 d 5
 1 d 4 1 d 5 1 d 4 1 d 5 1 d 18 X 4 -1 d 4 X 5 -1 d 4 -1 d 5 -2 d 4 -1 d 5 -2 d 9 -3 d 9 -5 d 9 -6 d 9 -6 d 18 -14 d 9 -9 d 9 -9 d 8 -9 d 9 -10 d 9 -11 d 9 -11 d 9 -12 d 9 -11 d 9 -12 d 9 -13 d 9 -12 d 9 -12 d 9 -11 d 9 -12 d 18 -21 d 18 -19 d 18 -17
 d 18 -15 d 36 -29 d 35 -28 d 36 -30 d 36 -33 d 36 -35 d 36 -38 d 36 -41 d 35 -44 d s black 3 lw 381 1074 m -18 X s 363 1074 m cl s 381 1074 m 18 X s 399 1074 m cl s 381 1074 m 43 Y s 381 1117 m cl s 381 1074 m -48 Y s 381 1026 m cl s 417 1053 m -18
 X s 399 1053 m cl s 417 1053 m 17 X s 434 1053 m cl s 417 1053 m 50 Y s 417 1103 m cl s 417 1053 m -58 Y s 417 995 m cl s 452 1074 m -18 X s 434 1074 m cl s 452 1074 m 18 X s 470 1074 m cl s 452 1074 m 43 Y s 452 1117 m cl s 452 1074 m -48 Y s 452
 1026 m cl s 488 1053 m -18 X s 470 1053 m cl s 488 1053 m 18 X s 506 1053 m cl s 488 1053 m 50 Y s 488 1103 m cl s 488 1053 m -58 Y s 488 995 m cl s 524 1104 m -18 X s 506 1104 m cl s 524 1104 m 18 X s 542 1104 m cl s 524 1104 m 34 Y s 524 1138 m cl
 s 524 1104 m -37 Y s 524 1067 m cl s 560 1091 m -18 X s 542 1091 m cl s 560 1091 m 18 X s 578 1091 m cl s 560 1091 m 37 Y s 560 1128 m cl s 560 1091 m -42 Y s 560 1049 m cl s 596 1141 m -18 X s 578 1141 m cl s 596 1141 m 18 X s 614 1141 m cl s 596
 1141 m 27 Y s 596 1168 m cl s 596 1141 m -27 Y s 596 1114 m cl s 632 1053 m -18 X s 614 1053 m cl s 632 1053 m 17 X s 649 1053 m cl s 632 1053 m 50 Y s 632 1103 m cl s 632 1053 m -58 Y s 632 995 m cl s 667 1148 m -18 X s 649 1148 m cl s 667 1148 m
 18 X s 685 1148 m cl s 667 1148 m 25 Y s 667 1173 m cl s 667 1148 m -25 Y s 667 1123 m cl s 703 1091 m -18 X s 685 1091 m cl s 703 1091 m 18 X s 721 1091 m cl s 703 1091 m 37 Y s 703 1128 m cl s 703 1091 m -42 Y s 703 1049 m cl s 739 1053 m -18 X s
 721 1053 m cl s 739 1053 m 18 X s 757 1053 m cl s 739 1053 m 50 Y s 739 1103 m cl s 739 1053 m -58 Y s 739 995 m cl s 775 1091 m -18 X s 757 1091 m cl s 775 1091 m 18 X s 793 1091 m cl s 775 1091 m 37 Y s 775 1128 m cl s 775 1091 m -42 Y s 775 1049
 m cl s 811 1074 m -18 X s 793 1074 m cl s 811 1074 m 18 X s 829 1074 m cl s 811 1074 m 43 Y s 811 1117 m cl s 811 1074 m -48 Y s 811 1026 m cl s 847 1134 m -18 X s 829 1134 m cl s 847 1134 m 17 X s 864 1134 m cl s 847 1134 m 27 Y s 847 1161 m cl s
 847 1134 m -29 Y s 847 1105 m cl s 882 1104 m -18 X s 864 1104 m cl s 882 1104 m 18 X s 900 1104 m cl s 882 1104 m 34 Y s 882 1138 m cl s 882 1104 m -37 Y s 882 1067 m cl s 918 1166 m -18 X s 900 1166 m cl s 918 1166 m 18 X s 936 1166 m cl s 918
 1166 m 22 Y s 918 1188 m cl s 918 1166 m -22 Y s 918 1144 m cl s 954 1125 m -18 X s 936 1125 m cl s 954 1125 m 18 X s 972 1125 m cl s 954 1125 m 30 Y s 954 1155 m cl s 954 1125 m -31 Y s 954 1094 m cl s 990 1148 m -18 X s 972 1148 m cl s 990 1148 m
 18 X s 1008 1148 m cl s 990 1148 m 25 Y s 990 1173 m cl s 990 1148 m -25 Y s 990 1123 m cl s 1026 1125 m -18 X s 1008 1125 m cl s 1026 1125 m 18 X s 1044 1125 m cl s 1026 1125 m 30 Y s 1026 1155 m cl s 1026 1125 m -31 Y s 1026 1094 m cl s 1062 1148
 m -18 X s 1044 1148 m cl s 1062 1148 m 17 X s 1079 1148 m cl s 1062 1148 m 25 Y s 1062 1173 m cl s 1062 1148 m -25 Y s 1062 1123 m cl s 1097 1192 m -18 X s 1079 1192 m cl s 1097 1192 m 18 X s 1115 1192 m cl s 1097 1192 m 18 Y s 1097 1210 m cl s 1097
 1192 m -18 Y s 1097 1174 m cl s 1133 1196 m -18 X s 1115 1196 m cl s 1133 1196 m 18 X s 1151 1196 m cl s 1133 1196 m 18 Y s 1133 1214 m cl s 1133 1196 m -18 Y s 1133 1178 m cl s 1169 1231 m -18 X s 1151 1231 m cl s 1169 1231 m 18 X s 1187 1231 m cl
 s 1169 1231 m 14 Y s 1169 1245 m cl s 1169 1231 m -13 Y s 1169 1218 m cl s 1205 1231 m -18 X s 1187 1231 m cl s 1205 1231 m 18 X s 1223 1231 m cl s 1205 1231 m 14 Y s 1205 1245 m cl s 1205 1231 m -13 Y s 1205 1218 m cl s 1241 1252 m -18 X s 1223
 1252 m cl s 1241 1252 m 18 X s 1259 1252 m cl s 1241 1252 m 12 Y s 1241 1264 m cl s 1241 1252 m -12 Y s 1241 1240 m cl s 1276 1249 m -17 X s 1259 1249 m cl s 1276 1249 m 18 X s 1294 1249 m cl s 1276 1249 m 12 Y s 1276 1261 m cl s 1276 1249 m -12 Y s
 1276 1237 m cl s 1312 1294 m -18 X s 1294 1294 m cl s 1312 1294 m 18 X s 1330 1294 m cl s 1312 1294 m 9 Y s 1312 1303 m cl s 1312 1294 m -8 Y s 1312 1286 m cl s 1348 1318 m -18 X s 1330 1318 m cl s 1348 1318 m 18 X s 1366 1318 m cl s 1348 1318 m 7 Y
 s 1348 1325 m cl s 1348 1318 m -7 Y s 1348 1311 m cl s 1384 1334 m -18 X s 1366 1334 m cl s 1384 1334 m 18 X s 1402 1334 m cl s 1384 1334 m 7 Y s 1384 1341 m cl s 1384 1334 m -6 Y s 1384 1328 m cl s 1420 1367 m -18 X s 1402 1367 m cl s 1420 1367 m
 18 X s 1438 1367 m cl s 1420 1367 m 5 Y s 1420 1372 m cl s 1420 1367 m -5 Y s 1420 1362 m cl s 1456 1379 m -18 X s 1438 1379 m cl s 1456 1379 m 18 X s 1474 1379 m cl s 1456 1379 m 5 Y s 1456 1384 m cl s 1456 1379 m -5 Y s 1456 1374 m cl s 1491 1408
 m -17 X s 1474 1408 m cl s 1491 1408 m 18 X s 1509 1408 m cl s 1491 1408 m 4 Y s 1491 1412 m cl s 1491 1408 m -3 Y s 1491 1405 m cl s 1527 1427 m -18 X s 1509 1427 m cl s 1527 1427 m 18 X s 1545 1427 m cl s 1527 1427 m 3 Y s 1527 1430 m cl s 1527
 1427 m -3 Y s 1527 1424 m cl s 1563 1443 m -18 X s 1545 1443 m cl s 1563 1443 m 18 X s 1581 1443 m cl s 1563 1443 m 3 Y s 1563 1446 m cl s 1563 1443 m -3 Y s 1563 1440 m cl s 1599 1443 m -18 X s 1581 1443 m cl s 1599 1443 m 18 X s 1617 1443 m cl s
 1599 1443 m 3 Y s 1599 1446 m cl s 1599 1443 m -3 Y s 1599 1440 m cl s 1635 1435 m -18 X s 1617 1435 m cl s 1635 1435 m 18 X s 1653 1435 m cl s 1635 1435 m 3 Y s 1635 1438 m cl s 1635 1435 m -4 Y s 1635 1431 m cl s 1671 1402 m -18 X s 1653 1402 m cl
 s 1671 1402 m 18 X s 1689 1402 m cl s 1671 1402 m 4 Y s 1671 1406 m cl s 1671 1402 m -4 Y s 1671 1398 m cl s 1706 1371 m -17 X s 1689 1371 m cl s 1706 1371 m 18 X s 1724 1371 m cl s 1706 1371 m 5 Y s 1706 1376 m cl s 1706 1371 m -5 Y s 1706 1366 m
 cl s 1742 1323 m -18 X s 1724 1323 m cl s 1742 1323 m 18 X s 1760 1323 m cl s 1742 1323 m 7 Y s 1742 1330 m cl s 1742 1323 m -7 Y s 1742 1316 m cl s 1778 1265 m -18 X s 1760 1265 m cl s 1778 1265 m 18 X s 1796 1265 m cl s 1778 1265 m 11 Y s 1778
 1276 m cl s 1778 1265 m -10 Y s 1778 1255 m cl s 1814 1212 m -18 X s 1796 1212 m cl s 1814 1212 m 18 X s 1832 1212 m cl s 1814 1212 m 15 Y s 1814 1227 m cl s 1814 1212 m -16 Y s 1814 1196 m cl s 1850 1166 m -18 X s 1832 1166 m cl s 1850 1166 m 18 X
 s 1868 1166 m cl s 1850 1166 m 22 Y s 1850 1188 m cl s 1850 1166 m -22 Y s 1850 1144 m cl s 1886 1148 m -18 X s 1868 1148 m cl s 1886 1148 m 18 X s 1904 1148 m cl s 1886 1148 m 25 Y s 1886 1173 m cl s 1886 1148 m -25 Y s 1886 1123 m cl s 1921 1134 m
 -17 X s 1904 1134 m cl s 1921 1134 m 18 X s 1939 1134 m cl s 1921 1134 m 27 Y s 1921 1161 m cl s 1921 1134 m -29 Y s 1921 1105 m cl s 1957 1125 m -18 X s 1939 1125 m cl s 1957 1125 m 18 X s 1975 1125 m cl s 1957 1125 m 30 Y s 1957 1155 m cl s 1957
 1125 m -31 Y s 1957 1094 m cl s 1993 1053 m -18 X s 1975 1053 m cl s 1993 1053 m 18 X s 2011 1053 m cl s 1993 1053 m 50 Y s 1993 1103 m cl s 1993 1053 m -58 Y s 1993 995 m cl s 2029 1104 m -18 X s 2011 1104 m cl s 2029 1104 m 18 X s 2047 1104 m cl s
 2029 1104 m 34 Y s 2029 1138 m cl s 2029 1104 m -37 Y s 2029 1067 m cl s 2065 972 m -18 X s 2047 972 m cl s 2065 972 m 18 X s 2083 972 m cl s 2065 972 m 88 Y s 2065 1060 m cl s 2065 972 m -129 Y s 2065 843 m cl s 2101 1023 m -18 X s 2083 1023 m cl s
 2101 1023 m 18 X s 2119 1023 m cl s 2101 1023 m 62 Y s 2101 1085 m cl s 2101 1023 m -76 Y s 2101 947 m cl s 2136 972 m -17 X s 2119 972 m cl s 2136 972 m 18 X s 2154 972 m cl s 2136 972 m 88 Y s 2136 1060 m cl s 2136 972 m -129 Y s 2136 843 m cl s
 381 1074 417 1053 452 1074 488 1053 524 1104 560 1091 596 1141 632 1053 667 1148 703 1091 739 1053 775 1091 811 1074 847 1134 882 1104 918 1166 954 1125 990 1148 1026 1125 1062 1148 1097 1192 1133 1196 1169 1231 1205 1231 1241 1252 1276 1249 1312
 1294 1348 1318 1384 1334 1420 1367 1456 1379 1491 1408 1527 1427 1563 1443 1599 1443 1635 1435 1671 1402 1706 1371 1742 1323 1778 1265 1814 1212 1850 1166 1886 1148 1921 1134 1957 1125 1993 1053 2029 1104 2065 972 2101 1023 2136 972 50 { m20} R 0.52
 0.76 0.64 c[ 4 8] 0 sd 9 lw black 0.52 0.76 0.64 c 363 1057 m 36 4 d 35 5 d 36 4 d 36 5 d 36 5 d 36 5 d 36 5 d 35 5 d 36 6 d 36 6 d 36 6 d 36 6 d 36 7 d 35 7 d 36 7 d 36 7 d 36 8 d 36 9 d 36 9 d 35 10 d 36 10 d 36 11 d 36 12 d 36 13 d 36 14 d 35 16
 d 18 8 d 18 10 d 18 9 d 18 11 d 18 11 d 18 12 d 9 6 d 9 7 d 9 7 d 9 8 d 9 7 d 9 9 d 4 4 d 5 4 d 4 5 d 5 5 d 9 9 d 8 9 d 18 15 d 9 6 d 9 5 d 9 4 d 5 2 d 4 2 d 5 1 d 4 2 d 5 1 d 4 X 5 1 d 4 X 5 1 d 4 X 5 -1 d 4 X 4 -1 d 5 -1 d 4 -1 d 5 -1 d 4 -2 d 5
 -2 d 9 -4 d 9 -5 d 9 -6 d 9 -6 d 18 -17 d 9 -9 d 9 -10 d 8 -11 d 9 -12 d 9 -13 d 9 -13 d 9 -15 d 9 -15 d 9 -16 d 9 -17 d 9 -18 d 9 -19 d 9 -20 d 9 -20 d 18 -44 d 18 -47 d 18 -50 d 18 -54 d 36 -118 d 35 -131 d 27 -107 d s 0.54 0.66 0.63 c black 0.54
 0.66 0.63 c 819 634 m 10 16 d s 829 650 m 35 57 d 36 55 d 36 51 d 36 49 d 36 46 d 36 44 d 35 40 d 36 38 d 18 18 d 18 17 d 18 16 d 18 16 d 18 15 d 18 14 d 18 14 d 18 12 d 17 13 d 18 11 d 18 11 d 18 10 d 18 9 d 18 9 d 36 15 d 36 13 d 18 5 d 18 4 d 17
 4 d 18 3 d 9 1 d 9 1 d 9 1 d 9 1 d 9 X 9 1 d 27 X 9 -1 d 9 X 9 -1 d 9 -1 d 9 -1 d 18 -2 d 18 -4 d 18 -4 d 17 -4 d 18 -6 d 36 -13 d 36 -15 d 18 -9 d 18 -10 d 18 -10 d 18 -11 d 18 -12 d 18 -12 d 17 -13 d 18 -14 d 18 -15 d 18 -15 d 18 -16 d 18 -17 d 18
 -17 d 18 -18 d 36 -38 d 36 -41 d 35 -44 d s black[  ] 0 sd 3 lw 363 634 m 1791 X s 574 659 m -25 Y s 626 646 m -12 Y s 679 646 m -12 Y s 732 646 m -12 Y s 784 646 m -12 Y s 837 659 m -25 Y s 890 646 m -12 Y s 942 646 m -12 Y s 995 646 m -12 Y s 1048
 646 m -12 Y s 1101 659 m -25 Y s 1153 646 m -12 Y s 1206 646 m -12 Y s 1259 646 m -12 Y s 1311 646 m -12 Y s 1364 659 m -25 Y s 1417 646 m -12 Y s 1469 646 m -12 Y s 1522 646 m -12 Y s 1575 646 m -12 Y s 1627 659 m -25 Y s 1680 646 m -12 Y s 1733
 646 m -12 Y s 1785 646 m -12 Y s 1838 646 m -12 Y s 1891 659 m -25 Y s 1944 646 m -12 Y s 1996 646 m -12 Y s 2049 646 m -12 Y s 2102 646 m -12 Y s 2154 659 m -25 Y s 574 659 m -25 Y s 521 646 m -12 Y s 468 646 m -12 Y s 416 646 m -12 Y s 363 1484 m
 1791 X s 574 1459 m 25 Y s 626 1471 m 13 Y s 679 1471 m 13 Y s 732 1471 m 13 Y s 784 1471 m 13 Y s 837 1459 m 25 Y s 890 1471 m 13 Y s 942 1471 m 13 Y s 995 1471 m 13 Y s 1048 1471 m 13 Y s 1101 1459 m 25 Y s 1153 1471 m 13 Y s 1206 1471 m 13 Y s
 1259 1471 m 13 Y s 1311 1471 m 13 Y s 1364 1459 m 25 Y s 1417 1471 m 13 Y s 1469 1471 m 13 Y s 1522 1471 m 13 Y s 1575 1471 m 13 Y s 1627 1459 m 25 Y s 1680 1471 m 13 Y s 1733 1471 m 13 Y s 1785 1471 m 13 Y s 1838 1471 m 13 Y s 1891 1459 m 25 Y s
 1944 1471 m 13 Y s 1996 1471 m 13 Y s 2049 1471 m 13 Y s 2102 1471 m 13 Y s 2154 1459 m 25 Y s 574 1459 m 25 Y s 521 1471 m 13 Y s 468 1471 m 13 Y s 416 1471 m 13 Y s 363 634 m 850 Y s 417 634 m -54 X s 390 685 m -27 X s 390 714 m -27 X s 390 736 m
 -27 X s 390 752 m -27 X s 390 765 m -27 X s 390 777 m -27 X s 390 786 m -27 X s 390 795 m -27 X s 417 803 m -54 X s 390 854 m -27 X s 390 884 m -27 X s 390 905 m -27 X s 390 921 m -27 X s 390 935 m -27 X s 390 946 m -27 X s 390 956 m -27 X s 390 964
 m -27 X s 417 972 m -54 X s 390 1023 m -27 X s 390 1053 m -27 X s 390 1074 m -27 X s 390 1091 m -27 X s 390 1104 m -27 X s 390 1115 m -27 X s 390 1125 m -27 X s 390 1134 m -27 X s 417 1141 m -54 X s 390 1192 m -27 X s 390 1222 m -27 X s 390 1243 m
 -27 X s 390 1260 m -27 X s 390 1273 m -27 X s 390 1285 m -27 X s 390 1294 m -27 X s 390 1303 m -27 X s 417 1311 m -54 X s 390 1362 m -27 X s 390 1392 m -27 X s 390 1413 m -27 X s 390 1429 m -27 X s 390 1442 m -27 X s 390 1454 m -27 X s 390 1464 m
 -27 X s 390 1472 m -27 X s 417 1480 m -54 X s 2154 634 m 850 Y s 2101 634 m 53 X s 2127 685 m 27 X s 2127 714 m 27 X s 2127 736 m 27 X s 2127 752 m 27 X s 2127 765 m 27 X s 2127 777 m 27 X s 2127 786 m 27 X s 2127 795 m 27 X s 2101 803 m 53 X s 2127
 854 m 27 X s 2127 884 m 27 X s 2127 905 m 27 X s 2127 921 m 27 X s 2127 935 m 27 X s 2127 946 m 27 X s 2127 956 m 27 X s 2127 964 m 27 X s 2101 972 m 53 X s 2127 1023 m 27 X s 2127 1053 m 27 X s 2127 1074 m 27 X s 2127 1091 m 27 X s 2127 1104 m 27 X
 s 2127 1115 m 27 X s 2127 1125 m 27 X s 2127 1134 m 27 X s 2101 1141 m 53 X s 2127 1192 m 27 X s 2127 1222 m 27 X s 2127 1243 m 27 X s 2127 1260 m 27 X s 2127 1273 m 27 X s 2127 1285 m 27 X s 2127 1294 m 27 X s 2127 1303 m 27 X s 2101 1311 m 53 X s
 2127 1362 m 27 X s 2127 1392 m 27 X s 2127 1413 m 27 X s 2127 1429 m 27 X s 2127 1442 m 27 X s 2127 1454 m 27 X s 2127 1464 m 27 X s 2127 1472 m 27 X s 2101 1480 m 53 X s
 gsave  2268 1077 0 461 C 677.708 1215.31 t 0 r /Helvetica findfont 58.7189 sf 0 0 m (4e) show NC gr  1 1 1 c 453 161 454 1269 bf black
 gsave  2268 1077 0 461 C 566.929 1371.71 t 0 r /Helvetica-Bold findfont 48.9324 sf 0 0 m (MC15) show NC gr  510 1390 m20
 gsave  2268 1077 0 461 C 566.929 1293.51 t 0 r /Helvetica-Bold findfont 48.9324 sf 0 0 m (Projection of Signal pdf) show NC gr  0 0 1 c 9 lw 471 1309 m 79 X s black 3 lw 1 1 1 c 2268 461 0 0 bf black 1 1 1 c 1791 364 363 74 bf black 1791 364 363 74
 bl 363 74 m 1791 X s
 gsave  2268 461 0 0 C 1915.83 13.0329 t 0 r /Helvetica findfont 22.9045 sf 0 0 m (4l Invariant Mass \(GeV\)) show NC gr  574 85 m -11 Y s 626 79 m -5 Y s 679 79 m -5 Y s 732 79 m -5 Y s 784 79 m -5 Y s 837 85 m -11 Y s 890 79 m -5 Y s 942 79 m -5 Y
 s 995 79 m -5 Y s 1048 79 m -5 Y s 1101 85 m -11 Y s 1153 79 m -5 Y s 1206 79 m -5 Y s 1259 79 m -5 Y s 1311 79 m -5 Y s 1364 85 m -11 Y s 1417 79 m -5 Y s 1469 79 m -5 Y s 1522 79 m -5 Y s 1575 79 m -5 Y s 1627 85 m -11 Y s 1680 79 m -5 Y s 1733 79
 m -5 Y s 1785 79 m -5 Y s 1838 79 m -5 Y s 1891 85 m -11 Y s 1944 79 m -5 Y s 1996 79 m -5 Y s 2049 79 m -5 Y s 2102 79 m -5 Y s 2154 85 m -11 Y s 574 85 m -11 Y s 521 79 m -5 Y s 468 79 m -5 Y s 416 79 m -5 Y s
 gsave  2268 461 0 0 C 553.896 55.3896 t 0 r /Helvetica findfont 22.9045 sf 0 0 m (160) show NC gr 
 gsave  2268 461 0 0 C 814.553 55.3896 t 0 r /Helvetica findfont 22.9045 sf 0 0 m (170) show NC gr 
 gsave  2268 461 0 0 C 1078.47 55.3896 t 0 r /Helvetica findfont 22.9045 sf 0 0 m (180) show NC gr 
 gsave  2268 461 0 0 C 1342.38 55.3896 t 0 r /Helvetica findfont 22.9045 sf 0 0 m (190) show NC gr 
 gsave  2268 461 0 0 C 1606.3 55.3896 t 0 r /Helvetica findfont 22.9045 sf 0 0 m (200) show NC gr 
 gsave  2268 461 0 0 C 1870.21 55.3896 t 0 r /Helvetica findfont 22.9045 sf 0 0 m (210) show NC gr 
 gsave  2268 461 0 0 C 2134.13 55.3896 t 0 r /Helvetica findfont 22.9045 sf 0 0 m (220) show NC gr  363 438 m 1791 X s 574 427 m 11 Y s 626 433 m 5 Y s 679 433 m 5 Y s 732 433 m 5 Y s 784 433 m 5 Y s 837 427 m 11 Y s 890 433 m 5 Y s 942 433 m 5 Y s
 995 433 m 5 Y s 1048 433 m 5 Y s 1101 427 m 11 Y s 1153 433 m 5 Y s 1206 433 m 5 Y s 1259 433 m 5 Y s 1311 433 m 5 Y s 1364 427 m 11 Y s 1417 433 m 5 Y s 1469 433 m 5 Y s 1522 433 m 5 Y s 1575 433 m 5 Y s 1627 427 m 11 Y s 1680 433 m 5 Y s 1733 433
 m 5 Y s 1785 433 m 5 Y s 1838 433 m 5 Y s 1891 427 m 11 Y s 1944 433 m 5 Y s 1996 433 m 5 Y s 2049 433 m 5 Y s 2102 433 m 5 Y s 2154 427 m 11 Y s 574 427 m 11 Y s 521 433 m 5 Y s 468 433 m 5 Y s 416 433 m 5 Y s 363 74 m 364 Y s 417 74 m -54 X s 390
 81 m -27 X s 390 88 m -27 X s 390 96 m -27 X s 390 103 m -27 X s 417 110 m -54 X s 390 118 m -27 X s 390 125 m -27 X s 390 132 m -27 X s 390 139 m -27 X s 417 147 m -54 X s 390 154 m -27 X s 390 161 m -27 X s 390 169 m -27 X s 390 176 m -27 X s 417
 183 m -54 X s 390 190 m -27 X s 390 198 m -27 X s 390 205 m -27 X s 390 212 m -27 X s 417 220 m -54 X s 390 227 m -27 X s 390 234 m -27 X s 390 241 m -27 X s 390 249 m -27 X s 417 256 m -54 X s 390 263 m -27 X s 390 271 m -27 X s 390 278 m -27 X s
 390 285 m -27 X s 417 293 m -54 X s 390 300 m -27 X s 390 307 m -27 X s 390 314 m -27 X s 390 322 m -27 X s 417 329 m -54 X s 390 336 m -27 X s 390 344 m -27 X s 390 351 m -27 X s 390 358 m -27 X s 417 365 m -54 X s 390 373 m -27 X s 390 380 m -27 X
 s 390 387 m -27 X s 390 395 m -27 X s 417 402 m -54 X s 390 409 m -27 X s 390 416 m -27 X s 390 424 m -27 X s 390 431 m -27 X s 417 438 m -54 X s
 gsave  2268 461 0 0 C 329.08 65.1643 t 0 r /Helvetica findfont 22.9045 sf 0 0 m (\2555) show NC gr 
 gsave  2268 461 0 0 C 329.08 101.005 t 0 r /Helvetica findfont 22.9045 sf 0 0 m (\2554) show NC gr 
 gsave  2268 461 0 0 C 329.08 140.103 t 0 r /Helvetica findfont 22.9045 sf 0 0 m (\2553) show NC gr 
 gsave  2268 461 0 0 C 329.08 175.944 t 0 r /Helvetica findfont 22.9045 sf 0 0 m (\2552) show NC gr 
 gsave  2268 461 0 0 C 332.338 211.784 t 0 r /Helvetica findfont 22.9045 sf 0 0 m (\2551) show NC gr 
 gsave  2268 461 0 0 C 335.596 247.624 t 0 r /Helvetica findfont 22.9045 sf 0 0 m (0) show NC gr 
 gsave  2268 461 0 0 C 338.854 283.465 t 0 r /Helvetica findfont 22.9045 sf 0 0 m (1) show NC gr 
 gsave  2268 461 0 0 C 335.596 319.305 t 0 r /Helvetica findfont 22.9045 sf 0 0 m (2) show NC gr 
 gsave  2268 461 0 0 C 335.596 358.403 t 0 r /Helvetica findfont 22.9045 sf 0 0 m (3) show NC gr 
 gsave  2268 461 0 0 C 335.596 394.244 t 0 r /Helvetica findfont 22.9045 sf 0 0 m (4) show NC gr 
 gsave  2268 461 0 0 C 335.596 430.084 t 0 r /Helvetica findfont 22.9045 sf 0 0 m (5) show NC gr  2154 74 m 364 Y s 2101 74 m 53 X s 2127 81 m 27 X s 2127 88 m 27 X s 2127 96 m 27 X s 2127 103 m 27 X s 2101 110 m 53 X s 2127 118 m 27 X s 2127 125 m
 27 X s 2127 132 m 27 X s 2127 139 m 27 X s 2101 147 m 53 X s 2127 154 m 27 X s 2127 161 m 27 X s 2127 169 m 27 X s 2127 176 m 27 X s 2101 183 m 53 X s 2127 190 m 27 X s 2127 198 m 27 X s 2127 205 m 27 X s 2127 212 m 27 X s 2101 220 m 53 X s 2127 227
 m 27 X s 2127 234 m 27 X s 2127 241 m 27 X s 2127 249 m 27 X s 2101 256 m 53 X s 2127 263 m 27 X s 2127 271 m 27 X s 2127 278 m 27 X s 2127 285 m 27 X s 2101 293 m 53 X s 2127 300 m 27 X s 2127 307 m 27 X s 2127 314 m 27 X s 2127 322 m 27 X s 2101
 329 m 53 X s 2127 336 m 27 X s 2127 344 m 27 X s 2127 351 m 27 X s 2127 358 m 27 X s 2101 365 m 53 X s 2127 373 m 27 X s 2127 380 m 27 X s 2127 387 m 27 X s 2127 395 m 27 X s 2101 402 m 53 X s 2127 409 m 27 X s 2127 416 m 27 X s 2127 424 m 27 X s
 2127 431 m 27 X s 2101 438 m 53 X s 6 lw 0.2 0.8 0.2 c black 3 lw 0.2 0.8 0.2 c 363 256 m 14 Y 36 X -20 Y 35 X 12 Y 36 X -17 Y 36 X 39 Y 36 X -19 Y 36 X 52 Y 36 X -88 Y 35 X 88 Y 36 X -72 Y 36 X -33 Y 36 X 22 Y 36 X -21 Y 36 X 49 Y 35 X -40 Y 36 X
 70 Y 36 X -70 Y 36 X 16 Y 36 X -47 Y 36 X 12 Y 35 X 49 Y 36 X -19 Y 36 X 49 Y 36 X -41 Y 36 X 10 Y 36 X -69 Y 35 X 99 Y 36 X 30 Y 36 X -17 Y 36 X 73 Y 36 X -99 Y 36 X -25 Y 35 X -58 Y 36 X 46 Y 36 X 21 Y 36 X 58 Y 36 X -68 Y 36 X 46 Y 35 X -24 Y 36
 X -35 Y 36 X -14 Y 36 X -6 Y 36 X 24 Y 36 X 20 Y 35 X 25 Y 36 X -36 Y 36 X 66 Y 36 X -61 Y 36 X 39 Y 36 X -9 Y 35 X -21 Y f 6 lw black 0.2 0.8 0.2 c black 363 270 m 36 X -20 Y 35 X 12 Y 36 X -17 Y 36 X 39 Y 36 X -19 Y 36 X 52 Y 36 X -88 Y 35 X 88 Y
 36 X -72 Y 36 X -33 Y 36 X 22 Y 36 X -21 Y 36 X 49 Y 35 X -40 Y 36 X 70 Y 36 X -70 Y 36 X 16 Y 36 X -47 Y 36 X 12 Y 35 X 49 Y 36 X -19 Y 36 X 49 Y 36 X -41 Y 36 X 10 Y 36 X -69 Y 35 X 99 Y 36 X 30 Y 36 X -17 Y 36 X 73 Y 36 X -99 Y 36 X -25 Y 35 X
 -58 Y 36 X 46 Y 36 X 21 Y 36 X 58 Y 36 X -68 Y 36 X 46 Y 35 X -24 Y 36 X -35 Y 36 X -14 Y 36 X -6 Y 36 X 24 Y 36 X 20 Y 35 X 25 Y 36 X -36 Y 36 X 66 Y 36 X -61 Y 36 X 39 Y 36 X -9 Y 35 X s 3 lw 363 74 m 1791 X s 574 85 m -11 Y s 626 79 m -5 Y s 679
 79 m -5 Y s 732 79 m -5 Y s 784 79 m -5 Y s 837 85 m -11 Y s 890 79 m -5 Y s 942 79 m -5 Y s 995 79 m -5 Y s 1048 79 m -5 Y s 1101 85 m -11 Y s 1153 79 m -5 Y s 1206 79 m -5 Y s 1259 79 m -5 Y s 1311 79 m -5 Y s 1364 85 m -11 Y s 1417 79 m -5 Y s
 1469 79 m -5 Y s 1522 79 m -5 Y s 1575 79 m -5 Y s 1627 85 m -11 Y s 1680 79 m -5 Y s 1733 79 m -5 Y s 1785 79 m -5 Y s 1838 79 m -5 Y s 1891 85 m -11 Y s 1944 79 m -5 Y s 1996 79 m -5 Y s 2049 79 m -5 Y s 2102 79 m -5 Y s 2154 85 m -11 Y s 574 85 m
 -11 Y s 521 79 m -5 Y s 468 79 m -5 Y s 416 79 m -5 Y s 363 438 m 1791 X s 574 427 m 11 Y s 626 433 m 5 Y s 679 433 m 5 Y s 732 433 m 5 Y s 784 433 m 5 Y s 837 427 m 11 Y s 890 433 m 5 Y s 942 433 m 5 Y s 995 433 m 5 Y s 1048 433 m 5 Y s 1101 427 m
 11 Y s 1153 433 m 5 Y s 1206 433 m 5 Y s 1259 433 m 5 Y s 1311 433 m 5 Y s 1364 427 m 11 Y s 1417 433 m 5 Y s 1469 433 m 5 Y s 1522 433 m 5 Y s 1575 433 m 5 Y s 1627 427 m 11 Y s 1680 433 m 5 Y s 1733 433 m 5 Y s 1785 433 m 5 Y s 1838 433 m 5 Y s
 1891 427 m 11 Y s 1944 433 m 5 Y s 1996 433 m 5 Y s 2049 433 m 5 Y s 2102 433 m 5 Y s 2154 427 m 11 Y s 574 427 m 11 Y s 521 433 m 5 Y s 468 433 m 5 Y s 416 433 m 5 Y s 363 74 m 364 Y s 417 74 m -54 X s 390 81 m -27 X s 390 88 m -27 X s 390 96 m -27
 X s 390 103 m -27 X s 417 110 m -54 X s 390 118 m -27 X s 390 125 m -27 X s 390 132 m -27 X s 390 139 m -27 X s 417 147 m -54 X s 390 154 m -27 X s 390 161 m -27 X s 390 169 m -27 X s 390 176 m -27 X s 417 183 m -54 X s 390 190 m -27 X s 390 198 m
 -27 X s 390 205 m -27 X s 390 212 m -27 X s 417 220 m -54 X s 390 227 m -27 X s 390 234 m -27 X s 390 241 m -27 X s 390 249 m -27 X s 417 256 m -54 X s 390 263 m -27 X s 390 271 m -27 X s 390 278 m -27 X s 390 285 m -27 X s 417 293 m -54 X s 390 300
 m -27 X s 390 307 m -27 X s 390 314 m -27 X s 390 322 m -27 X s 417 329 m -54 X s 390 336 m -27 X s 390 344 m -27 X s 390 351 m -27 X s 390 358 m -27 X s 417 365 m -54 X s 390 373 m -27 X s 390 380 m -27 X s 390 387 m -27 X s 390 395 m -27 X s 417
 402 m -54 X s 390 409 m -27 X s 390 416 m -27 X s 390 424 m -27 X s 390 431 m -27 X s 417 438 m -54 X s 2154 74 m 364 Y s 2101 74 m 53 X s 2127 81 m 27 X s 2127 88 m 27 X s 2127 96 m 27 X s 2127 103 m 27 X s 2101 110 m 53 X s 2127 118 m 27 X s 2127
 125 m 27 X s 2127 132 m 27 X s 2127 139 m 27 X s 2101 147 m 53 X s 2127 154 m 27 X s 2127 161 m 27 X s 2127 169 m 27 X s 2127 176 m 27 X s 2101 183 m 53 X s 2127 190 m 27 X s 2127 198 m 27 X s 2127 205 m 27 X s 2127 212 m 27 X s 2101 220 m 53 X s
 2127 227 m 27 X s 2127 234 m 27 X s 2127 241 m 27 X s 2127 249 m 27 X s 2101 256 m 53 X s 2127 263 m 27 X s 2127 271 m 27 X s 2127 278 m 27 X s 2127 285 m 27 X s 2101 293 m 53 X s 2127 300 m 27 X s 2127 307 m 27 X s 2127 314 m 27 X s 2127 322 m 27 X
 s 2101 329 m 53 X s 2127 336 m 27 X s 2127 344 m 27 X s 2127 351 m 27 X s 2127 358 m 27 X s 2101 365 m 53 X s 2127 373 m 27 X s 2127 380 m 27 X s 2127 387 m 27 X s 2127 395 m 27 X s 2101 402 m 53 X s 2127 409 m 27 X s 2127 416 m 27 X s 2127 424 m 27
 X s 2127 431 m 27 X s 2101 438 m 53 X s
 gr  gr showpage
end
%%EOF
