%!PS-Adobe-2.0 EPSF-2.0
%%BoundingBox:  0 0 567 384
%%Title: H4l2015_plotfit/VBF_mass_signal_200_H4l_4mu.eps: 
%%Creator: ROOT Version 5.34/07
%%CreationDate: Mon Nov  9 16:29:34 2015
%%EndComments
%%BeginProlog
80 dict begin
/s {stroke} def /l {lineto} def /m {moveto} def /t {translate} def
/r {rotate} def /rl {roll}  def /R {repeat} def
/d {rlineto} def /rm {rmoveto} def /gr {grestore} def /f {eofill} def
/c {setrgbcolor} def /black {0 setgray} def /sd {setdash} def
/cl {closepath} def /sf {scalefont setfont} def /lw {setlinewidth} def
/box {m dup 0 exch d exch 0 d 0 exch neg d cl} def
/NC{systemdict begin initclip end}def/C{NC box clip newpath}def
/bl {box s} def /bf {box f} def /Y { 0 exch d} def /X { 0 d} def 
/K {{pop pop 0 moveto} exch kshow} bind def
/ita {/ang 15 def gsave [1 0 ang dup sin exch cos div 1 0 0] concat} def 
/mp {newpath /y exch def /x exch def} def
/side {[w .77 mul w .23 mul] .385 w mul sd w 0 l currentpoint t -144 r} def
/mr {mp x y w2 0 360 arc} def /m24 {mr s} def /m20 {mr f} def
/mb {mp x y w2 add m w2 neg 0 d 0 w neg d w 0 d 0 w d cl} def
/mt {mp x y w2 add m w2 neg w neg d w 0 d cl} def
/m21 {mb f} def /m25 {mb s} def /m22 {mt f} def /m26{mt s} def
/m23 {mp x y w2 sub m w2 w d w neg 0 d cl f} def
/m27 {mp x y w2 add m w3 neg w2 neg d w3 w2 neg d w3 w2 d cl s} def
/m28 {mp x w2 sub y w2 sub w3 add m w3 0 d  0 w3 neg d w3 0 d 0 w3 d w3 0 d  0 w3 d w3 neg 0 d 0 w3 d w3 neg 0 d 0 w3 neg d w3 neg 0 d cl s } def
/m29 {mp gsave x w2 sub y w2 add w3 sub m currentpoint t 4 {side} repeat cl fill gr} def
/m30 {mp gsave x w2 sub y w2 add w3 sub m currentpoint t 4 {side} repeat cl s gr} def
/m31 {mp x y w2 sub m 0 w d x w2 sub y m w 0 d x w2 sub y w2 add m w w neg d x w2 sub y w2 sub m w w d s} def
/m32 {mp x y w2 sub m w2 w d w neg 0 d cl s} def
/m33 {mp x y w2 add m w3 neg w2 neg d w3 w2 neg d w3 w2 d cl f} def
/m34 {mp x w2 sub y w2 sub w3 add m w3 0 d  0 w3 neg d w3 0 d 0 w3 d w3 0 d  0 w3 d w3 neg 0 d 0 w3 d w3 neg 0 d 0 w3 neg d w3 neg 0 d cl f } def
/m2 {mp x y w2 sub m 0 w d x w2 sub y m w 0 d s} def
/m5 {mp x w2 sub y w2 sub m w w d x w2 sub y w2 add m w w neg d s} def
/reEncode {exch findfont dup length dict begin {1 index /FID eq  {pop pop} {def} ifelse } forall /Encoding exch def currentdict end dup /FontName get exch definefont pop } def [/Times-Bold /Times-Italic /Times-BoldItalic /Helvetica /Helvetica-Oblique
 /Helvetica-Bold /Helvetica-BoldOblique /Courier /Courier-Oblique /Courier-Bold /Courier-BoldOblique /Times-Roman /AvantGarde-Book /AvantGarde-BookOblique /AvantGarde-Demi /AvantGarde-DemiOblique /Bookman-Demi /Bookman-DemiItalic /Bookman-Light
 /Bookman-LightItalic /Helvetica-Narrow /Helvetica-Narrow-Bold /Helvetica-Narrow-BoldOblique /Helvetica-Narrow-Oblique /NewCenturySchlbk-Roman /NewCenturySchlbk-Bold /NewCenturySchlbk-BoldItalic /NewCenturySchlbk-Italic /Palatino-Bold
 /Palatino-BoldItalic /Palatino-Italic /Palatino-Roman ] {ISOLatin1Encoding reEncode } forall
%%EndProlog
%%BeginSetup
%%EndSetup
newpath  gsave  .25 .25 scale  gsave  0 0 t black[  ] 0 sd 3 lw 1 1 1 c 2268 1538 0 0 bf black 1 1 1 c 2222 738 23 784 bf black 1 1 1 c 2222 739 23 15 bf black 1 1 1 c 2268 1077 0 461 bf black 1 1 1 c 1791 850 363 634 bf black 1791 850 363 634 bl 363
 634 m 1791 X s
 gsave  2268 1077 0 461 C 1642.14 498.507 t 0 r /Helvetica findfont 48.9324 sf 0 0 m (4l Invariant Mass \(GeV\)) show NC gr  363 659 m -25 Y s 408 646 m -12 Y s 452 646 m -12 Y s 497 646 m -12 Y s 542 646 m -12 Y s 587 659 m -25 Y s 632 646 m -12 Y s
 676 646 m -12 Y s 721 646 m -12 Y s 766 646 m -12 Y s 811 659 m -25 Y s 855 646 m -12 Y s 900 646 m -12 Y s 945 646 m -12 Y s 990 646 m -12 Y s 1035 659 m -25 Y s 1079 646 m -12 Y s 1124 646 m -12 Y s 1169 646 m -12 Y s 1214 646 m -12 Y s 1259 659 m
 -25 Y s 1303 646 m -12 Y s 1348 646 m -12 Y s 1393 646 m -12 Y s 1438 646 m -12 Y s 1483 659 m -25 Y s 1527 646 m -12 Y s 1572 646 m -12 Y s 1617 646 m -12 Y s 1662 646 m -12 Y s 1706 659 m -25 Y s 1751 646 m -12 Y s 1796 646 m -12 Y s 1841 646 m
 -12 Y s 1886 646 m -12 Y s 1930 659 m -25 Y s 1975 646 m -12 Y s 2020 646 m -12 Y s 2065 646 m -12 Y s 2110 646 m -12 Y s 2154 659 m -25 Y s
 gsave  2268 1077 0 461 C 319.305 586.478 t 0 r /Helvetica findfont 48.9324 sf 0 0 m (140) show NC gr 
 gsave  2268 1077 0 461 C 544.122 586.478 t 0 r /Helvetica findfont 48.9324 sf 0 0 m (150) show NC gr 
 gsave  2268 1077 0 461 C 765.68 586.478 t 0 r /Helvetica findfont 48.9324 sf 0 0 m (160) show NC gr 
 gsave  2268 1077 0 461 C 990.497 586.478 t 0 r /Helvetica findfont 48.9324 sf 0 0 m (170) show NC gr 
 gsave  2268 1077 0 461 C 1215.31 586.478 t 0 r /Helvetica findfont 48.9324 sf 0 0 m (180) show NC gr 
 gsave  2268 1077 0 461 C 1440.13 586.478 t 0 r /Helvetica findfont 48.9324 sf 0 0 m (190) show NC gr 
 gsave  2268 1077 0 461 C 1661.69 586.478 t 0 r /Helvetica findfont 48.9324 sf 0 0 m (200) show NC gr 
 gsave  2268 1077 0 461 C 1886.51 586.478 t 0 r /Helvetica findfont 48.9324 sf 0 0 m (210) show NC gr 
 gsave  2268 1077 0 461 C 2111.32 586.478 t 0 r /Helvetica findfont 48.9324 sf 0 0 m (220) show NC gr  363 1484 m 1791 X s 363 1459 m 25 Y s 408 1471 m 13 Y s 452 1471 m 13 Y s 497 1471 m 13 Y s 542 1471 m 13 Y s 587 1459 m 25 Y s 632 1471 m 13 Y s
 676 1471 m 13 Y s 721 1471 m 13 Y s 766 1471 m 13 Y s 811 1459 m 25 Y s 855 1471 m 13 Y s 900 1471 m 13 Y s 945 1471 m 13 Y s 990 1471 m 13 Y s 1035 1459 m 25 Y s 1079 1471 m 13 Y s 1124 1471 m 13 Y s 1169 1471 m 13 Y s 1214 1471 m 13 Y s 1259 1459
 m 25 Y s 1303 1471 m 13 Y s 1348 1471 m 13 Y s 1393 1471 m 13 Y s 1438 1471 m 13 Y s 1483 1459 m 25 Y s 1527 1471 m 13 Y s 1572 1471 m 13 Y s 1617 1471 m 13 Y s 1662 1471 m 13 Y s 1706 1459 m 25 Y s 1751 1471 m 13 Y s 1796 1471 m 13 Y s 1841 1471 m
 13 Y s 1886 1471 m 13 Y s 1930 1459 m 25 Y s 1975 1471 m 13 Y s 2020 1471 m 13 Y s 2065 1471 m 13 Y s 2110 1471 m 13 Y s 2154 1459 m 25 Y s 363 634 m 850 Y s
 gsave  2268 1077 0 461 C 120.554 1058.92 t 90 r /Helvetica findfont 48.9324 sf 0 0 m (Events / \( 1.6 GeV \)) show NC gr  417 634 m -54 X s
 gsave  2268 1077 0 461 C 312.788 632.093 t 0 r /Helvetica findfont 32.6216 sf 0 0 m (\2552) show NC gr 
 gsave  2268 1077 0 461 C 260.657 612.544 t 0 r /Helvetica findfont 48.9324 sf 0 0 m (10) show NC gr  390 682 m -27 X s 390 710 m -27 X s 390 730 m -27 X s 390 746 m -27 X s 390 759 m -27 X s 390 769 m -27 X s 390 779 m -27 X s 390 787 m -27 X s 417
 794 m -54 X s
 gsave  2268 1077 0 461 C 319.305 791.746 t 0 r /Helvetica findfont 32.6216 sf 0 0 m (\2551) show NC gr 
 gsave  2268 1077 0 461 C 267.173 772.197 t 0 r /Helvetica findfont 48.9324 sf 0 0 m (10) show NC gr  390 843 m -27 X s 390 871 m -27 X s 390 891 m -27 X s 390 907 m -27 X s 390 919 m -27 X s 390 930 m -27 X s 390 940 m -27 X s 390 948 m -27 X s 417
 955 m -54 X s
 gsave  2268 1077 0 461 C 342.425 934.3 t 0 r  -27 0 t /Helvetica findfont 48.9324 sf 0 0 m (1) show NC gr  390 1004 m -27 X s 390 1032 m -27 X s 390 1052 m -27 X s 390 1068 m -27 X s 390 1080 m -27 X s 390 1091 m -27 X s 390 1100 m -27 X s 390 1109
 m -27 X s 417 1116 m -54 X s
 gsave  2268 1077 0 461 C 342.425 1095.07 t 0 r  -55 0 t /Helvetica findfont 48.9324 sf 0 0 m (10) show NC gr  390 1164 m -27 X s 390 1193 m -27 X s 390 1213 m -27 X s 390 1228 m -27 X s 390 1241 m -27 X s 390 1252 m -27 X s 390 1261 m -27 X s 390
 1269 m -27 X s 417 1277 m -54 X s
 gsave  2268 1077 0 461 C 322.563 1273.96 t 0 r /Helvetica findfont 32.6216 sf 0 0 m (2) show NC gr 
 gsave  2268 1077 0 461 C 270.432 1254.41 t 0 r /Helvetica findfont 48.9324 sf 0 0 m (10) show NC gr  390 1325 m -27 X s 390 1353 m -27 X s 390 1373 m -27 X s 390 1389 m -27 X s 390 1402 m -27 X s 390 1413 m -27 X s 390 1422 m -27 X s 390 1430 m -27
 X s 417 1437 m -54 X s
 gsave  2268 1077 0 461 C 322.563 1440.13 t 0 r /Helvetica findfont 32.6216 sf 0 0 m (3) show NC gr 
 gsave  2268 1077 0 461 C 270.432 1417.32 t 0 r /Helvetica findfont 48.9324 sf 0 0 m (10) show NC gr  2154 634 m 850 Y s 2101 634 m 53 X s 2127 682 m 27 X s 2127 710 m 27 X s 2127 730 m 27 X s 2127 746 m 27 X s 2127 759 m 27 X s 2127 769 m 27 X s
 2127 779 m 27 X s 2127 787 m 27 X s 2101 794 m 53 X s 2127 843 m 27 X s 2127 871 m 27 X s 2127 891 m 27 X s 2127 907 m 27 X s 2127 919 m 27 X s 2127 930 m 27 X s 2127 940 m 27 X s 2127 948 m 27 X s 2101 955 m 53 X s 2127 1004 m 27 X s 2127 1032 m 27
 X s 2127 1052 m 27 X s 2127 1068 m 27 X s 2127 1080 m 27 X s 2127 1091 m 27 X s 2127 1100 m 27 X s 2127 1109 m 27 X s 2101 1116 m 53 X s 2127 1164 m 27 X s 2127 1193 m 27 X s 2127 1213 m 27 X s 2127 1228 m 27 X s 2127 1241 m 27 X s 2127 1252 m 27 X
 s 2127 1261 m 27 X s 2127 1269 m 27 X s 2101 1277 m 53 X s 2127 1325 m 27 X s 2127 1353 m 27 X s 2127 1373 m 27 X s 2127 1389 m 27 X s 2127 1402 m 27 X s 2127 1413 m 27 X s 2127 1422 m 27 X s 2127 1430 m 27 X s 2101 1437 m 53 X s 381 1032 m -18 X s
 363 1032 m cl s 381 1032 m 18 X s 399 1032 m cl s 381 1032 m 47 Y s 381 1079 m cl s 381 1032 m -55 Y s 381 977 m cl s 417 1068 m -18 X s 399 1068 m cl s 417 1068 m 17 X s 434 1068 m cl s 417 1068 m 36 Y s 417 1104 m cl s 417 1068 m -40 Y s 417 1028
 m cl s 452 1091 m -18 X s 434 1091 m cl s 452 1091 m 18 X s 470 1091 m cl s 452 1091 m 30 Y s 452 1121 m cl s 452 1091 m -32 Y s 452 1059 m cl s 488 1068 m -18 X s 470 1068 m cl s 488 1068 m 18 X s 506 1068 m cl s 488 1068 m 36 Y s 488 1104 m cl s
 488 1068 m -40 Y s 488 1028 m cl s 524 1068 m -18 X s 506 1068 m cl s 524 1068 m 18 X s 542 1068 m cl s 524 1068 m 36 Y s 524 1104 m cl s 524 1068 m -40 Y s 524 1028 m cl s 560 1091 m -18 X s 542 1091 m cl s 560 1091 m 18 X s 578 1091 m cl s 560
 1091 m 30 Y s 560 1121 m cl s 560 1091 m -32 Y s 560 1059 m cl s 596 1123 m -18 X s 578 1123 m cl s 596 1123 m 18 X s 614 1123 m cl s 596 1123 m 23 Y s 596 1146 m cl s 596 1123 m -25 Y s 596 1098 m cl s 632 1080 m -18 X s 614 1080 m cl s 632 1080 m
 17 X s 649 1080 m cl s 632 1080 m 33 Y s 632 1113 m cl s 632 1080 m -35 Y s 632 1045 m cl s 667 1134 m -18 X s 649 1134 m cl s 667 1134 m 18 X s 685 1134 m cl s 667 1134 m 22 Y s 667 1156 m cl s 667 1134 m -22 Y s 667 1112 m cl s 703 1052 m -18 X s
 685 1052 m cl s 703 1052 m 18 X s 721 1052 m cl s 703 1052 m 41 Y s 703 1093 m cl s 703 1052 m -46 Y s 703 1006 m cl s 739 1149 m -18 X s 721 1149 m cl s 739 1149 m 18 X s 757 1149 m cl s 739 1149 m 19 Y s 739 1168 m cl s 739 1149 m -20 Y s 739 1129
 m cl s 775 1091 m -18 X s 757 1091 m cl s 775 1091 m 18 X s 793 1091 m cl s 775 1091 m 30 Y s 775 1121 m cl s 775 1091 m -32 Y s 775 1059 m cl s 811 1100 m -18 X s 793 1100 m cl s 811 1100 m 18 X s 829 1100 m cl s 811 1100 m 28 Y s 811 1128 m cl s
 811 1100 m -29 Y s 811 1071 m cl s 847 1100 m -18 X s 829 1100 m cl s 847 1100 m 17 X s 864 1100 m cl s 847 1100 m 28 Y s 847 1128 m cl s 847 1100 m -29 Y s 847 1071 m cl s 882 1139 m -18 X s 864 1139 m cl s 882 1139 m 18 X s 900 1139 m cl s 882
 1139 m 21 Y s 882 1160 m cl s 882 1139 m -21 Y s 882 1118 m cl s 918 1161 m -18 X s 900 1161 m cl s 918 1161 m 18 X s 936 1161 m cl s 918 1161 m 17 Y s 918 1178 m cl s 918 1161 m -18 Y s 918 1143 m cl s 954 1149 m -18 X s 936 1149 m cl s 954 1149 m
 18 X s 972 1149 m cl s 954 1149 m 19 Y s 954 1168 m cl s 954 1149 m -20 Y s 954 1129 m cl s 990 1139 m -18 X s 972 1139 m cl s 990 1139 m 18 X s 1008 1139 m cl s 990 1139 m 21 Y s 990 1160 m cl s 990 1139 m -21 Y s 990 1118 m cl s 1026 1116 m -18 X
 s 1008 1116 m cl s 1026 1116 m 18 X s 1044 1116 m cl s 1026 1116 m 25 Y s 1026 1141 m cl s 1026 1116 m -26 Y s 1026 1090 m cl s 1062 1116 m -18 X s 1044 1116 m cl s 1062 1116 m 17 X s 1079 1116 m cl s 1062 1116 m 25 Y s 1062 1141 m cl s 1062 1116 m
 -26 Y s 1062 1090 m cl s 1097 1149 m -18 X s 1079 1149 m cl s 1097 1149 m 18 X s 1115 1149 m cl s 1097 1149 m 19 Y s 1097 1168 m cl s 1097 1149 m -20 Y s 1097 1129 m cl s 1133 1197 m -18 X s 1115 1197 m cl s 1133 1197 m 18 X s 1151 1197 m cl s 1133
 1197 m 13 Y s 1133 1210 m cl s 1133 1197 m -13 Y s 1133 1184 m cl s 1169 1190 m -18 X s 1151 1190 m cl s 1169 1190 m 18 X s 1187 1190 m cl s 1169 1190 m 14 Y s 1169 1204 m cl s 1169 1190 m -14 Y s 1169 1176 m cl s 1205 1195 m -18 X s 1187 1195 m cl
 s 1205 1195 m 18 X s 1223 1195 m cl s 1205 1195 m 13 Y s 1205 1208 m cl s 1205 1195 m -14 Y s 1205 1181 m cl s 1241 1199 m -18 X s 1223 1199 m cl s 1241 1199 m 18 X s 1259 1199 m cl s 1241 1199 m 13 Y s 1241 1212 m cl s 1241 1199 m -13 Y s 1241 1186
 m cl s 1276 1213 m -17 X s 1259 1213 m cl s 1276 1213 m 18 X s 1294 1213 m cl s 1276 1213 m 12 Y s 1276 1225 m cl s 1276 1213 m -12 Y s 1276 1201 m cl s 1312 1216 m -18 X s 1294 1216 m cl s 1312 1216 m 18 X s 1330 1216 m cl s 1312 1216 m 12 Y s 1312
 1228 m cl s 1312 1216 m -12 Y s 1312 1204 m cl s 1348 1241 m -18 X s 1330 1241 m cl s 1348 1241 m 18 X s 1366 1241 m cl s 1348 1241 m 10 Y s 1348 1251 m cl s 1348 1241 m -10 Y s 1348 1231 m cl s 1384 1242 m -18 X s 1366 1242 m cl s 1384 1242 m 18 X
 s 1402 1242 m cl s 1384 1242 m 10 Y s 1384 1252 m cl s 1384 1242 m -9 Y s 1384 1233 m cl s 1420 1248 m -18 X s 1402 1248 m cl s 1420 1248 m 18 X s 1438 1248 m cl s 1420 1248 m 9 Y s 1420 1257 m cl s 1420 1248 m -9 Y s 1420 1239 m cl s 1456 1275 m
 -18 X s 1438 1275 m cl s 1456 1275 m 18 X s 1474 1275 m cl s 1456 1275 m 7 Y s 1456 1282 m cl s 1456 1275 m -8 Y s 1456 1267 m cl s 1491 1301 m -17 X s 1474 1301 m cl s 1491 1301 m 18 X s 1509 1301 m cl s 1491 1301 m 6 Y s 1491 1307 m cl s 1491 1301
 m -6 Y s 1491 1295 m cl s 1527 1324 m -18 X s 1509 1324 m cl s 1527 1324 m 18 X s 1545 1324 m cl s 1527 1324 m 5 Y s 1527 1329 m cl s 1527 1324 m -5 Y s 1527 1319 m cl s 1563 1358 m -18 X s 1545 1358 m cl s 1563 1358 m 18 X s 1581 1358 m cl s 1563
 1358 m 4 Y s 1563 1362 m cl s 1563 1358 m -4 Y s 1563 1354 m cl s 1599 1403 m -18 X s 1581 1403 m cl s 1599 1403 m 18 X s 1617 1403 m cl s 1599 1403 m 2 Y s 1599 1405 m cl s 1599 1403 m -3 Y s 1599 1400 m cl s 1635 1427 m -18 X s 1617 1427 m cl s
 1635 1427 m 18 X s 1653 1427 m cl s 1635 1427 m 2 Y s 1635 1429 m cl s 1635 1427 m -3 Y s 1635 1424 m cl s 1671 1449 m -18 X s 1653 1449 m cl s 1671 1449 m 18 X s 1689 1449 m cl s 1671 1449 m 2 Y s 1671 1451 m cl s 1671 1449 m -2 Y s 1671 1447 m cl
 s 1706 1450 m -17 X s 1689 1450 m cl s 1706 1450 m 18 X s 1724 1450 m cl s 1706 1450 m 2 Y s 1706 1452 m cl s 1706 1450 m -2 Y s 1706 1448 m cl s 1742 1425 m -18 X s 1724 1425 m cl s 1742 1425 m 18 X s 1760 1425 m cl s 1742 1425 m 3 Y s 1742 1428 m
 cl s 1742 1425 m -2 Y s 1742 1423 m cl s 1778 1385 m -18 X s 1760 1385 m cl s 1778 1385 m 18 X s 1796 1385 m cl s 1778 1385 m 3 Y s 1778 1388 m cl s 1778 1385 m -3 Y s 1778 1382 m cl s 1814 1344 m -18 X s 1796 1344 m cl s 1814 1344 m 18 X s 1832
 1344 m cl s 1814 1344 m 4 Y s 1814 1348 m cl s 1814 1344 m -5 Y s 1814 1339 m cl s 1850 1260 m -18 X s 1832 1260 m cl s 1850 1260 m 18 X s 1868 1260 m cl s 1850 1260 m 9 Y s 1850 1269 m cl s 1850 1260 m -8 Y s 1850 1252 m cl s 1886 1213 m -18 X s
 1868 1213 m cl s 1886 1213 m 18 X s 1904 1213 m cl s 1886 1213 m 12 Y s 1886 1225 m cl s 1886 1213 m -12 Y s 1886 1201 m cl s 1921 1149 m -17 X s 1904 1149 m cl s 1921 1149 m 18 X s 1939 1149 m cl s 1921 1149 m 19 Y s 1921 1168 m cl s 1921 1149 m
 -20 Y s 1921 1129 m cl s 1957 1080 m -18 X s 1939 1080 m cl s 1957 1080 m 18 X s 1975 1080 m cl s 1957 1080 m 33 Y s 1957 1113 m cl s 1957 1080 m -35 Y s 1957 1045 m cl s 1993 1052 m -18 X s 1975 1052 m cl s 1993 1052 m 18 X s 2011 1052 m cl s 1993
 1052 m 41 Y s 1993 1093 m cl s 1993 1052 m -46 Y s 1993 1006 m cl s 2029 634 m -18 X s 2011 634 m cl s 2029 634 m 18 X s 2047 634 m cl s 2029 634 m 331 Y s 2029 965 m cl s 2065 1004 m -18 X s 2047 1004 m cl s 2065 1004 m 18 X s 2083 1004 m cl s 2065
 1004 m 58 Y s 2065 1062 m cl s 2065 1004 m -73 Y s 2065 931 m cl s 2101 634 m -18 X s 2083 634 m cl s 2101 634 m 18 X s 2119 634 m cl s 2101 634 m 331 Y s 2101 965 m cl s 2136 955 m -17 X s 2119 955 m cl s 2136 955 m 18 X s 2154 955 m cl s 2136 955
 m 84 Y s 2136 1039 m cl s 2136 955 m -122 Y s 2136 833 m cl s /w 31 def /w2 {w 2 div} def /w3 {w 3 div} def 381 1032 417 1068 452 1091 488 1068 524 1068 560 1091 596 1123 632 1080 667 1134 703 1052 739 1149 775 1091 811 1100 847 1100 882 1139 918
 1161 954 1149 990 1139 1026 1116 1062 1116 1097 1149 1133 1197 1169 1190 1205 1195 1241 1199 1276 1213 1312 1216 1348 1241 1384 1242 1420 1248 1456 1275 1491 1301 1527 1324 1563 1358 1599 1403 1635 1427 1671 1449 1706 1450 1742 1425 1778 1385 1814
 1344 1850 1260 1886 1213 1921 1149 1957 1080 1993 1052 46 { m20} R 2065 1004 m20 2136 955 m20 0 1 1 c 1 1 0 c black 1 1 0 c 363 1046 m 36 6 d 35 6 d 36 6 d 36 7 d 36 6 d 36 6 d 36 7 d 35 6 d 36 7 d 36 6 d 36 7 d 36 7 d 36 7 d 35 7 d 36 7 d 36 7 d 36
 7 d 36 7 d 36 7 d 35 8 d 36 8 d 36 7 d 36 8 d 36 9 d 36 8 d 35 9 d 36 9 d 36 9 d 36 9 d 36 10 d 18 6 d 18 7 d 17 9 d 9 6 d 9 7 d 9 9 d 9 9 d 9 10 d 9 11 d 9 11 d 9 12 d 9 11 d 9 11 d 9 10 d 9 9 d 9 9 d 9 8 d 9 8 d 9 6 d 9 6 d 4 2 d 5 2 d 4 2 d 5 1 d
 4 2 d 5 1 d 4 X 5 1 d 9 X 4 -1 d 4 -1 d 5 -1 d 4 -1 d 5 -2 d 4 -2 d 5 -2 d 4 -2 d 9 -6 d 9 -7 d 18 -16 d 9 -10 d 9 -10 d 9 -11 d 9 -13 d 9 -13 d 9 -13 d 9 -15 d 9 -14 d 9 -16 d 9 -15 d 9 -15 d 9 -16 d 9 -15 d 9 -14 d 18 -28 d 17 -28 d 18 -27 d 36
 -57 d 36 -63 d 36 -70 d 36 -77 d 36 -84 d 35 -91 d -62 Y -63 X -8 51 d -36 144 d -36 104 d -36 87 d -36 76 d -18 36 d -17 35 d -18 35 d -9 17 d -9 17 d -9 16 d -9 17 d -9 16 d -9 16 d -9 15 d -9 15 d -9 14 d -9 14 d -9 13 d -9 13 d -9 11 d -9 10 d
 -18 17 d -9 7 d -9 6 d -4 3 d -5 2 d -4 2 d -5 1 d -4 2 d -5 1 d -4 X -4 1 d -14 X -4 -1 d -5 -1 d -4 -1 d -5 -2 d -4 -1 d -5 -3 d -4 -2 d -9 -6 d -9 -7 d -9 -7 d -9 -9 d -9 -10 d -9 -10 d -9 -11 d -9 -12 d -9 -11 d -9 -12 d -9 -11 d -9 -11 d -9 -10
 d -9 -9 d -9 -9 d -9 -8 d -9 -6 d -17 -11 d -18 -9 d -18 -6 d -36 -9 d -36 -8 d -36 -9 d -36 -8 d -35 -8 d -36 -8 d -36 -8 d -36 -9 d -36 -8 d -36 -8 d -35 -9 d -36 -8 d -36 -8 d -36 -9 d -36 -8 d -36 -8 d -35 -8 d -36 -8 d -36 -7 d -36 -8 d -36 -8
 d -36 -8 d -35 -7 d -36 -8 d -36 -7 d -36 -7 d -36 -8 d -36 -7 d -35 -7 d -36 -7 d f 0 1 1 c 0 1 0 c black 0 1 0 c 363 1039 m 36 6 d 35 7 d 36 6 d 36 7 d 36 6 d 36 7 d 36 6 d 35 7 d 36 7 d 36 7 d 36 7 d 36 6 d 36 8 d 35 7 d 36 7 d 36 7 d 36 8 d 36 7
 d 36 8 d 35 7 d 36 8 d 36 8 d 36 8 d 36 8 d 36 9 d 35 8 d 36 9 d 36 9 d 36 9 d 36 10 d 18 6 d 18 7 d 17 10 d 9 6 d 9 7 d 9 9 d 9 9 d 9 10 d 9 11 d 9 11 d 9 12 d 9 11 d 9 11 d 9 10 d 9 10 d 9 9 d 9 8 d 9 8 d 9 6 d 9 6 d 4 2 d 5 2 d 4 2 d 5 1 d 4 2 d
 5 1 d 4 X 5 1 d 9 X 4 -1 d 4 -1 d 5 -1 d 4 -1 d 5 -1 d 4 -2 d 5 -3 d 4 -2 d 9 -6 d 9 -7 d 18 -16 d 9 -10 d 9 -11 d 9 -11 d 9 -13 d 9 -13 d 9 -14 d 9 -14 d 9 -15 d 9 -15 d 9 -16 d 9 -15 d 9 -16 d 9 -15 d 9 -15 d 18 -30 d 17 -29 d 18 -28 d 36 -60 d 36
 -66 d 36 -72 d 36 -80 d 36 -87 d 35 -95 d -36 Y -19 X -16 52 d -36 103 d -36 93 d -36 84 d -36 75 d -36 68 d -18 33 d -17 33 d -18 32 d -9 17 d -9 16 d -9 16 d -9 16 d -9 16 d -9 16 d -9 15 d -9 15 d -9 14 d -9 13 d -9 13 d -9 12 d -9 11 d -9 10 d
 -18 18 d -9 6 d -9 6 d -4 3 d -5 2 d -4 2 d -5 1 d -4 2 d -5 1 d -4 X -4 1 d -14 X -4 -1 d -5 -1 d -4 -1 d -5 -2 d -4 -2 d -5 -2 d -4 -2 d -9 -6 d -9 -6 d -9 -8 d -9 -9 d -9 -9 d -9 -10 d -9 -11 d -9 -12 d -9 -11 d -9 -11 d -9 -12 d -9 -11 d -9 -10
 d -9 -9 d -9 -8 d -9 -8 d -9 -7 d -17 -10 d -18 -8 d -18 -6 d -36 -10 d -36 -8 d -36 -9 d -36 -8 d -35 -8 d -36 -9 d -36 -8 d -36 -8 d -36 -8 d -36 -8 d -35 -9 d -36 -8 d -36 -8 d -36 -7 d -36 -8 d -36 -8 d -35 -8 d -36 -7 d -36 -8 d -36 -7 d -36 -7
 d -36 -8 d -35 -7 d -36 -7 d -36 -7 d -36 -7 d -36 -7 d -36 -7 d -35 -7 d -36 -7 d f 0 0 1 c 9 lw black 0 0 1 c 363 1032 m 36 6 d 35 7 d 36 6 d 36 7 d 36 7 d 36 7 d 36 6 d 35 7 d 36 7 d 36 7 d 36 8 d 36 7 d 36 7 d 35 7 d 36 8 d 36 7 d 36 8 d 36 8 d
 36 8 d 35 7 d 36 8 d 36 8 d 36 9 d 36 8 d 36 8 d 35 9 d 36 8 d 36 9 d 36 9 d 36 10 d 18 5 d 18 8 d 17 10 d 9 7 d 9 7 d 9 8 d 9 10 d 9 10 d 9 11 d 9 11 d 9 11 d 9 12 d 9 11 d 9 10 d 9 10 d 9 10 d 9 8 d 9 8 d 9 6 d 9 6 d 4 2 d 5 2 d 4 2 d 5 2 d 4 1 d
 5 1 d 4 X 5 1 d 9 X 4 -1 d 4 X 5 -1 d 4 -2 d 5 -1 d 4 -2 d 5 -2 d 4 -3 d 9 -6 d 9 -7 d 18 -16 d 9 -10 d 9 -11 d 9 -12 d 9 -13 d 9 -13 d 9 -14 d 9 -15 d 9 -15 d 9 -15 d 9 -16 d 9 -16 d 9 -15 d 9 -16 d 9 -16 d 18 -31 d 17 -30 d 18 -31 d 36 -63 d 36
 -69 d 36 -76 d 36 -84 d 36 -92 d 35 -100 d s black 3 lw 381 1032 m -18 X s 363 1032 m cl s 381 1032 m 18 X s 399 1032 m cl s 381 1032 m 47 Y s 381 1079 m cl s 381 1032 m -55 Y s 381 977 m cl s 417 1068 m -18 X s 399 1068 m cl s 417 1068 m 17 X s 434
 1068 m cl s 417 1068 m 36 Y s 417 1104 m cl s 417 1068 m -40 Y s 417 1028 m cl s 452 1091 m -18 X s 434 1091 m cl s 452 1091 m 18 X s 470 1091 m cl s 452 1091 m 30 Y s 452 1121 m cl s 452 1091 m -32 Y s 452 1059 m cl s 488 1068 m -18 X s 470 1068 m
 cl s 488 1068 m 18 X s 506 1068 m cl s 488 1068 m 36 Y s 488 1104 m cl s 488 1068 m -40 Y s 488 1028 m cl s 524 1068 m -18 X s 506 1068 m cl s 524 1068 m 18 X s 542 1068 m cl s 524 1068 m 36 Y s 524 1104 m cl s 524 1068 m -40 Y s 524 1028 m cl s 560
 1091 m -18 X s 542 1091 m cl s 560 1091 m 18 X s 578 1091 m cl s 560 1091 m 30 Y s 560 1121 m cl s 560 1091 m -32 Y s 560 1059 m cl s 596 1123 m -18 X s 578 1123 m cl s 596 1123 m 18 X s 614 1123 m cl s 596 1123 m 23 Y s 596 1146 m cl s 596 1123 m
 -25 Y s 596 1098 m cl s 632 1080 m -18 X s 614 1080 m cl s 632 1080 m 17 X s 649 1080 m cl s 632 1080 m 33 Y s 632 1113 m cl s 632 1080 m -35 Y s 632 1045 m cl s 667 1134 m -18 X s 649 1134 m cl s 667 1134 m 18 X s 685 1134 m cl s 667 1134 m 22 Y s
 667 1156 m cl s 667 1134 m -22 Y s 667 1112 m cl s 703 1052 m -18 X s 685 1052 m cl s 703 1052 m 18 X s 721 1052 m cl s 703 1052 m 41 Y s 703 1093 m cl s 703 1052 m -46 Y s 703 1006 m cl s 739 1149 m -18 X s 721 1149 m cl s 739 1149 m 18 X s 757
 1149 m cl s 739 1149 m 19 Y s 739 1168 m cl s 739 1149 m -20 Y s 739 1129 m cl s 775 1091 m -18 X s 757 1091 m cl s 775 1091 m 18 X s 793 1091 m cl s 775 1091 m 30 Y s 775 1121 m cl s 775 1091 m -32 Y s 775 1059 m cl s 811 1100 m -18 X s 793 1100 m
 cl s 811 1100 m 18 X s 829 1100 m cl s 811 1100 m 28 Y s 811 1128 m cl s 811 1100 m -29 Y s 811 1071 m cl s 847 1100 m -18 X s 829 1100 m cl s 847 1100 m 17 X s 864 1100 m cl s 847 1100 m 28 Y s 847 1128 m cl s 847 1100 m -29 Y s 847 1071 m cl s 882
 1139 m -18 X s 864 1139 m cl s 882 1139 m 18 X s 900 1139 m cl s 882 1139 m 21 Y s 882 1160 m cl s 882 1139 m -21 Y s 882 1118 m cl s 918 1161 m -18 X s 900 1161 m cl s 918 1161 m 18 X s 936 1161 m cl s 918 1161 m 17 Y s 918 1178 m cl s 918 1161 m
 -18 Y s 918 1143 m cl s 954 1149 m -18 X s 936 1149 m cl s 954 1149 m 18 X s 972 1149 m cl s 954 1149 m 19 Y s 954 1168 m cl s 954 1149 m -20 Y s 954 1129 m cl s 990 1139 m -18 X s 972 1139 m cl s 990 1139 m 18 X s 1008 1139 m cl s 990 1139 m 21 Y s
 990 1160 m cl s 990 1139 m -21 Y s 990 1118 m cl s 1026 1116 m -18 X s 1008 1116 m cl s 1026 1116 m 18 X s 1044 1116 m cl s 1026 1116 m 25 Y s 1026 1141 m cl s 1026 1116 m -26 Y s 1026 1090 m cl s 1062 1116 m -18 X s 1044 1116 m cl s 1062 1116 m 17
 X s 1079 1116 m cl s 1062 1116 m 25 Y s 1062 1141 m cl s 1062 1116 m -26 Y s 1062 1090 m cl s 1097 1149 m -18 X s 1079 1149 m cl s 1097 1149 m 18 X s 1115 1149 m cl s 1097 1149 m 19 Y s 1097 1168 m cl s 1097 1149 m -20 Y s 1097 1129 m cl s 1133 1197
 m -18 X s 1115 1197 m cl s 1133 1197 m 18 X s 1151 1197 m cl s 1133 1197 m 13 Y s 1133 1210 m cl s 1133 1197 m -13 Y s 1133 1184 m cl s 1169 1190 m -18 X s 1151 1190 m cl s 1169 1190 m 18 X s 1187 1190 m cl s 1169 1190 m 14 Y s 1169 1204 m cl s 1169
 1190 m -14 Y s 1169 1176 m cl s 1205 1195 m -18 X s 1187 1195 m cl s 1205 1195 m 18 X s 1223 1195 m cl s 1205 1195 m 13 Y s 1205 1208 m cl s 1205 1195 m -14 Y s 1205 1181 m cl s 1241 1199 m -18 X s 1223 1199 m cl s 1241 1199 m 18 X s 1259 1199 m cl
 s 1241 1199 m 13 Y s 1241 1212 m cl s 1241 1199 m -13 Y s 1241 1186 m cl s 1276 1213 m -17 X s 1259 1213 m cl s 1276 1213 m 18 X s 1294 1213 m cl s 1276 1213 m 12 Y s 1276 1225 m cl s 1276 1213 m -12 Y s 1276 1201 m cl s 1312 1216 m -18 X s 1294
 1216 m cl s 1312 1216 m 18 X s 1330 1216 m cl s 1312 1216 m 12 Y s 1312 1228 m cl s 1312 1216 m -12 Y s 1312 1204 m cl s 1348 1241 m -18 X s 1330 1241 m cl s 1348 1241 m 18 X s 1366 1241 m cl s 1348 1241 m 10 Y s 1348 1251 m cl s 1348 1241 m -10 Y s
 1348 1231 m cl s 1384 1242 m -18 X s 1366 1242 m cl s 1384 1242 m 18 X s 1402 1242 m cl s 1384 1242 m 10 Y s 1384 1252 m cl s 1384 1242 m -9 Y s 1384 1233 m cl s 1420 1248 m -18 X s 1402 1248 m cl s 1420 1248 m 18 X s 1438 1248 m cl s 1420 1248 m 9
 Y s 1420 1257 m cl s 1420 1248 m -9 Y s 1420 1239 m cl s 1456 1275 m -18 X s 1438 1275 m cl s 1456 1275 m 18 X s 1474 1275 m cl s 1456 1275 m 7 Y s 1456 1282 m cl s 1456 1275 m -8 Y s 1456 1267 m cl s 1491 1301 m -17 X s 1474 1301 m cl s 1491 1301 m
 18 X s 1509 1301 m cl s 1491 1301 m 6 Y s 1491 1307 m cl s 1491 1301 m -6 Y s 1491 1295 m cl s 1527 1324 m -18 X s 1509 1324 m cl s 1527 1324 m 18 X s 1545 1324 m cl s 1527 1324 m 5 Y s 1527 1329 m cl s 1527 1324 m -5 Y s 1527 1319 m cl s 1563 1358
 m -18 X s 1545 1358 m cl s 1563 1358 m 18 X s 1581 1358 m cl s 1563 1358 m 4 Y s 1563 1362 m cl s 1563 1358 m -4 Y s 1563 1354 m cl s 1599 1403 m -18 X s 1581 1403 m cl s 1599 1403 m 18 X s 1617 1403 m cl s 1599 1403 m 2 Y s 1599 1405 m cl s 1599
 1403 m -3 Y s 1599 1400 m cl s 1635 1427 m -18 X s 1617 1427 m cl s 1635 1427 m 18 X s 1653 1427 m cl s 1635 1427 m 2 Y s 1635 1429 m cl s 1635 1427 m -3 Y s 1635 1424 m cl s 1671 1449 m -18 X s 1653 1449 m cl s 1671 1449 m 18 X s 1689 1449 m cl s
 1671 1449 m 2 Y s 1671 1451 m cl s 1671 1449 m -2 Y s 1671 1447 m cl s 1706 1450 m -17 X s 1689 1450 m cl s 1706 1450 m 18 X s 1724 1450 m cl s 1706 1450 m 2 Y s 1706 1452 m cl s 1706 1450 m -2 Y s 1706 1448 m cl s 1742 1425 m -18 X s 1724 1425 m cl
 s 1742 1425 m 18 X s 1760 1425 m cl s 1742 1425 m 3 Y s 1742 1428 m cl s 1742 1425 m -2 Y s 1742 1423 m cl s 1778 1385 m -18 X s 1760 1385 m cl s 1778 1385 m 18 X s 1796 1385 m cl s 1778 1385 m 3 Y s 1778 1388 m cl s 1778 1385 m -3 Y s 1778 1382 m
 cl s 1814 1344 m -18 X s 1796 1344 m cl s 1814 1344 m 18 X s 1832 1344 m cl s 1814 1344 m 4 Y s 1814 1348 m cl s 1814 1344 m -5 Y s 1814 1339 m cl s 1850 1260 m -18 X s 1832 1260 m cl s 1850 1260 m 18 X s 1868 1260 m cl s 1850 1260 m 9 Y s 1850 1269
 m cl s 1850 1260 m -8 Y s 1850 1252 m cl s 1886 1213 m -18 X s 1868 1213 m cl s 1886 1213 m 18 X s 1904 1213 m cl s 1886 1213 m 12 Y s 1886 1225 m cl s 1886 1213 m -12 Y s 1886 1201 m cl s 1921 1149 m -17 X s 1904 1149 m cl s 1921 1149 m 18 X s 1939
 1149 m cl s 1921 1149 m 19 Y s 1921 1168 m cl s 1921 1149 m -20 Y s 1921 1129 m cl s 1957 1080 m -18 X s 1939 1080 m cl s 1957 1080 m 18 X s 1975 1080 m cl s 1957 1080 m 33 Y s 1957 1113 m cl s 1957 1080 m -35 Y s 1957 1045 m cl s 1993 1052 m -18 X
 s 1975 1052 m cl s 1993 1052 m 18 X s 2011 1052 m cl s 1993 1052 m 41 Y s 1993 1093 m cl s 1993 1052 m -46 Y s 1993 1006 m cl s 2029 634 m -18 X s 2011 634 m cl s 2029 634 m 18 X s 2047 634 m cl s 2029 634 m 331 Y s 2029 965 m cl s 2065 1004 m -18 X
 s 2047 1004 m cl s 2065 1004 m 18 X s 2083 1004 m cl s 2065 1004 m 58 Y s 2065 1062 m cl s 2065 1004 m -73 Y s 2065 931 m cl s 2101 634 m -18 X s 2083 634 m cl s 2101 634 m 18 X s 2119 634 m cl s 2101 634 m 331 Y s 2101 965 m cl s 2136 955 m -17 X s
 2119 955 m cl s 2136 955 m 18 X s 2154 955 m cl s 2136 955 m 84 Y s 2136 1039 m cl s 2136 955 m -122 Y s 2136 833 m cl s 381 1032 417 1068 452 1091 488 1068 524 1068 560 1091 596 1123 632 1080 667 1134 703 1052 739 1149 775 1091 811 1100 847 1100
 882 1139 918 1161 954 1149 990 1139 1026 1116 1062 1116 1097 1149 1133 1197 1169 1190 1205 1195 1241 1199 1276 1213 1312 1216 1348 1241 1384 1242 1420 1248 1456 1275 1491 1301 1527 1324 1563 1358 1599 1403 1635 1427 1671 1449 1706 1450 1742 1425
 1778 1385 1814 1344 1850 1260 1886 1213 1921 1149 1957 1080 1993 1052 46 { m20} R 2065 1004 m20 2136 955 m20 0.52 0.76 0.64 c[ 4 8] 0 sd 9 lw black 0.52 0.76 0.64 c 363 1032 m 36 6 d 35 7 d 36 6 d 36 7 d 36 7 d 36 7 d 36 6 d 35 7 d 36 7 d 36 7 d 36
 8 d 36 7 d 36 7 d 35 7 d 36 8 d 36 7 d 36 8 d 36 8 d 36 8 d 35 7 d 36 8 d 36 8 d 36 9 d 36 8 d 36 8 d 35 9 d 36 8 d 36 9 d 36 9 d 36 8 d 18 5 d 18 4 d 17 5 d 18 5 d 18 4 d 18 5 d 18 4 d 18 5 d 18 5 d 18 5 d 18 4 d 9 3 d 9 2 d 9 1 d 9 1 d 9 1 d 9 X 8
 -1 d 9 -1 d 9 -2 d 9 -2 d 9 -2 d 9 -3 d 9 -3 d 9 -4 d 18 -10 d 18 -11 d 18 -14 d 9 -7 d 9 -8 d 9 -8 d 9 -9 d 9 -10 d 9 -10 d 9 -10 d 9 -11 d 9 -11 d 9 -12 d 8 -12 d 9 -13 d 9 -13 d 9 -14 d 18 -29 d 18 -32 d 18 -33 d 18 -35 d 36 -76 d 36 -83 d 36 -92
 d 35 -100 d s 0.54 0.66 0.63 c black 0.54 0.66 0.63 c 1363 634 m 3 14 d s 1366 648 m 36 168 d 36 149 d 18 66 d 18 62 d 17 56 d 9 27 d 9 25 d 9 24 d 9 22 d 9 22 d 9 20 d 9 19 d 9 17 d 5 8 d 4 8 d 9 15 d 9 14 d 9 13 d 9 11 d 9 10 d 9 9 d 9 7 d 4 3 d 5
 3 d 4 3 d 5 2 d 4 2 d 5 2 d 4 1 d 5 2 d 4 X 5 1 d 9 X 4 -1 d 4 -1 d 5 -1 d 4 -1 d 5 -2 d 4 -2 d 5 -3 d 4 -2 d 9 -7 d 9 -7 d 18 -19 d 9 -12 d 9 -13 d 9 -14 d 9 -15 d 5 -8 d 4 -8 d 9 -18 d 9 -19 d 9 -20 d 9 -22 d 9 -23 d 9 -24 d 9 -25 d 9 -26 d 9 -28
 d 18 -60 d 35 -134 d 36 -154 d 28 -136 d s black[  ] 0 sd 3 lw 363 634 m 1791 X s 363 659 m -25 Y s 408 646 m -12 Y s 452 646 m -12 Y s 497 646 m -12 Y s 542 646 m -12 Y s 587 659 m -25 Y s 632 646 m -12 Y s 676 646 m -12 Y s 721 646 m -12 Y s 766
 646 m -12 Y s 811 659 m -25 Y s 855 646 m -12 Y s 900 646 m -12 Y s 945 646 m -12 Y s 990 646 m -12 Y s 1035 659 m -25 Y s 1079 646 m -12 Y s 1124 646 m -12 Y s 1169 646 m -12 Y s 1214 646 m -12 Y s 1259 659 m -25 Y s 1303 646 m -12 Y s 1348 646 m
 -12 Y s 1393 646 m -12 Y s 1438 646 m -12 Y s 1483 659 m -25 Y s 1527 646 m -12 Y s 1572 646 m -12 Y s 1617 646 m -12 Y s 1662 646 m -12 Y s 1706 659 m -25 Y s 1751 646 m -12 Y s 1796 646 m -12 Y s 1841 646 m -12 Y s 1886 646 m -12 Y s 1930 659 m
 -25 Y s 1975 646 m -12 Y s 2020 646 m -12 Y s 2065 646 m -12 Y s 2110 646 m -12 Y s 2154 659 m -25 Y s 363 1484 m 1791 X s 363 1459 m 25 Y s 408 1471 m 13 Y s 452 1471 m 13 Y s 497 1471 m 13 Y s 542 1471 m 13 Y s 587 1459 m 25 Y s 632 1471 m 13 Y s
 676 1471 m 13 Y s 721 1471 m 13 Y s 766 1471 m 13 Y s 811 1459 m 25 Y s 855 1471 m 13 Y s 900 1471 m 13 Y s 945 1471 m 13 Y s 990 1471 m 13 Y s 1035 1459 m 25 Y s 1079 1471 m 13 Y s 1124 1471 m 13 Y s 1169 1471 m 13 Y s 1214 1471 m 13 Y s 1259 1459
 m 25 Y s 1303 1471 m 13 Y s 1348 1471 m 13 Y s 1393 1471 m 13 Y s 1438 1471 m 13 Y s 1483 1459 m 25 Y s 1527 1471 m 13 Y s 1572 1471 m 13 Y s 1617 1471 m 13 Y s 1662 1471 m 13 Y s 1706 1459 m 25 Y s 1751 1471 m 13 Y s 1796 1471 m 13 Y s 1841 1471 m
 13 Y s 1886 1471 m 13 Y s 1930 1459 m 25 Y s 1975 1471 m 13 Y s 2020 1471 m 13 Y s 2065 1471 m 13 Y s 2110 1471 m 13 Y s 2154 1459 m 25 Y s 363 634 m 850 Y s 417 634 m -54 X s 390 682 m -27 X s 390 710 m -27 X s 390 730 m -27 X s 390 746 m -27 X s
 390 759 m -27 X s 390 769 m -27 X s 390 779 m -27 X s 390 787 m -27 X s 417 794 m -54 X s 390 843 m -27 X s 390 871 m -27 X s 390 891 m -27 X s 390 907 m -27 X s 390 919 m -27 X s 390 930 m -27 X s 390 940 m -27 X s 390 948 m -27 X s 417 955 m -54 X
 s 390 1004 m -27 X s 390 1032 m -27 X s 390 1052 m -27 X s 390 1068 m -27 X s 390 1080 m -27 X s 390 1091 m -27 X s 390 1100 m -27 X s 390 1109 m -27 X s 417 1116 m -54 X s 390 1164 m -27 X s 390 1193 m -27 X s 390 1213 m -27 X s 390 1228 m -27 X s
 390 1241 m -27 X s 390 1252 m -27 X s 390 1261 m -27 X s 390 1269 m -27 X s 417 1277 m -54 X s 390 1325 m -27 X s 390 1353 m -27 X s 390 1373 m -27 X s 390 1389 m -27 X s 390 1402 m -27 X s 390 1413 m -27 X s 390 1422 m -27 X s 390 1430 m -27 X s
 417 1437 m -54 X s 2154 634 m 850 Y s 2101 634 m 53 X s 2127 682 m 27 X s 2127 710 m 27 X s 2127 730 m 27 X s 2127 746 m 27 X s 2127 759 m 27 X s 2127 769 m 27 X s 2127 779 m 27 X s 2127 787 m 27 X s 2101 794 m 53 X s 2127 843 m 27 X s 2127 871 m 27
 X s 2127 891 m 27 X s 2127 907 m 27 X s 2127 919 m 27 X s 2127 930 m 27 X s 2127 940 m 27 X s 2127 948 m 27 X s 2101 955 m 53 X s 2127 1004 m 27 X s 2127 1032 m 27 X s 2127 1052 m 27 X s 2127 1068 m 27 X s 2127 1080 m 27 X s 2127 1091 m 27 X s 2127
 1100 m 27 X s 2127 1109 m 27 X s 2101 1116 m 53 X s 2127 1164 m 27 X s 2127 1193 m 27 X s 2127 1213 m 27 X s 2127 1228 m 27 X s 2127 1241 m 27 X s 2127 1252 m 27 X s 2127 1261 m 27 X s 2127 1269 m 27 X s 2101 1277 m 53 X s 2127 1325 m 27 X s 2127
 1353 m 27 X s 2127 1373 m 27 X s 2127 1389 m 27 X s 2127 1402 m 27 X s 2127 1413 m 27 X s 2127 1422 m 27 X s 2127 1430 m 27 X s 2101 1437 m 53 X s
 gsave  2268 1077 0 461 C 677.708 1215.31 t 0 r /Helvetica findfont 58.7189 sf 0 0 m (4mu) show NC gr  1 1 1 c 453 161 454 1269 bf black
 gsave  2268 1077 0 461 C 566.929 1371.71 t 0 r /Helvetica-Bold findfont 48.9324 sf 0 0 m (MC15) show NC gr  510 1390 m20
 gsave  2268 1077 0 461 C 566.929 1293.51 t 0 r /Helvetica-Bold findfont 48.9324 sf 0 0 m (Projection of Signal pdf) show NC gr  0 0 1 c 9 lw 471 1309 m 79 X s black 3 lw 1 1 1 c 2268 461 0 0 bf black 1 1 1 c 1791 364 363 74 bf black 1791 364 363 74
 bl 363 74 m 1791 X s
 gsave  2268 461 0 0 C 1915.83 13.0329 t 0 r /Helvetica findfont 22.9045 sf 0 0 m (4l Invariant Mass \(GeV\)) show NC gr  363 85 m -11 Y s 408 79 m -5 Y s 452 79 m -5 Y s 497 79 m -5 Y s 542 79 m -5 Y s 587 85 m -11 Y s 632 79 m -5 Y s 676 79 m -5 Y
 s 721 79 m -5 Y s 766 79 m -5 Y s 811 85 m -11 Y s 855 79 m -5 Y s 900 79 m -5 Y s 945 79 m -5 Y s 990 79 m -5 Y s 1035 85 m -11 Y s 1079 79 m -5 Y s 1124 79 m -5 Y s 1169 79 m -5 Y s 1214 79 m -5 Y s 1259 85 m -11 Y s 1303 79 m -5 Y s 1348 79 m -5
 Y s 1393 79 m -5 Y s 1438 79 m -5 Y s 1483 85 m -11 Y s 1527 79 m -5 Y s 1572 79 m -5 Y s 1617 79 m -5 Y s 1662 79 m -5 Y s 1706 85 m -11 Y s 1751 79 m -5 Y s 1796 79 m -5 Y s 1841 79 m -5 Y s 1886 79 m -5 Y s 1930 85 m -11 Y s 1975 79 m -5 Y s 2020
 79 m -5 Y s 2065 79 m -5 Y s 2110 79 m -5 Y s 2154 85 m -11 Y s
 gsave  2268 461 0 0 C 342.112 55.3896 t 0 r /Helvetica findfont 22.9045 sf 0 0 m (140) show NC gr 
 gsave  2268 461 0 0 C 566.929 55.3896 t 0 r /Helvetica findfont 22.9045 sf 0 0 m (150) show NC gr 
 gsave  2268 461 0 0 C 788.488 55.3896 t 0 r /Helvetica findfont 22.9045 sf 0 0 m (160) show NC gr 
 gsave  2268 461 0 0 C 1013.3 55.3896 t 0 r /Helvetica findfont 22.9045 sf 0 0 m (170) show NC gr 
 gsave  2268 461 0 0 C 1238.12 55.3896 t 0 r /Helvetica findfont 22.9045 sf 0 0 m (180) show NC gr 
 gsave  2268 461 0 0 C 1462.94 55.3896 t 0 r /Helvetica findfont 22.9045 sf 0 0 m (190) show NC gr 
 gsave  2268 461 0 0 C 1684.5 55.3896 t 0 r /Helvetica findfont 22.9045 sf 0 0 m (200) show NC gr 
 gsave  2268 461 0 0 C 1909.31 55.3896 t 0 r /Helvetica findfont 22.9045 sf 0 0 m (210) show NC gr 
 gsave  2268 461 0 0 C 2134.13 55.3896 t 0 r /Helvetica findfont 22.9045 sf 0 0 m (220) show NC gr  363 438 m 1791 X s 363 427 m 11 Y s 408 433 m 5 Y s 452 433 m 5 Y s 497 433 m 5 Y s 542 433 m 5 Y s 587 427 m 11 Y s 632 433 m 5 Y s 676 433 m 5 Y s
 721 433 m 5 Y s 766 433 m 5 Y s 811 427 m 11 Y s 855 433 m 5 Y s 900 433 m 5 Y s 945 433 m 5 Y s 990 433 m 5 Y s 1035 427 m 11 Y s 1079 433 m 5 Y s 1124 433 m 5 Y s 1169 433 m 5 Y s 1214 433 m 5 Y s 1259 427 m 11 Y s 1303 433 m 5 Y s 1348 433 m 5 Y
 s 1393 433 m 5 Y s 1438 433 m 5 Y s 1483 427 m 11 Y s 1527 433 m 5 Y s 1572 433 m 5 Y s 1617 433 m 5 Y s 1662 433 m 5 Y s 1706 427 m 11 Y s 1751 433 m 5 Y s 1796 433 m 5 Y s 1841 433 m 5 Y s 1886 433 m 5 Y s 1930 427 m 11 Y s 1975 433 m 5 Y s 2020
 433 m 5 Y s 2065 433 m 5 Y s 2110 433 m 5 Y s 2154 427 m 11 Y s 363 74 m 364 Y s 417 74 m -54 X s 390 81 m -27 X s 390 88 m -27 X s 390 96 m -27 X s 390 103 m -27 X s 417 110 m -54 X s 390 118 m -27 X s 390 125 m -27 X s 390 132 m -27 X s 390 139 m
 -27 X s 417 147 m -54 X s 390 154 m -27 X s 390 161 m -27 X s 390 169 m -27 X s 390 176 m -27 X s 417 183 m -54 X s 390 190 m -27 X s 390 198 m -27 X s 390 205 m -27 X s 390 212 m -27 X s 417 220 m -54 X s 390 227 m -27 X s 390 234 m -27 X s 390 241
 m -27 X s 390 249 m -27 X s 417 256 m -54 X s 390 263 m -27 X s 390 271 m -27 X s 390 278 m -27 X s 390 285 m -27 X s 417 293 m -54 X s 390 300 m -27 X s 390 307 m -27 X s 390 314 m -27 X s 390 322 m -27 X s 417 329 m -54 X s 390 336 m -27 X s 390
 344 m -27 X s 390 351 m -27 X s 390 358 m -27 X s 417 365 m -54 X s 390 373 m -27 X s 390 380 m -27 X s 390 387 m -27 X s 390 395 m -27 X s 417 402 m -54 X s 390 409 m -27 X s 390 416 m -27 X s 390 424 m -27 X s 390 431 m -27 X s 417 438 m -54 X s
 gsave  2268 461 0 0 C 329.08 65.1643 t 0 r /Helvetica findfont 22.9045 sf 0 0 m (\2555) show NC gr 
 gsave  2268 461 0 0 C 329.08 101.005 t 0 r /Helvetica findfont 22.9045 sf 0 0 m (\2554) show NC gr 
 gsave  2268 461 0 0 C 329.08 140.103 t 0 r /Helvetica findfont 22.9045 sf 0 0 m (\2553) show NC gr 
 gsave  2268 461 0 0 C 329.08 175.944 t 0 r /Helvetica findfont 22.9045 sf 0 0 m (\2552) show NC gr 
 gsave  2268 461 0 0 C 332.338 211.784 t 0 r /Helvetica findfont 22.9045 sf 0 0 m (\2551) show NC gr 
 gsave  2268 461 0 0 C 335.596 247.624 t 0 r /Helvetica findfont 22.9045 sf 0 0 m (0) show NC gr 
 gsave  2268 461 0 0 C 338.854 283.465 t 0 r /Helvetica findfont 22.9045 sf 0 0 m (1) show NC gr 
 gsave  2268 461 0 0 C 335.596 319.305 t 0 r /Helvetica findfont 22.9045 sf 0 0 m (2) show NC gr 
 gsave  2268 461 0 0 C 335.596 358.403 t 0 r /Helvetica findfont 22.9045 sf 0 0 m (3) show NC gr 
 gsave  2268 461 0 0 C 335.596 394.244 t 0 r /Helvetica findfont 22.9045 sf 0 0 m (4) show NC gr 
 gsave  2268 461 0 0 C 335.596 430.084 t 0 r /Helvetica findfont 22.9045 sf 0 0 m (5) show NC gr  2154 74 m 364 Y s 2101 74 m 53 X s 2127 81 m 27 X s 2127 88 m 27 X s 2127 96 m 27 X s 2127 103 m 27 X s 2101 110 m 53 X s 2127 118 m 27 X s 2127 125 m
 27 X s 2127 132 m 27 X s 2127 139 m 27 X s 2101 147 m 53 X s 2127 154 m 27 X s 2127 161 m 27 X s 2127 169 m 27 X s 2127 176 m 27 X s 2101 183 m 53 X s 2127 190 m 27 X s 2127 198 m 27 X s 2127 205 m 27 X s 2127 212 m 27 X s 2101 220 m 53 X s 2127 227
 m 27 X s 2127 234 m 27 X s 2127 241 m 27 X s 2127 249 m 27 X s 2101 256 m 53 X s 2127 263 m 27 X s 2127 271 m 27 X s 2127 278 m 27 X s 2127 285 m 27 X s 2101 293 m 53 X s 2127 300 m 27 X s 2127 307 m 27 X s 2127 314 m 27 X s 2127 322 m 27 X s 2101
 329 m 53 X s 2127 336 m 27 X s 2127 344 m 27 X s 2127 351 m 27 X s 2127 358 m 27 X s 2101 365 m 53 X s 2127 373 m 27 X s 2127 380 m 27 X s 2127 387 m 27 X s 2127 395 m 27 X s 2101 402 m 53 X s 2127 409 m 27 X s 2127 416 m 27 X s 2127 424 m 27 X s
 2127 431 m 27 X s 2101 438 m 53 X s 6 lw 0.2 0.8 0.2 c black 3 lw 0.2 0.8 0.2 c 363 256 m -2 Y 36 X 28 Y 35 X 19 Y 36 X -31 Y 36 X -7 Y 36 X 21 Y 36 X 33 Y 36 X -62 Y 35 X 65 Y 36 X -104 Y 36 X 111 Y 36 X -92 Y 72 X -10 Y 35 X 44 Y 36 X 29 Y 36 X
 -39 Y 36 X -29 Y 36 X -56 Y 36 X -19 Y 35 X 40 Y 36 X 90 Y 36 X -40 Y 36 X -9 Y 36 X -13 Y 36 X 13 Y 35 X -18 Y 36 X 55 Y 36 X -29 Y 36 X -16 Y 36 X 72 Y 36 X 59 Y 35 X -36 Y 36 X -71 Y 36 X 19 Y 36 X -116 Y 36 X 98 Y 36 X 64 Y 35 X -66 Y 36 X -25 Y
 36 X 93 Y 36 X -132 Y 36 X 71 Y 36 X -5 Y 35 X -12 Y 36 X 35 Y 36 X -54 Y 36 X 81 Y 36 X -50 Y 36 X 46 Y 35 X -43 Y f 6 lw black 0.2 0.8 0.2 c black 363 254 m 36 X 28 Y 35 X 19 Y 36 X -31 Y 36 X -7 Y 36 X 21 Y 36 X 33 Y 36 X -62 Y 35 X 65 Y 36 X
 -104 Y 36 X 111 Y 36 X -92 Y 72 X -10 Y 35 X 44 Y 36 X 29 Y 36 X -39 Y 36 X -29 Y 36 X -56 Y 36 X -19 Y 35 X 40 Y 36 X 90 Y 36 X -40 Y 36 X -9 Y 36 X -13 Y 36 X 13 Y 35 X -18 Y 36 X 55 Y 36 X -29 Y 36 X -16 Y 36 X 72 Y 36 X 59 Y 35 X -36 Y 36 X -71
 Y 36 X 19 Y 36 X -116 Y 36 X 98 Y 36 X 64 Y 35 X -66 Y 36 X -25 Y 36 X 93 Y 36 X -132 Y 36 X 71 Y 36 X -5 Y 35 X -12 Y 36 X 35 Y 36 X -54 Y 36 X 81 Y 36 X -50 Y 36 X 46 Y 35 X s 3 lw 363 74 m 1791 X s 363 85 m -11 Y s 408 79 m -5 Y s 452 79 m -5 Y s
 497 79 m -5 Y s 542 79 m -5 Y s 587 85 m -11 Y s 632 79 m -5 Y s 676 79 m -5 Y s 721 79 m -5 Y s 766 79 m -5 Y s 811 85 m -11 Y s 855 79 m -5 Y s 900 79 m -5 Y s 945 79 m -5 Y s 990 79 m -5 Y s 1035 85 m -11 Y s 1079 79 m -5 Y s 1124 79 m -5 Y s
 1169 79 m -5 Y s 1214 79 m -5 Y s 1259 85 m -11 Y s 1303 79 m -5 Y s 1348 79 m -5 Y s 1393 79 m -5 Y s 1438 79 m -5 Y s 1483 85 m -11 Y s 1527 79 m -5 Y s 1572 79 m -5 Y s 1617 79 m -5 Y s 1662 79 m -5 Y s 1706 85 m -11 Y s 1751 79 m -5 Y s 1796 79
 m -5 Y s 1841 79 m -5 Y s 1886 79 m -5 Y s 1930 85 m -11 Y s 1975 79 m -5 Y s 2020 79 m -5 Y s 2065 79 m -5 Y s 2110 79 m -5 Y s 2154 85 m -11 Y s 363 438 m 1791 X s 363 427 m 11 Y s 408 433 m 5 Y s 452 433 m 5 Y s 497 433 m 5 Y s 542 433 m 5 Y s
 587 427 m 11 Y s 632 433 m 5 Y s 676 433 m 5 Y s 721 433 m 5 Y s 766 433 m 5 Y s 811 427 m 11 Y s 855 433 m 5 Y s 900 433 m 5 Y s 945 433 m 5 Y s 990 433 m 5 Y s 1035 427 m 11 Y s 1079 433 m 5 Y s 1124 433 m 5 Y s 1169 433 m 5 Y s 1214 433 m 5 Y s
 1259 427 m 11 Y s 1303 433 m 5 Y s 1348 433 m 5 Y s 1393 433 m 5 Y s 1438 433 m 5 Y s 1483 427 m 11 Y s 1527 433 m 5 Y s 1572 433 m 5 Y s 1617 433 m 5 Y s 1662 433 m 5 Y s 1706 427 m 11 Y s 1751 433 m 5 Y s 1796 433 m 5 Y s 1841 433 m 5 Y s 1886 433
 m 5 Y s 1930 427 m 11 Y s 1975 433 m 5 Y s 2020 433 m 5 Y s 2065 433 m 5 Y s 2110 433 m 5 Y s 2154 427 m 11 Y s 363 74 m 364 Y s 417 74 m -54 X s 390 81 m -27 X s 390 88 m -27 X s 390 96 m -27 X s 390 103 m -27 X s 417 110 m -54 X s 390 118 m -27 X
 s 390 125 m -27 X s 390 132 m -27 X s 390 139 m -27 X s 417 147 m -54 X s 390 154 m -27 X s 390 161 m -27 X s 390 169 m -27 X s 390 176 m -27 X s 417 183 m -54 X s 390 190 m -27 X s 390 198 m -27 X s 390 205 m -27 X s 390 212 m -27 X s 417 220 m -54
 X s 390 227 m -27 X s 390 234 m -27 X s 390 241 m -27 X s 390 249 m -27 X s 417 256 m -54 X s 390 263 m -27 X s 390 271 m -27 X s 390 278 m -27 X s 390 285 m -27 X s 417 293 m -54 X s 390 300 m -27 X s 390 307 m -27 X s 390 314 m -27 X s 390 322 m
 -27 X s 417 329 m -54 X s 390 336 m -27 X s 390 344 m -27 X s 390 351 m -27 X s 390 358 m -27 X s 417 365 m -54 X s 390 373 m -27 X s 390 380 m -27 X s 390 387 m -27 X s 390 395 m -27 X s 417 402 m -54 X s 390 409 m -27 X s 390 416 m -27 X s 390 424
 m -27 X s 390 431 m -27 X s 417 438 m -54 X s 2154 74 m 364 Y s 2101 74 m 53 X s 2127 81 m 27 X s 2127 88 m 27 X s 2127 96 m 27 X s 2127 103 m 27 X s 2101 110 m 53 X s 2127 118 m 27 X s 2127 125 m 27 X s 2127 132 m 27 X s 2127 139 m 27 X s 2101 147
 m 53 X s 2127 154 m 27 X s 2127 161 m 27 X s 2127 169 m 27 X s 2127 176 m 27 X s 2101 183 m 53 X s 2127 190 m 27 X s 2127 198 m 27 X s 2127 205 m 27 X s 2127 212 m 27 X s 2101 220 m 53 X s 2127 227 m 27 X s 2127 234 m 27 X s 2127 241 m 27 X s 2127
 249 m 27 X s 2101 256 m 53 X s 2127 263 m 27 X s 2127 271 m 27 X s 2127 278 m 27 X s 2127 285 m 27 X s 2101 293 m 53 X s 2127 300 m 27 X s 2127 307 m 27 X s 2127 314 m 27 X s 2127 322 m 27 X s 2101 329 m 53 X s 2127 336 m 27 X s 2127 344 m 27 X s
 2127 351 m 27 X s 2127 358 m 27 X s 2101 365 m 53 X s 2127 373 m 27 X s 2127 380 m 27 X s 2127 387 m 27 X s 2127 395 m 27 X s 2101 402 m 53 X s 2127 409 m 27 X s 2127 416 m 27 X s 2127 424 m 27 X s 2127 431 m 27 X s 2101 438 m 53 X s
 gr  gr showpage
end
%%EOF
