%!PS-Adobe-2.0 EPSF-2.0
%%BoundingBox:  0 0 567 384
%%Title: H4l2015_plotfit/VBF_mass_signal_1000_H4l_2mu2e.eps: 
%%Creator: ROOT Version 5.34/07
%%CreationDate: Mon Nov  9 16:28:42 2015
%%EndComments
%%BeginProlog
80 dict begin
/s {stroke} def /l {lineto} def /m {moveto} def /t {translate} def
/r {rotate} def /rl {roll}  def /R {repeat} def
/d {rlineto} def /rm {rmoveto} def /gr {grestore} def /f {eofill} def
/c {setrgbcolor} def /black {0 setgray} def /sd {setdash} def
/cl {closepath} def /sf {scalefont setfont} def /lw {setlinewidth} def
/box {m dup 0 exch d exch 0 d 0 exch neg d cl} def
/NC{systemdict begin initclip end}def/C{NC box clip newpath}def
/bl {box s} def /bf {box f} def /Y { 0 exch d} def /X { 0 d} def 
/K {{pop pop 0 moveto} exch kshow} bind def
/ita {/ang 15 def gsave [1 0 ang dup sin exch cos div 1 0 0] concat} def 
/mp {newpath /y exch def /x exch def} def
/side {[w .77 mul w .23 mul] .385 w mul sd w 0 l currentpoint t -144 r} def
/mr {mp x y w2 0 360 arc} def /m24 {mr s} def /m20 {mr f} def
/mb {mp x y w2 add m w2 neg 0 d 0 w neg d w 0 d 0 w d cl} def
/mt {mp x y w2 add m w2 neg w neg d w 0 d cl} def
/m21 {mb f} def /m25 {mb s} def /m22 {mt f} def /m26{mt s} def
/m23 {mp x y w2 sub m w2 w d w neg 0 d cl f} def
/m27 {mp x y w2 add m w3 neg w2 neg d w3 w2 neg d w3 w2 d cl s} def
/m28 {mp x w2 sub y w2 sub w3 add m w3 0 d  0 w3 neg d w3 0 d 0 w3 d w3 0 d  0 w3 d w3 neg 0 d 0 w3 d w3 neg 0 d 0 w3 neg d w3 neg 0 d cl s } def
/m29 {mp gsave x w2 sub y w2 add w3 sub m currentpoint t 4 {side} repeat cl fill gr} def
/m30 {mp gsave x w2 sub y w2 add w3 sub m currentpoint t 4 {side} repeat cl s gr} def
/m31 {mp x y w2 sub m 0 w d x w2 sub y m w 0 d x w2 sub y w2 add m w w neg d x w2 sub y w2 sub m w w d s} def
/m32 {mp x y w2 sub m w2 w d w neg 0 d cl s} def
/m33 {mp x y w2 add m w3 neg w2 neg d w3 w2 neg d w3 w2 d cl f} def
/m34 {mp x w2 sub y w2 sub w3 add m w3 0 d  0 w3 neg d w3 0 d 0 w3 d w3 0 d  0 w3 d w3 neg 0 d 0 w3 d w3 neg 0 d 0 w3 neg d w3 neg 0 d cl f } def
/m2 {mp x y w2 sub m 0 w d x w2 sub y m w 0 d s} def
/m5 {mp x w2 sub y w2 sub m w w d x w2 sub y w2 add m w w neg d s} def
/reEncode {exch findfont dup length dict begin {1 index /FID eq  {pop pop} {def} ifelse } forall /Encoding exch def currentdict end dup /FontName get exch definefont pop } def [/Times-Bold /Times-Italic /Times-BoldItalic /Helvetica /Helvetica-Oblique
 /Helvetica-Bold /Helvetica-BoldOblique /Courier /Courier-Oblique /Courier-Bold /Courier-BoldOblique /Times-Roman /AvantGarde-Book /AvantGarde-BookOblique /AvantGarde-Demi /AvantGarde-DemiOblique /Bookman-Demi /Bookman-DemiItalic /Bookman-Light
 /Bookman-LightItalic /Helvetica-Narrow /Helvetica-Narrow-Bold /Helvetica-Narrow-BoldOblique /Helvetica-Narrow-Oblique /NewCenturySchlbk-Roman /NewCenturySchlbk-Bold /NewCenturySchlbk-BoldItalic /NewCenturySchlbk-Italic /Palatino-Bold
 /Palatino-BoldItalic /Palatino-Italic /Palatino-Roman ] {ISOLatin1Encoding reEncode } forall
%%EndProlog
%%BeginSetup
%%EndSetup
newpath  gsave  .25 .25 scale  gsave  0 0 t black[  ] 0 sd 3 lw 1 1 1 c 2268 1538 0 0 bf black 1 1 1 c 2222 738 23 784 bf black 1 1 1 c 2222 739 23 15 bf black 1 1 1 c 2268 1077 0 461 bf black 1 1 1 c 1791 850 363 634 bf black 1791 850 363 634 bl 363
 634 m 1791 X s
 gsave  2268 1077 0 461 C 1642.14 498.507 t 0 r /Helvetica findfont 48.9324 sf 0 0 m (4l Invariant Mass \(GeV\)) show NC gr  471 659 m -25 Y s 526 646 m -12 Y s 580 646 m -12 Y s 634 646 m -12 Y s 689 646 m -12 Y s 743 659 m -25 Y s 797 646 m -12 Y s
 851 646 m -12 Y s 906 646 m -12 Y s 960 646 m -12 Y s 1014 659 m -25 Y s 1069 646 m -12 Y s 1123 646 m -12 Y s 1177 646 m -12 Y s 1231 646 m -12 Y s 1286 659 m -25 Y s 1340 646 m -12 Y s 1394 646 m -12 Y s 1449 646 m -12 Y s 1503 646 m -12 Y s 1557
 659 m -25 Y s 1611 646 m -12 Y s 1666 646 m -12 Y s 1720 646 m -12 Y s 1774 646 m -12 Y s 1829 659 m -25 Y s 1883 646 m -12 Y s 1937 646 m -12 Y s 1991 646 m -12 Y s 2046 646 m -12 Y s 2100 659 m -25 Y s 471 659 m -25 Y s 417 646 m -12 Y s 2100 659
 m -25 Y s 2154 646 m -12 Y s
 gsave  2268 1077 0 461 C 426.826 586.478 t 0 r /Helvetica findfont 48.9324 sf 0 0 m (800) show NC gr 
 gsave  2268 1077 0 461 C 697.258 586.478 t 0 r /Helvetica findfont 48.9324 sf 0 0 m (850) show NC gr 
 gsave  2268 1077 0 461 C 970.948 586.478 t 0 r /Helvetica findfont 48.9324 sf 0 0 m (900) show NC gr 
 gsave  2268 1077 0 461 C 1241.38 586.478 t 0 r /Helvetica findfont 48.9324 sf 0 0 m (950) show NC gr 
 gsave  2268 1077 0 461 C 1498.78 586.478 t 0 r /Helvetica findfont 48.9324 sf 0 0 m (1000) show NC gr 
 gsave  2268 1077 0 461 C 1772.47 586.478 t 0 r /Helvetica findfont 48.9324 sf 0 0 m (1050) show NC gr 
 gsave  2268 1077 0 461 C 2042.9 586.478 t 0 r /Helvetica findfont 48.9324 sf 0 0 m (1100) show NC gr  363 1484 m 1791 X s 471 1459 m 25 Y s 526 1471 m 13 Y s 580 1471 m 13 Y s 634 1471 m 13 Y s 689 1471 m 13 Y s 743 1459 m 25 Y s 797 1471 m 13 Y s
 851 1471 m 13 Y s 906 1471 m 13 Y s 960 1471 m 13 Y s 1014 1459 m 25 Y s 1069 1471 m 13 Y s 1123 1471 m 13 Y s 1177 1471 m 13 Y s 1231 1471 m 13 Y s 1286 1459 m 25 Y s 1340 1471 m 13 Y s 1394 1471 m 13 Y s 1449 1471 m 13 Y s 1503 1471 m 13 Y s 1557
 1459 m 25 Y s 1611 1471 m 13 Y s 1666 1471 m 13 Y s 1720 1471 m 13 Y s 1774 1471 m 13 Y s 1829 1459 m 25 Y s 1883 1471 m 13 Y s 1937 1471 m 13 Y s 1991 1471 m 13 Y s 2046 1471 m 13 Y s 2100 1459 m 25 Y s 471 1459 m 25 Y s 417 1471 m 13 Y s 2100 1459
 m 25 Y s 2154 1471 m 13 Y s 363 634 m 850 Y s
 gsave  2268 1077 0 461 C 120.554 1058.92 t 90 r /Helvetica findfont 48.9324 sf 0 0 m (Events / \( 6.6 GeV \)) show NC gr  417 634 m -54 X s
 gsave  2268 1077 0 461 C 312.788 632.093 t 0 r /Helvetica findfont 32.6216 sf 0 0 m (\2552) show NC gr 
 gsave  2268 1077 0 461 C 260.657 612.544 t 0 r /Helvetica findfont 48.9324 sf 0 0 m (10) show NC gr  390 681 m -27 X s 390 709 m -27 X s 390 729 m -27 X s 390 744 m -27 X s 390 756 m -27 X s 390 767 m -27 X s 390 776 m -27 X s 390 784 m -27 X s 417
 791 m -54 X s
 gsave  2268 1077 0 461 C 319.305 788.488 t 0 r /Helvetica findfont 32.6216 sf 0 0 m (\2551) show NC gr 
 gsave  2268 1077 0 461 C 267.173 768.938 t 0 r /Helvetica findfont 48.9324 sf 0 0 m (10) show NC gr  390 839 m -27 X s 390 866 m -27 X s 390 886 m -27 X s 390 901 m -27 X s 390 914 m -27 X s 390 924 m -27 X s 390 934 m -27 X s 390 942 m -27 X s 417
 949 m -54 X s
 gsave  2268 1077 0 461 C 342.425 928.048 t 0 r  -27 0 t /Helvetica findfont 48.9324 sf 0 0 m (1) show NC gr  390 996 m -27 X s 390 1024 m -27 X s 390 1044 m -27 X s 390 1059 m -27 X s 390 1072 m -27 X s 390 1082 m -27 X s 390 1091 m -27 X s 390 1099
 m -27 X s 417 1107 m -54 X s
 gsave  2268 1077 0 461 C 342.425 1085.7 t 0 r  -55 0 t /Helvetica findfont 48.9324 sf 0 0 m (10) show NC gr  390 1154 m -27 X s 390 1182 m -27 X s 390 1201 m -27 X s 390 1217 m -27 X s 390 1229 m -27 X s 390 1240 m -27 X s 390 1249 m -27 X s 390
 1257 m -27 X s 417 1264 m -54 X s
 gsave  2268 1077 0 461 C 322.563 1264.19 t 0 r /Helvetica findfont 32.6216 sf 0 0 m (2) show NC gr 
 gsave  2268 1077 0 461 C 270.432 1244.64 t 0 r /Helvetica findfont 48.9324 sf 0 0 m (10) show NC gr  390 1312 m -27 X s 390 1339 m -27 X s 390 1359 m -27 X s 390 1374 m -27 X s 390 1387 m -27 X s 390 1397 m -27 X s 390 1407 m -27 X s 390 1415 m -27
 X s 417 1422 m -54 X s
 gsave  2268 1077 0 461 C 322.563 1423.84 t 0 r /Helvetica findfont 32.6216 sf 0 0 m (3) show NC gr 
 gsave  2268 1077 0 461 C 270.432 1401.03 t 0 r /Helvetica findfont 48.9324 sf 0 0 m (10) show NC gr  390 1469 m -27 X s 2154 634 m 850 Y s 2101 634 m 53 X s 2127 681 m 27 X s 2127 709 m 27 X s 2127 729 m 27 X s 2127 744 m 27 X s 2127 756 m 27 X s
 2127 767 m 27 X s 2127 776 m 27 X s 2127 784 m 27 X s 2101 791 m 53 X s 2127 839 m 27 X s 2127 866 m 27 X s 2127 886 m 27 X s 2127 901 m 27 X s 2127 914 m 27 X s 2127 924 m 27 X s 2127 934 m 27 X s 2127 942 m 27 X s 2101 949 m 53 X s 2127 996 m 27 X
 s 2127 1024 m 27 X s 2127 1044 m 27 X s 2127 1059 m 27 X s 2127 1072 m 27 X s 2127 1082 m 27 X s 2127 1091 m 27 X s 2127 1099 m 27 X s 2101 1107 m 53 X s 2127 1154 m 27 X s 2127 1182 m 27 X s 2127 1201 m 27 X s 2127 1217 m 27 X s 2127 1229 m 27 X s
 2127 1240 m 27 X s 2127 1249 m 27 X s 2127 1257 m 27 X s 2101 1264 m 53 X s 2127 1312 m 27 X s 2127 1339 m 27 X s 2127 1359 m 27 X s 2127 1374 m 27 X s 2127 1387 m 27 X s 2127 1397 m 27 X s 2127 1407 m 27 X s 2127 1415 m 27 X s 2101 1422 m 53 X s
 2127 1469 m 27 X s 381 1113 m -18 X s 363 1113 m cl s 381 1113 m 18 X s 399 1113 m cl s 381 1113 m 23 Y s 381 1136 m cl s 381 1113 m -24 Y s 381 1089 m cl s 417 1099 m -18 X s 399 1099 m cl s 417 1099 m 17 X s 434 1099 m cl s 417 1099 m 26 Y s 417
 1125 m cl s 417 1099 m -27 Y s 417 1072 m cl s 452 1134 m -18 X s 434 1134 m cl s 452 1134 m 18 X s 470 1134 m cl s 452 1134 m 20 Y s 452 1154 m cl s 452 1134 m -20 Y s 452 1114 m cl s 488 1107 m -18 X s 470 1107 m cl s 488 1107 m 18 X s 506 1107 m
 cl s 488 1107 m 24 Y s 488 1131 m cl s 488 1107 m -26 Y s 488 1081 m cl s 524 1134 m -18 X s 506 1134 m cl s 524 1134 m 18 X s 542 1134 m cl s 524 1134 m 20 Y s 524 1154 m cl s 524 1134 m -20 Y s 524 1114 m cl s 560 1143 m -18 X s 542 1143 m cl s
 560 1143 m 18 X s 578 1143 m cl s 560 1143 m 18 Y s 560 1161 m cl s 560 1143 m -19 Y s 560 1124 m cl s 596 1139 m -18 X s 578 1139 m cl s 596 1139 m 18 X s 614 1139 m cl s 596 1139 m 19 Y s 596 1158 m cl s 596 1139 m -20 Y s 596 1119 m cl s 632 1166
 m -18 X s 614 1166 m cl s 632 1166 m 17 X s 649 1166 m cl s 632 1166 m 16 Y s 632 1182 m cl s 632 1166 m -15 Y s 632 1151 m cl s 667 1157 m -18 X s 649 1157 m cl s 667 1157 m 18 X s 685 1157 m cl s 667 1157 m 17 Y s 667 1174 m cl s 667 1157 m -16 Y
 s 667 1141 m cl s 703 1169 m -18 X s 685 1169 m cl s 703 1169 m 18 X s 721 1169 m cl s 703 1169 m 15 Y s 703 1184 m cl s 703 1169 m -15 Y s 703 1154 m cl s 739 1169 m -18 X s 721 1169 m cl s 739 1169 m 18 X s 757 1169 m cl s 739 1169 m 15 Y s 739
 1184 m cl s 739 1169 m -15 Y s 739 1154 m cl s 775 1150 m -18 X s 757 1150 m cl s 775 1150 m 18 X s 793 1150 m cl s 775 1150 m 18 Y s 775 1168 m cl s 775 1150 m -17 Y s 775 1133 m cl s 811 1172 m -18 X s 793 1172 m cl s 811 1172 m 18 X s 829 1172 m
 cl s 811 1172 m 15 Y s 811 1187 m cl s 811 1172 m -15 Y s 811 1157 m cl s 847 1182 m -18 X s 829 1182 m cl s 847 1182 m 17 X s 864 1182 m cl s 847 1182 m 13 Y s 847 1195 m cl s 847 1182 m -14 Y s 847 1168 m cl s 882 1184 m -18 X s 864 1184 m cl s
 882 1184 m 18 X s 900 1184 m cl s 882 1184 m 13 Y s 882 1197 m cl s 882 1184 m -13 Y s 882 1171 m cl s 918 1192 m -18 X s 900 1192 m cl s 918 1192 m 18 X s 936 1192 m cl s 918 1192 m 13 Y s 918 1205 m cl s 918 1192 m -12 Y s 918 1180 m cl s 954 1203
 m -18 X s 936 1203 m cl s 954 1203 m 18 X s 972 1203 m cl s 954 1203 m 12 Y s 954 1215 m cl s 954 1203 m -11 Y s 954 1192 m cl s 990 1222 m -18 X s 972 1222 m cl s 990 1222 m 18 X s 1008 1222 m cl s 990 1222 m 10 Y s 990 1232 m cl s 990 1222 m -10 Y
 s 990 1212 m cl s 1026 1230 m -18 X s 1008 1230 m cl s 1026 1230 m 18 X s 1044 1230 m cl s 1026 1230 m 10 Y s 1026 1240 m cl s 1026 1230 m -9 Y s 1026 1221 m cl s 1062 1243 m -18 X s 1044 1243 m cl s 1062 1243 m 17 X s 1079 1243 m cl s 1062 1243 m 8
 Y s 1062 1251 m cl s 1062 1243 m -9 Y s 1062 1234 m cl s 1097 1253 m -18 X s 1079 1253 m cl s 1097 1253 m 18 X s 1115 1253 m cl s 1097 1253 m 8 Y s 1097 1261 m cl s 1097 1253 m -8 Y s 1097 1245 m cl s 1133 1266 m -18 X s 1115 1266 m cl s 1133 1266 m
 18 X s 1151 1266 m cl s 1133 1266 m 7 Y s 1133 1273 m cl s 1133 1266 m -7 Y s 1133 1259 m cl s 1169 1276 m -18 X s 1151 1276 m cl s 1169 1276 m 18 X s 1187 1276 m cl s 1169 1276 m 6 Y s 1169 1282 m cl s 1169 1276 m -7 Y s 1169 1269 m cl s 1205 1302
 m -18 X s 1187 1302 m cl s 1205 1302 m 18 X s 1223 1302 m cl s 1205 1302 m 5 Y s 1205 1307 m cl s 1205 1302 m -5 Y s 1205 1297 m cl s 1241 1316 m -18 X s 1223 1316 m cl s 1241 1316 m 18 X s 1259 1316 m cl s 1241 1316 m 5 Y s 1241 1321 m cl s 1241
 1316 m -4 Y s 1241 1312 m cl s 1276 1342 m -17 X s 1259 1342 m cl s 1276 1342 m 18 X s 1294 1342 m cl s 1276 1342 m 4 Y s 1276 1346 m cl s 1276 1342 m -4 Y s 1276 1338 m cl s 1312 1367 m -18 X s 1294 1367 m cl s 1312 1367 m 18 X s 1330 1367 m cl s
 1312 1367 m 3 Y s 1312 1370 m cl s 1312 1367 m -4 Y s 1312 1363 m cl s 1348 1384 m -18 X s 1330 1384 m cl s 1348 1384 m 18 X s 1366 1384 m cl s 1348 1384 m 3 Y s 1348 1387 m cl s 1348 1384 m -2 Y s 1348 1382 m cl s 1384 1406 m -18 X s 1366 1406 m cl
 s 1384 1406 m 18 X s 1402 1406 m cl s 1384 1406 m 2 Y s 1384 1408 m cl s 1384 1406 m -2 Y s 1384 1404 m cl s 1420 1422 m -18 X s 1402 1422 m cl s 1420 1422 m 18 X s 1438 1422 m cl s 1420 1422 m 2 Y s 1420 1424 m cl s 1420 1422 m -2 Y s 1420 1420 m
 cl s 1456 1440 m -18 X s 1438 1440 m cl s 1456 1440 m 18 X s 1474 1440 m cl s 1456 1440 m 2 Y s 1456 1442 m cl s 1456 1440 m -2 Y s 1456 1438 m cl s 1491 1448 m -17 X s 1474 1448 m cl s 1491 1448 m 18 X s 1509 1448 m cl s 1491 1448 m 1 Y s 1491 1449
 m cl s 1491 1448 m -2 Y s 1491 1446 m cl s 1527 1451 m -18 X s 1509 1451 m cl s 1527 1451 m 18 X s 1545 1451 m cl s 1527 1451 m 2 Y s 1527 1453 m cl s 1527 1451 m -2 Y s 1527 1449 m cl s 1563 1449 m -18 X s 1545 1449 m cl s 1563 1449 m 18 X s 1581
 1449 m cl s 1563 1449 m 2 Y s 1563 1451 m cl s 1563 1449 m -1 Y s 1563 1448 m cl s 1599 1440 m -18 X s 1581 1440 m cl s 1599 1440 m 18 X s 1617 1440 m cl s 1599 1440 m 2 Y s 1599 1442 m cl s 1599 1440 m -2 Y s 1599 1438 m cl s 1635 1425 m -18 X s
 1617 1425 m cl s 1635 1425 m 18 X s 1653 1425 m cl s 1635 1425 m 2 Y s 1635 1427 m cl s 1635 1425 m -2 Y s 1635 1423 m cl s 1671 1409 m -18 X s 1653 1409 m cl s 1671 1409 m 18 X s 1689 1409 m cl s 1671 1409 m 2 Y s 1671 1411 m cl s 1671 1409 m -3 Y
 s 1671 1406 m cl s 1706 1384 m -17 X s 1689 1384 m cl s 1706 1384 m 18 X s 1724 1384 m cl s 1706 1384 m 3 Y s 1706 1387 m cl s 1706 1384 m -3 Y s 1706 1381 m cl s 1742 1356 m -18 X s 1724 1356 m cl s 1742 1356 m 18 X s 1760 1356 m cl s 1742 1356 m 3
 Y s 1742 1359 m cl s 1742 1356 m -4 Y s 1742 1352 m cl s 1778 1334 m -18 X s 1760 1334 m cl s 1778 1334 m 18 X s 1796 1334 m cl s 1778 1334 m 5 Y s 1778 1339 m cl s 1778 1334 m -4 Y s 1778 1330 m cl s 1814 1305 m -18 X s 1796 1305 m cl s 1814 1305 m
 18 X s 1832 1305 m cl s 1814 1305 m 5 Y s 1814 1310 m cl s 1814 1305 m -5 Y s 1814 1300 m cl s 1850 1279 m -18 X s 1832 1279 m cl s 1850 1279 m 18 X s 1868 1279 m cl s 1850 1279 m 7 Y s 1850 1286 m cl s 1850 1279 m -6 Y s 1850 1273 m cl s 1886 1264
 m -18 X s 1868 1264 m cl s 1886 1264 m 18 X s 1904 1264 m cl s 1886 1264 m 7 Y s 1886 1271 m cl s 1886 1264 m -7 Y s 1886 1257 m cl s 1921 1253 m -17 X s 1904 1253 m cl s 1921 1253 m 18 X s 1939 1253 m cl s 1921 1253 m 8 Y s 1921 1261 m cl s 1921
 1253 m -8 Y s 1921 1245 m cl s 1957 1217 m -18 X s 1939 1217 m cl s 1957 1217 m 18 X s 1975 1217 m cl s 1957 1217 m 10 Y s 1957 1227 m cl s 1957 1217 m -11 Y s 1957 1206 m cl s 1993 1214 m -18 X s 1975 1214 m cl s 1993 1214 m 18 X s 2011 1214 m cl s
 1993 1214 m 10 Y s 1993 1224 m cl s 1993 1214 m -11 Y s 1993 1203 m cl s 2029 1186 m -18 X s 2011 1186 m cl s 2029 1186 m 18 X s 2047 1186 m cl s 2029 1186 m 13 Y s 2029 1199 m cl s 2029 1186 m -13 Y s 2029 1173 m cl s 2065 1150 m -18 X s 2047 1150
 m cl s 2065 1150 m 18 X s 2083 1150 m cl s 2065 1150 m 18 Y s 2065 1168 m cl s 2065 1150 m -17 Y s 2065 1133 m cl s 2101 1139 m -18 X s 2083 1139 m cl s 2101 1139 m 18 X s 2119 1139 m cl s 2101 1139 m 19 Y s 2101 1158 m cl s 2101 1139 m -20 Y s 2101
 1119 m cl s 2136 1134 m -17 X s 2119 1134 m cl s 2136 1134 m 18 X s 2154 1134 m cl s 2136 1134 m 20 Y s 2136 1154 m cl s 2136 1134 m -20 Y s 2136 1114 m cl s /w 31 def /w2 {w 2 div} def /w3 {w 3 div} def 381 1113 417 1099 452 1134 488 1107 524 1134
 560 1143 596 1139 632 1166 667 1157 703 1169 739 1169 775 1150 811 1172 847 1182 882 1184 918 1192 954 1203 990 1222 1026 1230 1062 1243 1097 1253 1133 1266 1169 1276 1205 1302 1241 1316 1276 1342 1312 1367 1348 1384 1384 1406 1420 1422 1456 1440
 1491 1448 1527 1451 1563 1449 1599 1440 1635 1425 1671 1409 1706 1384 1742 1356 1778 1334 1814 1305 1850 1279 1886 1264 1921 1253 1957 1217 1993 1214 2029 1186 2065 1150 2101 1139 2136 1134 50 { m20} R 0 1 1 c 1 1 0 c black 1 1 0 c 363 1101 m 36 7 d
 35 7 d 36 6 d 36 7 d 36 7 d 36 7 d 36 7 d 35 7 d 36 7 d 36 7 d 36 8 d 36 7 d 36 8 d 35 7 d 36 8 d 36 8 d 36 9 d 36 9 d 36 9 d 35 9 d 36 10 d 36 11 d 36 14 d 18 8 d 18 9 d 18 11 d 18 11 d 17 13 d 9 6 d 9 7 d 9 6 d 9 6 d 9 7 d 9 6 d 9 6 d 9 6 d 18 11
 d 18 10 d 18 10 d 18 8 d 18 7 d 9 3 d 9 3 d 9 3 d 9 2 d 9 2 d 8 1 d 9 2 d 9 X 9 1 d 18 X 9 -1 d 9 -1 d 9 -1 d 9 -2 d 9 -2 d 9 -2 d 9 -3 d 9 -3 d 9 -3 d 18 -7 d 18 -9 d 18 -10 d 18 -10 d 17 -11 d 9 -6 d 9 -6 d 9 -7 d 9 -6 d 9 -6 d 9 -7 d 18 -13 d 18
 -12 d 18 -12 d 18 -12 d 18 -11 d 18 -10 d 36 -19 d 35 -19 d 36 -18 d 36 -18 d 36 -19 d 36 -21 d 36 -21 d 35 -23 d -38 Y -35 29 d -36 27 d -36 26 d -36 23 d -36 21 d -36 21 d -35 20 d -36 21 d -18 11 d -18 11 d -18 12 d -18 13 d -18 12 d -18 13 d -9
 7 d -9 6 d -9 7 d -9 6 d -9 7 d -9 6 d -17 12 d -18 11 d -18 10 d -18 9 d -18 8 d -9 3 d -9 3 d -9 3 d -9 2 d -9 2 d -9 1 d -9 2 d -9 1 d -36 X -9 -1 d -9 -1 d -8 -2 d -9 -1 d -9 -3 d -9 -2 d -9 -3 d -9 -3 d -18 -8 d -18 -9 d -18 -10 d -18 -10 d -18
 -12 d -9 -7 d -9 -6 d -9 -6 d -9 -7 d -9 -6 d -9 -7 d -9 -6 d -9 -6 d -17 -13 d -18 -11 d -18 -11 d -18 -10 d -18 -9 d -36 -15 d -36 -12 d -36 -10 d -35 -9 d -36 -9 d -36 -8 d -36 -9 d -36 -8 d -36 -9 d -35 -8 d -36 -9 d -36 -8 d -36 -9 d -36 -8 d
 -36 -8 d -35 -9 d -36 -8 d -36 -8 d -36 -8 d -36 -8 d -36 -7 d -35 -8 d -36 -8 d f 0 1 1 c 0 1 0 c black 0 1 0 c 363 1096 m 36 7 d 35 7 d 36 6 d 36 7 d 36 7 d 36 8 d 36 7 d 35 7 d 36 8 d 36 7 d 36 8 d 36 7 d 36 8 d 35 8 d 36 8 d 36 8 d 36 9 d 36 8 d
 36 9 d 35 9 d 36 10 d 36 12 d 36 14 d 18 8 d 18 10 d 18 10 d 18 12 d 17 12 d 9 7 d 9 6 d 9 7 d 9 6 d 9 6 d 9 7 d 9 6 d 9 6 d 18 11 d 18 10 d 18 10 d 18 8 d 18 8 d 9 3 d 9 3 d 9 2 d 9 2 d 9 2 d 8 2 d 9 1 d 9 1 d 27 X 9 -1 d 9 X 9 -2 d 9 -1 d 9 -2 d 9
 -3 d 9 -2 d 9 -3 d 9 -4 d 18 -7 d 18 -9 d 18 -9 d 18 -11 d 17 -12 d 9 -6 d 9 -6 d 9 -6 d 9 -6 d 9 -7 d 9 -6 d 18 -13 d 18 -13 d 18 -12 d 18 -12 d 18 -11 d 18 -10 d 36 -20 d 35 -18 d 36 -19 d 36 -19 d 36 -20 d 36 -21 d 36 -23 d 35 -23 d -19 Y -35 27
 d -36 25 d -36 23 d -36 23 d -36 20 d -36 20 d -35 19 d -36 21 d -18 11 d -18 11 d -18 12 d -18 12 d -18 13 d -18 13 d -9 6 d -9 7 d -9 6 d -9 7 d -9 6 d -9 6 d -17 12 d -18 11 d -18 10 d -18 8 d -18 8 d -9 3 d -9 3 d -9 3 d -9 2 d -9 2 d -9 2 d -9
 1 d -9 1 d -9 1 d -18 X -9 -1 d -9 X -9 -1 d -8 -2 d -9 -2 d -9 -2 d -9 -3 d -9 -2 d -9 -4 d -18 -7 d -18 -9 d -18 -10 d -18 -10 d -18 -12 d -9 -6 d -9 -6 d -9 -7 d -9 -6 d -9 -6 d -9 -7 d -9 -6 d -9 -7 d -17 -12 d -18 -12 d -18 -10 d -18 -10 d -18
 -9 d -36 -15 d -36 -12 d -36 -10 d -35 -9 d -36 -8 d -36 -9 d -36 -8 d -36 -9 d -36 -8 d -35 -8 d -36 -9 d -36 -8 d -36 -8 d -36 -8 d -36 -8 d -35 -8 d -36 -8 d -36 -7 d -36 -8 d -36 -7 d -36 -8 d -35 -7 d -36 -8 d f 0 0 1 c 9 lw black 0 0 1 c 363
 1090 m 36 7 d 35 7 d 36 7 d 36 7 d 36 8 d 36 7 d 36 8 d 35 7 d 36 8 d 36 8 d 36 7 d 36 8 d 36 8 d 35 9 d 36 8 d 36 8 d 36 8 d 36 9 d 36 9 d 35 9 d 36 10 d 36 12 d 36 14 d 18 9 d 18 9 d 18 11 d 18 12 d 17 12 d 9 6 d 9 7 d 9 6 d 9 7 d 9 6 d 9 6 d 9 6
 d 9 6 d 18 12 d 18 10 d 18 10 d 18 9 d 18 7 d 9 3 d 9 3 d 9 3 d 9 2 d 9 2 d 8 1 d 9 1 d 9 1 d 9 1 d 9 X 9 -1 d 9 X 9 -1 d 9 -1 d 9 -2 d 9 -2 d 9 -2 d 9 -3 d 9 -3 d 9 -3 d 18 -8 d 18 -9 d 18 -9 d 18 -11 d 17 -12 d 9 -6 d 9 -6 d 9 -6 d 9 -7 d 9 -6 d 9
 -7 d 18 -13 d 18 -12 d 18 -12 d 18 -12 d 18 -11 d 18 -11 d 36 -20 d 35 -19 d 36 -19 d 36 -20 d 36 -21 d 36 -22 d 36 -24 d 35 -25 d s black 3 lw 381 1113 m -18 X s 363 1113 m cl s 381 1113 m 18 X s 399 1113 m cl s 381 1113 m 23 Y s 381 1136 m cl s
 381 1113 m -24 Y s 381 1089 m cl s 417 1099 m -18 X s 399 1099 m cl s 417 1099 m 17 X s 434 1099 m cl s 417 1099 m 26 Y s 417 1125 m cl s 417 1099 m -27 Y s 417 1072 m cl s 452 1134 m -18 X s 434 1134 m cl s 452 1134 m 18 X s 470 1134 m cl s 452
 1134 m 20 Y s 452 1154 m cl s 452 1134 m -20 Y s 452 1114 m cl s 488 1107 m -18 X s 470 1107 m cl s 488 1107 m 18 X s 506 1107 m cl s 488 1107 m 24 Y s 488 1131 m cl s 488 1107 m -26 Y s 488 1081 m cl s 524 1134 m -18 X s 506 1134 m cl s 524 1134 m
 18 X s 542 1134 m cl s 524 1134 m 20 Y s 524 1154 m cl s 524 1134 m -20 Y s 524 1114 m cl s 560 1143 m -18 X s 542 1143 m cl s 560 1143 m 18 X s 578 1143 m cl s 560 1143 m 18 Y s 560 1161 m cl s 560 1143 m -19 Y s 560 1124 m cl s 596 1139 m -18 X s
 578 1139 m cl s 596 1139 m 18 X s 614 1139 m cl s 596 1139 m 19 Y s 596 1158 m cl s 596 1139 m -20 Y s 596 1119 m cl s 632 1166 m -18 X s 614 1166 m cl s 632 1166 m 17 X s 649 1166 m cl s 632 1166 m 16 Y s 632 1182 m cl s 632 1166 m -15 Y s 632 1151
 m cl s 667 1157 m -18 X s 649 1157 m cl s 667 1157 m 18 X s 685 1157 m cl s 667 1157 m 17 Y s 667 1174 m cl s 667 1157 m -16 Y s 667 1141 m cl s 703 1169 m -18 X s 685 1169 m cl s 703 1169 m 18 X s 721 1169 m cl s 703 1169 m 15 Y s 703 1184 m cl s
 703 1169 m -15 Y s 703 1154 m cl s 739 1169 m -18 X s 721 1169 m cl s 739 1169 m 18 X s 757 1169 m cl s 739 1169 m 15 Y s 739 1184 m cl s 739 1169 m -15 Y s 739 1154 m cl s 775 1150 m -18 X s 757 1150 m cl s 775 1150 m 18 X s 793 1150 m cl s 775
 1150 m 18 Y s 775 1168 m cl s 775 1150 m -17 Y s 775 1133 m cl s 811 1172 m -18 X s 793 1172 m cl s 811 1172 m 18 X s 829 1172 m cl s 811 1172 m 15 Y s 811 1187 m cl s 811 1172 m -15 Y s 811 1157 m cl s 847 1182 m -18 X s 829 1182 m cl s 847 1182 m
 17 X s 864 1182 m cl s 847 1182 m 13 Y s 847 1195 m cl s 847 1182 m -14 Y s 847 1168 m cl s 882 1184 m -18 X s 864 1184 m cl s 882 1184 m 18 X s 900 1184 m cl s 882 1184 m 13 Y s 882 1197 m cl s 882 1184 m -13 Y s 882 1171 m cl s 918 1192 m -18 X s
 900 1192 m cl s 918 1192 m 18 X s 936 1192 m cl s 918 1192 m 13 Y s 918 1205 m cl s 918 1192 m -12 Y s 918 1180 m cl s 954 1203 m -18 X s 936 1203 m cl s 954 1203 m 18 X s 972 1203 m cl s 954 1203 m 12 Y s 954 1215 m cl s 954 1203 m -11 Y s 954 1192
 m cl s 990 1222 m -18 X s 972 1222 m cl s 990 1222 m 18 X s 1008 1222 m cl s 990 1222 m 10 Y s 990 1232 m cl s 990 1222 m -10 Y s 990 1212 m cl s 1026 1230 m -18 X s 1008 1230 m cl s 1026 1230 m 18 X s 1044 1230 m cl s 1026 1230 m 10 Y s 1026 1240 m
 cl s 1026 1230 m -9 Y s 1026 1221 m cl s 1062 1243 m -18 X s 1044 1243 m cl s 1062 1243 m 17 X s 1079 1243 m cl s 1062 1243 m 8 Y s 1062 1251 m cl s 1062 1243 m -9 Y s 1062 1234 m cl s 1097 1253 m -18 X s 1079 1253 m cl s 1097 1253 m 18 X s 1115
 1253 m cl s 1097 1253 m 8 Y s 1097 1261 m cl s 1097 1253 m -8 Y s 1097 1245 m cl s 1133 1266 m -18 X s 1115 1266 m cl s 1133 1266 m 18 X s 1151 1266 m cl s 1133 1266 m 7 Y s 1133 1273 m cl s 1133 1266 m -7 Y s 1133 1259 m cl s 1169 1276 m -18 X s
 1151 1276 m cl s 1169 1276 m 18 X s 1187 1276 m cl s 1169 1276 m 6 Y s 1169 1282 m cl s 1169 1276 m -7 Y s 1169 1269 m cl s 1205 1302 m -18 X s 1187 1302 m cl s 1205 1302 m 18 X s 1223 1302 m cl s 1205 1302 m 5 Y s 1205 1307 m cl s 1205 1302 m -5 Y
 s 1205 1297 m cl s 1241 1316 m -18 X s 1223 1316 m cl s 1241 1316 m 18 X s 1259 1316 m cl s 1241 1316 m 5 Y s 1241 1321 m cl s 1241 1316 m -4 Y s 1241 1312 m cl s 1276 1342 m -17 X s 1259 1342 m cl s 1276 1342 m 18 X s 1294 1342 m cl s 1276 1342 m 4
 Y s 1276 1346 m cl s 1276 1342 m -4 Y s 1276 1338 m cl s 1312 1367 m -18 X s 1294 1367 m cl s 1312 1367 m 18 X s 1330 1367 m cl s 1312 1367 m 3 Y s 1312 1370 m cl s 1312 1367 m -4 Y s 1312 1363 m cl s 1348 1384 m -18 X s 1330 1384 m cl s 1348 1384 m
 18 X s 1366 1384 m cl s 1348 1384 m 3 Y s 1348 1387 m cl s 1348 1384 m -2 Y s 1348 1382 m cl s 1384 1406 m -18 X s 1366 1406 m cl s 1384 1406 m 18 X s 1402 1406 m cl s 1384 1406 m 2 Y s 1384 1408 m cl s 1384 1406 m -2 Y s 1384 1404 m cl s 1420 1422
 m -18 X s 1402 1422 m cl s 1420 1422 m 18 X s 1438 1422 m cl s 1420 1422 m 2 Y s 1420 1424 m cl s 1420 1422 m -2 Y s 1420 1420 m cl s 1456 1440 m -18 X s 1438 1440 m cl s 1456 1440 m 18 X s 1474 1440 m cl s 1456 1440 m 2 Y s 1456 1442 m cl s 1456
 1440 m -2 Y s 1456 1438 m cl s 1491 1448 m -17 X s 1474 1448 m cl s 1491 1448 m 18 X s 1509 1448 m cl s 1491 1448 m 1 Y s 1491 1449 m cl s 1491 1448 m -2 Y s 1491 1446 m cl s 1527 1451 m -18 X s 1509 1451 m cl s 1527 1451 m 18 X s 1545 1451 m cl s
 1527 1451 m 2 Y s 1527 1453 m cl s 1527 1451 m -2 Y s 1527 1449 m cl s 1563 1449 m -18 X s 1545 1449 m cl s 1563 1449 m 18 X s 1581 1449 m cl s 1563 1449 m 2 Y s 1563 1451 m cl s 1563 1449 m -1 Y s 1563 1448 m cl s 1599 1440 m -18 X s 1581 1440 m cl
 s 1599 1440 m 18 X s 1617 1440 m cl s 1599 1440 m 2 Y s 1599 1442 m cl s 1599 1440 m -2 Y s 1599 1438 m cl s 1635 1425 m -18 X s 1617 1425 m cl s 1635 1425 m 18 X s 1653 1425 m cl s 1635 1425 m 2 Y s 1635 1427 m cl s 1635 1425 m -2 Y s 1635 1423 m
 cl s 1671 1409 m -18 X s 1653 1409 m cl s 1671 1409 m 18 X s 1689 1409 m cl s 1671 1409 m 2 Y s 1671 1411 m cl s 1671 1409 m -3 Y s 1671 1406 m cl s 1706 1384 m -17 X s 1689 1384 m cl s 1706 1384 m 18 X s 1724 1384 m cl s 1706 1384 m 3 Y s 1706 1387
 m cl s 1706 1384 m -3 Y s 1706 1381 m cl s 1742 1356 m -18 X s 1724 1356 m cl s 1742 1356 m 18 X s 1760 1356 m cl s 1742 1356 m 3 Y s 1742 1359 m cl s 1742 1356 m -4 Y s 1742 1352 m cl s 1778 1334 m -18 X s 1760 1334 m cl s 1778 1334 m 18 X s 1796
 1334 m cl s 1778 1334 m 5 Y s 1778 1339 m cl s 1778 1334 m -4 Y s 1778 1330 m cl s 1814 1305 m -18 X s 1796 1305 m cl s 1814 1305 m 18 X s 1832 1305 m cl s 1814 1305 m 5 Y s 1814 1310 m cl s 1814 1305 m -5 Y s 1814 1300 m cl s 1850 1279 m -18 X s
 1832 1279 m cl s 1850 1279 m 18 X s 1868 1279 m cl s 1850 1279 m 7 Y s 1850 1286 m cl s 1850 1279 m -6 Y s 1850 1273 m cl s 1886 1264 m -18 X s 1868 1264 m cl s 1886 1264 m 18 X s 1904 1264 m cl s 1886 1264 m 7 Y s 1886 1271 m cl s 1886 1264 m -7 Y
 s 1886 1257 m cl s 1921 1253 m -17 X s 1904 1253 m cl s 1921 1253 m 18 X s 1939 1253 m cl s 1921 1253 m 8 Y s 1921 1261 m cl s 1921 1253 m -8 Y s 1921 1245 m cl s 1957 1217 m -18 X s 1939 1217 m cl s 1957 1217 m 18 X s 1975 1217 m cl s 1957 1217 m
 10 Y s 1957 1227 m cl s 1957 1217 m -11 Y s 1957 1206 m cl s 1993 1214 m -18 X s 1975 1214 m cl s 1993 1214 m 18 X s 2011 1214 m cl s 1993 1214 m 10 Y s 1993 1224 m cl s 1993 1214 m -11 Y s 1993 1203 m cl s 2029 1186 m -18 X s 2011 1186 m cl s 2029
 1186 m 18 X s 2047 1186 m cl s 2029 1186 m 13 Y s 2029 1199 m cl s 2029 1186 m -13 Y s 2029 1173 m cl s 2065 1150 m -18 X s 2047 1150 m cl s 2065 1150 m 18 X s 2083 1150 m cl s 2065 1150 m 18 Y s 2065 1168 m cl s 2065 1150 m -17 Y s 2065 1133 m cl s
 2101 1139 m -18 X s 2083 1139 m cl s 2101 1139 m 18 X s 2119 1139 m cl s 2101 1139 m 19 Y s 2101 1158 m cl s 2101 1139 m -20 Y s 2101 1119 m cl s 2136 1134 m -17 X s 2119 1134 m cl s 2136 1134 m 18 X s 2154 1134 m cl s 2136 1134 m 20 Y s 2136 1154 m
 cl s 2136 1134 m -20 Y s 2136 1114 m cl s 381 1113 417 1099 452 1134 488 1107 524 1134 560 1143 596 1139 632 1166 667 1157 703 1169 739 1169 775 1150 811 1172 847 1182 882 1184 918 1192 954 1203 990 1222 1026 1230 1062 1243 1097 1253 1133 1266 1169
 1276 1205 1302 1241 1316 1276 1342 1312 1367 1348 1384 1384 1406 1420 1422 1456 1440 1491 1448 1527 1451 1563 1449 1599 1440 1635 1425 1671 1409 1706 1384 1742 1356 1778 1334 1814 1305 1850 1279 1886 1264 1921 1253 1957 1217 1993 1214 2029 1186 2065
 1150 2101 1139 2136 1134 50 { m20} R 0.52 0.76 0.64 c[ 4 8] 0 sd 9 lw black 0.52 0.76 0.64 c 363 1090 m 36 7 d 35 7 d 36 7 d 36 7 d 36 8 d 36 7 d 36 8 d 35 7 d 36 8 d 36 8 d 36 7 d 36 8 d 36 8 d 35 9 d 36 8 d 36 8 d 36 8 d 36 9 d 36 9 d 35 8 d 36 9
 d 36 9 d 36 9 d 18 5 d 18 4 d 18 5 d 18 5 d 17 4 d 18 5 d 36 9 d 18 4 d 18 3 d 18 3 d 18 3 d 18 2 d 18 2 d 18 2 d 18 1 d 17 1 d 18 1 d 36 X 18 -1 d 18 -1 d 18 -1 d 18 -2 d 18 -2 d 18 -2 d 18 -3 d 18 -3 d 35 -8 d 36 -9 d 36 -10 d 36 -12 d 36 -13 d 18
 -8 d 18 -7 d 17 -8 d 18 -8 d 18 -9 d 18 -9 d 18 -10 d 18 -9 d 18 -11 d 18 -10 d 36 -22 d 36 -24 d 35 -25 d s 0.54 0.66 0.63 c black 0.54 0.66 0.63 c 964 634 m 8 23 d s 972 657 m 36 98 d 36 91 d 35 85 d 36 78 d 36 71 d 36 65 d 18 30 d 18 29 d 18 27 d
 18 25 d 17 23 d 9 12 d 9 10 d 9 11 d 9 10 d 9 9 d 9 9 d 9 9 d 9 8 d 9 8 d 9 8 d 18 13 d 18 12 d 18 11 d 18 9 d 9 4 d 9 3 d 9 3 d 9 2 d 9 3 d 8 1 d 9 2 d 9 1 d 27 X 9 -1 d 9 -1 d 9 -1 d 9 -2 d 9 -2 d 9 -3 d 9 -3 d 9 -4 d 9 -4 d 36 -20 d 18 -12 d 18
 -14 d 8 -8 d 9 -8 d 9 -8 d 9 -9 d 9 -9 d 9 -10 d 9 -10 d 9 -10 d 9 -11 d 9 -12 d 18 -23 d 18 -26 d 18 -27 d 18 -29 d 18 -30 d 36 -66 d 35 -72 d 36 -78 d 36 -86 d 36 -91 d 36 -99 d 5 -14 d s black[  ] 0 sd 3 lw 363 634 m 1791 X s 471 659 m -25 Y s
 526 646 m -12 Y s 580 646 m -12 Y s 634 646 m -12 Y s 689 646 m -12 Y s 743 659 m -25 Y s 797 646 m -12 Y s 851 646 m -12 Y s 906 646 m -12 Y s 960 646 m -12 Y s 1014 659 m -25 Y s 1069 646 m -12 Y s 1123 646 m -12 Y s 1177 646 m -12 Y s 1231 646 m
 -12 Y s 1286 659 m -25 Y s 1340 646 m -12 Y s 1394 646 m -12 Y s 1449 646 m -12 Y s 1503 646 m -12 Y s 1557 659 m -25 Y s 1611 646 m -12 Y s 1666 646 m -12 Y s 1720 646 m -12 Y s 1774 646 m -12 Y s 1829 659 m -25 Y s 1883 646 m -12 Y s 1937 646 m
 -12 Y s 1991 646 m -12 Y s 2046 646 m -12 Y s 2100 659 m -25 Y s 471 659 m -25 Y s 417 646 m -12 Y s 2100 659 m -25 Y s 2154 646 m -12 Y s 363 1484 m 1791 X s 471 1459 m 25 Y s 526 1471 m 13 Y s 580 1471 m 13 Y s 634 1471 m 13 Y s 689 1471 m 13 Y s
 743 1459 m 25 Y s 797 1471 m 13 Y s 851 1471 m 13 Y s 906 1471 m 13 Y s 960 1471 m 13 Y s 1014 1459 m 25 Y s 1069 1471 m 13 Y s 1123 1471 m 13 Y s 1177 1471 m 13 Y s 1231 1471 m 13 Y s 1286 1459 m 25 Y s 1340 1471 m 13 Y s 1394 1471 m 13 Y s 1449
 1471 m 13 Y s 1503 1471 m 13 Y s 1557 1459 m 25 Y s 1611 1471 m 13 Y s 1666 1471 m 13 Y s 1720 1471 m 13 Y s 1774 1471 m 13 Y s 1829 1459 m 25 Y s 1883 1471 m 13 Y s 1937 1471 m 13 Y s 1991 1471 m 13 Y s 2046 1471 m 13 Y s 2100 1459 m 25 Y s 471
 1459 m 25 Y s 417 1471 m 13 Y s 2100 1459 m 25 Y s 2154 1471 m 13 Y s 363 634 m 850 Y s 417 634 m -54 X s 390 681 m -27 X s 390 709 m -27 X s 390 729 m -27 X s 390 744 m -27 X s 390 756 m -27 X s 390 767 m -27 X s 390 776 m -27 X s 390 784 m -27 X s
 417 791 m -54 X s 390 839 m -27 X s 390 866 m -27 X s 390 886 m -27 X s 390 901 m -27 X s 390 914 m -27 X s 390 924 m -27 X s 390 934 m -27 X s 390 942 m -27 X s 417 949 m -54 X s 390 996 m -27 X s 390 1024 m -27 X s 390 1044 m -27 X s 390 1059 m
 -27 X s 390 1072 m -27 X s 390 1082 m -27 X s 390 1091 m -27 X s 390 1099 m -27 X s 417 1107 m -54 X s 390 1154 m -27 X s 390 1182 m -27 X s 390 1201 m -27 X s 390 1217 m -27 X s 390 1229 m -27 X s 390 1240 m -27 X s 390 1249 m -27 X s 390 1257 m
 -27 X s 417 1264 m -54 X s 390 1312 m -27 X s 390 1339 m -27 X s 390 1359 m -27 X s 390 1374 m -27 X s 390 1387 m -27 X s 390 1397 m -27 X s 390 1407 m -27 X s 390 1415 m -27 X s 417 1422 m -54 X s 390 1469 m -27 X s 2154 634 m 850 Y s 2101 634 m 53
 X s 2127 681 m 27 X s 2127 709 m 27 X s 2127 729 m 27 X s 2127 744 m 27 X s 2127 756 m 27 X s 2127 767 m 27 X s 2127 776 m 27 X s 2127 784 m 27 X s 2101 791 m 53 X s 2127 839 m 27 X s 2127 866 m 27 X s 2127 886 m 27 X s 2127 901 m 27 X s 2127 914 m
 27 X s 2127 924 m 27 X s 2127 934 m 27 X s 2127 942 m 27 X s 2101 949 m 53 X s 2127 996 m 27 X s 2127 1024 m 27 X s 2127 1044 m 27 X s 2127 1059 m 27 X s 2127 1072 m 27 X s 2127 1082 m 27 X s 2127 1091 m 27 X s 2127 1099 m 27 X s 2101 1107 m 53 X s
 2127 1154 m 27 X s 2127 1182 m 27 X s 2127 1201 m 27 X s 2127 1217 m 27 X s 2127 1229 m 27 X s 2127 1240 m 27 X s 2127 1249 m 27 X s 2127 1257 m 27 X s 2101 1264 m 53 X s 2127 1312 m 27 X s 2127 1339 m 27 X s 2127 1359 m 27 X s 2127 1374 m 27 X s
 2127 1387 m 27 X s 2127 1397 m 27 X s 2127 1407 m 27 X s 2127 1415 m 27 X s 2101 1422 m 53 X s 2127 1469 m 27 X s
 gsave  2268 1077 0 461 C 677.708 1215.31 t 0 r /Helvetica findfont 58.7189 sf 0 0 m (2mu2e) show NC gr  1 1 1 c 453 161 454 1269 bf black
 gsave  2268 1077 0 461 C 566.929 1371.71 t 0 r /Helvetica-Bold findfont 48.9324 sf 0 0 m (MC15) show NC gr  510 1390 m20
 gsave  2268 1077 0 461 C 566.929 1293.51 t 0 r /Helvetica-Bold findfont 48.9324 sf 0 0 m (Projection of Signal pdf) show NC gr  0 0 1 c 9 lw 471 1309 m 79 X s black 3 lw 1 1 1 c 2268 461 0 0 bf black 1 1 1 c 1791 364 363 74 bf black 1791 364 363 74
 bl 363 74 m 1791 X s
 gsave  2268 461 0 0 C 1915.83 13.0329 t 0 r /Helvetica findfont 22.9045 sf 0 0 m (4l Invariant Mass \(GeV\)) show NC gr  471 85 m -11 Y s 526 79 m -5 Y s 580 79 m -5 Y s 634 79 m -5 Y s 689 79 m -5 Y s 743 85 m -11 Y s 797 79 m -5 Y s 851 79 m -5 Y
 s 906 79 m -5 Y s 960 79 m -5 Y s 1014 85 m -11 Y s 1069 79 m -5 Y s 1123 79 m -5 Y s 1177 79 m -5 Y s 1231 79 m -5 Y s 1286 85 m -11 Y s 1340 79 m -5 Y s 1394 79 m -5 Y s 1449 79 m -5 Y s 1503 79 m -5 Y s 1557 85 m -11 Y s 1611 79 m -5 Y s 1666 79
 m -5 Y s 1720 79 m -5 Y s 1774 79 m -5 Y s 1829 85 m -11 Y s 1883 79 m -5 Y s 1937 79 m -5 Y s 1991 79 m -5 Y s 2046 79 m -5 Y s 2100 85 m -11 Y s 471 85 m -11 Y s 417 79 m -5 Y s 2100 85 m -11 Y s 2154 79 m -5 Y s
 gsave  2268 461 0 0 C 449.633 55.3896 t 0 r /Helvetica findfont 22.9045 sf 0 0 m (800) show NC gr 
 gsave  2268 461 0 0 C 720.065 55.3896 t 0 r /Helvetica findfont 22.9045 sf 0 0 m (850) show NC gr 
 gsave  2268 461 0 0 C 993.755 55.3896 t 0 r /Helvetica findfont 22.9045 sf 0 0 m (900) show NC gr 
 gsave  2268 461 0 0 C 1264.19 55.3896 t 0 r /Helvetica findfont 22.9045 sf 0 0 m (950) show NC gr 
 gsave  2268 461 0 0 C 1528.1 55.3896 t 0 r /Helvetica findfont 22.9045 sf 0 0 m (1000) show NC gr 
 gsave  2268 461 0 0 C 1801.79 55.3896 t 0 r /Helvetica findfont 22.9045 sf 0 0 m (1050) show NC gr 
 gsave  2268 461 0 0 C 2072.22 55.3896 t 0 r /Helvetica findfont 22.9045 sf 0 0 m (1100) show NC gr  363 438 m 1791 X s 471 427 m 11 Y s 526 433 m 5 Y s 580 433 m 5 Y s 634 433 m 5 Y s 689 433 m 5 Y s 743 427 m 11 Y s 797 433 m 5 Y s 851 433 m 5 Y s
 906 433 m 5 Y s 960 433 m 5 Y s 1014 427 m 11 Y s 1069 433 m 5 Y s 1123 433 m 5 Y s 1177 433 m 5 Y s 1231 433 m 5 Y s 1286 427 m 11 Y s 1340 433 m 5 Y s 1394 433 m 5 Y s 1449 433 m 5 Y s 1503 433 m 5 Y s 1557 427 m 11 Y s 1611 433 m 5 Y s 1666 433 m
 5 Y s 1720 433 m 5 Y s 1774 433 m 5 Y s 1829 427 m 11 Y s 1883 433 m 5 Y s 1937 433 m 5 Y s 1991 433 m 5 Y s 2046 433 m 5 Y s 2100 427 m 11 Y s 471 427 m 11 Y s 417 433 m 5 Y s 2100 427 m 11 Y s 2154 433 m 5 Y s 363 74 m 364 Y s 417 74 m -54 X s 390
 81 m -27 X s 390 88 m -27 X s 390 96 m -27 X s 390 103 m -27 X s 417 110 m -54 X s 390 118 m -27 X s 390 125 m -27 X s 390 132 m -27 X s 390 139 m -27 X s 417 147 m -54 X s 390 154 m -27 X s 390 161 m -27 X s 390 169 m -27 X s 390 176 m -27 X s 417
 183 m -54 X s 390 190 m -27 X s 390 198 m -27 X s 390 205 m -27 X s 390 212 m -27 X s 417 220 m -54 X s 390 227 m -27 X s 390 234 m -27 X s 390 241 m -27 X s 390 249 m -27 X s 417 256 m -54 X s 390 263 m -27 X s 390 271 m -27 X s 390 278 m -27 X s
 390 285 m -27 X s 417 293 m -54 X s 390 300 m -27 X s 390 307 m -27 X s 390 314 m -27 X s 390 322 m -27 X s 417 329 m -54 X s 390 336 m -27 X s 390 344 m -27 X s 390 351 m -27 X s 390 358 m -27 X s 417 365 m -54 X s 390 373 m -27 X s 390 380 m -27 X
 s 390 387 m -27 X s 390 395 m -27 X s 417 402 m -54 X s 390 409 m -27 X s 390 416 m -27 X s 390 424 m -27 X s 390 431 m -27 X s 417 438 m -54 X s
 gsave  2268 461 0 0 C 329.08 65.1643 t 0 r /Helvetica findfont 22.9045 sf 0 0 m (\2555) show NC gr 
 gsave  2268 461 0 0 C 329.08 101.005 t 0 r /Helvetica findfont 22.9045 sf 0 0 m (\2554) show NC gr 
 gsave  2268 461 0 0 C 329.08 140.103 t 0 r /Helvetica findfont 22.9045 sf 0 0 m (\2553) show NC gr 
 gsave  2268 461 0 0 C 329.08 175.944 t 0 r /Helvetica findfont 22.9045 sf 0 0 m (\2552) show NC gr 
 gsave  2268 461 0 0 C 332.338 211.784 t 0 r /Helvetica findfont 22.9045 sf 0 0 m (\2551) show NC gr 
 gsave  2268 461 0 0 C 335.596 247.624 t 0 r /Helvetica findfont 22.9045 sf 0 0 m (0) show NC gr 
 gsave  2268 461 0 0 C 338.854 283.465 t 0 r /Helvetica findfont 22.9045 sf 0 0 m (1) show NC gr 
 gsave  2268 461 0 0 C 335.596 319.305 t 0 r /Helvetica findfont 22.9045 sf 0 0 m (2) show NC gr 
 gsave  2268 461 0 0 C 335.596 358.403 t 0 r /Helvetica findfont 22.9045 sf 0 0 m (3) show NC gr 
 gsave  2268 461 0 0 C 335.596 394.244 t 0 r /Helvetica findfont 22.9045 sf 0 0 m (4) show NC gr 
 gsave  2268 461 0 0 C 335.596 430.084 t 0 r /Helvetica findfont 22.9045 sf 0 0 m (5) show NC gr  2154 74 m 364 Y s 2101 74 m 53 X s 2127 81 m 27 X s 2127 88 m 27 X s 2127 96 m 27 X s 2127 103 m 27 X s 2101 110 m 53 X s 2127 118 m 27 X s 2127 125 m
 27 X s 2127 132 m 27 X s 2127 139 m 27 X s 2101 147 m 53 X s 2127 154 m 27 X s 2127 161 m 27 X s 2127 169 m 27 X s 2127 176 m 27 X s 2101 183 m 53 X s 2127 190 m 27 X s 2127 198 m 27 X s 2127 205 m 27 X s 2127 212 m 27 X s 2101 220 m 53 X s 2127 227
 m 27 X s 2127 234 m 27 X s 2127 241 m 27 X s 2127 249 m 27 X s 2101 256 m 53 X s 2127 263 m 27 X s 2127 271 m 27 X s 2127 278 m 27 X s 2127 285 m 27 X s 2101 293 m 53 X s 2127 300 m 27 X s 2127 307 m 27 X s 2127 314 m 27 X s 2127 322 m 27 X s 2101
 329 m 53 X s 2127 336 m 27 X s 2127 344 m 27 X s 2127 351 m 27 X s 2127 358 m 27 X s 2101 365 m 53 X s 2127 373 m 27 X s 2127 380 m 27 X s 2127 387 m 27 X s 2127 395 m 27 X s 2101 402 m 53 X s 2127 409 m 27 X s 2127 416 m 27 X s 2127 424 m 27 X s
 2127 431 m 27 X s 2101 438 m 53 X s 6 lw 0.2 0.8 0.2 c black 3 lw 0.2 0.8 0.2 c 363 256 m 31 Y 36 X -32 Y 35 X 47 Y 36 X -57 Y 36 X 34 Y 36 X 4 Y 36 X -23 Y 36 X 45 Y 35 X -37 Y 36 X 12 Y 36 X -20 Y 36 X -60 Y 36 X 28 Y 36 X 2 Y 35 X -18 Y 36 X -3 Y
 36 X 4 Y 36 X 33 Y 36 X -2 Y 36 X 13 Y 35 X 4 Y 36 X 13 Y 36 X -22 Y 36 X 75 Y 36 X -37 Y 36 X 26 Y 35 X -4 Y 36 X -80 Y 36 X -11 Y 36 X -44 Y 36 X 75 Y 36 X -4 Y 35 X 16 Y 36 X 30 Y 36 X -24 Y 36 X -17 Y 36 X 34 Y 36 X -34 Y 35 X -33 Y 36 X 45 Y 36
 X -35 Y 36 X -10 Y 36 X 29 Y 36 X 40 Y 35 X -69 Y 36 X 59 Y 36 X -26 Y 36 X -29 Y 36 X 25 Y 36 X 36 Y 35 X -29 Y f 6 lw black 0.2 0.8 0.2 c black 363 287 m 36 X -32 Y 35 X 47 Y 36 X -57 Y 36 X 34 Y 36 X 4 Y 36 X -23 Y 36 X 45 Y 35 X -37 Y 36 X 12 Y
 36 X -20 Y 36 X -60 Y 36 X 28 Y 36 X 2 Y 35 X -18 Y 36 X -3 Y 36 X 4 Y 36 X 33 Y 36 X -2 Y 36 X 13 Y 35 X 4 Y 36 X 13 Y 36 X -22 Y 36 X 75 Y 36 X -37 Y 36 X 26 Y 35 X -4 Y 36 X -80 Y 36 X -11 Y 36 X -44 Y 36 X 75 Y 36 X -4 Y 35 X 16 Y 36 X 30 Y 36 X
 -24 Y 36 X -17 Y 36 X 34 Y 36 X -34 Y 35 X -33 Y 36 X 45 Y 36 X -35 Y 36 X -10 Y 36 X 29 Y 36 X 40 Y 35 X -69 Y 36 X 59 Y 36 X -26 Y 36 X -29 Y 36 X 25 Y 36 X 36 Y 35 X s 3 lw 363 74 m 1791 X s 471 85 m -11 Y s 526 79 m -5 Y s 580 79 m -5 Y s 634 79
 m -5 Y s 689 79 m -5 Y s 743 85 m -11 Y s 797 79 m -5 Y s 851 79 m -5 Y s 906 79 m -5 Y s 960 79 m -5 Y s 1014 85 m -11 Y s 1069 79 m -5 Y s 1123 79 m -5 Y s 1177 79 m -5 Y s 1231 79 m -5 Y s 1286 85 m -11 Y s 1340 79 m -5 Y s 1394 79 m -5 Y s 1449
 79 m -5 Y s 1503 79 m -5 Y s 1557 85 m -11 Y s 1611 79 m -5 Y s 1666 79 m -5 Y s 1720 79 m -5 Y s 1774 79 m -5 Y s 1829 85 m -11 Y s 1883 79 m -5 Y s 1937 79 m -5 Y s 1991 79 m -5 Y s 2046 79 m -5 Y s 2100 85 m -11 Y s 471 85 m -11 Y s 417 79 m -5 Y
 s 2100 85 m -11 Y s 2154 79 m -5 Y s 363 438 m 1791 X s 471 427 m 11 Y s 526 433 m 5 Y s 580 433 m 5 Y s 634 433 m 5 Y s 689 433 m 5 Y s 743 427 m 11 Y s 797 433 m 5 Y s 851 433 m 5 Y s 906 433 m 5 Y s 960 433 m 5 Y s 1014 427 m 11 Y s 1069 433 m 5
 Y s 1123 433 m 5 Y s 1177 433 m 5 Y s 1231 433 m 5 Y s 1286 427 m 11 Y s 1340 433 m 5 Y s 1394 433 m 5 Y s 1449 433 m 5 Y s 1503 433 m 5 Y s 1557 427 m 11 Y s 1611 433 m 5 Y s 1666 433 m 5 Y s 1720 433 m 5 Y s 1774 433 m 5 Y s 1829 427 m 11 Y s 1883
 433 m 5 Y s 1937 433 m 5 Y s 1991 433 m 5 Y s 2046 433 m 5 Y s 2100 427 m 11 Y s 471 427 m 11 Y s 417 433 m 5 Y s 2100 427 m 11 Y s 2154 433 m 5 Y s 363 74 m 364 Y s 417 74 m -54 X s 390 81 m -27 X s 390 88 m -27 X s 390 96 m -27 X s 390 103 m -27 X
 s 417 110 m -54 X s 390 118 m -27 X s 390 125 m -27 X s 390 132 m -27 X s 390 139 m -27 X s 417 147 m -54 X s 390 154 m -27 X s 390 161 m -27 X s 390 169 m -27 X s 390 176 m -27 X s 417 183 m -54 X s 390 190 m -27 X s 390 198 m -27 X s 390 205 m -27
 X s 390 212 m -27 X s 417 220 m -54 X s 390 227 m -27 X s 390 234 m -27 X s 390 241 m -27 X s 390 249 m -27 X s 417 256 m -54 X s 390 263 m -27 X s 390 271 m -27 X s 390 278 m -27 X s 390 285 m -27 X s 417 293 m -54 X s 390 300 m -27 X s 390 307 m
 -27 X s 390 314 m -27 X s 390 322 m -27 X s 417 329 m -54 X s 390 336 m -27 X s 390 344 m -27 X s 390 351 m -27 X s 390 358 m -27 X s 417 365 m -54 X s 390 373 m -27 X s 390 380 m -27 X s 390 387 m -27 X s 390 395 m -27 X s 417 402 m -54 X s 390 409
 m -27 X s 390 416 m -27 X s 390 424 m -27 X s 390 431 m -27 X s 417 438 m -54 X s 2154 74 m 364 Y s 2101 74 m 53 X s 2127 81 m 27 X s 2127 88 m 27 X s 2127 96 m 27 X s 2127 103 m 27 X s 2101 110 m 53 X s 2127 118 m 27 X s 2127 125 m 27 X s 2127 132
 m 27 X s 2127 139 m 27 X s 2101 147 m 53 X s 2127 154 m 27 X s 2127 161 m 27 X s 2127 169 m 27 X s 2127 176 m 27 X s 2101 183 m 53 X s 2127 190 m 27 X s 2127 198 m 27 X s 2127 205 m 27 X s 2127 212 m 27 X s 2101 220 m 53 X s 2127 227 m 27 X s 2127
 234 m 27 X s 2127 241 m 27 X s 2127 249 m 27 X s 2101 256 m 53 X s 2127 263 m 27 X s 2127 271 m 27 X s 2127 278 m 27 X s 2127 285 m 27 X s 2101 293 m 53 X s 2127 300 m 27 X s 2127 307 m 27 X s 2127 314 m 27 X s 2127 322 m 27 X s 2101 329 m 53 X s
 2127 336 m 27 X s 2127 344 m 27 X s 2127 351 m 27 X s 2127 358 m 27 X s 2101 365 m 53 X s 2127 373 m 27 X s 2127 380 m 27 X s 2127 387 m 27 X s 2127 395 m 27 X s 2101 402 m 53 X s 2127 409 m 27 X s 2127 416 m 27 X s 2127 424 m 27 X s 2127 431 m 27 X
 s 2101 438 m 53 X s
 gr  gr showpage
end
%%EOF
