%!PS-Adobe-2.0 EPSF-2.0
%%BoundingBox:  0 0 567 384
%%Title: H4l2015_plotfit/VBF_mass_signal_300_H4l_4e.eps: 
%%Creator: ROOT Version 5.34/07
%%CreationDate: Mon Nov  9 16:30:35 2015
%%EndComments
%%BeginProlog
80 dict begin
/s {stroke} def /l {lineto} def /m {moveto} def /t {translate} def
/r {rotate} def /rl {roll}  def /R {repeat} def
/d {rlineto} def /rm {rmoveto} def /gr {grestore} def /f {eofill} def
/c {setrgbcolor} def /black {0 setgray} def /sd {setdash} def
/cl {closepath} def /sf {scalefont setfont} def /lw {setlinewidth} def
/box {m dup 0 exch d exch 0 d 0 exch neg d cl} def
/NC{systemdict begin initclip end}def/C{NC box clip newpath}def
/bl {box s} def /bf {box f} def /Y { 0 exch d} def /X { 0 d} def 
/K {{pop pop 0 moveto} exch kshow} bind def
/ita {/ang 15 def gsave [1 0 ang dup sin exch cos div 1 0 0] concat} def 
/mp {newpath /y exch def /x exch def} def
/side {[w .77 mul w .23 mul] .385 w mul sd w 0 l currentpoint t -144 r} def
/mr {mp x y w2 0 360 arc} def /m24 {mr s} def /m20 {mr f} def
/mb {mp x y w2 add m w2 neg 0 d 0 w neg d w 0 d 0 w d cl} def
/mt {mp x y w2 add m w2 neg w neg d w 0 d cl} def
/m21 {mb f} def /m25 {mb s} def /m22 {mt f} def /m26{mt s} def
/m23 {mp x y w2 sub m w2 w d w neg 0 d cl f} def
/m27 {mp x y w2 add m w3 neg w2 neg d w3 w2 neg d w3 w2 d cl s} def
/m28 {mp x w2 sub y w2 sub w3 add m w3 0 d  0 w3 neg d w3 0 d 0 w3 d w3 0 d  0 w3 d w3 neg 0 d 0 w3 d w3 neg 0 d 0 w3 neg d w3 neg 0 d cl s } def
/m29 {mp gsave x w2 sub y w2 add w3 sub m currentpoint t 4 {side} repeat cl fill gr} def
/m30 {mp gsave x w2 sub y w2 add w3 sub m currentpoint t 4 {side} repeat cl s gr} def
/m31 {mp x y w2 sub m 0 w d x w2 sub y m w 0 d x w2 sub y w2 add m w w neg d x w2 sub y w2 sub m w w d s} def
/m32 {mp x y w2 sub m w2 w d w neg 0 d cl s} def
/m33 {mp x y w2 add m w3 neg w2 neg d w3 w2 neg d w3 w2 d cl f} def
/m34 {mp x w2 sub y w2 sub w3 add m w3 0 d  0 w3 neg d w3 0 d 0 w3 d w3 0 d  0 w3 d w3 neg 0 d 0 w3 d w3 neg 0 d 0 w3 neg d w3 neg 0 d cl f } def
/m2 {mp x y w2 sub m 0 w d x w2 sub y m w 0 d s} def
/m5 {mp x w2 sub y w2 sub m w w d x w2 sub y w2 add m w w neg d s} def
/reEncode {exch findfont dup length dict begin {1 index /FID eq  {pop pop} {def} ifelse } forall /Encoding exch def currentdict end dup /FontName get exch definefont pop } def [/Times-Bold /Times-Italic /Times-BoldItalic /Helvetica /Helvetica-Oblique
 /Helvetica-Bold /Helvetica-BoldOblique /Courier /Courier-Oblique /Courier-Bold /Courier-BoldOblique /Times-Roman /AvantGarde-Book /AvantGarde-BookOblique /AvantGarde-Demi /AvantGarde-DemiOblique /Bookman-Demi /Bookman-DemiItalic /Bookman-Light
 /Bookman-LightItalic /Helvetica-Narrow /Helvetica-Narrow-Bold /Helvetica-Narrow-BoldOblique /Helvetica-Narrow-Oblique /NewCenturySchlbk-Roman /NewCenturySchlbk-Bold /NewCenturySchlbk-BoldItalic /NewCenturySchlbk-Italic /Palatino-Bold
 /Palatino-BoldItalic /Palatino-Italic /Palatino-Roman ] {ISOLatin1Encoding reEncode } forall
%%EndProlog
%%BeginSetup
%%EndSetup
newpath  gsave  .25 .25 scale  gsave  0 0 t black[  ] 0 sd 3 lw 1 1 1 c 2268 1538 0 0 bf black 1 1 1 c 2222 738 23 784 bf black 1 1 1 c 2222 739 23 15 bf black 1 1 1 c 2268 1077 0 461 bf black 1 1 1 c 1791 850 363 634 bf black 1791 850 363 634 bl 363
 634 m 1791 X s
 gsave  2268 1077 0 461 C 1642.14 498.507 t 0 r /Helvetica findfont 48.9324 sf 0 0 m (4l Invariant Mass \(GeV\)) show NC gr  363 659 m -25 Y s 401 646 m -12 Y s 440 646 m -12 Y s 478 646 m -12 Y s 517 646 m -12 Y s 555 659 m -25 Y s 594 646 m -12 Y s
 633 646 m -12 Y s 671 646 m -12 Y s 710 646 m -12 Y s 748 659 m -25 Y s 787 646 m -12 Y s 825 646 m -12 Y s 864 646 m -12 Y s 902 646 m -12 Y s 941 659 m -25 Y s 979 646 m -12 Y s 1018 646 m -12 Y s 1056 646 m -12 Y s 1095 646 m -12 Y s 1133 659 m
 -25 Y s 1172 646 m -12 Y s 1210 646 m -12 Y s 1249 646 m -12 Y s 1287 646 m -12 Y s 1326 659 m -25 Y s 1365 646 m -12 Y s 1403 646 m -12 Y s 1442 646 m -12 Y s 1480 646 m -12 Y s 1519 659 m -25 Y s 1557 646 m -12 Y s 1596 646 m -12 Y s 1634 646 m
 -12 Y s 1673 646 m -12 Y s 1711 659 m -25 Y s 1750 646 m -12 Y s 1788 646 m -12 Y s 1827 646 m -12 Y s 1865 646 m -12 Y s 1904 659 m -25 Y s 1942 646 m -12 Y s 1981 646 m -12 Y s 2019 646 m -12 Y s 2058 646 m -12 Y s 2097 659 m -25 Y s 2097 659 m
 -25 Y s 2135 646 m -12 Y s
 gsave  2268 1077 0 461 C 319.305 586.478 t 0 r /Helvetica findfont 48.9324 sf 0 0 m (230) show NC gr 
 gsave  2268 1077 0 461 C 511.54 586.478 t 0 r /Helvetica findfont 48.9324 sf 0 0 m (240) show NC gr 
 gsave  2268 1077 0 461 C 703.774 586.478 t 0 r /Helvetica findfont 48.9324 sf 0 0 m (250) show NC gr 
 gsave  2268 1077 0 461 C 896.009 586.478 t 0 r /Helvetica findfont 48.9324 sf 0 0 m (260) show NC gr 
 gsave  2268 1077 0 461 C 1088.24 586.478 t 0 r /Helvetica findfont 48.9324 sf 0 0 m (270) show NC gr 
 gsave  2268 1077 0 461 C 1280.48 586.478 t 0 r /Helvetica findfont 48.9324 sf 0 0 m (280) show NC gr 
 gsave  2268 1077 0 461 C 1475.97 586.478 t 0 r /Helvetica findfont 48.9324 sf 0 0 m (290) show NC gr 
 gsave  2268 1077 0 461 C 1668.21 586.478 t 0 r /Helvetica findfont 48.9324 sf 0 0 m (300) show NC gr 
 gsave  2268 1077 0 461 C 1860.44 586.478 t 0 r /Helvetica findfont 48.9324 sf 0 0 m (310) show NC gr 
 gsave  2268 1077 0 461 C 2052.67 586.478 t 0 r /Helvetica findfont 48.9324 sf 0 0 m (320) show NC gr  363 1484 m 1791 X s 363 1459 m 25 Y s 401 1471 m 13 Y s 440 1471 m 13 Y s 478 1471 m 13 Y s 517 1471 m 13 Y s 555 1459 m 25 Y s 594 1471 m 13 Y s
 633 1471 m 13 Y s 671 1471 m 13 Y s 710 1471 m 13 Y s 748 1459 m 25 Y s 787 1471 m 13 Y s 825 1471 m 13 Y s 864 1471 m 13 Y s 902 1471 m 13 Y s 941 1459 m 25 Y s 979 1471 m 13 Y s 1018 1471 m 13 Y s 1056 1471 m 13 Y s 1095 1471 m 13 Y s 1133 1459 m
 25 Y s 1172 1471 m 13 Y s 1210 1471 m 13 Y s 1249 1471 m 13 Y s 1287 1471 m 13 Y s 1326 1459 m 25 Y s 1365 1471 m 13 Y s 1403 1471 m 13 Y s 1442 1471 m 13 Y s 1480 1471 m 13 Y s 1519 1459 m 25 Y s 1557 1471 m 13 Y s 1596 1471 m 13 Y s 1634 1471 m 13
 Y s 1673 1471 m 13 Y s 1711 1459 m 25 Y s 1750 1471 m 13 Y s 1788 1471 m 13 Y s 1827 1471 m 13 Y s 1865 1471 m 13 Y s 1904 1459 m 25 Y s 1942 1471 m 13 Y s 1981 1471 m 13 Y s 2019 1471 m 13 Y s 2058 1471 m 13 Y s 2097 1459 m 25 Y s 2097 1459 m 25 Y
 s 2135 1471 m 13 Y s 363 634 m 850 Y s
 gsave  2268 1077 0 461 C 120.554 1032.85 t 90 r /Helvetica findfont 48.9324 sf 0 0 m (Events / \( 1.86 GeV \)) show NC gr  417 634 m -54 X s
 gsave  2268 1077 0 461 C 312.788 632.093 t 0 r /Helvetica findfont 32.6216 sf 0 0 m (\2552) show NC gr 
 gsave  2268 1077 0 461 C 260.657 612.544 t 0 r /Helvetica findfont 48.9324 sf 0 0 m (10) show NC gr  390 684 m -27 X s 390 713 m -27 X s 390 734 m -27 X s 390 750 m -27 X s 390 763 m -27 X s 390 775 m -27 X s 390 784 m -27 X s 390 793 m -27 X s 417
 800 m -54 X s
 gsave  2268 1077 0 461 C 319.305 798.262 t 0 r /Helvetica findfont 32.6216 sf 0 0 m (\2551) show NC gr 
 gsave  2268 1077 0 461 C 267.173 778.713 t 0 r /Helvetica findfont 48.9324 sf 0 0 m (10) show NC gr  390 851 m -27 X s 390 880 m -27 X s 390 901 m -27 X s 390 917 m -27 X s 390 930 m -27 X s 390 941 m -27 X s 390 951 m -27 X s 390 960 m -27 X s 417
 967 m -54 X s
 gsave  2268 1077 0 461 C 342.425 946.378 t 0 r  -27 0 t /Helvetica findfont 48.9324 sf 0 0 m (1) show NC gr  390 1017 m -27 X s 390 1047 m -27 X s 390 1068 m -27 X s 390 1084 m -27 X s 390 1097 m -27 X s 390 1108 m -27 X s 390 1118 m -27 X s 390
 1126 m -27 X s 417 1134 m -54 X s
 gsave  2268 1077 0 461 C 342.425 1113.19 t 0 r  -55 0 t /Helvetica findfont 48.9324 sf 0 0 m (10) show NC gr  390 1184 m -27 X s 390 1214 m -27 X s 390 1234 m -27 X s 390 1251 m -27 X s 390 1264 m -27 X s 390 1275 m -27 X s 390 1285 m -27 X s 390
 1293 m -27 X s 417 1301 m -54 X s
 gsave  2268 1077 0 461 C 322.563 1300.03 t 0 r /Helvetica findfont 32.6216 sf 0 0 m (2) show NC gr 
 gsave  2268 1077 0 461 C 270.432 1280.48 t 0 r /Helvetica findfont 48.9324 sf 0 0 m (10) show NC gr  390 1351 m -27 X s 390 1380 m -27 X s 390 1401 m -27 X s 390 1417 m -27 X s 390 1431 m -27 X s 390 1442 m -27 X s 390 1452 m -27 X s 390 1460 m -27
 X s 417 1468 m -54 X s
 gsave  2268 1077 0 461 C 322.563 1469.45 t 0 r /Helvetica findfont 32.6216 sf 0 0 m (3) show NC gr 
 gsave  2268 1077 0 461 C 270.432 1446.65 t 0 r /Helvetica findfont 48.9324 sf 0 0 m (10) show NC gr  2154 634 m 850 Y s 2101 634 m 53 X s 2127 684 m 27 X s 2127 713 m 27 X s 2127 734 m 27 X s 2127 750 m 27 X s 2127 763 m 27 X s 2127 775 m 27 X s
 2127 784 m 27 X s 2127 793 m 27 X s 2101 800 m 53 X s 2127 851 m 27 X s 2127 880 m 27 X s 2127 901 m 27 X s 2127 917 m 27 X s 2127 930 m 27 X s 2127 941 m 27 X s 2127 951 m 27 X s 2127 960 m 27 X s 2101 967 m 53 X s 2127 1017 m 27 X s 2127 1047 m 27
 X s 2127 1068 m 27 X s 2127 1084 m 27 X s 2127 1097 m 27 X s 2127 1108 m 27 X s 2127 1118 m 27 X s 2127 1126 m 27 X s 2101 1134 m 53 X s 2127 1184 m 27 X s 2127 1214 m 27 X s 2127 1234 m 27 X s 2127 1251 m 27 X s 2127 1264 m 27 X s 2127 1275 m 27 X
 s 2127 1285 m 27 X s 2127 1293 m 27 X s 2101 1301 m 53 X s 2127 1351 m 27 X s 2127 1380 m 27 X s 2127 1401 m 27 X s 2127 1417 m 27 X s 2127 1431 m 27 X s 2127 1442 m 27 X s 2127 1452 m 27 X s 2127 1460 m 27 X s 2101 1468 m 53 X s 381 1068 m -18 X s
 363 1068 m cl s 381 1068 m 18 X s 399 1068 m cl s 381 1068 m 42 Y s 381 1110 m cl s 381 1068 m -48 Y s 381 1020 m cl s 417 1017 m -18 X s 399 1017 m cl s 417 1017 m 17 X s 434 1017 m cl s 417 1017 m 61 Y s 417 1078 m cl s 417 1017 m -75 Y s 417 942
 m cl s 452 1017 m -18 X s 434 1017 m cl s 452 1017 m 18 X s 470 1017 m cl s 452 1017 m 61 Y s 452 1078 m cl s 452 1017 m -75 Y s 452 942 m cl s 488 1047 m -18 X s 470 1047 m cl s 488 1047 m 18 X s 506 1047 m cl s 488 1047 m 49 Y s 488 1096 m cl s
 488 1047 m -57 Y s 488 990 m cl s 524 967 m -18 X s 506 967 m cl s 524 967 m 18 X s 542 967 m cl s 524 967 m 87 Y s 524 1054 m cl s 524 967 m -127 Y s 524 840 m cl s 560 1084 m -18 X s 542 1084 m cl s 560 1084 m 18 X s 578 1084 m cl s 560 1084 m 37
 Y s 560 1121 m cl s 560 1084 m -41 Y s 560 1043 m cl s 596 1047 m -18 X s 578 1047 m cl s 596 1047 m 18 X s 614 1047 m cl s 596 1047 m 49 Y s 596 1096 m cl s 596 1047 m -57 Y s 596 990 m cl s 632 1017 m -18 X s 614 1017 m cl s 632 1017 m 17 X s 649
 1017 m cl s 632 1017 m 61 Y s 632 1078 m cl s 632 1017 m -75 Y s 632 942 m cl s 667 1047 m -18 X s 649 1047 m cl s 667 1047 m 18 X s 685 1047 m cl s 667 1047 m 49 Y s 667 1096 m cl s 667 1047 m -57 Y s 667 990 m cl s 703 1017 m -18 X s 685 1017 m cl
 s 703 1017 m 18 X s 721 1017 m cl s 703 1017 m 61 Y s 703 1078 m cl s 703 1017 m -75 Y s 703 942 m cl s 739 1084 m -18 X s 721 1084 m cl s 739 1084 m 18 X s 757 1084 m cl s 739 1084 m 37 Y s 739 1121 m cl s 739 1084 m -41 Y s 739 1043 m cl s 775
 1047 m -18 X s 757 1047 m cl s 775 1047 m 18 X s 793 1047 m cl s 775 1047 m 49 Y s 775 1096 m cl s 775 1047 m -57 Y s 775 990 m cl s 811 1017 m -18 X s 793 1017 m cl s 811 1017 m 18 X s 829 1017 m cl s 811 1017 m 61 Y s 811 1078 m cl s 811 1017 m
 -75 Y s 811 942 m cl s 847 1068 m -18 X s 829 1068 m cl s 847 1068 m 17 X s 864 1068 m cl s 847 1068 m 42 Y s 847 1110 m cl s 847 1068 m -48 Y s 847 1020 m cl s 882 1108 m -18 X s 864 1108 m cl s 882 1108 m 18 X s 900 1108 m cl s 882 1108 m 31 Y s
 882 1139 m cl s 882 1108 m -33 Y s 882 1075 m cl s 918 1047 m -18 X s 900 1047 m cl s 918 1047 m 18 X s 936 1047 m cl s 918 1047 m 49 Y s 918 1096 m cl s 918 1047 m -57 Y s 918 990 m cl s 954 1084 m -18 X s 936 1084 m cl s 954 1084 m 18 X s 972 1084
 m cl s 954 1084 m 37 Y s 954 1121 m cl s 954 1084 m -41 Y s 954 1043 m cl s 990 1097 m -18 X s 972 1097 m cl s 990 1097 m 18 X s 1008 1097 m cl s 990 1097 m 34 Y s 990 1131 m cl s 990 1097 m -37 Y s 990 1060 m cl s 1026 1084 m -18 X s 1008 1084 m cl
 s 1026 1084 m 18 X s 1044 1084 m cl s 1026 1084 m 37 Y s 1026 1121 m cl s 1026 1084 m -41 Y s 1026 1043 m cl s 1062 1118 m -18 X s 1044 1118 m cl s 1062 1118 m 17 X s 1079 1118 m cl s 1062 1118 m 29 Y s 1062 1147 m cl s 1062 1118 m -31 Y s 1062 1087
 m cl s 1097 1097 m -18 X s 1079 1097 m cl s 1097 1097 m 18 X s 1115 1097 m cl s 1097 1097 m 34 Y s 1097 1131 m cl s 1097 1097 m -37 Y s 1097 1060 m cl s 1133 1147 m -18 X s 1115 1147 m cl s 1133 1147 m 18 X s 1151 1147 m cl s 1133 1147 m 24 Y s 1133
 1171 m cl s 1133 1147 m -24 Y s 1133 1123 m cl s 1169 1147 m -18 X s 1151 1147 m cl s 1169 1147 m 18 X s 1187 1147 m cl s 1169 1147 m 24 Y s 1169 1171 m cl s 1169 1147 m -24 Y s 1169 1123 m cl s 1205 1158 m -18 X s 1187 1158 m cl s 1205 1158 m 18 X
 s 1223 1158 m cl s 1205 1158 m 22 Y s 1205 1180 m cl s 1205 1158 m -22 Y s 1205 1136 m cl s 1241 1172 m -18 X s 1223 1172 m cl s 1241 1172 m 18 X s 1259 1172 m cl s 1241 1172 m 20 Y s 1241 1192 m cl s 1241 1172 m -19 Y s 1241 1153 m cl s 1276 1177 m
 -17 X s 1259 1177 m cl s 1276 1177 m 18 X s 1294 1177 m cl s 1276 1177 m 18 Y s 1276 1195 m cl s 1276 1177 m -20 Y s 1276 1157 m cl s 1312 1209 m -18 X s 1294 1209 m cl s 1312 1209 m 18 X s 1330 1209 m cl s 1312 1209 m 14 Y s 1312 1223 m cl s 1312
 1209 m -15 Y s 1312 1194 m cl s 1348 1248 m -18 X s 1330 1248 m cl s 1348 1248 m 18 X s 1366 1248 m cl s 1348 1248 m 11 Y s 1348 1259 m cl s 1348 1248 m -12 Y s 1348 1236 m cl s 1384 1256 m -18 X s 1366 1256 m cl s 1384 1256 m 18 X s 1402 1256 m cl
 s 1384 1256 m 11 Y s 1384 1267 m cl s 1384 1256 m -10 Y s 1384 1246 m cl s 1420 1292 m -18 X s 1402 1292 m cl s 1420 1292 m 18 X s 1438 1292 m cl s 1420 1292 m 8 Y s 1420 1300 m cl s 1420 1292 m -9 Y s 1420 1283 m cl s 1456 1305 m -18 X s 1438 1305
 m cl s 1456 1305 m 18 X s 1474 1305 m cl s 1456 1305 m 7 Y s 1456 1312 m cl s 1456 1305 m -7 Y s 1456 1298 m cl s 1491 1335 m -17 X s 1474 1335 m cl s 1491 1335 m 18 X s 1509 1335 m cl s 1491 1335 m 6 Y s 1491 1341 m cl s 1491 1335 m -5 Y s 1491
 1330 m cl s 1527 1368 m -18 X s 1509 1368 m cl s 1527 1368 m 18 X s 1545 1368 m cl s 1527 1368 m 5 Y s 1527 1373 m cl s 1527 1368 m -4 Y s 1527 1364 m cl s 1563 1397 m -18 X s 1545 1397 m cl s 1563 1397 m 18 X s 1581 1397 m cl s 1563 1397 m 4 Y s
 1563 1401 m cl s 1563 1397 m -4 Y s 1563 1393 m cl s 1599 1421 m -18 X s 1581 1421 m cl s 1599 1421 m 18 X s 1617 1421 m cl s 1599 1421 m 3 Y s 1599 1424 m cl s 1599 1421 m -3 Y s 1599 1418 m cl s 1635 1437 m -18 X s 1617 1437 m cl s 1635 1437 m 18
 X s 1653 1437 m cl s 1635 1437 m 3 Y s 1635 1440 m cl s 1635 1437 m -3 Y s 1635 1434 m cl s 1671 1442 m -18 X s 1653 1442 m cl s 1671 1442 m 18 X s 1689 1442 m cl s 1671 1442 m 3 Y s 1671 1445 m cl s 1671 1442 m -3 Y s 1671 1439 m cl s 1706 1442 m
 -17 X s 1689 1442 m cl s 1706 1442 m 18 X s 1724 1442 m cl s 1706 1442 m 3 Y s 1706 1445 m cl s 1706 1442 m -2 Y s 1706 1440 m cl s 1742 1420 m -18 X s 1724 1420 m cl s 1742 1420 m 18 X s 1760 1420 m cl s 1742 1420 m 3 Y s 1742 1423 m cl s 1742 1420
 m -3 Y s 1742 1417 m cl s 1778 1387 m -18 X s 1760 1387 m cl s 1778 1387 m 18 X s 1796 1387 m cl s 1778 1387 m 4 Y s 1778 1391 m cl s 1778 1387 m -4 Y s 1778 1383 m cl s 1814 1319 m -18 X s 1796 1319 m cl s 1814 1319 m 18 X s 1832 1319 m cl s 1814
 1319 m 7 Y s 1814 1326 m cl s 1814 1319 m -6 Y s 1814 1313 m cl s 1850 1272 m -18 X s 1832 1272 m cl s 1850 1272 m 18 X s 1868 1272 m cl s 1850 1272 m 9 Y s 1850 1281 m cl s 1850 1272 m -10 Y s 1850 1262 m cl s 1886 1225 m -18 X s 1868 1225 m cl s
 1886 1225 m 18 X s 1904 1225 m cl s 1886 1225 m 13 Y s 1886 1238 m cl s 1886 1225 m -14 Y s 1886 1211 m cl s 1921 1134 m -17 X s 1904 1134 m cl s 1921 1134 m 18 X s 1939 1134 m cl s 1921 1134 m 26 Y s 1921 1160 m cl s 1921 1134 m -27 Y s 1921 1107 m
 cl s 1957 1147 m -18 X s 1939 1147 m cl s 1957 1147 m 18 X s 1975 1147 m cl s 1957 1147 m 24 Y s 1957 1171 m cl s 1957 1147 m -24 Y s 1957 1123 m cl s 1993 1047 m -18 X s 1975 1047 m cl s 1993 1047 m 18 X s 2011 1047 m cl s 1993 1047 m 49 Y s 1993
 1096 m cl s 1993 1047 m -57 Y s 1993 990 m cl s 2029 1097 m -18 X s 2011 1097 m cl s 2029 1097 m 18 X s 2047 1097 m cl s 2029 1097 m 34 Y s 2029 1131 m cl s 2029 1097 m -37 Y s 2029 1060 m cl s 2065 1068 m -18 X s 2047 1068 m cl s 2065 1068 m 18 X s
 2083 1068 m cl s 2065 1068 m 42 Y s 2065 1110 m cl s 2065 1068 m -48 Y s 2065 1020 m cl s 2101 967 m -18 X s 2083 967 m cl s 2101 967 m 18 X s 2119 967 m cl s 2101 967 m 87 Y s 2101 1054 m cl s 2101 967 m -127 Y s 2101 840 m cl s 2136 967 m -17 X s
 2119 967 m cl s 2136 967 m 18 X s 2154 967 m cl s 2136 967 m 87 Y s 2136 1054 m cl s 2136 967 m -127 Y s 2136 840 m cl s /w 31 def /w2 {w 2 div} def /w3 {w 3 div} def 381 1068 417 1017 452 1017 488 1047 524 967 560 1084 596 1047 632 1017 667 1047
 703 1017 739 1084 775 1047 811 1017 847 1068 882 1108 918 1047 954 1084 990 1097 1026 1084 1062 1118 1097 1097 1133 1147 1169 1147 1205 1158 1241 1172 1276 1177 1312 1209 1348 1248 1384 1256 1420 1292 1456 1305 1491 1335 1527 1368 1563 1397 1599
 1421 1635 1437 1671 1442 1706 1442 1742 1420 1778 1387 1814 1319 1850 1272 1886 1225 1921 1134 1957 1147 1993 1047 2029 1097 2065 1068 2101 967 2136 967 50 { m20} R 0 1 1 c 1 1 0 c black 1 1 0 c 363 1023 m 36 5 d 35 4 d 36 4 d 36 4 d 36 5 d 36 5 d
 36 4 d 35 5 d 36 6 d 36 5 d 36 5 d 36 6 d 36 6 d 35 7 d 36 6 d 36 7 d 36 7 d 36 8 d 36 8 d 35 9 d 36 10 d 36 10 d 36 12 d 36 13 d 36 14 d 35 16 d 36 17 d 36 19 d 36 21 d 18 11 d 18 12 d 18 12 d 18 12 d 9 7 d 8 6 d 9 7 d 9 8 d 9 8 d 9 9 d 9 10 d 5 5
 d 4 6 d 9 9 d 9 9 d 18 14 d 18 12 d 9 5 d 9 5 d 9 3 d 4 2 d 5 1 d 4 2 d 5 1 d 4 1 d 5 X 4 1 d 14 X 4 -1 d 5 X 4 -1 d 5 -1 d 4 -2 d 4 -1 d 9 -4 d 9 -4 d 9 -6 d 9 -6 d 9 -6 d 18 -16 d 9 -8 d 9 -10 d 9 -10 d 9 -10 d 9 -11 d 9 -12 d 9 -12 d 9 -13 d 9
 -13 d 9 -13 d 9 -13 d 9 -13 d 9 -13 d 9 -12 d 18 -23 d 17 -21 d 18 -20 d 36 -37 d 36 -35 d 36 -34 d 36 -33 d 36 -34 d 35 -36 d -331 Y -18 X -17 165 d -36 132 d -36 70 d -36 50 d -36 41 d -36 43 d -18 24 d -17 28 d -18 29 d -9 14 d -9 15 d -9 14 d -9
 15 d -9 14 d -9 14 d -9 13 d -9 13 d -9 13 d -9 12 d -9 12 d -9 11 d -9 10 d -9 9 d -18 17 d -9 7 d -9 6 d -9 5 d -9 4 d -9 4 d -4 1 d -4 2 d -5 1 d -4 1 d -5 X -4 1 d -18 X -5 -1 d -4 X -5 -1 d -4 -1 d -5 -2 d -4 -1 d -9 -4 d -9 -5 d -9 -6 d -18
 -14 d -18 -18 d -9 -10 d -9 -11 d -4 -4 d -5 -5 d -9 -8 d -9 -8 d -9 -8 d -9 -8 d -9 -7 d -8 -8 d -9 -7 d -18 -13 d -18 -12 d -18 -11 d -18 -11 d -36 -21 d -36 -21 d -36 -19 d -35 -18 d -36 -15 d -36 -14 d -36 -12 d -36 -11 d -36 -10 d -35 -9 d -36
 -8 d -36 -8 d -36 -8 d -36 -7 d -36 -7 d -35 -6 d -36 -7 d -36 -5 d -36 -6 d -36 -6 d -36 -5 d -35 -5 d -36 -5 d -36 -5 d -36 -5 d -36 -4 d -36 -4 d -35 -5 d -36 -4 d f 0 1 1 c 0 1 0 c black 0 1 0 c 363 1018 m 36 4 d 35 4 d 36 5 d 36 4 d 36 5 d 36 4
 d 36 5 d 35 5 d 36 6 d 36 5 d 36 6 d 36 5 d 36 6 d 35 7 d 36 6 d 36 7 d 36 8 d 36 8 d 36 8 d 35 9 d 36 9 d 36 11 d 36 12 d 36 13 d 36 15 d 35 16 d 36 17 d 36 19 d 36 21 d 18 11 d 18 12 d 18 12 d 18 13 d 9 6 d 8 7 d 9 7 d 9 8 d 9 8 d 9 8 d 9 10 d 5 5
 d 4 6 d 9 9 d 9 9 d 18 15 d 18 13 d 9 5 d 9 5 d 9 3 d 4 2 d 5 1 d 4 2 d 5 1 d 4 1 d 5 X 4 1 d 9 X 5 -1 d 4 X 5 -1 d 4 -1 d 5 -1 d 4 -1 d 4 -1 d 9 -4 d 9 -4 d 9 -6 d 9 -6 d 9 -6 d 18 -16 d 9 -9 d 9 -9 d 9 -11 d 9 -11 d 9 -11 d 9 -12 d 9 -12 d 9 -13 d
 9 -13 d 9 -14 d 9 -13 d 9 -13 d 9 -13 d 9 -13 d 18 -24 d 17 -22 d 18 -21 d 36 -38 d 36 -35 d 36 -35 d 36 -37 d 36 -38 d 35 -42 d -102 Y -35 72 d -36 60 d -36 52 d -36 44 d -36 39 d -36 41 d -18 23 d -17 25 d -18 27 d -9 14 d -9 14 d -9 14 d -9 14 d
 -9 14 d -9 13 d -9 13 d -9 13 d -9 13 d -9 12 d -9 11 d -9 11 d -9 10 d -9 9 d -18 16 d -9 7 d -9 6 d -9 5 d -9 5 d -9 3 d -4 2 d -4 1 d -5 1 d -4 1 d -5 1 d -22 X -5 -1 d -4 X -5 -1 d -4 -1 d -5 -2 d -4 -1 d -9 -4 d -9 -5 d -9 -6 d -18 -13 d -18
 -17 d -9 -10 d -9 -10 d -4 -5 d -5 -5 d -9 -8 d -9 -9 d -9 -8 d -9 -7 d -9 -8 d -8 -7 d -9 -7 d -18 -13 d -18 -12 d -18 -11 d -18 -11 d -36 -21 d -36 -20 d -36 -19 d -35 -17 d -36 -15 d -36 -14 d -36 -12 d -36 -10 d -36 -10 d -35 -9 d -36 -9 d -36
 -7 d -36 -8 d -36 -7 d -36 -7 d -35 -6 d -36 -6 d -36 -6 d -36 -6 d -36 -5 d -36 -6 d -35 -5 d -36 -5 d -36 -5 d -36 -4 d -36 -5 d -36 -4 d -35 -4 d -36 -4 d f 0 0 1 c 9 lw black 0 0 1 c 363 1013 m 36 4 d 35 4 d 36 4 d 36 5 d 36 4 d 36 5 d 36 5 d 35
 5 d 36 5 d 36 6 d 36 5 d 36 6 d 36 6 d 35 7 d 36 6 d 36 7 d 36 8 d 36 8 d 36 8 d 35 9 d 36 10 d 36 10 d 36 12 d 36 13 d 36 15 d 35 17 d 36 18 d 36 20 d 36 21 d 18 11 d 18 11 d 18 12 d 18 13 d 9 7 d 8 7 d 9 7 d 9 7 d 9 9 d 9 8 d 9 9 d 5 5 d 4 5 d 9
 10 d 9 9 d 18 17 d 18 13 d 9 5 d 9 5 d 9 4 d 4 1 d 5 2 d 4 1 d 5 1 d 4 X 5 1 d 4 X 5 1 d 4 X 5 -1 d 4 X 5 -1 d 4 -1 d 5 -1 d 4 -1 d 4 -2 d 9 -3 d 9 -5 d 9 -5 d 9 -6 d 9 -7 d 18 -16 d 9 -9 d 9 -9 d 9 -11 d 9 -11 d 9 -12 d 9 -12 d 9 -12 d 9 -13 d 9
 -14 d 9 -13 d 9 -14 d 9 -14 d 9 -13 d 9 -13 d 18 -26 d 17 -23 d 18 -22 d 36 -39 d 36 -37 d 36 -39 d 36 -41 d 36 -46 d 35 -49 d s black 3 lw 381 1068 m -18 X s 363 1068 m cl s 381 1068 m 18 X s 399 1068 m cl s 381 1068 m 42 Y s 381 1110 m cl s 381
 1068 m -48 Y s 381 1020 m cl s 417 1017 m -18 X s 399 1017 m cl s 417 1017 m 17 X s 434 1017 m cl s 417 1017 m 61 Y s 417 1078 m cl s 417 1017 m -75 Y s 417 942 m cl s 452 1017 m -18 X s 434 1017 m cl s 452 1017 m 18 X s 470 1017 m cl s 452 1017 m
 61 Y s 452 1078 m cl s 452 1017 m -75 Y s 452 942 m cl s 488 1047 m -18 X s 470 1047 m cl s 488 1047 m 18 X s 506 1047 m cl s 488 1047 m 49 Y s 488 1096 m cl s 488 1047 m -57 Y s 488 990 m cl s 524 967 m -18 X s 506 967 m cl s 524 967 m 18 X s 542
 967 m cl s 524 967 m 87 Y s 524 1054 m cl s 524 967 m -127 Y s 524 840 m cl s 560 1084 m -18 X s 542 1084 m cl s 560 1084 m 18 X s 578 1084 m cl s 560 1084 m 37 Y s 560 1121 m cl s 560 1084 m -41 Y s 560 1043 m cl s 596 1047 m -18 X s 578 1047 m cl
 s 596 1047 m 18 X s 614 1047 m cl s 596 1047 m 49 Y s 596 1096 m cl s 596 1047 m -57 Y s 596 990 m cl s 632 1017 m -18 X s 614 1017 m cl s 632 1017 m 17 X s 649 1017 m cl s 632 1017 m 61 Y s 632 1078 m cl s 632 1017 m -75 Y s 632 942 m cl s 667 1047
 m -18 X s 649 1047 m cl s 667 1047 m 18 X s 685 1047 m cl s 667 1047 m 49 Y s 667 1096 m cl s 667 1047 m -57 Y s 667 990 m cl s 703 1017 m -18 X s 685 1017 m cl s 703 1017 m 18 X s 721 1017 m cl s 703 1017 m 61 Y s 703 1078 m cl s 703 1017 m -75 Y s
 703 942 m cl s 739 1084 m -18 X s 721 1084 m cl s 739 1084 m 18 X s 757 1084 m cl s 739 1084 m 37 Y s 739 1121 m cl s 739 1084 m -41 Y s 739 1043 m cl s 775 1047 m -18 X s 757 1047 m cl s 775 1047 m 18 X s 793 1047 m cl s 775 1047 m 49 Y s 775 1096
 m cl s 775 1047 m -57 Y s 775 990 m cl s 811 1017 m -18 X s 793 1017 m cl s 811 1017 m 18 X s 829 1017 m cl s 811 1017 m 61 Y s 811 1078 m cl s 811 1017 m -75 Y s 811 942 m cl s 847 1068 m -18 X s 829 1068 m cl s 847 1068 m 17 X s 864 1068 m cl s
 847 1068 m 42 Y s 847 1110 m cl s 847 1068 m -48 Y s 847 1020 m cl s 882 1108 m -18 X s 864 1108 m cl s 882 1108 m 18 X s 900 1108 m cl s 882 1108 m 31 Y s 882 1139 m cl s 882 1108 m -33 Y s 882 1075 m cl s 918 1047 m -18 X s 900 1047 m cl s 918
 1047 m 18 X s 936 1047 m cl s 918 1047 m 49 Y s 918 1096 m cl s 918 1047 m -57 Y s 918 990 m cl s 954 1084 m -18 X s 936 1084 m cl s 954 1084 m 18 X s 972 1084 m cl s 954 1084 m 37 Y s 954 1121 m cl s 954 1084 m -41 Y s 954 1043 m cl s 990 1097 m
 -18 X s 972 1097 m cl s 990 1097 m 18 X s 1008 1097 m cl s 990 1097 m 34 Y s 990 1131 m cl s 990 1097 m -37 Y s 990 1060 m cl s 1026 1084 m -18 X s 1008 1084 m cl s 1026 1084 m 18 X s 1044 1084 m cl s 1026 1084 m 37 Y s 1026 1121 m cl s 1026 1084 m
 -41 Y s 1026 1043 m cl s 1062 1118 m -18 X s 1044 1118 m cl s 1062 1118 m 17 X s 1079 1118 m cl s 1062 1118 m 29 Y s 1062 1147 m cl s 1062 1118 m -31 Y s 1062 1087 m cl s 1097 1097 m -18 X s 1079 1097 m cl s 1097 1097 m 18 X s 1115 1097 m cl s 1097
 1097 m 34 Y s 1097 1131 m cl s 1097 1097 m -37 Y s 1097 1060 m cl s 1133 1147 m -18 X s 1115 1147 m cl s 1133 1147 m 18 X s 1151 1147 m cl s 1133 1147 m 24 Y s 1133 1171 m cl s 1133 1147 m -24 Y s 1133 1123 m cl s 1169 1147 m -18 X s 1151 1147 m cl
 s 1169 1147 m 18 X s 1187 1147 m cl s 1169 1147 m 24 Y s 1169 1171 m cl s 1169 1147 m -24 Y s 1169 1123 m cl s 1205 1158 m -18 X s 1187 1158 m cl s 1205 1158 m 18 X s 1223 1158 m cl s 1205 1158 m 22 Y s 1205 1180 m cl s 1205 1158 m -22 Y s 1205 1136
 m cl s 1241 1172 m -18 X s 1223 1172 m cl s 1241 1172 m 18 X s 1259 1172 m cl s 1241 1172 m 20 Y s 1241 1192 m cl s 1241 1172 m -19 Y s 1241 1153 m cl s 1276 1177 m -17 X s 1259 1177 m cl s 1276 1177 m 18 X s 1294 1177 m cl s 1276 1177 m 18 Y s 1276
 1195 m cl s 1276 1177 m -20 Y s 1276 1157 m cl s 1312 1209 m -18 X s 1294 1209 m cl s 1312 1209 m 18 X s 1330 1209 m cl s 1312 1209 m 14 Y s 1312 1223 m cl s 1312 1209 m -15 Y s 1312 1194 m cl s 1348 1248 m -18 X s 1330 1248 m cl s 1348 1248 m 18 X
 s 1366 1248 m cl s 1348 1248 m 11 Y s 1348 1259 m cl s 1348 1248 m -12 Y s 1348 1236 m cl s 1384 1256 m -18 X s 1366 1256 m cl s 1384 1256 m 18 X s 1402 1256 m cl s 1384 1256 m 11 Y s 1384 1267 m cl s 1384 1256 m -10 Y s 1384 1246 m cl s 1420 1292 m
 -18 X s 1402 1292 m cl s 1420 1292 m 18 X s 1438 1292 m cl s 1420 1292 m 8 Y s 1420 1300 m cl s 1420 1292 m -9 Y s 1420 1283 m cl s 1456 1305 m -18 X s 1438 1305 m cl s 1456 1305 m 18 X s 1474 1305 m cl s 1456 1305 m 7 Y s 1456 1312 m cl s 1456 1305
 m -7 Y s 1456 1298 m cl s 1491 1335 m -17 X s 1474 1335 m cl s 1491 1335 m 18 X s 1509 1335 m cl s 1491 1335 m 6 Y s 1491 1341 m cl s 1491 1335 m -5 Y s 1491 1330 m cl s 1527 1368 m -18 X s 1509 1368 m cl s 1527 1368 m 18 X s 1545 1368 m cl s 1527
 1368 m 5 Y s 1527 1373 m cl s 1527 1368 m -4 Y s 1527 1364 m cl s 1563 1397 m -18 X s 1545 1397 m cl s 1563 1397 m 18 X s 1581 1397 m cl s 1563 1397 m 4 Y s 1563 1401 m cl s 1563 1397 m -4 Y s 1563 1393 m cl s 1599 1421 m -18 X s 1581 1421 m cl s
 1599 1421 m 18 X s 1617 1421 m cl s 1599 1421 m 3 Y s 1599 1424 m cl s 1599 1421 m -3 Y s 1599 1418 m cl s 1635 1437 m -18 X s 1617 1437 m cl s 1635 1437 m 18 X s 1653 1437 m cl s 1635 1437 m 3 Y s 1635 1440 m cl s 1635 1437 m -3 Y s 1635 1434 m cl
 s 1671 1442 m -18 X s 1653 1442 m cl s 1671 1442 m 18 X s 1689 1442 m cl s 1671 1442 m 3 Y s 1671 1445 m cl s 1671 1442 m -3 Y s 1671 1439 m cl s 1706 1442 m -17 X s 1689 1442 m cl s 1706 1442 m 18 X s 1724 1442 m cl s 1706 1442 m 3 Y s 1706 1445 m
 cl s 1706 1442 m -2 Y s 1706 1440 m cl s 1742 1420 m -18 X s 1724 1420 m cl s 1742 1420 m 18 X s 1760 1420 m cl s 1742 1420 m 3 Y s 1742 1423 m cl s 1742 1420 m -3 Y s 1742 1417 m cl s 1778 1387 m -18 X s 1760 1387 m cl s 1778 1387 m 18 X s 1796
 1387 m cl s 1778 1387 m 4 Y s 1778 1391 m cl s 1778 1387 m -4 Y s 1778 1383 m cl s 1814 1319 m -18 X s 1796 1319 m cl s 1814 1319 m 18 X s 1832 1319 m cl s 1814 1319 m 7 Y s 1814 1326 m cl s 1814 1319 m -6 Y s 1814 1313 m cl s 1850 1272 m -18 X s
 1832 1272 m cl s 1850 1272 m 18 X s 1868 1272 m cl s 1850 1272 m 9 Y s 1850 1281 m cl s 1850 1272 m -10 Y s 1850 1262 m cl s 1886 1225 m -18 X s 1868 1225 m cl s 1886 1225 m 18 X s 1904 1225 m cl s 1886 1225 m 13 Y s 1886 1238 m cl s 1886 1225 m -14
 Y s 1886 1211 m cl s 1921 1134 m -17 X s 1904 1134 m cl s 1921 1134 m 18 X s 1939 1134 m cl s 1921 1134 m 26 Y s 1921 1160 m cl s 1921 1134 m -27 Y s 1921 1107 m cl s 1957 1147 m -18 X s 1939 1147 m cl s 1957 1147 m 18 X s 1975 1147 m cl s 1957 1147
 m 24 Y s 1957 1171 m cl s 1957 1147 m -24 Y s 1957 1123 m cl s 1993 1047 m -18 X s 1975 1047 m cl s 1993 1047 m 18 X s 2011 1047 m cl s 1993 1047 m 49 Y s 1993 1096 m cl s 1993 1047 m -57 Y s 1993 990 m cl s 2029 1097 m -18 X s 2011 1097 m cl s 2029
 1097 m 18 X s 2047 1097 m cl s 2029 1097 m 34 Y s 2029 1131 m cl s 2029 1097 m -37 Y s 2029 1060 m cl s 2065 1068 m -18 X s 2047 1068 m cl s 2065 1068 m 18 X s 2083 1068 m cl s 2065 1068 m 42 Y s 2065 1110 m cl s 2065 1068 m -48 Y s 2065 1020 m cl s
 2101 967 m -18 X s 2083 967 m cl s 2101 967 m 18 X s 2119 967 m cl s 2101 967 m 87 Y s 2101 1054 m cl s 2101 967 m -127 Y s 2101 840 m cl s 2136 967 m -17 X s 2119 967 m cl s 2136 967 m 18 X s 2154 967 m cl s 2136 967 m 87 Y s 2136 1054 m cl s 2136
 967 m -127 Y s 2136 840 m cl s 381 1068 417 1017 452 1017 488 1047 524 967 560 1084 596 1047 632 1017 667 1047 703 1017 739 1084 775 1047 811 1017 847 1068 882 1108 918 1047 954 1084 990 1097 1026 1084 1062 1118 1097 1097 1133 1147 1169 1147 1205
 1158 1241 1172 1276 1177 1312 1209 1348 1248 1384 1256 1420 1292 1456 1305 1491 1335 1527 1368 1563 1397 1599 1421 1635 1437 1671 1442 1706 1442 1742 1420 1778 1387 1814 1319 1850 1272 1886 1225 1921 1134 1957 1147 1993 1047 2029 1097 2065 1068 2101
 967 2136 967 50 { m20} R 0.52 0.76 0.64 c[ 4 8] 0 sd 9 lw black 0.52 0.76 0.64 c 363 1013 m 36 4 d 35 4 d 36 4 d 36 5 d 36 4 d 36 5 d 36 5 d 35 5 d 36 5 d 36 6 d 36 5 d 36 6 d 36 6 d 35 7 d 36 6 d 36 7 d 36 8 d 36 8 d 36 8 d 35 9 d 36 9 d 36 10 d 36
 10 d 36 12 d 36 12 d 35 14 d 36 15 d 36 17 d 36 19 d 18 10 d 18 11 d 18 13 d 18 13 d 9 7 d 8 8 d 9 8 d 9 8 d 9 9 d 9 10 d 5 5 d 4 5 d 5 6 d 4 5 d 9 11 d 9 10 d 18 18 d 18 14 d 9 6 d 9 5 d 9 4 d 4 2 d 5 1 d 4 1 d 5 1 d 4 1 d 5 1 d 18 X 4 -1 d 5 X 4
 -1 d 5 -1 d 4 -2 d 4 -1 d 5 -2 d 4 -2 d 9 -5 d 9 -5 d 36 -31 d 9 -10 d 9 -11 d 9 -12 d 9 -12 d 9 -14 d 9 -14 d 9 -15 d 9 -16 d 9 -17 d 9 -18 d 9 -18 d 9 -20 d 9 -20 d 9 -21 d 18 -45 d 17 -49 d 18 -52 d 36 -115 d 36 -128 d 36 -143 d 1 -6 d s 0.54
 0.66 0.63 c black 0.54 0.66 0.63 c 1006 634 m 2 3 d s 1008 637 m 36 65 d 35 62 d 36 59 d 36 54 d 36 51 d 36 48 d 18 22 d 18 21 d 17 21 d 18 19 d 18 19 d 18 17 d 18 17 d 18 16 d 18 15 d 18 13 d 18 13 d 18 13 d 18 11 d 18 10 d 35 18 d 18 7 d 18 7 d 18
 5 d 18 5 d 9 2 d 9 2 d 9 1 d 9 1 d 9 1 d 9 1 d 9 1 d 36 X 9 -1 d 8 X 9 -1 d 9 -2 d 9 -1 d 9 -2 d 9 -2 d 18 -4 d 18 -6 d 18 -6 d 36 -16 d 18 -9 d 18 -10 d 18 -11 d 18 -12 d 17 -13 d 18 -14 d 18 -14 d 18 -16 d 18 -17 d 18 -17 d 18 -19 d 18 -19 d 18
 -20 d 18 -22 d 36 -45 d 35 -49 d s black[  ] 0 sd 3 lw 363 634 m 1791 X s 363 659 m -25 Y s 401 646 m -12 Y s 440 646 m -12 Y s 478 646 m -12 Y s 517 646 m -12 Y s 555 659 m -25 Y s 594 646 m -12 Y s 633 646 m -12 Y s 671 646 m -12 Y s 710 646 m -12
 Y s 748 659 m -25 Y s 787 646 m -12 Y s 825 646 m -12 Y s 864 646 m -12 Y s 902 646 m -12 Y s 941 659 m -25 Y s 979 646 m -12 Y s 1018 646 m -12 Y s 1056 646 m -12 Y s 1095 646 m -12 Y s 1133 659 m -25 Y s 1172 646 m -12 Y s 1210 646 m -12 Y s 1249
 646 m -12 Y s 1287 646 m -12 Y s 1326 659 m -25 Y s 1365 646 m -12 Y s 1403 646 m -12 Y s 1442 646 m -12 Y s 1480 646 m -12 Y s 1519 659 m -25 Y s 1557 646 m -12 Y s 1596 646 m -12 Y s 1634 646 m -12 Y s 1673 646 m -12 Y s 1711 659 m -25 Y s 1750
 646 m -12 Y s 1788 646 m -12 Y s 1827 646 m -12 Y s 1865 646 m -12 Y s 1904 659 m -25 Y s 1942 646 m -12 Y s 1981 646 m -12 Y s 2019 646 m -12 Y s 2058 646 m -12 Y s 2097 659 m -25 Y s 2097 659 m -25 Y s 2135 646 m -12 Y s 363 1484 m 1791 X s 363
 1459 m 25 Y s 401 1471 m 13 Y s 440 1471 m 13 Y s 478 1471 m 13 Y s 517 1471 m 13 Y s 555 1459 m 25 Y s 594 1471 m 13 Y s 633 1471 m 13 Y s 671 1471 m 13 Y s 710 1471 m 13 Y s 748 1459 m 25 Y s 787 1471 m 13 Y s 825 1471 m 13 Y s 864 1471 m 13 Y s
 902 1471 m 13 Y s 941 1459 m 25 Y s 979 1471 m 13 Y s 1018 1471 m 13 Y s 1056 1471 m 13 Y s 1095 1471 m 13 Y s 1133 1459 m 25 Y s 1172 1471 m 13 Y s 1210 1471 m 13 Y s 1249 1471 m 13 Y s 1287 1471 m 13 Y s 1326 1459 m 25 Y s 1365 1471 m 13 Y s 1403
 1471 m 13 Y s 1442 1471 m 13 Y s 1480 1471 m 13 Y s 1519 1459 m 25 Y s 1557 1471 m 13 Y s 1596 1471 m 13 Y s 1634 1471 m 13 Y s 1673 1471 m 13 Y s 1711 1459 m 25 Y s 1750 1471 m 13 Y s 1788 1471 m 13 Y s 1827 1471 m 13 Y s 1865 1471 m 13 Y s 1904
 1459 m 25 Y s 1942 1471 m 13 Y s 1981 1471 m 13 Y s 2019 1471 m 13 Y s 2058 1471 m 13 Y s 2097 1459 m 25 Y s 2097 1459 m 25 Y s 2135 1471 m 13 Y s 363 634 m 850 Y s 417 634 m -54 X s 390 684 m -27 X s 390 713 m -27 X s 390 734 m -27 X s 390 750 m
 -27 X s 390 763 m -27 X s 390 775 m -27 X s 390 784 m -27 X s 390 793 m -27 X s 417 800 m -54 X s 390 851 m -27 X s 390 880 m -27 X s 390 901 m -27 X s 390 917 m -27 X s 390 930 m -27 X s 390 941 m -27 X s 390 951 m -27 X s 390 960 m -27 X s 417 967
 m -54 X s 390 1017 m -27 X s 390 1047 m -27 X s 390 1068 m -27 X s 390 1084 m -27 X s 390 1097 m -27 X s 390 1108 m -27 X s 390 1118 m -27 X s 390 1126 m -27 X s 417 1134 m -54 X s 390 1184 m -27 X s 390 1214 m -27 X s 390 1234 m -27 X s 390 1251 m
 -27 X s 390 1264 m -27 X s 390 1275 m -27 X s 390 1285 m -27 X s 390 1293 m -27 X s 417 1301 m -54 X s 390 1351 m -27 X s 390 1380 m -27 X s 390 1401 m -27 X s 390 1417 m -27 X s 390 1431 m -27 X s 390 1442 m -27 X s 390 1452 m -27 X s 390 1460 m
 -27 X s 417 1468 m -54 X s 2154 634 m 850 Y s 2101 634 m 53 X s 2127 684 m 27 X s 2127 713 m 27 X s 2127 734 m 27 X s 2127 750 m 27 X s 2127 763 m 27 X s 2127 775 m 27 X s 2127 784 m 27 X s 2127 793 m 27 X s 2101 800 m 53 X s 2127 851 m 27 X s 2127
 880 m 27 X s 2127 901 m 27 X s 2127 917 m 27 X s 2127 930 m 27 X s 2127 941 m 27 X s 2127 951 m 27 X s 2127 960 m 27 X s 2101 967 m 53 X s 2127 1017 m 27 X s 2127 1047 m 27 X s 2127 1068 m 27 X s 2127 1084 m 27 X s 2127 1097 m 27 X s 2127 1108 m 27
 X s 2127 1118 m 27 X s 2127 1126 m 27 X s 2101 1134 m 53 X s 2127 1184 m 27 X s 2127 1214 m 27 X s 2127 1234 m 27 X s 2127 1251 m 27 X s 2127 1264 m 27 X s 2127 1275 m 27 X s 2127 1285 m 27 X s 2127 1293 m 27 X s 2101 1301 m 53 X s 2127 1351 m 27 X
 s 2127 1380 m 27 X s 2127 1401 m 27 X s 2127 1417 m 27 X s 2127 1431 m 27 X s 2127 1442 m 27 X s 2127 1452 m 27 X s 2127 1460 m 27 X s 2101 1468 m 53 X s
 gsave  2268 1077 0 461 C 677.708 1215.31 t 0 r /Helvetica findfont 58.7189 sf 0 0 m (4e) show NC gr  1 1 1 c 453 161 454 1269 bf black
 gsave  2268 1077 0 461 C 566.929 1371.71 t 0 r /Helvetica-Bold findfont 48.9324 sf 0 0 m (MC15) show NC gr  510 1390 m20
 gsave  2268 1077 0 461 C 566.929 1293.51 t 0 r /Helvetica-Bold findfont 48.9324 sf 0 0 m (Projection of Signal pdf) show NC gr  0 0 1 c 9 lw 471 1309 m 79 X s black 3 lw 1 1 1 c 2268 461 0 0 bf black 1 1 1 c 1791 364 363 74 bf black 1791 364 363 74
 bl 363 74 m 1791 X s
 gsave  2268 461 0 0 C 1915.83 13.0329 t 0 r /Helvetica findfont 22.9045 sf 0 0 m (4l Invariant Mass \(GeV\)) show NC gr  363 85 m -11 Y s 401 79 m -5 Y s 440 79 m -5 Y s 478 79 m -5 Y s 517 79 m -5 Y s 555 85 m -11 Y s 594 79 m -5 Y s 633 79 m -5 Y
 s 671 79 m -5 Y s 710 79 m -5 Y s 748 85 m -11 Y s 787 79 m -5 Y s 825 79 m -5 Y s 864 79 m -5 Y s 902 79 m -5 Y s 941 85 m -11 Y s 979 79 m -5 Y s 1018 79 m -5 Y s 1056 79 m -5 Y s 1095 79 m -5 Y s 1133 85 m -11 Y s 1172 79 m -5 Y s 1210 79 m -5 Y
 s 1249 79 m -5 Y s 1287 79 m -5 Y s 1326 85 m -11 Y s 1365 79 m -5 Y s 1403 79 m -5 Y s 1442 79 m -5 Y s 1480 79 m -5 Y s 1519 85 m -11 Y s 1557 79 m -5 Y s 1596 79 m -5 Y s 1634 79 m -5 Y s 1673 79 m -5 Y s 1711 85 m -11 Y s 1750 79 m -5 Y s 1788
 79 m -5 Y s 1827 79 m -5 Y s 1865 79 m -5 Y s 1904 85 m -11 Y s 1942 79 m -5 Y s 1981 79 m -5 Y s 2019 79 m -5 Y s 2058 79 m -5 Y s 2097 85 m -11 Y s 2097 85 m -11 Y s 2135 79 m -5 Y s
 gsave  2268 461 0 0 C 342.112 55.3896 t 0 r /Helvetica findfont 22.9045 sf 0 0 m (230) show NC gr 
 gsave  2268 461 0 0 C 534.347 55.3896 t 0 r /Helvetica findfont 22.9045 sf 0 0 m (240) show NC gr 
 gsave  2268 461 0 0 C 726.582 55.3896 t 0 r /Helvetica findfont 22.9045 sf 0 0 m (250) show NC gr 
 gsave  2268 461 0 0 C 918.816 55.3896 t 0 r /Helvetica findfont 22.9045 sf 0 0 m (260) show NC gr 
 gsave  2268 461 0 0 C 1111.05 55.3896 t 0 r /Helvetica findfont 22.9045 sf 0 0 m (270) show NC gr 
 gsave  2268 461 0 0 C 1303.29 55.3896 t 0 r /Helvetica findfont 22.9045 sf 0 0 m (280) show NC gr 
 gsave  2268 461 0 0 C 1498.78 55.3896 t 0 r /Helvetica findfont 22.9045 sf 0 0 m (290) show NC gr 
 gsave  2268 461 0 0 C 1691.01 55.3896 t 0 r /Helvetica findfont 22.9045 sf 0 0 m (300) show NC gr 
 gsave  2268 461 0 0 C 1883.25 55.3896 t 0 r /Helvetica findfont 22.9045 sf 0 0 m (310) show NC gr 
 gsave  2268 461 0 0 C 2075.48 55.3896 t 0 r /Helvetica findfont 22.9045 sf 0 0 m (320) show NC gr  363 438 m 1791 X s 363 427 m 11 Y s 401 433 m 5 Y s 440 433 m 5 Y s 478 433 m 5 Y s 517 433 m 5 Y s 555 427 m 11 Y s 594 433 m 5 Y s 633 433 m 5 Y s
 671 433 m 5 Y s 710 433 m 5 Y s 748 427 m 11 Y s 787 433 m 5 Y s 825 433 m 5 Y s 864 433 m 5 Y s 902 433 m 5 Y s 941 427 m 11 Y s 979 433 m 5 Y s 1018 433 m 5 Y s 1056 433 m 5 Y s 1095 433 m 5 Y s 1133 427 m 11 Y s 1172 433 m 5 Y s 1210 433 m 5 Y s
 1249 433 m 5 Y s 1287 433 m 5 Y s 1326 427 m 11 Y s 1365 433 m 5 Y s 1403 433 m 5 Y s 1442 433 m 5 Y s 1480 433 m 5 Y s 1519 427 m 11 Y s 1557 433 m 5 Y s 1596 433 m 5 Y s 1634 433 m 5 Y s 1673 433 m 5 Y s 1711 427 m 11 Y s 1750 433 m 5 Y s 1788 433
 m 5 Y s 1827 433 m 5 Y s 1865 433 m 5 Y s 1904 427 m 11 Y s 1942 433 m 5 Y s 1981 433 m 5 Y s 2019 433 m 5 Y s 2058 433 m 5 Y s 2097 427 m 11 Y s 2097 427 m 11 Y s 2135 433 m 5 Y s 363 74 m 364 Y s 417 74 m -54 X s 390 81 m -27 X s 390 88 m -27 X s
 390 96 m -27 X s 390 103 m -27 X s 417 110 m -54 X s 390 118 m -27 X s 390 125 m -27 X s 390 132 m -27 X s 390 139 m -27 X s 417 147 m -54 X s 390 154 m -27 X s 390 161 m -27 X s 390 169 m -27 X s 390 176 m -27 X s 417 183 m -54 X s 390 190 m -27 X
 s 390 198 m -27 X s 390 205 m -27 X s 390 212 m -27 X s 417 220 m -54 X s 390 227 m -27 X s 390 234 m -27 X s 390 241 m -27 X s 390 249 m -27 X s 417 256 m -54 X s 390 263 m -27 X s 390 271 m -27 X s 390 278 m -27 X s 390 285 m -27 X s 417 293 m -54
 X s 390 300 m -27 X s 390 307 m -27 X s 390 314 m -27 X s 390 322 m -27 X s 417 329 m -54 X s 390 336 m -27 X s 390 344 m -27 X s 390 351 m -27 X s 390 358 m -27 X s 417 365 m -54 X s 390 373 m -27 X s 390 380 m -27 X s 390 387 m -27 X s 390 395 m
 -27 X s 417 402 m -54 X s 390 409 m -27 X s 390 416 m -27 X s 390 424 m -27 X s 390 431 m -27 X s 417 438 m -54 X s
 gsave  2268 461 0 0 C 329.08 65.1643 t 0 r /Helvetica findfont 22.9045 sf 0 0 m (\2555) show NC gr 
 gsave  2268 461 0 0 C 329.08 101.005 t 0 r /Helvetica findfont 22.9045 sf 0 0 m (\2554) show NC gr 
 gsave  2268 461 0 0 C 329.08 140.103 t 0 r /Helvetica findfont 22.9045 sf 0 0 m (\2553) show NC gr 
 gsave  2268 461 0 0 C 329.08 175.944 t 0 r /Helvetica findfont 22.9045 sf 0 0 m (\2552) show NC gr 
 gsave  2268 461 0 0 C 332.338 211.784 t 0 r /Helvetica findfont 22.9045 sf 0 0 m (\2551) show NC gr 
 gsave  2268 461 0 0 C 335.596 247.624 t 0 r /Helvetica findfont 22.9045 sf 0 0 m (0) show NC gr 
 gsave  2268 461 0 0 C 338.854 283.465 t 0 r /Helvetica findfont 22.9045 sf 0 0 m (1) show NC gr 
 gsave  2268 461 0 0 C 335.596 319.305 t 0 r /Helvetica findfont 22.9045 sf 0 0 m (2) show NC gr 
 gsave  2268 461 0 0 C 335.596 358.403 t 0 r /Helvetica findfont 22.9045 sf 0 0 m (3) show NC gr 
 gsave  2268 461 0 0 C 335.596 394.244 t 0 r /Helvetica findfont 22.9045 sf 0 0 m (4) show NC gr 
 gsave  2268 461 0 0 C 335.596 430.084 t 0 r /Helvetica findfont 22.9045 sf 0 0 m (5) show NC gr  2154 74 m 364 Y s 2101 74 m 53 X s 2127 81 m 27 X s 2127 88 m 27 X s 2127 96 m 27 X s 2127 103 m 27 X s 2101 110 m 53 X s 2127 118 m 27 X s 2127 125 m
 27 X s 2127 132 m 27 X s 2127 139 m 27 X s 2101 147 m 53 X s 2127 154 m 27 X s 2127 161 m 27 X s 2127 169 m 27 X s 2127 176 m 27 X s 2101 183 m 53 X s 2127 190 m 27 X s 2127 198 m 27 X s 2127 205 m 27 X s 2127 212 m 27 X s 2101 220 m 53 X s 2127 227
 m 27 X s 2127 234 m 27 X s 2127 241 m 27 X s 2127 249 m 27 X s 2101 256 m 53 X s 2127 263 m 27 X s 2127 271 m 27 X s 2127 278 m 27 X s 2127 285 m 27 X s 2101 293 m 53 X s 2127 300 m 27 X s 2127 307 m 27 X s 2127 314 m 27 X s 2127 322 m 27 X s 2101
 329 m 53 X s 2127 336 m 27 X s 2127 344 m 27 X s 2127 351 m 27 X s 2127 358 m 27 X s 2101 365 m 53 X s 2127 373 m 27 X s 2127 380 m 27 X s 2127 387 m 27 X s 2127 395 m 27 X s 2101 402 m 53 X s 2127 409 m 27 X s 2127 416 m 27 X s 2127 424 m 27 X s
 2127 431 m 27 X s 2101 438 m 53 X s 6 lw 0.2 0.8 0.2 c black 3 lw 0.2 0.8 0.2 c 363 256 m 39 Y 36 X -40 Y 35 X -1 Y 36 X 18 Y 36 X -39 Y 36 X 63 Y 36 X -35 Y 36 X -19 Y 35 X 11 Y 36 X -17 Y 36 X 42 Y 36 X -35 Y 36 X -20 Y 36 X 24 Y 35 X 34 Y 36 X
 -59 Y 36 X 19 Y 36 X 4 Y 36 X -20 Y 36 X 23 Y 35 X -34 Y 36 X 46 Y 36 X -17 Y 36 X -4 Y 36 X -2 Y 36 X -26 Y 35 X 27 Y 36 X 57 Y 36 X -38 Y 36 X 63 Y 36 X -39 Y 36 X 30 Y 35 X 22 Y 36 X -70 Y 36 X -66 Y 36 X -15 Y 36 X 15 Y 36 X 132 Y 35 X -12 Y 36
 X 8 Y 36 X -160 Y 36 X 52 Y 36 X 32 Y 36 X -66 Y 35 X 85 Y 36 X -55 Y 36 X 77 Y 72 X -37 Y 36 X 19 Y 35 X -16 Y f 6 lw black 0.2 0.8 0.2 c black 363 295 m 36 X -40 Y 35 X -1 Y 36 X 18 Y 36 X -39 Y 36 X 63 Y 36 X -35 Y 36 X -19 Y 35 X 11 Y 36 X -17 Y
 36 X 42 Y 36 X -35 Y 36 X -20 Y 36 X 24 Y 35 X 34 Y 36 X -59 Y 36 X 19 Y 36 X 4 Y 36 X -20 Y 36 X 23 Y 35 X -34 Y 36 X 46 Y 36 X -17 Y 36 X -4 Y 36 X -2 Y 36 X -26 Y 35 X 27 Y 36 X 57 Y 36 X -38 Y 36 X 63 Y 36 X -39 Y 36 X 30 Y 35 X 22 Y 36 X -70 Y
 36 X -66 Y 36 X -15 Y 36 X 15 Y 36 X 132 Y 35 X -12 Y 36 X 8 Y 36 X -160 Y 36 X 52 Y 36 X 32 Y 36 X -66 Y 35 X 85 Y 36 X -55 Y 36 X 77 Y 72 X -37 Y 36 X 19 Y 35 X s 3 lw 363 74 m 1791 X s 363 85 m -11 Y s 401 79 m -5 Y s 440 79 m -5 Y s 478 79 m -5
 Y s 517 79 m -5 Y s 555 85 m -11 Y s 594 79 m -5 Y s 633 79 m -5 Y s 671 79 m -5 Y s 710 79 m -5 Y s 748 85 m -11 Y s 787 79 m -5 Y s 825 79 m -5 Y s 864 79 m -5 Y s 902 79 m -5 Y s 941 85 m -11 Y s 979 79 m -5 Y s 1018 79 m -5 Y s 1056 79 m -5 Y s
 1095 79 m -5 Y s 1133 85 m -11 Y s 1172 79 m -5 Y s 1210 79 m -5 Y s 1249 79 m -5 Y s 1287 79 m -5 Y s 1326 85 m -11 Y s 1365 79 m -5 Y s 1403 79 m -5 Y s 1442 79 m -5 Y s 1480 79 m -5 Y s 1519 85 m -11 Y s 1557 79 m -5 Y s 1596 79 m -5 Y s 1634 79
 m -5 Y s 1673 79 m -5 Y s 1711 85 m -11 Y s 1750 79 m -5 Y s 1788 79 m -5 Y s 1827 79 m -5 Y s 1865 79 m -5 Y s 1904 85 m -11 Y s 1942 79 m -5 Y s 1981 79 m -5 Y s 2019 79 m -5 Y s 2058 79 m -5 Y s 2097 85 m -11 Y s 2097 85 m -11 Y s 2135 79 m -5 Y
 s 363 438 m 1791 X s 363 427 m 11 Y s 401 433 m 5 Y s 440 433 m 5 Y s 478 433 m 5 Y s 517 433 m 5 Y s 555 427 m 11 Y s 594 433 m 5 Y s 633 433 m 5 Y s 671 433 m 5 Y s 710 433 m 5 Y s 748 427 m 11 Y s 787 433 m 5 Y s 825 433 m 5 Y s 864 433 m 5 Y s
 902 433 m 5 Y s 941 427 m 11 Y s 979 433 m 5 Y s 1018 433 m 5 Y s 1056 433 m 5 Y s 1095 433 m 5 Y s 1133 427 m 11 Y s 1172 433 m 5 Y s 1210 433 m 5 Y s 1249 433 m 5 Y s 1287 433 m 5 Y s 1326 427 m 11 Y s 1365 433 m 5 Y s 1403 433 m 5 Y s 1442 433 m
 5 Y s 1480 433 m 5 Y s 1519 427 m 11 Y s 1557 433 m 5 Y s 1596 433 m 5 Y s 1634 433 m 5 Y s 1673 433 m 5 Y s 1711 427 m 11 Y s 1750 433 m 5 Y s 1788 433 m 5 Y s 1827 433 m 5 Y s 1865 433 m 5 Y s 1904 427 m 11 Y s 1942 433 m 5 Y s 1981 433 m 5 Y s
 2019 433 m 5 Y s 2058 433 m 5 Y s 2097 427 m 11 Y s 2097 427 m 11 Y s 2135 433 m 5 Y s 363 74 m 364 Y s 417 74 m -54 X s 390 81 m -27 X s 390 88 m -27 X s 390 96 m -27 X s 390 103 m -27 X s 417 110 m -54 X s 390 118 m -27 X s 390 125 m -27 X s 390
 132 m -27 X s 390 139 m -27 X s 417 147 m -54 X s 390 154 m -27 X s 390 161 m -27 X s 390 169 m -27 X s 390 176 m -27 X s 417 183 m -54 X s 390 190 m -27 X s 390 198 m -27 X s 390 205 m -27 X s 390 212 m -27 X s 417 220 m -54 X s 390 227 m -27 X s
 390 234 m -27 X s 390 241 m -27 X s 390 249 m -27 X s 417 256 m -54 X s 390 263 m -27 X s 390 271 m -27 X s 390 278 m -27 X s 390 285 m -27 X s 417 293 m -54 X s 390 300 m -27 X s 390 307 m -27 X s 390 314 m -27 X s 390 322 m -27 X s 417 329 m -54 X
 s 390 336 m -27 X s 390 344 m -27 X s 390 351 m -27 X s 390 358 m -27 X s 417 365 m -54 X s 390 373 m -27 X s 390 380 m -27 X s 390 387 m -27 X s 390 395 m -27 X s 417 402 m -54 X s 390 409 m -27 X s 390 416 m -27 X s 390 424 m -27 X s 390 431 m -27
 X s 417 438 m -54 X s 2154 74 m 364 Y s 2101 74 m 53 X s 2127 81 m 27 X s 2127 88 m 27 X s 2127 96 m 27 X s 2127 103 m 27 X s 2101 110 m 53 X s 2127 118 m 27 X s 2127 125 m 27 X s 2127 132 m 27 X s 2127 139 m 27 X s 2101 147 m 53 X s 2127 154 m 27 X
 s 2127 161 m 27 X s 2127 169 m 27 X s 2127 176 m 27 X s 2101 183 m 53 X s 2127 190 m 27 X s 2127 198 m 27 X s 2127 205 m 27 X s 2127 212 m 27 X s 2101 220 m 53 X s 2127 227 m 27 X s 2127 234 m 27 X s 2127 241 m 27 X s 2127 249 m 27 X s 2101 256 m 53
 X s 2127 263 m 27 X s 2127 271 m 27 X s 2127 278 m 27 X s 2127 285 m 27 X s 2101 293 m 53 X s 2127 300 m 27 X s 2127 307 m 27 X s 2127 314 m 27 X s 2127 322 m 27 X s 2101 329 m 53 X s 2127 336 m 27 X s 2127 344 m 27 X s 2127 351 m 27 X s 2127 358 m
 27 X s 2101 365 m 53 X s 2127 373 m 27 X s 2127 380 m 27 X s 2127 387 m 27 X s 2127 395 m 27 X s 2101 402 m 53 X s 2127 409 m 27 X s 2127 416 m 27 X s 2127 424 m 27 X s 2127 431 m 27 X s 2101 438 m 53 X s
 gr  gr showpage
end
%%EOF
