%!PS-Adobe-2.0 EPSF-2.0
%%BoundingBox:  0 0 567 545
%%Title: sigma_s1.eps: canvas
%%Creator: ROOT Version 6.06/02
%%CreationDate: Tue Apr 18 13:33:13 2017
%%DocumentNeededResources: ProcSet (FontSetInit)
%%EndComments
%%BeginProlog
80 dict begin
/s {stroke} def /l {lineto} def /m {moveto} def /t {translate} def
/r {rotate} def /rl {roll}  def /R {repeat} def
/d {rlineto} def /rm {rmoveto} def /gr {grestore} def /f {eofill} def
/c {setrgbcolor} def /black {0 setgray} def /sd {setdash} def
/cl {closepath} def /sf {scalefont setfont} def /lw {setlinewidth} def
/box {m dup 0 exch d exch 0 d 0 exch neg d cl} def
/NC{systemdict begin initclip end}def/C{NC box clip newpath}def
/bl {box s} def /bf {gsave box gsave f grestore 1 lw [] 0 sd s grestore} def /Y { 0 exch d} def /X { 0 d} def 
/K {{pop pop 0 moveto} exch kshow} bind def
/ita {/ang 15 def gsave [1 0 ang dup sin exch cos div 1 0 0] concat} def 
/mp {newpath /y exch def /x exch def} def
/side {[w .77 mul w .23 mul] .385 w mul sd w 0 l currentpoint t -144 r} def
/mr {mp x y w2 0 360 arc} def /m24 {mr s} def /m20 {mr f} def
/mb {mp x y w2 add m w2 neg 0 d 0 w neg d w 0 d 0 w d cl} def
/mt {mp x y w2 add m w2 neg w neg d w 0 d cl} def
/m21 {mb f} def /m25 {mb s} def /m22 {mt f} def /m26{mt s} def
/m23 {mp x y w2 sub m w2 w d w neg 0 d cl f} def
/m27 {mp x y w2 add m w3 neg w2 neg d w3 w2 neg d w3 w2 d cl s} def
/m28 {mp x w2 sub y w2 sub w3 add m w3 0 d  0 w3 neg d w3 0 d 0 w3 d w3 0 d  0 w3 d w3 neg 0 d 0 w3 d w3 neg 0 d 0 w3 neg d w3 neg 0 d cl s } def
/m29 {mp gsave x w2 sub y w2 add w3 sub m currentpoint t 4 {side} repeat cl fill gr} def
/m30 {mp gsave x w2 sub y w2 add w3 sub m currentpoint t 4 {side} repeat cl s gr} def
/m31 {mp x y w2 sub m 0 w d x w2 sub y m w 0 d x w2 sub y w2 add m w w neg d x w2 sub y w2 sub m w w d s} def
/m32 {mp x y w2 sub m w2 w d w neg 0 d cl s} def
/m33 {mp x y w2 add m w3 neg w2 neg d w3 w2 neg d w3 w2 d cl f} def
/m34 {mp x w2 sub y w2 sub w3 add m w3 0 d  0 w3 neg d w3 0 d 0 w3 d w3 0 d  0 w3 d w3 neg 0 d 0 w3 d w3 neg 0 d 0 w3 neg d w3 neg 0 d cl f } def
/m2 {mp x y w2 sub m 0 w d x w2 sub y m w 0 d s} def
/m5 {mp x w2 sub y w2 sub m w w d x w2 sub y w2 add m w w neg d s} def
%%IncludeResource: ProcSet (FontSetInit)
%%IncludeResource: font Times-Roman
%%IncludeResource: font Times-Italic
%%IncludeResource: font Times-Bold
%%IncludeResource: font Times-BoldItalic
%%IncludeResource: font Helvetica
%%IncludeResource: font Helvetica-Oblique
%%IncludeResource: font Helvetica-Bold
%%IncludeResource: font Helvetica-BoldOblique
%%IncludeResource: font Courier
%%IncludeResource: font Courier-Oblique
%%IncludeResource: font Courier-Bold
%%IncludeResource: font Courier-BoldOblique
%%IncludeResource: font Symbol
%%IncludeResource: font ZapfDingbats
/reEncode {exch findfont dup length dict begin {1 index /FID eq  {pop pop} {def} ifelse } forall /Encoding exch def currentdict end dup /FontName get exch definefont pop } def [/Times-Bold /Times-Italic /Times-BoldItalic /Helvetica /Helvetica-Oblique
 /Helvetica-Bold /Helvetica-BoldOblique /Courier /Courier-Oblique /Courier-Bold /Courier-BoldOblique /Times-Roman /AvantGarde-Book /AvantGarde-BookOblique /AvantGarde-Demi /AvantGarde-DemiOblique /Bookman-Demi /Bookman-DemiItalic /Bookman-Light
 /Bookman-LightItalic /Helvetica-Narrow /Helvetica-Narrow-Bold /Helvetica-Narrow-BoldOblique /Helvetica-Narrow-Oblique /NewCenturySchlbk-Roman /NewCenturySchlbk-Bold /NewCenturySchlbk-BoldItalic /NewCenturySchlbk-Italic /Palatino-Bold
 /Palatino-BoldItalic /Palatino-Italic /Palatino-Roman ] {ISOLatin1Encoding reEncode } forall
%%EndProlog
%%BeginSetup
%%EndSetup
newpath  gsave  .25 .25 scale  gsave  0 0 t black[  ] 0 sd 3 lw 1 1 1 c 2268 2180 0 0 bf black 1 1 1 c 1791 1722 363 349 bf black 1791 1722 363 349 bl 1 1 1 c 1791 1722 363 349 bf black 1791 1722 363 349 bl 6 lw 1 1 1 c black 363 349 m 107 X 9 Y 18 X
 8 Y 18 X -5 Y 18 X 28 Y 18 X 19 Y 18 X -11 Y 18 X 16 Y 18 X 86 Y 18 X 14 Y 18 X 79 Y 17 X 133 Y 18 X 10 Y 18 X 133 Y 18 X 102 Y 18 X 155 Y 18 X 57 Y 18 X -24 Y 18 X 267 Y 18 X 81 Y 18 X 83 Y 18 X 105 Y 18 X 34 Y 17 X 97 Y 18 X 62 Y 18 X -57 Y 18 X
 159 Y 18 X -131 Y 18 X 70 Y 18 X -41 Y 18 X -83 Y 18 X 50 Y 18 X -193 Y 18 X 83 Y 18 X -245 Y 17 X 76 Y 18 X -55 Y 18 X -45 Y 18 X -190 Y 18 X 31 Y 18 X -117 Y 18 X -67 Y 18 X -66 Y 18 X -108 Y 18 X 36 Y 18 X -121 Y 17 X -79 Y 18 X -28 Y 18 X 11 Y
 18 X -128 Y 18 X 5 Y 18 X 7 Y 18 X -69 Y 18 X -48 Y 18 X 3 Y 18 X -10 Y 18 X -67 Y 18 X 67 Y 17 X -52 Y 18 X -34 Y 18 X -16 Y 18 X -19 Y 18 X -27 Y 18 X 29 Y 18 X -26 Y 18 X 2 Y 18 X 7 Y 18 X -35 Y 18 X 14 Y 18 X -10 Y 35 X 10 Y 18 X -14 Y 18 X -15
 Y 18 X 10 Y 18 X 7 Y 18 X -10 Y 18 X 3 Y 18 X 2 Y 18 X -7 Y 18 X 2 Y 18 X 3 Y 17 X -10 Y 18 X 5 Y 18 X -7 Y 54 X 2 Y 18 X -2 Y 54 X 2 Y 18 X -2 Y 53 X s 3 lw 1 1 1 c 454 436 1587 1526 bf 1599 1526 m -7 Y 450 X 432 Y -8 X -425 Y f black 1587 1526 m
 436 Y 454 X -436 Y -454 X cl s 1 1 1 c black
 gsave  2268 2180 0 0 C 1611.67 1892.29 t 0 r /Helvetica-Bold findfont 72.0512 sf 0 0 m (h_sigma_s1) show NC gr  1587 1853 m 454 X s
 gsave  2268 2180 0 0 C 1607.88 1778.53 t 0 r /Helvetica-Bold findfont 53.0904 sf 0 0 m (Entries ) show NC gr 
 gsave  2268 2180 0 0 C 1854.37 1778.53 t 0 r /Helvetica-Bold findfont 53.0904 sf 0 0 m ( 17930) show NC gr 
 gsave  2268 2180 0 0 C 1607.88 1668.55 t 0 r /Helvetica-Bold findfont 53.0904 sf 0 0 m (Mean  ) show NC gr 
 gsave  2268 2180 0 0 C 1869.54 1668.55 t 0 r /Helvetica-Bold findfont 53.0904 sf 0 0 m (   2.43) show NC gr 
 gsave  2268 2180 0 0 C 1607.88 1558.58 t 0 r /Helvetica-Bold findfont 53.0904 sf 0 0 m (Std Dev   ) show NC gr 
 gsave  2268 2180 0 0 C 1839.2 1558.58 t 0 r /Helvetica-Bold findfont 53.0904 sf 0 0 m ( 0.4626) show NC gr  363 349 m 1791 X s
 gsave  2268 2180 0 0 C 1384.14 75.8434 t 0 r /Helvetica findfont 102.389 sf 0 0 m (local significance) show NC gr  363 401 m -52 Y s 408 375 m -26 Y s 452 375 m -26 Y s 497 375 m -26 Y s 542 375 m -26 Y s 587 401 m -52 Y s 632 375 m -26 Y s 676 375
 m -26 Y s 721 375 m -26 Y s 766 375 m -26 Y s 811 401 m -52 Y s 855 375 m -26 Y s 900 375 m -26 Y s 945 375 m -26 Y s 990 375 m -26 Y s 1035 401 m -52 Y s 1079 375 m -26 Y s 1124 375 m -26 Y s 1169 375 m -26 Y s 1214 375 m -26 Y s 1259 401 m -52 Y s
 1303 375 m -26 Y s 1348 375 m -26 Y s 1393 375 m -26 Y s 1438 375 m -26 Y s 1483 401 m -52 Y s 1527 375 m -26 Y s 1572 375 m -26 Y s 1617 375 m -26 Y s 1662 375 m -26 Y s 1706 401 m -52 Y s 1751 375 m -26 Y s 1796 375 m -26 Y s 1841 375 m -26 Y s
 1886 375 m -26 Y s 1930 401 m -52 Y s 1975 375 m -26 Y s 2020 375 m -26 Y s 2065 375 m -26 Y s 2110 375 m -26 Y s 2154 401 m -52 Y s
 gsave  2268 2180 0 0 C 341.295 254.075 t 0 r /Helvetica findfont 102.389 sf 0 0 m (1) show NC gr 
 gsave  2268 2180 0 0 C 511.943 254.075 t 0 r /Helvetica findfont 102.389 sf 0 0 m (1.5) show NC gr 
 gsave  2268 2180 0 0 C 781.187 254.075 t 0 r /Helvetica findfont 102.389 sf 0 0 m (2) show NC gr 
 gsave  2268 2180 0 0 C 959.419 254.075 t 0 r /Helvetica findfont 102.389 sf 0 0 m (2.5) show NC gr 
 gsave  2268 2180 0 0 C 1228.66 254.075 t 0 r /Helvetica findfont 102.389 sf 0 0 m (3) show NC gr 
 gsave  2268 2180 0 0 C 1406.89 254.075 t 0 r /Helvetica findfont 102.389 sf 0 0 m (3.5) show NC gr 
 gsave  2268 2180 0 0 C 1672.35 254.075 t 0 r /Helvetica findfont 102.389 sf 0 0 m (4) show NC gr 
 gsave  2268 2180 0 0 C 1858.16 254.075 t 0 r /Helvetica findfont 102.389 sf 0 0 m (4.5) show NC gr 
 gsave  2268 2180 0 0 C 2127.41 254.075 t 0 r /Helvetica findfont 102.389 sf 0 0 m (5) show NC gr  363 2071 m 1791 X s 363 2020 m 51 Y s 408 2046 m 25 Y s 452 2046 m 25 Y s 497 2046 m 25 Y s 542 2046 m 25 Y s 587 2020 m 51 Y s 632 2046 m 25 Y s 676
 2046 m 25 Y s 721 2046 m 25 Y s 766 2046 m 25 Y s 811 2020 m 51 Y s 855 2046 m 25 Y s 900 2046 m 25 Y s 945 2046 m 25 Y s 990 2046 m 25 Y s 1035 2020 m 51 Y s 1079 2046 m 25 Y s 1124 2046 m 25 Y s 1169 2046 m 25 Y s 1214 2046 m 25 Y s 1259 2020 m 51
 Y s 1303 2046 m 25 Y s 1348 2046 m 25 Y s 1393 2046 m 25 Y s 1438 2046 m 25 Y s 1483 2020 m 51 Y s 1527 2046 m 25 Y s 1572 2046 m 25 Y s 1617 2046 m 25 Y s 1662 2046 m 25 Y s 1706 2020 m 51 Y s 1751 2046 m 25 Y s 1796 2046 m 25 Y s 1841 2046 m 25 Y
 s 1886 2046 m 25 Y s 1930 2020 m 51 Y s 1975 2046 m 25 Y s 2020 2046 m 25 Y s 2065 2046 m 25 Y s 2110 2046 m 25 Y s 2154 2020 m 51 Y s 363 349 m 1722 Y s 417 349 m -54 X s 390 397 m -27 X s 390 444 m -27 X s 390 492 m -27 X s 390 539 m -27 X s 417
 587 m -54 X s 390 635 m -27 X s 390 682 m -27 X s 390 730 m -27 X s 390 777 m -27 X s 417 825 m -54 X s 390 873 m -27 X s 390 920 m -27 X s 390 968 m -27 X s 390 1016 m -27 X s 417 1063 m -54 X s 390 1111 m -27 X s 390 1158 m -27 X s 390 1206 m -27
 X s 390 1254 m -27 X s 417 1301 m -54 X s 390 1349 m -27 X s 390 1397 m -27 X s 390 1444 m -27 X s 390 1492 m -27 X s 417 1539 m -54 X s 390 1587 m -27 X s 390 1635 m -27 X s 390 1682 m -27 X s 390 1730 m -27 X s 417 1778 m -54 X s 390 1825 m -27 X
 s 390 1873 m -27 X s 390 1920 m -27 X s 390 1968 m -27 X s 417 2016 m -54 X s 417 2016 m -54 X s 390 2063 m -27 X s
 gsave  2268 2180 0 0 C 295.789 310.958 t 0 r /Helvetica findfont 102.389 sf 0 0 m (0) show NC gr 
 gsave  2268 2180 0 0 C 182.024 549.864 t 0 r /Helvetica findfont 102.389 sf 0 0 m (100) show NC gr 
 gsave  2268 2180 0 0 C 182.024 788.771 t 0 r /Helvetica findfont 102.389 sf 0 0 m (200) show NC gr 
 gsave  2268 2180 0 0 C 182.024 1027.68 t 0 r /Helvetica findfont 102.389 sf 0 0 m (300) show NC gr 
 gsave  2268 2180 0 0 C 182.024 1266.58 t 0 r /Helvetica findfont 102.389 sf 0 0 m (400) show NC gr 
 gsave  2268 2180 0 0 C 182.024 1501.7 t 0 r /Helvetica findfont 102.389 sf 0 0 m (500) show NC gr 
 gsave  2268 2180 0 0 C 182.024 1740.61 t 0 r /Helvetica findfont 102.389 sf 0 0 m (600) show NC gr 
 gsave  2268 2180 0 0 C 182.024 1979.51 t 0 r /Helvetica findfont 102.389 sf 0 0 m (700) show NC gr  2154 349 m 1722 Y s 2101 349 m 53 X s 2127 397 m 27 X s 2127 444 m 27 X s 2127 492 m 27 X s 2127 539 m 27 X s 2101 587 m 53 X s 2127 635 m 27 X s
 2127 682 m 27 X s 2127 730 m 27 X s 2127 777 m 27 X s 2101 825 m 53 X s 2127 873 m 27 X s 2127 920 m 27 X s 2127 968 m 27 X s 2127 1016 m 27 X s 2101 1063 m 53 X s 2127 1111 m 27 X s 2127 1158 m 27 X s 2127 1206 m 27 X s 2127 1254 m 27 X s 2101 1301
 m 53 X s 2127 1349 m 27 X s 2127 1397 m 27 X s 2127 1444 m 27 X s 2127 1492 m 27 X s 2101 1539 m 53 X s 2127 1587 m 27 X s 2127 1635 m 27 X s 2127 1682 m 27 X s 2127 1730 m 27 X s 2101 1778 m 53 X s 2127 1825 m 27 X s 2127 1873 m 27 X s 2127 1920 m
 27 X s 2127 1968 m 27 X s 2101 2016 m 53 X s 2101 2016 m 53 X s 2127 2063 m 27 X s 1 1 1 c 454 436 1587 1526 bf 1599 1526 m -7 Y 450 X 432 Y -8 X -425 Y f black 1587 1526 m 436 Y 454 X -436 Y -454 X cl s 1 1 1 c black
 gsave  2268 2180 0 0 C 1596.5 1899.88 t 0 r /Helvetica-Bold findfont 37.9217 sf 0 0 m (most significant excess) show NC gr  1587 1853 m 454 X s
 gsave  2268 2180 0 0 C 1607.88 1778.53 t 0 r /Helvetica-Bold findfont 53.0904 sf 0 0 m (Entries ) show NC gr 
 gsave  2268 2180 0 0 C 1854.37 1778.53 t 0 r /Helvetica-Bold findfont 53.0904 sf 0 0 m ( 17930) show NC gr 
 gsave  2268 2180 0 0 C 1607.88 1668.55 t 0 r /Helvetica-Bold findfont 53.0904 sf 0 0 m (Mean  ) show NC gr 
 gsave  2268 2180 0 0 C 1869.54 1668.55 t 0 r /Helvetica-Bold findfont 53.0904 sf 0 0 m (   2.43) show NC gr 
 gsave  2268 2180 0 0 C 1607.88 1558.58 t 0 r /Helvetica-Bold findfont 53.0904 sf 0 0 m (Std Dev   ) show NC gr 
 gsave  2268 2180 0 0 C 1839.2 1558.58 t 0 r /Helvetica-Bold findfont 53.0904 sf 0 0 m ( 0.4626) show NC gr 
 gr  gr showpage
end
%%EOF
