%!PS-Adobe-2.0 EPSF-2.0
%%BoundingBox:  0 0 567 544
%%Title: p0_categories.eps: canvas
%%Creator: ROOT Version 6.04/02
%%CreationDate: Thu Mar 16 14:31:35 2017
%%DocumentNeededResources: ProcSet (FontSetInit)
%%EndComments
%%BeginProlog
80 dict begin
/s {stroke} def /l {lineto} def /m {moveto} def /t {translate} def
/r {rotate} def /rl {roll}  def /R {repeat} def
/d {rlineto} def /rm {rmoveto} def /gr {grestore} def /f {eofill} def
/c {setrgbcolor} def /black {0 setgray} def /sd {setdash} def
/cl {closepath} def /sf {scalefont setfont} def /lw {setlinewidth} def
/box {m dup 0 exch d exch 0 d 0 exch neg d cl} def
/NC{systemdict begin initclip end}def/C{NC box clip newpath}def
/bl {box s} def /bf {gsave box gsave f grestore 1 lw [] 0 sd s grestore} def /Y { 0 exch d} def /X { 0 d} def 
/K {{pop pop 0 moveto} exch kshow} bind def
/ita {/ang 15 def gsave [1 0 ang dup sin exch cos div 1 0 0] concat} def 
/mp {newpath /y exch def /x exch def} def
/side {[w .77 mul w .23 mul] .385 w mul sd w 0 l currentpoint t -144 r} def
/mr {mp x y w2 0 360 arc} def /m24 {mr s} def /m20 {mr f} def
/mb {mp x y w2 add m w2 neg 0 d 0 w neg d w 0 d 0 w d cl} def
/mt {mp x y w2 add m w2 neg w neg d w 0 d cl} def
/m21 {mb f} def /m25 {mb s} def /m22 {mt f} def /m26{mt s} def
/m23 {mp x y w2 sub m w2 w d w neg 0 d cl f} def
/m27 {mp x y w2 add m w3 neg w2 neg d w3 w2 neg d w3 w2 d cl s} def
/m28 {mp x w2 sub y w2 sub w3 add m w3 0 d  0 w3 neg d w3 0 d 0 w3 d w3 0 d  0 w3 d w3 neg 0 d 0 w3 d w3 neg 0 d 0 w3 neg d w3 neg 0 d cl s } def
/m29 {mp gsave x w2 sub y w2 add w3 sub m currentpoint t 4 {side} repeat cl fill gr} def
/m30 {mp gsave x w2 sub y w2 add w3 sub m currentpoint t 4 {side} repeat cl s gr} def
/m31 {mp x y w2 sub m 0 w d x w2 sub y m w 0 d x w2 sub y w2 add m w w neg d x w2 sub y w2 sub m w w d s} def
/m32 {mp x y w2 sub m w2 w d w neg 0 d cl s} def
/m33 {mp x y w2 add m w3 neg w2 neg d w3 w2 neg d w3 w2 d cl f} def
/m34 {mp x w2 sub y w2 sub w3 add m w3 0 d  0 w3 neg d w3 0 d 0 w3 d w3 0 d  0 w3 d w3 neg 0 d 0 w3 d w3 neg 0 d 0 w3 neg d w3 neg 0 d cl f } def
/m2 {mp x y w2 sub m 0 w d x w2 sub y m w 0 d s} def
/m5 {mp x w2 sub y w2 sub m w w d x w2 sub y w2 add m w w neg d s} def
%%IncludeResource: ProcSet (FontSetInit)
%%IncludeResource: font Times-Roman
%%IncludeResource: font Times-Italic
%%IncludeResource: font Times-Bold
%%IncludeResource: font Times-BoldItalic
%%IncludeResource: font Helvetica
%%IncludeResource: font Helvetica-Oblique
%%IncludeResource: font Helvetica-Bold
%%IncludeResource: font Helvetica-BoldOblique
%%IncludeResource: font Courier
%%IncludeResource: font Courier-Oblique
%%IncludeResource: font Courier-Bold
%%IncludeResource: font Courier-BoldOblique
%%IncludeResource: font Symbol
%%IncludeResource: font ZapfDingbats
/reEncode {exch findfont dup length dict begin {1 index /FID eq  {pop pop} {def} ifelse } forall /Encoding exch def currentdict end dup /FontName get exch definefont pop } def [/Times-Bold /Times-Italic /Times-BoldItalic /Helvetica /Helvetica-Oblique
 /Helvetica-Bold /Helvetica-BoldOblique /Courier /Courier-Oblique /Courier-Bold /Courier-BoldOblique /Times-Roman /AvantGarde-Book /AvantGarde-BookOblique /AvantGarde-Demi /AvantGarde-DemiOblique /Bookman-Demi /Bookman-DemiItalic /Bookman-Light
 /Bookman-LightItalic /Helvetica-Narrow /Helvetica-Narrow-Bold /Helvetica-Narrow-BoldOblique /Helvetica-Narrow-Oblique /NewCenturySchlbk-Roman /NewCenturySchlbk-Bold /NewCenturySchlbk-BoldItalic /NewCenturySchlbk-Italic /Palatino-Bold
 /Palatino-BoldItalic /Palatino-Italic /Palatino-Roman ] {ISOLatin1Encoding reEncode } forall
%%EndProlog
%%BeginSetup
%%EndSetup
newpath  gsave  .25 .25 scale  gsave  0 0 t black[  ] 0 sd 3 lw 1 1 1 c 2268 2176 0 0 bf black 1 1 1 c 1791 1720 363 348 bf black 1791 1720 363 348 bl 6 lw 1 1 1 c black 363 348 m 1791 X s 3 lw 363 348 m 1791 X s
 gsave  2268 2176 0 0 C 1868.2 83.7077 t 0 r /Helvetica findfont 102.732 sf 0 0 m ( [GeV]) show NC gr 
 gsave  2268 2176 0 0 C 1822.54 49.4636 t 0 r /Helvetica findfont 68.4881 sf 0 0 m (S) show NC gr 
 gsave  2268 2176 0 0 C 1742.64 83.7077 t 0 r /Helvetica findfont 102.732 sf 0 0 m (m) show NC gr  363 400 m -52 Y s 399 374 m -26 Y s 434 374 m -26 Y s 470 374 m -26 Y s 506 374 m -26 Y s 542 400 m -52 Y s 578 374 m -26 Y s 614 374 m -26 Y s 649 374
 m -26 Y s 685 374 m -26 Y s 721 400 m -52 Y s 757 374 m -26 Y s 793 374 m -26 Y s 829 374 m -26 Y s 864 374 m -26 Y s 900 400 m -52 Y s 936 374 m -26 Y s 972 374 m -26 Y s 1008 374 m -26 Y s 1044 374 m -26 Y s 1079 400 m -52 Y s 1115 374 m -26 Y s
 1151 374 m -26 Y s 1187 374 m -26 Y s 1223 374 m -26 Y s 1259 400 m -52 Y s 1294 374 m -26 Y s 1330 374 m -26 Y s 1366 374 m -26 Y s 1402 374 m -26 Y s 1438 400 m -52 Y s 1474 374 m -26 Y s 1509 374 m -26 Y s 1545 374 m -26 Y s 1581 374 m -26 Y s
 1617 400 m -52 Y s 1653 374 m -26 Y s 1689 374 m -26 Y s 1724 374 m -26 Y s 1760 374 m -26 Y s 1796 400 m -52 Y s 1832 374 m -26 Y s 1868 374 m -26 Y s 1904 374 m -26 Y s 1939 374 m -26 Y s 1975 400 m -52 Y s 2011 374 m -26 Y s 2047 374 m -26 Y s
 2083 374 m -26 Y s 2119 374 m -26 Y s 2154 400 m -52 Y s
 gsave  2268 2176 0 0 C 304.391 281.562 t 0 r /Helvetica findfont 68.4881 sf 0 0 m (200) show NC gr 
 gsave  2268 2176 0 0 C 483.221 281.562 t 0 r /Helvetica findfont 68.4881 sf 0 0 m (300) show NC gr 
 gsave  2268 2176 0 0 C 662.051 281.562 t 0 r /Helvetica findfont 68.4881 sf 0 0 m (400) show NC gr 
 gsave  2268 2176 0 0 C 840.881 281.562 t 0 r /Helvetica findfont 68.4881 sf 0 0 m (500) show NC gr 
 gsave  2268 2176 0 0 C 1019.71 281.562 t 0 r /Helvetica findfont 68.4881 sf 0 0 m (600) show NC gr 
 gsave  2268 2176 0 0 C 1198.54 281.562 t 0 r /Helvetica findfont 68.4881 sf 0 0 m (700) show NC gr 
 gsave  2268 2176 0 0 C 1377.37 281.562 t 0 r /Helvetica findfont 68.4881 sf 0 0 m (800) show NC gr 
 gsave  2268 2176 0 0 C 1556.2 281.562 t 0 r /Helvetica findfont 68.4881 sf 0 0 m (900) show NC gr 
 gsave  2268 2176 0 0 C 1719.81 281.562 t 0 r /Helvetica findfont 68.4881 sf 0 0 m (1000) show NC gr 
 gsave  2268 2176 0 0 C 1898.64 281.562 t 0 r /Helvetica findfont 68.4881 sf 0 0 m (1100) show NC gr 
 gsave  2268 2176 0 0 C 2077.47 281.562 t 0 r /Helvetica findfont 68.4881 sf 0 0 m (1200) show NC gr  363 2068 m 1791 X s 363 2016 m 52 Y s 399 2042 m 26 Y s 434 2042 m 26 Y s 470 2042 m 26 Y s 506 2042 m 26 Y s 542 2016 m 52 Y s 578 2042 m 26 Y s
 614 2042 m 26 Y s 649 2042 m 26 Y s 685 2042 m 26 Y s 721 2016 m 52 Y s 757 2042 m 26 Y s 793 2042 m 26 Y s 829 2042 m 26 Y s 864 2042 m 26 Y s 900 2016 m 52 Y s 936 2042 m 26 Y s 972 2042 m 26 Y s 1008 2042 m 26 Y s 1044 2042 m 26 Y s 1079 2016 m
 52 Y s 1115 2042 m 26 Y s 1151 2042 m 26 Y s 1187 2042 m 26 Y s 1223 2042 m 26 Y s 1259 2016 m 52 Y s 1294 2042 m 26 Y s 1330 2042 m 26 Y s 1366 2042 m 26 Y s 1402 2042 m 26 Y s 1438 2016 m 52 Y s 1474 2042 m 26 Y s 1509 2042 m 26 Y s 1545 2042 m 26
 Y s 1581 2042 m 26 Y s 1617 2016 m 52 Y s 1653 2042 m 26 Y s 1689 2042 m 26 Y s 1724 2042 m 26 Y s 1760 2042 m 26 Y s 1796 2016 m 52 Y s 1832 2042 m 26 Y s 1868 2042 m 26 Y s 1904 2042 m 26 Y s 1939 2042 m 26 Y s 1975 2016 m 52 Y s 2011 2042 m 26 Y
 s 2047 2042 m 26 Y s 2083 2042 m 26 Y s 2119 2042 m 26 Y s 2154 2016 m 52 Y s 363 348 m 1720 Y s
 gsave  2268 2176 0 0 C 171.22 2031.81 t 90 r /Helvetica findfont 68.4881 sf 0 0 m (0) show NC gr 
 gsave  2268 2176 0 0 C 117.952 1700.79 t 90 r /Helvetica findfont 102.732 sf 0 0 m (Local p) show NC gr  417 348 m -54 X s
 gsave  2268 2176 0 0 C 300.587 350.05 t 0 r /Helvetica findfont 68.4881 sf 0 0 m (5) show NC gr 
 gsave  2268 2176 0 0 C 262.538 350.05 t 0 r /Symbol findfont 68.4881 sf 0 0 m (-) show NC gr 
 gsave  2268 2176 0 0 C 152.196 300.587 t 0 r /Helvetica findfont 102.732 sf 0 0 m (10) show NC gr  390 450 m -27 X s 390 510 m -27 X s 390 552 m -27 X s 390 585 m -27 X s 390 612 m -27 X s 390 634 m -27 X s 390 654 m -27 X s 390 671 m -27 X s 417
 687 m -54 X s
 gsave  2268 2176 0 0 C 300.587 684.881 t 0 r /Helvetica findfont 68.4881 sf 0 0 m (4) show NC gr 
 gsave  2268 2176 0 0 C 262.538 684.881 t 0 r /Symbol findfont 68.4881 sf 0 0 m (-) show NC gr 
 gsave  2268 2176 0 0 C 152.196 639.222 t 0 r /Helvetica findfont 102.732 sf 0 0 m (10) show NC gr  390 789 m -27 X s 390 848 m -27 X s 390 891 m -27 X s 390 923 m -27 X s 390 950 m -27 X s 390 973 m -27 X s 390 992 m -27 X s 390 1010 m -27 X s 417
 1025 m -54 X s
 gsave  2268 2176 0 0 C 300.587 1027.32 t 0 r /Helvetica findfont 68.4881 sf 0 0 m (3) show NC gr 
 gsave  2268 2176 0 0 C 262.538 1027.32 t 0 r /Symbol findfont 68.4881 sf 0 0 m (-) show NC gr 
 gsave  2268 2176 0 0 C 152.196 977.858 t 0 r /Helvetica findfont 102.732 sf 0 0 m (10) show NC gr  390 1127 m -27 X s 390 1187 m -27 X s 390 1229 m -27 X s 390 1262 m -27 X s 390 1289 m -27 X s 390 1311 m -27 X s 390 1331 m -27 X s 390 1348 m -27 X
 s 417 1364 m -54 X s
 gsave  2268 2176 0 0 C 300.587 1362.15 t 0 r /Helvetica findfont 68.4881 sf 0 0 m (2) show NC gr 
 gsave  2268 2176 0 0 C 262.538 1362.15 t 0 r /Symbol findfont 68.4881 sf 0 0 m (-) show NC gr 
 gsave  2268 2176 0 0 C 152.196 1316.49 t 0 r /Helvetica findfont 102.732 sf 0 0 m (10) show NC gr  390 1466 m -27 X s 390 1525 m -27 X s 390 1568 m -27 X s 390 1600 m -27 X s 390 1627 m -27 X s 390 1650 m -27 X s 390 1669 m -27 X s 390 1687 m -27 X
 s 417 1702 m -54 X s
 gsave  2268 2176 0 0 C 312.001 1700.79 t 0 r /Helvetica findfont 68.4881 sf 0 0 m (1) show NC gr 
 gsave  2268 2176 0 0 C 273.952 1700.79 t 0 r /Symbol findfont 68.4881 sf 0 0 m (-) show NC gr 
 gsave  2268 2176 0 0 C 163.61 1655.13 t 0 r /Helvetica findfont 102.732 sf 0 0 m (10) show NC gr  390 1804 m -27 X s 390 1864 m -27 X s 390 1906 m -27 X s 390 1939 m -27 X s 390 1966 m -27 X s 390 1988 m -27 X s 390 2008 m -27 X s 390 2025 m -27 X s
 417 2041 m -54 X s
 gsave  2268 2176 0 0 C 342.425 1998.16 t 0 r  -56 0 t /Helvetica findfont 102.732 sf 0 0 m (1) show NC gr  2154 348 m 1720 Y s 2101 348 m 53 X s 2127 450 m 27 X s 2127 510 m 27 X s 2127 552 m 27 X s 2127 585 m 27 X s 2127 612 m 27 X s 2127 634 m 27
 X s 2127 654 m 27 X s 2127 671 m 27 X s 2101 687 m 53 X s 2127 789 m 27 X s 2127 848 m 27 X s 2127 891 m 27 X s 2127 923 m 27 X s 2127 950 m 27 X s 2127 973 m 27 X s 2127 992 m 27 X s 2127 1010 m 27 X s 2101 1025 m 53 X s 2127 1127 m 27 X s 2127
 1187 m 27 X s 2127 1229 m 27 X s 2127 1262 m 27 X s 2127 1289 m 27 X s 2127 1311 m 27 X s 2127 1331 m 27 X s 2127 1348 m 27 X s 2101 1364 m 53 X s 2127 1466 m 27 X s 2127 1525 m 27 X s 2127 1568 m 27 X s 2127 1600 m 27 X s 2127 1627 m 27 X s 2127
 1650 m 27 X s 2127 1669 m 27 X s 2127 1687 m 27 X s 2101 1702 m 53 X s 2127 1804 m 27 X s 2127 1864 m 27 X s 2127 1906 m 27 X s 2127 1939 m 27 X s 2127 1966 m 27 X s 2127 1988 m 27 X s 2127 2008 m 27 X s 2127 2025 m 27 X s 2101 2041 m 53 X s 0.754
 0.715 0.676 c[  12 12 ] 0 sd 6 lw 363 1832 m 1791 X s 363 1770 m 1791 X s 363 1485 m 1791 X s 363 1069 m 1791 X s 363 518 m 1791 X s 0.8 0.8 0.8 c black 0.8 0.8 0.8 c
 gsave  2268 2176 0 0 C 2184.01 1742.64 t 0 r /Symbol findfont 79.9028 sf 0 0 m (s) show NC gr  black 0.8 0.8 0.8 c
 gsave  2268 2176 0 0 C 2153.57 1742.64 t 0 r /Helvetica findfont 79.9028 sf 0 0 m (1) show NC gr  black 0.8 0.8 0.8 c
 gsave  2268 2176 0 0 C 2195.42 1457.27 t 0 r /Symbol findfont 79.9028 sf 0 0 m (s) show NC gr  black 0.8 0.8 0.8 c
 gsave  2268 2176 0 0 C 2153.57 1457.27 t 0 r /Helvetica findfont 79.9028 sf 0 0 m (2) show NC gr  black 0.8 0.8 0.8 c
 gsave  2268 2176 0 0 C 2195.42 1042.54 t 0 r /Symbol findfont 79.9028 sf 0 0 m (s) show NC gr  black 0.8 0.8 0.8 c
 gsave  2268 2176 0 0 C 2153.57 1042.54 t 0 r /Helvetica findfont 79.9028 sf 0 0 m (3) show NC gr  black 0.8 0.8 0.8 c
 gsave  2268 2176 0 0 C 2195.42 490.831 t 0 r /Symbol findfont 79.9028 sf 0 0 m (s) show NC gr  black 0.8 0.8 0.8 c
 gsave  2268 2176 0 0 C 2153.57 490.831 t 0 r /Helvetica findfont 79.9028 sf 0 0 m (4) show NC gr  black[  ] 0 sd 363 1899 m 3 -358 d 4 -206 d 4 254 d 3 276 d 4 74 d 21 X 4 -55 d 3 -34 d 4 32 d 4 -48 d 3 -131 d 4 -237 d 3 -228 d 4 -164 d 3 -167 d 4
 -113 d 4 172 d 3 362 d 4 350 d 3 227 d 4 34 d 7 X 4 -22 d 3 -63 d 4 -31 d 3 6 d 4 39 d 4 66 d 3 5 d 15 X 3 -19 d 4 -27 d 3 36 d 4 10 d 165 X 3 -1 d 4 -186 d 3 -224 d 4 -118 d 4 40 d 3 143 d 4 157 d 3 111 d 4 47 d 4 -8 d 3 -38 d 4 -36 d 3 -3 d 4 37 d
 3 50 d 4 29 d 7 X 4 -5 d 3 -10 d 4 -5 d 4 5 d 3 12 d 4 3 d 46 X 4 -5 d 3 5 d 11 X 4 -39 d 3 -65 d 4 -52 d 4 -19 d 3 15 d 4 38 d 3 41 d 4 40 d 3 24 d 4 1 d 4 -11 d 3 5 d 4 22 d 43 X 3 -16 d 4 -5 d 4 5 d 3 2 d 4 -9 d 3 -11 d 4 -8 d 3 -2 d 4 10 d 4 20
 d 3 14 d 25 X 4 -15 d 3 -33 d 4 -12 d 4 14 d 3 35 d 4 11 d 21 X 4 -6 d 3 -18 d 4 -7 d 4 5 d 3 13 d 4 9 d 3 -10 d 4 -37 d 4 -52 d 3 -53 d 4 -44 d 3 -26 d 4 -4 d 3 13 d 4 19 d 4 31 d 3 44 d 4 48 d 3 39 d 4 25 d 4 11 d 14 X 3 -4 d 4 -25 d 4 -31 d 3 -33
 d 4 -32 d 3 -31 d 4 -28 d 4 -26 d 3 -28 d 4 -38 d 3 -51 d 4 -57 d 3 -52 d 4 -34 d 4 -15 d 3 10 d 4 33 d 3 52 d 4 49 d 4 32 d 3 19 d 4 7 d 3 -5 d 4 -16 d 3 -23 d 4 -24 d 4 -17 d 3 -6 d 4 8 d 3 17 d 4 20 d 4 16 d 3 6 d 4 -17 d 3 -49 d 4 -91 d 3 -134 d
 4 -162 d 4 -165 d 3 -143 d 4 -101 d 3 -47 d 4 13 d 3 71 d 4 119 d 4 134 d 3 131 d 4 117 d 3 109 d 4 97 d 4 84 d 3 66 d 4 50 d 3 32 d 4 20 d 3 13 d 4 12 d 4 12 d 3 13 d 4 15 d 3 17 d 4 19 d 4 19 d 3 18 d 4 16 d 3 11 d 4 4 d 3 1 d 4 -1 d 4 -2 d 3 -5 d
 4 -7 d 3 -11 d 4 -12 d 4 -10 d 3 -6 d 4 1 d 3 9 d 4 15 d 3 21 d 4 11 d 18 X 4 -17 d 3 -14 d 4 -8 d 3 1 d 4 7 d 3 10 d 4 8 d 4 -6 d 3 -29 d 4 -45 d 3 -50 d 4 -45 d 4 -35 d 3 -22 d 4 -7 d 3 8 d 4 21 d 3 30 d 4 21 d 4 12 d 3 6 d 4 3 d 3 1 d 8 X 3 1 d 4
 3 d 3 4 d 4 4 d 3 4 d 4 4 d 4 7 d 3 9 d 4 12 d 3 14 d 4 15 d 4 16 d 3 13 d 4 8 d 3 5 d 4 2 d 3 2 d 4 3 d 4 3 d 3 5 d 4 6 d 3 8 d 4 2 d 305 X 3 -9 d 4 -12 d 3 -12 d 4 -13 d 3 -13 d 4 -12 d 4 -12 d 3 -11 d 4 -10 d 3 -9 d 4 -8 d 4 -7 d 3 -6 d 4 -4 d 3
 -4 d 4 -2 d 3 -1 d 4 -1 d 4 -1 d 14 X 4 -1 d 3 -1 d 4 -1 d 3 -2 d 4 -2 d 3 -2 d 4 -2 d 4 -2 d 3 -1 d 7 X 4 2 d 4 3 d 3 4 d 4 5 d 3 7 d 4 7 d 3 9 d 4 10 d 4 10 d 3 11 d 4 11 d 3 12 d 4 12 d 4 12 d 3 11 d 4 11 d 3 11 d 4 11 d 3 2 d 58 X s 1 0 0 c
 black 1 0 0 c 363 1815 m 3 -91 d 4 40 d 4 85 d 3 30 d 4 -24 d 3 70 d 4 14 d 14 X 4 -199 d 3 -44 d 4 149 d 4 83 d 3 -5 d 4 -64 d 3 -98 d 4 -127 d 3 -142 d 4 -80 d 4 29 d 3 119 d 4 171 d 3 167 d 4 41 d 4 X 3 -4 d 4 -97 d 3 -58 d 4 23 d 3 44 d 4 21 d 4
 21 d 3 34 d 4 16 d 25 X 3 -16 d 4 -27 d 4 -21 d 3 16 d 4 48 d 57 X 4 -22 d 3 -23 d 4 22 d 3 23 d 33 X 3 -3 d 4 3 d 36 X 3 -36 d 4 -46 d 3 -33 d 4 -5 d 4 25 d 3 42 d 4 43 d 3 10 d 8 X 3 -16 d 4 -10 d 3 4 d 4 14 d 3 8 d 4 X 4 -14 d 3 -40 d 4 -64 d 3
 -83 d 4 -95 d 4 -89 d 3 -62 d 4 -20 d 3 24 d 4 61 d 3 86 d 4 96 d 4 87 d 3 70 d 4 43 d 93 X 4 -8 d 3 -31 d 4 -29 d 3 -27 d 4 -25 d 3 -25 d 4 -26 d 4 -28 d 3 -32 d 4 -32 d 3 -33 d 4 -33 d 4 -29 d 3 -21 d 4 -10 d 3 5 d 4 20 d 3 35 d 4 46 d 4 52 d 3 53
 d 4 46 d 3 33 d 4 14 d 4 -5 d 3 -23 d 4 -32 d 3 -35 d 4 -30 d 3 -23 d 4 -10 d 4 2 d 3 16 d 4 27 d 3 33 d 4 35 d 4 34 d 3 27 d 4 19 d 3 12 d 4 9 d 3 7 d 4 9 d 4 12 d 3 1 d 58 X 3 -43 d 4 -56 d 3 -61 d 4 -63 d 3 -60 d 4 -53 d 4 -43 d 3 -30 d 4 -16 d 3
 -1 d 4 11 d 4 22 d 3 29 d 4 35 d 3 36 d 4 36 d 3 33 d 4 31 d 4 26 d 3 23 d 4 21 d 3 20 d 4 20 d 4 19 d 3 16 d 4 13 d 3 8 d 4 1 d 3 -6 d 4 -12 d 4 -17 d 3 -20 d 4 -21 d 3 -20 d 4 -20 d 4 -17 d 3 -16 d 4 -14 d 3 -12 d 4 -11 d 3 -10 d 4 -8 d 4 -7 d 3
 -6 d 4 -3 d 3 -2 d 4 -1 d 3 1 d 4 X 4 1 d 3 1 d 4 1 d 3 2 d 4 2 d 4 3 d 3 5 d 4 5 d 3 7 d 4 8 d 3 8 d 4 9 d 4 9 d 3 9 d 4 7 d 3 6 d 4 3 d 4 1 d 3 X 4 -1 d 3 -1 d 4 X 3 3 d 4 4 d 4 8 d 3 11 d 4 14 d 3 16 d 4 19 d 4 20 d 3 20 d 4 21 d 3 19 d 4 8 d 132
 X 4 -1 d 4 -16 d 3 -17 d 4 -16 d 3 -17 d 4 -17 d 4 -17 d 3 -16 d 4 -14 d 3 -13 d 4 -11 d 3 -9 d 4 -5 d 4 -3 d 3 -1 d 4 3 d 3 6 d 4 8 d 4 10 d 3 13 d 4 13 d 3 15 d 4 16 d 3 16 d 4 16 d 4 16 d 3 15 d 4 15 d 3 11 d 219 X 4 -11 d 3 -17 d 4 -17 d 3 -17 d
 4 -17 d 3 -17 d 4 -17 d 4 -18 d 3 -18 d 4 -19 d 3 -20 d 4 -20 d 4 -21 d 3 -22 d 4 -23 d 3 -23 d 4 -23 d 3 -23 d 4 -23 d 4 -23 d 3 -21 d 4 -20 d 3 -18 d 4 -17 d 4 -15 d 3 -13 d 4 -11 d 3 -10 d 4 -7 d 3 -6 d 4 -5 d 4 -3 d 3 -3 d 4 -1 d 3 -1 d 4 -1 d
 11 X 3 1 d 4 1 d 3 1 d 4 1 d 4 2 d 3 2 d 4 3 d 3 4 d 4 5 d 4 7 d 3 8 d 4 9 d 3 10 d 4 11 d 3 13 d 4 13 d 4 15 d 3 15 d 4 16 d 3 16 d 4 17 d 4 16 d 3 17 d 4 17 d 3 17 d 4 16 d 3 16 d 4 15 d 4 14 d 3 14 d 4 13 d 3 12 d 4 12 d 4 11 d 3 11 d 4 10 d 3 10
 d 4 9 d 3 10 d 4 9 d 4 8 d 3 9 d 4 8 d s 0 0 1 c black 0 0 1 c 363 1896 m 3 -127 d 4 -76 d 4 -21 d 3 18 d 4 155 d 3 94 d 4 X 3 -17 d 4 -141 d 4 -40 d 3 40 d 4 5 d 3 -16 d 4 -13 d 4 32 d 3 34 d 4 -61 d 3 -83 d 4 -169 d 3 -335 d 4 -276 d 4 X 3 151 d 4
 166 d 3 244 d 4 247 d 4 150 d 3 39 d 4 -43 d 3 -106 d 4 -95 d 3 -39 d 4 48 d 4 117 d 3 72 d 4 -14 d 3 -43 d 4 22 d 4 54 d 3 3 d 4 15 d 3 49 d 4 3 d 61 X 3 -2 d 4 -24 d 4 20 d 3 6 d 90 X 3 -53 d 4 -186 d 3 -129 d 4 -1 d 4 105 d 3 133 d 4 88 d 3 43 d
 97 X 4 -44 d 3 -44 d 4 -2 d 3 40 d 4 50 d 14 X 4 -33 d 4 -25 d 3 -17 d 4 -9 d 3 -16 d 4 -23 d 3 -29 d 4 -28 d 4 -19 d 3 17 d 4 57 d 3 77 d 4 48 d 29 X 3 -1 d 4 -29 d 3 -4 d 4 23 d 4 11 d 53 X 4 -7 d 3 -44 d 4 -21 d 4 5 d 3 30 d 4 37 d 46 X 4 -40 d 4
 -47 d 3 -25 d 4 1 d 3 26 d 4 48 d 3 37 d 76 X 3 -3 d 4 -65 d 3 -56 d 4 -37 d 4 -14 d 3 11 d 4 35 d 3 53 d 4 56 d 4 20 d 53 X 4 -28 d 3 -112 d 4 -128 d 4 -123 d 3 -98 d 4 -63 d 3 -21 d 4 20 d 3 60 d 4 94 d 4 103 d 3 95 d 4 76 d 3 64 d 4 52 d 4 9 d
 150 X 4 -36 d 3 -73 d 4 -73 d 3 -63 d 4 -48 d 4 -29 d 3 -10 d 4 9 d 3 28 d 4 45 d 3 60 d 4 55 d 4 45 d 3 39 d 4 34 d 3 17 d 642 X s 0.35 0.83 0.33 c black 0.35 0.83 0.33 c 363 1939 m 3 -155 d 4 -192 d 4 112 d 3 234 d 4 1 d 36 X 3 -29 d 4 -117 d 3
 -96 d 4 -2 d 3 81 d 4 70 d 4 69 d 3 24 d 54 X 4 -13 d 3 -118 d 4 -54 d 3 55 d 4 83 d 3 44 d 4 3 d 54 X 3 -25 d 4 -44 d 4 14 d 3 36 d 4 6 d 3 -8 d 4 13 d 3 8 d 33 X 3 -24 d 4 -68 d 3 -85 d 4 -91 d 4 -67 d 3 -22 d 4 21 d 3 64 d 4 102 d 4 96 d 3 70 d 4
 4 d 3 X 4 -48 d 3 -113 d 4 -107 d 4 -51 d 3 17 d 4 61 d 3 47 d 4 -13 d 4 -79 d 3 -91 d 4 -48 d 3 27 d 4 98 d 3 118 d 4 92 d 4 46 d 3 9 d 4 -1 d 3 17 d 4 19 d 18 X 3 -14 d 4 5 d 4 9 d 21 X 4 -9 d 3 -56 d 4 -45 d 3 -33 d 4 -31 d 4 -40 d 3 -63 d 4 -89
 d 3 -92 d 4 -61 d 4 -11 d 3 42 d 4 74 d 3 93 d 4 101 d 3 85 d 4 56 d 4 31 d 3 22 d 4 20 d 3 6 d 61 X 4 -15 d 3 -25 d 4 -15 d 4 -2 d 3 12 d 4 22 d 3 23 d 58 X 3 -2 d 4 -19 d 3 -12 d 4 -4 d 4 3 d 3 7 d 4 3 d 3 -8 d 4 -25 d 4 -42 d 3 -55 d 4 -56 d 3
 -47 d 4 -31 d 3 -14 d 4 4 d 4 23 d 3 38 d 4 49 d 3 47 d 4 38 d 4 31 d 3 28 d 4 27 d 3 17 d 18 X 4 -25 d 3 -39 d 4 -42 d 4 -41 d 3 -39 d 4 -37 d 3 -36 d 4 -33 d 3 -30 d 4 -24 d 4 -19 d 3 -13 d 4 -5 d 3 2 d 4 1 d 7 X 4 1 d 3 3 d 4 2 d 3 1 d 4 X 4 2 d
 3 8 d 4 15 d 3 20 d 4 24 d 4 25 d 3 24 d 4 13 d 3 2 d 4 -12 d 3 -22 d 4 -29 d 4 -33 d 3 -33 d 4 -28 d 3 -21 d 4 -9 d 3 2 d 4 13 d 4 17 d 3 24 d 4 31 d 3 37 d 4 41 d 4 40 d 3 33 d 4 24 d 3 13 d 4 4 d 3 X 4 2 d 4 4 d 3 8 d 4 13 d 3 18 d 4 23 d 4 28 d
 3 29 d 4 23 d 122 X 3 -12 d 4 -33 d 3 -33 d 4 -31 d 3 -30 d 4 -26 d 4 -25 d 3 -23 d 4 -21 d 3 -18 d 4 -14 d 4 -10 d 3 -3 d 4 2 d 3 8 d 4 11 d 3 11 d 4 13 d 4 16 d 3 20 d 4 23 d 3 28 d 4 30 d 4 33 d 3 33 d 4 27 d 3 23 d 4 1 d 577 X s 0.5 0.5 0.5 c
 black 0.5 0.5 0.5 c 363 1939 m 3 -210 d 4 -20 d 4 189 d 3 41 d 22 X 3 -23 d 4 -200 d 3 -187 d 4 -208 d 4 -217 d 3 -157 d 4 -3 d 3 118 d 4 173 d 3 144 d 4 58 d 4 5 d 3 23 d 4 64 d 3 64 d 4 86 d 4 96 d 3 93 d 4 71 d 57 X 4 -1 d 3 1 d 15 X 3 -13 d 4
 -17 d 3 15 d 4 15 d 3 -23 d 4 -70 d 4 -73 d 3 -42 d 4 1 d 3 23 d 4 27 d 4 27 d 3 31 d 4 51 d 3 48 d 93 X 4 -26 d 4 -36 d 3 -8 d 4 19 d 3 41 d 4 10 d 301 X 4 -1 d 3 -48 d 4 -52 d 3 -51 d 4 -46 d 3 -36 d 4 -22 d 4 -6 d 3 6 d 4 16 d 3 15 d 4 10 d 4 -2
 d 3 -13 d 4 -21 d 3 -24 d 4 -22 d 3 -14 d 4 -2 d 4 12 d 3 26 d 4 38 d 3 45 d 4 45 d 4 44 d 3 38 d 4 33 d 3 29 d 4 3 d 61 X 3 -6 d 4 -36 d 4 -42 d 3 -45 d 4 -48 d 3 -49 d 4 -46 d 3 -41 d 4 -32 d 4 -20 d 3 -8 d 4 3 d 3 12 d 4 16 d 4 13 d 3 10 d 4 2 d
 3 -7 d 4 -13 d 3 -18 d 4 -21 d 4 -22 d 3 -20 d 4 -13 d 3 -3 d 4 8 d 3 19 d 4 31 d 4 38 d 3 41 d 4 41 d 3 41 d 4 36 d 4 32 d 3 28 d 4 25 d 3 23 d 4 18 d 3 15 d 4 12 d 4 7 d 3 4 d 4 -1 d 3 -7 d 4 -11 d 4 -16 d 3 -20 d 4 -25 d 3 -31 d 4 -36 d 3 -41 d 4
 -46 d 4 -49 d 3 -52 d 4 -54 d 3 -53 d 4 -50 d 4 -45 d 3 -37 d 4 -28 d 3 -19 d 4 -11 d 3 -5 d 4 -1 d 4 -3 d 3 -3 d 4 -4 d 3 -7 d 4 -6 d 4 -4 d 3 3 d 4 11 d 3 20 d 4 29 d 3 38 d 4 43 d 4 46 d 3 44 d 4 45 d 3 42 d 4 39 d 4 36 d 3 33 d 4 31 d 3 29 d 4
 28 d 3 25 d 4 23 d 4 21 d 3 21 d 4 18 d 3 17 d 4 16 d 4 15 d 3 7 d 631 X s black 3 lw 1 1 1 c 340 435 1474 653 bf black
 gsave  2268 2176 0 0 C 1556.2 1027.32 t 0 r /Helvetica findfont 79.9028 sf 0 0 m (Total) show NC gr  6 lw 1487 1045 m 59 X s
 gsave  2268 2176 0 0 C 1598.06 939.809 t 0 r /Symbol findfont 79.9028 sf 0 0 m (m) show NC gr 
 gsave  2268 2176 0 0 C 1556.2 939.809 t 0 r /Helvetica findfont 79.9028 sf 0 0 m (4) show NC gr  1 0 0 c 1487 958 m 59 X s black
 gsave  2268 2176 0 0 C 1556.2 852.296 t 0 r /Helvetica findfont 79.9028 sf 0 0 m (4e) show NC gr  0 0 1 c 1487 871 m 59 X s black
 gsave  2268 2176 0 0 C 1910.06 764.784 t 0 r /Symbol findfont 79.9028 sf 0 0 m (m) show NC gr 
 gsave  2268 2176 0 0 C 1643.71 764.784 t 0 r /Helvetica findfont 79.9028 sf 0 0 m (2e+2e2) show NC gr 
 gsave  2268 2176 0 0 C 1598.06 764.784 t 0 r /Symbol findfont 79.9028 sf 0 0 m (m) show NC gr 
 gsave  2268 2176 0 0 C 1556.2 764.784 t 0 r /Helvetica findfont 79.9028 sf 0 0 m (2) show NC gr  0.35 0.83 0.33 c 1487 784 m 59 X s black
 gsave  2268 2176 0 0 C 1556.2 677.271 t 0 r /Helvetica findfont 79.9028 sf 0 0 m (VBF) show NC gr  0.5 0.5 0.5 c 1487 696 m 59 X s black
 gsave  2268 2176 0 0 C 1065.37 1088.2 t 0 r /Helvetica findfont 79.9028 sf 0 0 m ( Internal) show NC gr 
 gsave  2268 2176 0 0 C 791.418 1088.2 t 0 r /Helvetica-BoldOblique findfont 79.9028 sf 0 0 m (ATLAS) show NC gr 
 gsave  2268 2176 0 0 C 1335.52 1019.71 t 0 r /Helvetica findfont 53.2685 sf 0 0 m (\2551) show NC gr 
 gsave  2268 2176 0 0 C 791.418 981.663 t 0 r /Helvetica findfont 79.9028 sf 0 0 m (13 TeV, 36.1 fb) show NC gr 
 gsave  2268 2176 0 0 C 791.418 871.321 t 0 r /Helvetica findfont 79.9028 sf 0 0 m (NWA) show NC gr 
 gr  gr showpage
end
%%EOF
