%!PS-Adobe-2.0 EPSF-2.0
%%BoundingBox:  0 0 567 544
%%Title: p0_LWA0001.eps: canvas
%%Creator: ROOT Version 6.04/02
%%CreationDate: Fri Jul 29 10:22:21 2016
%%DocumentNeededResources: ProcSet (FontSetInit)
%%EndComments
%%BeginProlog
80 dict begin
/s {stroke} def /l {lineto} def /m {moveto} def /t {translate} def
/r {rotate} def /rl {roll}  def /R {repeat} def
/d {rlineto} def /rm {rmoveto} def /gr {grestore} def /f {eofill} def
/c {setrgbcolor} def /black {0 setgray} def /sd {setdash} def
/cl {closepath} def /sf {scalefont setfont} def /lw {setlinewidth} def
/box {m dup 0 exch d exch 0 d 0 exch neg d cl} def
/NC{systemdict begin initclip end}def/C{NC box clip newpath}def
/bl {box s} def /bf {gsave box gsave f grestore 1 lw [] 0 sd s grestore} def /Y { 0 exch d} def /X { 0 d} def 
/K {{pop pop 0 moveto} exch kshow} bind def
/ita {/ang 15 def gsave [1 0 ang dup sin exch cos div 1 0 0] concat} def 
/mp {newpath /y exch def /x exch def} def
/side {[w .77 mul w .23 mul] .385 w mul sd w 0 l currentpoint t -144 r} def
/mr {mp x y w2 0 360 arc} def /m24 {mr s} def /m20 {mr f} def
/mb {mp x y w2 add m w2 neg 0 d 0 w neg d w 0 d 0 w d cl} def
/mt {mp x y w2 add m w2 neg w neg d w 0 d cl} def
/m21 {mb f} def /m25 {mb s} def /m22 {mt f} def /m26{mt s} def
/m23 {mp x y w2 sub m w2 w d w neg 0 d cl f} def
/m27 {mp x y w2 add m w3 neg w2 neg d w3 w2 neg d w3 w2 d cl s} def
/m28 {mp x w2 sub y w2 sub w3 add m w3 0 d  0 w3 neg d w3 0 d 0 w3 d w3 0 d  0 w3 d w3 neg 0 d 0 w3 d w3 neg 0 d 0 w3 neg d w3 neg 0 d cl s } def
/m29 {mp gsave x w2 sub y w2 add w3 sub m currentpoint t 4 {side} repeat cl fill gr} def
/m30 {mp gsave x w2 sub y w2 add w3 sub m currentpoint t 4 {side} repeat cl s gr} def
/m31 {mp x y w2 sub m 0 w d x w2 sub y m w 0 d x w2 sub y w2 add m w w neg d x w2 sub y w2 sub m w w d s} def
/m32 {mp x y w2 sub m w2 w d w neg 0 d cl s} def
/m33 {mp x y w2 add m w3 neg w2 neg d w3 w2 neg d w3 w2 d cl f} def
/m34 {mp x w2 sub y w2 sub w3 add m w3 0 d  0 w3 neg d w3 0 d 0 w3 d w3 0 d  0 w3 d w3 neg 0 d 0 w3 d w3 neg 0 d 0 w3 neg d w3 neg 0 d cl f } def
/m2 {mp x y w2 sub m 0 w d x w2 sub y m w 0 d s} def
/m5 {mp x w2 sub y w2 sub m w w d x w2 sub y w2 add m w w neg d s} def
%%IncludeResource: ProcSet (FontSetInit)
%%IncludeResource: font Times-Roman
%%IncludeResource: font Times-Italic
%%IncludeResource: font Times-Bold
%%IncludeResource: font Times-BoldItalic
%%IncludeResource: font Helvetica
%%IncludeResource: font Helvetica-Oblique
%%IncludeResource: font Helvetica-Bold
%%IncludeResource: font Helvetica-BoldOblique
%%IncludeResource: font Courier
%%IncludeResource: font Courier-Oblique
%%IncludeResource: font Courier-Bold
%%IncludeResource: font Courier-BoldOblique
%%IncludeResource: font Symbol
%%IncludeResource: font ZapfDingbats
/reEncode {exch findfont dup length dict begin {1 index /FID eq  {pop pop} {def} ifelse } forall /Encoding exch def currentdict end dup /FontName get exch definefont pop } def [/Times-Bold /Times-Italic /Times-BoldItalic /Helvetica /Helvetica-Oblique
 /Helvetica-Bold /Helvetica-BoldOblique /Courier /Courier-Oblique /Courier-Bold /Courier-BoldOblique /Times-Roman /AvantGarde-Book /AvantGarde-BookOblique /AvantGarde-Demi /AvantGarde-DemiOblique /Bookman-Demi /Bookman-DemiItalic /Bookman-Light
 /Bookman-LightItalic /Helvetica-Narrow /Helvetica-Narrow-Bold /Helvetica-Narrow-BoldOblique /Helvetica-Narrow-Oblique /NewCenturySchlbk-Roman /NewCenturySchlbk-Bold /NewCenturySchlbk-BoldItalic /NewCenturySchlbk-Italic /Palatino-Bold
 /Palatino-BoldItalic /Palatino-Italic /Palatino-Roman ] {ISOLatin1Encoding reEncode } forall
%%EndProlog
%%BeginSetup
%%EndSetup
newpath  gsave  .25 .25 scale  gsave  0 0 t black[  ] 0 sd 3 lw 1 1 1 c 2268 2176 0 0 bf black 1 1 1 c 1791 1720 363 348 bf black 1791 1720 363 348 bl 6 lw 1 1 1 c black 363 348 m 1791 X s 3 lw 363 348 m 1791 X s
 gsave  2268 2176 0 0 C 1868.2 83.7077 t 0 r /Helvetica findfont 102.732 sf 0 0 m ( [GeV]) show NC gr 
 gsave  2268 2176 0 0 C 1822.54 49.4636 t 0 r /Helvetica findfont 68.4881 sf 0 0 m (S) show NC gr 
 gsave  2268 2176 0 0 C 1742.64 83.7077 t 0 r /Helvetica findfont 102.732 sf 0 0 m (m) show NC gr  363 400 m -52 Y s 408 374 m -26 Y s 452 374 m -26 Y s 497 374 m -26 Y s 542 374 m -26 Y s 587 400 m -52 Y s 632 374 m -26 Y s 676 374 m -26 Y s 721 374
 m -26 Y s 766 374 m -26 Y s 811 400 m -52 Y s 855 374 m -26 Y s 900 374 m -26 Y s 945 374 m -26 Y s 990 374 m -26 Y s 1035 400 m -52 Y s 1079 374 m -26 Y s 1124 374 m -26 Y s 1169 374 m -26 Y s 1214 374 m -26 Y s 1259 400 m -52 Y s 1303 374 m -26 Y
 s 1348 374 m -26 Y s 1393 374 m -26 Y s 1438 374 m -26 Y s 1483 400 m -52 Y s 1527 374 m -26 Y s 1572 374 m -26 Y s 1617 374 m -26 Y s 1662 374 m -26 Y s 1706 400 m -52 Y s 1751 374 m -26 Y s 1796 374 m -26 Y s 1841 374 m -26 Y s 1886 374 m -26 Y s
 1930 400 m -52 Y s 1975 374 m -26 Y s 2020 374 m -26 Y s 2065 374 m -26 Y s 2110 374 m -26 Y s 2154 400 m -52 Y s
 gsave  2268 2176 0 0 C 277.757 251.123 t 0 r /Helvetica findfont 102.732 sf 0 0 m (200) show NC gr 
 gsave  2268 2176 0 0 C 502.246 251.123 t 0 r /Helvetica findfont 102.732 sf 0 0 m (300) show NC gr 
 gsave  2268 2176 0 0 C 726.735 251.123 t 0 r /Helvetica findfont 102.732 sf 0 0 m (400) show NC gr 
 gsave  2268 2176 0 0 C 947.418 251.123 t 0 r /Helvetica findfont 102.732 sf 0 0 m (500) show NC gr 
 gsave  2268 2176 0 0 C 1171.91 251.123 t 0 r /Helvetica findfont 102.732 sf 0 0 m (600) show NC gr 
 gsave  2268 2176 0 0 C 1396.4 251.123 t 0 r /Helvetica findfont 102.732 sf 0 0 m (700) show NC gr 
 gsave  2268 2176 0 0 C 1620.88 251.123 t 0 r /Helvetica findfont 102.732 sf 0 0 m (800) show NC gr 
 gsave  2268 2176 0 0 C 1845.37 251.123 t 0 r /Helvetica findfont 102.732 sf 0 0 m (900) show NC gr 
 gsave  2268 2176 0 0 C 2039.42 251.123 t 0 r /Helvetica findfont 102.732 sf 0 0 m (1000) show NC gr  363 2068 m 1791 X s 363 2016 m 52 Y s 408 2042 m 26 Y s 452 2042 m 26 Y s 497 2042 m 26 Y s 542 2042 m 26 Y s 587 2016 m 52 Y s 632 2042 m 26 Y s
 676 2042 m 26 Y s 721 2042 m 26 Y s 766 2042 m 26 Y s 811 2016 m 52 Y s 855 2042 m 26 Y s 900 2042 m 26 Y s 945 2042 m 26 Y s 990 2042 m 26 Y s 1035 2016 m 52 Y s 1079 2042 m 26 Y s 1124 2042 m 26 Y s 1169 2042 m 26 Y s 1214 2042 m 26 Y s 1259 2016
 m 52 Y s 1303 2042 m 26 Y s 1348 2042 m 26 Y s 1393 2042 m 26 Y s 1438 2042 m 26 Y s 1483 2016 m 52 Y s 1527 2042 m 26 Y s 1572 2042 m 26 Y s 1617 2042 m 26 Y s 1662 2042 m 26 Y s 1706 2016 m 52 Y s 1751 2042 m 26 Y s 1796 2042 m 26 Y s 1841 2042 m
 26 Y s 1886 2042 m 26 Y s 1930 2016 m 52 Y s 1975 2042 m 26 Y s 2020 2042 m 26 Y s 2065 2042 m 26 Y s 2110 2042 m 26 Y s 2154 2016 m 52 Y s 363 348 m 1720 Y s
 gsave  2268 2176 0 0 C 171.22 2031.81 t 90 r /Helvetica findfont 68.4881 sf 0 0 m (0) show NC gr 
 gsave  2268 2176 0 0 C 117.952 1700.79 t 90 r /Helvetica findfont 102.732 sf 0 0 m (Local p) show NC gr  417 348 m -54 X s
 gsave  2268 2176 0 0 C 300.587 350.05 t 0 r /Helvetica findfont 68.4881 sf 0 0 m (5) show NC gr 
 gsave  2268 2176 0 0 C 262.538 350.05 t 0 r /Symbol findfont 68.4881 sf 0 0 m (-) show NC gr 
 gsave  2268 2176 0 0 C 152.196 300.587 t 0 r /Helvetica findfont 102.732 sf 0 0 m (10) show NC gr  390 450 m -27 X s 390 510 m -27 X s 390 552 m -27 X s 390 585 m -27 X s 390 612 m -27 X s 390 634 m -27 X s 390 654 m -27 X s 390 671 m -27 X s 417
 687 m -54 X s
 gsave  2268 2176 0 0 C 300.587 684.881 t 0 r /Helvetica findfont 68.4881 sf 0 0 m (4) show NC gr 
 gsave  2268 2176 0 0 C 262.538 684.881 t 0 r /Symbol findfont 68.4881 sf 0 0 m (-) show NC gr 
 gsave  2268 2176 0 0 C 152.196 639.222 t 0 r /Helvetica findfont 102.732 sf 0 0 m (10) show NC gr  390 789 m -27 X s 390 848 m -27 X s 390 891 m -27 X s 390 923 m -27 X s 390 950 m -27 X s 390 973 m -27 X s 390 992 m -27 X s 390 1010 m -27 X s 417
 1025 m -54 X s
 gsave  2268 2176 0 0 C 300.587 1027.32 t 0 r /Helvetica findfont 68.4881 sf 0 0 m (3) show NC gr 
 gsave  2268 2176 0 0 C 262.538 1027.32 t 0 r /Symbol findfont 68.4881 sf 0 0 m (-) show NC gr 
 gsave  2268 2176 0 0 C 152.196 977.858 t 0 r /Helvetica findfont 102.732 sf 0 0 m (10) show NC gr  390 1127 m -27 X s 390 1187 m -27 X s 390 1229 m -27 X s 390 1262 m -27 X s 390 1289 m -27 X s 390 1311 m -27 X s 390 1331 m -27 X s 390 1348 m -27 X
 s 417 1364 m -54 X s
 gsave  2268 2176 0 0 C 300.587 1362.15 t 0 r /Helvetica findfont 68.4881 sf 0 0 m (2) show NC gr 
 gsave  2268 2176 0 0 C 262.538 1362.15 t 0 r /Symbol findfont 68.4881 sf 0 0 m (-) show NC gr 
 gsave  2268 2176 0 0 C 152.196 1316.49 t 0 r /Helvetica findfont 102.732 sf 0 0 m (10) show NC gr  390 1466 m -27 X s 390 1525 m -27 X s 390 1568 m -27 X s 390 1600 m -27 X s 390 1627 m -27 X s 390 1650 m -27 X s 390 1669 m -27 X s 390 1687 m -27 X
 s 417 1702 m -54 X s
 gsave  2268 2176 0 0 C 312.001 1700.79 t 0 r /Helvetica findfont 68.4881 sf 0 0 m (1) show NC gr 
 gsave  2268 2176 0 0 C 273.952 1700.79 t 0 r /Symbol findfont 68.4881 sf 0 0 m (-) show NC gr 
 gsave  2268 2176 0 0 C 163.61 1655.13 t 0 r /Helvetica findfont 102.732 sf 0 0 m (10) show NC gr  390 1804 m -27 X s 390 1864 m -27 X s 390 1906 m -27 X s 390 1939 m -27 X s 390 1966 m -27 X s 390 1988 m -27 X s 390 2008 m -27 X s 390 2025 m -27 X s
 417 2041 m -54 X s
 gsave  2268 2176 0 0 C 342.425 1998.16 t 0 r  -56 0 t /Helvetica findfont 102.732 sf 0 0 m (1) show NC gr  2154 348 m 1720 Y s 2101 348 m 53 X s 2127 450 m 27 X s 2127 510 m 27 X s 2127 552 m 27 X s 2127 585 m 27 X s 2127 612 m 27 X s 2127 634 m 27
 X s 2127 654 m 27 X s 2127 671 m 27 X s 2101 687 m 53 X s 2127 789 m 27 X s 2127 848 m 27 X s 2127 891 m 27 X s 2127 923 m 27 X s 2127 950 m 27 X s 2127 973 m 27 X s 2127 992 m 27 X s 2127 1010 m 27 X s 2101 1025 m 53 X s 2127 1127 m 27 X s 2127
 1187 m 27 X s 2127 1229 m 27 X s 2127 1262 m 27 X s 2127 1289 m 27 X s 2127 1311 m 27 X s 2127 1331 m 27 X s 2127 1348 m 27 X s 2101 1364 m 53 X s 2127 1466 m 27 X s 2127 1525 m 27 X s 2127 1568 m 27 X s 2127 1600 m 27 X s 2127 1627 m 27 X s 2127
 1650 m 27 X s 2127 1669 m 27 X s 2127 1687 m 27 X s 2101 1702 m 53 X s 2127 1804 m 27 X s 2127 1864 m 27 X s 2127 1906 m 27 X s 2127 1939 m 27 X s 2127 1966 m 27 X s 2127 1988 m 27 X s 2127 2008 m 27 X s 2127 2025 m 27 X s 2101 2041 m 53 X s 0.754
 0.715 0.676 c[  12 12 ] 0 sd 6 lw 363 1832 m 1791 X s 363 1770 m 1791 X s 363 1485 m 1791 X s 363 1069 m 1791 X s 363 518 m 1791 X s 0.8 0.8 0.8 c black 0.8 0.8 0.8 c
 gsave  2268 2176 0 0 C 2184.01 1742.64 t 0 r /Symbol findfont 79.9028 sf 0 0 m (s) show NC gr  black 0.8 0.8 0.8 c
 gsave  2268 2176 0 0 C 2153.57 1742.64 t 0 r /Helvetica findfont 79.9028 sf 0 0 m (1) show NC gr  black 0.8 0.8 0.8 c
 gsave  2268 2176 0 0 C 2195.42 1457.27 t 0 r /Symbol findfont 79.9028 sf 0 0 m (s) show NC gr  black 0.8 0.8 0.8 c
 gsave  2268 2176 0 0 C 2153.57 1457.27 t 0 r /Helvetica findfont 79.9028 sf 0 0 m (2) show NC gr  black 0.8 0.8 0.8 c
 gsave  2268 2176 0 0 C 2195.42 1042.54 t 0 r /Symbol findfont 79.9028 sf 0 0 m (s) show NC gr  black 0.8 0.8 0.8 c
 gsave  2268 2176 0 0 C 2153.57 1042.54 t 0 r /Helvetica findfont 79.9028 sf 0 0 m (3) show NC gr  black 0.8 0.8 0.8 c
 gsave  2268 2176 0 0 C 2195.42 490.831 t 0 r /Symbol findfont 79.9028 sf 0 0 m (s) show NC gr  black 0.8 0.8 0.8 c
 gsave  2268 2176 0 0 C 2153.57 490.831 t 0 r /Helvetica findfont 79.9028 sf 0 0 m (4) show NC gr  black[  ] 0 sd 2154 1939 m -1791 X 11 -56 d 11 56 d 45 X 11 -434 d 11 -97 d 12 -195 d 11 405 d 11 321 d 11 -6 d 11 -56 d 12 62 d 11 X 11 -36 d 11 21 d
 11 15 d 68 X 11 -70 d 11 63 d 11 -84 d 11 91 d 12 X 11 -1 d 11 1 d 11 X 11 -93 d 12 93 d 11 X 11 -162 d 11 -334 d 11 149 d 12 208 d 11 125 d 11 3 d 11 11 d 67 X 11 -57 d 12 -224 d 11 -75 d 11 -16 d 11 -200 d 11 -217 d 12 30 d 11 123 d 11 161 d 11
 289 d 11 186 d 23 X 11 -47 d 11 -45 d 11 58 d 12 -13 d 11 -29 d 11 38 d 11 38 d 11 X 12 -11 d 11 -53 d 11 44 d 11 -9 d 11 -75 d 12 -51 d 11 26 d 11 76 d 11 48 d 11 -25 d 12 -39 d 11 -28 d 11 -7 d 11 5 d 11 21 d 12 X 11 -40 d 11 -29 d 11 7 d 11 28 d
 12 20 d 11 9 d 11 36 d 11 47 d 45 X 11 -119 d 11 -280 d 12 -306 d 11 -124 d 11 130 d 11 244 d 11 202 d 12 167 d 11 86 d 593 X s 3 lw 1 1 1 c 340 109 1474 653 bf black
 gsave  2268 2176 0 0 C 1556.2 684.881 t 0 r /Helvetica findfont 79.9028 sf 0 0 m (observed) show NC gr  6 lw 1487 707 m 59 X s
 gsave  2268 2176 0 0 C 726.735 764.784 t 0 r /Helvetica findfont 79.9028 sf 0 0 m ( Internal) show NC gr 
 gsave  2268 2176 0 0 C 452.782 764.784 t 0 r /Helvetica-BoldOblique findfont 79.9028 sf 0 0 m (ATLAS) show NC gr 
 gsave  2268 2176 0 0 C 996.882 692.491 t 0 r /Helvetica findfont 53.2685 sf 0 0 m (\2551) show NC gr 
 gsave  2268 2176 0 0 C 452.782 654.442 t 0 r /Helvetica findfont 79.9028 sf 0 0 m (13 TeV, 14.8 fb) show NC gr 
 gsave  2268 2176 0 0 C 452.782 544.1 t 0 r /Helvetica findfont 79.9028 sf 0 0 m (LWA 0.01%) show NC gr 
 gr  gr showpage
end
%%EOF
