%!PS-Adobe-2.0 EPSF-2.0
%%BoundingBox:  0 0 567 544
%%Title: p0_cmp.eps: canvas
%%Creator: ROOT Version 6.04/02
%%CreationDate: Sun Dec  4 14:09:06 2016
%%DocumentNeededResources: ProcSet (FontSetInit)
%%EndComments
%%BeginProlog
80 dict begin
/s {stroke} def /l {lineto} def /m {moveto} def /t {translate} def
/r {rotate} def /rl {roll}  def /R {repeat} def
/d {rlineto} def /rm {rmoveto} def /gr {grestore} def /f {eofill} def
/c {setrgbcolor} def /black {0 setgray} def /sd {setdash} def
/cl {closepath} def /sf {scalefont setfont} def /lw {setlinewidth} def
/box {m dup 0 exch d exch 0 d 0 exch neg d cl} def
/NC{systemdict begin initclip end}def/C{NC box clip newpath}def
/bl {box s} def /bf {gsave box gsave f grestore 1 lw [] 0 sd s grestore} def /Y { 0 exch d} def /X { 0 d} def 
/K {{pop pop 0 moveto} exch kshow} bind def
/ita {/ang 15 def gsave [1 0 ang dup sin exch cos div 1 0 0] concat} def 
/mp {newpath /y exch def /x exch def} def
/side {[w .77 mul w .23 mul] .385 w mul sd w 0 l currentpoint t -144 r} def
/mr {mp x y w2 0 360 arc} def /m24 {mr s} def /m20 {mr f} def
/mb {mp x y w2 add m w2 neg 0 d 0 w neg d w 0 d 0 w d cl} def
/mt {mp x y w2 add m w2 neg w neg d w 0 d cl} def
/m21 {mb f} def /m25 {mb s} def /m22 {mt f} def /m26{mt s} def
/m23 {mp x y w2 sub m w2 w d w neg 0 d cl f} def
/m27 {mp x y w2 add m w3 neg w2 neg d w3 w2 neg d w3 w2 d cl s} def
/m28 {mp x w2 sub y w2 sub w3 add m w3 0 d  0 w3 neg d w3 0 d 0 w3 d w3 0 d  0 w3 d w3 neg 0 d 0 w3 d w3 neg 0 d 0 w3 neg d w3 neg 0 d cl s } def
/m29 {mp gsave x w2 sub y w2 add w3 sub m currentpoint t 4 {side} repeat cl fill gr} def
/m30 {mp gsave x w2 sub y w2 add w3 sub m currentpoint t 4 {side} repeat cl s gr} def
/m31 {mp x y w2 sub m 0 w d x w2 sub y m w 0 d x w2 sub y w2 add m w w neg d x w2 sub y w2 sub m w w d s} def
/m32 {mp x y w2 sub m w2 w d w neg 0 d cl s} def
/m33 {mp x y w2 add m w3 neg w2 neg d w3 w2 neg d w3 w2 d cl f} def
/m34 {mp x w2 sub y w2 sub w3 add m w3 0 d  0 w3 neg d w3 0 d 0 w3 d w3 0 d  0 w3 d w3 neg 0 d 0 w3 d w3 neg 0 d 0 w3 neg d w3 neg 0 d cl f } def
/m2 {mp x y w2 sub m 0 w d x w2 sub y m w 0 d s} def
/m5 {mp x w2 sub y w2 sub m w w d x w2 sub y w2 add m w w neg d s} def
%%IncludeResource: ProcSet (FontSetInit)
%%IncludeResource: font Times-Roman
%%IncludeResource: font Times-Italic
%%IncludeResource: font Times-Bold
%%IncludeResource: font Times-BoldItalic
%%IncludeResource: font Helvetica
%%IncludeResource: font Helvetica-Oblique
%%IncludeResource: font Helvetica-Bold
%%IncludeResource: font Helvetica-BoldOblique
%%IncludeResource: font Courier
%%IncludeResource: font Courier-Oblique
%%IncludeResource: font Courier-Bold
%%IncludeResource: font Courier-BoldOblique
%%IncludeResource: font Symbol
%%IncludeResource: font ZapfDingbats
/reEncode {exch findfont dup length dict begin {1 index /FID eq  {pop pop} {def} ifelse } forall /Encoding exch def currentdict end dup /FontName get exch definefont pop } def [/Times-Bold /Times-Italic /Times-BoldItalic /Helvetica /Helvetica-Oblique
 /Helvetica-Bold /Helvetica-BoldOblique /Courier /Courier-Oblique /Courier-Bold /Courier-BoldOblique /Times-Roman /AvantGarde-Book /AvantGarde-BookOblique /AvantGarde-Demi /AvantGarde-DemiOblique /Bookman-Demi /Bookman-DemiItalic /Bookman-Light
 /Bookman-LightItalic /Helvetica-Narrow /Helvetica-Narrow-Bold /Helvetica-Narrow-BoldOblique /Helvetica-Narrow-Oblique /NewCenturySchlbk-Roman /NewCenturySchlbk-Bold /NewCenturySchlbk-BoldItalic /NewCenturySchlbk-Italic /Palatino-Bold
 /Palatino-BoldItalic /Palatino-Italic /Palatino-Roman ] {ISOLatin1Encoding reEncode } forall
%%EndProlog
%%BeginSetup
%%EndSetup
newpath  gsave  .25 .25 scale  gsave  0 0 t black[  ] 0 sd 3 lw 1 1 1 c 2268 2176 0 0 bf black 1 1 1 c 1791 1720 363 348 bf black 1791 1720 363 348 bl 6 lw 1 1 1 c black 363 348 m 1791 X s 3 lw 363 348 m 1791 X s
 gsave  2268 2176 0 0 C 1868.2 83.7077 t 0 r /Helvetica findfont 102.732 sf 0 0 m ( [GeV]) show NC gr 
 gsave  2268 2176 0 0 C 1822.54 49.4636 t 0 r /Helvetica findfont 68.4881 sf 0 0 m (S) show NC gr 
 gsave  2268 2176 0 0 C 1742.64 83.7077 t 0 r /Helvetica findfont 102.732 sf 0 0 m (m) show NC gr  363 400 m -52 Y s 408 374 m -26 Y s 452 374 m -26 Y s 497 374 m -26 Y s 542 374 m -26 Y s 587 400 m -52 Y s 632 374 m -26 Y s 676 374 m -26 Y s 721 374
 m -26 Y s 766 374 m -26 Y s 811 400 m -52 Y s 855 374 m -26 Y s 900 374 m -26 Y s 945 374 m -26 Y s 990 374 m -26 Y s 1035 400 m -52 Y s 1079 374 m -26 Y s 1124 374 m -26 Y s 1169 374 m -26 Y s 1214 374 m -26 Y s 1259 400 m -52 Y s 1303 374 m -26 Y
 s 1348 374 m -26 Y s 1393 374 m -26 Y s 1438 374 m -26 Y s 1483 400 m -52 Y s 1527 374 m -26 Y s 1572 374 m -26 Y s 1617 374 m -26 Y s 1662 374 m -26 Y s 1706 400 m -52 Y s 1751 374 m -26 Y s 1796 374 m -26 Y s 1841 374 m -26 Y s 1886 374 m -26 Y s
 1930 400 m -52 Y s 1975 374 m -26 Y s 2020 374 m -26 Y s 2065 374 m -26 Y s 2110 374 m -26 Y s 2154 400 m -52 Y s
 gsave  2268 2176 0 0 C 277.757 251.123 t 0 r /Helvetica findfont 102.732 sf 0 0 m (200) show NC gr 
 gsave  2268 2176 0 0 C 502.246 251.123 t 0 r /Helvetica findfont 102.732 sf 0 0 m (300) show NC gr 
 gsave  2268 2176 0 0 C 726.735 251.123 t 0 r /Helvetica findfont 102.732 sf 0 0 m (400) show NC gr 
 gsave  2268 2176 0 0 C 947.418 251.123 t 0 r /Helvetica findfont 102.732 sf 0 0 m (500) show NC gr 
 gsave  2268 2176 0 0 C 1171.91 251.123 t 0 r /Helvetica findfont 102.732 sf 0 0 m (600) show NC gr 
 gsave  2268 2176 0 0 C 1396.4 251.123 t 0 r /Helvetica findfont 102.732 sf 0 0 m (700) show NC gr 
 gsave  2268 2176 0 0 C 1620.88 251.123 t 0 r /Helvetica findfont 102.732 sf 0 0 m (800) show NC gr 
 gsave  2268 2176 0 0 C 1845.37 251.123 t 0 r /Helvetica findfont 102.732 sf 0 0 m (900) show NC gr 
 gsave  2268 2176 0 0 C 2039.42 251.123 t 0 r /Helvetica findfont 102.732 sf 0 0 m (1000) show NC gr  363 2068 m 1791 X s 363 2016 m 52 Y s 408 2042 m 26 Y s 452 2042 m 26 Y s 497 2042 m 26 Y s 542 2042 m 26 Y s 587 2016 m 52 Y s 632 2042 m 26 Y s
 676 2042 m 26 Y s 721 2042 m 26 Y s 766 2042 m 26 Y s 811 2016 m 52 Y s 855 2042 m 26 Y s 900 2042 m 26 Y s 945 2042 m 26 Y s 990 2042 m 26 Y s 1035 2016 m 52 Y s 1079 2042 m 26 Y s 1124 2042 m 26 Y s 1169 2042 m 26 Y s 1214 2042 m 26 Y s 1259 2016
 m 52 Y s 1303 2042 m 26 Y s 1348 2042 m 26 Y s 1393 2042 m 26 Y s 1438 2042 m 26 Y s 1483 2016 m 52 Y s 1527 2042 m 26 Y s 1572 2042 m 26 Y s 1617 2042 m 26 Y s 1662 2042 m 26 Y s 1706 2016 m 52 Y s 1751 2042 m 26 Y s 1796 2042 m 26 Y s 1841 2042 m
 26 Y s 1886 2042 m 26 Y s 1930 2016 m 52 Y s 1975 2042 m 26 Y s 2020 2042 m 26 Y s 2065 2042 m 26 Y s 2110 2042 m 26 Y s 2154 2016 m 52 Y s 363 348 m 1720 Y s
 gsave  2268 2176 0 0 C 171.22 2031.81 t 90 r /Helvetica findfont 68.4881 sf 0 0 m (0) show NC gr 
 gsave  2268 2176 0 0 C 117.952 1700.79 t 90 r /Helvetica findfont 102.732 sf 0 0 m (Local p) show NC gr  417 348 m -54 X s
 gsave  2268 2176 0 0 C 300.587 350.05 t 0 r /Helvetica findfont 68.4881 sf 0 0 m (5) show NC gr 
 gsave  2268 2176 0 0 C 262.538 350.05 t 0 r /Symbol findfont 68.4881 sf 0 0 m (-) show NC gr 
 gsave  2268 2176 0 0 C 152.196 300.587 t 0 r /Helvetica findfont 102.732 sf 0 0 m (10) show NC gr  390 450 m -27 X s 390 510 m -27 X s 390 552 m -27 X s 390 585 m -27 X s 390 612 m -27 X s 390 634 m -27 X s 390 654 m -27 X s 390 671 m -27 X s 417
 687 m -54 X s
 gsave  2268 2176 0 0 C 300.587 684.881 t 0 r /Helvetica findfont 68.4881 sf 0 0 m (4) show NC gr 
 gsave  2268 2176 0 0 C 262.538 684.881 t 0 r /Symbol findfont 68.4881 sf 0 0 m (-) show NC gr 
 gsave  2268 2176 0 0 C 152.196 639.222 t 0 r /Helvetica findfont 102.732 sf 0 0 m (10) show NC gr  390 789 m -27 X s 390 848 m -27 X s 390 891 m -27 X s 390 923 m -27 X s 390 950 m -27 X s 390 973 m -27 X s 390 992 m -27 X s 390 1010 m -27 X s 417
 1025 m -54 X s
 gsave  2268 2176 0 0 C 300.587 1027.32 t 0 r /Helvetica findfont 68.4881 sf 0 0 m (3) show NC gr 
 gsave  2268 2176 0 0 C 262.538 1027.32 t 0 r /Symbol findfont 68.4881 sf 0 0 m (-) show NC gr 
 gsave  2268 2176 0 0 C 152.196 977.858 t 0 r /Helvetica findfont 102.732 sf 0 0 m (10) show NC gr  390 1127 m -27 X s 390 1187 m -27 X s 390 1229 m -27 X s 390 1262 m -27 X s 390 1289 m -27 X s 390 1311 m -27 X s 390 1331 m -27 X s 390 1348 m -27 X
 s 417 1364 m -54 X s
 gsave  2268 2176 0 0 C 300.587 1362.15 t 0 r /Helvetica findfont 68.4881 sf 0 0 m (2) show NC gr 
 gsave  2268 2176 0 0 C 262.538 1362.15 t 0 r /Symbol findfont 68.4881 sf 0 0 m (-) show NC gr 
 gsave  2268 2176 0 0 C 152.196 1316.49 t 0 r /Helvetica findfont 102.732 sf 0 0 m (10) show NC gr  390 1466 m -27 X s 390 1525 m -27 X s 390 1568 m -27 X s 390 1600 m -27 X s 390 1627 m -27 X s 390 1650 m -27 X s 390 1669 m -27 X s 390 1687 m -27 X
 s 417 1702 m -54 X s
 gsave  2268 2176 0 0 C 312.001 1700.79 t 0 r /Helvetica findfont 68.4881 sf 0 0 m (1) show NC gr 
 gsave  2268 2176 0 0 C 273.952 1700.79 t 0 r /Symbol findfont 68.4881 sf 0 0 m (-) show NC gr 
 gsave  2268 2176 0 0 C 163.61 1655.13 t 0 r /Helvetica findfont 102.732 sf 0 0 m (10) show NC gr  390 1804 m -27 X s 390 1864 m -27 X s 390 1906 m -27 X s 390 1939 m -27 X s 390 1966 m -27 X s 390 1988 m -27 X s 390 2008 m -27 X s 390 2025 m -27 X s
 417 2041 m -54 X s
 gsave  2268 2176 0 0 C 342.425 1998.16 t 0 r  -56 0 t /Helvetica findfont 102.732 sf 0 0 m (1) show NC gr  2154 348 m 1720 Y s 2101 348 m 53 X s 2127 450 m 27 X s 2127 510 m 27 X s 2127 552 m 27 X s 2127 585 m 27 X s 2127 612 m 27 X s 2127 634 m 27
 X s 2127 654 m 27 X s 2127 671 m 27 X s 2101 687 m 53 X s 2127 789 m 27 X s 2127 848 m 27 X s 2127 891 m 27 X s 2127 923 m 27 X s 2127 950 m 27 X s 2127 973 m 27 X s 2127 992 m 27 X s 2127 1010 m 27 X s 2101 1025 m 53 X s 2127 1127 m 27 X s 2127
 1187 m 27 X s 2127 1229 m 27 X s 2127 1262 m 27 X s 2127 1289 m 27 X s 2127 1311 m 27 X s 2127 1331 m 27 X s 2127 1348 m 27 X s 2101 1364 m 53 X s 2127 1466 m 27 X s 2127 1525 m 27 X s 2127 1568 m 27 X s 2127 1600 m 27 X s 2127 1627 m 27 X s 2127
 1650 m 27 X s 2127 1669 m 27 X s 2127 1687 m 27 X s 2101 1702 m 53 X s 2127 1804 m 27 X s 2127 1864 m 27 X s 2127 1906 m 27 X s 2127 1939 m 27 X s 2127 1966 m 27 X s 2127 1988 m 27 X s 2127 2008 m 27 X s 2127 2025 m 27 X s 2101 2041 m 53 X s 0.754
 0.715 0.676 c[  12 12 ] 0 sd 6 lw 363 1832 m 1791 X s 363 1770 m 1791 X s 363 1485 m 1791 X s 363 1069 m 1791 X s 363 518 m 1791 X s 0.8 0.8 0.8 c black 0.8 0.8 0.8 c
 gsave  2268 2176 0 0 C 2184.01 1742.64 t 0 r /Symbol findfont 79.9028 sf 0 0 m (s) show NC gr  black 0.8 0.8 0.8 c
 gsave  2268 2176 0 0 C 2153.57 1742.64 t 0 r /Helvetica findfont 79.9028 sf 0 0 m (1) show NC gr  black 0.8 0.8 0.8 c
 gsave  2268 2176 0 0 C 2195.42 1457.27 t 0 r /Symbol findfont 79.9028 sf 0 0 m (s) show NC gr  black 0.8 0.8 0.8 c
 gsave  2268 2176 0 0 C 2153.57 1457.27 t 0 r /Helvetica findfont 79.9028 sf 0 0 m (2) show NC gr  black 0.8 0.8 0.8 c
 gsave  2268 2176 0 0 C 2195.42 1042.54 t 0 r /Symbol findfont 79.9028 sf 0 0 m (s) show NC gr  black 0.8 0.8 0.8 c
 gsave  2268 2176 0 0 C 2153.57 1042.54 t 0 r /Helvetica findfont 79.9028 sf 0 0 m (3) show NC gr  black 0.8 0.8 0.8 c
 gsave  2268 2176 0 0 C 2195.42 490.831 t 0 r /Symbol findfont 79.9028 sf 0 0 m (s) show NC gr  black 0.8 0.8 0.8 c
 gsave  2268 2176 0 0 C 2153.57 490.831 t 0 r /Helvetica findfont 79.9028 sf 0 0 m (4) show NC gr  black[  ] 0 sd 363 1940 m 4 -148 d 5 -256 d 4 88 d 5 247 d 4 68 d 9 X 5 1 d 4 -1 d 5 X 4 1 d 5 X 4 -9 d 5 1 d 4 -22 d 4 -65 d 5 -193 d 4 -240 d 5 -123
 d 4 -63 d 5 -71 d 4 24 d 5 253 d 4 300 d 5 183 d 4 24 d 9 X 5 -1 d 4 -110 d 5 -72 d 4 33 d 5 86 d 4 65 d 5 -1 d 9 X 4 1 d 5 -35 d 4 -66 d 4 31 d 5 70 d 4 X 5 -1 d 9 X 4 1 d 5 -1 d 9 X 6 1 d 14 X 7 -1 d 6 X 7 1 d 7 X 7 -111 d 6 42 d 7 68 d 7 1 d 13 X
 7 -1 d 7 1 d 6 -1 d 7 X 7 1 d 6 -1 d 7 1 d 7 -21 d 7 -33 d 6 50 d 7 3 d 13 X 7 -110 d 7 -244 d 7 -75 d 6 121 d 7 163 d 7 74 d 6 -28 d 7 -67 d 7 21 d 7 105 d 6 41 d 7 -1 d 7 1 d 6 -1 d 7 X 7 1 d 7 X 6 -1 d 7 1 d 7 X 7 1 d 6 -1 d 7 -1 d 7 -47 d 6 -62
 d 7 13 d 7 45 d 7 X 6 -62 d 7 -68 d 7 -17 d 6 39 d 7 39 d 7 1 d 7 -11 d 6 53 d 7 78 d 45 X 9 -31 d 9 3 d 9 -4 d 9 -47 d 9 -7 d 9 67 d 9 19 d 26 X 9 -3 d 9 2 d 9 1 d 9 X 9 -1 d 9 -61 d 9 -44 d 9 11 d 9 5 d 9 -58 d 9 -87 d 9 -73 d 9 -38 d 11 22 d 11
 72 d 11 40 d 12 47 d 11 2 d 11 -56 d 11 -56 d 11 -45 d 12 -84 d 11 -41 d 11 79 d 11 158 d 11 96 d 12 -25 d 11 -39 d 11 17 d 11 -37 d 11 -176 d 12 -323 d 11 -300 d 11 -36 d 11 240 d 11 285 d 12 204 d 11 105 d 11 4 d 11 -29 d 11 -9 d 12 33 d 11 67 d
 11 65 d 11 53 d 11 13 d 12 1 d 11 -1 d 11 1 d 11 -1 d 11 X 11 -21 d 12 -32 d 13 -40 d 14 -101 d 13 -72 d 13 27 d 14 94 d 13 51 d 14 52 d 13 42 d 67 X 14 1 d 13 -1 d 14 1 d 13 -1 d 215 X s 1 0 0 c black 1 0 0 c 363 1939 m 4 -55 d 5 -97 d 4 106 d 5 46
 d 4 1 d 5 -1 d 4 1 d 5 -1 d 4 1 d 5 X 4 -1 d 5 X 4 1 d 5 -1 d 4 -24 d 4 -158 d 5 -262 d 4 -175 d 5 53 d 4 62 d 5 -94 d 4 -121 d 5 -10 d 4 109 d 5 244 d 4 261 d 5 116 d 4 -1 d 9 X 5 -37 d 4 -14 d 5 16 d 4 35 d 5 1 d 4 X 5 -1 d 4 1 d 5 -1 d 4 -16 d 4
 -4 d 5 21 d 4 -1 d 5 X 4 1 d 5 X 4 -1 d 5 1 d 15 X 7 -1 d 7 X 7 1 d 6 X 7 -1 d 7 -36 d 7 -129 d 6 40 d 7 68 d 7 -28 d 6 -29 d 7 98 d 7 17 d 7 X 6 -1 d 14 X 6 1 d 7 X 7 -53 d 7 -23 d 6 75 d 7 1 d 7 -1 d 6 1 d 7 -268 d 7 -285 d 7 -55 d 6 126 d 7 170 d
 7 182 d 6 103 d 7 12 d 7 4 d 7 10 d 33 X 7 1 d 20 X 7 -1 d 7 1 d 6 -1 d 7 -117 d 7 -131 d 6 -58 d 7 17 d 7 12 d 7 -61 d 6 -147 d 7 -157 d 7 -79 d 6 31 d 7 68 d 7 57 d 7 60 d 6 119 d 7 176 d 7 169 d 6 42 d 23 X 9 -13 d 9 -69 d 9 34 d 9 43 d 9 -32 d 9
 -41 d 9 12 d 9 65 d 8 1 d 9 X 9 -1 d 9 -40 d 9 8 d 9 33 d 9 -8 d 9 -70 d 9 -60 d 9 -9 d 9 49 d 9 72 d 9 25 d 9 X 9 -26 d 9 -31 d 11 -25 d 11 -1 d 11 13 d 12 25 d 11 -17 d 11 -51 d 11 -25 d 11 14 d 12 20 d 11 -4 d 11 -16 d 11 -4 d 11 -13 d 12 -44 d
 11 -18 d 11 32 d 11 13 d 11 -114 d 12 -290 d 11 -281 d 11 -52 d 11 216 d 11 268 d 12 203 d 11 158 d 11 51 d 22 X 12 -1 d 11 1 d 555 X s 0 0 1 c black 0 0 1 c 363 1940 m 4 -110 d 5 -212 d 4 -58 d 5 154 d 4 196 d 5 29 d 4 X 5 1 d 4 -1 d 5 X 4 1 d 5
 -109 d 4 -46 d 5 49 d 4 68 d 4 34 d 5 -52 d 4 -110 d 5 -148 d 4 -116 d 5 -1 d 4 103 d 5 209 d 4 118 d 5 X 4 1 d 5 X 4 -23 d 5 -62 d 4 -110 d 5 -40 d 4 63 d 5 100 d 4 71 d 5 1 d 4 -1 d 5 -4 d 4 -26 d 5 -45 d 4 -59 d 4 48 d 5 86 d 4 1 d 9 X 5 -1 d 9 X
 4 1 d 11 X 7 -1 d 7 X 7 1 d 6 -1 d 7 1 d 7 -1 d 7 -38 d 6 22 d 7 17 d 34 X 6 -1 d 7 1 d 7 X 6 -1 d 14 X 7 -2 d 6 1 d 7 1 d 7 1 d 6 X 7 -1 d 7 -30 d 7 -31 d 6 34 d 7 27 d 7 -5 d 6 -101 d 7 -90 d 7 24 d 7 118 d 6 55 d 7 -1 d 7 1 d 6 -1 d 7 -20 d 7 -1
 d 7 7 d 6 14 d 7 X 7 -12 d 7 13 d 6 X 7 -1 d 7 X 6 1 d 7 X 7 -1 d 7 1 d 6 -1 d 7 1 d 27 X 7 -1 d 6 1 d 34 X 9 -1 d 9 1 d 9 -1 d 9 1 d 9 -26 d 9 -29 d 9 23 d 9 31 d 9 1 d 8 X 9 -1 d 9 X 9 1 d 9 X 9 -1 d 9 1 d 9 X 9 -1 d 9 -5 d 9 -21 d 9 -55 d 9 -110
 d 9 -98 d 9 -59 d 9 -9 d 11 53 d 11 83 d 11 37 d 12 35 d 11 20 d 11 -18 d 11 -45 d 11 -72 d 12 -124 d 11 -58 d 11 81 d 11 159 d 11 119 d 12 72 d 11 -5 d 11 -54 d 11 -87 d 11 -92 d 12 -75 d 11 -33 d 11 27 d 11 58 d 11 65 d 12 43 d 11 -38 d 11 -82 d
 11 -77 d 11 -37 d 12 18 d 11 68 d 11 74 d 11 69 d 11 48 d 12 22 d 11 6 d 11 4 d 11 X 11 -20 d 11 -37 d 12 -39 d 13 -71 d 14 -134 d 13 -75 d 13 27 d 14 114 d 13 84 d 14 81 d 13 85 d 14 55 d 13 19 d 13 -8 d 14 -22 d 13 -28 d 14 -19 d 13 1 d 14 23 d 13
 38 d 14 19 d 13 X 13 1 d 108 X 13 -1 d 54 X s black 3 lw 1 1 1 c 680 218 1134 544 bf black
 gsave  2268 2176 0 0 C 1917.67 749.564 t 0 r /Helvetica findfont 53.2685 sf 0 0 m (\2551) show NC gr 
 gsave  2268 2176 0 0 C 1301.27 711.515 t 0 r /Helvetica findfont 79.9028 sf 0 0 m (observed, 36.5 fb) show NC gr  6 lw 1159 725 m 119 X s
 gsave  2268 2176 0 0 C 1833.96 677.271 t 0 r /Helvetica findfont 53.2685 sf 0 0 m (\2551) show NC gr 
 gsave  2268 2176 0 0 C 1301.27 639.222 t 0 r /Helvetica findfont 79.9028 sf 0 0 m (ICHEP, 14.8 fb) show NC gr  1 0 0 c 1159 653 m 119 X s black
 gsave  2268 2176 0 0 C 2012.79 604.978 t 0 r /Helvetica findfont 53.2685 sf 0 0 m (\2551) show NC gr 
 gsave  2268 2176 0 0 C 1301.27 566.929 t 0 r /Helvetica findfont 79.9028 sf 0 0 m (post\255ICHEP, 21.7 fb) show NC gr  0 0 1 c 1159 580 m 119 X s black 3 lw 1 1 1 c 680 218 1134 544 bf black
 gsave  2268 2176 0 0 C 1917.67 749.564 t 0 r /Helvetica findfont 53.2685 sf 0 0 m (\2551) show NC gr 
 gsave  2268 2176 0 0 C 1301.27 711.515 t 0 r /Helvetica findfont 79.9028 sf 0 0 m (observed, 36.5 fb) show NC gr  6 lw 1159 725 m 119 X s
 gsave  2268 2176 0 0 C 1833.96 677.271 t 0 r /Helvetica findfont 53.2685 sf 0 0 m (\2551) show NC gr 
 gsave  2268 2176 0 0 C 1301.27 639.222 t 0 r /Helvetica findfont 79.9028 sf 0 0 m (ICHEP, 14.8 fb) show NC gr  1 0 0 c 1159 653 m 119 X s black
 gsave  2268 2176 0 0 C 2012.79 604.978 t 0 r /Helvetica findfont 53.2685 sf 0 0 m (\2551) show NC gr 
 gsave  2268 2176 0 0 C 1301.27 566.929 t 0 r /Helvetica findfont 79.9028 sf 0 0 m (post\255ICHEP, 21.7 fb) show NC gr  0 0 1 c 1159 580 m 119 X s black
 gsave  2268 2176 0 0 C 726.735 764.784 t 0 r /Helvetica findfont 79.9028 sf 0 0 m ( Internal) show NC gr 
 gsave  2268 2176 0 0 C 452.782 764.784 t 0 r /Helvetica-BoldOblique findfont 79.9028 sf 0 0 m (ATLAS) show NC gr 
 gsave  2268 2176 0 0 C 996.882 692.491 t 0 r /Helvetica findfont 53.2685 sf 0 0 m (\2551) show NC gr 
 gsave  2268 2176 0 0 C 452.782 654.442 t 0 r /Helvetica findfont 79.9028 sf 0 0 m (13 TeV, 36.5 fb) show NC gr 
 gsave  2268 2176 0 0 C 452.782 544.1 t 0 r /Helvetica findfont 79.9028 sf 0 0 m (NWA) show NC gr 
 gr  gr showpage
end
%%EOF
