%!PS-Adobe-2.0 EPSF-2.0
%%BoundingBox:  0 0 567 384
%%Title: H4l2015_plotfit/VBF_mass_signal_300_H4l_2mu2e.eps: 
%%Creator: ROOT Version 5.34/07
%%CreationDate: Mon Nov  9 16:28:23 2015
%%EndComments
%%BeginProlog
80 dict begin
/s {stroke} def /l {lineto} def /m {moveto} def /t {translate} def
/r {rotate} def /rl {roll}  def /R {repeat} def
/d {rlineto} def /rm {rmoveto} def /gr {grestore} def /f {eofill} def
/c {setrgbcolor} def /black {0 setgray} def /sd {setdash} def
/cl {closepath} def /sf {scalefont setfont} def /lw {setlinewidth} def
/box {m dup 0 exch d exch 0 d 0 exch neg d cl} def
/NC{systemdict begin initclip end}def/C{NC box clip newpath}def
/bl {box s} def /bf {box f} def /Y { 0 exch d} def /X { 0 d} def 
/K {{pop pop 0 moveto} exch kshow} bind def
/ita {/ang 15 def gsave [1 0 ang dup sin exch cos div 1 0 0] concat} def 
/mp {newpath /y exch def /x exch def} def
/side {[w .77 mul w .23 mul] .385 w mul sd w 0 l currentpoint t -144 r} def
/mr {mp x y w2 0 360 arc} def /m24 {mr s} def /m20 {mr f} def
/mb {mp x y w2 add m w2 neg 0 d 0 w neg d w 0 d 0 w d cl} def
/mt {mp x y w2 add m w2 neg w neg d w 0 d cl} def
/m21 {mb f} def /m25 {mb s} def /m22 {mt f} def /m26{mt s} def
/m23 {mp x y w2 sub m w2 w d w neg 0 d cl f} def
/m27 {mp x y w2 add m w3 neg w2 neg d w3 w2 neg d w3 w2 d cl s} def
/m28 {mp x w2 sub y w2 sub w3 add m w3 0 d  0 w3 neg d w3 0 d 0 w3 d w3 0 d  0 w3 d w3 neg 0 d 0 w3 d w3 neg 0 d 0 w3 neg d w3 neg 0 d cl s } def
/m29 {mp gsave x w2 sub y w2 add w3 sub m currentpoint t 4 {side} repeat cl fill gr} def
/m30 {mp gsave x w2 sub y w2 add w3 sub m currentpoint t 4 {side} repeat cl s gr} def
/m31 {mp x y w2 sub m 0 w d x w2 sub y m w 0 d x w2 sub y w2 add m w w neg d x w2 sub y w2 sub m w w d s} def
/m32 {mp x y w2 sub m w2 w d w neg 0 d cl s} def
/m33 {mp x y w2 add m w3 neg w2 neg d w3 w2 neg d w3 w2 d cl f} def
/m34 {mp x w2 sub y w2 sub w3 add m w3 0 d  0 w3 neg d w3 0 d 0 w3 d w3 0 d  0 w3 d w3 neg 0 d 0 w3 d w3 neg 0 d 0 w3 neg d w3 neg 0 d cl f } def
/m2 {mp x y w2 sub m 0 w d x w2 sub y m w 0 d s} def
/m5 {mp x w2 sub y w2 sub m w w d x w2 sub y w2 add m w w neg d s} def
/reEncode {exch findfont dup length dict begin {1 index /FID eq  {pop pop} {def} ifelse } forall /Encoding exch def currentdict end dup /FontName get exch definefont pop } def [/Times-Bold /Times-Italic /Times-BoldItalic /Helvetica /Helvetica-Oblique
 /Helvetica-Bold /Helvetica-BoldOblique /Courier /Courier-Oblique /Courier-Bold /Courier-BoldOblique /Times-Roman /AvantGarde-Book /AvantGarde-BookOblique /AvantGarde-Demi /AvantGarde-DemiOblique /Bookman-Demi /Bookman-DemiItalic /Bookman-Light
 /Bookman-LightItalic /Helvetica-Narrow /Helvetica-Narrow-Bold /Helvetica-Narrow-BoldOblique /Helvetica-Narrow-Oblique /NewCenturySchlbk-Roman /NewCenturySchlbk-Bold /NewCenturySchlbk-BoldItalic /NewCenturySchlbk-Italic /Palatino-Bold
 /Palatino-BoldItalic /Palatino-Italic /Palatino-Roman ] {ISOLatin1Encoding reEncode } forall
%%EndProlog
%%BeginSetup
%%EndSetup
newpath  gsave  .25 .25 scale  gsave  0 0 t black[  ] 0 sd 3 lw 1 1 1 c 2268 1538 0 0 bf black 1 1 1 c 2222 738 23 784 bf black 1 1 1 c 2222 739 23 15 bf black 1 1 1 c 2268 1077 0 461 bf black 1 1 1 c 1791 850 363 634 bf black 1791 850 363 634 bl 363
 634 m 1791 X s
 gsave  2268 1077 0 461 C 1642.14 498.507 t 0 r /Helvetica findfont 48.9324 sf 0 0 m (4l Invariant Mass \(GeV\)) show NC gr  482 659 m -25 Y s 530 646 m -12 Y s 578 646 m -12 Y s 626 646 m -12 Y s 673 646 m -12 Y s 721 659 m -25 Y s 769 646 m -12 Y s
 817 646 m -12 Y s 864 646 m -12 Y s 912 646 m -12 Y s 960 659 m -25 Y s 1008 646 m -12 Y s 1056 646 m -12 Y s 1103 646 m -12 Y s 1151 646 m -12 Y s 1199 659 m -25 Y s 1247 646 m -12 Y s 1294 646 m -12 Y s 1342 646 m -12 Y s 1390 646 m -12 Y s 1438
 659 m -25 Y s 1486 646 m -12 Y s 1533 646 m -12 Y s 1581 646 m -12 Y s 1629 646 m -12 Y s 1677 659 m -25 Y s 1724 646 m -12 Y s 1772 646 m -12 Y s 1820 646 m -12 Y s 1868 646 m -12 Y s 1915 659 m -25 Y s 1963 646 m -12 Y s 2011 646 m -12 Y s 2059
 646 m -12 Y s 2107 646 m -12 Y s 2154 659 m -25 Y s 482 659 m -25 Y s 434 646 m -12 Y s 387 646 m -12 Y s
 gsave  2268 1077 0 461 C 439.859 586.478 t 0 r /Helvetica findfont 48.9324 sf 0 0 m (250) show NC gr 
 gsave  2268 1077 0 461 C 677.708 586.478 t 0 r /Helvetica findfont 48.9324 sf 0 0 m (260) show NC gr 
 gsave  2268 1077 0 461 C 915.558 586.478 t 0 r /Helvetica findfont 48.9324 sf 0 0 m (270) show NC gr 
 gsave  2268 1077 0 461 C 1153.41 586.478 t 0 r /Helvetica findfont 48.9324 sf 0 0 m (280) show NC gr 
 gsave  2268 1077 0 461 C 1394.52 586.478 t 0 r /Helvetica findfont 48.9324 sf 0 0 m (290) show NC gr 
 gsave  2268 1077 0 461 C 1632.36 586.478 t 0 r /Helvetica findfont 48.9324 sf 0 0 m (300) show NC gr 
 gsave  2268 1077 0 461 C 1870.21 586.478 t 0 r /Helvetica findfont 48.9324 sf 0 0 m (310) show NC gr 
 gsave  2268 1077 0 461 C 2111.32 586.478 t 0 r /Helvetica findfont 48.9324 sf 0 0 m (320) show NC gr  363 1484 m 1791 X s 482 1459 m 25 Y s 530 1471 m 13 Y s 578 1471 m 13 Y s 626 1471 m 13 Y s 673 1471 m 13 Y s 721 1459 m 25 Y s 769 1471 m 13 Y s
 817 1471 m 13 Y s 864 1471 m 13 Y s 912 1471 m 13 Y s 960 1459 m 25 Y s 1008 1471 m 13 Y s 1056 1471 m 13 Y s 1103 1471 m 13 Y s 1151 1471 m 13 Y s 1199 1459 m 25 Y s 1247 1471 m 13 Y s 1294 1471 m 13 Y s 1342 1471 m 13 Y s 1390 1471 m 13 Y s 1438
 1459 m 25 Y s 1486 1471 m 13 Y s 1533 1471 m 13 Y s 1581 1471 m 13 Y s 1629 1471 m 13 Y s 1677 1459 m 25 Y s 1724 1471 m 13 Y s 1772 1471 m 13 Y s 1820 1471 m 13 Y s 1868 1471 m 13 Y s 1915 1459 m 25 Y s 1963 1471 m 13 Y s 2011 1471 m 13 Y s 2059
 1471 m 13 Y s 2107 1471 m 13 Y s 2154 1459 m 25 Y s 482 1459 m 25 Y s 434 1471 m 13 Y s 387 1471 m 13 Y s 363 634 m 850 Y s
 gsave  2268 1077 0 461 C 120.554 1058.92 t 90 r /Helvetica findfont 48.9324 sf 0 0 m (Events / \( 1.5 GeV \)) show NC gr  417 634 m -54 X s
 gsave  2268 1077 0 461 C 312.788 632.093 t 0 r /Helvetica findfont 32.6216 sf 0 0 m (\2552) show NC gr 
 gsave  2268 1077 0 461 C 260.657 612.544 t 0 r /Helvetica findfont 48.9324 sf 0 0 m (10) show NC gr  390 682 m -27 X s 390 710 m -27 X s 390 730 m -27 X s 390 745 m -27 X s 390 758 m -27 X s 390 769 m -27 X s 390 778 m -27 X s 390 786 m -27 X s 417
 793 m -54 X s
 gsave  2268 1077 0 461 C 319.305 791.746 t 0 r /Helvetica findfont 32.6216 sf 0 0 m (\2551) show NC gr 
 gsave  2268 1077 0 461 C 267.173 772.197 t 0 r /Helvetica findfont 48.9324 sf 0 0 m (10) show NC gr  390 842 m -27 X s 390 870 m -27 X s 390 890 m -27 X s 390 905 m -27 X s 390 918 m -27 X s 390 929 m -27 X s 390 938 m -27 X s 390 946 m -27 X s 417
 953 m -54 X s
 gsave  2268 1077 0 461 C 342.425 932.532 t 0 r  -27 0 t /Helvetica findfont 48.9324 sf 0 0 m (1) show NC gr  390 1002 m -27 X s 390 1030 m -27 X s 390 1050 m -27 X s 390 1065 m -27 X s 390 1078 m -27 X s 390 1089 m -27 X s 390 1098 m -27 X s 390
 1106 m -27 X s 417 1113 m -54 X s
 gsave  2268 1077 0 461 C 342.425 1092.42 t 0 r  -55 0 t /Helvetica findfont 48.9324 sf 0 0 m (10) show NC gr  390 1161 m -27 X s 390 1190 m -27 X s 390 1210 m -27 X s 390 1225 m -27 X s 390 1238 m -27 X s 390 1248 m -27 X s 390 1258 m -27 X s 390
 1266 m -27 X s 417 1273 m -54 X s
 gsave  2268 1077 0 461 C 322.563 1270.7 t 0 r /Helvetica findfont 32.6216 sf 0 0 m (2) show NC gr 
 gsave  2268 1077 0 461 C 270.432 1251.15 t 0 r /Helvetica findfont 48.9324 sf 0 0 m (10) show NC gr  390 1321 m -27 X s 390 1349 m -27 X s 390 1369 m -27 X s 390 1385 m -27 X s 390 1398 m -27 X s 390 1408 m -27 X s 390 1418 m -27 X s 390 1426 m -27
 X s 417 1433 m -54 X s
 gsave  2268 1077 0 461 C 322.563 1433.61 t 0 r /Helvetica findfont 32.6216 sf 0 0 m (3) show NC gr 
 gsave  2268 1077 0 461 C 270.432 1410.81 t 0 r /Helvetica findfont 48.9324 sf 0 0 m (10) show NC gr  390 1481 m -27 X s 2154 634 m 850 Y s 2101 634 m 53 X s 2127 682 m 27 X s 2127 710 m 27 X s 2127 730 m 27 X s 2127 745 m 27 X s 2127 758 m 27 X s
 2127 769 m 27 X s 2127 778 m 27 X s 2127 786 m 27 X s 2101 793 m 53 X s 2127 842 m 27 X s 2127 870 m 27 X s 2127 890 m 27 X s 2127 905 m 27 X s 2127 918 m 27 X s 2127 929 m 27 X s 2127 938 m 27 X s 2127 946 m 27 X s 2101 953 m 53 X s 2127 1002 m 27
 X s 2127 1030 m 27 X s 2127 1050 m 27 X s 2127 1065 m 27 X s 2127 1078 m 27 X s 2127 1089 m 27 X s 2127 1098 m 27 X s 2127 1106 m 27 X s 2101 1113 m 53 X s 2127 1161 m 27 X s 2127 1190 m 27 X s 2127 1210 m 27 X s 2127 1225 m 27 X s 2127 1238 m 27 X
 s 2127 1248 m 27 X s 2127 1258 m 27 X s 2127 1266 m 27 X s 2101 1273 m 53 X s 2127 1321 m 27 X s 2127 1349 m 27 X s 2127 1369 m 27 X s 2127 1385 m 27 X s 2127 1398 m 27 X s 2127 1408 m 27 X s 2127 1418 m 27 X s 2127 1426 m 27 X s 2101 1433 m 53 X s
 2127 1481 m 27 X s 381 1113 m -18 X s 363 1113 m cl s 381 1113 m 18 X s 399 1113 m cl s 381 1113 m 25 Y s 381 1138 m cl s 381 1113 m -26 Y s 381 1087 m cl s 417 1065 m -18 X s 399 1065 m cl s 417 1065 m 17 X s 434 1065 m cl s 417 1065 m 36 Y s 417
 1101 m cl s 417 1065 m -39 Y s 417 1026 m cl s 452 1131 m -18 X s 434 1131 m cl s 452 1131 m 18 X s 470 1131 m cl s 452 1131 m 22 Y s 452 1153 m cl s 452 1131 m -22 Y s 452 1109 m cl s 488 1137 m -18 X s 470 1137 m cl s 488 1137 m 18 X s 506 1137 m
 cl s 488 1137 m 20 Y s 488 1157 m cl s 488 1137 m -22 Y s 488 1115 m cl s 524 1113 m -18 X s 506 1113 m cl s 524 1113 m 18 X s 542 1113 m cl s 524 1113 m 25 Y s 524 1138 m cl s 524 1113 m -26 Y s 524 1087 m cl s 560 1120 m -18 X s 542 1120 m cl s
 560 1120 m 18 X s 578 1120 m cl s 560 1120 m 23 Y s 560 1143 m cl s 560 1120 m -25 Y s 560 1095 m cl s 596 1126 m -18 X s 578 1126 m cl s 596 1126 m 18 X s 614 1126 m cl s 596 1126 m 22 Y s 596 1148 m cl s 596 1126 m -23 Y s 596 1103 m cl s 632 1106
 m -18 X s 614 1106 m cl s 632 1106 m 17 X s 649 1106 m cl s 632 1106 m 26 Y s 632 1132 m cl s 632 1106 m -28 Y s 632 1078 m cl s 667 1098 m -18 X s 649 1098 m cl s 667 1098 m 18 X s 685 1098 m cl s 667 1098 m 28 Y s 667 1126 m cl s 667 1098 m -30 Y
 s 667 1068 m cl s 703 1146 m -18 X s 685 1146 m cl s 703 1146 m 18 X s 721 1146 m cl s 703 1146 m 19 Y s 703 1165 m cl s 703 1146 m -20 Y s 703 1126 m cl s 739 1126 m -18 X s 721 1126 m cl s 739 1126 m 18 X s 757 1126 m cl s 739 1126 m 22 Y s 739
 1148 m cl s 739 1126 m -23 Y s 739 1103 m cl s 775 1177 m -18 X s 757 1177 m cl s 775 1177 m 18 X s 793 1177 m cl s 775 1177 m 15 Y s 775 1192 m cl s 775 1177 m -15 Y s 775 1162 m cl s 811 1187 m -18 X s 793 1187 m cl s 811 1187 m 18 X s 829 1187 m
 cl s 811 1187 m 14 Y s 811 1201 m cl s 811 1187 m -14 Y s 811 1173 m cl s 847 1168 m -18 X s 829 1168 m cl s 847 1168 m 17 X s 864 1168 m cl s 847 1168 m 16 Y s 847 1184 m cl s 847 1168 m -16 Y s 847 1152 m cl s 882 1174 m -18 X s 864 1174 m cl s
 882 1174 m 18 X s 900 1174 m cl s 882 1174 m 15 Y s 882 1189 m cl s 882 1174 m -16 Y s 882 1158 m cl s 918 1146 m -18 X s 900 1146 m cl s 918 1146 m 18 X s 936 1146 m cl s 918 1146 m 19 Y s 918 1165 m cl s 918 1146 m -20 Y s 918 1126 m cl s 954 1210
 m -18 X s 936 1210 m cl s 954 1210 m 18 X s 972 1210 m cl s 954 1210 m 11 Y s 954 1221 m cl s 954 1210 m -12 Y s 954 1198 m cl s 990 1200 m -18 X s 972 1200 m cl s 990 1200 m 18 X s 1008 1200 m cl s 990 1200 m 13 Y s 990 1213 m cl s 990 1200 m -13 Y
 s 990 1187 m cl s 1026 1202 m -18 X s 1008 1202 m cl s 1026 1202 m 18 X s 1044 1202 m cl s 1026 1202 m 13 Y s 1026 1215 m cl s 1026 1202 m -12 Y s 1026 1190 m cl s 1062 1213 m -18 X s 1044 1213 m cl s 1062 1213 m 17 X s 1079 1213 m cl s 1062 1213 m
 11 Y s 1062 1224 m cl s 1062 1213 m -12 Y s 1062 1201 m cl s 1097 1235 m -18 X s 1079 1235 m cl s 1097 1235 m 18 X s 1115 1235 m cl s 1097 1235 m 10 Y s 1097 1245 m cl s 1097 1235 m -9 Y s 1097 1226 m cl s 1133 1228 m -18 X s 1115 1228 m cl s 1133
 1228 m 18 X s 1151 1228 m cl s 1133 1228 m 10 Y s 1133 1238 m cl s 1133 1228 m -11 Y s 1133 1217 m cl s 1169 1241 m -18 X s 1151 1241 m cl s 1169 1241 m 18 X s 1187 1241 m cl s 1169 1241 m 9 Y s 1169 1250 m cl s 1169 1241 m -9 Y s 1169 1232 m cl s
 1205 1259 m -18 X s 1187 1259 m cl s 1205 1259 m 18 X s 1223 1259 m cl s 1205 1259 m 8 Y s 1205 1267 m cl s 1205 1259 m -8 Y s 1205 1251 m cl s 1241 1274 m -18 X s 1223 1274 m cl s 1241 1274 m 18 X s 1259 1274 m cl s 1241 1274 m 7 Y s 1241 1281 m cl
 s 1241 1274 m -7 Y s 1241 1267 m cl s 1276 1298 m -17 X s 1259 1298 m cl s 1276 1298 m 18 X s 1294 1298 m cl s 1276 1298 m 5 Y s 1276 1303 m cl s 1276 1298 m -6 Y s 1276 1292 m cl s 1312 1310 m -18 X s 1294 1310 m cl s 1312 1310 m 18 X s 1330 1310 m
 cl s 1312 1310 m 5 Y s 1312 1315 m cl s 1312 1310 m -6 Y s 1312 1304 m cl s 1348 1326 m -18 X s 1330 1326 m cl s 1348 1326 m 18 X s 1366 1326 m cl s 1348 1326 m 5 Y s 1348 1331 m cl s 1348 1326 m -5 Y s 1348 1321 m cl s 1384 1342 m -18 X s 1366 1342
 m cl s 1384 1342 m 18 X s 1402 1342 m cl s 1384 1342 m 4 Y s 1384 1346 m cl s 1384 1342 m -4 Y s 1384 1338 m cl s 1420 1365 m -18 X s 1402 1365 m cl s 1420 1365 m 18 X s 1438 1365 m cl s 1420 1365 m 4 Y s 1420 1369 m cl s 1420 1365 m -3 Y s 1420
 1362 m cl s 1456 1377 m -18 X s 1438 1377 m cl s 1456 1377 m 18 X s 1474 1377 m cl s 1456 1377 m 4 Y s 1456 1381 m cl s 1456 1377 m -3 Y s 1456 1374 m cl s 1491 1404 m -17 X s 1474 1404 m cl s 1491 1404 m 18 X s 1509 1404 m cl s 1491 1404 m 3 Y s
 1491 1407 m cl s 1491 1404 m -2 Y s 1491 1402 m cl s 1527 1419 m -18 X s 1509 1419 m cl s 1527 1419 m 18 X s 1545 1419 m cl s 1527 1419 m 3 Y s 1527 1422 m cl s 1527 1419 m -2 Y s 1527 1417 m cl s 1563 1439 m -18 X s 1545 1439 m cl s 1563 1439 m 18
 X s 1581 1439 m cl s 1563 1439 m 2 Y s 1563 1441 m cl s 1563 1439 m -2 Y s 1563 1437 m cl s 1599 1447 m -18 X s 1581 1447 m cl s 1599 1447 m 18 X s 1617 1447 m cl s 1599 1447 m 2 Y s 1599 1449 m cl s 1599 1447 m -2 Y s 1599 1445 m cl s 1635 1448 m
 -18 X s 1617 1448 m cl s 1635 1448 m 18 X s 1653 1448 m cl s 1635 1448 m 2 Y s 1635 1450 m cl s 1635 1448 m -2 Y s 1635 1446 m cl s 1671 1446 m -18 X s 1653 1446 m cl s 1671 1446 m 18 X s 1689 1446 m cl s 1671 1446 m 2 Y s 1671 1448 m cl s 1671 1446
 m -2 Y s 1671 1444 m cl s 1706 1435 m -17 X s 1689 1435 m cl s 1706 1435 m 18 X s 1724 1435 m cl s 1706 1435 m 2 Y s 1706 1437 m cl s 1706 1435 m -2 Y s 1706 1433 m cl s 1742 1416 m -18 X s 1724 1416 m cl s 1742 1416 m 18 X s 1760 1416 m cl s 1742
 1416 m 2 Y s 1742 1418 m cl s 1742 1416 m -3 Y s 1742 1413 m cl s 1778 1393 m -18 X s 1760 1393 m cl s 1778 1393 m 18 X s 1796 1393 m cl s 1778 1393 m 3 Y s 1778 1396 m cl s 1778 1393 m -3 Y s 1778 1390 m cl s 1814 1356 m -18 X s 1796 1356 m cl s
 1814 1356 m 18 X s 1832 1356 m cl s 1814 1356 m 4 Y s 1814 1360 m cl s 1814 1356 m -4 Y s 1814 1352 m cl s 1850 1328 m -18 X s 1832 1328 m cl s 1850 1328 m 18 X s 1868 1328 m cl s 1850 1328 m 5 Y s 1850 1333 m cl s 1850 1328 m -4 Y s 1850 1324 m cl
 s 1886 1294 m -18 X s 1868 1294 m cl s 1886 1294 m 18 X s 1904 1294 m cl s 1886 1294 m 6 Y s 1886 1300 m cl s 1886 1294 m -6 Y s 1886 1288 m cl s 1921 1265 m -17 X s 1904 1265 m cl s 1921 1265 m 18 X s 1939 1265 m cl s 1921 1265 m 8 Y s 1921 1273 m
 cl s 1921 1265 m -8 Y s 1921 1257 m cl s 1957 1232 m -18 X s 1939 1232 m cl s 1957 1232 m 18 X s 1975 1232 m cl s 1957 1232 m 10 Y s 1957 1242 m cl s 1957 1232 m -10 Y s 1957 1222 m cl s 1993 1196 m -18 X s 1975 1196 m cl s 1993 1196 m 18 X s 2011
 1196 m cl s 1993 1196 m 13 Y s 1993 1209 m cl s 1993 1196 m -13 Y s 1993 1183 m cl s 2029 1171 m -18 X s 2011 1171 m cl s 2029 1171 m 18 X s 2047 1171 m cl s 2029 1171 m 16 Y s 2029 1187 m cl s 2029 1171 m -16 Y s 2029 1155 m cl s 2065 1137 m -18 X
 s 2047 1137 m cl s 2065 1137 m 18 X s 2083 1137 m cl s 2065 1137 m 20 Y s 2065 1157 m cl s 2065 1137 m -22 Y s 2065 1115 m cl s 2101 1131 m -18 X s 2083 1131 m cl s 2101 1131 m 18 X s 2119 1131 m cl s 2101 1131 m 22 Y s 2101 1153 m cl s 2101 1131 m
 -22 Y s 2101 1109 m cl s 2136 1078 m -17 X s 2119 1078 m cl s 2136 1078 m 18 X s 2154 1078 m cl s 2136 1078 m 32 Y s 2136 1110 m cl s 2136 1078 m -35 Y s 2136 1043 m cl s /w 31 def /w2 {w 2 div} def /w3 {w 3 div} def 381 1113 417 1065 452 1131 488
 1137 524 1113 560 1120 596 1126 632 1106 667 1098 703 1146 739 1126 775 1177 811 1187 847 1168 882 1174 918 1146 954 1210 990 1200 1026 1202 1062 1213 1097 1235 1133 1228 1169 1241 1205 1259 1241 1274 1276 1298 1312 1310 1348 1326 1384 1342 1420
 1365 1456 1377 1491 1404 1527 1419 1563 1439 1599 1447 1635 1448 1671 1446 1706 1435 1742 1416 1778 1393 1814 1356 1850 1328 1886 1294 1921 1265 1957 1232 1993 1196 2029 1171 2065 1137 2101 1131 2136 1078 50 { m20} R 0 1 1 c 1 1 0 c black 1 1 0 c
 363 1079 m 36 7 d 35 7 d 36 7 d 36 7 d 36 8 d 36 7 d 36 8 d 35 7 d 36 8 d 36 7 d 36 8 d 36 8 d 36 8 d 35 8 d 36 9 d 36 8 d 36 9 d 36 8 d 36 9 d 35 10 d 36 9 d 36 10 d 36 10 d 36 10 d 36 11 d 35 11 d 18 7 d 18 6 d 18 8 d 18 8 d 18 10 d 18 11 d 9 6 d
 9 6 d 9 6 d 9 6 d 9 6 d 9 6 d 9 6 d 9 6 d 9 6 d 8 6 d 18 10 d 18 9 d 18 8 d 9 3 d 9 3 d 9 3 d 9 2 d 9 2 d 9 1 d 9 1 d 9 1 d 18 X 9 -1 d 9 -1 d 9 -2 d 9 -2 d 9 -2 d 9 -3 d 8 -3 d 9 -4 d 18 -8 d 18 -9 d 18 -11 d 18 -12 d 9 -6 d 9 -7 d 9 -7 d 9 -7 d 9
 -7 d 9 -8 d 9 -7 d 9 -8 d 18 -15 d 18 -16 d 18 -16 d 17 -15 d 18 -16 d 18 -16 d 18 -16 d 36 -34 d 36 -35 d 36 -38 d 36 -41 d 35 -43 d -54 Y -35 53 d -36 50 d -36 45 d -36 41 d -36 39 d -18 19 d -18 18 d -18 17 d -17 18 d -18 16 d -18 17 d -18 16 d
 -9 7 d -9 8 d -9 8 d -9 7 d -9 7 d -9 7 d -9 7 d -9 7 d -18 13 d -18 11 d -18 10 d -18 8 d -9 4 d -8 3 d -9 3 d -9 2 d -9 2 d -9 2 d -9 1 d -9 1 d -18 X -9 -1 d -9 -1 d -9 -1 d -9 -2 d -9 -2 d -9 -3 d -9 -3 d -9 -3 d -18 -9 d -18 -10 d -18 -11 d -8
 -6 d -9 -6 d -9 -6 d -9 -6 d -9 -6 d -9 -7 d -9 -6 d -9 -6 d -9 -5 d -9 -6 d -18 -11 d -18 -10 d -18 -10 d -18 -8 d -18 -8 d -18 -7 d -35 -12 d -36 -10 d -36 -10 d -36 -9 d -36 -9 d -36 -10 d -35 -9 d -36 -10 d -36 -9 d -36 -9 d -36 -10 d -36 -9 d
 -35 -9 d -36 -9 d -36 -9 d -36 -9 d -36 -9 d -36 -8 d -35 -9 d -36 -9 d -36 -8 d -36 -8 d -36 -9 d -36 -8 d -35 -8 d -36 -8 d f 0 1 1 c 0 1 0 c black 0 1 0 c 363 1073 m 36 7 d 35 8 d 36 7 d 36 7 d 36 8 d 36 7 d 36 8 d 35 8 d 36 8 d 36 8 d 36 8 d 36
 8 d 36 8 d 35 9 d 36 8 d 36 9 d 36 8 d 36 9 d 36 9 d 35 10 d 36 9 d 36 10 d 36 10 d 36 10 d 36 10 d 35 12 d 18 6 d 18 7 d 18 8 d 18 9 d 18 10 d 18 11 d 9 5 d 9 6 d 9 6 d 9 7 d 9 6 d 9 6 d 9 6 d 9 6 d 9 6 d 8 5 d 18 11 d 18 9 d 18 8 d 9 3 d 9 3 d 9 3
 d 9 2 d 9 2 d 9 2 d 9 1 d 27 X 9 -1 d 9 -1 d 9 -1 d 9 -2 d 9 -3 d 9 -3 d 8 -3 d 9 -3 d 18 -9 d 18 -9 d 18 -11 d 18 -12 d 9 -7 d 9 -6 d 9 -7 d 9 -7 d 9 -8 d 9 -7 d 9 -8 d 9 -7 d 18 -16 d 18 -16 d 18 -16 d 17 -16 d 18 -16 d 18 -16 d 18 -17 d 36 -34 d
 36 -37 d 36 -39 d 36 -42 d 35 -46 d -25 Y -35 49 d -36 46 d -36 43 d -36 40 d -36 37 d -18 18 d -18 17 d -18 17 d -17 17 d -18 16 d -18 16 d -18 16 d -9 8 d -9 8 d -9 7 d -9 8 d -9 7 d -9 7 d -9 7 d -9 6 d -18 13 d -18 11 d -18 10 d -18 8 d -9 4 d
 -8 3 d -9 3 d -9 2 d -9 2 d -9 2 d -9 1 d -9 1 d -18 X -9 -1 d -9 -1 d -9 -1 d -9 -2 d -9 -2 d -9 -3 d -9 -3 d -9 -4 d -18 -8 d -18 -10 d -18 -11 d -8 -5 d -9 -6 d -9 -6 d -9 -7 d -9 -6 d -9 -6 d -9 -6 d -9 -6 d -9 -6 d -9 -5 d -18 -11 d -18 -10 d
 -18 -10 d -18 -8 d -18 -7 d -18 -7 d -35 -12 d -36 -10 d -36 -10 d -36 -10 d -36 -9 d -36 -10 d -35 -9 d -36 -9 d -36 -9 d -36 -10 d -36 -9 d -36 -9 d -35 -8 d -36 -9 d -36 -9 d -36 -8 d -36 -9 d -36 -8 d -35 -9 d -36 -8 d -36 -8 d -36 -8 d -36 -8 d
 -36 -8 d -35 -7 d -36 -8 d f 0 0 1 c 9 lw black 0 0 1 c 363 1067 m 36 7 d 35 8 d 36 7 d 36 8 d 36 8 d 36 8 d 36 7 d 35 8 d 36 9 d 36 8 d 36 8 d 36 8 d 36 9 d 35 9 d 36 8 d 36 9 d 36 9 d 36 9 d 36 9 d 35 9 d 36 10 d 36 9 d 36 10 d 36 10 d 36 11 d 35
 11 d 18 7 d 18 7 d 18 8 d 18 9 d 18 10 d 18 11 d 9 6 d 9 6 d 9 6 d 9 6 d 9 6 d 9 6 d 9 6 d 9 6 d 9 6 d 8 6 d 18 11 d 18 9 d 18 8 d 9 4 d 9 3 d 9 2 d 9 3 d 9 2 d 9 1 d 9 1 d 9 1 d 9 X 9 -1 d 9 X 9 -1 d 9 -2 d 9 -2 d 9 -2 d 9 -3 d 8 -3 d 9 -4 d 18 -8
 d 18 -10 d 18 -11 d 18 -12 d 9 -7 d 9 -7 d 9 -7 d 9 -7 d 9 -7 d 9 -8 d 9 -7 d 9 -8 d 18 -16 d 18 -16 d 18 -16 d 17 -16 d 18 -17 d 18 -17 d 18 -17 d 36 -36 d 36 -38 d 36 -40 d 36 -44 d 35 -47 d s black 3 lw 381 1113 m -18 X s 363 1113 m cl s 381 1113
 m 18 X s 399 1113 m cl s 381 1113 m 25 Y s 381 1138 m cl s 381 1113 m -26 Y s 381 1087 m cl s 417 1065 m -18 X s 399 1065 m cl s 417 1065 m 17 X s 434 1065 m cl s 417 1065 m 36 Y s 417 1101 m cl s 417 1065 m -39 Y s 417 1026 m cl s 452 1131 m -18 X
 s 434 1131 m cl s 452 1131 m 18 X s 470 1131 m cl s 452 1131 m 22 Y s 452 1153 m cl s 452 1131 m -22 Y s 452 1109 m cl s 488 1137 m -18 X s 470 1137 m cl s 488 1137 m 18 X s 506 1137 m cl s 488 1137 m 20 Y s 488 1157 m cl s 488 1137 m -22 Y s 488
 1115 m cl s 524 1113 m -18 X s 506 1113 m cl s 524 1113 m 18 X s 542 1113 m cl s 524 1113 m 25 Y s 524 1138 m cl s 524 1113 m -26 Y s 524 1087 m cl s 560 1120 m -18 X s 542 1120 m cl s 560 1120 m 18 X s 578 1120 m cl s 560 1120 m 23 Y s 560 1143 m
 cl s 560 1120 m -25 Y s 560 1095 m cl s 596 1126 m -18 X s 578 1126 m cl s 596 1126 m 18 X s 614 1126 m cl s 596 1126 m 22 Y s 596 1148 m cl s 596 1126 m -23 Y s 596 1103 m cl s 632 1106 m -18 X s 614 1106 m cl s 632 1106 m 17 X s 649 1106 m cl s
 632 1106 m 26 Y s 632 1132 m cl s 632 1106 m -28 Y s 632 1078 m cl s 667 1098 m -18 X s 649 1098 m cl s 667 1098 m 18 X s 685 1098 m cl s 667 1098 m 28 Y s 667 1126 m cl s 667 1098 m -30 Y s 667 1068 m cl s 703 1146 m -18 X s 685 1146 m cl s 703
 1146 m 18 X s 721 1146 m cl s 703 1146 m 19 Y s 703 1165 m cl s 703 1146 m -20 Y s 703 1126 m cl s 739 1126 m -18 X s 721 1126 m cl s 739 1126 m 18 X s 757 1126 m cl s 739 1126 m 22 Y s 739 1148 m cl s 739 1126 m -23 Y s 739 1103 m cl s 775 1177 m
 -18 X s 757 1177 m cl s 775 1177 m 18 X s 793 1177 m cl s 775 1177 m 15 Y s 775 1192 m cl s 775 1177 m -15 Y s 775 1162 m cl s 811 1187 m -18 X s 793 1187 m cl s 811 1187 m 18 X s 829 1187 m cl s 811 1187 m 14 Y s 811 1201 m cl s 811 1187 m -14 Y s
 811 1173 m cl s 847 1168 m -18 X s 829 1168 m cl s 847 1168 m 17 X s 864 1168 m cl s 847 1168 m 16 Y s 847 1184 m cl s 847 1168 m -16 Y s 847 1152 m cl s 882 1174 m -18 X s 864 1174 m cl s 882 1174 m 18 X s 900 1174 m cl s 882 1174 m 15 Y s 882 1189
 m cl s 882 1174 m -16 Y s 882 1158 m cl s 918 1146 m -18 X s 900 1146 m cl s 918 1146 m 18 X s 936 1146 m cl s 918 1146 m 19 Y s 918 1165 m cl s 918 1146 m -20 Y s 918 1126 m cl s 954 1210 m -18 X s 936 1210 m cl s 954 1210 m 18 X s 972 1210 m cl s
 954 1210 m 11 Y s 954 1221 m cl s 954 1210 m -12 Y s 954 1198 m cl s 990 1200 m -18 X s 972 1200 m cl s 990 1200 m 18 X s 1008 1200 m cl s 990 1200 m 13 Y s 990 1213 m cl s 990 1200 m -13 Y s 990 1187 m cl s 1026 1202 m -18 X s 1008 1202 m cl s 1026
 1202 m 18 X s 1044 1202 m cl s 1026 1202 m 13 Y s 1026 1215 m cl s 1026 1202 m -12 Y s 1026 1190 m cl s 1062 1213 m -18 X s 1044 1213 m cl s 1062 1213 m 17 X s 1079 1213 m cl s 1062 1213 m 11 Y s 1062 1224 m cl s 1062 1213 m -12 Y s 1062 1201 m cl s
 1097 1235 m -18 X s 1079 1235 m cl s 1097 1235 m 18 X s 1115 1235 m cl s 1097 1235 m 10 Y s 1097 1245 m cl s 1097 1235 m -9 Y s 1097 1226 m cl s 1133 1228 m -18 X s 1115 1228 m cl s 1133 1228 m 18 X s 1151 1228 m cl s 1133 1228 m 10 Y s 1133 1238 m
 cl s 1133 1228 m -11 Y s 1133 1217 m cl s 1169 1241 m -18 X s 1151 1241 m cl s 1169 1241 m 18 X s 1187 1241 m cl s 1169 1241 m 9 Y s 1169 1250 m cl s 1169 1241 m -9 Y s 1169 1232 m cl s 1205 1259 m -18 X s 1187 1259 m cl s 1205 1259 m 18 X s 1223
 1259 m cl s 1205 1259 m 8 Y s 1205 1267 m cl s 1205 1259 m -8 Y s 1205 1251 m cl s 1241 1274 m -18 X s 1223 1274 m cl s 1241 1274 m 18 X s 1259 1274 m cl s 1241 1274 m 7 Y s 1241 1281 m cl s 1241 1274 m -7 Y s 1241 1267 m cl s 1276 1298 m -17 X s
 1259 1298 m cl s 1276 1298 m 18 X s 1294 1298 m cl s 1276 1298 m 5 Y s 1276 1303 m cl s 1276 1298 m -6 Y s 1276 1292 m cl s 1312 1310 m -18 X s 1294 1310 m cl s 1312 1310 m 18 X s 1330 1310 m cl s 1312 1310 m 5 Y s 1312 1315 m cl s 1312 1310 m -6 Y
 s 1312 1304 m cl s 1348 1326 m -18 X s 1330 1326 m cl s 1348 1326 m 18 X s 1366 1326 m cl s 1348 1326 m 5 Y s 1348 1331 m cl s 1348 1326 m -5 Y s 1348 1321 m cl s 1384 1342 m -18 X s 1366 1342 m cl s 1384 1342 m 18 X s 1402 1342 m cl s 1384 1342 m 4
 Y s 1384 1346 m cl s 1384 1342 m -4 Y s 1384 1338 m cl s 1420 1365 m -18 X s 1402 1365 m cl s 1420 1365 m 18 X s 1438 1365 m cl s 1420 1365 m 4 Y s 1420 1369 m cl s 1420 1365 m -3 Y s 1420 1362 m cl s 1456 1377 m -18 X s 1438 1377 m cl s 1456 1377 m
 18 X s 1474 1377 m cl s 1456 1377 m 4 Y s 1456 1381 m cl s 1456 1377 m -3 Y s 1456 1374 m cl s 1491 1404 m -17 X s 1474 1404 m cl s 1491 1404 m 18 X s 1509 1404 m cl s 1491 1404 m 3 Y s 1491 1407 m cl s 1491 1404 m -2 Y s 1491 1402 m cl s 1527 1419
 m -18 X s 1509 1419 m cl s 1527 1419 m 18 X s 1545 1419 m cl s 1527 1419 m 3 Y s 1527 1422 m cl s 1527 1419 m -2 Y s 1527 1417 m cl s 1563 1439 m -18 X s 1545 1439 m cl s 1563 1439 m 18 X s 1581 1439 m cl s 1563 1439 m 2 Y s 1563 1441 m cl s 1563
 1439 m -2 Y s 1563 1437 m cl s 1599 1447 m -18 X s 1581 1447 m cl s 1599 1447 m 18 X s 1617 1447 m cl s 1599 1447 m 2 Y s 1599 1449 m cl s 1599 1447 m -2 Y s 1599 1445 m cl s 1635 1448 m -18 X s 1617 1448 m cl s 1635 1448 m 18 X s 1653 1448 m cl s
 1635 1448 m 2 Y s 1635 1450 m cl s 1635 1448 m -2 Y s 1635 1446 m cl s 1671 1446 m -18 X s 1653 1446 m cl s 1671 1446 m 18 X s 1689 1446 m cl s 1671 1446 m 2 Y s 1671 1448 m cl s 1671 1446 m -2 Y s 1671 1444 m cl s 1706 1435 m -17 X s 1689 1435 m cl
 s 1706 1435 m 18 X s 1724 1435 m cl s 1706 1435 m 2 Y s 1706 1437 m cl s 1706 1435 m -2 Y s 1706 1433 m cl s 1742 1416 m -18 X s 1724 1416 m cl s 1742 1416 m 18 X s 1760 1416 m cl s 1742 1416 m 2 Y s 1742 1418 m cl s 1742 1416 m -3 Y s 1742 1413 m
 cl s 1778 1393 m -18 X s 1760 1393 m cl s 1778 1393 m 18 X s 1796 1393 m cl s 1778 1393 m 3 Y s 1778 1396 m cl s 1778 1393 m -3 Y s 1778 1390 m cl s 1814 1356 m -18 X s 1796 1356 m cl s 1814 1356 m 18 X s 1832 1356 m cl s 1814 1356 m 4 Y s 1814 1360
 m cl s 1814 1356 m -4 Y s 1814 1352 m cl s 1850 1328 m -18 X s 1832 1328 m cl s 1850 1328 m 18 X s 1868 1328 m cl s 1850 1328 m 5 Y s 1850 1333 m cl s 1850 1328 m -4 Y s 1850 1324 m cl s 1886 1294 m -18 X s 1868 1294 m cl s 1886 1294 m 18 X s 1904
 1294 m cl s 1886 1294 m 6 Y s 1886 1300 m cl s 1886 1294 m -6 Y s 1886 1288 m cl s 1921 1265 m -17 X s 1904 1265 m cl s 1921 1265 m 18 X s 1939 1265 m cl s 1921 1265 m 8 Y s 1921 1273 m cl s 1921 1265 m -8 Y s 1921 1257 m cl s 1957 1232 m -18 X s
 1939 1232 m cl s 1957 1232 m 18 X s 1975 1232 m cl s 1957 1232 m 10 Y s 1957 1242 m cl s 1957 1232 m -10 Y s 1957 1222 m cl s 1993 1196 m -18 X s 1975 1196 m cl s 1993 1196 m 18 X s 2011 1196 m cl s 1993 1196 m 13 Y s 1993 1209 m cl s 1993 1196 m
 -13 Y s 1993 1183 m cl s 2029 1171 m -18 X s 2011 1171 m cl s 2029 1171 m 18 X s 2047 1171 m cl s 2029 1171 m 16 Y s 2029 1187 m cl s 2029 1171 m -16 Y s 2029 1155 m cl s 2065 1137 m -18 X s 2047 1137 m cl s 2065 1137 m 18 X s 2083 1137 m cl s 2065
 1137 m 20 Y s 2065 1157 m cl s 2065 1137 m -22 Y s 2065 1115 m cl s 2101 1131 m -18 X s 2083 1131 m cl s 2101 1131 m 18 X s 2119 1131 m cl s 2101 1131 m 22 Y s 2101 1153 m cl s 2101 1131 m -22 Y s 2101 1109 m cl s 2136 1078 m -17 X s 2119 1078 m cl
 s 2136 1078 m 18 X s 2154 1078 m cl s 2136 1078 m 32 Y s 2136 1110 m cl s 2136 1078 m -35 Y s 2136 1043 m cl s 381 1113 417 1065 452 1131 488 1137 524 1113 560 1120 596 1126 632 1106 667 1098 703 1146 739 1126 775 1177 811 1187 847 1168 882 1174 918
 1146 954 1210 990 1200 1026 1202 1062 1213 1097 1235 1133 1228 1169 1241 1205 1259 1241 1274 1276 1298 1312 1310 1348 1326 1384 1342 1420 1365 1456 1377 1491 1404 1527 1419 1563 1439 1599 1447 1635 1448 1671 1446 1706 1435 1742 1416 1778 1393 1814
 1356 1850 1328 1886 1294 1921 1265 1957 1232 1993 1196 2029 1171 2065 1137 2101 1131 2136 1078 50 { m20} R 0.52 0.76 0.64 c[ 4 8] 0 sd 9 lw black 0.52 0.76 0.64 c 363 1067 m 36 7 d 35 8 d 36 7 d 36 8 d 36 8 d 36 8 d 36 7 d 35 8 d 36 9 d 36 8 d 36 8
 d 36 8 d 36 9 d 35 9 d 36 8 d 36 9 d 36 9 d 36 9 d 36 9 d 35 9 d 36 10 d 36 9 d 36 10 d 36 10 d 36 10 d 35 10 d 18 5 d 18 5 d 18 5 d 18 6 d 18 5 d 18 5 d 18 6 d 18 5 d 18 5 d 18 6 d 17 5 d 18 6 d 18 5 d 18 4 d 9 1 d 9 2 d 9 1 d 9 1 d 9 1 d 9 1 d 9 X
 9 1 d 18 X 9 -1 d 9 X 9 -1 d 9 -1 d 9 -1 d 9 -2 d 8 -1 d 9 -2 d 18 -4 d 18 -5 d 18 -6 d 36 -14 d 36 -17 d 18 -10 d 18 -11 d 18 -12 d 18 -12 d 17 -13 d 18 -14 d 18 -15 d 18 -16 d 18 -16 d 18 -17 d 18 -18 d 18 -19 d 18 -20 d 18 -21 d 36 -43 d 35 -47 d
 s 0.54 0.66 0.63 c black 0.54 0.66 0.63 c 1139 634 m 12 40 d s 1151 674 m 36 109 d 36 101 d 36 91 d 35 84 d 18 38 d 18 36 d 18 35 d 18 32 d 18 29 d 9 14 d 9 14 d 9 13 d 9 13 d 9 12 d 9 11 d 9 11 d 9 10 d 9 10 d 9 9 d 9 9 d 8 8 d 18 15 d 36 23 d 9 5
 d 9 4 d 9 3 d 9 3 d 9 2 d 9 2 d 9 1 d 9 1 d 18 X 9 -1 d 9 -1 d 9 -2 d 9 -3 d 9 -3 d 9 -3 d 8 -5 d 9 -4 d 18 -11 d 18 -13 d 18 -15 d 9 -9 d 9 -9 d 9 -9 d 9 -10 d 9 -11 d 9 -11 d 9 -11 d 9 -13 d 9 -12 d 9 -13 d 9 -14 d 9 -15 d 18 -30 d 18 -32 d 17 -35
 d 18 -36 d 36 -80 d 36 -88 d 36 -97 d 36 -106 d 27 -86 d s black[  ] 0 sd 3 lw 363 634 m 1791 X s 482 659 m -25 Y s 530 646 m -12 Y s 578 646 m -12 Y s 626 646 m -12 Y s 673 646 m -12 Y s 721 659 m -25 Y s 769 646 m -12 Y s 817 646 m -12 Y s 864 646
 m -12 Y s 912 646 m -12 Y s 960 659 m -25 Y s 1008 646 m -12 Y s 1056 646 m -12 Y s 1103 646 m -12 Y s 1151 646 m -12 Y s 1199 659 m -25 Y s 1247 646 m -12 Y s 1294 646 m -12 Y s 1342 646 m -12 Y s 1390 646 m -12 Y s 1438 659 m -25 Y s 1486 646 m
 -12 Y s 1533 646 m -12 Y s 1581 646 m -12 Y s 1629 646 m -12 Y s 1677 659 m -25 Y s 1724 646 m -12 Y s 1772 646 m -12 Y s 1820 646 m -12 Y s 1868 646 m -12 Y s 1915 659 m -25 Y s 1963 646 m -12 Y s 2011 646 m -12 Y s 2059 646 m -12 Y s 2107 646 m
 -12 Y s 2154 659 m -25 Y s 482 659 m -25 Y s 434 646 m -12 Y s 387 646 m -12 Y s 363 1484 m 1791 X s 482 1459 m 25 Y s 530 1471 m 13 Y s 578 1471 m 13 Y s 626 1471 m 13 Y s 673 1471 m 13 Y s 721 1459 m 25 Y s 769 1471 m 13 Y s 817 1471 m 13 Y s 864
 1471 m 13 Y s 912 1471 m 13 Y s 960 1459 m 25 Y s 1008 1471 m 13 Y s 1056 1471 m 13 Y s 1103 1471 m 13 Y s 1151 1471 m 13 Y s 1199 1459 m 25 Y s 1247 1471 m 13 Y s 1294 1471 m 13 Y s 1342 1471 m 13 Y s 1390 1471 m 13 Y s 1438 1459 m 25 Y s 1486 1471
 m 13 Y s 1533 1471 m 13 Y s 1581 1471 m 13 Y s 1629 1471 m 13 Y s 1677 1459 m 25 Y s 1724 1471 m 13 Y s 1772 1471 m 13 Y s 1820 1471 m 13 Y s 1868 1471 m 13 Y s 1915 1459 m 25 Y s 1963 1471 m 13 Y s 2011 1471 m 13 Y s 2059 1471 m 13 Y s 2107 1471 m
 13 Y s 2154 1459 m 25 Y s 482 1459 m 25 Y s 434 1471 m 13 Y s 387 1471 m 13 Y s 363 634 m 850 Y s 417 634 m -54 X s 390 682 m -27 X s 390 710 m -27 X s 390 730 m -27 X s 390 745 m -27 X s 390 758 m -27 X s 390 769 m -27 X s 390 778 m -27 X s 390 786
 m -27 X s 417 793 m -54 X s 390 842 m -27 X s 390 870 m -27 X s 390 890 m -27 X s 390 905 m -27 X s 390 918 m -27 X s 390 929 m -27 X s 390 938 m -27 X s 390 946 m -27 X s 417 953 m -54 X s 390 1002 m -27 X s 390 1030 m -27 X s 390 1050 m -27 X s
 390 1065 m -27 X s 390 1078 m -27 X s 390 1089 m -27 X s 390 1098 m -27 X s 390 1106 m -27 X s 417 1113 m -54 X s 390 1161 m -27 X s 390 1190 m -27 X s 390 1210 m -27 X s 390 1225 m -27 X s 390 1238 m -27 X s 390 1248 m -27 X s 390 1258 m -27 X s
 390 1266 m -27 X s 417 1273 m -54 X s 390 1321 m -27 X s 390 1349 m -27 X s 390 1369 m -27 X s 390 1385 m -27 X s 390 1398 m -27 X s 390 1408 m -27 X s 390 1418 m -27 X s 390 1426 m -27 X s 417 1433 m -54 X s 390 1481 m -27 X s 2154 634 m 850 Y s
 2101 634 m 53 X s 2127 682 m 27 X s 2127 710 m 27 X s 2127 730 m 27 X s 2127 745 m 27 X s 2127 758 m 27 X s 2127 769 m 27 X s 2127 778 m 27 X s 2127 786 m 27 X s 2101 793 m 53 X s 2127 842 m 27 X s 2127 870 m 27 X s 2127 890 m 27 X s 2127 905 m 27 X
 s 2127 918 m 27 X s 2127 929 m 27 X s 2127 938 m 27 X s 2127 946 m 27 X s 2101 953 m 53 X s 2127 1002 m 27 X s 2127 1030 m 27 X s 2127 1050 m 27 X s 2127 1065 m 27 X s 2127 1078 m 27 X s 2127 1089 m 27 X s 2127 1098 m 27 X s 2127 1106 m 27 X s 2101
 1113 m 53 X s 2127 1161 m 27 X s 2127 1190 m 27 X s 2127 1210 m 27 X s 2127 1225 m 27 X s 2127 1238 m 27 X s 2127 1248 m 27 X s 2127 1258 m 27 X s 2127 1266 m 27 X s 2101 1273 m 53 X s 2127 1321 m 27 X s 2127 1349 m 27 X s 2127 1369 m 27 X s 2127
 1385 m 27 X s 2127 1398 m 27 X s 2127 1408 m 27 X s 2127 1418 m 27 X s 2127 1426 m 27 X s 2101 1433 m 53 X s 2127 1481 m 27 X s
 gsave  2268 1077 0 461 C 677.708 1215.31 t 0 r /Helvetica findfont 58.7189 sf 0 0 m (2mu2e) show NC gr  1 1 1 c 453 161 454 1269 bf black
 gsave  2268 1077 0 461 C 566.929 1371.71 t 0 r /Helvetica-Bold findfont 48.9324 sf 0 0 m (MC15) show NC gr  510 1390 m20
 gsave  2268 1077 0 461 C 566.929 1293.51 t 0 r /Helvetica-Bold findfont 48.9324 sf 0 0 m (Projection of Signal pdf) show NC gr  0 0 1 c 9 lw 471 1309 m 79 X s black 3 lw 1 1 1 c 2268 461 0 0 bf black 1 1 1 c 1791 364 363 74 bf black 1791 364 363 74
 bl 363 74 m 1791 X s
 gsave  2268 461 0 0 C 1915.83 13.0329 t 0 r /Helvetica findfont 22.9045 sf 0 0 m (4l Invariant Mass \(GeV\)) show NC gr  482 85 m -11 Y s 530 79 m -5 Y s 578 79 m -5 Y s 626 79 m -5 Y s 673 79 m -5 Y s 721 85 m -11 Y s 769 79 m -5 Y s 817 79 m -5 Y
 s 864 79 m -5 Y s 912 79 m -5 Y s 960 85 m -11 Y s 1008 79 m -5 Y s 1056 79 m -5 Y s 1103 79 m -5 Y s 1151 79 m -5 Y s 1199 85 m -11 Y s 1247 79 m -5 Y s 1294 79 m -5 Y s 1342 79 m -5 Y s 1390 79 m -5 Y s 1438 85 m -11 Y s 1486 79 m -5 Y s 1533 79 m
 -5 Y s 1581 79 m -5 Y s 1629 79 m -5 Y s 1677 85 m -11 Y s 1724 79 m -5 Y s 1772 79 m -5 Y s 1820 79 m -5 Y s 1868 79 m -5 Y s 1915 85 m -11 Y s 1963 79 m -5 Y s 2011 79 m -5 Y s 2059 79 m -5 Y s 2107 79 m -5 Y s 2154 85 m -11 Y s 482 85 m -11 Y s
 434 79 m -5 Y s 387 79 m -5 Y s
 gsave  2268 461 0 0 C 462.666 55.3896 t 0 r /Helvetica findfont 22.9045 sf 0 0 m (250) show NC gr 
 gsave  2268 461 0 0 C 700.516 55.3896 t 0 r /Helvetica findfont 22.9045 sf 0 0 m (260) show NC gr 
 gsave  2268 461 0 0 C 938.365 55.3896 t 0 r /Helvetica findfont 22.9045 sf 0 0 m (270) show NC gr 
 gsave  2268 461 0 0 C 1176.22 55.3896 t 0 r /Helvetica findfont 22.9045 sf 0 0 m (280) show NC gr 
 gsave  2268 461 0 0 C 1417.32 55.3896 t 0 r /Helvetica findfont 22.9045 sf 0 0 m (290) show NC gr 
 gsave  2268 461 0 0 C 1655.17 55.3896 t 0 r /Helvetica findfont 22.9045 sf 0 0 m (300) show NC gr 
 gsave  2268 461 0 0 C 1893.02 55.3896 t 0 r /Helvetica findfont 22.9045 sf 0 0 m (310) show NC gr 
 gsave  2268 461 0 0 C 2134.13 55.3896 t 0 r /Helvetica findfont 22.9045 sf 0 0 m (320) show NC gr  363 438 m 1791 X s 482 427 m 11 Y s 530 433 m 5 Y s 578 433 m 5 Y s 626 433 m 5 Y s 673 433 m 5 Y s 721 427 m 11 Y s 769 433 m 5 Y s 817 433 m 5 Y s
 864 433 m 5 Y s 912 433 m 5 Y s 960 427 m 11 Y s 1008 433 m 5 Y s 1056 433 m 5 Y s 1103 433 m 5 Y s 1151 433 m 5 Y s 1199 427 m 11 Y s 1247 433 m 5 Y s 1294 433 m 5 Y s 1342 433 m 5 Y s 1390 433 m 5 Y s 1438 427 m 11 Y s 1486 433 m 5 Y s 1533 433 m
 5 Y s 1581 433 m 5 Y s 1629 433 m 5 Y s 1677 427 m 11 Y s 1724 433 m 5 Y s 1772 433 m 5 Y s 1820 433 m 5 Y s 1868 433 m 5 Y s 1915 427 m 11 Y s 1963 433 m 5 Y s 2011 433 m 5 Y s 2059 433 m 5 Y s 2107 433 m 5 Y s 2154 427 m 11 Y s 482 427 m 11 Y s
 434 433 m 5 Y s 387 433 m 5 Y s 363 74 m 364 Y s 417 74 m -54 X s 390 81 m -27 X s 390 88 m -27 X s 390 96 m -27 X s 390 103 m -27 X s 417 110 m -54 X s 390 118 m -27 X s 390 125 m -27 X s 390 132 m -27 X s 390 139 m -27 X s 417 147 m -54 X s 390
 154 m -27 X s 390 161 m -27 X s 390 169 m -27 X s 390 176 m -27 X s 417 183 m -54 X s 390 190 m -27 X s 390 198 m -27 X s 390 205 m -27 X s 390 212 m -27 X s 417 220 m -54 X s 390 227 m -27 X s 390 234 m -27 X s 390 241 m -27 X s 390 249 m -27 X s
 417 256 m -54 X s 390 263 m -27 X s 390 271 m -27 X s 390 278 m -27 X s 390 285 m -27 X s 417 293 m -54 X s 390 300 m -27 X s 390 307 m -27 X s 390 314 m -27 X s 390 322 m -27 X s 417 329 m -54 X s 390 336 m -27 X s 390 344 m -27 X s 390 351 m -27 X
 s 390 358 m -27 X s 417 365 m -54 X s 390 373 m -27 X s 390 380 m -27 X s 390 387 m -27 X s 390 395 m -27 X s 417 402 m -54 X s 390 409 m -27 X s 390 416 m -27 X s 390 424 m -27 X s 390 431 m -27 X s 417 438 m -54 X s
 gsave  2268 461 0 0 C 329.08 65.1643 t 0 r /Helvetica findfont 22.9045 sf 0 0 m (\2555) show NC gr 
 gsave  2268 461 0 0 C 329.08 101.005 t 0 r /Helvetica findfont 22.9045 sf 0 0 m (\2554) show NC gr 
 gsave  2268 461 0 0 C 329.08 140.103 t 0 r /Helvetica findfont 22.9045 sf 0 0 m (\2553) show NC gr 
 gsave  2268 461 0 0 C 329.08 175.944 t 0 r /Helvetica findfont 22.9045 sf 0 0 m (\2552) show NC gr 
 gsave  2268 461 0 0 C 332.338 211.784 t 0 r /Helvetica findfont 22.9045 sf 0 0 m (\2551) show NC gr 
 gsave  2268 461 0 0 C 335.596 247.624 t 0 r /Helvetica findfont 22.9045 sf 0 0 m (0) show NC gr 
 gsave  2268 461 0 0 C 338.854 283.465 t 0 r /Helvetica findfont 22.9045 sf 0 0 m (1) show NC gr 
 gsave  2268 461 0 0 C 335.596 319.305 t 0 r /Helvetica findfont 22.9045 sf 0 0 m (2) show NC gr 
 gsave  2268 461 0 0 C 335.596 358.403 t 0 r /Helvetica findfont 22.9045 sf 0 0 m (3) show NC gr 
 gsave  2268 461 0 0 C 335.596 394.244 t 0 r /Helvetica findfont 22.9045 sf 0 0 m (4) show NC gr 
 gsave  2268 461 0 0 C 335.596 430.084 t 0 r /Helvetica findfont 22.9045 sf 0 0 m (5) show NC gr  2154 74 m 364 Y s 2101 74 m 53 X s 2127 81 m 27 X s 2127 88 m 27 X s 2127 96 m 27 X s 2127 103 m 27 X s 2101 110 m 53 X s 2127 118 m 27 X s 2127 125 m
 27 X s 2127 132 m 27 X s 2127 139 m 27 X s 2101 147 m 53 X s 2127 154 m 27 X s 2127 161 m 27 X s 2127 169 m 27 X s 2127 176 m 27 X s 2101 183 m 53 X s 2127 190 m 27 X s 2127 198 m 27 X s 2127 205 m 27 X s 2127 212 m 27 X s 2101 220 m 53 X s 2127 227
 m 27 X s 2127 234 m 27 X s 2127 241 m 27 X s 2127 249 m 27 X s 2101 256 m 53 X s 2127 263 m 27 X s 2127 271 m 27 X s 2127 278 m 27 X s 2127 285 m 27 X s 2101 293 m 53 X s 2127 300 m 27 X s 2127 307 m 27 X s 2127 314 m 27 X s 2127 322 m 27 X s 2101
 329 m 53 X s 2127 336 m 27 X s 2127 344 m 27 X s 2127 351 m 27 X s 2127 358 m 27 X s 2101 365 m 53 X s 2127 373 m 27 X s 2127 380 m 27 X s 2127 387 m 27 X s 2127 395 m 27 X s 2101 402 m 53 X s 2127 409 m 27 X s 2127 416 m 27 X s 2127 424 m 27 X s
 2127 431 m 27 X s 2101 438 m 53 X s 6 lw 0.2 0.8 0.2 c black 3 lw 0.2 0.8 0.2 c 363 256 m 54 Y 36 X -65 Y 35 X 75 Y 72 X -45 Y 36 X -1 Y 36 X -2 Y 36 X -40 Y 35 X -24 Y 36 X 59 Y 36 X -49 Y 36 X 83 Y 36 X 7 Y 36 X -65 Y 35 X -7 Y 36 X -87 Y 36 X 135
 Y 36 X -54 Y 36 X -24 Y 36 X 1 Y 35 X 42 Y 36 X -66 Y 36 X 9 Y 36 X 33 Y 36 X 17 Y 36 X 73 Y 35 X 5 Y 36 X 15 Y 36 X -13 Y 36 X 16 Y 36 X -123 Y 36 X 35 Y 35 X -84 Y 36 X 82 Y 36 X -1 Y 36 X -21 Y 36 X 73 Y 36 X 4 Y 35 X -16 Y 36 X 2 Y 36 X -99 Y 36
 X 29 Y 36 X -7 Y 36 X 28 Y 35 X 4 Y 36 X -5 Y 36 X 30 Y 36 X 5 Y 36 X 47 Y 36 X -26 Y 35 X -39 Y f 6 lw black 0.2 0.8 0.2 c black 363 310 m 36 X -65 Y 35 X 75 Y 72 X -45 Y 36 X -1 Y 36 X -2 Y 36 X -40 Y 35 X -24 Y 36 X 59 Y 36 X -49 Y 36 X 83 Y 36 X
 7 Y 36 X -65 Y 35 X -7 Y 36 X -87 Y 36 X 135 Y 36 X -54 Y 36 X -24 Y 36 X 1 Y 35 X 42 Y 36 X -66 Y 36 X 9 Y 36 X 33 Y 36 X 17 Y 36 X 73 Y 35 X 5 Y 36 X 15 Y 36 X -13 Y 36 X 16 Y 36 X -123 Y 36 X 35 Y 35 X -84 Y 36 X 82 Y 36 X -1 Y 36 X -21 Y 36 X 73
 Y 36 X 4 Y 35 X -16 Y 36 X 2 Y 36 X -99 Y 36 X 29 Y 36 X -7 Y 36 X 28 Y 35 X 4 Y 36 X -5 Y 36 X 30 Y 36 X 5 Y 36 X 47 Y 36 X -26 Y 35 X s 3 lw 363 74 m 1791 X s 482 85 m -11 Y s 530 79 m -5 Y s 578 79 m -5 Y s 626 79 m -5 Y s 673 79 m -5 Y s 721 85
 m -11 Y s 769 79 m -5 Y s 817 79 m -5 Y s 864 79 m -5 Y s 912 79 m -5 Y s 960 85 m -11 Y s 1008 79 m -5 Y s 1056 79 m -5 Y s 1103 79 m -5 Y s 1151 79 m -5 Y s 1199 85 m -11 Y s 1247 79 m -5 Y s 1294 79 m -5 Y s 1342 79 m -5 Y s 1390 79 m -5 Y s 1438
 85 m -11 Y s 1486 79 m -5 Y s 1533 79 m -5 Y s 1581 79 m -5 Y s 1629 79 m -5 Y s 1677 85 m -11 Y s 1724 79 m -5 Y s 1772 79 m -5 Y s 1820 79 m -5 Y s 1868 79 m -5 Y s 1915 85 m -11 Y s 1963 79 m -5 Y s 2011 79 m -5 Y s 2059 79 m -5 Y s 2107 79 m -5
 Y s 2154 85 m -11 Y s 482 85 m -11 Y s 434 79 m -5 Y s 387 79 m -5 Y s 363 438 m 1791 X s 482 427 m 11 Y s 530 433 m 5 Y s 578 433 m 5 Y s 626 433 m 5 Y s 673 433 m 5 Y s 721 427 m 11 Y s 769 433 m 5 Y s 817 433 m 5 Y s 864 433 m 5 Y s 912 433 m 5 Y
 s 960 427 m 11 Y s 1008 433 m 5 Y s 1056 433 m 5 Y s 1103 433 m 5 Y s 1151 433 m 5 Y s 1199 427 m 11 Y s 1247 433 m 5 Y s 1294 433 m 5 Y s 1342 433 m 5 Y s 1390 433 m 5 Y s 1438 427 m 11 Y s 1486 433 m 5 Y s 1533 433 m 5 Y s 1581 433 m 5 Y s 1629
 433 m 5 Y s 1677 427 m 11 Y s 1724 433 m 5 Y s 1772 433 m 5 Y s 1820 433 m 5 Y s 1868 433 m 5 Y s 1915 427 m 11 Y s 1963 433 m 5 Y s 2011 433 m 5 Y s 2059 433 m 5 Y s 2107 433 m 5 Y s 2154 427 m 11 Y s 482 427 m 11 Y s 434 433 m 5 Y s 387 433 m 5 Y
 s 363 74 m 364 Y s 417 74 m -54 X s 390 81 m -27 X s 390 88 m -27 X s 390 96 m -27 X s 390 103 m -27 X s 417 110 m -54 X s 390 118 m -27 X s 390 125 m -27 X s 390 132 m -27 X s 390 139 m -27 X s 417 147 m -54 X s 390 154 m -27 X s 390 161 m -27 X s
 390 169 m -27 X s 390 176 m -27 X s 417 183 m -54 X s 390 190 m -27 X s 390 198 m -27 X s 390 205 m -27 X s 390 212 m -27 X s 417 220 m -54 X s 390 227 m -27 X s 390 234 m -27 X s 390 241 m -27 X s 390 249 m -27 X s 417 256 m -54 X s 390 263 m -27 X
 s 390 271 m -27 X s 390 278 m -27 X s 390 285 m -27 X s 417 293 m -54 X s 390 300 m -27 X s 390 307 m -27 X s 390 314 m -27 X s 390 322 m -27 X s 417 329 m -54 X s 390 336 m -27 X s 390 344 m -27 X s 390 351 m -27 X s 390 358 m -27 X s 417 365 m -54
 X s 390 373 m -27 X s 390 380 m -27 X s 390 387 m -27 X s 390 395 m -27 X s 417 402 m -54 X s 390 409 m -27 X s 390 416 m -27 X s 390 424 m -27 X s 390 431 m -27 X s 417 438 m -54 X s 2154 74 m 364 Y s 2101 74 m 53 X s 2127 81 m 27 X s 2127 88 m 27
 X s 2127 96 m 27 X s 2127 103 m 27 X s 2101 110 m 53 X s 2127 118 m 27 X s 2127 125 m 27 X s 2127 132 m 27 X s 2127 139 m 27 X s 2101 147 m 53 X s 2127 154 m 27 X s 2127 161 m 27 X s 2127 169 m 27 X s 2127 176 m 27 X s 2101 183 m 53 X s 2127 190 m
 27 X s 2127 198 m 27 X s 2127 205 m 27 X s 2127 212 m 27 X s 2101 220 m 53 X s 2127 227 m 27 X s 2127 234 m 27 X s 2127 241 m 27 X s 2127 249 m 27 X s 2101 256 m 53 X s 2127 263 m 27 X s 2127 271 m 27 X s 2127 278 m 27 X s 2127 285 m 27 X s 2101 293
 m 53 X s 2127 300 m 27 X s 2127 307 m 27 X s 2127 314 m 27 X s 2127 322 m 27 X s 2101 329 m 53 X s 2127 336 m 27 X s 2127 344 m 27 X s 2127 351 m 27 X s 2127 358 m 27 X s 2101 365 m 53 X s 2127 373 m 27 X s 2127 380 m 27 X s 2127 387 m 27 X s 2127
 395 m 27 X s 2101 402 m 53 X s 2127 409 m 27 X s 2127 416 m 27 X s 2127 424 m 27 X s 2127 431 m 27 X s 2101 438 m 53 X s
 gr  gr showpage
end
%%EOF
