%!PS-Adobe-2.0 EPSF-2.0
%%BoundingBox:  0 0 567 384
%%Title: H4l2015_plotfit/VBF_mass_signal_600_H4l_4mu.eps: 
%%Creator: ROOT Version 5.34/07
%%CreationDate: Mon Nov  9 16:29:39 2015
%%EndComments
%%BeginProlog
80 dict begin
/s {stroke} def /l {lineto} def /m {moveto} def /t {translate} def
/r {rotate} def /rl {roll}  def /R {repeat} def
/d {rlineto} def /rm {rmoveto} def /gr {grestore} def /f {eofill} def
/c {setrgbcolor} def /black {0 setgray} def /sd {setdash} def
/cl {closepath} def /sf {scalefont setfont} def /lw {setlinewidth} def
/box {m dup 0 exch d exch 0 d 0 exch neg d cl} def
/NC{systemdict begin initclip end}def/C{NC box clip newpath}def
/bl {box s} def /bf {box f} def /Y { 0 exch d} def /X { 0 d} def 
/K {{pop pop 0 moveto} exch kshow} bind def
/ita {/ang 15 def gsave [1 0 ang dup sin exch cos div 1 0 0] concat} def 
/mp {newpath /y exch def /x exch def} def
/side {[w .77 mul w .23 mul] .385 w mul sd w 0 l currentpoint t -144 r} def
/mr {mp x y w2 0 360 arc} def /m24 {mr s} def /m20 {mr f} def
/mb {mp x y w2 add m w2 neg 0 d 0 w neg d w 0 d 0 w d cl} def
/mt {mp x y w2 add m w2 neg w neg d w 0 d cl} def
/m21 {mb f} def /m25 {mb s} def /m22 {mt f} def /m26{mt s} def
/m23 {mp x y w2 sub m w2 w d w neg 0 d cl f} def
/m27 {mp x y w2 add m w3 neg w2 neg d w3 w2 neg d w3 w2 d cl s} def
/m28 {mp x w2 sub y w2 sub w3 add m w3 0 d  0 w3 neg d w3 0 d 0 w3 d w3 0 d  0 w3 d w3 neg 0 d 0 w3 d w3 neg 0 d 0 w3 neg d w3 neg 0 d cl s } def
/m29 {mp gsave x w2 sub y w2 add w3 sub m currentpoint t 4 {side} repeat cl fill gr} def
/m30 {mp gsave x w2 sub y w2 add w3 sub m currentpoint t 4 {side} repeat cl s gr} def
/m31 {mp x y w2 sub m 0 w d x w2 sub y m w 0 d x w2 sub y w2 add m w w neg d x w2 sub y w2 sub m w w d s} def
/m32 {mp x y w2 sub m w2 w d w neg 0 d cl s} def
/m33 {mp x y w2 add m w3 neg w2 neg d w3 w2 neg d w3 w2 d cl f} def
/m34 {mp x w2 sub y w2 sub w3 add m w3 0 d  0 w3 neg d w3 0 d 0 w3 d w3 0 d  0 w3 d w3 neg 0 d 0 w3 d w3 neg 0 d 0 w3 neg d w3 neg 0 d cl f } def
/m2 {mp x y w2 sub m 0 w d x w2 sub y m w 0 d s} def
/m5 {mp x w2 sub y w2 sub m w w d x w2 sub y w2 add m w w neg d s} def
/reEncode {exch findfont dup length dict begin {1 index /FID eq  {pop pop} {def} ifelse } forall /Encoding exch def currentdict end dup /FontName get exch definefont pop } def [/Times-Bold /Times-Italic /Times-BoldItalic /Helvetica /Helvetica-Oblique
 /Helvetica-Bold /Helvetica-BoldOblique /Courier /Courier-Oblique /Courier-Bold /Courier-BoldOblique /Times-Roman /AvantGarde-Book /AvantGarde-BookOblique /AvantGarde-Demi /AvantGarde-DemiOblique /Bookman-Demi /Bookman-DemiItalic /Bookman-Light
 /Bookman-LightItalic /Helvetica-Narrow /Helvetica-Narrow-Bold /Helvetica-Narrow-BoldOblique /Helvetica-Narrow-Oblique /NewCenturySchlbk-Roman /NewCenturySchlbk-Bold /NewCenturySchlbk-BoldItalic /NewCenturySchlbk-Italic /Palatino-Bold
 /Palatino-BoldItalic /Palatino-Italic /Palatino-Roman ] {ISOLatin1Encoding reEncode } forall
%%EndProlog
%%BeginSetup
%%EndSetup
newpath  gsave  .25 .25 scale  gsave  0 0 t black[  ] 0 sd 3 lw 1 1 1 c 2268 1538 0 0 bf black 1 1 1 c 2222 738 23 784 bf black 1 1 1 c 2222 739 23 15 bf black 1 1 1 c 2268 1077 0 461 bf black 1 1 1 c 1791 850 363 634 bf black 1791 850 363 634 bl 363
 634 m 1791 X s
 gsave  2268 1077 0 461 C 1642.14 498.507 t 0 r /Helvetica findfont 48.9324 sf 0 0 m (4l Invariant Mass \(GeV\)) show NC gr  363 659 m -25 Y s 432 646 m -12 Y s 501 646 m -12 Y s 570 646 m -12 Y s 638 646 m -12 Y s 707 659 m -25 Y s 776 646 m -12 Y s
 845 646 m -12 Y s 914 646 m -12 Y s 983 646 m -12 Y s 1052 659 m -25 Y s 1121 646 m -12 Y s 1190 646 m -12 Y s 1259 646 m -12 Y s 1327 646 m -12 Y s 1396 659 m -25 Y s 1465 646 m -12 Y s 1534 646 m -12 Y s 1603 646 m -12 Y s 1672 646 m -12 Y s 1741
 659 m -25 Y s 1810 646 m -12 Y s 1879 646 m -12 Y s 1948 646 m -12 Y s 2017 646 m -12 Y s 2085 659 m -25 Y s 2085 659 m -25 Y s
 gsave  2268 1077 0 461 C 319.305 586.478 t 0 r /Helvetica findfont 48.9324 sf 0 0 m (400) show NC gr 
 gsave  2268 1077 0 461 C 664.676 586.478 t 0 r /Helvetica findfont 48.9324 sf 0 0 m (450) show NC gr 
 gsave  2268 1077 0 461 C 1006.79 586.478 t 0 r /Helvetica findfont 48.9324 sf 0 0 m (500) show NC gr 
 gsave  2268 1077 0 461 C 1352.16 586.478 t 0 r /Helvetica findfont 48.9324 sf 0 0 m (550) show NC gr 
 gsave  2268 1077 0 461 C 1697.53 586.478 t 0 r /Helvetica findfont 48.9324 sf 0 0 m (600) show NC gr 
 gsave  2268 1077 0 461 C 2042.9 586.478 t 0 r /Helvetica findfont 48.9324 sf 0 0 m (650) show NC gr  363 1484 m 1791 X s 363 1459 m 25 Y s 432 1471 m 13 Y s 501 1471 m 13 Y s 570 1471 m 13 Y s 638 1471 m 13 Y s 707 1459 m 25 Y s 776 1471 m 13 Y s
 845 1471 m 13 Y s 914 1471 m 13 Y s 983 1471 m 13 Y s 1052 1459 m 25 Y s 1121 1471 m 13 Y s 1190 1471 m 13 Y s 1259 1471 m 13 Y s 1327 1471 m 13 Y s 1396 1459 m 25 Y s 1465 1471 m 13 Y s 1534 1471 m 13 Y s 1603 1471 m 13 Y s 1672 1471 m 13 Y s 1741
 1459 m 25 Y s 1810 1471 m 13 Y s 1879 1471 m 13 Y s 1948 1471 m 13 Y s 2017 1471 m 13 Y s 2085 1459 m 25 Y s 2085 1459 m 25 Y s 363 634 m 850 Y s
 gsave  2268 1077 0 461 C 120.554 1058.92 t 90 r /Helvetica findfont 48.9324 sf 0 0 m (Events / \( 5.2 GeV \)) show NC gr  417 634 m -54 X s
 gsave  2268 1077 0 461 C 312.788 632.093 t 0 r /Helvetica findfont 32.6216 sf 0 0 m (\2552) show NC gr 
 gsave  2268 1077 0 461 C 260.657 612.544 t 0 r /Helvetica findfont 48.9324 sf 0 0 m (10) show NC gr  390 683 m -27 X s 390 712 m -27 X s 390 733 m -27 X s 390 749 m -27 X s 390 762 m -27 X s 390 773 m -27 X s 390 782 m -27 X s 390 791 m -27 X s 417
 798 m -54 X s
 gsave  2268 1077 0 461 C 319.305 798.262 t 0 r /Helvetica findfont 32.6216 sf 0 0 m (\2551) show NC gr 
 gsave  2268 1077 0 461 C 267.173 778.713 t 0 r /Helvetica findfont 48.9324 sf 0 0 m (10) show NC gr  390 848 m -27 X s 390 877 m -27 X s 390 897 m -27 X s 390 913 m -27 X s 390 926 m -27 X s 390 937 m -27 X s 390 947 m -27 X s 390 955 m -27 X s 417
 963 m -54 X s
 gsave  2268 1077 0 461 C 342.425 942.136 t 0 r  -27 0 t /Helvetica findfont 48.9324 sf 0 0 m (1) show NC gr  390 1013 m -27 X s 390 1042 m -27 X s 390 1062 m -27 X s 390 1078 m -27 X s 390 1091 m -27 X s 390 1102 m -27 X s 390 1112 m -27 X s 390
 1120 m -27 X s 417 1128 m -54 X s
 gsave  2268 1077 0 461 C 342.425 1106.83 t 0 r  -55 0 t /Helvetica findfont 48.9324 sf 0 0 m (10) show NC gr  390 1177 m -27 X s 390 1206 m -27 X s 390 1227 m -27 X s 390 1243 m -27 X s 390 1256 m -27 X s 390 1267 m -27 X s 390 1276 m -27 X s 390
 1285 m -27 X s 417 1292 m -54 X s
 gsave  2268 1077 0 461 C 322.563 1290.25 t 0 r /Helvetica findfont 32.6216 sf 0 0 m (2) show NC gr 
 gsave  2268 1077 0 461 C 270.432 1270.7 t 0 r /Helvetica findfont 48.9324 sf 0 0 m (10) show NC gr  390 1342 m -27 X s 390 1371 m -27 X s 390 1392 m -27 X s 390 1407 m -27 X s 390 1421 m -27 X s 390 1432 m -27 X s 390 1441 m -27 X s 390 1450 m -27 X
 s 417 1457 m -54 X s
 gsave  2268 1077 0 461 C 322.563 1459.68 t 0 r /Helvetica findfont 32.6216 sf 0 0 m (3) show NC gr 
 gsave  2268 1077 0 461 C 270.432 1436.87 t 0 r /Helvetica findfont 48.9324 sf 0 0 m (10) show NC gr  2154 634 m 850 Y s 2101 634 m 53 X s 2127 683 m 27 X s 2127 712 m 27 X s 2127 733 m 27 X s 2127 749 m 27 X s 2127 762 m 27 X s 2127 773 m 27 X s
 2127 782 m 27 X s 2127 791 m 27 X s 2101 798 m 53 X s 2127 848 m 27 X s 2127 877 m 27 X s 2127 897 m 27 X s 2127 913 m 27 X s 2127 926 m 27 X s 2127 937 m 27 X s 2127 947 m 27 X s 2127 955 m 27 X s 2101 963 m 53 X s 2127 1013 m 27 X s 2127 1042 m 27
 X s 2127 1062 m 27 X s 2127 1078 m 27 X s 2127 1091 m 27 X s 2127 1102 m 27 X s 2127 1112 m 27 X s 2127 1120 m 27 X s 2101 1128 m 53 X s 2127 1177 m 27 X s 2127 1206 m 27 X s 2127 1227 m 27 X s 2127 1243 m 27 X s 2127 1256 m 27 X s 2127 1267 m 27 X
 s 2127 1276 m 27 X s 2127 1285 m 27 X s 2101 1292 m 53 X s 2127 1342 m 27 X s 2127 1371 m 27 X s 2127 1392 m 27 X s 2127 1407 m 27 X s 2127 1421 m 27 X s 2127 1432 m 27 X s 2127 1441 m 27 X s 2127 1450 m 27 X s 2101 1457 m 53 X s 381 1013 m -18 X s
 363 1013 m cl s 381 1013 m 18 X s 399 1013 m cl s 381 1013 m 60 Y s 381 1073 m cl s 381 1013 m -75 Y s 381 938 m cl s 417 963 m -18 X s 399 963 m cl s 417 963 m 17 X s 434 963 m cl s 417 963 m 85 Y s 417 1048 m cl s 417 963 m -126 Y s 417 837 m cl s
 452 1013 m -18 X s 434 1013 m cl s 452 1013 m 18 X s 470 1013 m cl s 452 1013 m 60 Y s 452 1073 m cl s 452 1013 m -75 Y s 452 938 m cl s 488 1013 m -18 X s 470 1013 m cl s 488 1013 m 18 X s 506 1013 m cl s 488 1013 m 60 Y s 488 1073 m cl s 488 1013
 m -75 Y s 488 938 m cl s 524 1013 m -18 X s 506 1013 m cl s 524 1013 m 18 X s 542 1013 m cl s 524 1013 m 60 Y s 524 1073 m cl s 524 1013 m -75 Y s 524 938 m cl s 560 1013 m -18 X s 542 1013 m cl s 560 1013 m 18 X s 578 1013 m cl s 560 1013 m 60 Y s
 560 1073 m cl s 560 1013 m -75 Y s 560 938 m cl s 596 1013 m -18 X s 578 1013 m cl s 596 1013 m 18 X s 614 1013 m cl s 596 1013 m 60 Y s 596 1073 m cl s 596 1013 m -75 Y s 596 938 m cl s 632 963 m -18 X s 614 963 m cl s 632 963 m 17 X s 649 963 m cl
 s 632 963 m 85 Y s 632 1048 m cl s 632 963 m -126 Y s 632 837 m cl s 667 1128 m -18 X s 649 1128 m cl s 667 1128 m 18 X s 685 1128 m cl s 667 1128 m 25 Y s 667 1153 m cl s 667 1128 m -27 Y s 667 1101 m cl s 703 1112 m -18 X s 685 1112 m cl s 703
 1112 m 18 X s 721 1112 m cl s 703 1112 m 28 Y s 703 1140 m cl s 703 1112 m -31 Y s 703 1081 m cl s 739 1062 m -18 X s 721 1062 m cl s 739 1062 m 18 X s 757 1062 m cl s 739 1062 m 42 Y s 739 1104 m cl s 739 1062 m -46 Y s 739 1016 m cl s 775 1062 m
 -18 X s 757 1062 m cl s 775 1062 m 18 X s 793 1062 m cl s 775 1062 m 42 Y s 775 1104 m cl s 775 1062 m -46 Y s 775 1016 m cl s 811 1112 m -18 X s 793 1112 m cl s 811 1112 m 18 X s 829 1112 m cl s 811 1112 m 28 Y s 811 1140 m cl s 811 1112 m -31 Y s
 811 1081 m cl s 847 1134 m -18 X s 829 1134 m cl s 847 1134 m 17 X s 864 1134 m cl s 847 1134 m 25 Y s 847 1159 m cl s 847 1134 m -25 Y s 847 1109 m cl s 882 1128 m -18 X s 864 1128 m cl s 882 1128 m 18 X s 900 1128 m cl s 882 1128 m 25 Y s 882 1153
 m cl s 882 1128 m -27 Y s 882 1101 m cl s 918 1141 m -18 X s 900 1141 m cl s 918 1141 m 18 X s 936 1141 m cl s 918 1141 m 23 Y s 918 1164 m cl s 918 1141 m -24 Y s 918 1117 m cl s 954 1152 m -18 X s 936 1152 m cl s 954 1152 m 18 X s 972 1152 m cl s
 954 1152 m 21 Y s 954 1173 m cl s 954 1152 m -22 Y s 954 1130 m cl s 990 1128 m -18 X s 972 1128 m cl s 990 1128 m 18 X s 1008 1128 m cl s 990 1128 m 25 Y s 990 1153 m cl s 990 1128 m -27 Y s 990 1101 m cl s 1026 1177 m -18 X s 1008 1177 m cl s 1026
 1177 m 18 X s 1044 1177 m cl s 1026 1177 m 18 Y s 1026 1195 m cl s 1026 1177 m -18 Y s 1026 1159 m cl s 1062 1174 m -18 X s 1044 1174 m cl s 1062 1174 m 17 X s 1079 1174 m cl s 1062 1174 m 18 Y s 1062 1192 m cl s 1062 1174 m -19 Y s 1062 1155 m cl s
 1097 1166 m -18 X s 1079 1166 m cl s 1097 1166 m 18 X s 1115 1166 m cl s 1097 1166 m 19 Y s 1097 1185 m cl s 1097 1166 m -20 Y s 1097 1146 m cl s 1133 1170 m -18 X s 1115 1170 m cl s 1133 1170 m 18 X s 1151 1170 m cl s 1133 1170 m 18 Y s 1133 1188 m
 cl s 1133 1170 m -19 Y s 1133 1151 m cl s 1169 1177 m -18 X s 1151 1177 m cl s 1169 1177 m 18 X s 1187 1177 m cl s 1169 1177 m 18 Y s 1169 1195 m cl s 1169 1177 m -18 Y s 1169 1159 m cl s 1205 1206 m -18 X s 1187 1206 m cl s 1205 1206 m 18 X s 1223
 1206 m cl s 1205 1206 m 14 Y s 1205 1220 m cl s 1205 1206 m -14 Y s 1205 1192 m cl s 1241 1170 m -18 X s 1223 1170 m cl s 1241 1170 m 18 X s 1259 1170 m cl s 1241 1170 m 18 Y s 1241 1188 m cl s 1241 1170 m -19 Y s 1241 1151 m cl s 1276 1211 m -17 X
 s 1259 1211 m cl s 1276 1211 m 18 X s 1294 1211 m cl s 1276 1211 m 13 Y s 1276 1224 m cl s 1276 1211 m -14 Y s 1276 1197 m cl s 1312 1241 m -18 X s 1294 1241 m cl s 1312 1241 m 18 X s 1330 1241 m cl s 1312 1241 m 11 Y s 1312 1252 m cl s 1312 1241 m
 -11 Y s 1312 1230 m cl s 1348 1243 m -18 X s 1330 1243 m cl s 1348 1243 m 18 X s 1366 1243 m cl s 1348 1243 m 11 Y s 1348 1254 m cl s 1348 1243 m -11 Y s 1348 1232 m cl s 1384 1257 m -18 X s 1366 1257 m cl s 1384 1257 m 18 X s 1402 1257 m cl s 1384
 1257 m 10 Y s 1384 1267 m cl s 1384 1257 m -10 Y s 1384 1247 m cl s 1420 1294 m -18 X s 1402 1294 m cl s 1420 1294 m 18 X s 1438 1294 m cl s 1420 1294 m 8 Y s 1420 1302 m cl s 1420 1294 m -7 Y s 1420 1287 m cl s 1456 1300 m -18 X s 1438 1300 m cl s
 1456 1300 m 18 X s 1474 1300 m cl s 1456 1300 m 7 Y s 1456 1307 m cl s 1456 1300 m -6 Y s 1456 1294 m cl s 1491 1318 m -17 X s 1474 1318 m cl s 1491 1318 m 18 X s 1509 1318 m cl s 1491 1318 m 6 Y s 1491 1324 m cl s 1491 1318 m -6 Y s 1491 1312 m cl
 s 1527 1361 m -18 X s 1509 1361 m cl s 1527 1361 m 18 X s 1545 1361 m cl s 1527 1361 m 4 Y s 1527 1365 m cl s 1527 1361 m -4 Y s 1527 1357 m cl s 1563 1385 m -18 X s 1545 1385 m cl s 1563 1385 m 18 X s 1581 1385 m cl s 1563 1385 m 4 Y s 1563 1389 m
 cl s 1563 1385 m -3 Y s 1563 1382 m cl s 1599 1406 m -18 X s 1581 1406 m cl s 1599 1406 m 18 X s 1617 1406 m cl s 1599 1406 m 3 Y s 1599 1409 m cl s 1599 1406 m -4 Y s 1599 1402 m cl s 1635 1422 m -18 X s 1617 1422 m cl s 1635 1422 m 18 X s 1653
 1422 m cl s 1635 1422 m 3 Y s 1635 1425 m cl s 1635 1422 m -3 Y s 1635 1419 m cl s 1671 1446 m -18 X s 1653 1446 m cl s 1671 1446 m 18 X s 1689 1446 m cl s 1671 1446 m 2 Y s 1671 1448 m cl s 1671 1446 m -3 Y s 1671 1443 m cl s 1706 1448 m -17 X s
 1689 1448 m cl s 1706 1448 m 18 X s 1724 1448 m cl s 1706 1448 m 2 Y s 1706 1450 m cl s 1706 1448 m -2 Y s 1706 1446 m cl s 1742 1447 m -18 X s 1724 1447 m cl s 1742 1447 m 18 X s 1760 1447 m cl s 1742 1447 m 3 Y s 1742 1450 m cl s 1742 1447 m -2 Y
 s 1742 1445 m cl s 1778 1436 m -18 X s 1760 1436 m cl s 1778 1436 m 18 X s 1796 1436 m cl s 1778 1436 m 3 Y s 1778 1439 m cl s 1778 1436 m -2 Y s 1778 1434 m cl s 1814 1420 m -18 X s 1796 1420 m cl s 1814 1420 m 18 X s 1832 1420 m cl s 1814 1420 m 3
 Y s 1814 1423 m cl s 1814 1420 m -3 Y s 1814 1417 m cl s 1850 1395 m -18 X s 1832 1395 m cl s 1850 1395 m 18 X s 1868 1395 m cl s 1850 1395 m 3 Y s 1850 1398 m cl s 1850 1395 m -4 Y s 1850 1391 m cl s 1886 1363 m -18 X s 1868 1363 m cl s 1886 1363 m
 18 X s 1904 1363 m cl s 1886 1363 m 4 Y s 1886 1367 m cl s 1886 1363 m -5 Y s 1886 1358 m cl s 1921 1334 m -17 X s 1904 1334 m cl s 1921 1334 m 18 X s 1939 1334 m cl s 1921 1334 m 6 Y s 1921 1340 m cl s 1921 1334 m -5 Y s 1921 1329 m cl s 1957 1295
 m -18 X s 1939 1295 m cl s 1957 1295 m 18 X s 1975 1295 m cl s 1957 1295 m 7 Y s 1957 1302 m cl s 1957 1295 m -7 Y s 1957 1288 m cl s 1993 1267 m -18 X s 1975 1267 m cl s 1993 1267 m 18 X s 2011 1267 m cl s 1993 1267 m 9 Y s 1993 1276 m cl s 1993
 1267 m -9 Y s 1993 1258 m cl s 2029 1227 m -18 X s 2011 1227 m cl s 2029 1227 m 18 X s 2047 1227 m cl s 2029 1227 m 12 Y s 2029 1239 m cl s 2029 1227 m -12 Y s 2029 1215 m cl s 2065 1184 m -18 X s 2047 1184 m cl s 2065 1184 m 18 X s 2083 1184 m cl s
 2065 1184 m 17 Y s 2065 1201 m cl s 2065 1184 m -17 Y s 2065 1167 m cl s 2101 1157 m -18 X s 2083 1157 m cl s 2101 1157 m 18 X s 2119 1157 m cl s 2101 1157 m 20 Y s 2101 1177 m cl s 2101 1157 m -21 Y s 2101 1136 m cl s 2136 1161 m -17 X s 2119 1161
 m cl s 2136 1161 m 18 X s 2154 1161 m cl s 2136 1161 m 20 Y s 2136 1181 m cl s 2136 1161 m -20 Y s 2136 1141 m cl s /w 31 def /w2 {w 2 div} def /w3 {w 3 div} def 381 1013 417 963 452 1013 488 1013 524 1013 560 1013 596 1013 632 963 667 1128 703 1112
 739 1062 775 1062 811 1112 847 1134 882 1128 918 1141 954 1152 990 1128 1026 1177 1062 1174 1097 1166 1133 1170 1169 1177 1205 1206 1241 1170 1276 1211 1312 1241 1348 1243 1384 1257 1420 1294 1456 1300 1491 1318 1527 1361 1563 1385 1599 1406 1635
 1422 1671 1446 1706 1448 1742 1447 1778 1436 1814 1420 1850 1395 1886 1363 1921 1334 1957 1295 1993 1267 2029 1227 2065 1184 2101 1157 2136 1161 50 { m20} R 0 1 1 c 1 1 0 c black 1 1 0 c 363 1019 m 36 7 d 35 7 d 36 7 d 36 8 d 36 7 d 36 7 d 36 8 d 35
 7 d 36 8 d 36 8 d 36 8 d 36 7 d 36 9 d 35 8 d 36 8 d 36 8 d 36 9 d 36 8 d 36 9 d 35 9 d 36 9 d 36 10 d 36 10 d 36 10 d 36 10 d 35 11 d 36 11 d 36 12 d 36 14 d 18 8 d 18 9 d 18 11 d 18 12 d 9 7 d 8 7 d 9 7 d 9 8 d 9 7 d 9 8 d 9 7 d 9 8 d 9 7 d 9 7 d
 9 7 d 9 7 d 18 12 d 18 10 d 18 9 d 9 4 d 9 4 d 9 3 d 9 2 d 9 3 d 9 1 d 8 1 d 9 1 d 18 X 9 -1 d 9 -1 d 9 -2 d 9 -2 d 9 -3 d 9 -3 d 9 -4 d 9 -4 d 36 -20 d 18 -12 d 9 -7 d 9 -7 d 9 -7 d 9 -8 d 9 -8 d 9 -8 d 8 -8 d 9 -8 d 9 -9 d 9 -8 d 9 -9 d 9 -9 d 18
 -17 d 18 -16 d 18 -16 d 18 -15 d 18 -15 d 36 -30 d 36 -31 d 35 -32 d -54 Y -35 45 d -36 41 d -36 39 d -18 19 d -18 18 d -18 19 d -18 18 d -18 18 d -9 9 d -9 8 d -9 9 d -9 9 d -9 9 d -8 8 d -9 8 d -9 9 d -9 8 d -9 7 d -9 8 d -9 7 d -18 13 d -36 22 d
 -9 4 d -9 4 d -9 3 d -9 2 d -9 3 d -9 1 d -9 2 d -9 X -9 1 d -9 X -9 -1 d -8 -1 d -9 -2 d -9 -2 d -9 -3 d -9 -3 d -9 -3 d -9 -4 d -18 -10 d -18 -12 d -18 -13 d -9 -7 d -9 -7 d -9 -8 d -9 -7 d -9 -8 d -9 -8 d -9 -8 d -9 -7 d -9 -8 d -9 -7 d -8 -7 d
 -9 -7 d -18 -13 d -18 -12 d -18 -10 d -18 -10 d -36 -15 d -36 -12 d -36 -10 d -35 -10 d -36 -10 d -36 -10 d -36 -10 d -36 -10 d -36 -10 d -35 -10 d -36 -10 d -36 -10 d -36 -10 d -36 -10 d -36 -10 d -35 -9 d -36 -10 d -36 -9 d -36 -10 d -36 -9 d -36
 -9 d -35 -9 d -36 -9 d -36 -9 d -36 -9 d -36 -9 d -36 -8 d -35 -9 d -36 -8 d f 0 1 1 c 0 1 0 c black 0 1 0 c 363 1010 m 36 7 d 35 8 d 36 7 d 36 8 d 36 7 d 36 8 d 36 8 d 35 8 d 36 8 d 36 8 d 36 8 d 36 8 d 36 8 d 35 9 d 36 8 d 36 9 d 36 9 d 36 9 d 36
 9 d 35 9 d 36 9 d 36 10 d 36 10 d 36 10 d 36 10 d 35 11 d 36 11 d 36 12 d 36 14 d 18 8 d 18 10 d 18 11 d 18 12 d 9 7 d 8 7 d 9 7 d 9 8 d 9 7 d 9 8 d 9 7 d 9 8 d 9 7 d 9 7 d 9 7 d 9 7 d 18 12 d 18 11 d 18 9 d 9 4 d 9 4 d 9 3 d 9 3 d 9 2 d 9 1 d 8 2 d
 27 X 9 -1 d 9 -1 d 9 -2 d 9 -2 d 9 -3 d 9 -3 d 9 -4 d 9 -4 d 36 -20 d 18 -13 d 9 -6 d 9 -7 d 9 -8 d 9 -8 d 9 -7 d 9 -9 d 8 -8 d 9 -8 d 9 -9 d 9 -9 d 9 -8 d 9 -9 d 18 -17 d 18 -17 d 18 -16 d 18 -16 d 18 -16 d 36 -31 d 36 -33 d 35 -34 d -26 Y -35 40 d
 -36 37 d -36 36 d -18 18 d -18 17 d -18 18 d -18 18 d -18 17 d -9 9 d -9 9 d -9 9 d -9 8 d -9 9 d -8 8 d -9 8 d -9 9 d -9 7 d -9 8 d -9 7 d -9 7 d -18 13 d -36 22 d -9 4 d -9 3 d -9 4 d -9 2 d -9 3 d -9 1 d -9 2 d -9 X -9 1 d -9 -1 d -9 X -8 -1 d -9
 -2 d -9 -2 d -9 -3 d -9 -3 d -9 -3 d -9 -4 d -18 -10 d -18 -11 d -18 -13 d -9 -7 d -9 -7 d -9 -8 d -9 -7 d -9 -8 d -9 -8 d -9 -7 d -9 -8 d -9 -7 d -9 -8 d -8 -7 d -9 -6 d -18 -13 d -18 -12 d -18 -10 d -18 -9 d -36 -15 d -36 -12 d -36 -11 d -35 -10 d
 -36 -10 d -36 -10 d -36 -10 d -36 -9 d -36 -10 d -35 -10 d -36 -10 d -36 -9 d -36 -10 d -36 -9 d -36 -9 d -35 -9 d -36 -10 d -36 -8 d -36 -9 d -36 -9 d -36 -9 d -35 -8 d -36 -9 d -36 -8 d -36 -8 d -36 -9 d -36 -8 d -35 -8 d -36 -8 d f 0 0 1 c 9 lw
 black 0 0 1 c 363 1000 m 36 8 d 35 8 d 36 7 d 36 8 d 36 8 d 36 8 d 36 8 d 35 8 d 36 9 d 36 8 d 36 8 d 36 9 d 36 9 d 35 8 d 36 9 d 36 9 d 36 9 d 36 10 d 36 9 d 35 9 d 36 10 d 36 10 d 36 10 d 36 10 d 36 10 d 35 10 d 36 11 d 36 12 d 36 14 d 18 9 d 18
 10 d 18 11 d 18 13 d 9 7 d 8 7 d 9 7 d 9 7 d 9 8 d 9 8 d 9 7 d 9 8 d 9 7 d 9 8 d 9 7 d 9 6 d 18 13 d 18 11 d 18 9 d 9 4 d 9 4 d 9 3 d 9 3 d 9 2 d 9 2 d 8 1 d 9 X 9 1 d 9 -1 d 9 -1 d 9 -1 d 9 -2 d 9 -2 d 9 -3 d 9 -3 d 9 -3 d 9 -5 d 36 -20 d 18 -13 d
 9 -7 d 9 -7 d 9 -8 d 9 -7 d 9 -8 d 9 -9 d 8 -8 d 9 -9 d 9 -8 d 9 -9 d 9 -9 d 9 -8 d 18 -18 d 18 -17 d 18 -17 d 18 -17 d 18 -16 d 36 -34 d 36 -34 d 35 -37 d s black 3 lw 381 1013 m -18 X s 363 1013 m cl s 381 1013 m 18 X s 399 1013 m cl s 381 1013 m
 60 Y s 381 1073 m cl s 381 1013 m -75 Y s 381 938 m cl s 417 963 m -18 X s 399 963 m cl s 417 963 m 17 X s 434 963 m cl s 417 963 m 85 Y s 417 1048 m cl s 417 963 m -126 Y s 417 837 m cl s 452 1013 m -18 X s 434 1013 m cl s 452 1013 m 18 X s 470
 1013 m cl s 452 1013 m 60 Y s 452 1073 m cl s 452 1013 m -75 Y s 452 938 m cl s 488 1013 m -18 X s 470 1013 m cl s 488 1013 m 18 X s 506 1013 m cl s 488 1013 m 60 Y s 488 1073 m cl s 488 1013 m -75 Y s 488 938 m cl s 524 1013 m -18 X s 506 1013 m cl
 s 524 1013 m 18 X s 542 1013 m cl s 524 1013 m 60 Y s 524 1073 m cl s 524 1013 m -75 Y s 524 938 m cl s 560 1013 m -18 X s 542 1013 m cl s 560 1013 m 18 X s 578 1013 m cl s 560 1013 m 60 Y s 560 1073 m cl s 560 1013 m -75 Y s 560 938 m cl s 596 1013
 m -18 X s 578 1013 m cl s 596 1013 m 18 X s 614 1013 m cl s 596 1013 m 60 Y s 596 1073 m cl s 596 1013 m -75 Y s 596 938 m cl s 632 963 m -18 X s 614 963 m cl s 632 963 m 17 X s 649 963 m cl s 632 963 m 85 Y s 632 1048 m cl s 632 963 m -126 Y s 632
 837 m cl s 667 1128 m -18 X s 649 1128 m cl s 667 1128 m 18 X s 685 1128 m cl s 667 1128 m 25 Y s 667 1153 m cl s 667 1128 m -27 Y s 667 1101 m cl s 703 1112 m -18 X s 685 1112 m cl s 703 1112 m 18 X s 721 1112 m cl s 703 1112 m 28 Y s 703 1140 m cl
 s 703 1112 m -31 Y s 703 1081 m cl s 739 1062 m -18 X s 721 1062 m cl s 739 1062 m 18 X s 757 1062 m cl s 739 1062 m 42 Y s 739 1104 m cl s 739 1062 m -46 Y s 739 1016 m cl s 775 1062 m -18 X s 757 1062 m cl s 775 1062 m 18 X s 793 1062 m cl s 775
 1062 m 42 Y s 775 1104 m cl s 775 1062 m -46 Y s 775 1016 m cl s 811 1112 m -18 X s 793 1112 m cl s 811 1112 m 18 X s 829 1112 m cl s 811 1112 m 28 Y s 811 1140 m cl s 811 1112 m -31 Y s 811 1081 m cl s 847 1134 m -18 X s 829 1134 m cl s 847 1134 m
 17 X s 864 1134 m cl s 847 1134 m 25 Y s 847 1159 m cl s 847 1134 m -25 Y s 847 1109 m cl s 882 1128 m -18 X s 864 1128 m cl s 882 1128 m 18 X s 900 1128 m cl s 882 1128 m 25 Y s 882 1153 m cl s 882 1128 m -27 Y s 882 1101 m cl s 918 1141 m -18 X s
 900 1141 m cl s 918 1141 m 18 X s 936 1141 m cl s 918 1141 m 23 Y s 918 1164 m cl s 918 1141 m -24 Y s 918 1117 m cl s 954 1152 m -18 X s 936 1152 m cl s 954 1152 m 18 X s 972 1152 m cl s 954 1152 m 21 Y s 954 1173 m cl s 954 1152 m -22 Y s 954 1130
 m cl s 990 1128 m -18 X s 972 1128 m cl s 990 1128 m 18 X s 1008 1128 m cl s 990 1128 m 25 Y s 990 1153 m cl s 990 1128 m -27 Y s 990 1101 m cl s 1026 1177 m -18 X s 1008 1177 m cl s 1026 1177 m 18 X s 1044 1177 m cl s 1026 1177 m 18 Y s 1026 1195 m
 cl s 1026 1177 m -18 Y s 1026 1159 m cl s 1062 1174 m -18 X s 1044 1174 m cl s 1062 1174 m 17 X s 1079 1174 m cl s 1062 1174 m 18 Y s 1062 1192 m cl s 1062 1174 m -19 Y s 1062 1155 m cl s 1097 1166 m -18 X s 1079 1166 m cl s 1097 1166 m 18 X s 1115
 1166 m cl s 1097 1166 m 19 Y s 1097 1185 m cl s 1097 1166 m -20 Y s 1097 1146 m cl s 1133 1170 m -18 X s 1115 1170 m cl s 1133 1170 m 18 X s 1151 1170 m cl s 1133 1170 m 18 Y s 1133 1188 m cl s 1133 1170 m -19 Y s 1133 1151 m cl s 1169 1177 m -18 X
 s 1151 1177 m cl s 1169 1177 m 18 X s 1187 1177 m cl s 1169 1177 m 18 Y s 1169 1195 m cl s 1169 1177 m -18 Y s 1169 1159 m cl s 1205 1206 m -18 X s 1187 1206 m cl s 1205 1206 m 18 X s 1223 1206 m cl s 1205 1206 m 14 Y s 1205 1220 m cl s 1205 1206 m
 -14 Y s 1205 1192 m cl s 1241 1170 m -18 X s 1223 1170 m cl s 1241 1170 m 18 X s 1259 1170 m cl s 1241 1170 m 18 Y s 1241 1188 m cl s 1241 1170 m -19 Y s 1241 1151 m cl s 1276 1211 m -17 X s 1259 1211 m cl s 1276 1211 m 18 X s 1294 1211 m cl s 1276
 1211 m 13 Y s 1276 1224 m cl s 1276 1211 m -14 Y s 1276 1197 m cl s 1312 1241 m -18 X s 1294 1241 m cl s 1312 1241 m 18 X s 1330 1241 m cl s 1312 1241 m 11 Y s 1312 1252 m cl s 1312 1241 m -11 Y s 1312 1230 m cl s 1348 1243 m -18 X s 1330 1243 m cl
 s 1348 1243 m 18 X s 1366 1243 m cl s 1348 1243 m 11 Y s 1348 1254 m cl s 1348 1243 m -11 Y s 1348 1232 m cl s 1384 1257 m -18 X s 1366 1257 m cl s 1384 1257 m 18 X s 1402 1257 m cl s 1384 1257 m 10 Y s 1384 1267 m cl s 1384 1257 m -10 Y s 1384 1247
 m cl s 1420 1294 m -18 X s 1402 1294 m cl s 1420 1294 m 18 X s 1438 1294 m cl s 1420 1294 m 8 Y s 1420 1302 m cl s 1420 1294 m -7 Y s 1420 1287 m cl s 1456 1300 m -18 X s 1438 1300 m cl s 1456 1300 m 18 X s 1474 1300 m cl s 1456 1300 m 7 Y s 1456
 1307 m cl s 1456 1300 m -6 Y s 1456 1294 m cl s 1491 1318 m -17 X s 1474 1318 m cl s 1491 1318 m 18 X s 1509 1318 m cl s 1491 1318 m 6 Y s 1491 1324 m cl s 1491 1318 m -6 Y s 1491 1312 m cl s 1527 1361 m -18 X s 1509 1361 m cl s 1527 1361 m 18 X s
 1545 1361 m cl s 1527 1361 m 4 Y s 1527 1365 m cl s 1527 1361 m -4 Y s 1527 1357 m cl s 1563 1385 m -18 X s 1545 1385 m cl s 1563 1385 m 18 X s 1581 1385 m cl s 1563 1385 m 4 Y s 1563 1389 m cl s 1563 1385 m -3 Y s 1563 1382 m cl s 1599 1406 m -18 X
 s 1581 1406 m cl s 1599 1406 m 18 X s 1617 1406 m cl s 1599 1406 m 3 Y s 1599 1409 m cl s 1599 1406 m -4 Y s 1599 1402 m cl s 1635 1422 m -18 X s 1617 1422 m cl s 1635 1422 m 18 X s 1653 1422 m cl s 1635 1422 m 3 Y s 1635 1425 m cl s 1635 1422 m -3
 Y s 1635 1419 m cl s 1671 1446 m -18 X s 1653 1446 m cl s 1671 1446 m 18 X s 1689 1446 m cl s 1671 1446 m 2 Y s 1671 1448 m cl s 1671 1446 m -3 Y s 1671 1443 m cl s 1706 1448 m -17 X s 1689 1448 m cl s 1706 1448 m 18 X s 1724 1448 m cl s 1706 1448 m
 2 Y s 1706 1450 m cl s 1706 1448 m -2 Y s 1706 1446 m cl s 1742 1447 m -18 X s 1724 1447 m cl s 1742 1447 m 18 X s 1760 1447 m cl s 1742 1447 m 3 Y s 1742 1450 m cl s 1742 1447 m -2 Y s 1742 1445 m cl s 1778 1436 m -18 X s 1760 1436 m cl s 1778 1436
 m 18 X s 1796 1436 m cl s 1778 1436 m 3 Y s 1778 1439 m cl s 1778 1436 m -2 Y s 1778 1434 m cl s 1814 1420 m -18 X s 1796 1420 m cl s 1814 1420 m 18 X s 1832 1420 m cl s 1814 1420 m 3 Y s 1814 1423 m cl s 1814 1420 m -3 Y s 1814 1417 m cl s 1850
 1395 m -18 X s 1832 1395 m cl s 1850 1395 m 18 X s 1868 1395 m cl s 1850 1395 m 3 Y s 1850 1398 m cl s 1850 1395 m -4 Y s 1850 1391 m cl s 1886 1363 m -18 X s 1868 1363 m cl s 1886 1363 m 18 X s 1904 1363 m cl s 1886 1363 m 4 Y s 1886 1367 m cl s
 1886 1363 m -5 Y s 1886 1358 m cl s 1921 1334 m -17 X s 1904 1334 m cl s 1921 1334 m 18 X s 1939 1334 m cl s 1921 1334 m 6 Y s 1921 1340 m cl s 1921 1334 m -5 Y s 1921 1329 m cl s 1957 1295 m -18 X s 1939 1295 m cl s 1957 1295 m 18 X s 1975 1295 m
 cl s 1957 1295 m 7 Y s 1957 1302 m cl s 1957 1295 m -7 Y s 1957 1288 m cl s 1993 1267 m -18 X s 1975 1267 m cl s 1993 1267 m 18 X s 2011 1267 m cl s 1993 1267 m 9 Y s 1993 1276 m cl s 1993 1267 m -9 Y s 1993 1258 m cl s 2029 1227 m -18 X s 2011 1227
 m cl s 2029 1227 m 18 X s 2047 1227 m cl s 2029 1227 m 12 Y s 2029 1239 m cl s 2029 1227 m -12 Y s 2029 1215 m cl s 2065 1184 m -18 X s 2047 1184 m cl s 2065 1184 m 18 X s 2083 1184 m cl s 2065 1184 m 17 Y s 2065 1201 m cl s 2065 1184 m -17 Y s 2065
 1167 m cl s 2101 1157 m -18 X s 2083 1157 m cl s 2101 1157 m 18 X s 2119 1157 m cl s 2101 1157 m 20 Y s 2101 1177 m cl s 2101 1157 m -21 Y s 2101 1136 m cl s 2136 1161 m -17 X s 2119 1161 m cl s 2136 1161 m 18 X s 2154 1161 m cl s 2136 1161 m 20 Y s
 2136 1181 m cl s 2136 1161 m -20 Y s 2136 1141 m cl s 381 1013 417 963 452 1013 488 1013 524 1013 560 1013 596 1013 632 963 667 1128 703 1112 739 1062 775 1062 811 1112 847 1134 882 1128 918 1141 954 1152 990 1128 1026 1177 1062 1174 1097 1166 1133
 1170 1169 1177 1205 1206 1241 1170 1276 1211 1312 1241 1348 1243 1384 1257 1420 1294 1456 1300 1491 1318 1527 1361 1563 1385 1599 1406 1635 1422 1671 1446 1706 1448 1742 1447 1778 1436 1814 1420 1850 1395 1886 1363 1921 1334 1957 1295 1993 1267 2029
 1227 2065 1184 2101 1157 2136 1161 50 { m20} R 0.52 0.76 0.64 c[ 4 8] 0 sd 9 lw black 0.52 0.76 0.64 c 363 1000 m 36 8 d 35 8 d 36 7 d 36 8 d 36 8 d 36 8 d 36 8 d 35 8 d 36 9 d 36 8 d 36 8 d 36 9 d 36 9 d 35 8 d 36 9 d 36 9 d 36 9 d 36 10 d 36 9 d
 35 9 d 36 10 d 36 10 d 36 10 d 36 10 d 36 10 d 35 10 d 36 10 d 36 11 d 36 11 d 18 5 d 18 6 d 18 5 d 18 6 d 17 5 d 18 6 d 18 6 d 18 5 d 18 6 d 18 6 d 18 5 d 18 5 d 18 4 d 9 1 d 9 2 d 9 1 d 9 1 d 9 1 d 9 X 8 1 d 36 X 9 -1 d 9 -1 d 9 X 9 -1 d 9 -2 d 9
 -1 d 9 -2 d 18 -4 d 18 -4 d 18 -6 d 18 -6 d 36 -14 d 17 -9 d 18 -9 d 18 -10 d 18 -11 d 18 -11 d 18 -13 d 18 -13 d 18 -14 d 18 -14 d 18 -15 d 18 -17 d 18 -16 d 17 -18 d 18 -18 d s 0.54 0.66 0.63 c black 0.54 0.66 0.63 c 1242 634 m 17 56 d s 1259 690
 m 35 112 d 36 103 d 36 93 d 36 85 d 18 39 d 18 36 d 18 34 d 18 32 d 9 15 d 8 15 d 9 14 d 9 13 d 9 13 d 9 12 d 9 12 d 9 11 d 9 11 d 9 10 d 9 9 d 9 9 d 9 8 d 9 8 d 18 13 d 18 12 d 9 5 d 9 4 d 9 3 d 9 4 d 9 2 d 9 2 d 8 1 d 9 1 d 18 X 9 -1 d 9 -1 d 9 -2
 d 9 -3 d 9 -3 d 9 -4 d 9 -4 d 9 -5 d 36 -26 d 9 -8 d 9 -8 d 9 -9 d 9 -9 d 9 -11 d 9 -10 d 9 -11 d 9 -12 d 8 -13 d 9 -13 d 9 -13 d 9 -14 d 9 -15 d 9 -15 d 18 -32 d 18 -35 d 18 -37 d 18 -39 d 18 -41 d 36 -90 d 36 -98 d 35 -108 d s black[  ] 0 sd 3 lw
 363 634 m 1791 X s 363 659 m -25 Y s 432 646 m -12 Y s 501 646 m -12 Y s 570 646 m -12 Y s 638 646 m -12 Y s 707 659 m -25 Y s 776 646 m -12 Y s 845 646 m -12 Y s 914 646 m -12 Y s 983 646 m -12 Y s 1052 659 m -25 Y s 1121 646 m -12 Y s 1190 646 m
 -12 Y s 1259 646 m -12 Y s 1327 646 m -12 Y s 1396 659 m -25 Y s 1465 646 m -12 Y s 1534 646 m -12 Y s 1603 646 m -12 Y s 1672 646 m -12 Y s 1741 659 m -25 Y s 1810 646 m -12 Y s 1879 646 m -12 Y s 1948 646 m -12 Y s 2017 646 m -12 Y s 2085 659 m
 -25 Y s 2085 659 m -25 Y s 363 1484 m 1791 X s 363 1459 m 25 Y s 432 1471 m 13 Y s 501 1471 m 13 Y s 570 1471 m 13 Y s 638 1471 m 13 Y s 707 1459 m 25 Y s 776 1471 m 13 Y s 845 1471 m 13 Y s 914 1471 m 13 Y s 983 1471 m 13 Y s 1052 1459 m 25 Y s
 1121 1471 m 13 Y s 1190 1471 m 13 Y s 1259 1471 m 13 Y s 1327 1471 m 13 Y s 1396 1459 m 25 Y s 1465 1471 m 13 Y s 1534 1471 m 13 Y s 1603 1471 m 13 Y s 1672 1471 m 13 Y s 1741 1459 m 25 Y s 1810 1471 m 13 Y s 1879 1471 m 13 Y s 1948 1471 m 13 Y s
 2017 1471 m 13 Y s 2085 1459 m 25 Y s 2085 1459 m 25 Y s 363 634 m 850 Y s 417 634 m -54 X s 390 683 m -27 X s 390 712 m -27 X s 390 733 m -27 X s 390 749 m -27 X s 390 762 m -27 X s 390 773 m -27 X s 390 782 m -27 X s 390 791 m -27 X s 417 798 m
 -54 X s 390 848 m -27 X s 390 877 m -27 X s 390 897 m -27 X s 390 913 m -27 X s 390 926 m -27 X s 390 937 m -27 X s 390 947 m -27 X s 390 955 m -27 X s 417 963 m -54 X s 390 1013 m -27 X s 390 1042 m -27 X s 390 1062 m -27 X s 390 1078 m -27 X s 390
 1091 m -27 X s 390 1102 m -27 X s 390 1112 m -27 X s 390 1120 m -27 X s 417 1128 m -54 X s 390 1177 m -27 X s 390 1206 m -27 X s 390 1227 m -27 X s 390 1243 m -27 X s 390 1256 m -27 X s 390 1267 m -27 X s 390 1276 m -27 X s 390 1285 m -27 X s 417
 1292 m -54 X s 390 1342 m -27 X s 390 1371 m -27 X s 390 1392 m -27 X s 390 1407 m -27 X s 390 1421 m -27 X s 390 1432 m -27 X s 390 1441 m -27 X s 390 1450 m -27 X s 417 1457 m -54 X s 2154 634 m 850 Y s 2101 634 m 53 X s 2127 683 m 27 X s 2127 712
 m 27 X s 2127 733 m 27 X s 2127 749 m 27 X s 2127 762 m 27 X s 2127 773 m 27 X s 2127 782 m 27 X s 2127 791 m 27 X s 2101 798 m 53 X s 2127 848 m 27 X s 2127 877 m 27 X s 2127 897 m 27 X s 2127 913 m 27 X s 2127 926 m 27 X s 2127 937 m 27 X s 2127
 947 m 27 X s 2127 955 m 27 X s 2101 963 m 53 X s 2127 1013 m 27 X s 2127 1042 m 27 X s 2127 1062 m 27 X s 2127 1078 m 27 X s 2127 1091 m 27 X s 2127 1102 m 27 X s 2127 1112 m 27 X s 2127 1120 m 27 X s 2101 1128 m 53 X s 2127 1177 m 27 X s 2127 1206
 m 27 X s 2127 1227 m 27 X s 2127 1243 m 27 X s 2127 1256 m 27 X s 2127 1267 m 27 X s 2127 1276 m 27 X s 2127 1285 m 27 X s 2101 1292 m 53 X s 2127 1342 m 27 X s 2127 1371 m 27 X s 2127 1392 m 27 X s 2127 1407 m 27 X s 2127 1421 m 27 X s 2127 1432 m
 27 X s 2127 1441 m 27 X s 2127 1450 m 27 X s 2101 1457 m 53 X s
 gsave  2268 1077 0 461 C 677.708 1215.31 t 0 r /Helvetica findfont 58.7189 sf 0 0 m (4mu) show NC gr  1 1 1 c 453 161 454 1269 bf black
 gsave  2268 1077 0 461 C 566.929 1371.71 t 0 r /Helvetica-Bold findfont 48.9324 sf 0 0 m (MC15) show NC gr  510 1390 m20
 gsave  2268 1077 0 461 C 566.929 1293.51 t 0 r /Helvetica-Bold findfont 48.9324 sf 0 0 m (Projection of Signal pdf) show NC gr  0 0 1 c 9 lw 471 1309 m 79 X s black 3 lw 1 1 1 c 2268 461 0 0 bf black 1 1 1 c 1791 364 363 74 bf black 1791 364 363 74
 bl 363 74 m 1791 X s
 gsave  2268 461 0 0 C 1915.83 13.0329 t 0 r /Helvetica findfont 22.9045 sf 0 0 m (4l Invariant Mass \(GeV\)) show NC gr  363 85 m -11 Y s 432 79 m -5 Y s 501 79 m -5 Y s 570 79 m -5 Y s 638 79 m -5 Y s 707 85 m -11 Y s 776 79 m -5 Y s 845 79 m -5 Y
 s 914 79 m -5 Y s 983 79 m -5 Y s 1052 85 m -11 Y s 1121 79 m -5 Y s 1190 79 m -5 Y s 1259 79 m -5 Y s 1327 79 m -5 Y s 1396 85 m -11 Y s 1465 79 m -5 Y s 1534 79 m -5 Y s 1603 79 m -5 Y s 1672 79 m -5 Y s 1741 85 m -11 Y s 1810 79 m -5 Y s 1879 79
 m -5 Y s 1948 79 m -5 Y s 2017 79 m -5 Y s 2085 85 m -11 Y s 2085 85 m -11 Y s
 gsave  2268 461 0 0 C 342.112 55.3896 t 0 r /Helvetica findfont 22.9045 sf 0 0 m (400) show NC gr 
 gsave  2268 461 0 0 C 687.483 55.3896 t 0 r /Helvetica findfont 22.9045 sf 0 0 m (450) show NC gr 
 gsave  2268 461 0 0 C 1029.6 55.3896 t 0 r /Helvetica findfont 22.9045 sf 0 0 m (500) show NC gr 
 gsave  2268 461 0 0 C 1374.97 55.3896 t 0 r /Helvetica findfont 22.9045 sf 0 0 m (550) show NC gr 
 gsave  2268 461 0 0 C 1720.34 55.3896 t 0 r /Helvetica findfont 22.9045 sf 0 0 m (600) show NC gr 
 gsave  2268 461 0 0 C 2065.71 55.3896 t 0 r /Helvetica findfont 22.9045 sf 0 0 m (650) show NC gr  363 438 m 1791 X s 363 427 m 11 Y s 432 433 m 5 Y s 501 433 m 5 Y s 570 433 m 5 Y s 638 433 m 5 Y s 707 427 m 11 Y s 776 433 m 5 Y s 845 433 m 5 Y s
 914 433 m 5 Y s 983 433 m 5 Y s 1052 427 m 11 Y s 1121 433 m 5 Y s 1190 433 m 5 Y s 1259 433 m 5 Y s 1327 433 m 5 Y s 1396 427 m 11 Y s 1465 433 m 5 Y s 1534 433 m 5 Y s 1603 433 m 5 Y s 1672 433 m 5 Y s 1741 427 m 11 Y s 1810 433 m 5 Y s 1879 433 m
 5 Y s 1948 433 m 5 Y s 2017 433 m 5 Y s 2085 427 m 11 Y s 2085 427 m 11 Y s 363 74 m 364 Y s 417 74 m -54 X s 390 81 m -27 X s 390 88 m -27 X s 390 96 m -27 X s 390 103 m -27 X s 417 110 m -54 X s 390 118 m -27 X s 390 125 m -27 X s 390 132 m -27 X
 s 390 139 m -27 X s 417 147 m -54 X s 390 154 m -27 X s 390 161 m -27 X s 390 169 m -27 X s 390 176 m -27 X s 417 183 m -54 X s 390 190 m -27 X s 390 198 m -27 X s 390 205 m -27 X s 390 212 m -27 X s 417 220 m -54 X s 390 227 m -27 X s 390 234 m -27
 X s 390 241 m -27 X s 390 249 m -27 X s 417 256 m -54 X s 390 263 m -27 X s 390 271 m -27 X s 390 278 m -27 X s 390 285 m -27 X s 417 293 m -54 X s 390 300 m -27 X s 390 307 m -27 X s 390 314 m -27 X s 390 322 m -27 X s 417 329 m -54 X s 390 336 m
 -27 X s 390 344 m -27 X s 390 351 m -27 X s 390 358 m -27 X s 417 365 m -54 X s 390 373 m -27 X s 390 380 m -27 X s 390 387 m -27 X s 390 395 m -27 X s 417 402 m -54 X s 390 409 m -27 X s 390 416 m -27 X s 390 424 m -27 X s 390 431 m -27 X s 417 438
 m -54 X s
 gsave  2268 461 0 0 C 329.08 65.1643 t 0 r /Helvetica findfont 22.9045 sf 0 0 m (\2555) show NC gr 
 gsave  2268 461 0 0 C 329.08 101.005 t 0 r /Helvetica findfont 22.9045 sf 0 0 m (\2554) show NC gr 
 gsave  2268 461 0 0 C 329.08 140.103 t 0 r /Helvetica findfont 22.9045 sf 0 0 m (\2553) show NC gr 
 gsave  2268 461 0 0 C 329.08 175.944 t 0 r /Helvetica findfont 22.9045 sf 0 0 m (\2552) show NC gr 
 gsave  2268 461 0 0 C 332.338 211.784 t 0 r /Helvetica findfont 22.9045 sf 0 0 m (\2551) show NC gr 
 gsave  2268 461 0 0 C 335.596 247.624 t 0 r /Helvetica findfont 22.9045 sf 0 0 m (0) show NC gr 
 gsave  2268 461 0 0 C 338.854 283.465 t 0 r /Helvetica findfont 22.9045 sf 0 0 m (1) show NC gr 
 gsave  2268 461 0 0 C 335.596 319.305 t 0 r /Helvetica findfont 22.9045 sf 0 0 m (2) show NC gr 
 gsave  2268 461 0 0 C 335.596 358.403 t 0 r /Helvetica findfont 22.9045 sf 0 0 m (3) show NC gr 
 gsave  2268 461 0 0 C 335.596 394.244 t 0 r /Helvetica findfont 22.9045 sf 0 0 m (4) show NC gr 
 gsave  2268 461 0 0 C 335.596 430.084 t 0 r /Helvetica findfont 22.9045 sf 0 0 m (5) show NC gr  2154 74 m 364 Y s 2101 74 m 53 X s 2127 81 m 27 X s 2127 88 m 27 X s 2127 96 m 27 X s 2127 103 m 27 X s 2101 110 m 53 X s 2127 118 m 27 X s 2127 125 m
 27 X s 2127 132 m 27 X s 2127 139 m 27 X s 2101 147 m 53 X s 2127 154 m 27 X s 2127 161 m 27 X s 2127 169 m 27 X s 2127 176 m 27 X s 2101 183 m 53 X s 2127 190 m 27 X s 2127 198 m 27 X s 2127 205 m 27 X s 2127 212 m 27 X s 2101 220 m 53 X s 2127 227
 m 27 X s 2127 234 m 27 X s 2127 241 m 27 X s 2127 249 m 27 X s 2101 256 m 53 X s 2127 263 m 27 X s 2127 271 m 27 X s 2127 278 m 27 X s 2127 285 m 27 X s 2101 293 m 53 X s 2127 300 m 27 X s 2127 307 m 27 X s 2127 314 m 27 X s 2127 322 m 27 X s 2101
 329 m 53 X s 2127 336 m 27 X s 2127 344 m 27 X s 2127 351 m 27 X s 2127 358 m 27 X s 2101 365 m 53 X s 2127 373 m 27 X s 2127 380 m 27 X s 2127 387 m 27 X s 2127 395 m 27 X s 2101 402 m 53 X s 2127 409 m 27 X s 2127 416 m 27 X s 2127 424 m 27 X s
 2127 431 m 27 X s 2101 438 m 53 X s 6 lw 0.2 0.8 0.2 c black 3 lw 0.2 0.8 0.2 c 363 256 m 6 Y 36 X -22 Y 35 X 13 Y 36 X -3 Y 36 X -4 Y 36 X -5 Y 36 X -5 Y 36 X -25 Y 35 X 112 Y 36 X -25 Y 36 X -59 Y 36 X -8 Y 36 X 39 Y 36 X 21 Y 35 X -21 Y 36 X 7 Y
 36 X 5 Y 36 X -51 Y 36 X 68 Y 36 X -24 Y 35 X -34 Y 36 X -12 Y 36 X -7 Y 36 X 41 Y 36 X -112 Y 36 X 70 Y 35 X 58 Y 36 X -34 Y 36 X 2 Y 36 X 102 Y 36 X -69 Y 36 X -53 Y 35 X 96 Y 36 X -39 Y 36 X -66 Y 36 X -55 Y 36 X 136 Y 36 X -48 Y 35 X 19 Y 36 X
 -11 Y 36 X 11 Y 36 X -17 Y 36 X -21 Y 36 X 38 Y 35 X -27 Y 36 X 28 Y 36 X -22 Y 36 X -23 Y 36 X 18 Y 36 X 66 Y 35 X -54 Y f 6 lw black 0.2 0.8 0.2 c black 363 262 m 36 X -22 Y 35 X 13 Y 36 X -3 Y 36 X -4 Y 36 X -5 Y 36 X -5 Y 36 X -25 Y 35 X 112 Y
 36 X -25 Y 36 X -59 Y 36 X -8 Y 36 X 39 Y 36 X 21 Y 35 X -21 Y 36 X 7 Y 36 X 5 Y 36 X -51 Y 36 X 68 Y 36 X -24 Y 35 X -34 Y 36 X -12 Y 36 X -7 Y 36 X 41 Y 36 X -112 Y 36 X 70 Y 35 X 58 Y 36 X -34 Y 36 X 2 Y 36 X 102 Y 36 X -69 Y 36 X -53 Y 35 X 96 Y
 36 X -39 Y 36 X -66 Y 36 X -55 Y 36 X 136 Y 36 X -48 Y 35 X 19 Y 36 X -11 Y 36 X 11 Y 36 X -17 Y 36 X -21 Y 36 X 38 Y 35 X -27 Y 36 X 28 Y 36 X -22 Y 36 X -23 Y 36 X 18 Y 36 X 66 Y 35 X s 3 lw 363 74 m 1791 X s 363 85 m -11 Y s 432 79 m -5 Y s 501
 79 m -5 Y s 570 79 m -5 Y s 638 79 m -5 Y s 707 85 m -11 Y s 776 79 m -5 Y s 845 79 m -5 Y s 914 79 m -5 Y s 983 79 m -5 Y s 1052 85 m -11 Y s 1121 79 m -5 Y s 1190 79 m -5 Y s 1259 79 m -5 Y s 1327 79 m -5 Y s 1396 85 m -11 Y s 1465 79 m -5 Y s
 1534 79 m -5 Y s 1603 79 m -5 Y s 1672 79 m -5 Y s 1741 85 m -11 Y s 1810 79 m -5 Y s 1879 79 m -5 Y s 1948 79 m -5 Y s 2017 79 m -5 Y s 2085 85 m -11 Y s 2085 85 m -11 Y s 363 438 m 1791 X s 363 427 m 11 Y s 432 433 m 5 Y s 501 433 m 5 Y s 570 433
 m 5 Y s 638 433 m 5 Y s 707 427 m 11 Y s 776 433 m 5 Y s 845 433 m 5 Y s 914 433 m 5 Y s 983 433 m 5 Y s 1052 427 m 11 Y s 1121 433 m 5 Y s 1190 433 m 5 Y s 1259 433 m 5 Y s 1327 433 m 5 Y s 1396 427 m 11 Y s 1465 433 m 5 Y s 1534 433 m 5 Y s 1603
 433 m 5 Y s 1672 433 m 5 Y s 1741 427 m 11 Y s 1810 433 m 5 Y s 1879 433 m 5 Y s 1948 433 m 5 Y s 2017 433 m 5 Y s 2085 427 m 11 Y s 2085 427 m 11 Y s 363 74 m 364 Y s 417 74 m -54 X s 390 81 m -27 X s 390 88 m -27 X s 390 96 m -27 X s 390 103 m -27
 X s 417 110 m -54 X s 390 118 m -27 X s 390 125 m -27 X s 390 132 m -27 X s 390 139 m -27 X s 417 147 m -54 X s 390 154 m -27 X s 390 161 m -27 X s 390 169 m -27 X s 390 176 m -27 X s 417 183 m -54 X s 390 190 m -27 X s 390 198 m -27 X s 390 205 m
 -27 X s 390 212 m -27 X s 417 220 m -54 X s 390 227 m -27 X s 390 234 m -27 X s 390 241 m -27 X s 390 249 m -27 X s 417 256 m -54 X s 390 263 m -27 X s 390 271 m -27 X s 390 278 m -27 X s 390 285 m -27 X s 417 293 m -54 X s 390 300 m -27 X s 390 307
 m -27 X s 390 314 m -27 X s 390 322 m -27 X s 417 329 m -54 X s 390 336 m -27 X s 390 344 m -27 X s 390 351 m -27 X s 390 358 m -27 X s 417 365 m -54 X s 390 373 m -27 X s 390 380 m -27 X s 390 387 m -27 X s 390 395 m -27 X s 417 402 m -54 X s 390
 409 m -27 X s 390 416 m -27 X s 390 424 m -27 X s 390 431 m -27 X s 417 438 m -54 X s 2154 74 m 364 Y s 2101 74 m 53 X s 2127 81 m 27 X s 2127 88 m 27 X s 2127 96 m 27 X s 2127 103 m 27 X s 2101 110 m 53 X s 2127 118 m 27 X s 2127 125 m 27 X s 2127
 132 m 27 X s 2127 139 m 27 X s 2101 147 m 53 X s 2127 154 m 27 X s 2127 161 m 27 X s 2127 169 m 27 X s 2127 176 m 27 X s 2101 183 m 53 X s 2127 190 m 27 X s 2127 198 m 27 X s 2127 205 m 27 X s 2127 212 m 27 X s 2101 220 m 53 X s 2127 227 m 27 X s
 2127 234 m 27 X s 2127 241 m 27 X s 2127 249 m 27 X s 2101 256 m 53 X s 2127 263 m 27 X s 2127 271 m 27 X s 2127 278 m 27 X s 2127 285 m 27 X s 2101 293 m 53 X s 2127 300 m 27 X s 2127 307 m 27 X s 2127 314 m 27 X s 2127 322 m 27 X s 2101 329 m 53 X
 s 2127 336 m 27 X s 2127 344 m 27 X s 2127 351 m 27 X s 2127 358 m 27 X s 2101 365 m 53 X s 2127 373 m 27 X s 2127 380 m 27 X s 2127 387 m 27 X s 2127 395 m 27 X s 2101 402 m 53 X s 2127 409 m 27 X s 2127 416 m 27 X s 2127 424 m 27 X s 2127 431 m 27
 X s 2101 438 m 53 X s
 gr  gr showpage
end
%%EOF
