%!PS-Adobe-2.0 EPSF-2.0
%%BoundingBox:  0 0 567 384
%%Title: H4l2015_plotfit/VBF_mass_signal_800_H4l_4e.eps: 
%%Creator: ROOT Version 5.34/07
%%CreationDate: Mon Nov  9 16:30:42 2015
%%EndComments
%%BeginProlog
80 dict begin
/s {stroke} def /l {lineto} def /m {moveto} def /t {translate} def
/r {rotate} def /rl {roll}  def /R {repeat} def
/d {rlineto} def /rm {rmoveto} def /gr {grestore} def /f {eofill} def
/c {setrgbcolor} def /black {0 setgray} def /sd {setdash} def
/cl {closepath} def /sf {scalefont setfont} def /lw {setlinewidth} def
/box {m dup 0 exch d exch 0 d 0 exch neg d cl} def
/NC{systemdict begin initclip end}def/C{NC box clip newpath}def
/bl {box s} def /bf {box f} def /Y { 0 exch d} def /X { 0 d} def 
/K {{pop pop 0 moveto} exch kshow} bind def
/ita {/ang 15 def gsave [1 0 ang dup sin exch cos div 1 0 0] concat} def 
/mp {newpath /y exch def /x exch def} def
/side {[w .77 mul w .23 mul] .385 w mul sd w 0 l currentpoint t -144 r} def
/mr {mp x y w2 0 360 arc} def /m24 {mr s} def /m20 {mr f} def
/mb {mp x y w2 add m w2 neg 0 d 0 w neg d w 0 d 0 w d cl} def
/mt {mp x y w2 add m w2 neg w neg d w 0 d cl} def
/m21 {mb f} def /m25 {mb s} def /m22 {mt f} def /m26{mt s} def
/m23 {mp x y w2 sub m w2 w d w neg 0 d cl f} def
/m27 {mp x y w2 add m w3 neg w2 neg d w3 w2 neg d w3 w2 d cl s} def
/m28 {mp x w2 sub y w2 sub w3 add m w3 0 d  0 w3 neg d w3 0 d 0 w3 d w3 0 d  0 w3 d w3 neg 0 d 0 w3 d w3 neg 0 d 0 w3 neg d w3 neg 0 d cl s } def
/m29 {mp gsave x w2 sub y w2 add w3 sub m currentpoint t 4 {side} repeat cl fill gr} def
/m30 {mp gsave x w2 sub y w2 add w3 sub m currentpoint t 4 {side} repeat cl s gr} def
/m31 {mp x y w2 sub m 0 w d x w2 sub y m w 0 d x w2 sub y w2 add m w w neg d x w2 sub y w2 sub m w w d s} def
/m32 {mp x y w2 sub m w2 w d w neg 0 d cl s} def
/m33 {mp x y w2 add m w3 neg w2 neg d w3 w2 neg d w3 w2 d cl f} def
/m34 {mp x w2 sub y w2 sub w3 add m w3 0 d  0 w3 neg d w3 0 d 0 w3 d w3 0 d  0 w3 d w3 neg 0 d 0 w3 d w3 neg 0 d 0 w3 neg d w3 neg 0 d cl f } def
/m2 {mp x y w2 sub m 0 w d x w2 sub y m w 0 d s} def
/m5 {mp x w2 sub y w2 sub m w w d x w2 sub y w2 add m w w neg d s} def
/reEncode {exch findfont dup length dict begin {1 index /FID eq  {pop pop} {def} ifelse } forall /Encoding exch def currentdict end dup /FontName get exch definefont pop } def [/Times-Bold /Times-Italic /Times-BoldItalic /Helvetica /Helvetica-Oblique
 /Helvetica-Bold /Helvetica-BoldOblique /Courier /Courier-Oblique /Courier-Bold /Courier-BoldOblique /Times-Roman /AvantGarde-Book /AvantGarde-BookOblique /AvantGarde-Demi /AvantGarde-DemiOblique /Bookman-Demi /Bookman-DemiItalic /Bookman-Light
 /Bookman-LightItalic /Helvetica-Narrow /Helvetica-Narrow-Bold /Helvetica-Narrow-BoldOblique /Helvetica-Narrow-Oblique /NewCenturySchlbk-Roman /NewCenturySchlbk-Bold /NewCenturySchlbk-BoldItalic /NewCenturySchlbk-Italic /Palatino-Bold
 /Palatino-BoldItalic /Palatino-Italic /Palatino-Roman ] {ISOLatin1Encoding reEncode } forall
%%EndProlog
%%BeginSetup
%%EndSetup
newpath  gsave  .25 .25 scale  gsave  0 0 t black[  ] 0 sd 3 lw 1 1 1 c 2268 1538 0 0 bf black 1 1 1 c 2222 738 23 784 bf black 1 1 1 c 2222 739 23 15 bf black 1 1 1 c 2268 1077 0 461 bf black 1 1 1 c 1791 850 363 634 bf black 1791 850 363 634 bl 363
 634 m 1791 X s
 gsave  2268 1077 0 461 C 1642.14 498.507 t 0 r /Helvetica findfont 48.9324 sf 0 0 m (4l Invariant Mass \(GeV\)) show NC gr  363 659 m -25 Y s 407 646 m -12 Y s 450 646 m -12 Y s 494 646 m -12 Y s 538 659 m -25 Y s 581 646 m -12 Y s 625 646 m -12 Y s
 669 646 m -12 Y s 712 659 m -25 Y s 756 646 m -12 Y s 800 646 m -12 Y s 843 646 m -12 Y s 887 659 m -25 Y s 931 646 m -12 Y s 975 646 m -12 Y s 1018 646 m -12 Y s 1062 659 m -25 Y s 1106 646 m -12 Y s 1149 646 m -12 Y s 1193 646 m -12 Y s 1237 659 m
 -25 Y s 1280 646 m -12 Y s 1324 646 m -12 Y s 1368 646 m -12 Y s 1412 659 m -25 Y s 1455 646 m -12 Y s 1499 646 m -12 Y s 1543 646 m -12 Y s 1586 659 m -25 Y s 1630 646 m -12 Y s 1674 646 m -12 Y s 1717 646 m -12 Y s 1761 659 m -25 Y s 1805 646 m
 -12 Y s 1848 646 m -12 Y s 1892 646 m -12 Y s 1936 659 m -25 Y s 1980 646 m -12 Y s 2023 646 m -12 Y s 2067 646 m -12 Y s 2111 659 m -25 Y s 2111 659 m -25 Y s
 gsave  2268 1077 0 461 C 319.305 586.478 t 0 r /Helvetica findfont 48.9324 sf 0 0 m (640) show NC gr 
 gsave  2268 1077 0 461 C 495.248 586.478 t 0 r /Helvetica findfont 48.9324 sf 0 0 m (660) show NC gr 
 gsave  2268 1077 0 461 C 667.934 586.478 t 0 r /Helvetica findfont 48.9324 sf 0 0 m (680) show NC gr 
 gsave  2268 1077 0 461 C 843.877 586.478 t 0 r /Helvetica findfont 48.9324 sf 0 0 m (700) show NC gr 
 gsave  2268 1077 0 461 C 1016.56 586.478 t 0 r /Helvetica findfont 48.9324 sf 0 0 m (720) show NC gr 
 gsave  2268 1077 0 461 C 1192.51 586.478 t 0 r /Helvetica findfont 48.9324 sf 0 0 m (740) show NC gr 
 gsave  2268 1077 0 461 C 1368.45 586.478 t 0 r /Helvetica findfont 48.9324 sf 0 0 m (760) show NC gr 
 gsave  2268 1077 0 461 C 1541.13 586.478 t 0 r /Helvetica findfont 48.9324 sf 0 0 m (780) show NC gr 
 gsave  2268 1077 0 461 C 1717.08 586.478 t 0 r /Helvetica findfont 48.9324 sf 0 0 m (800) show NC gr 
 gsave  2268 1077 0 461 C 1893.02 586.478 t 0 r /Helvetica findfont 48.9324 sf 0 0 m (820) show NC gr 
 gsave  2268 1077 0 461 C 2065.71 586.478 t 0 r /Helvetica findfont 48.9324 sf 0 0 m (840) show NC gr  363 1484 m 1791 X s 363 1459 m 25 Y s 407 1471 m 13 Y s 450 1471 m 13 Y s 494 1471 m 13 Y s 538 1459 m 25 Y s 581 1471 m 13 Y s 625 1471 m 13 Y s
 669 1471 m 13 Y s 712 1459 m 25 Y s 756 1471 m 13 Y s 800 1471 m 13 Y s 843 1471 m 13 Y s 887 1459 m 25 Y s 931 1471 m 13 Y s 975 1471 m 13 Y s 1018 1471 m 13 Y s 1062 1459 m 25 Y s 1106 1471 m 13 Y s 1149 1471 m 13 Y s 1193 1471 m 13 Y s 1237 1459
 m 25 Y s 1280 1471 m 13 Y s 1324 1471 m 13 Y s 1368 1471 m 13 Y s 1412 1459 m 25 Y s 1455 1471 m 13 Y s 1499 1471 m 13 Y s 1543 1471 m 13 Y s 1586 1459 m 25 Y s 1630 1471 m 13 Y s 1674 1471 m 13 Y s 1717 1471 m 13 Y s 1761 1459 m 25 Y s 1805 1471 m
 13 Y s 1848 1471 m 13 Y s 1892 1471 m 13 Y s 1936 1459 m 25 Y s 1980 1471 m 13 Y s 2023 1471 m 13 Y s 2067 1471 m 13 Y s 2111 1459 m 25 Y s 2111 1459 m 25 Y s 363 634 m 850 Y s
 gsave  2268 1077 0 461 C 120.554 1058.92 t 90 r /Helvetica findfont 48.9324 sf 0 0 m (Events / \( 4.1 GeV \)) show NC gr  417 634 m -54 X s
 gsave  2268 1077 0 461 C 312.788 632.093 t 0 r /Helvetica findfont 32.6216 sf 0 0 m (\2552) show NC gr 
 gsave  2268 1077 0 461 C 260.657 612.544 t 0 r /Helvetica findfont 48.9324 sf 0 0 m (10) show NC gr  390 681 m -27 X s 390 709 m -27 X s 390 728 m -27 X s 390 744 m -27 X s 390 756 m -27 X s 390 767 m -27 X s 390 776 m -27 X s 390 784 m -27 X s 417
 791 m -54 X s
 gsave  2268 1077 0 461 C 319.305 788.488 t 0 r /Helvetica findfont 32.6216 sf 0 0 m (\2551) show NC gr 
 gsave  2268 1077 0 461 C 267.173 768.938 t 0 r /Helvetica findfont 48.9324 sf 0 0 m (10) show NC gr  390 839 m -27 X s 390 866 m -27 X s 390 886 m -27 X s 390 901 m -27 X s 390 914 m -27 X s 390 924 m -27 X s 390 933 m -27 X s 390 942 m -27 X s 417
 949 m -54 X s
 gsave  2268 1077 0 461 C 342.425 927.903 t 0 r  -27 0 t /Helvetica findfont 48.9324 sf 0 0 m (1) show NC gr  390 996 m -27 X s 390 1024 m -27 X s 390 1044 m -27 X s 390 1059 m -27 X s 390 1071 m -27 X s 390 1082 m -27 X s 390 1091 m -27 X s 390 1099
 m -27 X s 417 1106 m -54 X s
 gsave  2268 1077 0 461 C 342.425 1085.48 t 0 r  -55 0 t /Helvetica findfont 48.9324 sf 0 0 m (10) show NC gr  390 1154 m -27 X s 390 1182 m -27 X s 390 1201 m -27 X s 390 1216 m -27 X s 390 1229 m -27 X s 390 1239 m -27 X s 390 1249 m -27 X s 390
 1257 m -27 X s 417 1264 m -54 X s
 gsave  2268 1077 0 461 C 322.563 1260.93 t 0 r /Helvetica findfont 32.6216 sf 0 0 m (2) show NC gr 
 gsave  2268 1077 0 461 C 270.432 1241.38 t 0 r /Helvetica findfont 48.9324 sf 0 0 m (10) show NC gr  390 1311 m -27 X s 390 1339 m -27 X s 390 1359 m -27 X s 390 1374 m -27 X s 390 1387 m -27 X s 390 1397 m -27 X s 390 1406 m -27 X s 390 1414 m -27
 X s 417 1421 m -54 X s
 gsave  2268 1077 0 461 C 322.563 1423.84 t 0 r /Helvetica findfont 32.6216 sf 0 0 m (3) show NC gr 
 gsave  2268 1077 0 461 C 270.432 1401.03 t 0 r /Helvetica findfont 48.9324 sf 0 0 m (10) show NC gr  390 1469 m -27 X s 2154 634 m 850 Y s 2101 634 m 53 X s 2127 681 m 27 X s 2127 709 m 27 X s 2127 728 m 27 X s 2127 744 m 27 X s 2127 756 m 27 X s
 2127 767 m 27 X s 2127 776 m 27 X s 2127 784 m 27 X s 2101 791 m 53 X s 2127 839 m 27 X s 2127 866 m 27 X s 2127 886 m 27 X s 2127 901 m 27 X s 2127 914 m 27 X s 2127 924 m 27 X s 2127 933 m 27 X s 2127 942 m 27 X s 2101 949 m 53 X s 2127 996 m 27 X
 s 2127 1024 m 27 X s 2127 1044 m 27 X s 2127 1059 m 27 X s 2127 1071 m 27 X s 2127 1082 m 27 X s 2127 1091 m 27 X s 2127 1099 m 27 X s 2101 1106 m 53 X s 2127 1154 m 27 X s 2127 1182 m 27 X s 2127 1201 m 27 X s 2127 1216 m 27 X s 2127 1229 m 27 X s
 2127 1239 m 27 X s 2127 1249 m 27 X s 2127 1257 m 27 X s 2101 1264 m 53 X s 2127 1311 m 27 X s 2127 1339 m 27 X s 2127 1359 m 27 X s 2127 1374 m 27 X s 2127 1387 m 27 X s 2127 1397 m 27 X s 2127 1406 m 27 X s 2127 1414 m 27 X s 2101 1421 m 53 X s
 2127 1469 m 27 X s 381 996 m -18 X s 363 996 m cl s 381 996 m 18 X s 399 996 m cl s 381 996 m 58 Y s 381 1054 m cl s 381 996 m -71 Y s 381 925 m cl s 417 1044 m -18 X s 399 1044 m cl s 417 1044 m 17 X s 434 1044 m cl s 417 1044 m 39 Y s 417 1083 m
 cl s 417 1044 m -45 Y s 417 999 m cl s 452 1059 m -18 X s 434 1059 m cl s 452 1059 m 18 X s 470 1059 m cl s 452 1059 m 35 Y s 452 1094 m cl s 452 1059 m -39 Y s 452 1020 m cl s 488 634 m -18 X s 470 634 m cl s 488 634 m 18 X s 506 634 m cl s 488 634
 m 324 Y s 488 958 m cl s 524 1024 m -18 X s 506 1024 m cl s 524 1024 m 18 X s 542 1024 m cl s 524 1024 m 46 Y s 524 1070 m cl s 524 1024 m -54 Y s 524 970 m cl s 560 949 m -18 X s 542 949 m cl s 560 949 m 18 X s 578 949 m cl s 560 949 m 81 Y s 560
 1030 m cl s 560 949 m -120 Y s 560 829 m cl s 596 996 m -18 X s 578 996 m cl s 596 996 m 18 X s 614 996 m cl s 596 996 m 58 Y s 596 1054 m cl s 596 996 m -71 Y s 596 925 m cl s 632 1024 m -18 X s 614 1024 m cl s 632 1024 m 17 X s 649 1024 m cl s 632
 1024 m 46 Y s 632 1070 m cl s 632 1024 m -54 Y s 632 970 m cl s 667 996 m -18 X s 649 996 m cl s 667 996 m 18 X s 685 996 m cl s 667 996 m 58 Y s 667 1054 m cl s 667 996 m -71 Y s 667 925 m cl s 703 1024 m -18 X s 685 1024 m cl s 703 1024 m 18 X s
 721 1024 m cl s 703 1024 m 46 Y s 703 1070 m cl s 703 1024 m -54 Y s 703 970 m cl s 739 1024 m -18 X s 721 1024 m cl s 739 1024 m 18 X s 757 1024 m cl s 739 1024 m 46 Y s 739 1070 m cl s 739 1024 m -54 Y s 739 970 m cl s 775 1059 m -18 X s 757 1059
 m cl s 775 1059 m 18 X s 793 1059 m cl s 775 1059 m 35 Y s 775 1094 m cl s 775 1059 m -39 Y s 775 1020 m cl s 811 1071 m -18 X s 793 1071 m cl s 811 1071 m 18 X s 829 1071 m cl s 811 1071 m 32 Y s 811 1103 m cl s 811 1071 m -34 Y s 811 1037 m cl s
 847 1082 m -18 X s 829 1082 m cl s 847 1082 m 17 X s 864 1082 m cl s 847 1082 m 29 Y s 847 1111 m cl s 847 1082 m -32 Y s 847 1050 m cl s 882 996 m -18 X s 864 996 m cl s 882 996 m 18 X s 900 996 m cl s 882 996 m 58 Y s 882 1054 m cl s 882 996 m -71
 Y s 882 925 m cl s 918 1059 m -18 X s 900 1059 m cl s 918 1059 m 18 X s 936 1059 m cl s 918 1059 m 35 Y s 918 1094 m cl s 918 1059 m -39 Y s 918 1020 m cl s 954 1071 m -18 X s 936 1071 m cl s 954 1071 m 18 X s 972 1071 m cl s 954 1071 m 32 Y s 954
 1103 m cl s 954 1071 m -34 Y s 954 1037 m cl s 990 1059 m -18 X s 972 1059 m cl s 990 1059 m 18 X s 1008 1059 m cl s 990 1059 m 35 Y s 990 1094 m cl s 990 1059 m -39 Y s 990 1020 m cl s 1026 1082 m -18 X s 1008 1082 m cl s 1026 1082 m 18 X s 1044
 1082 m cl s 1026 1082 m 29 Y s 1026 1111 m cl s 1026 1082 m -32 Y s 1026 1050 m cl s 1062 1082 m -18 X s 1044 1082 m cl s 1062 1082 m 17 X s 1079 1082 m cl s 1062 1082 m 29 Y s 1062 1111 m cl s 1062 1082 m -32 Y s 1062 1050 m cl s 1097 1091 m -18 X
 s 1079 1091 m cl s 1097 1091 m 18 X s 1115 1091 m cl s 1097 1091 m 27 Y s 1097 1118 m cl s 1097 1091 m -29 Y s 1097 1062 m cl s 1133 1113 m -18 X s 1115 1113 m cl s 1133 1113 m 18 X s 1151 1113 m cl s 1133 1113 m 23 Y s 1133 1136 m cl s 1133 1113 m
 -24 Y s 1133 1089 m cl s 1169 1106 m -18 X s 1151 1106 m cl s 1169 1106 m 18 X s 1187 1106 m cl s 1169 1106 m 25 Y s 1169 1131 m cl s 1169 1106 m -25 Y s 1169 1081 m cl s 1205 1099 m -18 X s 1187 1099 m cl s 1205 1099 m 18 X s 1223 1099 m cl s 1205
 1099 m 26 Y s 1205 1125 m cl s 1205 1099 m -27 Y s 1205 1072 m cl s 1241 1124 m -18 X s 1223 1124 m cl s 1241 1124 m 18 X s 1259 1124 m cl s 1241 1124 m 21 Y s 1241 1145 m cl s 1241 1124 m -22 Y s 1241 1102 m cl s 1276 1138 m -17 X s 1259 1138 m cl
 s 1276 1138 m 18 X s 1294 1138 m cl s 1276 1138 m 19 Y s 1276 1157 m cl s 1276 1138 m -19 Y s 1276 1119 m cl s 1312 1157 m -18 X s 1294 1157 m cl s 1312 1157 m 18 X s 1330 1157 m cl s 1312 1157 m 16 Y s 1312 1173 m cl s 1312 1157 m -17 Y s 1312 1140
 m cl s 1348 1157 m -18 X s 1330 1157 m cl s 1348 1157 m 18 X s 1366 1157 m cl s 1348 1157 m 16 Y s 1348 1173 m cl s 1348 1157 m -17 Y s 1348 1140 m cl s 1384 1154 m -18 X s 1366 1154 m cl s 1384 1154 m 18 X s 1402 1154 m cl s 1384 1154 m 17 Y s 1384
 1171 m cl s 1384 1154 m -17 Y s 1384 1137 m cl s 1420 1205 m -18 X s 1402 1205 m cl s 1420 1205 m 18 X s 1438 1205 m cl s 1420 1205 m 11 Y s 1420 1216 m cl s 1420 1205 m -12 Y s 1420 1193 m cl s 1456 1212 m -18 X s 1438 1212 m cl s 1456 1212 m 18 X
 s 1474 1212 m cl s 1456 1212 m 11 Y s 1456 1223 m cl s 1456 1212 m -11 Y s 1456 1201 m cl s 1491 1247 m -17 X s 1474 1247 m cl s 1491 1247 m 18 X s 1509 1247 m cl s 1491 1247 m 8 Y s 1491 1255 m cl s 1491 1247 m -8 Y s 1491 1239 m cl s 1527 1265 m
 -18 X s 1509 1265 m cl s 1527 1265 m 18 X s 1545 1265 m cl s 1527 1265 m 6 Y s 1527 1271 m cl s 1527 1265 m -7 Y s 1527 1258 m cl s 1563 1297 m -18 X s 1545 1297 m cl s 1563 1297 m 18 X s 1581 1297 m cl s 1563 1297 m 6 Y s 1563 1303 m cl s 1563 1297
 m -5 Y s 1563 1292 m cl s 1599 1318 m -18 X s 1581 1318 m cl s 1599 1318 m 18 X s 1617 1318 m cl s 1599 1318 m 5 Y s 1599 1323 m cl s 1599 1318 m -4 Y s 1599 1314 m cl s 1635 1357 m -18 X s 1617 1357 m cl s 1635 1357 m 18 X s 1653 1357 m cl s 1635
 1357 m 4 Y s 1635 1361 m cl s 1635 1357 m -3 Y s 1635 1354 m cl s 1671 1401 m -18 X s 1653 1401 m cl s 1671 1401 m 18 X s 1689 1401 m cl s 1671 1401 m 2 Y s 1671 1403 m cl s 1671 1401 m -3 Y s 1671 1398 m cl s 1706 1437 m -17 X s 1689 1437 m cl s
 1706 1437 m 18 X s 1724 1437 m cl s 1706 1437 m 2 Y s 1706 1439 m cl s 1706 1437 m -2 Y s 1706 1435 m cl s 1742 1451 m -18 X s 1724 1451 m cl s 1742 1451 m 18 X s 1760 1451 m cl s 1742 1451 m 1 Y s 1742 1452 m cl s 1742 1451 m -2 Y s 1742 1449 m cl
 s 1778 1430 m -18 X s 1760 1430 m cl s 1778 1430 m 18 X s 1796 1430 m cl s 1778 1430 m 2 Y s 1778 1432 m cl s 1778 1430 m -2 Y s 1778 1428 m cl s 1814 1382 m -18 X s 1796 1382 m cl s 1814 1382 m 18 X s 1832 1382 m cl s 1814 1382 m 3 Y s 1814 1385 m
 cl s 1814 1382 m -3 Y s 1814 1379 m cl s 1850 1312 m -18 X s 1832 1312 m cl s 1850 1312 m 18 X s 1868 1312 m cl s 1850 1312 m 5 Y s 1850 1317 m cl s 1850 1312 m -4 Y s 1850 1308 m cl s 1886 1251 m -18 X s 1868 1251 m cl s 1886 1251 m 18 X s 1904
 1251 m cl s 1886 1251 m 8 Y s 1886 1259 m cl s 1886 1251 m -8 Y s 1886 1243 m cl s 1921 1174 m -17 X s 1904 1174 m cl s 1921 1174 m 18 X s 1939 1174 m cl s 1921 1174 m 15 Y s 1921 1189 m cl s 1921 1174 m -14 Y s 1921 1160 m cl s 1957 1106 m -18 X s
 1939 1106 m cl s 1957 1106 m 18 X s 1975 1106 m cl s 1957 1106 m 25 Y s 1957 1131 m cl s 1957 1106 m -25 Y s 1957 1081 m cl s 1993 1024 m -18 X s 1975 1024 m cl s 1993 1024 m 18 X s 2011 1024 m cl s 1993 1024 m 46 Y s 1993 1070 m cl s 1993 1024 m
 -54 Y s 1993 970 m cl s 2029 1071 m -18 X s 2011 1071 m cl s 2029 1071 m 18 X s 2047 1071 m cl s 2029 1071 m 32 Y s 2029 1103 m cl s 2029 1071 m -34 Y s 2029 1037 m cl s 2065 1082 m -18 X s 2047 1082 m cl s 2065 1082 m 18 X s 2083 1082 m cl s 2065
 1082 m 29 Y s 2065 1111 m cl s 2065 1082 m -32 Y s 2065 1050 m cl s 2101 1044 m -18 X s 2083 1044 m cl s 2101 1044 m 18 X s 2119 1044 m cl s 2101 1044 m 39 Y s 2101 1083 m cl s 2101 1044 m -45 Y s 2101 999 m cl s 2136 1024 m -17 X s 2119 1024 m cl s
 2136 1024 m 18 X s 2154 1024 m cl s 2136 1024 m 46 Y s 2136 1070 m cl s 2136 1024 m -54 Y s 2136 970 m cl s /w 31 def /w2 {w 2 div} def /w3 {w 3 div} def 381 996 417 1044 452 1059 3 { m20} R 524 1024 560 949 596 996 632 1024 667 996 703 1024 739
 1024 775 1059 811 1071 847 1082 882 996 918 1059 954 1071 990 1059 1026 1082 1062 1082 1097 1091 1133 1113 1169 1106 1205 1099 1241 1124 1276 1138 1312 1157 1348 1157 1384 1154 1420 1205 1456 1212 1491 1247 1527 1265 1563 1297 1599 1318 1635 1357
 1671 1401 1706 1437 1742 1451 1778 1430 1814 1382 1850 1312 1886 1251 1921 1174 1957 1106 1993 1024 2029 1071 2065 1082 2101 1044 2136 1024 46 { m20} R 0 1 1 c 1 1 0 c black 1 1 0 c 363 1001 m 36 4 d 35 4 d 36 3 d 36 4 d 36 4 d 36 4 d 36 5 d 35 4 d
 36 5 d 36 4 d 36 5 d 36 5 d 36 5 d 35 6 d 36 6 d 36 5 d 36 7 d 36 6 d 36 7 d 35 7 d 36 8 d 36 8 d 36 8 d 36 10 d 36 10 d 35 11 d 36 13 d 36 14 d 36 16 d 36 17 d 36 19 d 35 20 d 18 12 d 18 11 d 18 13 d 18 13 d 9 7 d 9 8 d 9 8 d 9 8 d 9 9 d 9 10 d 4 6
 d 5 6 d 4 6 d 5 6 d 4 8 d 5 7 d 9 13 d 18 21 d 8 8 d 5 3 d 4 4 d 5 2 d 4 3 d 5 2 d 4 1 d 5 1 d 4 1 d 5 X 4 -1 d 5 X 4 -2 d 5 -1 d 4 -3 d 5 -2 d 4 -3 d 5 -4 d 4 -4 d 9 -9 d 9 -11 d 9 -12 d 4 -6 d 5 -8 d 4 -7 d 5 -8 d 4 -8 d 5 -8 d 4 -9 d 5 -9 d 4 -9
 d 5 -10 d 4 -10 d 5 -10 d 9 -20 d 9 -19 d 9 -18 d 9 -16 d 9 -13 d 17 -22 d 18 -17 d 36 -30 d 36 -29 d 36 -30 d 36 -31 d 36 -33 d 35 -37 d -191 Y -35 122 d -36 70 d -36 52 d -36 40 d -36 29 d -36 28 d -18 22 d -17 30 d -9 19 d -9 19 d -9 21 d -9 20 d
 -9 21 d -5 10 d -4 11 d -5 10 d -4 10 d -5 9 d -4 10 d -5 9 d -4 9 d -5 8 d -4 8 d -5 8 d -4 7 d -9 14 d -9 11 d -9 9 d -4 4 d -5 4 d -4 3 d -5 2 d -4 3 d -5 1 d -4 2 d -5 X -4 1 d -5 X -4 -1 d -5 X -4 -2 d -5 -2 d -4 -2 d -5 -3 d -4 -3 d -5 -4 d -8
 -9 d -18 -24 d -9 -15 d -5 -6 d -4 -6 d -5 -6 d -4 -6 d -5 -5 d -4 -5 d -9 -10 d -9 -10 d -9 -9 d -9 -8 d -9 -8 d -9 -7 d -18 -14 d -18 -13 d -18 -12 d -18 -11 d -35 -21 d -36 -21 d -36 -18 d -36 -17 d -36 -14 d -36 -13 d -35 -12 d -36 -10 d -36 -10
 d -36 -9 d -36 -8 d -36 -8 d -35 -7 d -36 -7 d -36 -6 d -36 -7 d -36 -6 d -36 -5 d -35 -6 d -36 -5 d -36 -5 d -36 -5 d -36 -5 d -36 -5 d -35 -4 d -36 -4 d -36 -5 d -36 -4 d -36 -3 d -36 -4 d -35 -4 d -36 -4 d f 0 1 1 c 0 1 0 c black 0 1 0 c 363 998
 m 36 3 d 35 4 d 36 4 d 36 4 d 36 4 d 36 4 d 36 4 d 35 4 d 36 5 d 36 5 d 36 5 d 36 5 d 36 5 d 35 5 d 36 6 d 36 6 d 36 6 d 36 7 d 36 7 d 35 7 d 36 7 d 36 8 d 36 9 d 36 9 d 36 11 d 35 11 d 36 13 d 36 14 d 36 16 d 36 18 d 36 19 d 35 20 d 18 12 d 18 11 d
 18 13 d 18 13 d 9 8 d 9 7 d 9 8 d 9 9 d 9 9 d 9 10 d 4 5 d 5 6 d 4 6 d 5 7 d 4 6 d 5 8 d 9 13 d 18 22 d 8 8 d 5 4 d 4 3 d 5 2 d 4 3 d 5 2 d 4 1 d 5 1 d 4 1 d 5 X 4 -1 d 5 X 4 -2 d 5 -1 d 4 -3 d 5 -2 d 4 -3 d 5 -4 d 4 -4 d 9 -9 d 9 -11 d 9 -12 d 4 -7
 d 5 -7 d 4 -8 d 5 -8 d 4 -8 d 5 -9 d 4 -8 d 5 -10 d 4 -9 d 5 -10 d 4 -10 d 5 -10 d 9 -20 d 9 -19 d 9 -19 d 9 -16 d 9 -15 d 17 -23 d 18 -18 d 36 -29 d 36 -30 d 36 -31 d 36 -33 d 36 -37 d 35 -39 d -68 Y -35 59 d -36 50 d -36 44 d -36 36 d -36 30 d -36
 29 d -18 19 d -17 28 d -9 17 d -9 18 d -9 20 d -9 20 d -9 21 d -5 10 d -4 10 d -5 10 d -4 10 d -5 9 d -4 9 d -5 9 d -4 9 d -5 8 d -4 8 d -5 8 d -4 7 d -9 13 d -9 11 d -9 9 d -4 4 d -5 4 d -4 3 d -5 2 d -4 3 d -5 1 d -4 2 d -5 X -4 1 d -5 X -4 -1 d
 -5 -1 d -4 -1 d -5 -2 d -4 -2 d -5 -3 d -4 -3 d -5 -4 d -8 -9 d -18 -23 d -9 -14 d -5 -7 d -4 -6 d -5 -6 d -4 -6 d -5 -6 d -4 -5 d -9 -10 d -9 -9 d -9 -9 d -9 -8 d -9 -8 d -9 -7 d -18 -14 d -18 -13 d -18 -11 d -18 -12 d -35 -21 d -36 -20 d -36 -18 d
 -36 -16 d -36 -15 d -36 -13 d -35 -11 d -36 -11 d -36 -9 d -36 -9 d -36 -8 d -36 -8 d -35 -7 d -36 -7 d -36 -6 d -36 -7 d -36 -6 d -36 -5 d -35 -6 d -36 -5 d -36 -5 d -36 -5 d -36 -5 d -36 -4 d -35 -5 d -36 -4 d -36 -4 d -36 -4 d -36 -4 d -36 -4 d
 -35 -4 d -36 -3 d f 0 0 1 c 9 lw black 0 0 1 c 363 994 m 36 3 d 35 4 d 36 4 d 36 4 d 36 4 d 36 4 d 36 4 d 35 5 d 36 4 d 36 5 d 36 5 d 36 5 d 36 5 d 35 6 d 36 5 d 36 6 d 36 7 d 36 6 d 36 7 d 35 7 d 36 8 d 36 8 d 36 9 d 36 9 d 36 10 d 35 12 d 36 13 d
 36 14 d 36 16 d 36 18 d 36 19 d 35 21 d 18 12 d 18 11 d 18 13 d 18 14 d 9 7 d 9 7 d 9 9 d 9 8 d 9 10 d 9 10 d 4 5 d 5 6 d 4 6 d 5 6 d 4 6 d 5 7 d 9 14 d 18 22 d 8 9 d 5 4 d 4 3 d 5 3 d 4 2 d 5 2 d 4 1 d 5 1 d 4 1 d 5 X 4 -1 d 5 X 4 -2 d 5 -1 d 4 -3
 d 5 -2 d 4 -3 d 5 -4 d 4 -4 d 9 -9 d 9 -11 d 9 -13 d 4 -7 d 5 -7 d 4 -8 d 5 -8 d 4 -8 d 5 -9 d 4 -9 d 5 -9 d 4 -10 d 5 -10 d 4 -10 d 5 -10 d 9 -20 d 9 -20 d 9 -19 d 9 -18 d 9 -15 d 17 -25 d 18 -19 d 36 -29 d 36 -30 d 36 -33 d 36 -37 d 36 -42 d 35
 -45 d s black 3 lw 381 996 m -18 X s 363 996 m cl s 381 996 m 18 X s 399 996 m cl s 381 996 m 58 Y s 381 1054 m cl s 381 996 m -71 Y s 381 925 m cl s 417 1044 m -18 X s 399 1044 m cl s 417 1044 m 17 X s 434 1044 m cl s 417 1044 m 39 Y s 417 1083 m
 cl s 417 1044 m -45 Y s 417 999 m cl s 452 1059 m -18 X s 434 1059 m cl s 452 1059 m 18 X s 470 1059 m cl s 452 1059 m 35 Y s 452 1094 m cl s 452 1059 m -39 Y s 452 1020 m cl s 488 634 m -18 X s 470 634 m cl s 488 634 m 18 X s 506 634 m cl s 488 634
 m 324 Y s 488 958 m cl s 524 1024 m -18 X s 506 1024 m cl s 524 1024 m 18 X s 542 1024 m cl s 524 1024 m 46 Y s 524 1070 m cl s 524 1024 m -54 Y s 524 970 m cl s 560 949 m -18 X s 542 949 m cl s 560 949 m 18 X s 578 949 m cl s 560 949 m 81 Y s 560
 1030 m cl s 560 949 m -120 Y s 560 829 m cl s 596 996 m -18 X s 578 996 m cl s 596 996 m 18 X s 614 996 m cl s 596 996 m 58 Y s 596 1054 m cl s 596 996 m -71 Y s 596 925 m cl s 632 1024 m -18 X s 614 1024 m cl s 632 1024 m 17 X s 649 1024 m cl s 632
 1024 m 46 Y s 632 1070 m cl s 632 1024 m -54 Y s 632 970 m cl s 667 996 m -18 X s 649 996 m cl s 667 996 m 18 X s 685 996 m cl s 667 996 m 58 Y s 667 1054 m cl s 667 996 m -71 Y s 667 925 m cl s 703 1024 m -18 X s 685 1024 m cl s 703 1024 m 18 X s
 721 1024 m cl s 703 1024 m 46 Y s 703 1070 m cl s 703 1024 m -54 Y s 703 970 m cl s 739 1024 m -18 X s 721 1024 m cl s 739 1024 m 18 X s 757 1024 m cl s 739 1024 m 46 Y s 739 1070 m cl s 739 1024 m -54 Y s 739 970 m cl s 775 1059 m -18 X s 757 1059
 m cl s 775 1059 m 18 X s 793 1059 m cl s 775 1059 m 35 Y s 775 1094 m cl s 775 1059 m -39 Y s 775 1020 m cl s 811 1071 m -18 X s 793 1071 m cl s 811 1071 m 18 X s 829 1071 m cl s 811 1071 m 32 Y s 811 1103 m cl s 811 1071 m -34 Y s 811 1037 m cl s
 847 1082 m -18 X s 829 1082 m cl s 847 1082 m 17 X s 864 1082 m cl s 847 1082 m 29 Y s 847 1111 m cl s 847 1082 m -32 Y s 847 1050 m cl s 882 996 m -18 X s 864 996 m cl s 882 996 m 18 X s 900 996 m cl s 882 996 m 58 Y s 882 1054 m cl s 882 996 m -71
 Y s 882 925 m cl s 918 1059 m -18 X s 900 1059 m cl s 918 1059 m 18 X s 936 1059 m cl s 918 1059 m 35 Y s 918 1094 m cl s 918 1059 m -39 Y s 918 1020 m cl s 954 1071 m -18 X s 936 1071 m cl s 954 1071 m 18 X s 972 1071 m cl s 954 1071 m 32 Y s 954
 1103 m cl s 954 1071 m -34 Y s 954 1037 m cl s 990 1059 m -18 X s 972 1059 m cl s 990 1059 m 18 X s 1008 1059 m cl s 990 1059 m 35 Y s 990 1094 m cl s 990 1059 m -39 Y s 990 1020 m cl s 1026 1082 m -18 X s 1008 1082 m cl s 1026 1082 m 18 X s 1044
 1082 m cl s 1026 1082 m 29 Y s 1026 1111 m cl s 1026 1082 m -32 Y s 1026 1050 m cl s 1062 1082 m -18 X s 1044 1082 m cl s 1062 1082 m 17 X s 1079 1082 m cl s 1062 1082 m 29 Y s 1062 1111 m cl s 1062 1082 m -32 Y s 1062 1050 m cl s 1097 1091 m -18 X
 s 1079 1091 m cl s 1097 1091 m 18 X s 1115 1091 m cl s 1097 1091 m 27 Y s 1097 1118 m cl s 1097 1091 m -29 Y s 1097 1062 m cl s 1133 1113 m -18 X s 1115 1113 m cl s 1133 1113 m 18 X s 1151 1113 m cl s 1133 1113 m 23 Y s 1133 1136 m cl s 1133 1113 m
 -24 Y s 1133 1089 m cl s 1169 1106 m -18 X s 1151 1106 m cl s 1169 1106 m 18 X s 1187 1106 m cl s 1169 1106 m 25 Y s 1169 1131 m cl s 1169 1106 m -25 Y s 1169 1081 m cl s 1205 1099 m -18 X s 1187 1099 m cl s 1205 1099 m 18 X s 1223 1099 m cl s 1205
 1099 m 26 Y s 1205 1125 m cl s 1205 1099 m -27 Y s 1205 1072 m cl s 1241 1124 m -18 X s 1223 1124 m cl s 1241 1124 m 18 X s 1259 1124 m cl s 1241 1124 m 21 Y s 1241 1145 m cl s 1241 1124 m -22 Y s 1241 1102 m cl s 1276 1138 m -17 X s 1259 1138 m cl
 s 1276 1138 m 18 X s 1294 1138 m cl s 1276 1138 m 19 Y s 1276 1157 m cl s 1276 1138 m -19 Y s 1276 1119 m cl s 1312 1157 m -18 X s 1294 1157 m cl s 1312 1157 m 18 X s 1330 1157 m cl s 1312 1157 m 16 Y s 1312 1173 m cl s 1312 1157 m -17 Y s 1312 1140
 m cl s 1348 1157 m -18 X s 1330 1157 m cl s 1348 1157 m 18 X s 1366 1157 m cl s 1348 1157 m 16 Y s 1348 1173 m cl s 1348 1157 m -17 Y s 1348 1140 m cl s 1384 1154 m -18 X s 1366 1154 m cl s 1384 1154 m 18 X s 1402 1154 m cl s 1384 1154 m 17 Y s 1384
 1171 m cl s 1384 1154 m -17 Y s 1384 1137 m cl s 1420 1205 m -18 X s 1402 1205 m cl s 1420 1205 m 18 X s 1438 1205 m cl s 1420 1205 m 11 Y s 1420 1216 m cl s 1420 1205 m -12 Y s 1420 1193 m cl s 1456 1212 m -18 X s 1438 1212 m cl s 1456 1212 m 18 X
 s 1474 1212 m cl s 1456 1212 m 11 Y s 1456 1223 m cl s 1456 1212 m -11 Y s 1456 1201 m cl s 1491 1247 m -17 X s 1474 1247 m cl s 1491 1247 m 18 X s 1509 1247 m cl s 1491 1247 m 8 Y s 1491 1255 m cl s 1491 1247 m -8 Y s 1491 1239 m cl s 1527 1265 m
 -18 X s 1509 1265 m cl s 1527 1265 m 18 X s 1545 1265 m cl s 1527 1265 m 6 Y s 1527 1271 m cl s 1527 1265 m -7 Y s 1527 1258 m cl s 1563 1297 m -18 X s 1545 1297 m cl s 1563 1297 m 18 X s 1581 1297 m cl s 1563 1297 m 6 Y s 1563 1303 m cl s 1563 1297
 m -5 Y s 1563 1292 m cl s 1599 1318 m -18 X s 1581 1318 m cl s 1599 1318 m 18 X s 1617 1318 m cl s 1599 1318 m 5 Y s 1599 1323 m cl s 1599 1318 m -4 Y s 1599 1314 m cl s 1635 1357 m -18 X s 1617 1357 m cl s 1635 1357 m 18 X s 1653 1357 m cl s 1635
 1357 m 4 Y s 1635 1361 m cl s 1635 1357 m -3 Y s 1635 1354 m cl s 1671 1401 m -18 X s 1653 1401 m cl s 1671 1401 m 18 X s 1689 1401 m cl s 1671 1401 m 2 Y s 1671 1403 m cl s 1671 1401 m -3 Y s 1671 1398 m cl s 1706 1437 m -17 X s 1689 1437 m cl s
 1706 1437 m 18 X s 1724 1437 m cl s 1706 1437 m 2 Y s 1706 1439 m cl s 1706 1437 m -2 Y s 1706 1435 m cl s 1742 1451 m -18 X s 1724 1451 m cl s 1742 1451 m 18 X s 1760 1451 m cl s 1742 1451 m 1 Y s 1742 1452 m cl s 1742 1451 m -2 Y s 1742 1449 m cl
 s 1778 1430 m -18 X s 1760 1430 m cl s 1778 1430 m 18 X s 1796 1430 m cl s 1778 1430 m 2 Y s 1778 1432 m cl s 1778 1430 m -2 Y s 1778 1428 m cl s 1814 1382 m -18 X s 1796 1382 m cl s 1814 1382 m 18 X s 1832 1382 m cl s 1814 1382 m 3 Y s 1814 1385 m
 cl s 1814 1382 m -3 Y s 1814 1379 m cl s 1850 1312 m -18 X s 1832 1312 m cl s 1850 1312 m 18 X s 1868 1312 m cl s 1850 1312 m 5 Y s 1850 1317 m cl s 1850 1312 m -4 Y s 1850 1308 m cl s 1886 1251 m -18 X s 1868 1251 m cl s 1886 1251 m 18 X s 1904
 1251 m cl s 1886 1251 m 8 Y s 1886 1259 m cl s 1886 1251 m -8 Y s 1886 1243 m cl s 1921 1174 m -17 X s 1904 1174 m cl s 1921 1174 m 18 X s 1939 1174 m cl s 1921 1174 m 15 Y s 1921 1189 m cl s 1921 1174 m -14 Y s 1921 1160 m cl s 1957 1106 m -18 X s
 1939 1106 m cl s 1957 1106 m 18 X s 1975 1106 m cl s 1957 1106 m 25 Y s 1957 1131 m cl s 1957 1106 m -25 Y s 1957 1081 m cl s 1993 1024 m -18 X s 1975 1024 m cl s 1993 1024 m 18 X s 2011 1024 m cl s 1993 1024 m 46 Y s 1993 1070 m cl s 1993 1024 m
 -54 Y s 1993 970 m cl s 2029 1071 m -18 X s 2011 1071 m cl s 2029 1071 m 18 X s 2047 1071 m cl s 2029 1071 m 32 Y s 2029 1103 m cl s 2029 1071 m -34 Y s 2029 1037 m cl s 2065 1082 m -18 X s 2047 1082 m cl s 2065 1082 m 18 X s 2083 1082 m cl s 2065
 1082 m 29 Y s 2065 1111 m cl s 2065 1082 m -32 Y s 2065 1050 m cl s 2101 1044 m -18 X s 2083 1044 m cl s 2101 1044 m 18 X s 2119 1044 m cl s 2101 1044 m 39 Y s 2101 1083 m cl s 2101 1044 m -45 Y s 2101 999 m cl s 2136 1024 m -17 X s 2119 1024 m cl s
 2136 1024 m 18 X s 2154 1024 m cl s 2136 1024 m 46 Y s 2136 1070 m cl s 2136 1024 m -54 Y s 2136 970 m cl s 381 996 417 1044 452 1059 3 { m20} R 524 1024 560 949 596 996 632 1024 667 996 703 1024 739 1024 775 1059 811 1071 847 1082 882 996 918 1059
 954 1071 990 1059 1026 1082 1062 1082 1097 1091 1133 1113 1169 1106 1205 1099 1241 1124 1276 1138 1312 1157 1348 1157 1384 1154 1420 1205 1456 1212 1491 1247 1527 1265 1563 1297 1599 1318 1635 1357 1671 1401 1706 1437 1742 1451 1778 1430 1814 1382
 1850 1312 1886 1251 1921 1174 1957 1106 1993 1024 2029 1071 2065 1082 2101 1044 2136 1024 46 { m20} R 0.52 0.76 0.64 c[ 4 8] 0 sd 9 lw black 0.52 0.76 0.64 c 363 994 m 36 3 d 35 4 d 36 4 d 36 4 d 36 4 d 36 4 d 36 4 d 35 5 d 36 4 d 36 5 d 36 5 d 36 5
 d 36 5 d 35 6 d 36 5 d 36 6 d 36 7 d 36 6 d 36 7 d 35 7 d 36 8 d 36 8 d 36 8 d 36 10 d 36 9 d 35 11 d 36 11 d 36 13 d 36 13 d 36 16 d 36 17 d 35 19 d 18 11 d 18 12 d 18 13 d 18 15 d 9 8 d 9 8 d 9 9 d 9 9 d 9 11 d 4 5 d 5 6 d 4 5 d 5 7 d 4 6 d 5 7 d
 4 7 d 5 7 d 4 8 d 5 7 d 18 23 d 8 9 d 5 4 d 4 3 d 5 3 d 4 3 d 5 1 d 4 2 d 5 1 d 4 X 5 1 d 4 -1 d 5 -1 d 4 -1 d 5 -2 d 4 -2 d 5 -3 d 4 -3 d 5 -4 d 4 -4 d 9 -9 d 9 -12 d 9 -13 d 4 -8 d 5 -7 d 4 -9 d 5 -9 d 4 -9 d 5 -9 d 4 -11 d 5 -10 d 4 -11 d 5 -12 d
 4 -12 d 5 -12 d 4 -13 d 5 -14 d 9 -28 d 9 -30 d 9 -32 d 9 -34 d 17 -73 d 18 -81 d 36 -183 d 26 -152 d s 0.54 0.66 0.63 c black 0.54 0.66 0.63 c 1130 634 m 21 40 d s 1151 674 m 36 65 d 36 60 d 36 56 d 35 53 d 36 48 d 18 22 d 18 22 d 18 20 d 18 20 d
 18 18 d 18 18 d 18 16 d 18 16 d 17 14 d 18 13 d 18 13 d 18 11 d 18 11 d 18 9 d 36 15 d 18 7 d 18 5 d 9 2 d 9 2 d 9 2 d 9 1 d 8 2 d 9 1 d 9 X 9 1 d 27 X 9 -1 d 9 -1 d 9 -1 d 9 -1 d 9 -2 d 9 -1 d 9 -3 d 9 -2 d 9 -2 d 18 -6 d 18 -7 d 36 -17 d 17 -10 d
 18 -11 d 18 -12 d 18 -13 d 18 -15 d 18 -15 d 18 -16 d 18 -17 d 18 -18 d 18 -19 d 18 -20 d 18 -22 d 17 -22 d 18 -23 d s black[  ] 0 sd 3 lw 363 634 m 1791 X s 363 659 m -25 Y s 407 646 m -12 Y s 450 646 m -12 Y s 494 646 m -12 Y s 538 659 m -25 Y s
 581 646 m -12 Y s 625 646 m -12 Y s 669 646 m -12 Y s 712 659 m -25 Y s 756 646 m -12 Y s 800 646 m -12 Y s 843 646 m -12 Y s 887 659 m -25 Y s 931 646 m -12 Y s 975 646 m -12 Y s 1018 646 m -12 Y s 1062 659 m -25 Y s 1106 646 m -12 Y s 1149 646 m
 -12 Y s 1193 646 m -12 Y s 1237 659 m -25 Y s 1280 646 m -12 Y s 1324 646 m -12 Y s 1368 646 m -12 Y s 1412 659 m -25 Y s 1455 646 m -12 Y s 1499 646 m -12 Y s 1543 646 m -12 Y s 1586 659 m -25 Y s 1630 646 m -12 Y s 1674 646 m -12 Y s 1717 646 m
 -12 Y s 1761 659 m -25 Y s 1805 646 m -12 Y s 1848 646 m -12 Y s 1892 646 m -12 Y s 1936 659 m -25 Y s 1980 646 m -12 Y s 2023 646 m -12 Y s 2067 646 m -12 Y s 2111 659 m -25 Y s 2111 659 m -25 Y s 363 1484 m 1791 X s 363 1459 m 25 Y s 407 1471 m 13
 Y s 450 1471 m 13 Y s 494 1471 m 13 Y s 538 1459 m 25 Y s 581 1471 m 13 Y s 625 1471 m 13 Y s 669 1471 m 13 Y s 712 1459 m 25 Y s 756 1471 m 13 Y s 800 1471 m 13 Y s 843 1471 m 13 Y s 887 1459 m 25 Y s 931 1471 m 13 Y s 975 1471 m 13 Y s 1018 1471 m
 13 Y s 1062 1459 m 25 Y s 1106 1471 m 13 Y s 1149 1471 m 13 Y s 1193 1471 m 13 Y s 1237 1459 m 25 Y s 1280 1471 m 13 Y s 1324 1471 m 13 Y s 1368 1471 m 13 Y s 1412 1459 m 25 Y s 1455 1471 m 13 Y s 1499 1471 m 13 Y s 1543 1471 m 13 Y s 1586 1459 m 25
 Y s 1630 1471 m 13 Y s 1674 1471 m 13 Y s 1717 1471 m 13 Y s 1761 1459 m 25 Y s 1805 1471 m 13 Y s 1848 1471 m 13 Y s 1892 1471 m 13 Y s 1936 1459 m 25 Y s 1980 1471 m 13 Y s 2023 1471 m 13 Y s 2067 1471 m 13 Y s 2111 1459 m 25 Y s 2111 1459 m 25 Y
 s 363 634 m 850 Y s 417 634 m -54 X s 390 681 m -27 X s 390 709 m -27 X s 390 728 m -27 X s 390 744 m -27 X s 390 756 m -27 X s 390 767 m -27 X s 390 776 m -27 X s 390 784 m -27 X s 417 791 m -54 X s 390 839 m -27 X s 390 866 m -27 X s 390 886 m -27
 X s 390 901 m -27 X s 390 914 m -27 X s 390 924 m -27 X s 390 933 m -27 X s 390 942 m -27 X s 417 949 m -54 X s 390 996 m -27 X s 390 1024 m -27 X s 390 1044 m -27 X s 390 1059 m -27 X s 390 1071 m -27 X s 390 1082 m -27 X s 390 1091 m -27 X s 390
 1099 m -27 X s 417 1106 m -54 X s 390 1154 m -27 X s 390 1182 m -27 X s 390 1201 m -27 X s 390 1216 m -27 X s 390 1229 m -27 X s 390 1239 m -27 X s 390 1249 m -27 X s 390 1257 m -27 X s 417 1264 m -54 X s 390 1311 m -27 X s 390 1339 m -27 X s 390
 1359 m -27 X s 390 1374 m -27 X s 390 1387 m -27 X s 390 1397 m -27 X s 390 1406 m -27 X s 390 1414 m -27 X s 417 1421 m -54 X s 390 1469 m -27 X s 2154 634 m 850 Y s 2101 634 m 53 X s 2127 681 m 27 X s 2127 709 m 27 X s 2127 728 m 27 X s 2127 744 m
 27 X s 2127 756 m 27 X s 2127 767 m 27 X s 2127 776 m 27 X s 2127 784 m 27 X s 2101 791 m 53 X s 2127 839 m 27 X s 2127 866 m 27 X s 2127 886 m 27 X s 2127 901 m 27 X s 2127 914 m 27 X s 2127 924 m 27 X s 2127 933 m 27 X s 2127 942 m 27 X s 2101 949
 m 53 X s 2127 996 m 27 X s 2127 1024 m 27 X s 2127 1044 m 27 X s 2127 1059 m 27 X s 2127 1071 m 27 X s 2127 1082 m 27 X s 2127 1091 m 27 X s 2127 1099 m 27 X s 2101 1106 m 53 X s 2127 1154 m 27 X s 2127 1182 m 27 X s 2127 1201 m 27 X s 2127 1216 m
 27 X s 2127 1229 m 27 X s 2127 1239 m 27 X s 2127 1249 m 27 X s 2127 1257 m 27 X s 2101 1264 m 53 X s 2127 1311 m 27 X s 2127 1339 m 27 X s 2127 1359 m 27 X s 2127 1374 m 27 X s 2127 1387 m 27 X s 2127 1397 m 27 X s 2127 1406 m 27 X s 2127 1414 m 27
 X s 2101 1421 m 53 X s 2127 1469 m 27 X s
 gsave  2268 1077 0 461 C 677.708 1215.31 t 0 r /Helvetica findfont 58.7189 sf 0 0 m (4e) show NC gr  1 1 1 c 453 161 454 1269 bf black
 gsave  2268 1077 0 461 C 566.929 1371.71 t 0 r /Helvetica-Bold findfont 48.9324 sf 0 0 m (MC15) show NC gr  510 1390 m20
 gsave  2268 1077 0 461 C 566.929 1293.51 t 0 r /Helvetica-Bold findfont 48.9324 sf 0 0 m (Projection of Signal pdf) show NC gr  0 0 1 c 9 lw 471 1309 m 79 X s black 3 lw 1 1 1 c 2268 461 0 0 bf black 1 1 1 c 1791 364 363 74 bf black 1791 364 363 74
 bl 363 74 m 1791 X s
 gsave  2268 461 0 0 C 1915.83 13.0329 t 0 r /Helvetica findfont 22.9045 sf 0 0 m (4l Invariant Mass \(GeV\)) show NC gr  363 85 m -11 Y s 407 79 m -5 Y s 450 79 m -5 Y s 494 79 m -5 Y s 538 85 m -11 Y s 581 79 m -5 Y s 625 79 m -5 Y s 669 79 m -5 Y
 s 712 85 m -11 Y s 756 79 m -5 Y s 800 79 m -5 Y s 843 79 m -5 Y s 887 85 m -11 Y s 931 79 m -5 Y s 975 79 m -5 Y s 1018 79 m -5 Y s 1062 85 m -11 Y s 1106 79 m -5 Y s 1149 79 m -5 Y s 1193 79 m -5 Y s 1237 85 m -11 Y s 1280 79 m -5 Y s 1324 79 m -5
 Y s 1368 79 m -5 Y s 1412 85 m -11 Y s 1455 79 m -5 Y s 1499 79 m -5 Y s 1543 79 m -5 Y s 1586 85 m -11 Y s 1630 79 m -5 Y s 1674 79 m -5 Y s 1717 79 m -5 Y s 1761 85 m -11 Y s 1805 79 m -5 Y s 1848 79 m -5 Y s 1892 79 m -5 Y s 1936 85 m -11 Y s
 1980 79 m -5 Y s 2023 79 m -5 Y s 2067 79 m -5 Y s 2111 85 m -11 Y s 2111 85 m -11 Y s
 gsave  2268 461 0 0 C 342.112 55.3896 t 0 r /Helvetica findfont 22.9045 sf 0 0 m (640) show NC gr 
 gsave  2268 461 0 0 C 518.056 55.3896 t 0 r /Helvetica findfont 22.9045 sf 0 0 m (660) show NC gr 
 gsave  2268 461 0 0 C 690.741 55.3896 t 0 r /Helvetica findfont 22.9045 sf 0 0 m (680) show NC gr 
 gsave  2268 461 0 0 C 866.685 55.3896 t 0 r /Helvetica findfont 22.9045 sf 0 0 m (700) show NC gr 
 gsave  2268 461 0 0 C 1039.37 55.3896 t 0 r /Helvetica findfont 22.9045 sf 0 0 m (720) show NC gr 
 gsave  2268 461 0 0 C 1215.31 55.3896 t 0 r /Helvetica findfont 22.9045 sf 0 0 m (740) show NC gr 
 gsave  2268 461 0 0 C 1391.26 55.3896 t 0 r /Helvetica findfont 22.9045 sf 0 0 m (760) show NC gr 
 gsave  2268 461 0 0 C 1563.94 55.3896 t 0 r /Helvetica findfont 22.9045 sf 0 0 m (780) show NC gr 
 gsave  2268 461 0 0 C 1739.89 55.3896 t 0 r /Helvetica findfont 22.9045 sf 0 0 m (800) show NC gr 
 gsave  2268 461 0 0 C 1915.83 55.3896 t 0 r /Helvetica findfont 22.9045 sf 0 0 m (820) show NC gr 
 gsave  2268 461 0 0 C 2088.51 55.3896 t 0 r /Helvetica findfont 22.9045 sf 0 0 m (840) show NC gr  363 438 m 1791 X s 363 427 m 11 Y s 407 433 m 5 Y s 450 433 m 5 Y s 494 433 m 5 Y s 538 427 m 11 Y s 581 433 m 5 Y s 625 433 m 5 Y s 669 433 m 5 Y s
 712 427 m 11 Y s 756 433 m 5 Y s 800 433 m 5 Y s 843 433 m 5 Y s 887 427 m 11 Y s 931 433 m 5 Y s 975 433 m 5 Y s 1018 433 m 5 Y s 1062 427 m 11 Y s 1106 433 m 5 Y s 1149 433 m 5 Y s 1193 433 m 5 Y s 1237 427 m 11 Y s 1280 433 m 5 Y s 1324 433 m 5 Y
 s 1368 433 m 5 Y s 1412 427 m 11 Y s 1455 433 m 5 Y s 1499 433 m 5 Y s 1543 433 m 5 Y s 1586 427 m 11 Y s 1630 433 m 5 Y s 1674 433 m 5 Y s 1717 433 m 5 Y s 1761 427 m 11 Y s 1805 433 m 5 Y s 1848 433 m 5 Y s 1892 433 m 5 Y s 1936 427 m 11 Y s 1980
 433 m 5 Y s 2023 433 m 5 Y s 2067 433 m 5 Y s 2111 427 m 11 Y s 2111 427 m 11 Y s 363 74 m 364 Y s 417 74 m -54 X s 390 81 m -27 X s 390 88 m -27 X s 390 96 m -27 X s 390 103 m -27 X s 417 110 m -54 X s 390 118 m -27 X s 390 125 m -27 X s 390 132 m
 -27 X s 390 139 m -27 X s 417 147 m -54 X s 390 154 m -27 X s 390 161 m -27 X s 390 169 m -27 X s 390 176 m -27 X s 417 183 m -54 X s 390 190 m -27 X s 390 198 m -27 X s 390 205 m -27 X s 390 212 m -27 X s 417 220 m -54 X s 390 227 m -27 X s 390 234
 m -27 X s 390 241 m -27 X s 390 249 m -27 X s 417 256 m -54 X s 390 263 m -27 X s 390 271 m -27 X s 390 278 m -27 X s 390 285 m -27 X s 417 293 m -54 X s 390 300 m -27 X s 390 307 m -27 X s 390 314 m -27 X s 390 322 m -27 X s 417 329 m -54 X s 390
 336 m -27 X s 390 344 m -27 X s 390 351 m -27 X s 390 358 m -27 X s 417 365 m -54 X s 390 373 m -27 X s 390 380 m -27 X s 390 387 m -27 X s 390 395 m -27 X s 417 402 m -54 X s 390 409 m -27 X s 390 416 m -27 X s 390 424 m -27 X s 390 431 m -27 X s
 417 438 m -54 X s
 gsave  2268 461 0 0 C 329.08 65.1643 t 0 r /Helvetica findfont 22.9045 sf 0 0 m (\2555) show NC gr 
 gsave  2268 461 0 0 C 329.08 101.005 t 0 r /Helvetica findfont 22.9045 sf 0 0 m (\2554) show NC gr 
 gsave  2268 461 0 0 C 329.08 140.103 t 0 r /Helvetica findfont 22.9045 sf 0 0 m (\2553) show NC gr 
 gsave  2268 461 0 0 C 329.08 175.944 t 0 r /Helvetica findfont 22.9045 sf 0 0 m (\2552) show NC gr 
 gsave  2268 461 0 0 C 332.338 211.784 t 0 r /Helvetica findfont 22.9045 sf 0 0 m (\2551) show NC gr 
 gsave  2268 461 0 0 C 335.596 247.624 t 0 r /Helvetica findfont 22.9045 sf 0 0 m (0) show NC gr 
 gsave  2268 461 0 0 C 338.854 283.465 t 0 r /Helvetica findfont 22.9045 sf 0 0 m (1) show NC gr 
 gsave  2268 461 0 0 C 335.596 319.305 t 0 r /Helvetica findfont 22.9045 sf 0 0 m (2) show NC gr 
 gsave  2268 461 0 0 C 335.596 358.403 t 0 r /Helvetica findfont 22.9045 sf 0 0 m (3) show NC gr 
 gsave  2268 461 0 0 C 335.596 394.244 t 0 r /Helvetica findfont 22.9045 sf 0 0 m (4) show NC gr 
 gsave  2268 461 0 0 C 335.596 430.084 t 0 r /Helvetica findfont 22.9045 sf 0 0 m (5) show NC gr  2154 74 m 364 Y s 2101 74 m 53 X s 2127 81 m 27 X s 2127 88 m 27 X s 2127 96 m 27 X s 2127 103 m 27 X s 2101 110 m 53 X s 2127 118 m 27 X s 2127 125 m
 27 X s 2127 132 m 27 X s 2127 139 m 27 X s 2101 147 m 53 X s 2127 154 m 27 X s 2127 161 m 27 X s 2127 169 m 27 X s 2127 176 m 27 X s 2101 183 m 53 X s 2127 190 m 27 X s 2127 198 m 27 X s 2127 205 m 27 X s 2127 212 m 27 X s 2101 220 m 53 X s 2127 227
 m 27 X s 2127 234 m 27 X s 2127 241 m 27 X s 2127 249 m 27 X s 2101 256 m 53 X s 2127 263 m 27 X s 2127 271 m 27 X s 2127 278 m 27 X s 2127 285 m 27 X s 2101 293 m 53 X s 2127 300 m 27 X s 2127 307 m 27 X s 2127 314 m 27 X s 2127 322 m 27 X s 2101
 329 m 53 X s 2127 336 m 27 X s 2127 344 m 27 X s 2127 351 m 27 X s 2127 358 m 27 X s 2101 365 m 53 X s 2127 373 m 27 X s 2127 380 m 27 X s 2127 387 m 27 X s 2127 395 m 27 X s 2101 402 m 53 X s 2127 409 m 27 X s 2127 416 m 27 X s 2127 424 m 27 X s
 2127 431 m 27 X s 2101 438 m 53 X s 6 lw 0.2 0.8 0.2 c black 3 lw 0.2 0.8 0.2 c 363 256 m 1 Y 36 X 35 Y 35 X 11 Y 36 X -121 Y 36 X 86 Y 36 X -38 Y 36 X 15 Y 36 X 11 Y 35 X -16 Y 36 X 11 Y 36 X -3 Y 36 X 26 Y 36 X 9 Y 36 X 7 Y 35 X -75 Y 36 X 37 Y 36
 X 5 Y 36 X -17 Y 36 X 14 Y 36 X -7 Y 35 X 1 Y 36 X 20 Y 36 X -23 Y 36 X -23 Y 36 X 20 Y 36 X 4 Y 35 X 11 Y 36 X -30 Y 36 X -49 Y 36 X 85 Y 36 X -38 Y 36 X 55 Y 35 X -13 Y 36 X 57 Y 36 X -46 Y 36 X 38 Y 36 X -80 Y 36 X -28 Y 35 X 72 Y 36 X -34 Y 36 X
 -5 Y 36 X 17 Y 36 X 76 Y 36 X -79 Y 35 X -60 Y 36 X -41 Y 36 X 91 Y 36 X 50 Y 36 X -9 Y 36 X 8 Y 35 X -38 Y f 6 lw black 0.2 0.8 0.2 c black 363 257 m 36 X 35 Y 35 X 11 Y 36 X -121 Y 36 X 86 Y 36 X -38 Y 36 X 15 Y 36 X 11 Y 35 X -16 Y 36 X 11 Y 36 X
 -3 Y 36 X 26 Y 36 X 9 Y 36 X 7 Y 35 X -75 Y 36 X 37 Y 36 X 5 Y 36 X -17 Y 36 X 14 Y 36 X -7 Y 35 X 1 Y 36 X 20 Y 36 X -23 Y 36 X -23 Y 36 X 20 Y 36 X 4 Y 35 X 11 Y 36 X -30 Y 36 X -49 Y 36 X 85 Y 36 X -38 Y 36 X 55 Y 35 X -13 Y 36 X 57 Y 36 X -46 Y
 36 X 38 Y 36 X -80 Y 36 X -28 Y 35 X 72 Y 36 X -34 Y 36 X -5 Y 36 X 17 Y 36 X 76 Y 36 X -79 Y 35 X -60 Y 36 X -41 Y 36 X 91 Y 36 X 50 Y 36 X -9 Y 36 X 8 Y 35 X s 3 lw 363 74 m 1791 X s 363 85 m -11 Y s 407 79 m -5 Y s 450 79 m -5 Y s 494 79 m -5 Y s
 538 85 m -11 Y s 581 79 m -5 Y s 625 79 m -5 Y s 669 79 m -5 Y s 712 85 m -11 Y s 756 79 m -5 Y s 800 79 m -5 Y s 843 79 m -5 Y s 887 85 m -11 Y s 931 79 m -5 Y s 975 79 m -5 Y s 1018 79 m -5 Y s 1062 85 m -11 Y s 1106 79 m -5 Y s 1149 79 m -5 Y s
 1193 79 m -5 Y s 1237 85 m -11 Y s 1280 79 m -5 Y s 1324 79 m -5 Y s 1368 79 m -5 Y s 1412 85 m -11 Y s 1455 79 m -5 Y s 1499 79 m -5 Y s 1543 79 m -5 Y s 1586 85 m -11 Y s 1630 79 m -5 Y s 1674 79 m -5 Y s 1717 79 m -5 Y s 1761 85 m -11 Y s 1805 79
 m -5 Y s 1848 79 m -5 Y s 1892 79 m -5 Y s 1936 85 m -11 Y s 1980 79 m -5 Y s 2023 79 m -5 Y s 2067 79 m -5 Y s 2111 85 m -11 Y s 2111 85 m -11 Y s 363 438 m 1791 X s 363 427 m 11 Y s 407 433 m 5 Y s 450 433 m 5 Y s 494 433 m 5 Y s 538 427 m 11 Y s
 581 433 m 5 Y s 625 433 m 5 Y s 669 433 m 5 Y s 712 427 m 11 Y s 756 433 m 5 Y s 800 433 m 5 Y s 843 433 m 5 Y s 887 427 m 11 Y s 931 433 m 5 Y s 975 433 m 5 Y s 1018 433 m 5 Y s 1062 427 m 11 Y s 1106 433 m 5 Y s 1149 433 m 5 Y s 1193 433 m 5 Y s
 1237 427 m 11 Y s 1280 433 m 5 Y s 1324 433 m 5 Y s 1368 433 m 5 Y s 1412 427 m 11 Y s 1455 433 m 5 Y s 1499 433 m 5 Y s 1543 433 m 5 Y s 1586 427 m 11 Y s 1630 433 m 5 Y s 1674 433 m 5 Y s 1717 433 m 5 Y s 1761 427 m 11 Y s 1805 433 m 5 Y s 1848
 433 m 5 Y s 1892 433 m 5 Y s 1936 427 m 11 Y s 1980 433 m 5 Y s 2023 433 m 5 Y s 2067 433 m 5 Y s 2111 427 m 11 Y s 2111 427 m 11 Y s 363 74 m 364 Y s 417 74 m -54 X s 390 81 m -27 X s 390 88 m -27 X s 390 96 m -27 X s 390 103 m -27 X s 417 110 m
 -54 X s 390 118 m -27 X s 390 125 m -27 X s 390 132 m -27 X s 390 139 m -27 X s 417 147 m -54 X s 390 154 m -27 X s 390 161 m -27 X s 390 169 m -27 X s 390 176 m -27 X s 417 183 m -54 X s 390 190 m -27 X s 390 198 m -27 X s 390 205 m -27 X s 390 212
 m -27 X s 417 220 m -54 X s 390 227 m -27 X s 390 234 m -27 X s 390 241 m -27 X s 390 249 m -27 X s 417 256 m -54 X s 390 263 m -27 X s 390 271 m -27 X s 390 278 m -27 X s 390 285 m -27 X s 417 293 m -54 X s 390 300 m -27 X s 390 307 m -27 X s 390
 314 m -27 X s 390 322 m -27 X s 417 329 m -54 X s 390 336 m -27 X s 390 344 m -27 X s 390 351 m -27 X s 390 358 m -27 X s 417 365 m -54 X s 390 373 m -27 X s 390 380 m -27 X s 390 387 m -27 X s 390 395 m -27 X s 417 402 m -54 X s 390 409 m -27 X s
 390 416 m -27 X s 390 424 m -27 X s 390 431 m -27 X s 417 438 m -54 X s 2154 74 m 364 Y s 2101 74 m 53 X s 2127 81 m 27 X s 2127 88 m 27 X s 2127 96 m 27 X s 2127 103 m 27 X s 2101 110 m 53 X s 2127 118 m 27 X s 2127 125 m 27 X s 2127 132 m 27 X s
 2127 139 m 27 X s 2101 147 m 53 X s 2127 154 m 27 X s 2127 161 m 27 X s 2127 169 m 27 X s 2127 176 m 27 X s 2101 183 m 53 X s 2127 190 m 27 X s 2127 198 m 27 X s 2127 205 m 27 X s 2127 212 m 27 X s 2101 220 m 53 X s 2127 227 m 27 X s 2127 234 m 27 X
 s 2127 241 m 27 X s 2127 249 m 27 X s 2101 256 m 53 X s 2127 263 m 27 X s 2127 271 m 27 X s 2127 278 m 27 X s 2127 285 m 27 X s 2101 293 m 53 X s 2127 300 m 27 X s 2127 307 m 27 X s 2127 314 m 27 X s 2127 322 m 27 X s 2101 329 m 53 X s 2127 336 m 27
 X s 2127 344 m 27 X s 2127 351 m 27 X s 2127 358 m 27 X s 2101 365 m 53 X s 2127 373 m 27 X s 2127 380 m 27 X s 2127 387 m 27 X s 2127 395 m 27 X s 2101 402 m 53 X s 2127 409 m 27 X s 2127 416 m 27 X s 2127 424 m 27 X s 2127 431 m 27 X s 2101 438 m
 53 X s
 gr  gr showpage
end
%%EOF
