%!PS-Adobe-2.0 EPSF-2.0
%%BoundingBox:  0 0 567 384
%%Title: H4l2015_plotfit/VBF_mass_signal_300_H4l_4mu.eps: 
%%Creator: ROOT Version 5.34/07
%%CreationDate: Mon Nov  9 16:29:35 2015
%%EndComments
%%BeginProlog
80 dict begin
/s {stroke} def /l {lineto} def /m {moveto} def /t {translate} def
/r {rotate} def /rl {roll}  def /R {repeat} def
/d {rlineto} def /rm {rmoveto} def /gr {grestore} def /f {eofill} def
/c {setrgbcolor} def /black {0 setgray} def /sd {setdash} def
/cl {closepath} def /sf {scalefont setfont} def /lw {setlinewidth} def
/box {m dup 0 exch d exch 0 d 0 exch neg d cl} def
/NC{systemdict begin initclip end}def/C{NC box clip newpath}def
/bl {box s} def /bf {box f} def /Y { 0 exch d} def /X { 0 d} def 
/K {{pop pop 0 moveto} exch kshow} bind def
/ita {/ang 15 def gsave [1 0 ang dup sin exch cos div 1 0 0] concat} def 
/mp {newpath /y exch def /x exch def} def
/side {[w .77 mul w .23 mul] .385 w mul sd w 0 l currentpoint t -144 r} def
/mr {mp x y w2 0 360 arc} def /m24 {mr s} def /m20 {mr f} def
/mb {mp x y w2 add m w2 neg 0 d 0 w neg d w 0 d 0 w d cl} def
/mt {mp x y w2 add m w2 neg w neg d w 0 d cl} def
/m21 {mb f} def /m25 {mb s} def /m22 {mt f} def /m26{mt s} def
/m23 {mp x y w2 sub m w2 w d w neg 0 d cl f} def
/m27 {mp x y w2 add m w3 neg w2 neg d w3 w2 neg d w3 w2 d cl s} def
/m28 {mp x w2 sub y w2 sub w3 add m w3 0 d  0 w3 neg d w3 0 d 0 w3 d w3 0 d  0 w3 d w3 neg 0 d 0 w3 d w3 neg 0 d 0 w3 neg d w3 neg 0 d cl s } def
/m29 {mp gsave x w2 sub y w2 add w3 sub m currentpoint t 4 {side} repeat cl fill gr} def
/m30 {mp gsave x w2 sub y w2 add w3 sub m currentpoint t 4 {side} repeat cl s gr} def
/m31 {mp x y w2 sub m 0 w d x w2 sub y m w 0 d x w2 sub y w2 add m w w neg d x w2 sub y w2 sub m w w d s} def
/m32 {mp x y w2 sub m w2 w d w neg 0 d cl s} def
/m33 {mp x y w2 add m w3 neg w2 neg d w3 w2 neg d w3 w2 d cl f} def
/m34 {mp x w2 sub y w2 sub w3 add m w3 0 d  0 w3 neg d w3 0 d 0 w3 d w3 0 d  0 w3 d w3 neg 0 d 0 w3 d w3 neg 0 d 0 w3 neg d w3 neg 0 d cl f } def
/m2 {mp x y w2 sub m 0 w d x w2 sub y m w 0 d s} def
/m5 {mp x w2 sub y w2 sub m w w d x w2 sub y w2 add m w w neg d s} def
/reEncode {exch findfont dup length dict begin {1 index /FID eq  {pop pop} {def} ifelse } forall /Encoding exch def currentdict end dup /FontName get exch definefont pop } def [/Times-Bold /Times-Italic /Times-BoldItalic /Helvetica /Helvetica-Oblique
 /Helvetica-Bold /Helvetica-BoldOblique /Courier /Courier-Oblique /Courier-Bold /Courier-BoldOblique /Times-Roman /AvantGarde-Book /AvantGarde-BookOblique /AvantGarde-Demi /AvantGarde-DemiOblique /Bookman-Demi /Bookman-DemiItalic /Bookman-Light
 /Bookman-LightItalic /Helvetica-Narrow /Helvetica-Narrow-Bold /Helvetica-Narrow-BoldOblique /Helvetica-Narrow-Oblique /NewCenturySchlbk-Roman /NewCenturySchlbk-Bold /NewCenturySchlbk-BoldItalic /NewCenturySchlbk-Italic /Palatino-Bold
 /Palatino-BoldItalic /Palatino-Italic /Palatino-Roman ] {ISOLatin1Encoding reEncode } forall
%%EndProlog
%%BeginSetup
%%EndSetup
newpath  gsave  .25 .25 scale  gsave  0 0 t black[  ] 0 sd 3 lw 1 1 1 c 2268 1538 0 0 bf black 1 1 1 c 2222 738 23 784 bf black 1 1 1 c 2222 739 23 15 bf black 1 1 1 c 2268 1077 0 461 bf black 1 1 1 c 1791 850 363 634 bf black 1791 850 363 634 bl 363
 634 m 1791 X s
 gsave  2268 1077 0 461 C 1642.14 498.507 t 0 r /Helvetica findfont 48.9324 sf 0 0 m (4l Invariant Mass \(GeV\)) show NC gr  512 659 m -25 Y s 587 646 m -12 Y s 661 646 m -12 Y s 736 646 m -12 Y s 811 659 m -25 Y s 885 646 m -12 Y s 960 646 m -12 Y s
 1035 646 m -12 Y s 1109 659 m -25 Y s 1184 646 m -12 Y s 1259 646 m -12 Y s 1333 646 m -12 Y s 1408 659 m -25 Y s 1483 646 m -12 Y s 1557 646 m -12 Y s 1632 646 m -12 Y s 1706 659 m -25 Y s 1781 646 m -12 Y s 1856 646 m -12 Y s 1930 646 m -12 Y s
 2005 659 m -25 Y s 512 659 m -25 Y s 437 646 m -12 Y s 363 646 m -12 Y s 2005 659 m -25 Y s 2080 646 m -12 Y s 2154 646 m -12 Y s
 gsave  2268 1077 0 461 C 469.183 586.478 t 0 r /Helvetica findfont 48.9324 sf 0 0 m (220) show NC gr 
 gsave  2268 1077 0 461 C 765.68 586.478 t 0 r /Helvetica findfont 48.9324 sf 0 0 m (240) show NC gr 
 gsave  2268 1077 0 461 C 1065.44 586.478 t 0 r /Helvetica findfont 48.9324 sf 0 0 m (260) show NC gr 
 gsave  2268 1077 0 461 C 1365.19 586.478 t 0 r /Helvetica findfont 48.9324 sf 0 0 m (280) show NC gr 
 gsave  2268 1077 0 461 C 1661.69 586.478 t 0 r /Helvetica findfont 48.9324 sf 0 0 m (300) show NC gr 
 gsave  2268 1077 0 461 C 1961.44 586.478 t 0 r /Helvetica findfont 48.9324 sf 0 0 m (320) show NC gr  363 1484 m 1791 X s 512 1459 m 25 Y s 587 1471 m 13 Y s 661 1471 m 13 Y s 736 1471 m 13 Y s 811 1459 m 25 Y s 885 1471 m 13 Y s 960 1471 m 13 Y s
 1035 1471 m 13 Y s 1109 1459 m 25 Y s 1184 1471 m 13 Y s 1259 1471 m 13 Y s 1333 1471 m 13 Y s 1408 1459 m 25 Y s 1483 1471 m 13 Y s 1557 1471 m 13 Y s 1632 1471 m 13 Y s 1706 1459 m 25 Y s 1781 1471 m 13 Y s 1856 1471 m 13 Y s 1930 1471 m 13 Y s
 2005 1459 m 25 Y s 512 1459 m 25 Y s 437 1471 m 13 Y s 363 1471 m 13 Y s 2005 1459 m 25 Y s 2080 1471 m 13 Y s 2154 1471 m 13 Y s 363 634 m 850 Y s
 gsave  2268 1077 0 461 C 120.554 1058.92 t 90 r /Helvetica findfont 48.9324 sf 0 0 m (Events / \( 2.4 GeV \)) show NC gr  417 634 m -54 X s
 gsave  2268 1077 0 461 C 312.788 632.093 t 0 r /Helvetica findfont 32.6216 sf 0 0 m (\2552) show NC gr 
 gsave  2268 1077 0 461 C 260.657 612.544 t 0 r /Helvetica findfont 48.9324 sf 0 0 m (10) show NC gr  390 683 m -27 X s 390 712 m -27 X s 390 732 m -27 X s 390 748 m -27 X s 390 761 m -27 X s 390 772 m -27 X s 390 781 m -27 X s 390 790 m -27 X s 417
 797 m -54 X s
 gsave  2268 1077 0 461 C 319.305 795.004 t 0 r /Helvetica findfont 32.6216 sf 0 0 m (\2551) show NC gr 
 gsave  2268 1077 0 461 C 267.173 775.455 t 0 r /Helvetica findfont 48.9324 sf 0 0 m (10) show NC gr  390 846 m -27 X s 390 875 m -27 X s 390 895 m -27 X s 390 911 m -27 X s 390 924 m -27 X s 390 935 m -27 X s 390 945 m -27 X s 390 953 m -27 X s 417
 961 m -54 X s
 gsave  2268 1077 0 461 C 342.425 939.696 t 0 r  -27 0 t /Helvetica findfont 48.9324 sf 0 0 m (1) show NC gr  390 1010 m -27 X s 390 1039 m -27 X s 390 1059 m -27 X s 390 1075 m -27 X s 390 1088 m -27 X s 390 1099 m -27 X s 390 1108 m -27 X s 390
 1117 m -27 X s 417 1124 m -54 X s
 gsave  2268 1077 0 461 C 342.425 1103.17 t 0 r  -55 0 t /Helvetica findfont 48.9324 sf 0 0 m (10) show NC gr  390 1173 m -27 X s 390 1202 m -27 X s 390 1222 m -27 X s 390 1238 m -27 X s 390 1251 m -27 X s 390 1262 m -27 X s 390 1272 m -27 X s 390
 1280 m -27 X s 417 1287 m -54 X s
 gsave  2268 1077 0 461 C 322.563 1286.99 t 0 r /Helvetica findfont 32.6216 sf 0 0 m (2) show NC gr 
 gsave  2268 1077 0 461 C 270.432 1267.44 t 0 r /Helvetica findfont 48.9324 sf 0 0 m (10) show NC gr  390 1337 m -27 X s 390 1365 m -27 X s 390 1386 m -27 X s 390 1402 m -27 X s 390 1415 m -27 X s 390 1426 m -27 X s 390 1435 m -27 X s 390 1443 m -27
 X s 417 1451 m -54 X s
 gsave  2268 1077 0 461 C 322.563 1453.16 t 0 r /Helvetica findfont 32.6216 sf 0 0 m (3) show NC gr 
 gsave  2268 1077 0 461 C 270.432 1430.36 t 0 r /Helvetica findfont 48.9324 sf 0 0 m (10) show NC gr  2154 634 m 850 Y s 2101 634 m 53 X s 2127 683 m 27 X s 2127 712 m 27 X s 2127 732 m 27 X s 2127 748 m 27 X s 2127 761 m 27 X s 2127 772 m 27 X s
 2127 781 m 27 X s 2127 790 m 27 X s 2101 797 m 53 X s 2127 846 m 27 X s 2127 875 m 27 X s 2127 895 m 27 X s 2127 911 m 27 X s 2127 924 m 27 X s 2127 935 m 27 X s 2127 945 m 27 X s 2127 953 m 27 X s 2101 961 m 53 X s 2127 1010 m 27 X s 2127 1039 m 27
 X s 2127 1059 m 27 X s 2127 1075 m 27 X s 2127 1088 m 27 X s 2127 1099 m 27 X s 2127 1108 m 27 X s 2127 1117 m 27 X s 2101 1124 m 53 X s 2127 1173 m 27 X s 2127 1202 m 27 X s 2127 1222 m 27 X s 2127 1238 m 27 X s 2127 1251 m 27 X s 2127 1262 m 27 X
 s 2127 1272 m 27 X s 2127 1280 m 27 X s 2101 1287 m 53 X s 2127 1337 m 27 X s 2127 1365 m 27 X s 2127 1386 m 27 X s 2127 1402 m 27 X s 2127 1415 m 27 X s 2127 1426 m 27 X s 2127 1435 m 27 X s 2127 1443 m 27 X s 2101 1451 m 53 X s 381 1039 m -18 X s
 363 1039 m cl s 381 1039 m 18 X s 399 1039 m cl s 381 1039 m 48 Y s 381 1087 m cl s 381 1039 m -56 Y s 381 983 m cl s 417 1010 m -18 X s 399 1010 m cl s 417 1010 m 17 X s 434 1010 m cl s 417 1010 m 59 Y s 417 1069 m cl s 417 1010 m -74 Y s 417 936 m
 cl s 452 1075 m -18 X s 434 1075 m cl s 452 1075 m 18 X s 470 1075 m cl s 452 1075 m 36 Y s 452 1111 m cl s 452 1075 m -40 Y s 452 1035 m cl s 488 1010 m -18 X s 470 1010 m cl s 488 1010 m 18 X s 506 1010 m cl s 488 1010 m 59 Y s 488 1069 m cl s 488
 1010 m -74 Y s 488 936 m cl s 524 1059 m -18 X s 506 1059 m cl s 524 1059 m 18 X s 542 1059 m cl s 524 1059 m 41 Y s 524 1100 m cl s 524 1059 m -46 Y s 524 1013 m cl s 560 1059 m -18 X s 542 1059 m cl s 560 1059 m 18 X s 578 1059 m cl s 560 1059 m
 41 Y s 560 1100 m cl s 560 1059 m -46 Y s 560 1013 m cl s 596 1039 m -18 X s 578 1039 m cl s 596 1039 m 18 X s 614 1039 m cl s 596 1039 m 48 Y s 596 1087 m cl s 596 1039 m -56 Y s 596 983 m cl s 632 1059 m -18 X s 614 1059 m cl s 632 1059 m 17 X s
 649 1059 m cl s 632 1059 m 41 Y s 632 1100 m cl s 632 1059 m -46 Y s 632 1013 m cl s 667 1059 m -18 X s 649 1059 m cl s 667 1059 m 18 X s 685 1059 m cl s 667 1059 m 41 Y s 667 1100 m cl s 667 1059 m -46 Y s 667 1013 m cl s 703 1075 m -18 X s 685
 1075 m cl s 703 1075 m 18 X s 721 1075 m cl s 703 1075 m 36 Y s 703 1111 m cl s 703 1075 m -40 Y s 703 1035 m cl s 739 1117 m -18 X s 721 1117 m cl s 739 1117 m 18 X s 757 1117 m cl s 739 1117 m 26 Y s 739 1143 m cl s 739 1117 m -29 Y s 739 1088 m
 cl s 775 1117 m -18 X s 757 1117 m cl s 775 1117 m 18 X s 793 1117 m cl s 775 1117 m 26 Y s 775 1143 m cl s 775 1117 m -29 Y s 775 1088 m cl s 811 1075 m -18 X s 793 1075 m cl s 811 1075 m 18 X s 829 1075 m cl s 811 1075 m 36 Y s 811 1111 m cl s 811
 1075 m -40 Y s 811 1035 m cl s 847 1088 m -18 X s 829 1088 m cl s 847 1088 m 17 X s 864 1088 m cl s 847 1088 m 33 Y s 847 1121 m cl s 847 1088 m -36 Y s 847 1052 m cl s 882 1117 m -18 X s 864 1117 m cl s 882 1117 m 18 X s 900 1117 m cl s 882 1117 m
 26 Y s 882 1143 m cl s 882 1117 m -29 Y s 882 1088 m cl s 918 1039 m -18 X s 900 1039 m cl s 918 1039 m 18 X s 936 1039 m cl s 918 1039 m 48 Y s 918 1087 m cl s 918 1039 m -56 Y s 918 983 m cl s 954 1148 m -18 X s 936 1148 m cl s 954 1148 m 18 X s
 972 1148 m cl s 954 1148 m 21 Y s 954 1169 m cl s 954 1148 m -22 Y s 954 1126 m cl s 990 1148 m -18 X s 972 1148 m cl s 990 1148 m 18 X s 1008 1148 m cl s 990 1148 m 21 Y s 990 1169 m cl s 990 1148 m -22 Y s 990 1126 m cl s 1026 1143 m -18 X s 1008
 1143 m cl s 1026 1143 m 18 X s 1044 1143 m cl s 1026 1143 m 22 Y s 1026 1165 m cl s 1026 1143 m -23 Y s 1026 1120 m cl s 1062 1177 m -18 X s 1044 1177 m cl s 1062 1177 m 17 X s 1079 1177 m cl s 1062 1177 m 17 Y s 1062 1194 m cl s 1062 1177 m -18 Y s
 1062 1159 m cl s 1097 1180 m -18 X s 1079 1180 m cl s 1097 1180 m 18 X s 1115 1180 m cl s 1097 1180 m 17 Y s 1097 1197 m cl s 1097 1180 m -17 Y s 1097 1163 m cl s 1133 1166 m -18 X s 1115 1166 m cl s 1133 1166 m 18 X s 1151 1166 m cl s 1133 1166 m
 18 Y s 1133 1184 m cl s 1133 1166 m -19 Y s 1133 1147 m cl s 1169 1186 m -18 X s 1151 1186 m cl s 1169 1186 m 18 X s 1187 1186 m cl s 1169 1186 m 16 Y s 1169 1202 m cl s 1169 1186 m -16 Y s 1169 1170 m cl s 1205 1209 m -18 X s 1187 1209 m cl s 1205
 1209 m 18 X s 1223 1209 m cl s 1205 1209 m 13 Y s 1205 1222 m cl s 1205 1209 m -14 Y s 1205 1195 m cl s 1241 1192 m -18 X s 1223 1192 m cl s 1241 1192 m 18 X s 1259 1192 m cl s 1241 1192 m 15 Y s 1241 1207 m cl s 1241 1192 m -16 Y s 1241 1176 m cl s
 1276 1195 m -17 X s 1259 1195 m cl s 1276 1195 m 18 X s 1294 1195 m cl s 1276 1195 m 14 Y s 1276 1209 m cl s 1276 1195 m -16 Y s 1276 1179 m cl s 1312 1234 m -18 X s 1294 1234 m cl s 1312 1234 m 18 X s 1330 1234 m cl s 1312 1234 m 11 Y s 1312 1245 m
 cl s 1312 1234 m -11 Y s 1312 1223 m cl s 1348 1229 m -18 X s 1330 1229 m cl s 1348 1229 m 18 X s 1366 1229 m cl s 1348 1229 m 12 Y s 1348 1241 m cl s 1348 1229 m -11 Y s 1348 1218 m cl s 1384 1259 m -18 X s 1366 1259 m cl s 1384 1259 m 18 X s 1402
 1259 m cl s 1384 1259 m 9 Y s 1384 1268 m cl s 1384 1259 m -9 Y s 1384 1250 m cl s 1420 1271 m -18 X s 1402 1271 m cl s 1420 1271 m 18 X s 1438 1271 m cl s 1420 1271 m 8 Y s 1420 1279 m cl s 1420 1271 m -9 Y s 1420 1262 m cl s 1456 1288 m -18 X s
 1438 1288 m cl s 1456 1288 m 18 X s 1474 1288 m cl s 1456 1288 m 7 Y s 1456 1295 m cl s 1456 1288 m -7 Y s 1456 1281 m cl s 1491 1325 m -17 X s 1474 1325 m cl s 1491 1325 m 18 X s 1509 1325 m cl s 1491 1325 m 6 Y s 1491 1331 m cl s 1491 1325 m -5 Y
 s 1491 1320 m cl s 1527 1353 m -18 X s 1509 1353 m cl s 1527 1353 m 18 X s 1545 1353 m cl s 1527 1353 m 5 Y s 1527 1358 m cl s 1527 1353 m -4 Y s 1527 1349 m cl s 1563 1383 m -18 X s 1545 1383 m cl s 1563 1383 m 18 X s 1581 1383 m cl s 1563 1383 m 4
 Y s 1563 1387 m cl s 1563 1383 m -3 Y s 1563 1380 m cl s 1599 1407 m -18 X s 1581 1407 m cl s 1599 1407 m 18 X s 1617 1407 m cl s 1599 1407 m 3 Y s 1599 1410 m cl s 1599 1407 m -3 Y s 1599 1404 m cl s 1635 1435 m -18 X s 1617 1435 m cl s 1635 1435 m
 18 X s 1653 1435 m cl s 1635 1435 m 3 Y s 1635 1438 m cl s 1635 1435 m -2 Y s 1635 1433 m cl s 1671 1449 m -18 X s 1653 1449 m cl s 1671 1449 m 18 X s 1689 1449 m cl s 1671 1449 m 3 Y s 1671 1452 m cl s 1671 1449 m -2 Y s 1671 1447 m cl s 1706 1448
 m -17 X s 1689 1448 m cl s 1706 1448 m 18 X s 1724 1448 m cl s 1706 1448 m 3 Y s 1706 1451 m cl s 1706 1448 m -2 Y s 1706 1446 m cl s 1742 1432 m -18 X s 1724 1432 m cl s 1742 1432 m 18 X s 1760 1432 m cl s 1742 1432 m 3 Y s 1742 1435 m cl s 1742
 1432 m -3 Y s 1742 1429 m cl s 1778 1412 m -18 X s 1760 1412 m cl s 1778 1412 m 18 X s 1796 1412 m cl s 1778 1412 m 3 Y s 1778 1415 m cl s 1778 1412 m -3 Y s 1778 1409 m cl s 1814 1370 m -18 X s 1796 1370 m cl s 1814 1370 m 18 X s 1832 1370 m cl s
 1814 1370 m 4 Y s 1814 1374 m cl s 1814 1370 m -4 Y s 1814 1366 m cl s 1850 1330 m -18 X s 1832 1330 m cl s 1850 1330 m 18 X s 1868 1330 m cl s 1850 1330 m 5 Y s 1850 1335 m cl s 1850 1330 m -6 Y s 1850 1324 m cl s 1886 1260 m -18 X s 1868 1260 m cl
 s 1886 1260 m 18 X s 1904 1260 m cl s 1886 1260 m 9 Y s 1886 1269 m cl s 1886 1260 m -9 Y s 1886 1251 m cl s 1921 1211 m -17 X s 1904 1211 m cl s 1921 1211 m 18 X s 1939 1211 m cl s 1921 1211 m 13 Y s 1921 1224 m cl s 1921 1211 m -13 Y s 1921 1198 m
 cl s 1957 1202 m -18 X s 1939 1202 m cl s 1957 1202 m 18 X s 1975 1202 m cl s 1957 1202 m 14 Y s 1957 1216 m cl s 1957 1202 m -14 Y s 1957 1188 m cl s 1993 1108 m -18 X s 1975 1108 m cl s 1993 1108 m 18 X s 2011 1108 m cl s 1993 1108 m 29 Y s 1993
 1137 m cl s 1993 1108 m -30 Y s 1993 1078 m cl s 2029 1039 m -18 X s 2011 1039 m cl s 2029 1039 m 18 X s 2047 1039 m cl s 2029 1039 m 48 Y s 2029 1087 m cl s 2029 1039 m -56 Y s 2029 983 m cl s 2065 1059 m -18 X s 2047 1059 m cl s 2065 1059 m 18 X s
 2083 1059 m cl s 2065 1059 m 41 Y s 2065 1100 m cl s 2065 1059 m -46 Y s 2065 1013 m cl s 2101 1010 m -18 X s 2083 1010 m cl s 2101 1010 m 18 X s 2119 1010 m cl s 2101 1010 m 59 Y s 2101 1069 m cl s 2101 1010 m -74 Y s 2101 936 m cl s 2136 1010 m
 -17 X s 2119 1010 m cl s 2136 1010 m 18 X s 2154 1010 m cl s 2136 1010 m 59 Y s 2136 1069 m cl s 2136 1010 m -74 Y s 2136 936 m cl s /w 31 def /w2 {w 2 div} def /w3 {w 3 div} def 381 1039 417 1010 452 1075 488 1010 524 1059 560 1059 596 1039 632
 1059 667 1059 703 1075 739 1117 775 1117 811 1075 847 1088 882 1117 918 1039 954 1148 990 1148 1026 1143 1062 1177 1097 1180 1133 1166 1169 1186 1205 1209 1241 1192 1276 1195 1312 1234 1348 1229 1384 1259 1420 1271 1456 1288 1491 1325 1527 1353 1563
 1383 1599 1407 1635 1435 1671 1449 1706 1448 1742 1432 1778 1412 1814 1370 1850 1330 1886 1260 1921 1211 1957 1202 1993 1108 2029 1039 2065 1059 2101 1010 2136 1010 50 { m20} R 0 1 1 c 1 1 0 c black 1 1 0 c 363 1018 m 36 7 d 35 7 d 36 7 d 36 8 d 36
 7 d 36 7 d 36 8 d 35 7 d 36 8 d 36 8 d 36 7 d 36 8 d 36 8 d 35 8 d 36 8 d 36 9 d 36 8 d 36 8 d 36 9 d 35 9 d 36 9 d 36 9 d 36 10 d 36 10 d 36 10 d 35 10 d 36 11 d 36 11 d 36 12 d 18 7 d 18 8 d 18 9 d 18 12 d 9 7 d 8 7 d 9 8 d 9 9 d 9 9 d 9 9 d 9 9 d
 9 9 d 9 9 d 9 9 d 9 8 d 9 8 d 9 7 d 9 7 d 18 12 d 9 6 d 9 4 d 9 4 d 4 2 d 5 1 d 4 1 d 5 1 d 4 1 d 5 1 d 4 X 5 1 d 13 X 4 -1 d 5 -1 d 4 X 5 -2 d 4 -1 d 5 -1 d 4 -2 d 9 -4 d 9 -4 d 9 -5 d 9 -6 d 18 -14 d 9 -8 d 9 -8 d 9 -9 d 9 -10 d 9 -10 d 9 -10 d 9
 -11 d 9 -12 d 9 -11 d 9 -12 d 9 -13 d 9 -12 d 9 -12 d 9 -12 d 17 -24 d 18 -24 d 18 -23 d 18 -23 d 36 -48 d 36 -51 d 36 -56 d 36 -61 d 35 -67 d -164 Y -35 116 d -36 91 d -36 77 d -36 68 d -36 62 d -18 29 d -18 29 d -18 28 d -17 27 d -9 13 d -9 13 d
 -9 13 d -9 13 d -9 12 d -9 12 d -9 12 d -9 12 d -9 11 d -9 11 d -9 10 d -9 10 d -9 9 d -9 8 d -18 14 d -9 7 d -9 5 d -9 5 d -9 3 d -4 2 d -5 1 d -4 2 d -5 1 d -4 1 d -5 X -4 1 d -18 X -4 -1 d -5 X -4 -1 d -5 -1 d -4 -2 d -5 -1 d -4 -2 d -9 -4 d -9
 -4 d -9 -6 d -18 -13 d -9 -8 d -9 -8 d -9 -8 d -9 -9 d -9 -10 d -9 -9 d -9 -9 d -9 -10 d -9 -9 d -9 -9 d -9 -8 d -9 -8 d -8 -8 d -9 -7 d -18 -14 d -18 -10 d -18 -10 d -18 -7 d -36 -12 d -36 -10 d -36 -10 d -35 -9 d -36 -10 d -36 -10 d -36 -10 d -36
 -10 d -36 -10 d -35 -10 d -36 -10 d -36 -9 d -36 -10 d -36 -10 d -36 -9 d -35 -10 d -36 -9 d -36 -9 d -36 -10 d -36 -9 d -36 -9 d -35 -9 d -36 -8 d -36 -9 d -36 -9 d -36 -8 d -36 -9 d -35 -8 d -36 -8 d f 0 1 1 c 0 1 0 c black 0 1 0 c 363 1010 m 36 7
 d 35 7 d 36 8 d 36 7 d 36 8 d 36 7 d 36 8 d 35 8 d 36 8 d 36 8 d 36 8 d 36 8 d 36 8 d 35 8 d 36 9 d 36 8 d 36 9 d 36 9 d 36 9 d 35 9 d 36 9 d 36 9 d 36 10 d 36 10 d 36 10 d 35 10 d 36 11 d 36 11 d 36 12 d 18 7 d 18 8 d 18 9 d 18 12 d 9 7 d 8 8 d 9 8
 d 9 8 d 9 9 d 9 9 d 9 10 d 9 9 d 9 9 d 9 9 d 9 8 d 9 8 d 9 8 d 9 7 d 18 12 d 9 6 d 9 4 d 9 4 d 4 2 d 5 1 d 4 1 d 5 1 d 4 1 d 5 1 d 4 1 d 18 X 4 -1 d 5 -1 d 4 X 5 -1 d 4 -2 d 5 -1 d 4 -2 d 9 -4 d 9 -4 d 9 -5 d 9 -6 d 18 -14 d 9 -8 d 9 -9 d 9 -9 d 9
 -10 d 9 -10 d 9 -10 d 9 -12 d 9 -11 d 9 -12 d 9 -12 d 9 -12 d 9 -13 d 9 -12 d 9 -12 d 17 -25 d 18 -24 d 18 -25 d 18 -24 d 36 -50 d 36 -54 d 36 -58 d 36 -63 d 35 -69 d -60 Y -35 80 d -36 73 d -36 67 d -36 61 d -36 56 d -18 28 d -18 27 d -18 26 d -17
 27 d -9 13 d -9 13 d -9 12 d -9 13 d -9 12 d -9 12 d -9 12 d -9 11 d -9 11 d -9 11 d -9 10 d -9 9 d -9 9 d -9 8 d -18 15 d -9 6 d -9 5 d -9 5 d -9 3 d -4 2 d -5 1 d -4 2 d -5 1 d -4 1 d -5 X -4 1 d -18 X -4 -1 d -5 X -4 -1 d -5 -1 d -4 -2 d -5 -1 d
 -4 -2 d -9 -4 d -9 -4 d -9 -6 d -18 -13 d -9 -7 d -9 -8 d -9 -8 d -9 -9 d -9 -9 d -9 -10 d -9 -9 d -9 -9 d -9 -9 d -9 -9 d -9 -9 d -9 -8 d -8 -8 d -9 -7 d -18 -12 d -18 -11 d -18 -9 d -18 -7 d -36 -12 d -36 -10 d -36 -10 d -35 -10 d -36 -10 d -36
 -10 d -36 -10 d -36 -9 d -36 -10 d -35 -10 d -36 -9 d -36 -10 d -36 -9 d -36 -9 d -36 -9 d -35 -9 d -36 -9 d -36 -9 d -36 -9 d -36 -8 d -36 -9 d -35 -8 d -36 -9 d -36 -8 d -36 -8 d -36 -8 d -36 -8 d -35 -8 d -36 -8 d f 0 0 1 c 9 lw black 0 0 1 c 363
 1001 m 36 7 d 35 8 d 36 7 d 36 8 d 36 8 d 36 8 d 36 8 d 35 8 d 36 8 d 36 8 d 36 9 d 36 8 d 36 9 d 35 8 d 36 9 d 36 9 d 36 9 d 36 9 d 36 9 d 35 9 d 36 10 d 36 9 d 36 10 d 36 10 d 36 10 d 35 10 d 36 10 d 36 11 d 36 12 d 18 7 d 18 8 d 18 11 d 18 12 d 9
 7 d 8 7 d 9 9 d 9 8 d 9 9 d 9 9 d 9 9 d 9 10 d 9 9 d 9 9 d 9 8 d 9 9 d 9 7 d 9 8 d 18 12 d 9 6 d 9 4 d 9 4 d 4 2 d 5 1 d 4 2 d 5 1 d 4 X 5 1 d 4 1 d 18 X 4 -1 d 5 X 4 -1 d 5 -1 d 4 -2 d 5 -1 d 4 -2 d 9 -4 d 9 -4 d 9 -5 d 9 -6 d 18 -15 d 9 -8 d 9 -8
 d 9 -10 d 9 -9 d 9 -11 d 9 -11 d 9 -11 d 9 -11 d 9 -12 d 9 -13 d 9 -12 d 9 -12 d 9 -13 d 9 -13 d 17 -25 d 18 -26 d 18 -25 d 18 -26 d 36 -53 d 36 -56 d 36 -62 d 36 -67 d 35 -72 d s black 3 lw 381 1039 m -18 X s 363 1039 m cl s 381 1039 m 18 X s 399
 1039 m cl s 381 1039 m 48 Y s 381 1087 m cl s 381 1039 m -56 Y s 381 983 m cl s 417 1010 m -18 X s 399 1010 m cl s 417 1010 m 17 X s 434 1010 m cl s 417 1010 m 59 Y s 417 1069 m cl s 417 1010 m -74 Y s 417 936 m cl s 452 1075 m -18 X s 434 1075 m cl
 s 452 1075 m 18 X s 470 1075 m cl s 452 1075 m 36 Y s 452 1111 m cl s 452 1075 m -40 Y s 452 1035 m cl s 488 1010 m -18 X s 470 1010 m cl s 488 1010 m 18 X s 506 1010 m cl s 488 1010 m 59 Y s 488 1069 m cl s 488 1010 m -74 Y s 488 936 m cl s 524
 1059 m -18 X s 506 1059 m cl s 524 1059 m 18 X s 542 1059 m cl s 524 1059 m 41 Y s 524 1100 m cl s 524 1059 m -46 Y s 524 1013 m cl s 560 1059 m -18 X s 542 1059 m cl s 560 1059 m 18 X s 578 1059 m cl s 560 1059 m 41 Y s 560 1100 m cl s 560 1059 m
 -46 Y s 560 1013 m cl s 596 1039 m -18 X s 578 1039 m cl s 596 1039 m 18 X s 614 1039 m cl s 596 1039 m 48 Y s 596 1087 m cl s 596 1039 m -56 Y s 596 983 m cl s 632 1059 m -18 X s 614 1059 m cl s 632 1059 m 17 X s 649 1059 m cl s 632 1059 m 41 Y s
 632 1100 m cl s 632 1059 m -46 Y s 632 1013 m cl s 667 1059 m -18 X s 649 1059 m cl s 667 1059 m 18 X s 685 1059 m cl s 667 1059 m 41 Y s 667 1100 m cl s 667 1059 m -46 Y s 667 1013 m cl s 703 1075 m -18 X s 685 1075 m cl s 703 1075 m 18 X s 721
 1075 m cl s 703 1075 m 36 Y s 703 1111 m cl s 703 1075 m -40 Y s 703 1035 m cl s 739 1117 m -18 X s 721 1117 m cl s 739 1117 m 18 X s 757 1117 m cl s 739 1117 m 26 Y s 739 1143 m cl s 739 1117 m -29 Y s 739 1088 m cl s 775 1117 m -18 X s 757 1117 m
 cl s 775 1117 m 18 X s 793 1117 m cl s 775 1117 m 26 Y s 775 1143 m cl s 775 1117 m -29 Y s 775 1088 m cl s 811 1075 m -18 X s 793 1075 m cl s 811 1075 m 18 X s 829 1075 m cl s 811 1075 m 36 Y s 811 1111 m cl s 811 1075 m -40 Y s 811 1035 m cl s 847
 1088 m -18 X s 829 1088 m cl s 847 1088 m 17 X s 864 1088 m cl s 847 1088 m 33 Y s 847 1121 m cl s 847 1088 m -36 Y s 847 1052 m cl s 882 1117 m -18 X s 864 1117 m cl s 882 1117 m 18 X s 900 1117 m cl s 882 1117 m 26 Y s 882 1143 m cl s 882 1117 m
 -29 Y s 882 1088 m cl s 918 1039 m -18 X s 900 1039 m cl s 918 1039 m 18 X s 936 1039 m cl s 918 1039 m 48 Y s 918 1087 m cl s 918 1039 m -56 Y s 918 983 m cl s 954 1148 m -18 X s 936 1148 m cl s 954 1148 m 18 X s 972 1148 m cl s 954 1148 m 21 Y s
 954 1169 m cl s 954 1148 m -22 Y s 954 1126 m cl s 990 1148 m -18 X s 972 1148 m cl s 990 1148 m 18 X s 1008 1148 m cl s 990 1148 m 21 Y s 990 1169 m cl s 990 1148 m -22 Y s 990 1126 m cl s 1026 1143 m -18 X s 1008 1143 m cl s 1026 1143 m 18 X s
 1044 1143 m cl s 1026 1143 m 22 Y s 1026 1165 m cl s 1026 1143 m -23 Y s 1026 1120 m cl s 1062 1177 m -18 X s 1044 1177 m cl s 1062 1177 m 17 X s 1079 1177 m cl s 1062 1177 m 17 Y s 1062 1194 m cl s 1062 1177 m -18 Y s 1062 1159 m cl s 1097 1180 m
 -18 X s 1079 1180 m cl s 1097 1180 m 18 X s 1115 1180 m cl s 1097 1180 m 17 Y s 1097 1197 m cl s 1097 1180 m -17 Y s 1097 1163 m cl s 1133 1166 m -18 X s 1115 1166 m cl s 1133 1166 m 18 X s 1151 1166 m cl s 1133 1166 m 18 Y s 1133 1184 m cl s 1133
 1166 m -19 Y s 1133 1147 m cl s 1169 1186 m -18 X s 1151 1186 m cl s 1169 1186 m 18 X s 1187 1186 m cl s 1169 1186 m 16 Y s 1169 1202 m cl s 1169 1186 m -16 Y s 1169 1170 m cl s 1205 1209 m -18 X s 1187 1209 m cl s 1205 1209 m 18 X s 1223 1209 m cl
 s 1205 1209 m 13 Y s 1205 1222 m cl s 1205 1209 m -14 Y s 1205 1195 m cl s 1241 1192 m -18 X s 1223 1192 m cl s 1241 1192 m 18 X s 1259 1192 m cl s 1241 1192 m 15 Y s 1241 1207 m cl s 1241 1192 m -16 Y s 1241 1176 m cl s 1276 1195 m -17 X s 1259
 1195 m cl s 1276 1195 m 18 X s 1294 1195 m cl s 1276 1195 m 14 Y s 1276 1209 m cl s 1276 1195 m -16 Y s 1276 1179 m cl s 1312 1234 m -18 X s 1294 1234 m cl s 1312 1234 m 18 X s 1330 1234 m cl s 1312 1234 m 11 Y s 1312 1245 m cl s 1312 1234 m -11 Y s
 1312 1223 m cl s 1348 1229 m -18 X s 1330 1229 m cl s 1348 1229 m 18 X s 1366 1229 m cl s 1348 1229 m 12 Y s 1348 1241 m cl s 1348 1229 m -11 Y s 1348 1218 m cl s 1384 1259 m -18 X s 1366 1259 m cl s 1384 1259 m 18 X s 1402 1259 m cl s 1384 1259 m 9
 Y s 1384 1268 m cl s 1384 1259 m -9 Y s 1384 1250 m cl s 1420 1271 m -18 X s 1402 1271 m cl s 1420 1271 m 18 X s 1438 1271 m cl s 1420 1271 m 8 Y s 1420 1279 m cl s 1420 1271 m -9 Y s 1420 1262 m cl s 1456 1288 m -18 X s 1438 1288 m cl s 1456 1288 m
 18 X s 1474 1288 m cl s 1456 1288 m 7 Y s 1456 1295 m cl s 1456 1288 m -7 Y s 1456 1281 m cl s 1491 1325 m -17 X s 1474 1325 m cl s 1491 1325 m 18 X s 1509 1325 m cl s 1491 1325 m 6 Y s 1491 1331 m cl s 1491 1325 m -5 Y s 1491 1320 m cl s 1527 1353
 m -18 X s 1509 1353 m cl s 1527 1353 m 18 X s 1545 1353 m cl s 1527 1353 m 5 Y s 1527 1358 m cl s 1527 1353 m -4 Y s 1527 1349 m cl s 1563 1383 m -18 X s 1545 1383 m cl s 1563 1383 m 18 X s 1581 1383 m cl s 1563 1383 m 4 Y s 1563 1387 m cl s 1563
 1383 m -3 Y s 1563 1380 m cl s 1599 1407 m -18 X s 1581 1407 m cl s 1599 1407 m 18 X s 1617 1407 m cl s 1599 1407 m 3 Y s 1599 1410 m cl s 1599 1407 m -3 Y s 1599 1404 m cl s 1635 1435 m -18 X s 1617 1435 m cl s 1635 1435 m 18 X s 1653 1435 m cl s
 1635 1435 m 3 Y s 1635 1438 m cl s 1635 1435 m -2 Y s 1635 1433 m cl s 1671 1449 m -18 X s 1653 1449 m cl s 1671 1449 m 18 X s 1689 1449 m cl s 1671 1449 m 3 Y s 1671 1452 m cl s 1671 1449 m -2 Y s 1671 1447 m cl s 1706 1448 m -17 X s 1689 1448 m cl
 s 1706 1448 m 18 X s 1724 1448 m cl s 1706 1448 m 3 Y s 1706 1451 m cl s 1706 1448 m -2 Y s 1706 1446 m cl s 1742 1432 m -18 X s 1724 1432 m cl s 1742 1432 m 18 X s 1760 1432 m cl s 1742 1432 m 3 Y s 1742 1435 m cl s 1742 1432 m -3 Y s 1742 1429 m
 cl s 1778 1412 m -18 X s 1760 1412 m cl s 1778 1412 m 18 X s 1796 1412 m cl s 1778 1412 m 3 Y s 1778 1415 m cl s 1778 1412 m -3 Y s 1778 1409 m cl s 1814 1370 m -18 X s 1796 1370 m cl s 1814 1370 m 18 X s 1832 1370 m cl s 1814 1370 m 4 Y s 1814 1374
 m cl s 1814 1370 m -4 Y s 1814 1366 m cl s 1850 1330 m -18 X s 1832 1330 m cl s 1850 1330 m 18 X s 1868 1330 m cl s 1850 1330 m 5 Y s 1850 1335 m cl s 1850 1330 m -6 Y s 1850 1324 m cl s 1886 1260 m -18 X s 1868 1260 m cl s 1886 1260 m 18 X s 1904
 1260 m cl s 1886 1260 m 9 Y s 1886 1269 m cl s 1886 1260 m -9 Y s 1886 1251 m cl s 1921 1211 m -17 X s 1904 1211 m cl s 1921 1211 m 18 X s 1939 1211 m cl s 1921 1211 m 13 Y s 1921 1224 m cl s 1921 1211 m -13 Y s 1921 1198 m cl s 1957 1202 m -18 X s
 1939 1202 m cl s 1957 1202 m 18 X s 1975 1202 m cl s 1957 1202 m 14 Y s 1957 1216 m cl s 1957 1202 m -14 Y s 1957 1188 m cl s 1993 1108 m -18 X s 1975 1108 m cl s 1993 1108 m 18 X s 2011 1108 m cl s 1993 1108 m 29 Y s 1993 1137 m cl s 1993 1108 m
 -30 Y s 1993 1078 m cl s 2029 1039 m -18 X s 2011 1039 m cl s 2029 1039 m 18 X s 2047 1039 m cl s 2029 1039 m 48 Y s 2029 1087 m cl s 2029 1039 m -56 Y s 2029 983 m cl s 2065 1059 m -18 X s 2047 1059 m cl s 2065 1059 m 18 X s 2083 1059 m cl s 2065
 1059 m 41 Y s 2065 1100 m cl s 2065 1059 m -46 Y s 2065 1013 m cl s 2101 1010 m -18 X s 2083 1010 m cl s 2101 1010 m 18 X s 2119 1010 m cl s 2101 1010 m 59 Y s 2101 1069 m cl s 2101 1010 m -74 Y s 2101 936 m cl s 2136 1010 m -17 X s 2119 1010 m cl s
 2136 1010 m 18 X s 2154 1010 m cl s 2136 1010 m 59 Y s 2136 1069 m cl s 2136 1010 m -74 Y s 2136 936 m cl s 381 1039 417 1010 452 1075 488 1010 524 1059 560 1059 596 1039 632 1059 667 1059 703 1075 739 1117 775 1117 811 1075 847 1088 882 1117 918
 1039 954 1148 990 1148 1026 1143 1062 1177 1097 1180 1133 1166 1169 1186 1205 1209 1241 1192 1276 1195 1312 1234 1348 1229 1384 1259 1420 1271 1456 1288 1491 1325 1527 1353 1563 1383 1599 1407 1635 1435 1671 1449 1706 1448 1742 1432 1778 1412 1814
 1370 1850 1330 1886 1260 1921 1211 1957 1202 1993 1108 2029 1039 2065 1059 2101 1010 2136 1010 50 { m20} R 0.52 0.76 0.64 c[ 4 8] 0 sd 9 lw black 0.52 0.76 0.64 c 363 1001 m 36 7 d 35 8 d 36 7 d 36 8 d 36 8 d 36 8 d 36 8 d 35 8 d 36 8 d 36 8 d 36 9
 d 36 8 d 36 9 d 35 8 d 36 9 d 36 9 d 36 9 d 36 9 d 36 9 d 35 9 d 36 10 d 36 9 d 36 10 d 36 10 d 36 10 d 35 10 d 36 10 d 36 11 d 36 10 d 18 6 d 18 5 d 18 6 d 18 5 d 17 6 d 18 5 d 18 6 d 18 5 d 18 6 d 18 6 d 18 6 d 18 5 d 9 3 d 9 2 d 9 2 d 9 1 d 9 1 d
 9 1 d 26 X 9 -1 d 9 -1 d 9 -1 d 9 -2 d 9 -2 d 9 -3 d 9 -2 d 9 -4 d 9 -3 d 18 -8 d 36 -21 d 18 -13 d 18 -14 d 9 -7 d 9 -8 d 9 -8 d 9 -9 d 8 -9 d 9 -9 d 9 -10 d 9 -10 d 18 -21 d 18 -23 d 18 -24 d 18 -25 d 18 -27 d 18 -28 d 36 -61 d 36 -67 d 35 -72 d s
 0.54 0.66 0.63 c black 0.54 0.66 0.63 c 1303 634 m 27 112 d s 1330 746 m 36 132 d 36 118 d 18 54 d 18 50 d 18 47 d 18 43 d 9 20 d 8 19 d 9 19 d 9 18 d 9 16 d 9 16 d 9 15 d 9 14 d 9 13 d 9 13 d 9 11 d 9 11 d 9 10 d 9 8 d 18 15 d 9 7 d 9 5 d 9 4 d 4 2
 d 5 2 d 4 1 d 5 1 d 4 1 d 5 1 d 4 1 d 18 X 4 -1 d 5 X 4 -1 d 5 -2 d 4 -1 d 5 -2 d 4 -2 d 9 -4 d 9 -5 d 9 -6 d 9 -7 d 18 -17 d 9 -10 d 9 -10 d 9 -12 d 9 -12 d 9 -13 d 9 -14 d 9 -15 d 9 -16 d 9 -17 d 9 -17 d 9 -19 d 9 -19 d 9 -20 d 9 -21 d 17 -45 d 18
 -49 d 36 -107 d 36 -121 d 36 -136 d 19 -78 d s black[  ] 0 sd 3 lw 363 634 m 1791 X s 512 659 m -25 Y s 587 646 m -12 Y s 661 646 m -12 Y s 736 646 m -12 Y s 811 659 m -25 Y s 885 646 m -12 Y s 960 646 m -12 Y s 1035 646 m -12 Y s 1109 659 m -25 Y s
 1184 646 m -12 Y s 1259 646 m -12 Y s 1333 646 m -12 Y s 1408 659 m -25 Y s 1483 646 m -12 Y s 1557 646 m -12 Y s 1632 646 m -12 Y s 1706 659 m -25 Y s 1781 646 m -12 Y s 1856 646 m -12 Y s 1930 646 m -12 Y s 2005 659 m -25 Y s 512 659 m -25 Y s 437
 646 m -12 Y s 363 646 m -12 Y s 2005 659 m -25 Y s 2080 646 m -12 Y s 2154 646 m -12 Y s 363 1484 m 1791 X s 512 1459 m 25 Y s 587 1471 m 13 Y s 661 1471 m 13 Y s 736 1471 m 13 Y s 811 1459 m 25 Y s 885 1471 m 13 Y s 960 1471 m 13 Y s 1035 1471 m 13
 Y s 1109 1459 m 25 Y s 1184 1471 m 13 Y s 1259 1471 m 13 Y s 1333 1471 m 13 Y s 1408 1459 m 25 Y s 1483 1471 m 13 Y s 1557 1471 m 13 Y s 1632 1471 m 13 Y s 1706 1459 m 25 Y s 1781 1471 m 13 Y s 1856 1471 m 13 Y s 1930 1471 m 13 Y s 2005 1459 m 25 Y
 s 512 1459 m 25 Y s 437 1471 m 13 Y s 363 1471 m 13 Y s 2005 1459 m 25 Y s 2080 1471 m 13 Y s 2154 1471 m 13 Y s 363 634 m 850 Y s 417 634 m -54 X s 390 683 m -27 X s 390 712 m -27 X s 390 732 m -27 X s 390 748 m -27 X s 390 761 m -27 X s 390 772 m
 -27 X s 390 781 m -27 X s 390 790 m -27 X s 417 797 m -54 X s 390 846 m -27 X s 390 875 m -27 X s 390 895 m -27 X s 390 911 m -27 X s 390 924 m -27 X s 390 935 m -27 X s 390 945 m -27 X s 390 953 m -27 X s 417 961 m -54 X s 390 1010 m -27 X s 390
 1039 m -27 X s 390 1059 m -27 X s 390 1075 m -27 X s 390 1088 m -27 X s 390 1099 m -27 X s 390 1108 m -27 X s 390 1117 m -27 X s 417 1124 m -54 X s 390 1173 m -27 X s 390 1202 m -27 X s 390 1222 m -27 X s 390 1238 m -27 X s 390 1251 m -27 X s 390
 1262 m -27 X s 390 1272 m -27 X s 390 1280 m -27 X s 417 1287 m -54 X s 390 1337 m -27 X s 390 1365 m -27 X s 390 1386 m -27 X s 390 1402 m -27 X s 390 1415 m -27 X s 390 1426 m -27 X s 390 1435 m -27 X s 390 1443 m -27 X s 417 1451 m -54 X s 2154
 634 m 850 Y s 2101 634 m 53 X s 2127 683 m 27 X s 2127 712 m 27 X s 2127 732 m 27 X s 2127 748 m 27 X s 2127 761 m 27 X s 2127 772 m 27 X s 2127 781 m 27 X s 2127 790 m 27 X s 2101 797 m 53 X s 2127 846 m 27 X s 2127 875 m 27 X s 2127 895 m 27 X s
 2127 911 m 27 X s 2127 924 m 27 X s 2127 935 m 27 X s 2127 945 m 27 X s 2127 953 m 27 X s 2101 961 m 53 X s 2127 1010 m 27 X s 2127 1039 m 27 X s 2127 1059 m 27 X s 2127 1075 m 27 X s 2127 1088 m 27 X s 2127 1099 m 27 X s 2127 1108 m 27 X s 2127
 1117 m 27 X s 2101 1124 m 53 X s 2127 1173 m 27 X s 2127 1202 m 27 X s 2127 1222 m 27 X s 2127 1238 m 27 X s 2127 1251 m 27 X s 2127 1262 m 27 X s 2127 1272 m 27 X s 2127 1280 m 27 X s 2101 1287 m 53 X s 2127 1337 m 27 X s 2127 1365 m 27 X s 2127
 1386 m 27 X s 2127 1402 m 27 X s 2127 1415 m 27 X s 2127 1426 m 27 X s 2127 1435 m 27 X s 2127 1443 m 27 X s 2101 1451 m 53 X s
 gsave  2268 1077 0 461 C 677.708 1215.31 t 0 r /Helvetica findfont 58.7189 sf 0 0 m (4mu) show NC gr  1 1 1 c 453 161 454 1269 bf black
 gsave  2268 1077 0 461 C 566.929 1371.71 t 0 r /Helvetica-Bold findfont 48.9324 sf 0 0 m (MC15) show NC gr  510 1390 m20
 gsave  2268 1077 0 461 C 566.929 1293.51 t 0 r /Helvetica-Bold findfont 48.9324 sf 0 0 m (Projection of Signal pdf) show NC gr  0 0 1 c 9 lw 471 1309 m 79 X s black 3 lw 1 1 1 c 2268 461 0 0 bf black 1 1 1 c 1791 364 363 74 bf black 1791 364 363 74
 bl 363 74 m 1791 X s
 gsave  2268 461 0 0 C 1915.83 13.0329 t 0 r /Helvetica findfont 22.9045 sf 0 0 m (4l Invariant Mass \(GeV\)) show NC gr  512 85 m -11 Y s 587 79 m -5 Y s 661 79 m -5 Y s 736 79 m -5 Y s 811 85 m -11 Y s 885 79 m -5 Y s 960 79 m -5 Y s 1035 79 m -5 Y
 s 1109 85 m -11 Y s 1184 79 m -5 Y s 1259 79 m -5 Y s 1333 79 m -5 Y s 1408 85 m -11 Y s 1483 79 m -5 Y s 1557 79 m -5 Y s 1632 79 m -5 Y s 1706 85 m -11 Y s 1781 79 m -5 Y s 1856 79 m -5 Y s 1930 79 m -5 Y s 2005 85 m -11 Y s 512 85 m -11 Y s 437
 79 m -5 Y s 363 79 m -5 Y s 2005 85 m -11 Y s 2080 79 m -5 Y s 2154 79 m -5 Y s
 gsave  2268 461 0 0 C 491.99 55.3896 t 0 r /Helvetica findfont 22.9045 sf 0 0 m (220) show NC gr 
 gsave  2268 461 0 0 C 788.488 55.3896 t 0 r /Helvetica findfont 22.9045 sf 0 0 m (240) show NC gr 
 gsave  2268 461 0 0 C 1088.24 55.3896 t 0 r /Helvetica findfont 22.9045 sf 0 0 m (260) show NC gr 
 gsave  2268 461 0 0 C 1388 55.3896 t 0 r /Helvetica findfont 22.9045 sf 0 0 m (280) show NC gr 
 gsave  2268 461 0 0 C 1684.5 55.3896 t 0 r /Helvetica findfont 22.9045 sf 0 0 m (300) show NC gr 
 gsave  2268 461 0 0 C 1984.25 55.3896 t 0 r /Helvetica findfont 22.9045 sf 0 0 m (320) show NC gr  363 438 m 1791 X s 512 427 m 11 Y s 587 433 m 5 Y s 661 433 m 5 Y s 736 433 m 5 Y s 811 427 m 11 Y s 885 433 m 5 Y s 960 433 m 5 Y s 1035 433 m 5 Y s
 1109 427 m 11 Y s 1184 433 m 5 Y s 1259 433 m 5 Y s 1333 433 m 5 Y s 1408 427 m 11 Y s 1483 433 m 5 Y s 1557 433 m 5 Y s 1632 433 m 5 Y s 1706 427 m 11 Y s 1781 433 m 5 Y s 1856 433 m 5 Y s 1930 433 m 5 Y s 2005 427 m 11 Y s 512 427 m 11 Y s 437 433
 m 5 Y s 363 433 m 5 Y s 2005 427 m 11 Y s 2080 433 m 5 Y s 2154 433 m 5 Y s 363 74 m 364 Y s 417 74 m -54 X s 390 81 m -27 X s 390 88 m -27 X s 390 96 m -27 X s 390 103 m -27 X s 417 110 m -54 X s 390 118 m -27 X s 390 125 m -27 X s 390 132 m -27 X
 s 390 139 m -27 X s 417 147 m -54 X s 390 154 m -27 X s 390 161 m -27 X s 390 169 m -27 X s 390 176 m -27 X s 417 183 m -54 X s 390 190 m -27 X s 390 198 m -27 X s 390 205 m -27 X s 390 212 m -27 X s 417 220 m -54 X s 390 227 m -27 X s 390 234 m -27
 X s 390 241 m -27 X s 390 249 m -27 X s 417 256 m -54 X s 390 263 m -27 X s 390 271 m -27 X s 390 278 m -27 X s 390 285 m -27 X s 417 293 m -54 X s 390 300 m -27 X s 390 307 m -27 X s 390 314 m -27 X s 390 322 m -27 X s 417 329 m -54 X s 390 336 m
 -27 X s 390 344 m -27 X s 390 351 m -27 X s 390 358 m -27 X s 417 365 m -54 X s 390 373 m -27 X s 390 380 m -27 X s 390 387 m -27 X s 390 395 m -27 X s 417 402 m -54 X s 390 409 m -27 X s 390 416 m -27 X s 390 424 m -27 X s 390 431 m -27 X s 417 438
 m -54 X s
 gsave  2268 461 0 0 C 329.08 65.1643 t 0 r /Helvetica findfont 22.9045 sf 0 0 m (\2555) show NC gr 
 gsave  2268 461 0 0 C 329.08 101.005 t 0 r /Helvetica findfont 22.9045 sf 0 0 m (\2554) show NC gr 
 gsave  2268 461 0 0 C 329.08 140.103 t 0 r /Helvetica findfont 22.9045 sf 0 0 m (\2553) show NC gr 
 gsave  2268 461 0 0 C 329.08 175.944 t 0 r /Helvetica findfont 22.9045 sf 0 0 m (\2552) show NC gr 
 gsave  2268 461 0 0 C 332.338 211.784 t 0 r /Helvetica findfont 22.9045 sf 0 0 m (\2551) show NC gr 
 gsave  2268 461 0 0 C 335.596 247.624 t 0 r /Helvetica findfont 22.9045 sf 0 0 m (0) show NC gr 
 gsave  2268 461 0 0 C 338.854 283.465 t 0 r /Helvetica findfont 22.9045 sf 0 0 m (1) show NC gr 
 gsave  2268 461 0 0 C 335.596 319.305 t 0 r /Helvetica findfont 22.9045 sf 0 0 m (2) show NC gr 
 gsave  2268 461 0 0 C 335.596 358.403 t 0 r /Helvetica findfont 22.9045 sf 0 0 m (3) show NC gr 
 gsave  2268 461 0 0 C 335.596 394.244 t 0 r /Helvetica findfont 22.9045 sf 0 0 m (4) show NC gr 
 gsave  2268 461 0 0 C 335.596 430.084 t 0 r /Helvetica findfont 22.9045 sf 0 0 m (5) show NC gr  2154 74 m 364 Y s 2101 74 m 53 X s 2127 81 m 27 X s 2127 88 m 27 X s 2127 96 m 27 X s 2127 103 m 27 X s 2101 110 m 53 X s 2127 118 m 27 X s 2127 125 m
 27 X s 2127 132 m 27 X s 2127 139 m 27 X s 2101 147 m 53 X s 2127 154 m 27 X s 2127 161 m 27 X s 2127 169 m 27 X s 2127 176 m 27 X s 2101 183 m 53 X s 2127 190 m 27 X s 2127 198 m 27 X s 2127 205 m 27 X s 2127 212 m 27 X s 2101 220 m 53 X s 2127 227
 m 27 X s 2127 234 m 27 X s 2127 241 m 27 X s 2127 249 m 27 X s 2101 256 m 53 X s 2127 263 m 27 X s 2127 271 m 27 X s 2127 278 m 27 X s 2127 285 m 27 X s 2101 293 m 53 X s 2127 300 m 27 X s 2127 307 m 27 X s 2127 314 m 27 X s 2127 322 m 27 X s 2101
 329 m 53 X s 2127 336 m 27 X s 2127 344 m 27 X s 2127 351 m 27 X s 2127 358 m 27 X s 2101 365 m 53 X s 2127 373 m 27 X s 2127 380 m 27 X s 2127 387 m 27 X s 2127 395 m 27 X s 2101 402 m 53 X s 2127 409 m 27 X s 2127 416 m 27 X s 2127 424 m 27 X s
 2127 431 m 27 X s 2101 438 m 53 X s 6 lw 0.2 0.8 0.2 c black 3 lw 0.2 0.8 0.2 c 363 256 m 25 Y 36 X -26 Y 35 X 47 Y 36 X -54 Y 36 X 30 Y 36 X -7 Y 36 X -22 Y 36 X 7 Y 35 X -6 Y 36 X 6 Y 36 X 41 Y 36 X -8 Y 36 X -56 Y 36 X 2 Y 35 X 20 Y 36 X -91 Y 36
 X 114 Y 36 X -15 Y 36 X -24 Y 36 X 47 Y 35 X -12 Y 36 X -49 Y 36 X 20 Y 36 X 32 Y 36 X -69 Y 36 X -24 Y 35 X 80 Y 36 X -49 Y 36 X 64 Y 36 X -3 Y 36 X -1 Y 36 X 68 Y 35 X -31 Y 36 X -51 Y 36 X -96 Y 36 X 58 Y 36 X 51 Y 36 X 9 Y 35 X -39 Y 36 X 64 Y
 36 X -68 Y 36 X 31 Y 36 X -94 Y 36 X 31 Y 35 X 108 Y 36 X -86 Y 36 X 1 Y 36 X 59 Y 36 X -3 Y 36 X 16 Y 35 X -47 Y f 6 lw black 0.2 0.8 0.2 c black 363 281 m 36 X -26 Y 35 X 47 Y 36 X -54 Y 36 X 30 Y 36 X -7 Y 36 X -22 Y 36 X 7 Y 35 X -6 Y 36 X 6 Y
 36 X 41 Y 36 X -8 Y 36 X -56 Y 36 X 2 Y 35 X 20 Y 36 X -91 Y 36 X 114 Y 36 X -15 Y 36 X -24 Y 36 X 47 Y 35 X -12 Y 36 X -49 Y 36 X 20 Y 36 X 32 Y 36 X -69 Y 36 X -24 Y 35 X 80 Y 36 X -49 Y 36 X 64 Y 36 X -3 Y 36 X -1 Y 36 X 68 Y 35 X -31 Y 36 X -51
 Y 36 X -96 Y 36 X 58 Y 36 X 51 Y 36 X 9 Y 35 X -39 Y 36 X 64 Y 36 X -68 Y 36 X 31 Y 36 X -94 Y 36 X 31 Y 35 X 108 Y 36 X -86 Y 36 X 1 Y 36 X 59 Y 36 X -3 Y 36 X 16 Y 35 X s 3 lw 363 74 m 1791 X s 512 85 m -11 Y s 587 79 m -5 Y s 661 79 m -5 Y s 736
 79 m -5 Y s 811 85 m -11 Y s 885 79 m -5 Y s 960 79 m -5 Y s 1035 79 m -5 Y s 1109 85 m -11 Y s 1184 79 m -5 Y s 1259 79 m -5 Y s 1333 79 m -5 Y s 1408 85 m -11 Y s 1483 79 m -5 Y s 1557 79 m -5 Y s 1632 79 m -5 Y s 1706 85 m -11 Y s 1781 79 m -5 Y
 s 1856 79 m -5 Y s 1930 79 m -5 Y s 2005 85 m -11 Y s 512 85 m -11 Y s 437 79 m -5 Y s 363 79 m -5 Y s 2005 85 m -11 Y s 2080 79 m -5 Y s 2154 79 m -5 Y s 363 438 m 1791 X s 512 427 m 11 Y s 587 433 m 5 Y s 661 433 m 5 Y s 736 433 m 5 Y s 811 427 m
 11 Y s 885 433 m 5 Y s 960 433 m 5 Y s 1035 433 m 5 Y s 1109 427 m 11 Y s 1184 433 m 5 Y s 1259 433 m 5 Y s 1333 433 m 5 Y s 1408 427 m 11 Y s 1483 433 m 5 Y s 1557 433 m 5 Y s 1632 433 m 5 Y s 1706 427 m 11 Y s 1781 433 m 5 Y s 1856 433 m 5 Y s
 1930 433 m 5 Y s 2005 427 m 11 Y s 512 427 m 11 Y s 437 433 m 5 Y s 363 433 m 5 Y s 2005 427 m 11 Y s 2080 433 m 5 Y s 2154 433 m 5 Y s 363 74 m 364 Y s 417 74 m -54 X s 390 81 m -27 X s 390 88 m -27 X s 390 96 m -27 X s 390 103 m -27 X s 417 110 m
 -54 X s 390 118 m -27 X s 390 125 m -27 X s 390 132 m -27 X s 390 139 m -27 X s 417 147 m -54 X s 390 154 m -27 X s 390 161 m -27 X s 390 169 m -27 X s 390 176 m -27 X s 417 183 m -54 X s 390 190 m -27 X s 390 198 m -27 X s 390 205 m -27 X s 390 212
 m -27 X s 417 220 m -54 X s 390 227 m -27 X s 390 234 m -27 X s 390 241 m -27 X s 390 249 m -27 X s 417 256 m -54 X s 390 263 m -27 X s 390 271 m -27 X s 390 278 m -27 X s 390 285 m -27 X s 417 293 m -54 X s 390 300 m -27 X s 390 307 m -27 X s 390
 314 m -27 X s 390 322 m -27 X s 417 329 m -54 X s 390 336 m -27 X s 390 344 m -27 X s 390 351 m -27 X s 390 358 m -27 X s 417 365 m -54 X s 390 373 m -27 X s 390 380 m -27 X s 390 387 m -27 X s 390 395 m -27 X s 417 402 m -54 X s 390 409 m -27 X s
 390 416 m -27 X s 390 424 m -27 X s 390 431 m -27 X s 417 438 m -54 X s 2154 74 m 364 Y s 2101 74 m 53 X s 2127 81 m 27 X s 2127 88 m 27 X s 2127 96 m 27 X s 2127 103 m 27 X s 2101 110 m 53 X s 2127 118 m 27 X s 2127 125 m 27 X s 2127 132 m 27 X s
 2127 139 m 27 X s 2101 147 m 53 X s 2127 154 m 27 X s 2127 161 m 27 X s 2127 169 m 27 X s 2127 176 m 27 X s 2101 183 m 53 X s 2127 190 m 27 X s 2127 198 m 27 X s 2127 205 m 27 X s 2127 212 m 27 X s 2101 220 m 53 X s 2127 227 m 27 X s 2127 234 m 27 X
 s 2127 241 m 27 X s 2127 249 m 27 X s 2101 256 m 53 X s 2127 263 m 27 X s 2127 271 m 27 X s 2127 278 m 27 X s 2127 285 m 27 X s 2101 293 m 53 X s 2127 300 m 27 X s 2127 307 m 27 X s 2127 314 m 27 X s 2127 322 m 27 X s 2101 329 m 53 X s 2127 336 m 27
 X s 2127 344 m 27 X s 2127 351 m 27 X s 2127 358 m 27 X s 2101 365 m 53 X s 2127 373 m 27 X s 2127 380 m 27 X s 2127 387 m 27 X s 2127 395 m 27 X s 2101 402 m 53 X s 2127 409 m 27 X s 2127 416 m 27 X s 2127 424 m 27 X s 2127 431 m 27 X s 2101 438 m
 53 X s
 gr  gr showpage
end
%%EOF
