%!PS-Adobe-2.0 EPSF-2.0
%%BoundingBox:  0 0 567 384
%%Title: H4l2015_plotfit/VBF_mass_signal_1000_H4l_4mu.eps: 
%%Creator: ROOT Version 5.34/07
%%CreationDate: Mon Nov  9 16:29:45 2015
%%EndComments
%%BeginProlog
80 dict begin
/s {stroke} def /l {lineto} def /m {moveto} def /t {translate} def
/r {rotate} def /rl {roll}  def /R {repeat} def
/d {rlineto} def /rm {rmoveto} def /gr {grestore} def /f {eofill} def
/c {setrgbcolor} def /black {0 setgray} def /sd {setdash} def
/cl {closepath} def /sf {scalefont setfont} def /lw {setlinewidth} def
/box {m dup 0 exch d exch 0 d 0 exch neg d cl} def
/NC{systemdict begin initclip end}def/C{NC box clip newpath}def
/bl {box s} def /bf {box f} def /Y { 0 exch d} def /X { 0 d} def 
/K {{pop pop 0 moveto} exch kshow} bind def
/ita {/ang 15 def gsave [1 0 ang dup sin exch cos div 1 0 0] concat} def 
/mp {newpath /y exch def /x exch def} def
/side {[w .77 mul w .23 mul] .385 w mul sd w 0 l currentpoint t -144 r} def
/mr {mp x y w2 0 360 arc} def /m24 {mr s} def /m20 {mr f} def
/mb {mp x y w2 add m w2 neg 0 d 0 w neg d w 0 d 0 w d cl} def
/mt {mp x y w2 add m w2 neg w neg d w 0 d cl} def
/m21 {mb f} def /m25 {mb s} def /m22 {mt f} def /m26{mt s} def
/m23 {mp x y w2 sub m w2 w d w neg 0 d cl f} def
/m27 {mp x y w2 add m w3 neg w2 neg d w3 w2 neg d w3 w2 d cl s} def
/m28 {mp x w2 sub y w2 sub w3 add m w3 0 d  0 w3 neg d w3 0 d 0 w3 d w3 0 d  0 w3 d w3 neg 0 d 0 w3 d w3 neg 0 d 0 w3 neg d w3 neg 0 d cl s } def
/m29 {mp gsave x w2 sub y w2 add w3 sub m currentpoint t 4 {side} repeat cl fill gr} def
/m30 {mp gsave x w2 sub y w2 add w3 sub m currentpoint t 4 {side} repeat cl s gr} def
/m31 {mp x y w2 sub m 0 w d x w2 sub y m w 0 d x w2 sub y w2 add m w w neg d x w2 sub y w2 sub m w w d s} def
/m32 {mp x y w2 sub m w2 w d w neg 0 d cl s} def
/m33 {mp x y w2 add m w3 neg w2 neg d w3 w2 neg d w3 w2 d cl f} def
/m34 {mp x w2 sub y w2 sub w3 add m w3 0 d  0 w3 neg d w3 0 d 0 w3 d w3 0 d  0 w3 d w3 neg 0 d 0 w3 d w3 neg 0 d 0 w3 neg d w3 neg 0 d cl f } def
/m2 {mp x y w2 sub m 0 w d x w2 sub y m w 0 d s} def
/m5 {mp x w2 sub y w2 sub m w w d x w2 sub y w2 add m w w neg d s} def
/reEncode {exch findfont dup length dict begin {1 index /FID eq  {pop pop} {def} ifelse } forall /Encoding exch def currentdict end dup /FontName get exch definefont pop } def [/Times-Bold /Times-Italic /Times-BoldItalic /Helvetica /Helvetica-Oblique
 /Helvetica-Bold /Helvetica-BoldOblique /Courier /Courier-Oblique /Courier-Bold /Courier-BoldOblique /Times-Roman /AvantGarde-Book /AvantGarde-BookOblique /AvantGarde-Demi /AvantGarde-DemiOblique /Bookman-Demi /Bookman-DemiItalic /Bookman-Light
 /Bookman-LightItalic /Helvetica-Narrow /Helvetica-Narrow-Bold /Helvetica-Narrow-BoldOblique /Helvetica-Narrow-Oblique /NewCenturySchlbk-Roman /NewCenturySchlbk-Bold /NewCenturySchlbk-BoldItalic /NewCenturySchlbk-Italic /Palatino-Bold
 /Palatino-BoldItalic /Palatino-Italic /Palatino-Roman ] {ISOLatin1Encoding reEncode } forall
%%EndProlog
%%BeginSetup
%%EndSetup
newpath  gsave  .25 .25 scale  gsave  0 0 t black[  ] 0 sd 3 lw 1 1 1 c 2268 1538 0 0 bf black 1 1 1 c 2222 738 23 784 bf black 1 1 1 c 2222 739 23 15 bf black 1 1 1 c 2268 1077 0 461 bf black 1 1 1 c 1791 850 363 634 bf black 1791 850 363 634 bl 363
 634 m 1791 X s
 gsave  2268 1077 0 461 C 1642.14 498.507 t 0 r /Helvetica findfont 48.9324 sf 0 0 m (4l Invariant Mass \(GeV\)) show NC gr  450 659 m -25 Y s 494 646 m -12 Y s 538 646 m -12 Y s 581 646 m -12 Y s 625 646 m -12 Y s 669 659 m -25 Y s 712 646 m -12 Y s
 756 646 m -12 Y s 800 646 m -12 Y s 843 646 m -12 Y s 887 659 m -25 Y s 931 646 m -12 Y s 975 646 m -12 Y s 1018 646 m -12 Y s 1062 646 m -12 Y s 1106 659 m -25 Y s 1149 646 m -12 Y s 1193 646 m -12 Y s 1237 646 m -12 Y s 1280 646 m -12 Y s 1324 659
 m -25 Y s 1368 646 m -12 Y s 1412 646 m -12 Y s 1455 646 m -12 Y s 1499 646 m -12 Y s 1543 659 m -25 Y s 1586 646 m -12 Y s 1630 646 m -12 Y s 1674 646 m -12 Y s 1717 646 m -12 Y s 1761 659 m -25 Y s 1805 646 m -12 Y s 1848 646 m -12 Y s 1892 646 m
 -12 Y s 1936 646 m -12 Y s 1980 659 m -25 Y s 450 659 m -25 Y s 407 646 m -12 Y s 363 646 m -12 Y s 1980 659 m -25 Y s 2023 646 m -12 Y s 2067 646 m -12 Y s 2111 646 m -12 Y s 2154 646 m -12 Y s
 gsave  2268 1077 0 461 C 407.277 586.478 t 0 r /Helvetica findfont 48.9324 sf 0 0 m (750) show NC gr 
 gsave  2268 1077 0 461 C 625.577 586.478 t 0 r /Helvetica findfont 48.9324 sf 0 0 m (800) show NC gr 
 gsave  2268 1077 0 461 C 843.877 586.478 t 0 r /Helvetica findfont 48.9324 sf 0 0 m (850) show NC gr 
 gsave  2268 1077 0 461 C 1062.18 586.478 t 0 r /Helvetica findfont 48.9324 sf 0 0 m (900) show NC gr 
 gsave  2268 1077 0 461 C 1280.48 586.478 t 0 r /Helvetica findfont 48.9324 sf 0 0 m (950) show NC gr 
 gsave  2268 1077 0 461 C 1485.75 586.478 t 0 r /Helvetica findfont 48.9324 sf 0 0 m (1000) show NC gr 
 gsave  2268 1077 0 461 C 1704.05 586.478 t 0 r /Helvetica findfont 48.9324 sf 0 0 m (1050) show NC gr 
 gsave  2268 1077 0 461 C 1922.35 586.478 t 0 r /Helvetica findfont 48.9324 sf 0 0 m (1100) show NC gr  363 1484 m 1791 X s 450 1459 m 25 Y s 494 1471 m 13 Y s 538 1471 m 13 Y s 581 1471 m 13 Y s 625 1471 m 13 Y s 669 1459 m 25 Y s 712 1471 m 13 Y s
 756 1471 m 13 Y s 800 1471 m 13 Y s 843 1471 m 13 Y s 887 1459 m 25 Y s 931 1471 m 13 Y s 975 1471 m 13 Y s 1018 1471 m 13 Y s 1062 1471 m 13 Y s 1106 1459 m 25 Y s 1149 1471 m 13 Y s 1193 1471 m 13 Y s 1237 1471 m 13 Y s 1280 1471 m 13 Y s 1324
 1459 m 25 Y s 1368 1471 m 13 Y s 1412 1471 m 13 Y s 1455 1471 m 13 Y s 1499 1471 m 13 Y s 1543 1459 m 25 Y s 1586 1471 m 13 Y s 1630 1471 m 13 Y s 1674 1471 m 13 Y s 1717 1471 m 13 Y s 1761 1459 m 25 Y s 1805 1471 m 13 Y s 1848 1471 m 13 Y s 1892
 1471 m 13 Y s 1936 1471 m 13 Y s 1980 1459 m 25 Y s 450 1459 m 25 Y s 407 1471 m 13 Y s 363 1471 m 13 Y s 1980 1459 m 25 Y s 2023 1471 m 13 Y s 2067 1471 m 13 Y s 2111 1471 m 13 Y s 2154 1471 m 13 Y s 363 634 m 850 Y s
 gsave  2268 1077 0 461 C 120.554 1058.92 t 90 r /Helvetica findfont 48.9324 sf 0 0 m (Events / \( 8.2 GeV \)) show NC gr  417 634 m -54 X s
 gsave  2268 1077 0 461 C 312.788 632.093 t 0 r /Helvetica findfont 32.6216 sf 0 0 m (\2552) show NC gr 
 gsave  2268 1077 0 461 C 260.657 612.544 t 0 r /Helvetica findfont 48.9324 sf 0 0 m (10) show NC gr  390 684 m -27 X s 390 714 m -27 X s 390 734 m -27 X s 390 751 m -27 X s 390 764 m -27 X s 390 775 m -27 X s 390 785 m -27 X s 390 793 m -27 X s 417
 801 m -54 X s
 gsave  2268 1077 0 461 C 319.305 798.262 t 0 r /Helvetica findfont 32.6216 sf 0 0 m (\2551) show NC gr 
 gsave  2268 1077 0 461 C 267.173 778.713 t 0 r /Helvetica findfont 48.9324 sf 0 0 m (10) show NC gr  390 851 m -27 X s 390 881 m -27 X s 390 902 m -27 X s 390 918 m -27 X s 390 931 m -27 X s 390 943 m -27 X s 390 952 m -27 X s 390 961 m -27 X s 417
 969 m -54 X s
 gsave  2268 1077 0 461 C 342.425 947.656 t 0 r  -27 0 t /Helvetica findfont 48.9324 sf 0 0 m (1) show NC gr  390 1019 m -27 X s 390 1048 m -27 X s 390 1069 m -27 X s 390 1086 m -27 X s 390 1099 m -27 X s 390 1110 m -27 X s 390 1120 m -27 X s 390
 1128 m -27 X s 417 1136 m -54 X s
 gsave  2268 1077 0 461 C 342.425 1115.11 t 0 r  -55 0 t /Helvetica findfont 48.9324 sf 0 0 m (10) show NC gr  390 1186 m -27 X s 390 1216 m -27 X s 390 1237 m -27 X s 390 1253 m -27 X s 390 1266 m -27 X s 390 1277 m -27 X s 390 1287 m -27 X s 390
 1296 m -27 X s 417 1303 m -54 X s
 gsave  2268 1077 0 461 C 322.563 1303.29 t 0 r /Helvetica findfont 32.6216 sf 0 0 m (2) show NC gr 
 gsave  2268 1077 0 461 C 270.432 1283.74 t 0 r /Helvetica findfont 48.9324 sf 0 0 m (10) show NC gr  390 1354 m -27 X s 390 1383 m -27 X s 390 1404 m -27 X s 390 1420 m -27 X s 390 1434 m -27 X s 390 1445 m -27 X s 390 1455 m -27 X s 390 1463 m -27
 X s 417 1471 m -54 X s
 gsave  2268 1077 0 461 C 322.563 1472.71 t 0 r /Helvetica findfont 32.6216 sf 0 0 m (3) show NC gr 
 gsave  2268 1077 0 461 C 270.432 1449.9 t 0 r /Helvetica findfont 48.9324 sf 0 0 m (10) show NC gr  2154 634 m 850 Y s 2101 634 m 53 X s 2127 684 m 27 X s 2127 714 m 27 X s 2127 734 m 27 X s 2127 751 m 27 X s 2127 764 m 27 X s 2127 775 m 27 X s 2127
 785 m 27 X s 2127 793 m 27 X s 2101 801 m 53 X s 2127 851 m 27 X s 2127 881 m 27 X s 2127 902 m 27 X s 2127 918 m 27 X s 2127 931 m 27 X s 2127 943 m 27 X s 2127 952 m 27 X s 2127 961 m 27 X s 2101 969 m 53 X s 2127 1019 m 27 X s 2127 1048 m 27 X s
 2127 1069 m 27 X s 2127 1086 m 27 X s 2127 1099 m 27 X s 2127 1110 m 27 X s 2127 1120 m 27 X s 2127 1128 m 27 X s 2101 1136 m 53 X s 2127 1186 m 27 X s 2127 1216 m 27 X s 2127 1237 m 27 X s 2127 1253 m 27 X s 2127 1266 m 27 X s 2127 1277 m 27 X s
 2127 1287 m 27 X s 2127 1296 m 27 X s 2101 1303 m 53 X s 2127 1354 m 27 X s 2127 1383 m 27 X s 2127 1404 m 27 X s 2127 1420 m 27 X s 2127 1434 m 27 X s 2127 1445 m 27 X s 2127 1455 m 27 X s 2127 1463 m 27 X s 2101 1471 m 53 X s 381 1069 m -18 X s
 363 1069 m cl s 381 1069 m 18 X s 399 1069 m cl s 381 1069 m 43 Y s 381 1112 m cl s 381 1069 m -47 Y s 381 1022 m cl s 417 1048 m -18 X s 399 1048 m cl s 417 1048 m 17 X s 434 1048 m cl s 417 1048 m 50 Y s 417 1098 m cl s 417 1048 m -57 Y s 417 991
 m cl s 452 1069 m -18 X s 434 1069 m cl s 452 1069 m 18 X s 470 1069 m cl s 452 1069 m 43 Y s 452 1112 m cl s 452 1069 m -47 Y s 452 1022 m cl s 488 1110 m -18 X s 470 1110 m cl s 488 1110 m 18 X s 506 1110 m cl s 488 1110 m 31 Y s 488 1141 m cl s
 488 1110 m -33 Y s 488 1077 m cl s 524 1120 m -18 X s 506 1120 m cl s 524 1120 m 18 X s 542 1120 m cl s 524 1120 m 29 Y s 524 1149 m cl s 524 1120 m -31 Y s 524 1089 m cl s 560 1110 m -18 X s 542 1110 m cl s 560 1110 m 18 X s 578 1110 m cl s 560
 1110 m 31 Y s 560 1141 m cl s 560 1110 m -33 Y s 560 1077 m cl s 596 1099 m -18 X s 578 1099 m cl s 596 1099 m 18 X s 614 1099 m cl s 596 1099 m 34 Y s 596 1133 m cl s 596 1099 m -37 Y s 596 1062 m cl s 632 1143 m -18 X s 614 1143 m cl s 632 1143 m
 17 X s 649 1143 m cl s 632 1143 m 24 Y s 632 1167 m cl s 632 1143 m -26 Y s 632 1117 m cl s 667 1149 m -18 X s 649 1149 m cl s 667 1149 m 18 X s 685 1149 m cl s 667 1149 m 24 Y s 667 1173 m cl s 667 1149 m -24 Y s 667 1125 m cl s 703 1183 m -18 X s
 685 1183 m cl s 703 1183 m 18 X s 721 1183 m cl s 703 1183 m 18 Y s 703 1201 m cl s 703 1183 m -19 Y s 703 1164 m cl s 739 1143 m -18 X s 721 1143 m cl s 739 1143 m 18 X s 757 1143 m cl s 739 1143 m 24 Y s 739 1167 m cl s 739 1143 m -26 Y s 739 1117
 m cl s 775 1165 m -18 X s 757 1165 m cl s 775 1165 m 18 X s 793 1165 m cl s 775 1165 m 21 Y s 775 1186 m cl s 775 1165 m -21 Y s 775 1144 m cl s 811 1175 m -18 X s 793 1175 m cl s 811 1175 m 18 X s 829 1175 m cl s 811 1175 m 19 Y s 811 1194 m cl s
 811 1175 m -20 Y s 811 1155 m cl s 847 1186 m -18 X s 829 1186 m cl s 847 1186 m 17 X s 864 1186 m cl s 847 1186 m 18 Y s 847 1204 m cl s 847 1186 m -18 Y s 847 1168 m cl s 882 1218 m -18 X s 864 1218 m cl s 882 1218 m 18 X s 900 1218 m cl s 882
 1218 m 14 Y s 882 1232 m cl s 882 1218 m -14 Y s 882 1204 m cl s 918 1205 m -18 X s 900 1205 m cl s 918 1205 m 18 X s 936 1205 m cl s 918 1205 m 16 Y s 918 1221 m cl s 918 1205 m -15 Y s 918 1190 m cl s 954 1229 m -18 X s 936 1229 m cl s 954 1229 m
 18 X s 972 1229 m cl s 954 1229 m 13 Y s 954 1242 m cl s 954 1229 m -13 Y s 954 1216 m cl s 990 1221 m -18 X s 972 1221 m cl s 990 1221 m 18 X s 1008 1221 m cl s 990 1221 m 13 Y s 990 1234 m cl s 990 1221 m -15 Y s 990 1206 m cl s 1026 1242 m -18 X
 s 1008 1242 m cl s 1026 1242 m 18 X s 1044 1242 m cl s 1026 1242 m 12 Y s 1026 1254 m cl s 1026 1242 m -12 Y s 1026 1230 m cl s 1062 1275 m -18 X s 1044 1275 m cl s 1062 1275 m 17 X s 1079 1275 m cl s 1062 1275 m 10 Y s 1062 1285 m cl s 1062 1275 m
 -9 Y s 1062 1266 m cl s 1097 1257 m -18 X s 1079 1257 m cl s 1097 1257 m 18 X s 1115 1257 m cl s 1097 1257 m 11 Y s 1097 1268 m cl s 1097 1257 m -10 Y s 1097 1247 m cl s 1133 1292 m -18 X s 1115 1292 m cl s 1133 1292 m 18 X s 1151 1292 m cl s 1133
 1292 m 8 Y s 1133 1300 m cl s 1133 1292 m -9 Y s 1133 1283 m cl s 1169 1306 m -18 X s 1151 1306 m cl s 1169 1306 m 18 X s 1187 1306 m cl s 1169 1306 m 7 Y s 1169 1313 m cl s 1169 1306 m -7 Y s 1169 1299 m cl s 1205 1317 m -18 X s 1187 1317 m cl s
 1205 1317 m 18 X s 1223 1317 m cl s 1205 1317 m 6 Y s 1205 1323 m cl s 1205 1317 m -7 Y s 1205 1310 m cl s 1241 1344 m -18 X s 1223 1344 m cl s 1241 1344 m 18 X s 1259 1344 m cl s 1241 1344 m 6 Y s 1241 1350 m cl s 1241 1344 m -5 Y s 1241 1339 m cl
 s 1276 1366 m -17 X s 1259 1366 m cl s 1276 1366 m 18 X s 1294 1366 m cl s 1276 1366 m 5 Y s 1276 1371 m cl s 1276 1366 m -4 Y s 1276 1362 m cl s 1312 1383 m -18 X s 1294 1383 m cl s 1312 1383 m 18 X s 1330 1383 m cl s 1312 1383 m 4 Y s 1312 1387 m
 cl s 1312 1383 m -5 Y s 1312 1378 m cl s 1348 1394 m -18 X s 1330 1394 m cl s 1348 1394 m 18 X s 1366 1394 m cl s 1348 1394 m 4 Y s 1348 1398 m cl s 1348 1394 m -4 Y s 1348 1390 m cl s 1384 1415 m -18 X s 1366 1415 m cl s 1384 1415 m 18 X s 1402
 1415 m cl s 1384 1415 m 3 Y s 1384 1418 m cl s 1384 1415 m -4 Y s 1384 1411 m cl s 1420 1429 m -18 X s 1402 1429 m cl s 1420 1429 m 18 X s 1438 1429 m cl s 1420 1429 m 4 Y s 1420 1433 m cl s 1420 1429 m -3 Y s 1420 1426 m cl s 1456 1440 m -18 X s
 1438 1440 m cl s 1456 1440 m 18 X s 1474 1440 m cl s 1456 1440 m 3 Y s 1456 1443 m cl s 1456 1440 m -3 Y s 1456 1437 m cl s 1491 1443 m -17 X s 1474 1443 m cl s 1491 1443 m 18 X s 1509 1443 m cl s 1491 1443 m 3 Y s 1491 1446 m cl s 1491 1443 m -3 Y
 s 1491 1440 m cl s 1527 1446 m -18 X s 1509 1446 m cl s 1527 1446 m 18 X s 1545 1446 m cl s 1527 1446 m 3 Y s 1527 1449 m cl s 1527 1446 m -2 Y s 1527 1444 m cl s 1563 1445 m -18 X s 1545 1445 m cl s 1563 1445 m 18 X s 1581 1445 m cl s 1563 1445 m 3
 Y s 1563 1448 m cl s 1563 1445 m -3 Y s 1563 1442 m cl s 1599 1437 m -18 X s 1581 1437 m cl s 1599 1437 m 18 X s 1617 1437 m cl s 1599 1437 m 2 Y s 1599 1439 m cl s 1599 1437 m -3 Y s 1599 1434 m cl s 1635 1422 m -18 X s 1617 1422 m cl s 1635 1422 m
 18 X s 1653 1422 m cl s 1635 1422 m 4 Y s 1635 1426 m cl s 1635 1422 m -3 Y s 1635 1419 m cl s 1671 1399 m -18 X s 1653 1399 m cl s 1671 1399 m 18 X s 1689 1399 m cl s 1671 1399 m 4 Y s 1671 1403 m cl s 1671 1399 m -3 Y s 1671 1396 m cl s 1706 1392
 m -17 X s 1689 1392 m cl s 1706 1392 m 18 X s 1724 1392 m cl s 1706 1392 m 4 Y s 1706 1396 m cl s 1706 1392 m -4 Y s 1706 1388 m cl s 1742 1368 m -18 X s 1724 1368 m cl s 1742 1368 m 18 X s 1760 1368 m cl s 1742 1368 m 4 Y s 1742 1372 m cl s 1742
 1368 m -5 Y s 1742 1363 m cl s 1778 1333 m -18 X s 1760 1333 m cl s 1778 1333 m 18 X s 1796 1333 m cl s 1778 1333 m 6 Y s 1778 1339 m cl s 1778 1333 m -6 Y s 1778 1327 m cl s 1814 1320 m -18 X s 1796 1320 m cl s 1814 1320 m 18 X s 1832 1320 m cl s
 1814 1320 m 7 Y s 1814 1327 m cl s 1814 1320 m -6 Y s 1814 1314 m cl s 1850 1292 m -18 X s 1832 1292 m cl s 1850 1292 m 18 X s 1868 1292 m cl s 1850 1292 m 9 Y s 1850 1301 m cl s 1850 1292 m -8 Y s 1850 1284 m cl s 1886 1274 m -18 X s 1868 1274 m cl
 s 1886 1274 m 18 X s 1904 1274 m cl s 1886 1274 m 10 Y s 1886 1284 m cl s 1886 1274 m -9 Y s 1886 1265 m cl s 1921 1233 m -17 X s 1904 1233 m cl s 1921 1233 m 18 X s 1939 1233 m cl s 1921 1233 m 13 Y s 1921 1246 m cl s 1921 1233 m -13 Y s 1921 1220
 m cl s 1957 1233 m -18 X s 1939 1233 m cl s 1957 1233 m 18 X s 1975 1233 m cl s 1957 1233 m 13 Y s 1957 1246 m cl s 1957 1233 m -13 Y s 1957 1220 m cl s 1993 1231 m -18 X s 1975 1231 m cl s 1993 1231 m 18 X s 2011 1231 m cl s 1993 1231 m 13 Y s 1993
 1244 m cl s 1993 1231 m -13 Y s 1993 1218 m cl s 2029 1200 m -18 X s 2011 1200 m cl s 2029 1200 m 18 X s 2047 1200 m cl s 2029 1200 m 16 Y s 2029 1216 m cl s 2029 1200 m -17 Y s 2029 1183 m cl s 2065 1160 m -18 X s 2047 1160 m cl s 2065 1160 m 18 X
 s 2083 1160 m cl s 2065 1160 m 22 Y s 2065 1182 m cl s 2065 1160 m -22 Y s 2065 1138 m cl s 2101 1128 m -18 X s 2083 1128 m cl s 2101 1128 m 18 X s 2119 1128 m cl s 2101 1128 m 28 Y s 2101 1156 m cl s 2101 1128 m -29 Y s 2101 1099 m cl s 2136 1099 m
 -17 X s 2119 1099 m cl s 2136 1099 m 18 X s 2154 1099 m cl s 2136 1099 m 34 Y s 2136 1133 m cl s 2136 1099 m -37 Y s 2136 1062 m cl s /w 31 def /w2 {w 2 div} def /w3 {w 3 div} def 381 1069 417 1048 452 1069 488 1110 524 1120 560 1110 596 1099 632
 1143 667 1149 703 1183 739 1143 775 1165 811 1175 847 1186 882 1218 918 1205 954 1229 990 1221 1026 1242 1062 1275 1097 1257 1133 1292 1169 1306 1205 1317 1241 1344 1276 1366 1312 1383 1348 1394 1384 1415 1420 1429 1456 1440 1491 1443 1527 1446 1563
 1445 1599 1437 1635 1422 1671 1399 1706 1392 1742 1368 1778 1333 1814 1320 1850 1292 1886 1274 1921 1233 1957 1233 1993 1231 2029 1200 2065 1160 2101 1128 2136 1099 50 { m20} R 0 1 1 c 1 1 0 c black 1 1 0 c 363 1082 m 36 9 d 35 8 d 36 8 d 36 8 d 36
 9 d 36 8 d 36 9 d 35 9 d 36 8 d 36 9 d 36 10 d 36 9 d 36 9 d 35 10 d 36 10 d 36 11 d 36 10 d 36 11 d 36 12 d 35 12 d 36 12 d 36 14 d 18 8 d 18 8 d 18 9 d 18 9 d 18 10 d 18 11 d 17 11 d 18 11 d 18 10 d 18 10 d 18 9 d 18 9 d 36 14 d 18 6 d 18 6 d 9 2
 d 9 2 d 9 2 d 9 1 d 9 2 d 8 1 d 9 X 9 1 d 9 X 9 -1 d 9 X 9 -1 d 9 -1 d 9 -2 d 9 -2 d 9 -2 d 9 -2 d 9 -3 d 18 -5 d 36 -14 d 18 -8 d 18 -9 d 17 -10 d 18 -10 d 18 -10 d 18 -11 d 18 -11 d 18 -11 d 18 -11 d 18 -11 d 18 -10 d 18 -11 d 18 -10 d 18 -10 d 35
 -21 d 36 -22 d 36 -22 d 36 -23 d 36 -25 d 36 -26 d 35 -27 d -54 Y -35 37 d -36 35 d -36 31 d -36 29 d -36 27 d -36 25 d -35 23 d -18 12 d -18 11 d -18 12 d -18 11 d -18 11 d -18 11 d -18 11 d -18 11 d -18 11 d -18 11 d -18 11 d -17 10 d -18 9 d -18
 9 d -36 15 d -18 6 d -9 3 d -9 2 d -9 2 d -9 1 d -9 2 d -9 1 d -9 1 d -45 X -8 -1 d -9 -1 d -9 -2 d -9 -1 d -9 -2 d -9 -3 d -18 -5 d -18 -7 d -36 -16 d -18 -9 d -18 -10 d -18 -10 d -18 -11 d -18 -11 d -17 -11 d -18 -10 d -18 -11 d -18 -10 d -18 -9 d
 -18 -9 d -18 -8 d -36 -16 d -36 -13 d -35 -12 d -36 -11 d -36 -11 d -36 -11 d -36 -11 d -36 -11 d -35 -11 d -36 -10 d -36 -11 d -36 -11 d -36 -11 d -36 -10 d -35 -11 d -36 -10 d -36 -10 d -36 -10 d -36 -10 d -36 -10 d -35 -10 d -36 -10 d f 0 1 1 c 0
 1 0 c black 0 1 0 c 363 1075 m 36 8 d 35 9 d 36 8 d 36 9 d 36 9 d 36 8 d 36 9 d 35 9 d 36 10 d 36 9 d 36 10 d 36 9 d 36 10 d 35 10 d 36 10 d 36 11 d 36 10 d 36 11 d 36 12 d 35 12 d 36 13 d 36 14 d 18 7 d 18 9 d 18 9 d 18 9 d 18 11 d 18 10 d 17 11 d
 18 11 d 18 10 d 18 10 d 18 10 d 18 8 d 36 15 d 18 7 d 18 5 d 9 2 d 9 2 d 9 2 d 9 1 d 9 2 d 8 1 d 9 X 9 1 d 9 X 9 -1 d 9 X 9 -1 d 9 -1 d 9 -2 d 9 -2 d 9 -2 d 9 -2 d 9 -2 d 18 -6 d 36 -14 d 18 -9 d 18 -9 d 17 -9 d 18 -11 d 18 -10 d 18 -11 d 18 -11 d
 18 -11 d 18 -11 d 18 -11 d 18 -10 d 18 -11 d 18 -10 d 18 -11 d 35 -22 d 36 -22 d 36 -23 d 36 -24 d 36 -26 d 36 -27 d 35 -29 d -26 Y -35 33 d -36 31 d -36 29 d -36 28 d -36 25 d -36 24 d -35 23 d -18 11 d -18 11 d -18 11 d -18 11 d -18 11 d -18 11 d
 -18 11 d -18 11 d -18 11 d -18 11 d -18 10 d -17 10 d -18 10 d -18 8 d -36 15 d -18 6 d -9 2 d -9 3 d -9 2 d -9 1 d -9 2 d -9 1 d -9 1 d -9 X -9 1 d -9 X -9 -1 d -9 X -8 -1 d -9 -1 d -9 -2 d -9 -1 d -9 -2 d -9 -3 d -18 -5 d -18 -7 d -36 -15 d -18 -9
 d -18 -10 d -18 -10 d -18 -11 d -18 -11 d -17 -11 d -18 -10 d -18 -11 d -18 -9 d -18 -10 d -18 -8 d -18 -9 d -36 -15 d -36 -13 d -35 -12 d -36 -11 d -36 -11 d -36 -11 d -36 -10 d -36 -11 d -35 -10 d -36 -11 d -36 -10 d -36 -11 d -36 -10 d -36 -10 d
 -35 -10 d -36 -9 d -36 -10 d -36 -10 d -36 -9 d -36 -9 d -35 -10 d -36 -9 d f 0 0 1 c 9 lw black 0 0 1 c 363 1067 m 36 8 d 35 9 d 36 9 d 36 9 d 36 9 d 36 9 d 36 10 d 35 9 d 36 10 d 36 9 d 36 10 d 36 10 d 36 10 d 35 11 d 36 10 d 36 11 d 36 10 d 36 11
 d 36 12 d 35 12 d 36 13 d 36 14 d 18 8 d 18 8 d 18 10 d 18 9 d 18 11 d 18 10 d 17 11 d 18 11 d 18 10 d 18 11 d 18 9 d 18 9 d 36 15 d 18 7 d 18 5 d 9 2 d 9 2 d 9 2 d 9 2 d 9 1 d 8 1 d 9 X 9 1 d 9 X 9 -1 d 9 X 9 -1 d 9 -1 d 9 -2 d 9 -1 d 9 -2 d 9 -3 d
 9 -2 d 18 -6 d 36 -15 d 18 -8 d 18 -9 d 17 -10 d 18 -10 d 18 -11 d 18 -11 d 18 -11 d 18 -11 d 18 -11 d 18 -11 d 18 -11 d 18 -10 d 18 -11 d 18 -11 d 35 -22 d 36 -23 d 36 -24 d 36 -26 d 36 -27 d 36 -29 d 35 -31 d s black 3 lw 381 1069 m -18 X s 363
 1069 m cl s 381 1069 m 18 X s 399 1069 m cl s 381 1069 m 43 Y s 381 1112 m cl s 381 1069 m -47 Y s 381 1022 m cl s 417 1048 m -18 X s 399 1048 m cl s 417 1048 m 17 X s 434 1048 m cl s 417 1048 m 50 Y s 417 1098 m cl s 417 1048 m -57 Y s 417 991 m cl
 s 452 1069 m -18 X s 434 1069 m cl s 452 1069 m 18 X s 470 1069 m cl s 452 1069 m 43 Y s 452 1112 m cl s 452 1069 m -47 Y s 452 1022 m cl s 488 1110 m -18 X s 470 1110 m cl s 488 1110 m 18 X s 506 1110 m cl s 488 1110 m 31 Y s 488 1141 m cl s 488
 1110 m -33 Y s 488 1077 m cl s 524 1120 m -18 X s 506 1120 m cl s 524 1120 m 18 X s 542 1120 m cl s 524 1120 m 29 Y s 524 1149 m cl s 524 1120 m -31 Y s 524 1089 m cl s 560 1110 m -18 X s 542 1110 m cl s 560 1110 m 18 X s 578 1110 m cl s 560 1110 m
 31 Y s 560 1141 m cl s 560 1110 m -33 Y s 560 1077 m cl s 596 1099 m -18 X s 578 1099 m cl s 596 1099 m 18 X s 614 1099 m cl s 596 1099 m 34 Y s 596 1133 m cl s 596 1099 m -37 Y s 596 1062 m cl s 632 1143 m -18 X s 614 1143 m cl s 632 1143 m 17 X s
 649 1143 m cl s 632 1143 m 24 Y s 632 1167 m cl s 632 1143 m -26 Y s 632 1117 m cl s 667 1149 m -18 X s 649 1149 m cl s 667 1149 m 18 X s 685 1149 m cl s 667 1149 m 24 Y s 667 1173 m cl s 667 1149 m -24 Y s 667 1125 m cl s 703 1183 m -18 X s 685
 1183 m cl s 703 1183 m 18 X s 721 1183 m cl s 703 1183 m 18 Y s 703 1201 m cl s 703 1183 m -19 Y s 703 1164 m cl s 739 1143 m -18 X s 721 1143 m cl s 739 1143 m 18 X s 757 1143 m cl s 739 1143 m 24 Y s 739 1167 m cl s 739 1143 m -26 Y s 739 1117 m
 cl s 775 1165 m -18 X s 757 1165 m cl s 775 1165 m 18 X s 793 1165 m cl s 775 1165 m 21 Y s 775 1186 m cl s 775 1165 m -21 Y s 775 1144 m cl s 811 1175 m -18 X s 793 1175 m cl s 811 1175 m 18 X s 829 1175 m cl s 811 1175 m 19 Y s 811 1194 m cl s 811
 1175 m -20 Y s 811 1155 m cl s 847 1186 m -18 X s 829 1186 m cl s 847 1186 m 17 X s 864 1186 m cl s 847 1186 m 18 Y s 847 1204 m cl s 847 1186 m -18 Y s 847 1168 m cl s 882 1218 m -18 X s 864 1218 m cl s 882 1218 m 18 X s 900 1218 m cl s 882 1218 m
 14 Y s 882 1232 m cl s 882 1218 m -14 Y s 882 1204 m cl s 918 1205 m -18 X s 900 1205 m cl s 918 1205 m 18 X s 936 1205 m cl s 918 1205 m 16 Y s 918 1221 m cl s 918 1205 m -15 Y s 918 1190 m cl s 954 1229 m -18 X s 936 1229 m cl s 954 1229 m 18 X s
 972 1229 m cl s 954 1229 m 13 Y s 954 1242 m cl s 954 1229 m -13 Y s 954 1216 m cl s 990 1221 m -18 X s 972 1221 m cl s 990 1221 m 18 X s 1008 1221 m cl s 990 1221 m 13 Y s 990 1234 m cl s 990 1221 m -15 Y s 990 1206 m cl s 1026 1242 m -18 X s 1008
 1242 m cl s 1026 1242 m 18 X s 1044 1242 m cl s 1026 1242 m 12 Y s 1026 1254 m cl s 1026 1242 m -12 Y s 1026 1230 m cl s 1062 1275 m -18 X s 1044 1275 m cl s 1062 1275 m 17 X s 1079 1275 m cl s 1062 1275 m 10 Y s 1062 1285 m cl s 1062 1275 m -9 Y s
 1062 1266 m cl s 1097 1257 m -18 X s 1079 1257 m cl s 1097 1257 m 18 X s 1115 1257 m cl s 1097 1257 m 11 Y s 1097 1268 m cl s 1097 1257 m -10 Y s 1097 1247 m cl s 1133 1292 m -18 X s 1115 1292 m cl s 1133 1292 m 18 X s 1151 1292 m cl s 1133 1292 m 8
 Y s 1133 1300 m cl s 1133 1292 m -9 Y s 1133 1283 m cl s 1169 1306 m -18 X s 1151 1306 m cl s 1169 1306 m 18 X s 1187 1306 m cl s 1169 1306 m 7 Y s 1169 1313 m cl s 1169 1306 m -7 Y s 1169 1299 m cl s 1205 1317 m -18 X s 1187 1317 m cl s 1205 1317 m
 18 X s 1223 1317 m cl s 1205 1317 m 6 Y s 1205 1323 m cl s 1205 1317 m -7 Y s 1205 1310 m cl s 1241 1344 m -18 X s 1223 1344 m cl s 1241 1344 m 18 X s 1259 1344 m cl s 1241 1344 m 6 Y s 1241 1350 m cl s 1241 1344 m -5 Y s 1241 1339 m cl s 1276 1366
 m -17 X s 1259 1366 m cl s 1276 1366 m 18 X s 1294 1366 m cl s 1276 1366 m 5 Y s 1276 1371 m cl s 1276 1366 m -4 Y s 1276 1362 m cl s 1312 1383 m -18 X s 1294 1383 m cl s 1312 1383 m 18 X s 1330 1383 m cl s 1312 1383 m 4 Y s 1312 1387 m cl s 1312
 1383 m -5 Y s 1312 1378 m cl s 1348 1394 m -18 X s 1330 1394 m cl s 1348 1394 m 18 X s 1366 1394 m cl s 1348 1394 m 4 Y s 1348 1398 m cl s 1348 1394 m -4 Y s 1348 1390 m cl s 1384 1415 m -18 X s 1366 1415 m cl s 1384 1415 m 18 X s 1402 1415 m cl s
 1384 1415 m 3 Y s 1384 1418 m cl s 1384 1415 m -4 Y s 1384 1411 m cl s 1420 1429 m -18 X s 1402 1429 m cl s 1420 1429 m 18 X s 1438 1429 m cl s 1420 1429 m 4 Y s 1420 1433 m cl s 1420 1429 m -3 Y s 1420 1426 m cl s 1456 1440 m -18 X s 1438 1440 m cl
 s 1456 1440 m 18 X s 1474 1440 m cl s 1456 1440 m 3 Y s 1456 1443 m cl s 1456 1440 m -3 Y s 1456 1437 m cl s 1491 1443 m -17 X s 1474 1443 m cl s 1491 1443 m 18 X s 1509 1443 m cl s 1491 1443 m 3 Y s 1491 1446 m cl s 1491 1443 m -3 Y s 1491 1440 m
 cl s 1527 1446 m -18 X s 1509 1446 m cl s 1527 1446 m 18 X s 1545 1446 m cl s 1527 1446 m 3 Y s 1527 1449 m cl s 1527 1446 m -2 Y s 1527 1444 m cl s 1563 1445 m -18 X s 1545 1445 m cl s 1563 1445 m 18 X s 1581 1445 m cl s 1563 1445 m 3 Y s 1563 1448
 m cl s 1563 1445 m -3 Y s 1563 1442 m cl s 1599 1437 m -18 X s 1581 1437 m cl s 1599 1437 m 18 X s 1617 1437 m cl s 1599 1437 m 2 Y s 1599 1439 m cl s 1599 1437 m -3 Y s 1599 1434 m cl s 1635 1422 m -18 X s 1617 1422 m cl s 1635 1422 m 18 X s 1653
 1422 m cl s 1635 1422 m 4 Y s 1635 1426 m cl s 1635 1422 m -3 Y s 1635 1419 m cl s 1671 1399 m -18 X s 1653 1399 m cl s 1671 1399 m 18 X s 1689 1399 m cl s 1671 1399 m 4 Y s 1671 1403 m cl s 1671 1399 m -3 Y s 1671 1396 m cl s 1706 1392 m -17 X s
 1689 1392 m cl s 1706 1392 m 18 X s 1724 1392 m cl s 1706 1392 m 4 Y s 1706 1396 m cl s 1706 1392 m -4 Y s 1706 1388 m cl s 1742 1368 m -18 X s 1724 1368 m cl s 1742 1368 m 18 X s 1760 1368 m cl s 1742 1368 m 4 Y s 1742 1372 m cl s 1742 1368 m -5 Y
 s 1742 1363 m cl s 1778 1333 m -18 X s 1760 1333 m cl s 1778 1333 m 18 X s 1796 1333 m cl s 1778 1333 m 6 Y s 1778 1339 m cl s 1778 1333 m -6 Y s 1778 1327 m cl s 1814 1320 m -18 X s 1796 1320 m cl s 1814 1320 m 18 X s 1832 1320 m cl s 1814 1320 m 7
 Y s 1814 1327 m cl s 1814 1320 m -6 Y s 1814 1314 m cl s 1850 1292 m -18 X s 1832 1292 m cl s 1850 1292 m 18 X s 1868 1292 m cl s 1850 1292 m 9 Y s 1850 1301 m cl s 1850 1292 m -8 Y s 1850 1284 m cl s 1886 1274 m -18 X s 1868 1274 m cl s 1886 1274 m
 18 X s 1904 1274 m cl s 1886 1274 m 10 Y s 1886 1284 m cl s 1886 1274 m -9 Y s 1886 1265 m cl s 1921 1233 m -17 X s 1904 1233 m cl s 1921 1233 m 18 X s 1939 1233 m cl s 1921 1233 m 13 Y s 1921 1246 m cl s 1921 1233 m -13 Y s 1921 1220 m cl s 1957
 1233 m -18 X s 1939 1233 m cl s 1957 1233 m 18 X s 1975 1233 m cl s 1957 1233 m 13 Y s 1957 1246 m cl s 1957 1233 m -13 Y s 1957 1220 m cl s 1993 1231 m -18 X s 1975 1231 m cl s 1993 1231 m 18 X s 2011 1231 m cl s 1993 1231 m 13 Y s 1993 1244 m cl s
 1993 1231 m -13 Y s 1993 1218 m cl s 2029 1200 m -18 X s 2011 1200 m cl s 2029 1200 m 18 X s 2047 1200 m cl s 2029 1200 m 16 Y s 2029 1216 m cl s 2029 1200 m -17 Y s 2029 1183 m cl s 2065 1160 m -18 X s 2047 1160 m cl s 2065 1160 m 18 X s 2083 1160
 m cl s 2065 1160 m 22 Y s 2065 1182 m cl s 2065 1160 m -22 Y s 2065 1138 m cl s 2101 1128 m -18 X s 2083 1128 m cl s 2101 1128 m 18 X s 2119 1128 m cl s 2101 1128 m 28 Y s 2101 1156 m cl s 2101 1128 m -29 Y s 2101 1099 m cl s 2136 1099 m -17 X s
 2119 1099 m cl s 2136 1099 m 18 X s 2154 1099 m cl s 2136 1099 m 34 Y s 2136 1133 m cl s 2136 1099 m -37 Y s 2136 1062 m cl s 381 1069 417 1048 452 1069 488 1110 524 1120 560 1110 596 1099 632 1143 667 1149 703 1183 739 1143 775 1165 811 1175 847
 1186 882 1218 918 1205 954 1229 990 1221 1026 1242 1062 1275 1097 1257 1133 1292 1169 1306 1205 1317 1241 1344 1276 1366 1312 1383 1348 1394 1384 1415 1420 1429 1456 1440 1491 1443 1527 1446 1563 1445 1599 1437 1635 1422 1671 1399 1706 1392 1742
 1368 1778 1333 1814 1320 1850 1292 1886 1274 1921 1233 1957 1233 1993 1231 2029 1200 2065 1160 2101 1128 2136 1099 50 { m20} R 0.52 0.76 0.64 c[ 4 8] 0 sd 9 lw black 0.52 0.76 0.64 c 363 1067 m 36 8 d 35 9 d 36 9 d 36 9 d 36 9 d 36 9 d 36 10 d 35 9
 d 36 10 d 36 9 d 36 10 d 36 10 d 36 10 d 35 11 d 36 10 d 36 11 d 36 10 d 36 11 d 36 11 d 35 11 d 36 12 d 18 6 d 18 5 d 18 6 d 18 6 d 18 6 d 18 6 d 18 6 d 18 6 d 35 12 d 36 10 d 18 4 d 18 4 d 18 4 d 18 3 d 18 2 d 18 2 d 18 2 d 18 1 d 17 1 d 54 X 18
 -1 d 18 -2 d 18 -2 d 18 -2 d 18 -3 d 18 -3 d 18 -4 d 18 -4 d 35 -9 d 36 -11 d 36 -13 d 36 -15 d 18 -8 d 18 -9 d 18 -9 d 18 -9 d 17 -10 d 18 -10 d 18 -11 d 18 -11 d 18 -12 d 18 -12 d 18 -12 d 18 -13 d 36 -27 d 36 -29 d 35 -31 d s 0.54 0.66 0.63 c
 black 0.54 0.66 0.63 c 941 634 m 31 81 d s 972 715 m 36 90 d 36 83 d 35 78 d 36 71 d 36 65 d 18 30 d 18 29 d 18 27 d 18 26 d 18 24 d 18 23 d 9 11 d 8 10 d 9 10 d 9 10 d 9 9 d 9 9 d 9 8 d 9 8 d 18 15 d 18 13 d 36 23 d 18 9 d 9 3 d 9 4 d 9 3 d 9 3 d 9
 2 d 9 2 d 9 1 d 8 2 d 9 X 9 1 d 9 X 9 -1 d 9 X 9 -2 d 9 -1 d 9 -2 d 9 -2 d 9 -3 d 9 -3 d 9 -3 d 18 -8 d 36 -21 d 18 -13 d 18 -14 d 8 -7 d 9 -8 d 9 -9 d 9 -9 d 9 -9 d 9 -9 d 9 -10 d 9 -11 d 9 -10 d 9 -11 d 18 -24 d 18 -25 d 18 -26 d 18 -28 d 18 -29 d
 36 -64 d 35 -70 d 36 -75 d 36 -82 d 36 -88 d 36 -94 d 4 -12 d s black[  ] 0 sd 3 lw 363 634 m 1791 X s 450 659 m -25 Y s 494 646 m -12 Y s 538 646 m -12 Y s 581 646 m -12 Y s 625 646 m -12 Y s 669 659 m -25 Y s 712 646 m -12 Y s 756 646 m -12 Y s
 800 646 m -12 Y s 843 646 m -12 Y s 887 659 m -25 Y s 931 646 m -12 Y s 975 646 m -12 Y s 1018 646 m -12 Y s 1062 646 m -12 Y s 1106 659 m -25 Y s 1149 646 m -12 Y s 1193 646 m -12 Y s 1237 646 m -12 Y s 1280 646 m -12 Y s 1324 659 m -25 Y s 1368
 646 m -12 Y s 1412 646 m -12 Y s 1455 646 m -12 Y s 1499 646 m -12 Y s 1543 659 m -25 Y s 1586 646 m -12 Y s 1630 646 m -12 Y s 1674 646 m -12 Y s 1717 646 m -12 Y s 1761 659 m -25 Y s 1805 646 m -12 Y s 1848 646 m -12 Y s 1892 646 m -12 Y s 1936
 646 m -12 Y s 1980 659 m -25 Y s 450 659 m -25 Y s 407 646 m -12 Y s 363 646 m -12 Y s 1980 659 m -25 Y s 2023 646 m -12 Y s 2067 646 m -12 Y s 2111 646 m -12 Y s 2154 646 m -12 Y s 363 1484 m 1791 X s 450 1459 m 25 Y s 494 1471 m 13 Y s 538 1471 m
 13 Y s 581 1471 m 13 Y s 625 1471 m 13 Y s 669 1459 m 25 Y s 712 1471 m 13 Y s 756 1471 m 13 Y s 800 1471 m 13 Y s 843 1471 m 13 Y s 887 1459 m 25 Y s 931 1471 m 13 Y s 975 1471 m 13 Y s 1018 1471 m 13 Y s 1062 1471 m 13 Y s 1106 1459 m 25 Y s 1149
 1471 m 13 Y s 1193 1471 m 13 Y s 1237 1471 m 13 Y s 1280 1471 m 13 Y s 1324 1459 m 25 Y s 1368 1471 m 13 Y s 1412 1471 m 13 Y s 1455 1471 m 13 Y s 1499 1471 m 13 Y s 1543 1459 m 25 Y s 1586 1471 m 13 Y s 1630 1471 m 13 Y s 1674 1471 m 13 Y s 1717
 1471 m 13 Y s 1761 1459 m 25 Y s 1805 1471 m 13 Y s 1848 1471 m 13 Y s 1892 1471 m 13 Y s 1936 1471 m 13 Y s 1980 1459 m 25 Y s 450 1459 m 25 Y s 407 1471 m 13 Y s 363 1471 m 13 Y s 1980 1459 m 25 Y s 2023 1471 m 13 Y s 2067 1471 m 13 Y s 2111 1471
 m 13 Y s 2154 1471 m 13 Y s 363 634 m 850 Y s 417 634 m -54 X s 390 684 m -27 X s 390 714 m -27 X s 390 734 m -27 X s 390 751 m -27 X s 390 764 m -27 X s 390 775 m -27 X s 390 785 m -27 X s 390 793 m -27 X s 417 801 m -54 X s 390 851 m -27 X s 390
 881 m -27 X s 390 902 m -27 X s 390 918 m -27 X s 390 931 m -27 X s 390 943 m -27 X s 390 952 m -27 X s 390 961 m -27 X s 417 969 m -54 X s 390 1019 m -27 X s 390 1048 m -27 X s 390 1069 m -27 X s 390 1086 m -27 X s 390 1099 m -27 X s 390 1110 m -27
 X s 390 1120 m -27 X s 390 1128 m -27 X s 417 1136 m -54 X s 390 1186 m -27 X s 390 1216 m -27 X s 390 1237 m -27 X s 390 1253 m -27 X s 390 1266 m -27 X s 390 1277 m -27 X s 390 1287 m -27 X s 390 1296 m -27 X s 417 1303 m -54 X s 390 1354 m -27 X
 s 390 1383 m -27 X s 390 1404 m -27 X s 390 1420 m -27 X s 390 1434 m -27 X s 390 1445 m -27 X s 390 1455 m -27 X s 390 1463 m -27 X s 417 1471 m -54 X s 2154 634 m 850 Y s 2101 634 m 53 X s 2127 684 m 27 X s 2127 714 m 27 X s 2127 734 m 27 X s 2127
 751 m 27 X s 2127 764 m 27 X s 2127 775 m 27 X s 2127 785 m 27 X s 2127 793 m 27 X s 2101 801 m 53 X s 2127 851 m 27 X s 2127 881 m 27 X s 2127 902 m 27 X s 2127 918 m 27 X s 2127 931 m 27 X s 2127 943 m 27 X s 2127 952 m 27 X s 2127 961 m 27 X s
 2101 969 m 53 X s 2127 1019 m 27 X s 2127 1048 m 27 X s 2127 1069 m 27 X s 2127 1086 m 27 X s 2127 1099 m 27 X s 2127 1110 m 27 X s 2127 1120 m 27 X s 2127 1128 m 27 X s 2101 1136 m 53 X s 2127 1186 m 27 X s 2127 1216 m 27 X s 2127 1237 m 27 X s
 2127 1253 m 27 X s 2127 1266 m 27 X s 2127 1277 m 27 X s 2127 1287 m 27 X s 2127 1296 m 27 X s 2101 1303 m 53 X s 2127 1354 m 27 X s 2127 1383 m 27 X s 2127 1404 m 27 X s 2127 1420 m 27 X s 2127 1434 m 27 X s 2127 1445 m 27 X s 2127 1455 m 27 X s
 2127 1463 m 27 X s 2101 1471 m 53 X s
 gsave  2268 1077 0 461 C 677.708 1215.31 t 0 r /Helvetica findfont 58.7189 sf 0 0 m (4mu) show NC gr  1 1 1 c 453 161 454 1269 bf black
 gsave  2268 1077 0 461 C 566.929 1371.71 t 0 r /Helvetica-Bold findfont 48.9324 sf 0 0 m (MC15) show NC gr  510 1390 m20
 gsave  2268 1077 0 461 C 566.929 1293.51 t 0 r /Helvetica-Bold findfont 48.9324 sf 0 0 m (Projection of Signal pdf) show NC gr  0 0 1 c 9 lw 471 1309 m 79 X s black 3 lw 1 1 1 c 2268 461 0 0 bf black 1 1 1 c 1791 364 363 74 bf black 1791 364 363 74
 bl 363 74 m 1791 X s
 gsave  2268 461 0 0 C 1915.83 13.0329 t 0 r /Helvetica findfont 22.9045 sf 0 0 m (4l Invariant Mass \(GeV\)) show NC gr  450 85 m -11 Y s 494 79 m -5 Y s 538 79 m -5 Y s 581 79 m -5 Y s 625 79 m -5 Y s 669 85 m -11 Y s 712 79 m -5 Y s 756 79 m -5 Y
 s 800 79 m -5 Y s 843 79 m -5 Y s 887 85 m -11 Y s 931 79 m -5 Y s 975 79 m -5 Y s 1018 79 m -5 Y s 1062 79 m -5 Y s 1106 85 m -11 Y s 1149 79 m -5 Y s 1193 79 m -5 Y s 1237 79 m -5 Y s 1280 79 m -5 Y s 1324 85 m -11 Y s 1368 79 m -5 Y s 1412 79 m
 -5 Y s 1455 79 m -5 Y s 1499 79 m -5 Y s 1543 85 m -11 Y s 1586 79 m -5 Y s 1630 79 m -5 Y s 1674 79 m -5 Y s 1717 79 m -5 Y s 1761 85 m -11 Y s 1805 79 m -5 Y s 1848 79 m -5 Y s 1892 79 m -5 Y s 1936 79 m -5 Y s 1980 85 m -11 Y s 450 85 m -11 Y s
 407 79 m -5 Y s 363 79 m -5 Y s 1980 85 m -11 Y s 2023 79 m -5 Y s 2067 79 m -5 Y s 2111 79 m -5 Y s 2154 79 m -5 Y s
 gsave  2268 461 0 0 C 430.084 55.3896 t 0 r /Helvetica findfont 22.9045 sf 0 0 m (750) show NC gr 
 gsave  2268 461 0 0 C 648.384 55.3896 t 0 r /Helvetica findfont 22.9045 sf 0 0 m (800) show NC gr 
 gsave  2268 461 0 0 C 866.685 55.3896 t 0 r /Helvetica findfont 22.9045 sf 0 0 m (850) show NC gr 
 gsave  2268 461 0 0 C 1084.99 55.3896 t 0 r /Helvetica findfont 22.9045 sf 0 0 m (900) show NC gr 
 gsave  2268 461 0 0 C 1303.29 55.3896 t 0 r /Helvetica findfont 22.9045 sf 0 0 m (950) show NC gr 
 gsave  2268 461 0 0 C 1515.07 55.3896 t 0 r /Helvetica findfont 22.9045 sf 0 0 m (1000) show NC gr 
 gsave  2268 461 0 0 C 1733.37 55.3896 t 0 r /Helvetica findfont 22.9045 sf 0 0 m (1050) show NC gr 
 gsave  2268 461 0 0 C 1951.67 55.3896 t 0 r /Helvetica findfont 22.9045 sf 0 0 m (1100) show NC gr  363 438 m 1791 X s 450 427 m 11 Y s 494 433 m 5 Y s 538 433 m 5 Y s 581 433 m 5 Y s 625 433 m 5 Y s 669 427 m 11 Y s 712 433 m 5 Y s 756 433 m 5 Y s
 800 433 m 5 Y s 843 433 m 5 Y s 887 427 m 11 Y s 931 433 m 5 Y s 975 433 m 5 Y s 1018 433 m 5 Y s 1062 433 m 5 Y s 1106 427 m 11 Y s 1149 433 m 5 Y s 1193 433 m 5 Y s 1237 433 m 5 Y s 1280 433 m 5 Y s 1324 427 m 11 Y s 1368 433 m 5 Y s 1412 433 m 5
 Y s 1455 433 m 5 Y s 1499 433 m 5 Y s 1543 427 m 11 Y s 1586 433 m 5 Y s 1630 433 m 5 Y s 1674 433 m 5 Y s 1717 433 m 5 Y s 1761 427 m 11 Y s 1805 433 m 5 Y s 1848 433 m 5 Y s 1892 433 m 5 Y s 1936 433 m 5 Y s 1980 427 m 11 Y s 450 427 m 11 Y s 407
 433 m 5 Y s 363 433 m 5 Y s 1980 427 m 11 Y s 2023 433 m 5 Y s 2067 433 m 5 Y s 2111 433 m 5 Y s 2154 433 m 5 Y s 363 74 m 364 Y s 417 74 m -54 X s 390 81 m -27 X s 390 88 m -27 X s 390 96 m -27 X s 390 103 m -27 X s 417 110 m -54 X s 390 118 m -27
 X s 390 125 m -27 X s 390 132 m -27 X s 390 139 m -27 X s 417 147 m -54 X s 390 154 m -27 X s 390 161 m -27 X s 390 169 m -27 X s 390 176 m -27 X s 417 183 m -54 X s 390 190 m -27 X s 390 198 m -27 X s 390 205 m -27 X s 390 212 m -27 X s 417 220 m
 -54 X s 390 227 m -27 X s 390 234 m -27 X s 390 241 m -27 X s 390 249 m -27 X s 417 256 m -54 X s 390 263 m -27 X s 390 271 m -27 X s 390 278 m -27 X s 390 285 m -27 X s 417 293 m -54 X s 390 300 m -27 X s 390 307 m -27 X s 390 314 m -27 X s 390 322
 m -27 X s 417 329 m -54 X s 390 336 m -27 X s 390 344 m -27 X s 390 351 m -27 X s 390 358 m -27 X s 417 365 m -54 X s 390 373 m -27 X s 390 380 m -27 X s 390 387 m -27 X s 390 395 m -27 X s 417 402 m -54 X s 390 409 m -27 X s 390 416 m -27 X s 390
 424 m -27 X s 390 431 m -27 X s 417 438 m -54 X s
 gsave  2268 461 0 0 C 329.08 65.1643 t 0 r /Helvetica findfont 22.9045 sf 0 0 m (\2555) show NC gr 
 gsave  2268 461 0 0 C 329.08 101.005 t 0 r /Helvetica findfont 22.9045 sf 0 0 m (\2554) show NC gr 
 gsave  2268 461 0 0 C 329.08 140.103 t 0 r /Helvetica findfont 22.9045 sf 0 0 m (\2553) show NC gr 
 gsave  2268 461 0 0 C 329.08 175.944 t 0 r /Helvetica findfont 22.9045 sf 0 0 m (\2552) show NC gr 
 gsave  2268 461 0 0 C 332.338 211.784 t 0 r /Helvetica findfont 22.9045 sf 0 0 m (\2551) show NC gr 
 gsave  2268 461 0 0 C 335.596 247.624 t 0 r /Helvetica findfont 22.9045 sf 0 0 m (0) show NC gr 
 gsave  2268 461 0 0 C 338.854 283.465 t 0 r /Helvetica findfont 22.9045 sf 0 0 m (1) show NC gr 
 gsave  2268 461 0 0 C 335.596 319.305 t 0 r /Helvetica findfont 22.9045 sf 0 0 m (2) show NC gr 
 gsave  2268 461 0 0 C 335.596 358.403 t 0 r /Helvetica findfont 22.9045 sf 0 0 m (3) show NC gr 
 gsave  2268 461 0 0 C 335.596 394.244 t 0 r /Helvetica findfont 22.9045 sf 0 0 m (4) show NC gr 
 gsave  2268 461 0 0 C 335.596 430.084 t 0 r /Helvetica findfont 22.9045 sf 0 0 m (5) show NC gr  2154 74 m 364 Y s 2101 74 m 53 X s 2127 81 m 27 X s 2127 88 m 27 X s 2127 96 m 27 X s 2127 103 m 27 X s 2101 110 m 53 X s 2127 118 m 27 X s 2127 125 m
 27 X s 2127 132 m 27 X s 2127 139 m 27 X s 2101 147 m 53 X s 2127 154 m 27 X s 2127 161 m 27 X s 2127 169 m 27 X s 2127 176 m 27 X s 2101 183 m 53 X s 2127 190 m 27 X s 2127 198 m 27 X s 2127 205 m 27 X s 2127 212 m 27 X s 2101 220 m 53 X s 2127 227
 m 27 X s 2127 234 m 27 X s 2127 241 m 27 X s 2127 249 m 27 X s 2101 256 m 53 X s 2127 263 m 27 X s 2127 271 m 27 X s 2127 278 m 27 X s 2127 285 m 27 X s 2101 293 m 53 X s 2127 300 m 27 X s 2127 307 m 27 X s 2127 314 m 27 X s 2127 322 m 27 X s 2101
 329 m 53 X s 2127 336 m 27 X s 2127 344 m 27 X s 2127 351 m 27 X s 2127 358 m 27 X s 2101 365 m 53 X s 2127 373 m 27 X s 2127 380 m 27 X s 2127 387 m 27 X s 2127 395 m 27 X s 2101 402 m 53 X s 2127 409 m 27 X s 2127 416 m 27 X s 2127 424 m 27 X s
 2127 431 m 27 X s 2101 438 m 53 X s 6 lw 0.2 0.8 0.2 c black 3 lw 0.2 0.8 0.2 c 363 256 m -1 Y 36 X -19 Y 35 X 6 Y 36 X 30 Y 36 X 1 Y 36 X -23 Y 36 X -21 Y 36 X 40 Y 35 X -4 Y 36 X 44 Y 36 X -83 Y 36 X 17 Y 36 X -2 Y 36 X 1 Y 35 X 50 Y 36 X -56 Y 36
 X 32 Y 36 X -53 Y 36 X 26 Y 36 X 76 Y 35 X -111 Y 36 X 79 Y 36 X 4 Y 36 X -38 Y 36 X 48 Y 36 X 12 Y 35 X -36 Y 36 X -75 Y 36 X 31 Y 36 X 10 Y 36 X 11 Y 36 X -31 Y 35 X 35 Y 36 X 37 Y 36 X -2 Y 36 X -20 Y 36 X -70 Y 36 X 114 Y 35 X -38 Y 36 X -83 Y
 36 X 57 Y 36 X -25 Y 36 X 17 Y 36 X -61 Y 35 X 71 Y 36 X 57 Y 36 X -23 Y 36 X -29 Y 36 X -6 Y 36 X 1 Y 35 X 3 Y f 6 lw black 0.2 0.8 0.2 c black 363 255 m 36 X -19 Y 35 X 6 Y 36 X 30 Y 36 X 1 Y 36 X -23 Y 36 X -21 Y 36 X 40 Y 35 X -4 Y 36 X 44 Y 36
 X -83 Y 36 X 17 Y 36 X -2 Y 36 X 1 Y 35 X 50 Y 36 X -56 Y 36 X 32 Y 36 X -53 Y 36 X 26 Y 36 X 76 Y 35 X -111 Y 36 X 79 Y 36 X 4 Y 36 X -38 Y 36 X 48 Y 36 X 12 Y 35 X -36 Y 36 X -75 Y 36 X 31 Y 36 X 10 Y 36 X 11 Y 36 X -31 Y 35 X 35 Y 36 X 37 Y 36 X
 -2 Y 36 X -20 Y 36 X -70 Y 36 X 114 Y 35 X -38 Y 36 X -83 Y 36 X 57 Y 36 X -25 Y 36 X 17 Y 36 X -61 Y 35 X 71 Y 36 X 57 Y 36 X -23 Y 36 X -29 Y 36 X -6 Y 36 X 1 Y 35 X s 3 lw 363 74 m 1791 X s 450 85 m -11 Y s 494 79 m -5 Y s 538 79 m -5 Y s 581 79
 m -5 Y s 625 79 m -5 Y s 669 85 m -11 Y s 712 79 m -5 Y s 756 79 m -5 Y s 800 79 m -5 Y s 843 79 m -5 Y s 887 85 m -11 Y s 931 79 m -5 Y s 975 79 m -5 Y s 1018 79 m -5 Y s 1062 79 m -5 Y s 1106 85 m -11 Y s 1149 79 m -5 Y s 1193 79 m -5 Y s 1237 79
 m -5 Y s 1280 79 m -5 Y s 1324 85 m -11 Y s 1368 79 m -5 Y s 1412 79 m -5 Y s 1455 79 m -5 Y s 1499 79 m -5 Y s 1543 85 m -11 Y s 1586 79 m -5 Y s 1630 79 m -5 Y s 1674 79 m -5 Y s 1717 79 m -5 Y s 1761 85 m -11 Y s 1805 79 m -5 Y s 1848 79 m -5 Y s
 1892 79 m -5 Y s 1936 79 m -5 Y s 1980 85 m -11 Y s 450 85 m -11 Y s 407 79 m -5 Y s 363 79 m -5 Y s 1980 85 m -11 Y s 2023 79 m -5 Y s 2067 79 m -5 Y s 2111 79 m -5 Y s 2154 79 m -5 Y s 363 438 m 1791 X s 450 427 m 11 Y s 494 433 m 5 Y s 538 433 m
 5 Y s 581 433 m 5 Y s 625 433 m 5 Y s 669 427 m 11 Y s 712 433 m 5 Y s 756 433 m 5 Y s 800 433 m 5 Y s 843 433 m 5 Y s 887 427 m 11 Y s 931 433 m 5 Y s 975 433 m 5 Y s 1018 433 m 5 Y s 1062 433 m 5 Y s 1106 427 m 11 Y s 1149 433 m 5 Y s 1193 433 m 5
 Y s 1237 433 m 5 Y s 1280 433 m 5 Y s 1324 427 m 11 Y s 1368 433 m 5 Y s 1412 433 m 5 Y s 1455 433 m 5 Y s 1499 433 m 5 Y s 1543 427 m 11 Y s 1586 433 m 5 Y s 1630 433 m 5 Y s 1674 433 m 5 Y s 1717 433 m 5 Y s 1761 427 m 11 Y s 1805 433 m 5 Y s 1848
 433 m 5 Y s 1892 433 m 5 Y s 1936 433 m 5 Y s 1980 427 m 11 Y s 450 427 m 11 Y s 407 433 m 5 Y s 363 433 m 5 Y s 1980 427 m 11 Y s 2023 433 m 5 Y s 2067 433 m 5 Y s 2111 433 m 5 Y s 2154 433 m 5 Y s 363 74 m 364 Y s 417 74 m -54 X s 390 81 m -27 X s
 390 88 m -27 X s 390 96 m -27 X s 390 103 m -27 X s 417 110 m -54 X s 390 118 m -27 X s 390 125 m -27 X s 390 132 m -27 X s 390 139 m -27 X s 417 147 m -54 X s 390 154 m -27 X s 390 161 m -27 X s 390 169 m -27 X s 390 176 m -27 X s 417 183 m -54 X s
 390 190 m -27 X s 390 198 m -27 X s 390 205 m -27 X s 390 212 m -27 X s 417 220 m -54 X s 390 227 m -27 X s 390 234 m -27 X s 390 241 m -27 X s 390 249 m -27 X s 417 256 m -54 X s 390 263 m -27 X s 390 271 m -27 X s 390 278 m -27 X s 390 285 m -27 X
 s 417 293 m -54 X s 390 300 m -27 X s 390 307 m -27 X s 390 314 m -27 X s 390 322 m -27 X s 417 329 m -54 X s 390 336 m -27 X s 390 344 m -27 X s 390 351 m -27 X s 390 358 m -27 X s 417 365 m -54 X s 390 373 m -27 X s 390 380 m -27 X s 390 387 m -27
 X s 390 395 m -27 X s 417 402 m -54 X s 390 409 m -27 X s 390 416 m -27 X s 390 424 m -27 X s 390 431 m -27 X s 417 438 m -54 X s 2154 74 m 364 Y s 2101 74 m 53 X s 2127 81 m 27 X s 2127 88 m 27 X s 2127 96 m 27 X s 2127 103 m 27 X s 2101 110 m 53 X
 s 2127 118 m 27 X s 2127 125 m 27 X s 2127 132 m 27 X s 2127 139 m 27 X s 2101 147 m 53 X s 2127 154 m 27 X s 2127 161 m 27 X s 2127 169 m 27 X s 2127 176 m 27 X s 2101 183 m 53 X s 2127 190 m 27 X s 2127 198 m 27 X s 2127 205 m 27 X s 2127 212 m 27
 X s 2101 220 m 53 X s 2127 227 m 27 X s 2127 234 m 27 X s 2127 241 m 27 X s 2127 249 m 27 X s 2101 256 m 53 X s 2127 263 m 27 X s 2127 271 m 27 X s 2127 278 m 27 X s 2127 285 m 27 X s 2101 293 m 53 X s 2127 300 m 27 X s 2127 307 m 27 X s 2127 314 m
 27 X s 2127 322 m 27 X s 2101 329 m 53 X s 2127 336 m 27 X s 2127 344 m 27 X s 2127 351 m 27 X s 2127 358 m 27 X s 2101 365 m 53 X s 2127 373 m 27 X s 2127 380 m 27 X s 2127 387 m 27 X s 2127 395 m 27 X s 2101 402 m 53 X s 2127 409 m 27 X s 2127 416
 m 27 X s 2127 424 m 27 X s 2127 431 m 27 X s 2101 438 m 53 X s
 gr  gr showpage
end
%%EOF
