%!PS-Adobe-2.0 EPSF-2.0
%%BoundingBox:  0 0 567 384
%%Title: H4l2015_plotfit/VBF_mass_signal_700_H4l_2mu2e.eps: 
%%Creator: ROOT Version 5.34/07
%%CreationDate: Mon Nov  9 16:28:32 2015
%%EndComments
%%BeginProlog
80 dict begin
/s {stroke} def /l {lineto} def /m {moveto} def /t {translate} def
/r {rotate} def /rl {roll}  def /R {repeat} def
/d {rlineto} def /rm {rmoveto} def /gr {grestore} def /f {eofill} def
/c {setrgbcolor} def /black {0 setgray} def /sd {setdash} def
/cl {closepath} def /sf {scalefont setfont} def /lw {setlinewidth} def
/box {m dup 0 exch d exch 0 d 0 exch neg d cl} def
/NC{systemdict begin initclip end}def/C{NC box clip newpath}def
/bl {box s} def /bf {box f} def /Y { 0 exch d} def /X { 0 d} def 
/K {{pop pop 0 moveto} exch kshow} bind def
/ita {/ang 15 def gsave [1 0 ang dup sin exch cos div 1 0 0] concat} def 
/mp {newpath /y exch def /x exch def} def
/side {[w .77 mul w .23 mul] .385 w mul sd w 0 l currentpoint t -144 r} def
/mr {mp x y w2 0 360 arc} def /m24 {mr s} def /m20 {mr f} def
/mb {mp x y w2 add m w2 neg 0 d 0 w neg d w 0 d 0 w d cl} def
/mt {mp x y w2 add m w2 neg w neg d w 0 d cl} def
/m21 {mb f} def /m25 {mb s} def /m22 {mt f} def /m26{mt s} def
/m23 {mp x y w2 sub m w2 w d w neg 0 d cl f} def
/m27 {mp x y w2 add m w3 neg w2 neg d w3 w2 neg d w3 w2 d cl s} def
/m28 {mp x w2 sub y w2 sub w3 add m w3 0 d  0 w3 neg d w3 0 d 0 w3 d w3 0 d  0 w3 d w3 neg 0 d 0 w3 d w3 neg 0 d 0 w3 neg d w3 neg 0 d cl s } def
/m29 {mp gsave x w2 sub y w2 add w3 sub m currentpoint t 4 {side} repeat cl fill gr} def
/m30 {mp gsave x w2 sub y w2 add w3 sub m currentpoint t 4 {side} repeat cl s gr} def
/m31 {mp x y w2 sub m 0 w d x w2 sub y m w 0 d x w2 sub y w2 add m w w neg d x w2 sub y w2 sub m w w d s} def
/m32 {mp x y w2 sub m w2 w d w neg 0 d cl s} def
/m33 {mp x y w2 add m w3 neg w2 neg d w3 w2 neg d w3 w2 d cl f} def
/m34 {mp x w2 sub y w2 sub w3 add m w3 0 d  0 w3 neg d w3 0 d 0 w3 d w3 0 d  0 w3 d w3 neg 0 d 0 w3 d w3 neg 0 d 0 w3 neg d w3 neg 0 d cl f } def
/m2 {mp x y w2 sub m 0 w d x w2 sub y m w 0 d s} def
/m5 {mp x w2 sub y w2 sub m w w d x w2 sub y w2 add m w w neg d s} def
/reEncode {exch findfont dup length dict begin {1 index /FID eq  {pop pop} {def} ifelse } forall /Encoding exch def currentdict end dup /FontName get exch definefont pop } def [/Times-Bold /Times-Italic /Times-BoldItalic /Helvetica /Helvetica-Oblique
 /Helvetica-Bold /Helvetica-BoldOblique /Courier /Courier-Oblique /Courier-Bold /Courier-BoldOblique /Times-Roman /AvantGarde-Book /AvantGarde-BookOblique /AvantGarde-Demi /AvantGarde-DemiOblique /Bookman-Demi /Bookman-DemiItalic /Bookman-Light
 /Bookman-LightItalic /Helvetica-Narrow /Helvetica-Narrow-Bold /Helvetica-Narrow-BoldOblique /Helvetica-Narrow-Oblique /NewCenturySchlbk-Roman /NewCenturySchlbk-Bold /NewCenturySchlbk-BoldItalic /NewCenturySchlbk-Italic /Palatino-Bold
 /Palatino-BoldItalic /Palatino-Italic /Palatino-Roman ] {ISOLatin1Encoding reEncode } forall
%%EndProlog
%%BeginSetup
%%EndSetup
newpath  gsave  .25 .25 scale  gsave  0 0 t black[  ] 0 sd 3 lw 1 1 1 c 2268 1538 0 0 bf black 1 1 1 c 2222 738 23 784 bf black 1 1 1 c 2222 739 23 15 bf black 1 1 1 c 2268 1077 0 461 bf black 1 1 1 c 1791 850 363 634 bf black 1791 850 363 634 bl 363
 634 m 1791 X s
 gsave  2268 1077 0 461 C 1642.14 498.507 t 0 r /Helvetica findfont 48.9324 sf 0 0 m (4l Invariant Mass \(GeV\)) show NC gr  448 659 m -25 Y s 491 646 m -12 Y s 533 646 m -12 Y s 576 646 m -12 Y s 619 659 m -25 Y s 661 646 m -12 Y s 704 646 m -12 Y s
 747 646 m -12 Y s 789 659 m -25 Y s 832 646 m -12 Y s 875 646 m -12 Y s 917 646 m -12 Y s 960 659 m -25 Y s 1003 646 m -12 Y s 1045 646 m -12 Y s 1088 646 m -12 Y s 1131 659 m -25 Y s 1173 646 m -12 Y s 1216 646 m -12 Y s 1259 646 m -12 Y s 1301 659
 m -25 Y s 1344 646 m -12 Y s 1387 646 m -12 Y s 1429 646 m -12 Y s 1472 659 m -25 Y s 1515 646 m -12 Y s 1557 646 m -12 Y s 1600 646 m -12 Y s 1642 659 m -25 Y s 1685 646 m -12 Y s 1728 646 m -12 Y s 1770 646 m -12 Y s 1813 659 m -25 Y s 1856 646 m
 -12 Y s 1898 646 m -12 Y s 1941 646 m -12 Y s 1984 659 m -25 Y s 2026 646 m -12 Y s 2069 646 m -12 Y s 2112 646 m -12 Y s 2154 659 m -25 Y s 448 659 m -25 Y s 405 646 m -12 Y s 363 646 m -12 Y s
 gsave  2268 1077 0 461 C 404.018 586.478 t 0 r /Helvetica findfont 48.9324 sf 0 0 m (560) show NC gr 
 gsave  2268 1077 0 461 C 573.446 586.478 t 0 r /Helvetica findfont 48.9324 sf 0 0 m (580) show NC gr 
 gsave  2268 1077 0 461 C 746.131 586.478 t 0 r /Helvetica findfont 48.9324 sf 0 0 m (600) show NC gr 
 gsave  2268 1077 0 461 C 915.558 586.478 t 0 r /Helvetica findfont 48.9324 sf 0 0 m (620) show NC gr 
 gsave  2268 1077 0 461 C 1088.24 586.478 t 0 r /Helvetica findfont 48.9324 sf 0 0 m (640) show NC gr 
 gsave  2268 1077 0 461 C 1257.67 586.478 t 0 r /Helvetica findfont 48.9324 sf 0 0 m (660) show NC gr 
 gsave  2268 1077 0 461 C 1427.1 586.478 t 0 r /Helvetica findfont 48.9324 sf 0 0 m (680) show NC gr 
 gsave  2268 1077 0 461 C 1599.78 586.478 t 0 r /Helvetica findfont 48.9324 sf 0 0 m (700) show NC gr 
 gsave  2268 1077 0 461 C 1769.21 586.478 t 0 r /Helvetica findfont 48.9324 sf 0 0 m (720) show NC gr 
 gsave  2268 1077 0 461 C 1938.64 586.478 t 0 r /Helvetica findfont 48.9324 sf 0 0 m (740) show NC gr 
 gsave  2268 1077 0 461 C 2111.32 586.478 t 0 r /Helvetica findfont 48.9324 sf 0 0 m (760) show NC gr  363 1484 m 1791 X s 448 1459 m 25 Y s 491 1471 m 13 Y s 533 1471 m 13 Y s 576 1471 m 13 Y s 619 1459 m 25 Y s 661 1471 m 13 Y s 704 1471 m 13 Y s
 747 1471 m 13 Y s 789 1459 m 25 Y s 832 1471 m 13 Y s 875 1471 m 13 Y s 917 1471 m 13 Y s 960 1459 m 25 Y s 1003 1471 m 13 Y s 1045 1471 m 13 Y s 1088 1471 m 13 Y s 1131 1459 m 25 Y s 1173 1471 m 13 Y s 1216 1471 m 13 Y s 1259 1471 m 13 Y s 1301
 1459 m 25 Y s 1344 1471 m 13 Y s 1387 1471 m 13 Y s 1429 1471 m 13 Y s 1472 1459 m 25 Y s 1515 1471 m 13 Y s 1557 1471 m 13 Y s 1600 1471 m 13 Y s 1642 1459 m 25 Y s 1685 1471 m 13 Y s 1728 1471 m 13 Y s 1770 1471 m 13 Y s 1813 1459 m 25 Y s 1856
 1471 m 13 Y s 1898 1471 m 13 Y s 1941 1471 m 13 Y s 1984 1459 m 25 Y s 2026 1471 m 13 Y s 2069 1471 m 13 Y s 2112 1471 m 13 Y s 2154 1459 m 25 Y s 448 1459 m 25 Y s 405 1471 m 13 Y s 363 1471 m 13 Y s 363 634 m 850 Y s
 gsave  2268 1077 0 461 C 120.554 1058.92 t 90 r /Helvetica findfont 48.9324 sf 0 0 m (Events / \( 4.2 GeV \)) show NC gr  417 634 m -54 X s
 gsave  2268 1077 0 461 C 312.788 632.093 t 0 r /Helvetica findfont 32.6216 sf 0 0 m (\2552) show NC gr 
 gsave  2268 1077 0 461 C 260.657 612.544 t 0 r /Helvetica findfont 48.9324 sf 0 0 m (10) show NC gr  390 681 m -27 X s 390 709 m -27 X s 390 728 m -27 X s 390 744 m -27 X s 390 756 m -27 X s 390 767 m -27 X s 390 776 m -27 X s 390 784 m -27 X s 417
 791 m -54 X s
 gsave  2268 1077 0 461 C 319.305 788.488 t 0 r /Helvetica findfont 32.6216 sf 0 0 m (\2551) show NC gr 
 gsave  2268 1077 0 461 C 267.173 768.938 t 0 r /Helvetica findfont 48.9324 sf 0 0 m (10) show NC gr  390 838 m -27 X s 390 866 m -27 X s 390 886 m -27 X s 390 901 m -27 X s 390 913 m -27 X s 390 924 m -27 X s 390 933 m -27 X s 390 941 m -27 X s 417
 948 m -54 X s
 gsave  2268 1077 0 461 C 342.425 927.349 t 0 r  -27 0 t /Helvetica findfont 48.9324 sf 0 0 m (1) show NC gr  390 996 m -27 X s 390 1023 m -27 X s 390 1043 m -27 X s 390 1058 m -27 X s 390 1071 m -27 X s 390 1081 m -27 X s 390 1090 m -27 X s 390 1098
 m -27 X s 417 1105 m -54 X s
 gsave  2268 1077 0 461 C 342.425 1084.65 t 0 r  -55 0 t /Helvetica findfont 48.9324 sf 0 0 m (10) show NC gr  390 1153 m -27 X s 390 1181 m -27 X s 390 1200 m -27 X s 390 1215 m -27 X s 390 1228 m -27 X s 390 1238 m -27 X s 390 1248 m -27 X s 390
 1256 m -27 X s 417 1263 m -54 X s
 gsave  2268 1077 0 461 C 322.563 1260.93 t 0 r /Helvetica findfont 32.6216 sf 0 0 m (2) show NC gr 
 gsave  2268 1077 0 461 C 270.432 1241.38 t 0 r /Helvetica findfont 48.9324 sf 0 0 m (10) show NC gr  390 1310 m -27 X s 390 1338 m -27 X s 390 1357 m -27 X s 390 1373 m -27 X s 390 1385 m -27 X s 390 1396 m -27 X s 390 1405 m -27 X s 390 1413 m -27
 X s 417 1420 m -54 X s
 gsave  2268 1077 0 461 C 322.563 1420.58 t 0 r /Helvetica findfont 32.6216 sf 0 0 m (3) show NC gr 
 gsave  2268 1077 0 461 C 270.432 1397.77 t 0 r /Helvetica findfont 48.9324 sf 0 0 m (10) show NC gr  390 1467 m -27 X s 2154 634 m 850 Y s 2101 634 m 53 X s 2127 681 m 27 X s 2127 709 m 27 X s 2127 728 m 27 X s 2127 744 m 27 X s 2127 756 m 27 X s
 2127 767 m 27 X s 2127 776 m 27 X s 2127 784 m 27 X s 2101 791 m 53 X s 2127 838 m 27 X s 2127 866 m 27 X s 2127 886 m 27 X s 2127 901 m 27 X s 2127 913 m 27 X s 2127 924 m 27 X s 2127 933 m 27 X s 2127 941 m 27 X s 2101 948 m 53 X s 2127 996 m 27 X
 s 2127 1023 m 27 X s 2127 1043 m 27 X s 2127 1058 m 27 X s 2127 1071 m 27 X s 2127 1081 m 27 X s 2127 1090 m 27 X s 2127 1098 m 27 X s 2101 1105 m 53 X s 2127 1153 m 27 X s 2127 1181 m 27 X s 2127 1200 m 27 X s 2127 1215 m 27 X s 2127 1228 m 27 X s
 2127 1238 m 27 X s 2127 1248 m 27 X s 2127 1256 m 27 X s 2101 1263 m 53 X s 2127 1310 m 27 X s 2127 1338 m 27 X s 2127 1357 m 27 X s 2127 1373 m 27 X s 2127 1385 m 27 X s 2127 1396 m 27 X s 2127 1405 m 27 X s 2127 1413 m 27 X s 2101 1420 m 53 X s
 2127 1467 m 27 X s 381 1118 m -18 X s 363 1118 m cl s 381 1118 m 18 X s 399 1118 m cl s 381 1118 m 22 Y s 381 1140 m cl s 381 1118 m -23 Y s 381 1095 m cl s 417 1118 m -18 X s 399 1118 m cl s 417 1118 m 17 X s 434 1118 m cl s 417 1118 m 22 Y s 417
 1140 m cl s 417 1118 m -23 Y s 417 1095 m cl s 452 1105 m -18 X s 434 1105 m cl s 452 1105 m 18 X s 470 1105 m cl s 452 1105 m 25 Y s 452 1130 m cl s 452 1105 m -25 Y s 452 1080 m cl s 488 1058 m -18 X s 470 1058 m cl s 488 1058 m 18 X s 506 1058 m
 cl s 488 1058 m 35 Y s 488 1093 m cl s 488 1058 m -38 Y s 488 1020 m cl s 524 1146 m -18 X s 506 1146 m cl s 524 1146 m 18 X s 542 1146 m cl s 524 1146 m 17 Y s 524 1163 m cl s 524 1146 m -19 Y s 524 1127 m cl s 560 1098 m -18 X s 542 1098 m cl s
 560 1098 m 18 X s 578 1098 m cl s 560 1098 m 26 Y s 560 1124 m cl s 560 1098 m -27 Y s 560 1071 m cl s 596 1123 m -18 X s 578 1123 m cl s 596 1123 m 18 X s 614 1123 m cl s 596 1123 m 21 Y s 596 1144 m cl s 596 1123 m -21 Y s 596 1102 m cl s 632 1156
 m -18 X s 614 1156 m cl s 632 1156 m 17 X s 649 1156 m cl s 632 1156 m 16 Y s 632 1172 m cl s 632 1156 m -16 Y s 632 1140 m cl s 667 1118 m -18 X s 649 1118 m cl s 667 1118 m 18 X s 685 1118 m cl s 667 1118 m 22 Y s 667 1140 m cl s 667 1118 m -23 Y
 s 667 1095 m cl s 703 1123 m -18 X s 685 1123 m cl s 703 1123 m 18 X s 721 1123 m cl s 703 1123 m 21 Y s 703 1144 m cl s 703 1123 m -21 Y s 703 1102 m cl s 739 1171 m -18 X s 721 1171 m cl s 739 1171 m 18 X s 757 1171 m cl s 739 1171 m 14 Y s 739
 1185 m cl s 739 1171 m -15 Y s 739 1156 m cl s 775 1149 m -18 X s 757 1149 m cl s 775 1149 m 18 X s 793 1149 m cl s 775 1149 m 18 Y s 775 1167 m cl s 775 1149 m -17 Y s 775 1132 m cl s 811 1159 m -18 X s 793 1159 m cl s 811 1159 m 18 X s 829 1159 m
 cl s 811 1159 m 16 Y s 811 1175 m cl s 811 1159 m -16 Y s 811 1143 m cl s 847 1153 m -18 X s 829 1153 m cl s 847 1153 m 17 X s 864 1153 m cl s 847 1153 m 17 Y s 847 1170 m cl s 847 1153 m -17 Y s 847 1136 m cl s 882 1168 m -18 X s 864 1168 m cl s
 882 1168 m 18 X s 900 1168 m cl s 882 1168 m 15 Y s 882 1183 m cl s 882 1168 m -15 Y s 882 1153 m cl s 918 1178 m -18 X s 900 1178 m cl s 918 1178 m 18 X s 936 1178 m cl s 918 1178 m 14 Y s 918 1192 m cl s 918 1178 m -14 Y s 918 1164 m cl s 954 1153
 m -18 X s 936 1153 m cl s 954 1153 m 18 X s 972 1153 m cl s 954 1153 m 17 Y s 954 1170 m cl s 954 1153 m -17 Y s 954 1136 m cl s 990 1195 m -18 X s 972 1195 m cl s 990 1195 m 18 X s 1008 1195 m cl s 990 1195 m 12 Y s 990 1207 m cl s 990 1195 m -12 Y
 s 990 1183 m cl s 1026 1187 m -18 X s 1008 1187 m cl s 1026 1187 m 18 X s 1044 1187 m cl s 1026 1187 m 13 Y s 1026 1200 m cl s 1026 1187 m -13 Y s 1026 1174 m cl s 1062 1214 m -18 X s 1044 1214 m cl s 1062 1214 m 17 X s 1079 1214 m cl s 1062 1214 m
 10 Y s 1062 1224 m cl s 1062 1214 m -10 Y s 1062 1204 m cl s 1097 1211 m -18 X s 1079 1211 m cl s 1097 1211 m 18 X s 1115 1211 m cl s 1097 1211 m 11 Y s 1097 1222 m cl s 1097 1211 m -11 Y s 1097 1200 m cl s 1133 1226 m -18 X s 1115 1226 m cl s 1133
 1226 m 18 X s 1151 1226 m cl s 1133 1226 m 9 Y s 1133 1235 m cl s 1133 1226 m -10 Y s 1133 1216 m cl s 1169 1229 m -18 X s 1151 1229 m cl s 1169 1229 m 18 X s 1187 1229 m cl s 1169 1229 m 9 Y s 1169 1238 m cl s 1169 1229 m -9 Y s 1169 1220 m cl s
 1205 1242 m -18 X s 1187 1242 m cl s 1205 1242 m 18 X s 1223 1242 m cl s 1205 1242 m 9 Y s 1205 1251 m cl s 1205 1242 m -8 Y s 1205 1234 m cl s 1241 1269 m -18 X s 1223 1269 m cl s 1241 1269 m 18 X s 1259 1269 m cl s 1241 1269 m 7 Y s 1241 1276 m cl
 s 1241 1269 m -6 Y s 1241 1263 m cl s 1276 1286 m -17 X s 1259 1286 m cl s 1276 1286 m 18 X s 1294 1286 m cl s 1276 1286 m 6 Y s 1276 1292 m cl s 1276 1286 m -5 Y s 1276 1281 m cl s 1312 1304 m -18 X s 1294 1304 m cl s 1312 1304 m 18 X s 1330 1304 m
 cl s 1312 1304 m 5 Y s 1312 1309 m cl s 1312 1304 m -5 Y s 1312 1299 m cl s 1348 1331 m -18 X s 1330 1331 m cl s 1348 1331 m 18 X s 1366 1331 m cl s 1348 1331 m 4 Y s 1348 1335 m cl s 1348 1331 m -5 Y s 1348 1326 m cl s 1384 1348 m -18 X s 1366 1348
 m cl s 1384 1348 m 18 X s 1402 1348 m cl s 1384 1348 m 3 Y s 1384 1351 m cl s 1384 1348 m -4 Y s 1384 1344 m cl s 1420 1366 m -18 X s 1402 1366 m cl s 1420 1366 m 18 X s 1438 1366 m cl s 1420 1366 m 3 Y s 1420 1369 m cl s 1420 1366 m -4 Y s 1420
 1362 m cl s 1456 1390 m -18 X s 1438 1390 m cl s 1456 1390 m 18 X s 1474 1390 m cl s 1456 1390 m 2 Y s 1456 1392 m cl s 1456 1390 m -3 Y s 1456 1387 m cl s 1491 1410 m -17 X s 1474 1410 m cl s 1491 1410 m 18 X s 1509 1410 m cl s 1491 1410 m 2 Y s
 1491 1412 m cl s 1491 1410 m -2 Y s 1491 1408 m cl s 1527 1429 m -18 X s 1509 1429 m cl s 1527 1429 m 18 X s 1545 1429 m cl s 1527 1429 m 2 Y s 1527 1431 m cl s 1527 1429 m -2 Y s 1527 1427 m cl s 1563 1442 m -18 X s 1545 1442 m cl s 1563 1442 m 18
 X s 1581 1442 m cl s 1563 1442 m 2 Y s 1563 1444 m cl s 1563 1442 m -2 Y s 1563 1440 m cl s 1599 1451 m -18 X s 1581 1451 m cl s 1599 1451 m 18 X s 1617 1451 m cl s 1599 1451 m 2 Y s 1599 1453 m cl s 1599 1451 m -1 Y s 1599 1450 m cl s 1635 1447 m
 -18 X s 1617 1447 m cl s 1635 1447 m 18 X s 1653 1447 m cl s 1635 1447 m 2 Y s 1635 1449 m cl s 1635 1447 m -2 Y s 1635 1445 m cl s 1671 1446 m -18 X s 1653 1446 m cl s 1671 1446 m 18 X s 1689 1446 m cl s 1671 1446 m 2 Y s 1671 1448 m cl s 1671 1446
 m -1 Y s 1671 1445 m cl s 1706 1424 m -17 X s 1689 1424 m cl s 1706 1424 m 18 X s 1724 1424 m cl s 1706 1424 m 2 Y s 1706 1426 m cl s 1706 1424 m -2 Y s 1706 1422 m cl s 1742 1404 m -18 X s 1724 1404 m cl s 1742 1404 m 18 X s 1760 1404 m cl s 1742
 1404 m 2 Y s 1742 1406 m cl s 1742 1404 m -3 Y s 1742 1401 m cl s 1778 1383 m -18 X s 1760 1383 m cl s 1778 1383 m 18 X s 1796 1383 m cl s 1778 1383 m 3 Y s 1778 1386 m cl s 1778 1383 m -3 Y s 1778 1380 m cl s 1814 1357 m -18 X s 1796 1357 m cl s
 1814 1357 m 18 X s 1832 1357 m cl s 1814 1357 m 4 Y s 1814 1361 m cl s 1814 1357 m -3 Y s 1814 1354 m cl s 1850 1322 m -18 X s 1832 1322 m cl s 1850 1322 m 18 X s 1868 1322 m cl s 1850 1322 m 5 Y s 1850 1327 m cl s 1850 1322 m -4 Y s 1850 1318 m cl
 s 1886 1301 m -18 X s 1868 1301 m cl s 1886 1301 m 18 X s 1904 1301 m cl s 1886 1301 m 6 Y s 1886 1307 m cl s 1886 1301 m -5 Y s 1886 1296 m cl s 1921 1263 m -17 X s 1904 1263 m cl s 1921 1263 m 18 X s 1939 1263 m cl s 1921 1263 m 7 Y s 1921 1270 m
 cl s 1921 1263 m -7 Y s 1921 1256 m cl s 1957 1251 m -18 X s 1939 1251 m cl s 1957 1251 m 18 X s 1975 1251 m cl s 1957 1251 m 8 Y s 1957 1259 m cl s 1957 1251 m -8 Y s 1957 1243 m cl s 1993 1236 m -18 X s 1975 1236 m cl s 1993 1236 m 18 X s 2011
 1236 m cl s 1993 1236 m 9 Y s 1993 1245 m cl s 1993 1236 m -8 Y s 1993 1228 m cl s 2029 1204 m -18 X s 2011 1204 m cl s 2029 1204 m 18 X s 2047 1204 m cl s 2029 1204 m 11 Y s 2029 1215 m cl s 2029 1204 m -12 Y s 2029 1192 m cl s 2065 1176 m -18 X s
 2047 1176 m cl s 2065 1176 m 18 X s 2083 1176 m cl s 2065 1176 m 14 Y s 2065 1190 m cl s 2065 1176 m -14 Y s 2065 1162 m cl s 2101 1162 m -18 X s 2083 1162 m cl s 2101 1162 m 18 X s 2119 1162 m cl s 2101 1162 m 16 Y s 2101 1178 m cl s 2101 1162 m
 -15 Y s 2101 1147 m cl s 2136 1165 m -17 X s 2119 1165 m cl s 2136 1165 m 18 X s 2154 1165 m cl s 2136 1165 m 15 Y s 2136 1180 m cl s 2136 1165 m -15 Y s 2136 1150 m cl s /w 31 def /w2 {w 2 div} def /w3 {w 3 div} def 381 1118 417 1118 452 1105 488
 1058 524 1146 560 1098 596 1123 632 1156 667 1118 703 1123 739 1171 775 1149 811 1159 847 1153 882 1168 918 1178 954 1153 990 1195 1026 1187 1062 1214 1097 1211 1133 1226 1169 1229 1205 1242 1241 1269 1276 1286 1312 1304 1348 1331 1384 1348 1420
 1366 1456 1390 1491 1410 1527 1429 1563 1442 1599 1451 1635 1447 1671 1446 1706 1424 1742 1404 1778 1383 1814 1357 1850 1322 1886 1301 1921 1263 1957 1251 1993 1236 2029 1204 2065 1176 2101 1162 2136 1165 50 { m20} R 0 1 1 c 1 1 0 c black 1 1 0 c
 363 1084 m 36 6 d 35 7 d 36 6 d 36 6 d 36 7 d 36 6 d 36 7 d 35 7 d 36 7 d 36 6 d 36 7 d 36 7 d 36 8 d 35 7 d 36 7 d 36 8 d 36 8 d 36 7 d 36 9 d 35 8 d 36 9 d 36 9 d 36 9 d 36 10 d 36 11 d 17 7 d 18 7 d 18 9 d 18 10 d 18 11 d 18 13 d 9 7 d 9 6 d 9 7
 d 9 7 d 9 7 d 9 7 d 9 6 d 9 7 d 9 6 d 9 6 d 18 11 d 35 19 d 18 8 d 9 3 d 9 3 d 9 2 d 9 3 d 9 2 d 9 1 d 9 1 d 9 1 d 18 X 9 -1 d 9 -1 d 9 -1 d 9 -2 d 9 -2 d 9 -2 d 9 -3 d 9 -3 d 17 -8 d 18 -9 d 18 -10 d 18 -11 d 9 -6 d 9 -6 d 9 -6 d 9 -7 d 9 -6 d 9 -7
 d 9 -7 d 9 -7 d 9 -7 d 9 -7 d 18 -14 d 18 -13 d 18 -13 d 17 -12 d 18 -11 d 36 -21 d 36 -20 d 36 -20 d 36 -21 d 36 -22 d 35 -23 d -37 Y -35 31 d -36 27 d -36 26 d -36 24 d -36 23 d -36 24 d -18 12 d -17 13 d -18 13 d -18 14 d -18 14 d -9 7 d -9 7 d
 -9 7 d -9 7 d -9 7 d -9 7 d -9 7 d -9 6 d -9 7 d -9 6 d -18 12 d -18 10 d -18 10 d -17 7 d -9 3 d -9 3 d -9 3 d -9 2 d -9 1 d -9 2 d -9 1 d -36 X -9 -1 d -9 -2 d -9 -2 d -9 -2 d -9 -2 d -9 -3 d -9 -4 d -18 -8 d -35 -20 d -18 -12 d -9 -7 d -9 -6 d -9
 -7 d -9 -7 d -9 -7 d -9 -7 d -9 -6 d -9 -7 d -9 -7 d -9 -6 d -18 -13 d -18 -12 d -18 -11 d -18 -9 d -18 -9 d -17 -8 d -36 -12 d -36 -10 d -36 -8 d -36 -9 d -36 -8 d -35 -8 d -36 -8 d -36 -8 d -36 -8 d -36 -9 d -36 -8 d -35 -8 d -36 -8 d -36 -8 d -36
 -8 d -36 -8 d -36 -8 d -35 -8 d -36 -8 d -36 -8 d -36 -7 d -36 -8 d -36 -7 d -35 -8 d -36 -7 d f 0 1 1 c 0 1 0 c black 0 1 0 c 363 1078 m 36 7 d 35 6 d 36 7 d 36 6 d 36 7 d 36 7 d 36 7 d 35 7 d 36 7 d 36 7 d 36 7 d 36 7 d 36 8 d 35 7 d 36 8 d 36 7 d
 36 8 d 36 8 d 36 8 d 35 9 d 36 8 d 36 9 d 36 9 d 36 10 d 36 12 d 17 7 d 18 7 d 18 9 d 18 10 d 18 12 d 18 12 d 9 7 d 9 7 d 9 7 d 9 7 d 9 6 d 9 7 d 9 7 d 9 6 d 9 7 d 9 6 d 18 11 d 35 19 d 18 8 d 9 3 d 9 3 d 9 3 d 9 2 d 9 2 d 9 1 d 9 1 d 9 1 d 27 X 9
 -1 d 9 -2 d 9 -1 d 9 -2 d 9 -3 d 9 -3 d 9 -3 d 17 -8 d 18 -8 d 18 -10 d 18 -12 d 9 -6 d 9 -6 d 9 -6 d 9 -7 d 9 -7 d 9 -7 d 9 -7 d 9 -7 d 9 -7 d 9 -7 d 18 -13 d 18 -14 d 18 -13 d 17 -12 d 18 -11 d 36 -22 d 36 -20 d 36 -21 d 36 -22 d 36 -23 d 35 -24 d
 -19 Y -35 28 d -36 26 d -36 24 d -36 23 d -36 22 d -36 23 d -18 12 d -17 13 d -18 13 d -18 13 d -18 14 d -9 7 d -9 7 d -9 7 d -9 7 d -9 7 d -9 7 d -9 7 d -9 7 d -9 6 d -9 6 d -18 12 d -18 10 d -18 9 d -17 8 d -9 3 d -9 3 d -9 2 d -9 2 d -9 2 d -9 1
 d -9 1 d -9 1 d -18 X -9 -1 d -9 -1 d -9 -1 d -9 -2 d -9 -2 d -9 -3 d -9 -3 d -9 -3 d -18 -8 d -35 -20 d -18 -12 d -9 -6 d -9 -7 d -9 -6 d -9 -7 d -9 -7 d -9 -7 d -9 -7 d -9 -7 d -9 -6 d -9 -7 d -18 -12 d -18 -12 d -18 -11 d -18 -9 d -18 -9 d -17 -7
 d -36 -12 d -36 -10 d -36 -8 d -36 -9 d -36 -8 d -35 -8 d -36 -8 d -36 -9 d -36 -8 d -36 -8 d -36 -8 d -35 -8 d -36 -8 d -36 -7 d -36 -8 d -36 -8 d -36 -7 d -35 -8 d -36 -7 d -36 -8 d -36 -7 d -36 -7 d -36 -7 d -35 -7 d -36 -7 d f 0 0 1 c 9 lw black
 0 0 1 c 363 1072 m 36 6 d 35 7 d 36 7 d 36 7 d 36 7 d 36 7 d 36 7 d 35 7 d 36 8 d 36 7 d 36 7 d 36 8 d 36 8 d 35 7 d 36 8 d 36 8 d 36 8 d 36 8 d 36 8 d 35 8 d 36 9 d 36 8 d 36 9 d 36 10 d 36 12 d 17 7 d 18 8 d 18 9 d 18 11 d 18 11 d 18 13 d 9 6 d 9
 7 d 9 7 d 9 7 d 9 7 d 9 7 d 9 6 d 9 7 d 9 6 d 9 6 d 18 12 d 35 20 d 18 7 d 9 4 d 9 3 d 9 2 d 9 2 d 9 2 d 9 2 d 9 1 d 9 X 9 1 d 9 X 9 -1 d 9 -1 d 9 -1 d 9 -2 d 9 -2 d 9 -2 d 9 -3 d 9 -4 d 17 -7 d 18 -9 d 18 -10 d 18 -12 d 9 -6 d 9 -6 d 9 -7 d 9 -6 d
 9 -7 d 9 -7 d 9 -7 d 9 -7 d 9 -7 d 9 -7 d 18 -14 d 18 -13 d 18 -13 d 17 -13 d 18 -11 d 36 -23 d 36 -21 d 36 -22 d 36 -23 d 36 -24 d 35 -26 d s black 3 lw 381 1118 m -18 X s 363 1118 m cl s 381 1118 m 18 X s 399 1118 m cl s 381 1118 m 22 Y s 381 1140
 m cl s 381 1118 m -23 Y s 381 1095 m cl s 417 1118 m -18 X s 399 1118 m cl s 417 1118 m 17 X s 434 1118 m cl s 417 1118 m 22 Y s 417 1140 m cl s 417 1118 m -23 Y s 417 1095 m cl s 452 1105 m -18 X s 434 1105 m cl s 452 1105 m 18 X s 470 1105 m cl s
 452 1105 m 25 Y s 452 1130 m cl s 452 1105 m -25 Y s 452 1080 m cl s 488 1058 m -18 X s 470 1058 m cl s 488 1058 m 18 X s 506 1058 m cl s 488 1058 m 35 Y s 488 1093 m cl s 488 1058 m -38 Y s 488 1020 m cl s 524 1146 m -18 X s 506 1146 m cl s 524
 1146 m 18 X s 542 1146 m cl s 524 1146 m 17 Y s 524 1163 m cl s 524 1146 m -19 Y s 524 1127 m cl s 560 1098 m -18 X s 542 1098 m cl s 560 1098 m 18 X s 578 1098 m cl s 560 1098 m 26 Y s 560 1124 m cl s 560 1098 m -27 Y s 560 1071 m cl s 596 1123 m
 -18 X s 578 1123 m cl s 596 1123 m 18 X s 614 1123 m cl s 596 1123 m 21 Y s 596 1144 m cl s 596 1123 m -21 Y s 596 1102 m cl s 632 1156 m -18 X s 614 1156 m cl s 632 1156 m 17 X s 649 1156 m cl s 632 1156 m 16 Y s 632 1172 m cl s 632 1156 m -16 Y s
 632 1140 m cl s 667 1118 m -18 X s 649 1118 m cl s 667 1118 m 18 X s 685 1118 m cl s 667 1118 m 22 Y s 667 1140 m cl s 667 1118 m -23 Y s 667 1095 m cl s 703 1123 m -18 X s 685 1123 m cl s 703 1123 m 18 X s 721 1123 m cl s 703 1123 m 21 Y s 703 1144
 m cl s 703 1123 m -21 Y s 703 1102 m cl s 739 1171 m -18 X s 721 1171 m cl s 739 1171 m 18 X s 757 1171 m cl s 739 1171 m 14 Y s 739 1185 m cl s 739 1171 m -15 Y s 739 1156 m cl s 775 1149 m -18 X s 757 1149 m cl s 775 1149 m 18 X s 793 1149 m cl s
 775 1149 m 18 Y s 775 1167 m cl s 775 1149 m -17 Y s 775 1132 m cl s 811 1159 m -18 X s 793 1159 m cl s 811 1159 m 18 X s 829 1159 m cl s 811 1159 m 16 Y s 811 1175 m cl s 811 1159 m -16 Y s 811 1143 m cl s 847 1153 m -18 X s 829 1153 m cl s 847
 1153 m 17 X s 864 1153 m cl s 847 1153 m 17 Y s 847 1170 m cl s 847 1153 m -17 Y s 847 1136 m cl s 882 1168 m -18 X s 864 1168 m cl s 882 1168 m 18 X s 900 1168 m cl s 882 1168 m 15 Y s 882 1183 m cl s 882 1168 m -15 Y s 882 1153 m cl s 918 1178 m
 -18 X s 900 1178 m cl s 918 1178 m 18 X s 936 1178 m cl s 918 1178 m 14 Y s 918 1192 m cl s 918 1178 m -14 Y s 918 1164 m cl s 954 1153 m -18 X s 936 1153 m cl s 954 1153 m 18 X s 972 1153 m cl s 954 1153 m 17 Y s 954 1170 m cl s 954 1153 m -17 Y s
 954 1136 m cl s 990 1195 m -18 X s 972 1195 m cl s 990 1195 m 18 X s 1008 1195 m cl s 990 1195 m 12 Y s 990 1207 m cl s 990 1195 m -12 Y s 990 1183 m cl s 1026 1187 m -18 X s 1008 1187 m cl s 1026 1187 m 18 X s 1044 1187 m cl s 1026 1187 m 13 Y s
 1026 1200 m cl s 1026 1187 m -13 Y s 1026 1174 m cl s 1062 1214 m -18 X s 1044 1214 m cl s 1062 1214 m 17 X s 1079 1214 m cl s 1062 1214 m 10 Y s 1062 1224 m cl s 1062 1214 m -10 Y s 1062 1204 m cl s 1097 1211 m -18 X s 1079 1211 m cl s 1097 1211 m
 18 X s 1115 1211 m cl s 1097 1211 m 11 Y s 1097 1222 m cl s 1097 1211 m -11 Y s 1097 1200 m cl s 1133 1226 m -18 X s 1115 1226 m cl s 1133 1226 m 18 X s 1151 1226 m cl s 1133 1226 m 9 Y s 1133 1235 m cl s 1133 1226 m -10 Y s 1133 1216 m cl s 1169
 1229 m -18 X s 1151 1229 m cl s 1169 1229 m 18 X s 1187 1229 m cl s 1169 1229 m 9 Y s 1169 1238 m cl s 1169 1229 m -9 Y s 1169 1220 m cl s 1205 1242 m -18 X s 1187 1242 m cl s 1205 1242 m 18 X s 1223 1242 m cl s 1205 1242 m 9 Y s 1205 1251 m cl s
 1205 1242 m -8 Y s 1205 1234 m cl s 1241 1269 m -18 X s 1223 1269 m cl s 1241 1269 m 18 X s 1259 1269 m cl s 1241 1269 m 7 Y s 1241 1276 m cl s 1241 1269 m -6 Y s 1241 1263 m cl s 1276 1286 m -17 X s 1259 1286 m cl s 1276 1286 m 18 X s 1294 1286 m
 cl s 1276 1286 m 6 Y s 1276 1292 m cl s 1276 1286 m -5 Y s 1276 1281 m cl s 1312 1304 m -18 X s 1294 1304 m cl s 1312 1304 m 18 X s 1330 1304 m cl s 1312 1304 m 5 Y s 1312 1309 m cl s 1312 1304 m -5 Y s 1312 1299 m cl s 1348 1331 m -18 X s 1330 1331
 m cl s 1348 1331 m 18 X s 1366 1331 m cl s 1348 1331 m 4 Y s 1348 1335 m cl s 1348 1331 m -5 Y s 1348 1326 m cl s 1384 1348 m -18 X s 1366 1348 m cl s 1384 1348 m 18 X s 1402 1348 m cl s 1384 1348 m 3 Y s 1384 1351 m cl s 1384 1348 m -4 Y s 1384
 1344 m cl s 1420 1366 m -18 X s 1402 1366 m cl s 1420 1366 m 18 X s 1438 1366 m cl s 1420 1366 m 3 Y s 1420 1369 m cl s 1420 1366 m -4 Y s 1420 1362 m cl s 1456 1390 m -18 X s 1438 1390 m cl s 1456 1390 m 18 X s 1474 1390 m cl s 1456 1390 m 2 Y s
 1456 1392 m cl s 1456 1390 m -3 Y s 1456 1387 m cl s 1491 1410 m -17 X s 1474 1410 m cl s 1491 1410 m 18 X s 1509 1410 m cl s 1491 1410 m 2 Y s 1491 1412 m cl s 1491 1410 m -2 Y s 1491 1408 m cl s 1527 1429 m -18 X s 1509 1429 m cl s 1527 1429 m 18
 X s 1545 1429 m cl s 1527 1429 m 2 Y s 1527 1431 m cl s 1527 1429 m -2 Y s 1527 1427 m cl s 1563 1442 m -18 X s 1545 1442 m cl s 1563 1442 m 18 X s 1581 1442 m cl s 1563 1442 m 2 Y s 1563 1444 m cl s 1563 1442 m -2 Y s 1563 1440 m cl s 1599 1451 m
 -18 X s 1581 1451 m cl s 1599 1451 m 18 X s 1617 1451 m cl s 1599 1451 m 2 Y s 1599 1453 m cl s 1599 1451 m -1 Y s 1599 1450 m cl s 1635 1447 m -18 X s 1617 1447 m cl s 1635 1447 m 18 X s 1653 1447 m cl s 1635 1447 m 2 Y s 1635 1449 m cl s 1635 1447
 m -2 Y s 1635 1445 m cl s 1671 1446 m -18 X s 1653 1446 m cl s 1671 1446 m 18 X s 1689 1446 m cl s 1671 1446 m 2 Y s 1671 1448 m cl s 1671 1446 m -1 Y s 1671 1445 m cl s 1706 1424 m -17 X s 1689 1424 m cl s 1706 1424 m 18 X s 1724 1424 m cl s 1706
 1424 m 2 Y s 1706 1426 m cl s 1706 1424 m -2 Y s 1706 1422 m cl s 1742 1404 m -18 X s 1724 1404 m cl s 1742 1404 m 18 X s 1760 1404 m cl s 1742 1404 m 2 Y s 1742 1406 m cl s 1742 1404 m -3 Y s 1742 1401 m cl s 1778 1383 m -18 X s 1760 1383 m cl s
 1778 1383 m 18 X s 1796 1383 m cl s 1778 1383 m 3 Y s 1778 1386 m cl s 1778 1383 m -3 Y s 1778 1380 m cl s 1814 1357 m -18 X s 1796 1357 m cl s 1814 1357 m 18 X s 1832 1357 m cl s 1814 1357 m 4 Y s 1814 1361 m cl s 1814 1357 m -3 Y s 1814 1354 m cl
 s 1850 1322 m -18 X s 1832 1322 m cl s 1850 1322 m 18 X s 1868 1322 m cl s 1850 1322 m 5 Y s 1850 1327 m cl s 1850 1322 m -4 Y s 1850 1318 m cl s 1886 1301 m -18 X s 1868 1301 m cl s 1886 1301 m 18 X s 1904 1301 m cl s 1886 1301 m 6 Y s 1886 1307 m
 cl s 1886 1301 m -5 Y s 1886 1296 m cl s 1921 1263 m -17 X s 1904 1263 m cl s 1921 1263 m 18 X s 1939 1263 m cl s 1921 1263 m 7 Y s 1921 1270 m cl s 1921 1263 m -7 Y s 1921 1256 m cl s 1957 1251 m -18 X s 1939 1251 m cl s 1957 1251 m 18 X s 1975
 1251 m cl s 1957 1251 m 8 Y s 1957 1259 m cl s 1957 1251 m -8 Y s 1957 1243 m cl s 1993 1236 m -18 X s 1975 1236 m cl s 1993 1236 m 18 X s 2011 1236 m cl s 1993 1236 m 9 Y s 1993 1245 m cl s 1993 1236 m -8 Y s 1993 1228 m cl s 2029 1204 m -18 X s
 2011 1204 m cl s 2029 1204 m 18 X s 2047 1204 m cl s 2029 1204 m 11 Y s 2029 1215 m cl s 2029 1204 m -12 Y s 2029 1192 m cl s 2065 1176 m -18 X s 2047 1176 m cl s 2065 1176 m 18 X s 2083 1176 m cl s 2065 1176 m 14 Y s 2065 1190 m cl s 2065 1176 m
 -14 Y s 2065 1162 m cl s 2101 1162 m -18 X s 2083 1162 m cl s 2101 1162 m 18 X s 2119 1162 m cl s 2101 1162 m 16 Y s 2101 1178 m cl s 2101 1162 m -15 Y s 2101 1147 m cl s 2136 1165 m -17 X s 2119 1165 m cl s 2136 1165 m 18 X s 2154 1165 m cl s 2136
 1165 m 15 Y s 2136 1180 m cl s 2136 1165 m -15 Y s 2136 1150 m cl s 381 1118 417 1118 452 1105 488 1058 524 1146 560 1098 596 1123 632 1156 667 1118 703 1123 739 1171 775 1149 811 1159 847 1153 882 1168 918 1178 954 1153 990 1195 1026 1187 1062 1214
 1097 1211 1133 1226 1169 1229 1205 1242 1241 1269 1276 1286 1312 1304 1348 1331 1384 1348 1420 1366 1456 1390 1491 1410 1527 1429 1563 1442 1599 1451 1635 1447 1671 1446 1706 1424 1742 1404 1778 1383 1814 1357 1850 1322 1886 1301 1921 1263 1957 1251
 1993 1236 2029 1204 2065 1176 2101 1162 2136 1165 50 { m20} R 0.52 0.76 0.64 c[ 4 8] 0 sd 9 lw black 0.52 0.76 0.64 c 363 1072 m 36 6 d 35 7 d 36 7 d 36 7 d 36 7 d 36 7 d 36 7 d 35 7 d 36 8 d 36 7 d 36 7 d 36 8 d 36 8 d 35 7 d 36 8 d 36 8 d 36 8 d
 36 8 d 36 8 d 35 8 d 36 9 d 36 8 d 36 9 d 36 8 d 36 9 d 35 9 d 18 4 d 18 5 d 18 5 d 18 4 d 18 5 d 18 4 d 36 9 d 18 4 d 18 4 d 17 3 d 18 3 d 18 2 d 18 2 d 18 1 d 18 1 d 18 1 d 18 X 18 -1 d 18 -1 d 18 -1 d 18 -2 d 17 -2 d 18 -2 d 18 -3 d 18 -4 d 18 -4
 d 18 -4 d 36 -10 d 36 -12 d 36 -14 d 17 -7 d 18 -8 d 18 -8 d 18 -9 d 18 -9 d 18 -10 d 18 -10 d 18 -11 d 18 -10 d 18 -12 d 18 -12 d 18 -12 d 35 -26 d s 0.54 0.66 0.63 c black 0.54 0.66 0.63 c 1079 634 m s 1079 634 m 36 105 d 36 97 d 36 90 d 36 83 d
 36 76 d 17 35 d 18 33 d 18 31 d 18 29 d 18 28 d 9 13 d 9 13 d 9 12 d 9 12 d 9 11 d 9 11 d 9 10 d 9 10 d 9 10 d 9 9 d 9 8 d 9 8 d 9 8 d 9 7 d 17 13 d 18 11 d 18 10 d 9 4 d 9 3 d 9 3 d 9 3 d 9 2 d 9 2 d 9 1 d 9 1 d 18 X 9 -1 d 9 -1 d 9 -2 d 9 -2 d 9
 -2 d 9 -3 d 9 -3 d 9 -4 d 17 -9 d 18 -11 d 18 -13 d 18 -14 d 9 -8 d 9 -9 d 9 -8 d 9 -10 d 9 -9 d 9 -11 d 9 -10 d 9 -12 d 9 -11 d 9 -12 d 9 -13 d 9 -13 d 18 -27 d 18 -29 d 17 -31 d 18 -33 d 36 -71 d 36 -79 d 36 -86 d 36 -93 d 36 -100 d 20 -62 d s
 black[  ] 0 sd 3 lw 363 634 m 1791 X s 448 659 m -25 Y s 491 646 m -12 Y s 533 646 m -12 Y s 576 646 m -12 Y s 619 659 m -25 Y s 661 646 m -12 Y s 704 646 m -12 Y s 747 646 m -12 Y s 789 659 m -25 Y s 832 646 m -12 Y s 875 646 m -12 Y s 917 646 m
 -12 Y s 960 659 m -25 Y s 1003 646 m -12 Y s 1045 646 m -12 Y s 1088 646 m -12 Y s 1131 659 m -25 Y s 1173 646 m -12 Y s 1216 646 m -12 Y s 1259 646 m -12 Y s 1301 659 m -25 Y s 1344 646 m -12 Y s 1387 646 m -12 Y s 1429 646 m -12 Y s 1472 659 m -25
 Y s 1515 646 m -12 Y s 1557 646 m -12 Y s 1600 646 m -12 Y s 1642 659 m -25 Y s 1685 646 m -12 Y s 1728 646 m -12 Y s 1770 646 m -12 Y s 1813 659 m -25 Y s 1856 646 m -12 Y s 1898 646 m -12 Y s 1941 646 m -12 Y s 1984 659 m -25 Y s 2026 646 m -12 Y
 s 2069 646 m -12 Y s 2112 646 m -12 Y s 2154 659 m -25 Y s 448 659 m -25 Y s 405 646 m -12 Y s 363 646 m -12 Y s 363 1484 m 1791 X s 448 1459 m 25 Y s 491 1471 m 13 Y s 533 1471 m 13 Y s 576 1471 m 13 Y s 619 1459 m 25 Y s 661 1471 m 13 Y s 704 1471
 m 13 Y s 747 1471 m 13 Y s 789 1459 m 25 Y s 832 1471 m 13 Y s 875 1471 m 13 Y s 917 1471 m 13 Y s 960 1459 m 25 Y s 1003 1471 m 13 Y s 1045 1471 m 13 Y s 1088 1471 m 13 Y s 1131 1459 m 25 Y s 1173 1471 m 13 Y s 1216 1471 m 13 Y s 1259 1471 m 13 Y s
 1301 1459 m 25 Y s 1344 1471 m 13 Y s 1387 1471 m 13 Y s 1429 1471 m 13 Y s 1472 1459 m 25 Y s 1515 1471 m 13 Y s 1557 1471 m 13 Y s 1600 1471 m 13 Y s 1642 1459 m 25 Y s 1685 1471 m 13 Y s 1728 1471 m 13 Y s 1770 1471 m 13 Y s 1813 1459 m 25 Y s
 1856 1471 m 13 Y s 1898 1471 m 13 Y s 1941 1471 m 13 Y s 1984 1459 m 25 Y s 2026 1471 m 13 Y s 2069 1471 m 13 Y s 2112 1471 m 13 Y s 2154 1459 m 25 Y s 448 1459 m 25 Y s 405 1471 m 13 Y s 363 1471 m 13 Y s 363 634 m 850 Y s 417 634 m -54 X s 390 681
 m -27 X s 390 709 m -27 X s 390 728 m -27 X s 390 744 m -27 X s 390 756 m -27 X s 390 767 m -27 X s 390 776 m -27 X s 390 784 m -27 X s 417 791 m -54 X s 390 838 m -27 X s 390 866 m -27 X s 390 886 m -27 X s 390 901 m -27 X s 390 913 m -27 X s 390
 924 m -27 X s 390 933 m -27 X s 390 941 m -27 X s 417 948 m -54 X s 390 996 m -27 X s 390 1023 m -27 X s 390 1043 m -27 X s 390 1058 m -27 X s 390 1071 m -27 X s 390 1081 m -27 X s 390 1090 m -27 X s 390 1098 m -27 X s 417 1105 m -54 X s 390 1153 m
 -27 X s 390 1181 m -27 X s 390 1200 m -27 X s 390 1215 m -27 X s 390 1228 m -27 X s 390 1238 m -27 X s 390 1248 m -27 X s 390 1256 m -27 X s 417 1263 m -54 X s 390 1310 m -27 X s 390 1338 m -27 X s 390 1357 m -27 X s 390 1373 m -27 X s 390 1385 m
 -27 X s 390 1396 m -27 X s 390 1405 m -27 X s 390 1413 m -27 X s 417 1420 m -54 X s 390 1467 m -27 X s 2154 634 m 850 Y s 2101 634 m 53 X s 2127 681 m 27 X s 2127 709 m 27 X s 2127 728 m 27 X s 2127 744 m 27 X s 2127 756 m 27 X s 2127 767 m 27 X s
 2127 776 m 27 X s 2127 784 m 27 X s 2101 791 m 53 X s 2127 838 m 27 X s 2127 866 m 27 X s 2127 886 m 27 X s 2127 901 m 27 X s 2127 913 m 27 X s 2127 924 m 27 X s 2127 933 m 27 X s 2127 941 m 27 X s 2101 948 m 53 X s 2127 996 m 27 X s 2127 1023 m 27
 X s 2127 1043 m 27 X s 2127 1058 m 27 X s 2127 1071 m 27 X s 2127 1081 m 27 X s 2127 1090 m 27 X s 2127 1098 m 27 X s 2101 1105 m 53 X s 2127 1153 m 27 X s 2127 1181 m 27 X s 2127 1200 m 27 X s 2127 1215 m 27 X s 2127 1228 m 27 X s 2127 1238 m 27 X
 s 2127 1248 m 27 X s 2127 1256 m 27 X s 2101 1263 m 53 X s 2127 1310 m 27 X s 2127 1338 m 27 X s 2127 1357 m 27 X s 2127 1373 m 27 X s 2127 1385 m 27 X s 2127 1396 m 27 X s 2127 1405 m 27 X s 2127 1413 m 27 X s 2101 1420 m 53 X s 2127 1467 m 27 X s
 gsave  2268 1077 0 461 C 677.708 1215.31 t 0 r /Helvetica findfont 58.7189 sf 0 0 m (2mu2e) show NC gr  1 1 1 c 453 161 454 1269 bf black
 gsave  2268 1077 0 461 C 566.929 1371.71 t 0 r /Helvetica-Bold findfont 48.9324 sf 0 0 m (MC15) show NC gr  510 1390 m20
 gsave  2268 1077 0 461 C 566.929 1293.51 t 0 r /Helvetica-Bold findfont 48.9324 sf 0 0 m (Projection of Signal pdf) show NC gr  0 0 1 c 9 lw 471 1309 m 79 X s black 3 lw 1 1 1 c 2268 461 0 0 bf black 1 1 1 c 1791 364 363 74 bf black 1791 364 363 74
 bl 363 74 m 1791 X s
 gsave  2268 461 0 0 C 1915.83 13.0329 t 0 r /Helvetica findfont 22.9045 sf 0 0 m (4l Invariant Mass \(GeV\)) show NC gr  448 85 m -11 Y s 491 79 m -5 Y s 533 79 m -5 Y s 576 79 m -5 Y s 619 85 m -11 Y s 661 79 m -5 Y s 704 79 m -5 Y s 747 79 m -5 Y
 s 789 85 m -11 Y s 832 79 m -5 Y s 875 79 m -5 Y s 917 79 m -5 Y s 960 85 m -11 Y s 1003 79 m -5 Y s 1045 79 m -5 Y s 1088 79 m -5 Y s 1131 85 m -11 Y s 1173 79 m -5 Y s 1216 79 m -5 Y s 1259 79 m -5 Y s 1301 85 m -11 Y s 1344 79 m -5 Y s 1387 79 m
 -5 Y s 1429 79 m -5 Y s 1472 85 m -11 Y s 1515 79 m -5 Y s 1557 79 m -5 Y s 1600 79 m -5 Y s 1642 85 m -11 Y s 1685 79 m -5 Y s 1728 79 m -5 Y s 1770 79 m -5 Y s 1813 85 m -11 Y s 1856 79 m -5 Y s 1898 79 m -5 Y s 1941 79 m -5 Y s 1984 85 m -11 Y s
 2026 79 m -5 Y s 2069 79 m -5 Y s 2112 79 m -5 Y s 2154 85 m -11 Y s 448 85 m -11 Y s 405 79 m -5 Y s 363 79 m -5 Y s
 gsave  2268 461 0 0 C 426.826 55.3896 t 0 r /Helvetica findfont 22.9045 sf 0 0 m (560) show NC gr 
 gsave  2268 461 0 0 C 596.253 55.3896 t 0 r /Helvetica findfont 22.9045 sf 0 0 m (580) show NC gr 
 gsave  2268 461 0 0 C 768.938 55.3896 t 0 r /Helvetica findfont 22.9045 sf 0 0 m (600) show NC gr 
 gsave  2268 461 0 0 C 938.365 55.3896 t 0 r /Helvetica findfont 22.9045 sf 0 0 m (620) show NC gr 
 gsave  2268 461 0 0 C 1111.05 55.3896 t 0 r /Helvetica findfont 22.9045 sf 0 0 m (640) show NC gr 
 gsave  2268 461 0 0 C 1280.48 55.3896 t 0 r /Helvetica findfont 22.9045 sf 0 0 m (660) show NC gr 
 gsave  2268 461 0 0 C 1449.91 55.3896 t 0 r /Helvetica findfont 22.9045 sf 0 0 m (680) show NC gr 
 gsave  2268 461 0 0 C 1622.59 55.3896 t 0 r /Helvetica findfont 22.9045 sf 0 0 m (700) show NC gr 
 gsave  2268 461 0 0 C 1792.02 55.3896 t 0 r /Helvetica findfont 22.9045 sf 0 0 m (720) show NC gr 
 gsave  2268 461 0 0 C 1961.44 55.3896 t 0 r /Helvetica findfont 22.9045 sf 0 0 m (740) show NC gr 
 gsave  2268 461 0 0 C 2134.13 55.3896 t 0 r /Helvetica findfont 22.9045 sf 0 0 m (760) show NC gr  363 438 m 1791 X s 448 427 m 11 Y s 491 433 m 5 Y s 533 433 m 5 Y s 576 433 m 5 Y s 619 427 m 11 Y s 661 433 m 5 Y s 704 433 m 5 Y s 747 433 m 5 Y s
 789 427 m 11 Y s 832 433 m 5 Y s 875 433 m 5 Y s 917 433 m 5 Y s 960 427 m 11 Y s 1003 433 m 5 Y s 1045 433 m 5 Y s 1088 433 m 5 Y s 1131 427 m 11 Y s 1173 433 m 5 Y s 1216 433 m 5 Y s 1259 433 m 5 Y s 1301 427 m 11 Y s 1344 433 m 5 Y s 1387 433 m 5
 Y s 1429 433 m 5 Y s 1472 427 m 11 Y s 1515 433 m 5 Y s 1557 433 m 5 Y s 1600 433 m 5 Y s 1642 427 m 11 Y s 1685 433 m 5 Y s 1728 433 m 5 Y s 1770 433 m 5 Y s 1813 427 m 11 Y s 1856 433 m 5 Y s 1898 433 m 5 Y s 1941 433 m 5 Y s 1984 427 m 11 Y s
 2026 433 m 5 Y s 2069 433 m 5 Y s 2112 433 m 5 Y s 2154 427 m 11 Y s 448 427 m 11 Y s 405 433 m 5 Y s 363 433 m 5 Y s 363 74 m 364 Y s 417 74 m -54 X s 390 81 m -27 X s 390 88 m -27 X s 390 96 m -27 X s 390 103 m -27 X s 417 110 m -54 X s 390 118 m
 -27 X s 390 125 m -27 X s 390 132 m -27 X s 390 139 m -27 X s 417 147 m -54 X s 390 154 m -27 X s 390 161 m -27 X s 390 169 m -27 X s 390 176 m -27 X s 417 183 m -54 X s 390 190 m -27 X s 390 198 m -27 X s 390 205 m -27 X s 390 212 m -27 X s 417 220
 m -54 X s 390 227 m -27 X s 390 234 m -27 X s 390 241 m -27 X s 390 249 m -27 X s 417 256 m -54 X s 390 263 m -27 X s 390 271 m -27 X s 390 278 m -27 X s 390 285 m -27 X s 417 293 m -54 X s 390 300 m -27 X s 390 307 m -27 X s 390 314 m -27 X s 390
 322 m -27 X s 417 329 m -54 X s 390 336 m -27 X s 390 344 m -27 X s 390 351 m -27 X s 390 358 m -27 X s 417 365 m -54 X s 390 373 m -27 X s 390 380 m -27 X s 390 387 m -27 X s 390 395 m -27 X s 417 402 m -54 X s 390 409 m -27 X s 390 416 m -27 X s
 390 424 m -27 X s 390 431 m -27 X s 417 438 m -54 X s
 gsave  2268 461 0 0 C 329.08 65.1643 t 0 r /Helvetica findfont 22.9045 sf 0 0 m (\2555) show NC gr 
 gsave  2268 461 0 0 C 329.08 101.005 t 0 r /Helvetica findfont 22.9045 sf 0 0 m (\2554) show NC gr 
 gsave  2268 461 0 0 C 329.08 140.103 t 0 r /Helvetica findfont 22.9045 sf 0 0 m (\2553) show NC gr 
 gsave  2268 461 0 0 C 329.08 175.944 t 0 r /Helvetica findfont 22.9045 sf 0 0 m (\2552) show NC gr 
 gsave  2268 461 0 0 C 332.338 211.784 t 0 r /Helvetica findfont 22.9045 sf 0 0 m (\2551) show NC gr 
 gsave  2268 461 0 0 C 335.596 247.624 t 0 r /Helvetica findfont 22.9045 sf 0 0 m (0) show NC gr 
 gsave  2268 461 0 0 C 338.854 283.465 t 0 r /Helvetica findfont 22.9045 sf 0 0 m (1) show NC gr 
 gsave  2268 461 0 0 C 335.596 319.305 t 0 r /Helvetica findfont 22.9045 sf 0 0 m (2) show NC gr 
 gsave  2268 461 0 0 C 335.596 358.403 t 0 r /Helvetica findfont 22.9045 sf 0 0 m (3) show NC gr 
 gsave  2268 461 0 0 C 335.596 394.244 t 0 r /Helvetica findfont 22.9045 sf 0 0 m (4) show NC gr 
 gsave  2268 461 0 0 C 335.596 430.084 t 0 r /Helvetica findfont 22.9045 sf 0 0 m (5) show NC gr  2154 74 m 364 Y s 2101 74 m 53 X s 2127 81 m 27 X s 2127 88 m 27 X s 2127 96 m 27 X s 2127 103 m 27 X s 2101 110 m 53 X s 2127 118 m 27 X s 2127 125 m
 27 X s 2127 132 m 27 X s 2127 139 m 27 X s 2101 147 m 53 X s 2127 154 m 27 X s 2127 161 m 27 X s 2127 169 m 27 X s 2127 176 m 27 X s 2101 183 m 53 X s 2127 190 m 27 X s 2127 198 m 27 X s 2127 205 m 27 X s 2127 212 m 27 X s 2101 220 m 53 X s 2127 227
 m 27 X s 2127 234 m 27 X s 2127 241 m 27 X s 2127 249 m 27 X s 2101 256 m 53 X s 2127 263 m 27 X s 2127 271 m 27 X s 2127 278 m 27 X s 2127 285 m 27 X s 2101 293 m 53 X s 2127 300 m 27 X s 2127 307 m 27 X s 2127 314 m 27 X s 2127 322 m 27 X s 2101
 329 m 53 X s 2127 336 m 27 X s 2127 344 m 27 X s 2127 351 m 27 X s 2127 358 m 27 X s 2101 365 m 53 X s 2127 373 m 27 X s 2127 380 m 27 X s 2127 387 m 27 X s 2127 395 m 27 X s 2101 402 m 53 X s 2127 409 m 27 X s 2127 416 m 27 X s 2127 424 m 27 X s
 2127 431 m 27 X s 2101 438 m 53 X s 6 lw 0.2 0.8 0.2 c black 3 lw 0.2 0.8 0.2 c 363 256 m 60 Y 36 X -7 Y 35 X -27 Y 36 X -65 Y 36 X 112 Y 36 X -87 Y 36 X 27 Y 36 X 51 Y 35 X -84 Y 36 X -5 Y 36 X 82 Y 36 X -65 Y 36 X 5 Y 36 X -31 Y 35 X 15 Y 36 X 4 Y
 36 X -87 Y 36 X 87 Y 36 X -49 Y 36 X 57 Y 35 X -40 Y 36 X 19 Y 36 X -24 Y 36 X 12 Y 36 X 79 Y 36 X 30 Y 35 X 15 Y 36 X 48 Y 36 X -60 Y 36 X -93 Y 36 X -30 Y 36 X -37 Y 35 X 21 Y 36 X 38 Y 36 X 88 Y 36 X -57 Y 36 X 132 Y 36 X -169 Y 35 X -8 Y 36 X 42
 Y 36 X 18 Y 36 X -63 Y 36 X 52 Y 36 X -73 Y 35 X 56 Y 36 X 32 Y 36 X -41 Y 36 X -11 Y 36 X 27 Y 36 X 61 Y 35 X -57 Y f 6 lw black 0.2 0.8 0.2 c black 363 316 m 36 X -7 Y 35 X -27 Y 36 X -65 Y 36 X 112 Y 36 X -87 Y 36 X 27 Y 36 X 51 Y 35 X -84 Y 36 X
 -5 Y 36 X 82 Y 36 X -65 Y 36 X 5 Y 36 X -31 Y 35 X 15 Y 36 X 4 Y 36 X -87 Y 36 X 87 Y 36 X -49 Y 36 X 57 Y 35 X -40 Y 36 X 19 Y 36 X -24 Y 36 X 12 Y 36 X 79 Y 36 X 30 Y 35 X 15 Y 36 X 48 Y 36 X -60 Y 36 X -93 Y 36 X -30 Y 36 X -37 Y 35 X 21 Y 36 X
 38 Y 36 X 88 Y 36 X -57 Y 36 X 132 Y 36 X -169 Y 35 X -8 Y 36 X 42 Y 36 X 18 Y 36 X -63 Y 36 X 52 Y 36 X -73 Y 35 X 56 Y 36 X 32 Y 36 X -41 Y 36 X -11 Y 36 X 27 Y 36 X 61 Y 35 X s 3 lw 363 74 m 1791 X s 448 85 m -11 Y s 491 79 m -5 Y s 533 79 m -5 Y
 s 576 79 m -5 Y s 619 85 m -11 Y s 661 79 m -5 Y s 704 79 m -5 Y s 747 79 m -5 Y s 789 85 m -11 Y s 832 79 m -5 Y s 875 79 m -5 Y s 917 79 m -5 Y s 960 85 m -11 Y s 1003 79 m -5 Y s 1045 79 m -5 Y s 1088 79 m -5 Y s 1131 85 m -11 Y s 1173 79 m -5 Y
 s 1216 79 m -5 Y s 1259 79 m -5 Y s 1301 85 m -11 Y s 1344 79 m -5 Y s 1387 79 m -5 Y s 1429 79 m -5 Y s 1472 85 m -11 Y s 1515 79 m -5 Y s 1557 79 m -5 Y s 1600 79 m -5 Y s 1642 85 m -11 Y s 1685 79 m -5 Y s 1728 79 m -5 Y s 1770 79 m -5 Y s 1813
 85 m -11 Y s 1856 79 m -5 Y s 1898 79 m -5 Y s 1941 79 m -5 Y s 1984 85 m -11 Y s 2026 79 m -5 Y s 2069 79 m -5 Y s 2112 79 m -5 Y s 2154 85 m -11 Y s 448 85 m -11 Y s 405 79 m -5 Y s 363 79 m -5 Y s 363 438 m 1791 X s 448 427 m 11 Y s 491 433 m 5 Y
 s 533 433 m 5 Y s 576 433 m 5 Y s 619 427 m 11 Y s 661 433 m 5 Y s 704 433 m 5 Y s 747 433 m 5 Y s 789 427 m 11 Y s 832 433 m 5 Y s 875 433 m 5 Y s 917 433 m 5 Y s 960 427 m 11 Y s 1003 433 m 5 Y s 1045 433 m 5 Y s 1088 433 m 5 Y s 1131 427 m 11 Y s
 1173 433 m 5 Y s 1216 433 m 5 Y s 1259 433 m 5 Y s 1301 427 m 11 Y s 1344 433 m 5 Y s 1387 433 m 5 Y s 1429 433 m 5 Y s 1472 427 m 11 Y s 1515 433 m 5 Y s 1557 433 m 5 Y s 1600 433 m 5 Y s 1642 427 m 11 Y s 1685 433 m 5 Y s 1728 433 m 5 Y s 1770 433
 m 5 Y s 1813 427 m 11 Y s 1856 433 m 5 Y s 1898 433 m 5 Y s 1941 433 m 5 Y s 1984 427 m 11 Y s 2026 433 m 5 Y s 2069 433 m 5 Y s 2112 433 m 5 Y s 2154 427 m 11 Y s 448 427 m 11 Y s 405 433 m 5 Y s 363 433 m 5 Y s 363 74 m 364 Y s 417 74 m -54 X s
 390 81 m -27 X s 390 88 m -27 X s 390 96 m -27 X s 390 103 m -27 X s 417 110 m -54 X s 390 118 m -27 X s 390 125 m -27 X s 390 132 m -27 X s 390 139 m -27 X s 417 147 m -54 X s 390 154 m -27 X s 390 161 m -27 X s 390 169 m -27 X s 390 176 m -27 X s
 417 183 m -54 X s 390 190 m -27 X s 390 198 m -27 X s 390 205 m -27 X s 390 212 m -27 X s 417 220 m -54 X s 390 227 m -27 X s 390 234 m -27 X s 390 241 m -27 X s 390 249 m -27 X s 417 256 m -54 X s 390 263 m -27 X s 390 271 m -27 X s 390 278 m -27 X
 s 390 285 m -27 X s 417 293 m -54 X s 390 300 m -27 X s 390 307 m -27 X s 390 314 m -27 X s 390 322 m -27 X s 417 329 m -54 X s 390 336 m -27 X s 390 344 m -27 X s 390 351 m -27 X s 390 358 m -27 X s 417 365 m -54 X s 390 373 m -27 X s 390 380 m -27
 X s 390 387 m -27 X s 390 395 m -27 X s 417 402 m -54 X s 390 409 m -27 X s 390 416 m -27 X s 390 424 m -27 X s 390 431 m -27 X s 417 438 m -54 X s 2154 74 m 364 Y s 2101 74 m 53 X s 2127 81 m 27 X s 2127 88 m 27 X s 2127 96 m 27 X s 2127 103 m 27 X
 s 2101 110 m 53 X s 2127 118 m 27 X s 2127 125 m 27 X s 2127 132 m 27 X s 2127 139 m 27 X s 2101 147 m 53 X s 2127 154 m 27 X s 2127 161 m 27 X s 2127 169 m 27 X s 2127 176 m 27 X s 2101 183 m 53 X s 2127 190 m 27 X s 2127 198 m 27 X s 2127 205 m 27
 X s 2127 212 m 27 X s 2101 220 m 53 X s 2127 227 m 27 X s 2127 234 m 27 X s 2127 241 m 27 X s 2127 249 m 27 X s 2101 256 m 53 X s 2127 263 m 27 X s 2127 271 m 27 X s 2127 278 m 27 X s 2127 285 m 27 X s 2101 293 m 53 X s 2127 300 m 27 X s 2127 307 m
 27 X s 2127 314 m 27 X s 2127 322 m 27 X s 2101 329 m 53 X s 2127 336 m 27 X s 2127 344 m 27 X s 2127 351 m 27 X s 2127 358 m 27 X s 2101 365 m 53 X s 2127 373 m 27 X s 2127 380 m 27 X s 2127 387 m 27 X s 2127 395 m 27 X s 2101 402 m 53 X s 2127 409
 m 27 X s 2127 416 m 27 X s 2127 424 m 27 X s 2127 431 m 27 X s 2101 438 m 53 X s
 gr  gr showpage
end
%%EOF
