%!PS-Adobe-2.0 EPSF-2.0
%%BoundingBox:  0 0 567 384
%%Title: H4l2015_plotfit/VBF_mass_signal_800_H4l_2mu2e.eps: 
%%Creator: ROOT Version 5.34/07
%%CreationDate: Mon Nov  9 16:28:36 2015
%%EndComments
%%BeginProlog
80 dict begin
/s {stroke} def /l {lineto} def /m {moveto} def /t {translate} def
/r {rotate} def /rl {roll}  def /R {repeat} def
/d {rlineto} def /rm {rmoveto} def /gr {grestore} def /f {eofill} def
/c {setrgbcolor} def /black {0 setgray} def /sd {setdash} def
/cl {closepath} def /sf {scalefont setfont} def /lw {setlinewidth} def
/box {m dup 0 exch d exch 0 d 0 exch neg d cl} def
/NC{systemdict begin initclip end}def/C{NC box clip newpath}def
/bl {box s} def /bf {box f} def /Y { 0 exch d} def /X { 0 d} def 
/K {{pop pop 0 moveto} exch kshow} bind def
/ita {/ang 15 def gsave [1 0 ang dup sin exch cos div 1 0 0] concat} def 
/mp {newpath /y exch def /x exch def} def
/side {[w .77 mul w .23 mul] .385 w mul sd w 0 l currentpoint t -144 r} def
/mr {mp x y w2 0 360 arc} def /m24 {mr s} def /m20 {mr f} def
/mb {mp x y w2 add m w2 neg 0 d 0 w neg d w 0 d 0 w d cl} def
/mt {mp x y w2 add m w2 neg w neg d w 0 d cl} def
/m21 {mb f} def /m25 {mb s} def /m22 {mt f} def /m26{mt s} def
/m23 {mp x y w2 sub m w2 w d w neg 0 d cl f} def
/m27 {mp x y w2 add m w3 neg w2 neg d w3 w2 neg d w3 w2 d cl s} def
/m28 {mp x w2 sub y w2 sub w3 add m w3 0 d  0 w3 neg d w3 0 d 0 w3 d w3 0 d  0 w3 d w3 neg 0 d 0 w3 d w3 neg 0 d 0 w3 neg d w3 neg 0 d cl s } def
/m29 {mp gsave x w2 sub y w2 add w3 sub m currentpoint t 4 {side} repeat cl fill gr} def
/m30 {mp gsave x w2 sub y w2 add w3 sub m currentpoint t 4 {side} repeat cl s gr} def
/m31 {mp x y w2 sub m 0 w d x w2 sub y m w 0 d x w2 sub y w2 add m w w neg d x w2 sub y w2 sub m w w d s} def
/m32 {mp x y w2 sub m w2 w d w neg 0 d cl s} def
/m33 {mp x y w2 add m w3 neg w2 neg d w3 w2 neg d w3 w2 d cl f} def
/m34 {mp x w2 sub y w2 sub w3 add m w3 0 d  0 w3 neg d w3 0 d 0 w3 d w3 0 d  0 w3 d w3 neg 0 d 0 w3 d w3 neg 0 d 0 w3 neg d w3 neg 0 d cl f } def
/m2 {mp x y w2 sub m 0 w d x w2 sub y m w 0 d s} def
/m5 {mp x w2 sub y w2 sub m w w d x w2 sub y w2 add m w w neg d s} def
/reEncode {exch findfont dup length dict begin {1 index /FID eq  {pop pop} {def} ifelse } forall /Encoding exch def currentdict end dup /FontName get exch definefont pop } def [/Times-Bold /Times-Italic /Times-BoldItalic /Helvetica /Helvetica-Oblique
 /Helvetica-Bold /Helvetica-BoldOblique /Courier /Courier-Oblique /Courier-Bold /Courier-BoldOblique /Times-Roman /AvantGarde-Book /AvantGarde-BookOblique /AvantGarde-Demi /AvantGarde-DemiOblique /Bookman-Demi /Bookman-DemiItalic /Bookman-Light
 /Bookman-LightItalic /Helvetica-Narrow /Helvetica-Narrow-Bold /Helvetica-Narrow-BoldOblique /Helvetica-Narrow-Oblique /NewCenturySchlbk-Roman /NewCenturySchlbk-Bold /NewCenturySchlbk-BoldItalic /NewCenturySchlbk-Italic /Palatino-Bold
 /Palatino-BoldItalic /Palatino-Italic /Palatino-Roman ] {ISOLatin1Encoding reEncode } forall
%%EndProlog
%%BeginSetup
%%EndSetup
newpath  gsave  .25 .25 scale  gsave  0 0 t black[  ] 0 sd 3 lw 1 1 1 c 2268 1538 0 0 bf black 1 1 1 c 2222 738 23 784 bf black 1 1 1 c 2222 739 23 15 bf black 1 1 1 c 2268 1077 0 461 bf black 1 1 1 c 1791 850 363 634 bf black 1791 850 363 634 bl 363
 634 m 1791 X s
 gsave  2268 1077 0 461 C 1642.14 498.507 t 0 r /Helvetica findfont 48.9324 sf 0 0 m (4l Invariant Mass \(GeV\)) show NC gr  506 659 m -25 Y s 578 646 m -12 Y s 649 646 m -12 Y s 721 646 m -12 Y s 793 646 m -12 Y s 864 659 m -25 Y s 936 646 m -12 Y s
 1008 646 m -12 Y s 1079 646 m -12 Y s 1151 646 m -12 Y s 1223 659 m -25 Y s 1294 646 m -12 Y s 1366 646 m -12 Y s 1438 646 m -12 Y s 1509 646 m -12 Y s 1581 659 m -25 Y s 1653 646 m -12 Y s 1724 646 m -12 Y s 1796 646 m -12 Y s 1868 646 m -12 Y s
 1939 659 m -25 Y s 506 659 m -25 Y s 434 646 m -12 Y s 1939 659 m -25 Y s 2011 646 m -12 Y s 2083 646 m -12 Y s 2154 646 m -12 Y s
 gsave  2268 1077 0 461 C 462.666 586.478 t 0 r /Helvetica findfont 48.9324 sf 0 0 m (650) show NC gr 
 gsave  2268 1077 0 461 C 821.07 586.478 t 0 r /Helvetica findfont 48.9324 sf 0 0 m (700) show NC gr 
 gsave  2268 1077 0 461 C 1179.47 586.478 t 0 r /Helvetica findfont 48.9324 sf 0 0 m (750) show NC gr 
 gsave  2268 1077 0 461 C 1537.88 586.478 t 0 r /Helvetica findfont 48.9324 sf 0 0 m (800) show NC gr 
 gsave  2268 1077 0 461 C 1896.28 586.478 t 0 r /Helvetica findfont 48.9324 sf 0 0 m (850) show NC gr  363 1484 m 1791 X s 506 1459 m 25 Y s 578 1471 m 13 Y s 649 1471 m 13 Y s 721 1471 m 13 Y s 793 1471 m 13 Y s 864 1459 m 25 Y s 936 1471 m 13 Y s
 1008 1471 m 13 Y s 1079 1471 m 13 Y s 1151 1471 m 13 Y s 1223 1459 m 25 Y s 1294 1471 m 13 Y s 1366 1471 m 13 Y s 1438 1471 m 13 Y s 1509 1471 m 13 Y s 1581 1459 m 25 Y s 1653 1471 m 13 Y s 1724 1471 m 13 Y s 1796 1471 m 13 Y s 1868 1471 m 13 Y s
 1939 1459 m 25 Y s 506 1459 m 25 Y s 434 1471 m 13 Y s 1939 1459 m 25 Y s 2011 1471 m 13 Y s 2083 1471 m 13 Y s 2154 1471 m 13 Y s 363 634 m 850 Y s
 gsave  2268 1077 0 461 C 120.554 1098.02 t 90 r /Helvetica findfont 48.9324 sf 0 0 m (Events / \( 5 GeV \)) show NC gr  417 634 m -54 X s
 gsave  2268 1077 0 461 C 312.788 632.093 t 0 r /Helvetica findfont 32.6216 sf 0 0 m (\2552) show NC gr 
 gsave  2268 1077 0 461 C 260.657 612.544 t 0 r /Helvetica findfont 48.9324 sf 0 0 m (10) show NC gr  390 681 m -27 X s 390 709 m -27 X s 390 728 m -27 X s 390 743 m -27 X s 390 756 m -27 X s 390 766 m -27 X s 390 775 m -27 X s 390 783 m -27 X s 417
 791 m -54 X s
 gsave  2268 1077 0 461 C 319.305 788.488 t 0 r /Helvetica findfont 32.6216 sf 0 0 m (\2551) show NC gr 
 gsave  2268 1077 0 461 C 267.173 768.938 t 0 r /Helvetica findfont 48.9324 sf 0 0 m (10) show NC gr  390 838 m -27 X s 390 866 m -27 X s 390 885 m -27 X s 390 900 m -27 X s 390 913 m -27 X s 390 923 m -27 X s 390 932 m -27 X s 390 941 m -27 X s 417
 948 m -54 X s
 gsave  2268 1077 0 461 C 342.425 926.845 t 0 r  -27 0 t /Helvetica findfont 48.9324 sf 0 0 m (1) show NC gr  390 995 m -27 X s 390 1023 m -27 X s 390 1042 m -27 X s 390 1057 m -27 X s 390 1070 m -27 X s 390 1080 m -27 X s 390 1090 m -27 X s 390 1098
 m -27 X s 417 1105 m -54 X s
 gsave  2268 1077 0 461 C 342.425 1083.89 t 0 r  -55 0 t /Helvetica findfont 48.9324 sf 0 0 m (10) show NC gr  390 1152 m -27 X s 390 1180 m -27 X s 390 1199 m -27 X s 390 1215 m -27 X s 390 1227 m -27 X s 390 1237 m -27 X s 390 1247 m -27 X s 390
 1255 m -27 X s 417 1262 m -54 X s
 gsave  2268 1077 0 461 C 322.563 1260.93 t 0 r /Helvetica findfont 32.6216 sf 0 0 m (2) show NC gr 
 gsave  2268 1077 0 461 C 270.432 1241.38 t 0 r /Helvetica findfont 48.9324 sf 0 0 m (10) show NC gr  390 1309 m -27 X s 390 1337 m -27 X s 390 1356 m -27 X s 390 1372 m -27 X s 390 1384 m -27 X s 390 1395 m -27 X s 390 1404 m -27 X s 390 1412 m -27
 X s 417 1419 m -54 X s
 gsave  2268 1077 0 461 C 322.563 1420.58 t 0 r /Helvetica findfont 32.6216 sf 0 0 m (3) show NC gr 
 gsave  2268 1077 0 461 C 270.432 1397.77 t 0 r /Helvetica findfont 48.9324 sf 0 0 m (10) show NC gr  390 1466 m -27 X s 2154 634 m 850 Y s 2101 634 m 53 X s 2127 681 m 27 X s 2127 709 m 27 X s 2127 728 m 27 X s 2127 743 m 27 X s 2127 756 m 27 X s
 2127 766 m 27 X s 2127 775 m 27 X s 2127 783 m 27 X s 2101 791 m 53 X s 2127 838 m 27 X s 2127 866 m 27 X s 2127 885 m 27 X s 2127 900 m 27 X s 2127 913 m 27 X s 2127 923 m 27 X s 2127 932 m 27 X s 2127 941 m 27 X s 2101 948 m 53 X s 2127 995 m 27 X
 s 2127 1023 m 27 X s 2127 1042 m 27 X s 2127 1057 m 27 X s 2127 1070 m 27 X s 2127 1080 m 27 X s 2127 1090 m 27 X s 2127 1098 m 27 X s 2101 1105 m 53 X s 2127 1152 m 27 X s 2127 1180 m 27 X s 2127 1199 m 27 X s 2127 1215 m 27 X s 2127 1227 m 27 X s
 2127 1237 m 27 X s 2127 1247 m 27 X s 2127 1255 m 27 X s 2101 1262 m 53 X s 2127 1309 m 27 X s 2127 1337 m 27 X s 2127 1356 m 27 X s 2127 1372 m 27 X s 2127 1384 m 27 X s 2127 1395 m 27 X s 2127 1404 m 27 X s 2127 1412 m 27 X s 2101 1419 m 53 X s
 2127 1466 m 27 X s 381 1070 m -18 X s 363 1070 m cl s 381 1070 m 18 X s 399 1070 m cl s 381 1070 m 32 Y s 381 1102 m cl s 381 1070 m -35 Y s 381 1035 m cl s 417 1117 m -18 X s 399 1117 m cl s 417 1117 m 17 X s 434 1117 m cl s 417 1117 m 22 Y s 417
 1139 m cl s 417 1117 m -23 Y s 417 1094 m cl s 452 1098 m -18 X s 434 1098 m cl s 452 1098 m 18 X s 470 1098 m cl s 452 1098 m 25 Y s 452 1123 m cl s 452 1098 m -27 Y s 452 1071 m cl s 488 1105 m -18 X s 470 1105 m cl s 488 1105 m 18 X s 506 1105 m
 cl s 488 1105 m 24 Y s 488 1129 m cl s 488 1105 m -26 Y s 488 1079 m cl s 524 1123 m -18 X s 506 1123 m cl s 524 1123 m 18 X s 542 1123 m cl s 524 1123 m 21 Y s 524 1144 m cl s 524 1123 m -22 Y s 524 1101 m cl s 560 1145 m -18 X s 542 1145 m cl s
 560 1145 m 18 X s 578 1145 m cl s 560 1145 m 17 Y s 560 1162 m cl s 560 1145 m -18 Y s 560 1127 m cl s 596 1149 m -18 X s 578 1149 m cl s 596 1149 m 18 X s 614 1149 m cl s 596 1149 m 17 Y s 596 1166 m cl s 596 1149 m -18 Y s 596 1131 m cl s 632 1128
 m -18 X s 614 1128 m cl s 632 1128 m 17 X s 649 1128 m cl s 632 1128 m 20 Y s 632 1148 m cl s 632 1128 m -21 Y s 632 1107 m cl s 667 1164 m -18 X s 649 1164 m cl s 667 1164 m 18 X s 685 1164 m cl s 667 1164 m 16 Y s 667 1180 m cl s 667 1164 m -15 Y
 s 667 1149 m cl s 703 1145 m -18 X s 685 1145 m cl s 703 1145 m 18 X s 721 1145 m cl s 703 1145 m 17 Y s 703 1162 m cl s 703 1145 m -18 Y s 703 1127 m cl s 739 1117 m -18 X s 721 1117 m cl s 739 1117 m 18 X s 757 1117 m cl s 739 1117 m 22 Y s 739
 1139 m cl s 739 1117 m -23 Y s 739 1094 m cl s 775 1141 m -18 X s 757 1141 m cl s 775 1141 m 18 X s 793 1141 m cl s 775 1141 m 18 Y s 775 1159 m cl s 775 1141 m -19 Y s 775 1122 m cl s 811 1159 m -18 X s 793 1159 m cl s 811 1159 m 18 X s 829 1159 m
 cl s 811 1159 m 15 Y s 811 1174 m cl s 811 1159 m -17 Y s 811 1142 m cl s 847 1145 m -18 X s 829 1145 m cl s 847 1145 m 17 X s 864 1145 m cl s 847 1145 m 17 Y s 847 1162 m cl s 847 1145 m -18 Y s 847 1127 m cl s 882 1182 m -18 X s 864 1182 m cl s
 882 1182 m 18 X s 900 1182 m cl s 882 1182 m 13 Y s 882 1195 m cl s 882 1182 m -14 Y s 882 1168 m cl s 918 1186 m -18 X s 900 1186 m cl s 918 1186 m 18 X s 936 1186 m cl s 918 1186 m 13 Y s 918 1199 m cl s 918 1186 m -13 Y s 918 1173 m cl s 954 1186
 m -18 X s 936 1186 m cl s 954 1186 m 18 X s 972 1186 m cl s 954 1186 m 13 Y s 954 1199 m cl s 954 1186 m -13 Y s 954 1173 m cl s 990 1204 m -18 X s 972 1204 m cl s 990 1204 m 18 X s 1008 1204 m cl s 990 1204 m 11 Y s 990 1215 m cl s 990 1204 m -11 Y
 s 990 1193 m cl s 1026 1203 m -18 X s 1008 1203 m cl s 1026 1203 m 18 X s 1044 1203 m cl s 1026 1203 m 11 Y s 1026 1214 m cl s 1026 1203 m -12 Y s 1026 1191 m cl s 1062 1230 m -18 X s 1044 1230 m cl s 1062 1230 m 17 X s 1079 1230 m cl s 1062 1230 m
 9 Y s 1062 1239 m cl s 1062 1230 m -9 Y s 1062 1221 m cl s 1097 1252 m -18 X s 1079 1252 m cl s 1097 1252 m 18 X s 1115 1252 m cl s 1097 1252 m 8 Y s 1097 1260 m cl s 1097 1252 m -7 Y s 1097 1245 m cl s 1133 1240 m -18 X s 1115 1240 m cl s 1133 1240
 m 18 X s 1151 1240 m cl s 1133 1240 m 9 Y s 1133 1249 m cl s 1133 1240 m -8 Y s 1133 1232 m cl s 1169 1268 m -18 X s 1151 1268 m cl s 1169 1268 m 18 X s 1187 1268 m cl s 1169 1268 m 7 Y s 1169 1275 m cl s 1169 1268 m -6 Y s 1169 1262 m cl s 1205
 1284 m -18 X s 1187 1284 m cl s 1205 1284 m 18 X s 1223 1284 m cl s 1205 1284 m 6 Y s 1205 1290 m cl s 1205 1284 m -6 Y s 1205 1278 m cl s 1241 1302 m -18 X s 1223 1302 m cl s 1241 1302 m 18 X s 1259 1302 m cl s 1241 1302 m 5 Y s 1241 1307 m cl s
 1241 1302 m -5 Y s 1241 1297 m cl s 1276 1323 m -17 X s 1259 1323 m cl s 1276 1323 m 18 X s 1294 1323 m cl s 1276 1323 m 5 Y s 1276 1328 m cl s 1276 1323 m -4 Y s 1276 1319 m cl s 1312 1336 m -18 X s 1294 1336 m cl s 1312 1336 m 18 X s 1330 1336 m
 cl s 1312 1336 m 4 Y s 1312 1340 m cl s 1312 1336 m -4 Y s 1312 1332 m cl s 1348 1368 m -18 X s 1330 1368 m cl s 1348 1368 m 18 X s 1366 1368 m cl s 1348 1368 m 4 Y s 1348 1372 m cl s 1348 1368 m -3 Y s 1348 1365 m cl s 1384 1386 m -18 X s 1366 1386
 m cl s 1384 1386 m 18 X s 1402 1386 m cl s 1384 1386 m 3 Y s 1384 1389 m cl s 1384 1386 m -3 Y s 1384 1383 m cl s 1420 1404 m -18 X s 1402 1404 m cl s 1420 1404 m 18 X s 1438 1404 m cl s 1420 1404 m 2 Y s 1420 1406 m cl s 1420 1404 m -3 Y s 1420
 1401 m cl s 1456 1427 m -18 X s 1438 1427 m cl s 1456 1427 m 18 X s 1474 1427 m cl s 1456 1427 m 2 Y s 1456 1429 m cl s 1456 1427 m -2 Y s 1456 1425 m cl s 1491 1442 m -17 X s 1474 1442 m cl s 1491 1442 m 18 X s 1509 1442 m cl s 1491 1442 m 2 Y s
 1491 1444 m cl s 1491 1442 m -2 Y s 1491 1440 m cl s 1527 1450 m -18 X s 1509 1450 m cl s 1527 1450 m 18 X s 1545 1450 m cl s 1527 1450 m 1 Y s 1527 1451 m cl s 1527 1450 m -2 Y s 1527 1448 m cl s 1563 1451 m -18 X s 1545 1451 m cl s 1563 1451 m 18
 X s 1581 1451 m cl s 1563 1451 m 2 Y s 1563 1453 m cl s 1563 1451 m -2 Y s 1563 1449 m cl s 1599 1446 m -18 X s 1581 1446 m cl s 1599 1446 m 18 X s 1617 1446 m cl s 1599 1446 m 2 Y s 1599 1448 m cl s 1599 1446 m -2 Y s 1599 1444 m cl s 1635 1434 m
 -18 X s 1617 1434 m cl s 1635 1434 m 18 X s 1653 1434 m cl s 1635 1434 m 2 Y s 1635 1436 m cl s 1635 1434 m -2 Y s 1635 1432 m cl s 1671 1411 m -18 X s 1653 1411 m cl s 1671 1411 m 18 X s 1689 1411 m cl s 1671 1411 m 3 Y s 1671 1414 m cl s 1671 1411
 m -2 Y s 1671 1409 m cl s 1706 1391 m -17 X s 1689 1391 m cl s 1706 1391 m 18 X s 1724 1391 m cl s 1706 1391 m 3 Y s 1706 1394 m cl s 1706 1391 m -2 Y s 1706 1389 m cl s 1742 1366 m -18 X s 1724 1366 m cl s 1742 1366 m 18 X s 1760 1366 m cl s 1742
 1366 m 3 Y s 1742 1369 m cl s 1742 1366 m -3 Y s 1742 1363 m cl s 1778 1337 m -18 X s 1760 1337 m cl s 1778 1337 m 18 X s 1796 1337 m cl s 1778 1337 m 4 Y s 1778 1341 m cl s 1778 1337 m -4 Y s 1778 1333 m cl s 1814 1313 m -18 X s 1796 1313 m cl s
 1814 1313 m 18 X s 1832 1313 m cl s 1814 1313 m 5 Y s 1814 1318 m cl s 1814 1313 m -5 Y s 1814 1308 m cl s 1850 1296 m -18 X s 1832 1296 m cl s 1850 1296 m 18 X s 1868 1296 m cl s 1850 1296 m 5 Y s 1850 1301 m cl s 1850 1296 m -6 Y s 1850 1290 m cl
 s 1886 1262 m -18 X s 1868 1262 m cl s 1886 1262 m 18 X s 1904 1262 m cl s 1886 1262 m 7 Y s 1886 1269 m cl s 1886 1262 m -7 Y s 1886 1255 m cl s 1921 1230 m -17 X s 1904 1230 m cl s 1921 1230 m 18 X s 1939 1230 m cl s 1921 1230 m 9 Y s 1921 1239 m
 cl s 1921 1230 m -9 Y s 1921 1221 m cl s 1957 1209 m -18 X s 1939 1209 m cl s 1957 1209 m 18 X s 1975 1209 m cl s 1957 1209 m 11 Y s 1957 1220 m cl s 1957 1209 m -11 Y s 1957 1198 m cl s 1993 1204 m -18 X s 1975 1204 m cl s 1993 1204 m 18 X s 2011
 1204 m cl s 1993 1204 m 11 Y s 1993 1215 m cl s 1993 1204 m -11 Y s 1993 1193 m cl s 2029 1177 m -18 X s 2011 1177 m cl s 2029 1177 m 18 X s 2047 1177 m cl s 2029 1177 m 14 Y s 2029 1191 m cl s 2029 1177 m -14 Y s 2029 1163 m cl s 2065 1152 m -18 X
 s 2047 1152 m cl s 2065 1152 m 18 X s 2083 1152 m cl s 2065 1152 m 17 Y s 2065 1169 m cl s 2065 1152 m -17 Y s 2065 1135 m cl s 2101 1117 m -18 X s 2083 1117 m cl s 2101 1117 m 18 X s 2119 1117 m cl s 2101 1117 m 22 Y s 2101 1139 m cl s 2101 1117 m
 -23 Y s 2101 1094 m cl s 2136 1117 m -17 X s 2119 1117 m cl s 2136 1117 m 18 X s 2154 1117 m cl s 2136 1117 m 22 Y s 2136 1139 m cl s 2136 1117 m -23 Y s 2136 1094 m cl s /w 31 def /w2 {w 2 div} def /w3 {w 3 div} def 381 1070 417 1117 452 1098 488
 1105 524 1123 560 1145 596 1149 632 1128 667 1164 703 1145 739 1117 775 1141 811 1159 847 1145 882 1182 918 1186 954 1186 990 1204 1026 1203 1062 1230 1097 1252 1133 1240 1169 1268 1205 1284 1241 1302 1276 1323 1312 1336 1348 1368 1384 1386 1420
 1404 1456 1427 1491 1442 1527 1450 1563 1451 1599 1446 1635 1434 1671 1411 1706 1391 1742 1366 1778 1337 1814 1313 1850 1296 1886 1262 1921 1230 1957 1209 1993 1204 2029 1177 2065 1152 2101 1117 2136 1117 50 { m20} R 0 1 1 c 1 1 0 c black 1 1 0 c
 363 1079 m 36 7 d 35 7 d 36 8 d 36 7 d 36 8 d 36 7 d 36 8 d 35 8 d 36 7 d 36 8 d 36 9 d 36 8 d 36 8 d 35 9 d 36 8 d 36 9 d 36 9 d 36 9 d 36 10 d 35 10 d 36 10 d 36 11 d 36 11 d 36 13 d 18 8 d 18 9 d 17 10 d 18 11 d 18 12 d 9 7 d 9 6 d 9 7 d 9 7 d 9
 6 d 9 7 d 9 6 d 9 6 d 9 6 d 9 6 d 18 10 d 18 10 d 18 9 d 18 7 d 9 3 d 8 3 d 9 2 d 9 2 d 9 2 d 9 1 d 9 1 d 18 X 9 -1 d 9 X 9 -2 d 9 -1 d 9 -3 d 9 -2 d 9 -3 d 9 -3 d 9 -4 d 18 -8 d 18 -9 d 18 -10 d 17 -12 d 9 -6 d 9 -6 d 9 -6 d 9 -7 d 9 -6 d 9 -7 d 9
 -7 d 9 -7 d 18 -13 d 18 -13 d 18 -12 d 18 -11 d 18 -12 d 36 -21 d 35 -21 d 36 -22 d 36 -22 d 36 -24 d 36 -25 d 36 -27 d 35 -29 d -42 Y -35 36 d -36 33 d -36 31 d -36 28 d -36 27 d -36 24 d -35 23 d -36 23 d -18 12 d -18 13 d -18 12 d -18 13 d -18 14
 d -9 6 d -9 7 d -9 7 d -9 7 d -9 6 d -9 7 d -9 6 d -9 7 d -17 12 d -18 11 d -18 10 d -18 8 d -9 4 d -9 3 d -9 3 d -9 2 d -9 2 d -9 2 d -9 1 d -9 1 d -27 X -9 -1 d -9 -1 d -9 -1 d -9 -2 d -9 -3 d -8 -2 d -9 -4 d -18 -7 d -18 -9 d -18 -10 d -18 -12 d
 -9 -6 d -9 -6 d -9 -7 d -9 -6 d -9 -7 d -9 -7 d -9 -6 d -9 -7 d -9 -6 d -9 -7 d -18 -12 d -18 -11 d -17 -11 d -18 -10 d -18 -8 d -36 -15 d -36 -11 d -36 -11 d -36 -9 d -35 -10 d -36 -9 d -36 -10 d -36 -10 d -36 -9 d -36 -10 d -35 -9 d -36 -9 d -36
 -10 d -36 -9 d -36 -9 d -36 -9 d -35 -9 d -36 -9 d -36 -8 d -36 -9 d -36 -8 d -36 -9 d -35 -8 d -36 -9 d f 0 1 1 c 0 1 0 c black 0 1 0 c 363 1073 m 36 7 d 35 8 d 36 8 d 36 7 d 36 8 d 36 8 d 36 8 d 35 8 d 36 8 d 36 8 d 36 8 d 36 9 d 36 8 d 35 9 d 36
 9 d 36 9 d 36 9 d 36 9 d 36 10 d 35 10 d 36 10 d 36 10 d 36 12 d 36 13 d 18 8 d 18 9 d 17 10 d 18 11 d 18 13 d 9 6 d 9 7 d 9 6 d 9 7 d 9 7 d 9 6 d 9 7 d 9 6 d 9 6 d 9 6 d 18 11 d 18 9 d 18 9 d 18 7 d 9 3 d 8 3 d 9 2 d 9 2 d 9 2 d 9 1 d 9 1 d 27 X 9
 -1 d 9 -1 d 9 -2 d 9 -2 d 9 -3 d 9 -3 d 9 -3 d 9 -3 d 18 -8 d 18 -10 d 18 -10 d 17 -12 d 9 -6 d 9 -6 d 9 -7 d 9 -6 d 9 -7 d 9 -7 d 9 -6 d 9 -7 d 18 -13 d 18 -13 d 18 -12 d 18 -12 d 18 -12 d 36 -21 d 35 -22 d 36 -22 d 36 -23 d 36 -25 d 36 -26 d 36
 -29 d 35 -29 d -21 Y -35 33 d -36 31 d -36 29 d -36 27 d -36 26 d -36 23 d -35 23 d -36 22 d -18 12 d -18 12 d -18 13 d -18 13 d -18 13 d -9 7 d -9 7 d -9 6 d -9 7 d -9 7 d -9 6 d -9 7 d -9 6 d -17 12 d -18 11 d -18 9 d -18 9 d -9 3 d -9 3 d -9 3 d
 -9 3 d -9 2 d -9 1 d -9 2 d -9 X -9 1 d -18 X -9 -1 d -9 -1 d -9 -2 d -9 -2 d -9 -2 d -8 -3 d -9 -3 d -18 -7 d -18 -9 d -18 -10 d -18 -12 d -9 -6 d -9 -6 d -9 -6 d -9 -7 d -9 -6 d -9 -7 d -9 -7 d -9 -6 d -9 -7 d -9 -6 d -18 -12 d -18 -12 d -17 -10 d
 -18 -10 d -18 -8 d -36 -14 d -36 -12 d -36 -10 d -36 -10 d -35 -10 d -36 -9 d -36 -10 d -36 -9 d -36 -9 d -36 -10 d -35 -9 d -36 -9 d -36 -9 d -36 -9 d -36 -8 d -36 -9 d -35 -9 d -36 -8 d -36 -8 d -36 -9 d -36 -8 d -36 -8 d -35 -8 d -36 -8 d f 0 0 1
 c 9 lw black 0 0 1 c 363 1067 m 36 8 d 35 7 d 36 8 d 36 8 d 36 8 d 36 8 d 36 8 d 35 8 d 36 9 d 36 8 d 36 9 d 36 8 d 36 9 d 35 9 d 36 9 d 36 9 d 36 10 d 36 9 d 36 10 d 35 9 d 36 10 d 36 11 d 36 11 d 36 14 d 18 8 d 18 9 d 17 11 d 18 11 d 18 12 d 9 7 d
 9 6 d 9 7 d 9 7 d 9 6 d 9 7 d 9 6 d 9 6 d 9 7 d 9 5 d 18 12 d 18 10 d 18 8 d 18 8 d 9 3 d 8 2 d 9 3 d 9 2 d 9 1 d 9 1 d 9 1 d 9 1 d 9 X 9 -1 d 9 -1 d 9 -1 d 9 -2 d 9 -2 d 9 -2 d 9 -3 d 9 -3 d 9 -4 d 18 -8 d 18 -10 d 18 -10 d 17 -12 d 9 -6 d 9 -6 d 9
 -7 d 9 -7 d 9 -6 d 9 -7 d 9 -7 d 9 -6 d 18 -14 d 18 -13 d 18 -12 d 18 -12 d 18 -12 d 36 -22 d 35 -22 d 36 -23 d 36 -24 d 36 -26 d 36 -27 d 36 -30 d 35 -31 d s black 3 lw 381 1070 m -18 X s 363 1070 m cl s 381 1070 m 18 X s 399 1070 m cl s 381 1070 m
 32 Y s 381 1102 m cl s 381 1070 m -35 Y s 381 1035 m cl s 417 1117 m -18 X s 399 1117 m cl s 417 1117 m 17 X s 434 1117 m cl s 417 1117 m 22 Y s 417 1139 m cl s 417 1117 m -23 Y s 417 1094 m cl s 452 1098 m -18 X s 434 1098 m cl s 452 1098 m 18 X s
 470 1098 m cl s 452 1098 m 25 Y s 452 1123 m cl s 452 1098 m -27 Y s 452 1071 m cl s 488 1105 m -18 X s 470 1105 m cl s 488 1105 m 18 X s 506 1105 m cl s 488 1105 m 24 Y s 488 1129 m cl s 488 1105 m -26 Y s 488 1079 m cl s 524 1123 m -18 X s 506
 1123 m cl s 524 1123 m 18 X s 542 1123 m cl s 524 1123 m 21 Y s 524 1144 m cl s 524 1123 m -22 Y s 524 1101 m cl s 560 1145 m -18 X s 542 1145 m cl s 560 1145 m 18 X s 578 1145 m cl s 560 1145 m 17 Y s 560 1162 m cl s 560 1145 m -18 Y s 560 1127 m
 cl s 596 1149 m -18 X s 578 1149 m cl s 596 1149 m 18 X s 614 1149 m cl s 596 1149 m 17 Y s 596 1166 m cl s 596 1149 m -18 Y s 596 1131 m cl s 632 1128 m -18 X s 614 1128 m cl s 632 1128 m 17 X s 649 1128 m cl s 632 1128 m 20 Y s 632 1148 m cl s 632
 1128 m -21 Y s 632 1107 m cl s 667 1164 m -18 X s 649 1164 m cl s 667 1164 m 18 X s 685 1164 m cl s 667 1164 m 16 Y s 667 1180 m cl s 667 1164 m -15 Y s 667 1149 m cl s 703 1145 m -18 X s 685 1145 m cl s 703 1145 m 18 X s 721 1145 m cl s 703 1145 m
 17 Y s 703 1162 m cl s 703 1145 m -18 Y s 703 1127 m cl s 739 1117 m -18 X s 721 1117 m cl s 739 1117 m 18 X s 757 1117 m cl s 739 1117 m 22 Y s 739 1139 m cl s 739 1117 m -23 Y s 739 1094 m cl s 775 1141 m -18 X s 757 1141 m cl s 775 1141 m 18 X s
 793 1141 m cl s 775 1141 m 18 Y s 775 1159 m cl s 775 1141 m -19 Y s 775 1122 m cl s 811 1159 m -18 X s 793 1159 m cl s 811 1159 m 18 X s 829 1159 m cl s 811 1159 m 15 Y s 811 1174 m cl s 811 1159 m -17 Y s 811 1142 m cl s 847 1145 m -18 X s 829
 1145 m cl s 847 1145 m 17 X s 864 1145 m cl s 847 1145 m 17 Y s 847 1162 m cl s 847 1145 m -18 Y s 847 1127 m cl s 882 1182 m -18 X s 864 1182 m cl s 882 1182 m 18 X s 900 1182 m cl s 882 1182 m 13 Y s 882 1195 m cl s 882 1182 m -14 Y s 882 1168 m
 cl s 918 1186 m -18 X s 900 1186 m cl s 918 1186 m 18 X s 936 1186 m cl s 918 1186 m 13 Y s 918 1199 m cl s 918 1186 m -13 Y s 918 1173 m cl s 954 1186 m -18 X s 936 1186 m cl s 954 1186 m 18 X s 972 1186 m cl s 954 1186 m 13 Y s 954 1199 m cl s 954
 1186 m -13 Y s 954 1173 m cl s 990 1204 m -18 X s 972 1204 m cl s 990 1204 m 18 X s 1008 1204 m cl s 990 1204 m 11 Y s 990 1215 m cl s 990 1204 m -11 Y s 990 1193 m cl s 1026 1203 m -18 X s 1008 1203 m cl s 1026 1203 m 18 X s 1044 1203 m cl s 1026
 1203 m 11 Y s 1026 1214 m cl s 1026 1203 m -12 Y s 1026 1191 m cl s 1062 1230 m -18 X s 1044 1230 m cl s 1062 1230 m 17 X s 1079 1230 m cl s 1062 1230 m 9 Y s 1062 1239 m cl s 1062 1230 m -9 Y s 1062 1221 m cl s 1097 1252 m -18 X s 1079 1252 m cl s
 1097 1252 m 18 X s 1115 1252 m cl s 1097 1252 m 8 Y s 1097 1260 m cl s 1097 1252 m -7 Y s 1097 1245 m cl s 1133 1240 m -18 X s 1115 1240 m cl s 1133 1240 m 18 X s 1151 1240 m cl s 1133 1240 m 9 Y s 1133 1249 m cl s 1133 1240 m -8 Y s 1133 1232 m cl
 s 1169 1268 m -18 X s 1151 1268 m cl s 1169 1268 m 18 X s 1187 1268 m cl s 1169 1268 m 7 Y s 1169 1275 m cl s 1169 1268 m -6 Y s 1169 1262 m cl s 1205 1284 m -18 X s 1187 1284 m cl s 1205 1284 m 18 X s 1223 1284 m cl s 1205 1284 m 6 Y s 1205 1290 m
 cl s 1205 1284 m -6 Y s 1205 1278 m cl s 1241 1302 m -18 X s 1223 1302 m cl s 1241 1302 m 18 X s 1259 1302 m cl s 1241 1302 m 5 Y s 1241 1307 m cl s 1241 1302 m -5 Y s 1241 1297 m cl s 1276 1323 m -17 X s 1259 1323 m cl s 1276 1323 m 18 X s 1294
 1323 m cl s 1276 1323 m 5 Y s 1276 1328 m cl s 1276 1323 m -4 Y s 1276 1319 m cl s 1312 1336 m -18 X s 1294 1336 m cl s 1312 1336 m 18 X s 1330 1336 m cl s 1312 1336 m 4 Y s 1312 1340 m cl s 1312 1336 m -4 Y s 1312 1332 m cl s 1348 1368 m -18 X s
 1330 1368 m cl s 1348 1368 m 18 X s 1366 1368 m cl s 1348 1368 m 4 Y s 1348 1372 m cl s 1348 1368 m -3 Y s 1348 1365 m cl s 1384 1386 m -18 X s 1366 1386 m cl s 1384 1386 m 18 X s 1402 1386 m cl s 1384 1386 m 3 Y s 1384 1389 m cl s 1384 1386 m -3 Y
 s 1384 1383 m cl s 1420 1404 m -18 X s 1402 1404 m cl s 1420 1404 m 18 X s 1438 1404 m cl s 1420 1404 m 2 Y s 1420 1406 m cl s 1420 1404 m -3 Y s 1420 1401 m cl s 1456 1427 m -18 X s 1438 1427 m cl s 1456 1427 m 18 X s 1474 1427 m cl s 1456 1427 m 2
 Y s 1456 1429 m cl s 1456 1427 m -2 Y s 1456 1425 m cl s 1491 1442 m -17 X s 1474 1442 m cl s 1491 1442 m 18 X s 1509 1442 m cl s 1491 1442 m 2 Y s 1491 1444 m cl s 1491 1442 m -2 Y s 1491 1440 m cl s 1527 1450 m -18 X s 1509 1450 m cl s 1527 1450 m
 18 X s 1545 1450 m cl s 1527 1450 m 1 Y s 1527 1451 m cl s 1527 1450 m -2 Y s 1527 1448 m cl s 1563 1451 m -18 X s 1545 1451 m cl s 1563 1451 m 18 X s 1581 1451 m cl s 1563 1451 m 2 Y s 1563 1453 m cl s 1563 1451 m -2 Y s 1563 1449 m cl s 1599 1446
 m -18 X s 1581 1446 m cl s 1599 1446 m 18 X s 1617 1446 m cl s 1599 1446 m 2 Y s 1599 1448 m cl s 1599 1446 m -2 Y s 1599 1444 m cl s 1635 1434 m -18 X s 1617 1434 m cl s 1635 1434 m 18 X s 1653 1434 m cl s 1635 1434 m 2 Y s 1635 1436 m cl s 1635
 1434 m -2 Y s 1635 1432 m cl s 1671 1411 m -18 X s 1653 1411 m cl s 1671 1411 m 18 X s 1689 1411 m cl s 1671 1411 m 3 Y s 1671 1414 m cl s 1671 1411 m -2 Y s 1671 1409 m cl s 1706 1391 m -17 X s 1689 1391 m cl s 1706 1391 m 18 X s 1724 1391 m cl s
 1706 1391 m 3 Y s 1706 1394 m cl s 1706 1391 m -2 Y s 1706 1389 m cl s 1742 1366 m -18 X s 1724 1366 m cl s 1742 1366 m 18 X s 1760 1366 m cl s 1742 1366 m 3 Y s 1742 1369 m cl s 1742 1366 m -3 Y s 1742 1363 m cl s 1778 1337 m -18 X s 1760 1337 m cl
 s 1778 1337 m 18 X s 1796 1337 m cl s 1778 1337 m 4 Y s 1778 1341 m cl s 1778 1337 m -4 Y s 1778 1333 m cl s 1814 1313 m -18 X s 1796 1313 m cl s 1814 1313 m 18 X s 1832 1313 m cl s 1814 1313 m 5 Y s 1814 1318 m cl s 1814 1313 m -5 Y s 1814 1308 m
 cl s 1850 1296 m -18 X s 1832 1296 m cl s 1850 1296 m 18 X s 1868 1296 m cl s 1850 1296 m 5 Y s 1850 1301 m cl s 1850 1296 m -6 Y s 1850 1290 m cl s 1886 1262 m -18 X s 1868 1262 m cl s 1886 1262 m 18 X s 1904 1262 m cl s 1886 1262 m 7 Y s 1886 1269
 m cl s 1886 1262 m -7 Y s 1886 1255 m cl s 1921 1230 m -17 X s 1904 1230 m cl s 1921 1230 m 18 X s 1939 1230 m cl s 1921 1230 m 9 Y s 1921 1239 m cl s 1921 1230 m -9 Y s 1921 1221 m cl s 1957 1209 m -18 X s 1939 1209 m cl s 1957 1209 m 18 X s 1975
 1209 m cl s 1957 1209 m 11 Y s 1957 1220 m cl s 1957 1209 m -11 Y s 1957 1198 m cl s 1993 1204 m -18 X s 1975 1204 m cl s 1993 1204 m 18 X s 2011 1204 m cl s 1993 1204 m 11 Y s 1993 1215 m cl s 1993 1204 m -11 Y s 1993 1193 m cl s 2029 1177 m -18 X
 s 2011 1177 m cl s 2029 1177 m 18 X s 2047 1177 m cl s 2029 1177 m 14 Y s 2029 1191 m cl s 2029 1177 m -14 Y s 2029 1163 m cl s 2065 1152 m -18 X s 2047 1152 m cl s 2065 1152 m 18 X s 2083 1152 m cl s 2065 1152 m 17 Y s 2065 1169 m cl s 2065 1152 m
 -17 Y s 2065 1135 m cl s 2101 1117 m -18 X s 2083 1117 m cl s 2101 1117 m 18 X s 2119 1117 m cl s 2101 1117 m 22 Y s 2101 1139 m cl s 2101 1117 m -23 Y s 2101 1094 m cl s 2136 1117 m -17 X s 2119 1117 m cl s 2136 1117 m 18 X s 2154 1117 m cl s 2136
 1117 m 22 Y s 2136 1139 m cl s 2136 1117 m -23 Y s 2136 1094 m cl s 381 1070 417 1117 452 1098 488 1105 524 1123 560 1145 596 1149 632 1128 667 1164 703 1145 739 1117 775 1141 811 1159 847 1145 882 1182 918 1186 954 1186 990 1204 1026 1203 1062 1230
 1097 1252 1133 1240 1169 1268 1205 1284 1241 1302 1276 1323 1312 1336 1348 1368 1384 1386 1420 1404 1456 1427 1491 1442 1527 1450 1563 1451 1599 1446 1635 1434 1671 1411 1706 1391 1742 1366 1778 1337 1814 1313 1850 1296 1886 1262 1921 1230 1957 1209
 1993 1204 2029 1177 2065 1152 2101 1117 2136 1117 50 { m20} R 0.52 0.76 0.64 c[ 4 8] 0 sd 9 lw black 0.52 0.76 0.64 c 363 1067 m 36 8 d 35 7 d 36 8 d 36 8 d 36 8 d 36 8 d 36 8 d 35 8 d 36 9 d 36 8 d 36 9 d 36 8 d 36 9 d 35 9 d 36 9 d 36 9 d 36 10 d
 36 9 d 36 10 d 35 9 d 36 10 d 36 10 d 36 10 d 18 5 d 18 5 d 18 6 d 18 5 d 17 5 d 18 5 d 18 6 d 18 5 d 36 11 d 18 4 d 18 4 d 18 4 d 18 3 d 18 3 d 18 2 d 17 2 d 18 1 d 18 1 d 54 X 18 -1 d 18 -2 d 18 -2 d 18 -3 d 18 -3 d 18 -3 d 17 -4 d 18 -5 d 36 -10
 d 36 -12 d 36 -14 d 18 -8 d 18 -8 d 18 -9 d 18 -9 d 17 -10 d 18 -10 d 18 -11 d 18 -11 d 18 -12 d 18 -12 d 18 -13 d 18 -13 d 36 -27 d 36 -30 d 35 -31 d s 0.54 0.66 0.63 c black 0.54 0.66 0.63 c 1034 634 m 10 30 d s 1044 664 m 35 106 d 36 97 d 36 90 d
 36 82 d 36 75 d 18 34 d 18 32 d 17 31 d 18 28 d 9 14 d 9 13 d 9 12 d 9 12 d 9 12 d 9 11 d 9 11 d 9 10 d 9 9 d 9 9 d 9 9 d 9 8 d 9 8 d 9 7 d 18 13 d 18 11 d 18 9 d 9 4 d 8 3 d 9 3 d 9 3 d 9 1 d 9 2 d 9 1 d 27 X 9 -2 d 9 -1 d 9 -2 d 9 -3 d 9 -2 d 9 -4
 d 9 -4 d 9 -4 d 18 -11 d 18 -12 d 18 -14 d 8 -8 d 9 -8 d 9 -9 d 9 -9 d 9 -10 d 9 -10 d 9 -11 d 9 -11 d 9 -12 d 9 -12 d 9 -13 d 9 -13 d 18 -28 d 18 -29 d 18 -32 d 18 -33 d 36 -73 d 35 -81 d 36 -89 d 36 -96 d 36 -104 d 16 -50 d s black[  ] 0 sd 3 lw
 363 634 m 1791 X s 506 659 m -25 Y s 578 646 m -12 Y s 649 646 m -12 Y s 721 646 m -12 Y s 793 646 m -12 Y s 864 659 m -25 Y s 936 646 m -12 Y s 1008 646 m -12 Y s 1079 646 m -12 Y s 1151 646 m -12 Y s 1223 659 m -25 Y s 1294 646 m -12 Y s 1366 646
 m -12 Y s 1438 646 m -12 Y s 1509 646 m -12 Y s 1581 659 m -25 Y s 1653 646 m -12 Y s 1724 646 m -12 Y s 1796 646 m -12 Y s 1868 646 m -12 Y s 1939 659 m -25 Y s 506 659 m -25 Y s 434 646 m -12 Y s 1939 659 m -25 Y s 2011 646 m -12 Y s 2083 646 m
 -12 Y s 2154 646 m -12 Y s 363 1484 m 1791 X s 506 1459 m 25 Y s 578 1471 m 13 Y s 649 1471 m 13 Y s 721 1471 m 13 Y s 793 1471 m 13 Y s 864 1459 m 25 Y s 936 1471 m 13 Y s 1008 1471 m 13 Y s 1079 1471 m 13 Y s 1151 1471 m 13 Y s 1223 1459 m 25 Y s
 1294 1471 m 13 Y s 1366 1471 m 13 Y s 1438 1471 m 13 Y s 1509 1471 m 13 Y s 1581 1459 m 25 Y s 1653 1471 m 13 Y s 1724 1471 m 13 Y s 1796 1471 m 13 Y s 1868 1471 m 13 Y s 1939 1459 m 25 Y s 506 1459 m 25 Y s 434 1471 m 13 Y s 1939 1459 m 25 Y s 2011
 1471 m 13 Y s 2083 1471 m 13 Y s 2154 1471 m 13 Y s 363 634 m 850 Y s 417 634 m -54 X s 390 681 m -27 X s 390 709 m -27 X s 390 728 m -27 X s 390 743 m -27 X s 390 756 m -27 X s 390 766 m -27 X s 390 775 m -27 X s 390 783 m -27 X s 417 791 m -54 X s
 390 838 m -27 X s 390 866 m -27 X s 390 885 m -27 X s 390 900 m -27 X s 390 913 m -27 X s 390 923 m -27 X s 390 932 m -27 X s 390 941 m -27 X s 417 948 m -54 X s 390 995 m -27 X s 390 1023 m -27 X s 390 1042 m -27 X s 390 1057 m -27 X s 390 1070 m
 -27 X s 390 1080 m -27 X s 390 1090 m -27 X s 390 1098 m -27 X s 417 1105 m -54 X s 390 1152 m -27 X s 390 1180 m -27 X s 390 1199 m -27 X s 390 1215 m -27 X s 390 1227 m -27 X s 390 1237 m -27 X s 390 1247 m -27 X s 390 1255 m -27 X s 417 1262 m
 -54 X s 390 1309 m -27 X s 390 1337 m -27 X s 390 1356 m -27 X s 390 1372 m -27 X s 390 1384 m -27 X s 390 1395 m -27 X s 390 1404 m -27 X s 390 1412 m -27 X s 417 1419 m -54 X s 390 1466 m -27 X s 2154 634 m 850 Y s 2101 634 m 53 X s 2127 681 m 27
 X s 2127 709 m 27 X s 2127 728 m 27 X s 2127 743 m 27 X s 2127 756 m 27 X s 2127 766 m 27 X s 2127 775 m 27 X s 2127 783 m 27 X s 2101 791 m 53 X s 2127 838 m 27 X s 2127 866 m 27 X s 2127 885 m 27 X s 2127 900 m 27 X s 2127 913 m 27 X s 2127 923 m
 27 X s 2127 932 m 27 X s 2127 941 m 27 X s 2101 948 m 53 X s 2127 995 m 27 X s 2127 1023 m 27 X s 2127 1042 m 27 X s 2127 1057 m 27 X s 2127 1070 m 27 X s 2127 1080 m 27 X s 2127 1090 m 27 X s 2127 1098 m 27 X s 2101 1105 m 53 X s 2127 1152 m 27 X s
 2127 1180 m 27 X s 2127 1199 m 27 X s 2127 1215 m 27 X s 2127 1227 m 27 X s 2127 1237 m 27 X s 2127 1247 m 27 X s 2127 1255 m 27 X s 2101 1262 m 53 X s 2127 1309 m 27 X s 2127 1337 m 27 X s 2127 1356 m 27 X s 2127 1372 m 27 X s 2127 1384 m 27 X s
 2127 1395 m 27 X s 2127 1404 m 27 X s 2127 1412 m 27 X s 2101 1419 m 53 X s 2127 1466 m 27 X s
 gsave  2268 1077 0 461 C 677.708 1215.31 t 0 r /Helvetica findfont 58.7189 sf 0 0 m (2mu2e) show NC gr  1 1 1 c 453 161 454 1269 bf black
 gsave  2268 1077 0 461 C 566.929 1371.71 t 0 r /Helvetica-Bold findfont 48.9324 sf 0 0 m (MC15) show NC gr  510 1390 m20
 gsave  2268 1077 0 461 C 566.929 1293.51 t 0 r /Helvetica-Bold findfont 48.9324 sf 0 0 m (Projection of Signal pdf) show NC gr  0 0 1 c 9 lw 471 1309 m 79 X s black 3 lw 1 1 1 c 2268 461 0 0 bf black 1 1 1 c 1791 364 363 74 bf black 1791 364 363 74
 bl 363 74 m 1791 X s
 gsave  2268 461 0 0 C 1915.83 13.0329 t 0 r /Helvetica findfont 22.9045 sf 0 0 m (4l Invariant Mass \(GeV\)) show NC gr  506 85 m -11 Y s 578 79 m -5 Y s 649 79 m -5 Y s 721 79 m -5 Y s 793 79 m -5 Y s 864 85 m -11 Y s 936 79 m -5 Y s 1008 79 m -5 Y
 s 1079 79 m -5 Y s 1151 79 m -5 Y s 1223 85 m -11 Y s 1294 79 m -5 Y s 1366 79 m -5 Y s 1438 79 m -5 Y s 1509 79 m -5 Y s 1581 85 m -11 Y s 1653 79 m -5 Y s 1724 79 m -5 Y s 1796 79 m -5 Y s 1868 79 m -5 Y s 1939 85 m -11 Y s 506 85 m -11 Y s 434 79
 m -5 Y s 1939 85 m -11 Y s 2011 79 m -5 Y s 2083 79 m -5 Y s 2154 79 m -5 Y s
 gsave  2268 461 0 0 C 485.474 55.3896 t 0 r /Helvetica findfont 22.9045 sf 0 0 m (650) show NC gr 
 gsave  2268 461 0 0 C 843.877 55.3896 t 0 r /Helvetica findfont 22.9045 sf 0 0 m (700) show NC gr 
 gsave  2268 461 0 0 C 1202.28 55.3896 t 0 r /Helvetica findfont 22.9045 sf 0 0 m (750) show NC gr 
 gsave  2268 461 0 0 C 1560.68 55.3896 t 0 r /Helvetica findfont 22.9045 sf 0 0 m (800) show NC gr 
 gsave  2268 461 0 0 C 1919.09 55.3896 t 0 r /Helvetica findfont 22.9045 sf 0 0 m (850) show NC gr  363 438 m 1791 X s 506 427 m 11 Y s 578 433 m 5 Y s 649 433 m 5 Y s 721 433 m 5 Y s 793 433 m 5 Y s 864 427 m 11 Y s 936 433 m 5 Y s 1008 433 m 5 Y s
 1079 433 m 5 Y s 1151 433 m 5 Y s 1223 427 m 11 Y s 1294 433 m 5 Y s 1366 433 m 5 Y s 1438 433 m 5 Y s 1509 433 m 5 Y s 1581 427 m 11 Y s 1653 433 m 5 Y s 1724 433 m 5 Y s 1796 433 m 5 Y s 1868 433 m 5 Y s 1939 427 m 11 Y s 506 427 m 11 Y s 434 433
 m 5 Y s 1939 427 m 11 Y s 2011 433 m 5 Y s 2083 433 m 5 Y s 2154 433 m 5 Y s 363 74 m 364 Y s 417 74 m -54 X s 390 81 m -27 X s 390 88 m -27 X s 390 96 m -27 X s 390 103 m -27 X s 417 110 m -54 X s 390 118 m -27 X s 390 125 m -27 X s 390 132 m -27 X
 s 390 139 m -27 X s 417 147 m -54 X s 390 154 m -27 X s 390 161 m -27 X s 390 169 m -27 X s 390 176 m -27 X s 417 183 m -54 X s 390 190 m -27 X s 390 198 m -27 X s 390 205 m -27 X s 390 212 m -27 X s 417 220 m -54 X s 390 227 m -27 X s 390 234 m -27
 X s 390 241 m -27 X s 390 249 m -27 X s 417 256 m -54 X s 390 263 m -27 X s 390 271 m -27 X s 390 278 m -27 X s 390 285 m -27 X s 417 293 m -54 X s 390 300 m -27 X s 390 307 m -27 X s 390 314 m -27 X s 390 322 m -27 X s 417 329 m -54 X s 390 336 m
 -27 X s 390 344 m -27 X s 390 351 m -27 X s 390 358 m -27 X s 417 365 m -54 X s 390 373 m -27 X s 390 380 m -27 X s 390 387 m -27 X s 390 395 m -27 X s 417 402 m -54 X s 390 409 m -27 X s 390 416 m -27 X s 390 424 m -27 X s 390 431 m -27 X s 417 438
 m -54 X s
 gsave  2268 461 0 0 C 329.08 65.1643 t 0 r /Helvetica findfont 22.9045 sf 0 0 m (\2555) show NC gr 
 gsave  2268 461 0 0 C 329.08 101.005 t 0 r /Helvetica findfont 22.9045 sf 0 0 m (\2554) show NC gr 
 gsave  2268 461 0 0 C 329.08 140.103 t 0 r /Helvetica findfont 22.9045 sf 0 0 m (\2553) show NC gr 
 gsave  2268 461 0 0 C 329.08 175.944 t 0 r /Helvetica findfont 22.9045 sf 0 0 m (\2552) show NC gr 
 gsave  2268 461 0 0 C 332.338 211.784 t 0 r /Helvetica findfont 22.9045 sf 0 0 m (\2551) show NC gr 
 gsave  2268 461 0 0 C 335.596 247.624 t 0 r /Helvetica findfont 22.9045 sf 0 0 m (0) show NC gr 
 gsave  2268 461 0 0 C 338.854 283.465 t 0 r /Helvetica findfont 22.9045 sf 0 0 m (1) show NC gr 
 gsave  2268 461 0 0 C 335.596 319.305 t 0 r /Helvetica findfont 22.9045 sf 0 0 m (2) show NC gr 
 gsave  2268 461 0 0 C 335.596 358.403 t 0 r /Helvetica findfont 22.9045 sf 0 0 m (3) show NC gr 
 gsave  2268 461 0 0 C 335.596 394.244 t 0 r /Helvetica findfont 22.9045 sf 0 0 m (4) show NC gr 
 gsave  2268 461 0 0 C 335.596 430.084 t 0 r /Helvetica findfont 22.9045 sf 0 0 m (5) show NC gr  2154 74 m 364 Y s 2101 74 m 53 X s 2127 81 m 27 X s 2127 88 m 27 X s 2127 96 m 27 X s 2127 103 m 27 X s 2101 110 m 53 X s 2127 118 m 27 X s 2127 125 m
 27 X s 2127 132 m 27 X s 2127 139 m 27 X s 2101 147 m 53 X s 2127 154 m 27 X s 2127 161 m 27 X s 2127 169 m 27 X s 2127 176 m 27 X s 2101 183 m 53 X s 2127 190 m 27 X s 2127 198 m 27 X s 2127 205 m 27 X s 2127 212 m 27 X s 2101 220 m 53 X s 2127 227
 m 27 X s 2127 234 m 27 X s 2127 241 m 27 X s 2127 249 m 27 X s 2101 256 m 53 X s 2127 263 m 27 X s 2127 271 m 27 X s 2127 278 m 27 X s 2127 285 m 27 X s 2101 293 m 53 X s 2127 300 m 27 X s 2127 307 m 27 X s 2127 314 m 27 X s 2127 322 m 27 X s 2101
 329 m 53 X s 2127 336 m 27 X s 2127 344 m 27 X s 2127 351 m 27 X s 2127 358 m 27 X s 2101 365 m 53 X s 2127 373 m 27 X s 2127 380 m 27 X s 2127 387 m 27 X s 2127 395 m 27 X s 2101 402 m 53 X s 2127 409 m 27 X s 2127 416 m 27 X s 2127 424 m 27 X s
 2127 431 m 27 X s 2101 438 m 53 X s 6 lw 0.2 0.8 0.2 c black 3 lw 0.2 0.8 0.2 c 363 256 m -1 Y 36 X 56 Y 35 X -38 Y 72 X 18 Y 36 X 27 Y 36 X -4 Y 36 X -55 Y 35 X 61 Y 36 X -60 Y 36 X -67 Y 36 X 24 Y 36 X 16 Y 36 X -54 Y 35 X 64 Y 36 X -14 Y 36 X -30
 Y 36 X 23 Y 36 X -41 Y 36 X 62 Y 35 X 54 Y 36 X -102 Y 36 X 80 Y 36 X 19 Y 36 X 31 Y 36 X 25 Y 35 X -91 Y 36 X 76 Y 36 X -97 Y 36 X -91 Y 36 X 76 Y 36 X 25 Y 35 X 14 Y 36 X 17 Y 36 X 18 Y 36 X 2 Y 36 X -90 Y 36 X 36 Y 35 X 8 Y 36 X -22 Y 36 X 22 Y
 36 X 47 Y 36 X -71 Y 36 X -35 Y 35 X 14 Y 36 X 65 Y 36 X -9 Y 36 X 1 Y 36 X -13 Y 36 X 47 Y 35 X -43 Y f 6 lw black 0.2 0.8 0.2 c black 363 255 m 36 X 56 Y 35 X -38 Y 72 X 18 Y 36 X 27 Y 36 X -4 Y 36 X -55 Y 35 X 61 Y 36 X -60 Y 36 X -67 Y 36 X 24 Y
 36 X 16 Y 36 X -54 Y 35 X 64 Y 36 X -14 Y 36 X -30 Y 36 X 23 Y 36 X -41 Y 36 X 62 Y 35 X 54 Y 36 X -102 Y 36 X 80 Y 36 X 19 Y 36 X 31 Y 36 X 25 Y 35 X -91 Y 36 X 76 Y 36 X -97 Y 36 X -91 Y 36 X 76 Y 36 X 25 Y 35 X 14 Y 36 X 17 Y 36 X 18 Y 36 X 2 Y
 36 X -90 Y 36 X 36 Y 35 X 8 Y 36 X -22 Y 36 X 22 Y 36 X 47 Y 36 X -71 Y 36 X -35 Y 35 X 14 Y 36 X 65 Y 36 X -9 Y 36 X 1 Y 36 X -13 Y 36 X 47 Y 35 X s 3 lw 363 74 m 1791 X s 506 85 m -11 Y s 578 79 m -5 Y s 649 79 m -5 Y s 721 79 m -5 Y s 793 79 m -5
 Y s 864 85 m -11 Y s 936 79 m -5 Y s 1008 79 m -5 Y s 1079 79 m -5 Y s 1151 79 m -5 Y s 1223 85 m -11 Y s 1294 79 m -5 Y s 1366 79 m -5 Y s 1438 79 m -5 Y s 1509 79 m -5 Y s 1581 85 m -11 Y s 1653 79 m -5 Y s 1724 79 m -5 Y s 1796 79 m -5 Y s 1868
 79 m -5 Y s 1939 85 m -11 Y s 506 85 m -11 Y s 434 79 m -5 Y s 1939 85 m -11 Y s 2011 79 m -5 Y s 2083 79 m -5 Y s 2154 79 m -5 Y s 363 438 m 1791 X s 506 427 m 11 Y s 578 433 m 5 Y s 649 433 m 5 Y s 721 433 m 5 Y s 793 433 m 5 Y s 864 427 m 11 Y s
 936 433 m 5 Y s 1008 433 m 5 Y s 1079 433 m 5 Y s 1151 433 m 5 Y s 1223 427 m 11 Y s 1294 433 m 5 Y s 1366 433 m 5 Y s 1438 433 m 5 Y s 1509 433 m 5 Y s 1581 427 m 11 Y s 1653 433 m 5 Y s 1724 433 m 5 Y s 1796 433 m 5 Y s 1868 433 m 5 Y s 1939 427 m
 11 Y s 506 427 m 11 Y s 434 433 m 5 Y s 1939 427 m 11 Y s 2011 433 m 5 Y s 2083 433 m 5 Y s 2154 433 m 5 Y s 363 74 m 364 Y s 417 74 m -54 X s 390 81 m -27 X s 390 88 m -27 X s 390 96 m -27 X s 390 103 m -27 X s 417 110 m -54 X s 390 118 m -27 X s
 390 125 m -27 X s 390 132 m -27 X s 390 139 m -27 X s 417 147 m -54 X s 390 154 m -27 X s 390 161 m -27 X s 390 169 m -27 X s 390 176 m -27 X s 417 183 m -54 X s 390 190 m -27 X s 390 198 m -27 X s 390 205 m -27 X s 390 212 m -27 X s 417 220 m -54 X
 s 390 227 m -27 X s 390 234 m -27 X s 390 241 m -27 X s 390 249 m -27 X s 417 256 m -54 X s 390 263 m -27 X s 390 271 m -27 X s 390 278 m -27 X s 390 285 m -27 X s 417 293 m -54 X s 390 300 m -27 X s 390 307 m -27 X s 390 314 m -27 X s 390 322 m -27
 X s 417 329 m -54 X s 390 336 m -27 X s 390 344 m -27 X s 390 351 m -27 X s 390 358 m -27 X s 417 365 m -54 X s 390 373 m -27 X s 390 380 m -27 X s 390 387 m -27 X s 390 395 m -27 X s 417 402 m -54 X s 390 409 m -27 X s 390 416 m -27 X s 390 424 m
 -27 X s 390 431 m -27 X s 417 438 m -54 X s 2154 74 m 364 Y s 2101 74 m 53 X s 2127 81 m 27 X s 2127 88 m 27 X s 2127 96 m 27 X s 2127 103 m 27 X s 2101 110 m 53 X s 2127 118 m 27 X s 2127 125 m 27 X s 2127 132 m 27 X s 2127 139 m 27 X s 2101 147 m
 53 X s 2127 154 m 27 X s 2127 161 m 27 X s 2127 169 m 27 X s 2127 176 m 27 X s 2101 183 m 53 X s 2127 190 m 27 X s 2127 198 m 27 X s 2127 205 m 27 X s 2127 212 m 27 X s 2101 220 m 53 X s 2127 227 m 27 X s 2127 234 m 27 X s 2127 241 m 27 X s 2127 249
 m 27 X s 2101 256 m 53 X s 2127 263 m 27 X s 2127 271 m 27 X s 2127 278 m 27 X s 2127 285 m 27 X s 2101 293 m 53 X s 2127 300 m 27 X s 2127 307 m 27 X s 2127 314 m 27 X s 2127 322 m 27 X s 2101 329 m 53 X s 2127 336 m 27 X s 2127 344 m 27 X s 2127
 351 m 27 X s 2127 358 m 27 X s 2101 365 m 53 X s 2127 373 m 27 X s 2127 380 m 27 X s 2127 387 m 27 X s 2127 395 m 27 X s 2101 402 m 53 X s 2127 409 m 27 X s 2127 416 m 27 X s 2127 424 m 27 X s 2127 431 m 27 X s 2101 438 m 53 X s
 gr  gr showpage
end
%%EOF
