%!PS-Adobe-2.0 EPSF-2.0
%%BoundingBox:  0 0 567 384
%%Title: H4l2015_plotfit/VBF_mass_signal_500_H4l_2mu2e.eps: 
%%Creator: ROOT Version 5.34/07
%%CreationDate: Mon Nov  9 16:28:27 2015
%%EndComments
%%BeginProlog
80 dict begin
/s {stroke} def /l {lineto} def /m {moveto} def /t {translate} def
/r {rotate} def /rl {roll}  def /R {repeat} def
/d {rlineto} def /rm {rmoveto} def /gr {grestore} def /f {eofill} def
/c {setrgbcolor} def /black {0 setgray} def /sd {setdash} def
/cl {closepath} def /sf {scalefont setfont} def /lw {setlinewidth} def
/box {m dup 0 exch d exch 0 d 0 exch neg d cl} def
/NC{systemdict begin initclip end}def/C{NC box clip newpath}def
/bl {box s} def /bf {box f} def /Y { 0 exch d} def /X { 0 d} def 
/K {{pop pop 0 moveto} exch kshow} bind def
/ita {/ang 15 def gsave [1 0 ang dup sin exch cos div 1 0 0] concat} def 
/mp {newpath /y exch def /x exch def} def
/side {[w .77 mul w .23 mul] .385 w mul sd w 0 l currentpoint t -144 r} def
/mr {mp x y w2 0 360 arc} def /m24 {mr s} def /m20 {mr f} def
/mb {mp x y w2 add m w2 neg 0 d 0 w neg d w 0 d 0 w d cl} def
/mt {mp x y w2 add m w2 neg w neg d w 0 d cl} def
/m21 {mb f} def /m25 {mb s} def /m22 {mt f} def /m26{mt s} def
/m23 {mp x y w2 sub m w2 w d w neg 0 d cl f} def
/m27 {mp x y w2 add m w3 neg w2 neg d w3 w2 neg d w3 w2 d cl s} def
/m28 {mp x w2 sub y w2 sub w3 add m w3 0 d  0 w3 neg d w3 0 d 0 w3 d w3 0 d  0 w3 d w3 neg 0 d 0 w3 d w3 neg 0 d 0 w3 neg d w3 neg 0 d cl s } def
/m29 {mp gsave x w2 sub y w2 add w3 sub m currentpoint t 4 {side} repeat cl fill gr} def
/m30 {mp gsave x w2 sub y w2 add w3 sub m currentpoint t 4 {side} repeat cl s gr} def
/m31 {mp x y w2 sub m 0 w d x w2 sub y m w 0 d x w2 sub y w2 add m w w neg d x w2 sub y w2 sub m w w d s} def
/m32 {mp x y w2 sub m w2 w d w neg 0 d cl s} def
/m33 {mp x y w2 add m w3 neg w2 neg d w3 w2 neg d w3 w2 d cl f} def
/m34 {mp x w2 sub y w2 sub w3 add m w3 0 d  0 w3 neg d w3 0 d 0 w3 d w3 0 d  0 w3 d w3 neg 0 d 0 w3 d w3 neg 0 d 0 w3 neg d w3 neg 0 d cl f } def
/m2 {mp x y w2 sub m 0 w d x w2 sub y m w 0 d s} def
/m5 {mp x w2 sub y w2 sub m w w d x w2 sub y w2 add m w w neg d s} def
/reEncode {exch findfont dup length dict begin {1 index /FID eq  {pop pop} {def} ifelse } forall /Encoding exch def currentdict end dup /FontName get exch definefont pop } def [/Times-Bold /Times-Italic /Times-BoldItalic /Helvetica /Helvetica-Oblique
 /Helvetica-Bold /Helvetica-BoldOblique /Courier /Courier-Oblique /Courier-Bold /Courier-BoldOblique /Times-Roman /AvantGarde-Book /AvantGarde-BookOblique /AvantGarde-Demi /AvantGarde-DemiOblique /Bookman-Demi /Bookman-DemiItalic /Bookman-Light
 /Bookman-LightItalic /Helvetica-Narrow /Helvetica-Narrow-Bold /Helvetica-Narrow-BoldOblique /Helvetica-Narrow-Oblique /NewCenturySchlbk-Roman /NewCenturySchlbk-Bold /NewCenturySchlbk-BoldItalic /NewCenturySchlbk-Italic /Palatino-Bold
 /Palatino-BoldItalic /Palatino-Italic /Palatino-Roman ] {ISOLatin1Encoding reEncode } forall
%%EndProlog
%%BeginSetup
%%EndSetup
newpath  gsave  .25 .25 scale  gsave  0 0 t black[  ] 0 sd 3 lw 1 1 1 c 2268 1538 0 0 bf black 1 1 1 c 2222 738 23 784 bf black 1 1 1 c 2222 739 23 15 bf black 1 1 1 c 2268 1077 0 461 bf black 1 1 1 c 1791 850 363 634 bf black 1791 850 363 634 bl 363
 634 m 1791 X s
 gsave  2268 1077 0 461 C 1642.14 498.507 t 0 r /Helvetica findfont 48.9324 sf 0 0 m (4l Invariant Mass \(GeV\)) show NC gr  363 659 m -25 Y s 429 646 m -12 Y s 496 646 m -12 Y s 562 646 m -12 Y s 628 659 m -25 Y s 695 646 m -12 Y s 761 646 m -12 Y s
 827 646 m -12 Y s 894 659 m -25 Y s 960 646 m -12 Y s 1026 646 m -12 Y s 1093 646 m -12 Y s 1159 659 m -25 Y s 1225 646 m -12 Y s 1292 646 m -12 Y s 1358 646 m -12 Y s 1424 659 m -25 Y s 1491 646 m -12 Y s 1557 646 m -12 Y s 1624 646 m -12 Y s 1690
 659 m -25 Y s 1756 646 m -12 Y s 1823 646 m -12 Y s 1889 646 m -12 Y s 1955 659 m -25 Y s 1955 659 m -25 Y s 2022 646 m -12 Y s 2088 646 m -12 Y s 2154 646 m -12 Y s
 gsave  2268 1077 0 461 C 319.305 586.478 t 0 r /Helvetica findfont 48.9324 sf 0 0 m (400) show NC gr 
 gsave  2268 1077 0 461 C 583.22 586.478 t 0 r /Helvetica findfont 48.9324 sf 0 0 m (420) show NC gr 
 gsave  2268 1077 0 461 C 850.394 586.478 t 0 r /Helvetica findfont 48.9324 sf 0 0 m (440) show NC gr 
 gsave  2268 1077 0 461 C 1114.31 586.478 t 0 r /Helvetica findfont 48.9324 sf 0 0 m (460) show NC gr 
 gsave  2268 1077 0 461 C 1381.48 586.478 t 0 r /Helvetica findfont 48.9324 sf 0 0 m (480) show NC gr 
 gsave  2268 1077 0 461 C 1645.4 586.478 t 0 r /Helvetica findfont 48.9324 sf 0 0 m (500) show NC gr 
 gsave  2268 1077 0 461 C 1912.57 586.478 t 0 r /Helvetica findfont 48.9324 sf 0 0 m (520) show NC gr  363 1484 m 1791 X s 363 1459 m 25 Y s 429 1471 m 13 Y s 496 1471 m 13 Y s 562 1471 m 13 Y s 628 1459 m 25 Y s 695 1471 m 13 Y s 761 1471 m 13 Y s
 827 1471 m 13 Y s 894 1459 m 25 Y s 960 1471 m 13 Y s 1026 1471 m 13 Y s 1093 1471 m 13 Y s 1159 1459 m 25 Y s 1225 1471 m 13 Y s 1292 1471 m 13 Y s 1358 1471 m 13 Y s 1424 1459 m 25 Y s 1491 1471 m 13 Y s 1557 1471 m 13 Y s 1624 1471 m 13 Y s 1690
 1459 m 25 Y s 1756 1471 m 13 Y s 1823 1471 m 13 Y s 1889 1471 m 13 Y s 1955 1459 m 25 Y s 1955 1459 m 25 Y s 2022 1471 m 13 Y s 2088 1471 m 13 Y s 2154 1471 m 13 Y s 363 634 m 850 Y s
 gsave  2268 1077 0 461 C 120.554 1058.92 t 90 r /Helvetica findfont 48.9324 sf 0 0 m (Events / \( 2.7 GeV \)) show NC gr  417 634 m -54 X s
 gsave  2268 1077 0 461 C 312.788 632.093 t 0 r /Helvetica findfont 32.6216 sf 0 0 m (\2552) show NC gr 
 gsave  2268 1077 0 461 C 260.657 612.544 t 0 r /Helvetica findfont 48.9324 sf 0 0 m (10) show NC gr  390 681 m -27 X s 390 709 m -27 X s 390 729 m -27 X s 390 744 m -27 X s 390 757 m -27 X s 390 767 m -27 X s 390 776 m -27 X s 390 784 m -27 X s 417
 792 m -54 X s
 gsave  2268 1077 0 461 C 319.305 788.488 t 0 r /Helvetica findfont 32.6216 sf 0 0 m (\2551) show NC gr 
 gsave  2268 1077 0 461 C 267.173 768.938 t 0 r /Helvetica findfont 48.9324 sf 0 0 m (10) show NC gr  390 839 m -27 X s 390 867 m -27 X s 390 887 m -27 X s 390 902 m -27 X s 390 915 m -27 X s 390 925 m -27 X s 390 934 m -27 X s 390 943 m -27 X s 417
 950 m -54 X s
 gsave  2268 1077 0 461 C 342.425 928.924 t 0 r  -27 0 t /Helvetica findfont 48.9324 sf 0 0 m (1) show NC gr  390 997 m -27 X s 390 1025 m -27 X s 390 1045 m -27 X s 390 1060 m -27 X s 390 1073 m -27 X s 390 1083 m -27 X s 390 1093 m -27 X s 390 1101
 m -27 X s 417 1108 m -54 X s
 gsave  2268 1077 0 461 C 342.425 1087.01 t 0 r  -55 0 t /Helvetica findfont 48.9324 sf 0 0 m (10) show NC gr  390 1155 m -27 X s 390 1183 m -27 X s 390 1203 m -27 X s 390 1218 m -27 X s 390 1231 m -27 X s 390 1241 m -27 X s 390 1251 m -27 X s 390
 1259 m -27 X s 417 1266 m -54 X s
 gsave  2268 1077 0 461 C 322.563 1264.19 t 0 r /Helvetica findfont 32.6216 sf 0 0 m (2) show NC gr 
 gsave  2268 1077 0 461 C 270.432 1244.64 t 0 r /Helvetica findfont 48.9324 sf 0 0 m (10) show NC gr  390 1314 m -27 X s 390 1341 m -27 X s 390 1361 m -27 X s 390 1376 m -27 X s 390 1389 m -27 X s 390 1400 m -27 X s 390 1409 m -27 X s 390 1417 m -27
 X s 417 1424 m -54 X s
 gsave  2268 1077 0 461 C 322.563 1427.1 t 0 r /Helvetica findfont 32.6216 sf 0 0 m (3) show NC gr 
 gsave  2268 1077 0 461 C 270.432 1404.29 t 0 r /Helvetica findfont 48.9324 sf 0 0 m (10) show NC gr  390 1472 m -27 X s 2154 634 m 850 Y s 2101 634 m 53 X s 2127 681 m 27 X s 2127 709 m 27 X s 2127 729 m 27 X s 2127 744 m 27 X s 2127 757 m 27 X s
 2127 767 m 27 X s 2127 776 m 27 X s 2127 784 m 27 X s 2101 792 m 53 X s 2127 839 m 27 X s 2127 867 m 27 X s 2127 887 m 27 X s 2127 902 m 27 X s 2127 915 m 27 X s 2127 925 m 27 X s 2127 934 m 27 X s 2127 943 m 27 X s 2101 950 m 53 X s 2127 997 m 27 X
 s 2127 1025 m 27 X s 2127 1045 m 27 X s 2127 1060 m 27 X s 2127 1073 m 27 X s 2127 1083 m 27 X s 2127 1093 m 27 X s 2127 1101 m 27 X s 2101 1108 m 53 X s 2127 1155 m 27 X s 2127 1183 m 27 X s 2127 1203 m 27 X s 2127 1218 m 27 X s 2127 1231 m 27 X s
 2127 1241 m 27 X s 2127 1251 m 27 X s 2127 1259 m 27 X s 2101 1266 m 53 X s 2127 1314 m 27 X s 2127 1341 m 27 X s 2127 1361 m 27 X s 2127 1376 m 27 X s 2127 1389 m 27 X s 2127 1400 m 27 X s 2127 1409 m 27 X s 2127 1417 m 27 X s 2101 1424 m 53 X s
 2127 1472 m 27 X s 381 1083 m -18 X s 363 1083 m cl s 381 1083 m 18 X s 399 1083 m cl s 381 1083 m 30 Y s 381 1113 m cl s 381 1083 m -31 Y s 381 1052 m cl s 417 1114 m -18 X s 399 1114 m cl s 417 1114 m 17 X s 434 1114 m cl s 417 1114 m 24 Y s 417
 1138 m cl s 417 1114 m -24 Y s 417 1090 m cl s 452 1108 m -18 X s 434 1108 m cl s 452 1108 m 18 X s 470 1108 m cl s 452 1108 m 24 Y s 452 1132 m cl s 452 1108 m -26 Y s 452 1082 m cl s 488 1108 m -18 X s 470 1108 m cl s 488 1108 m 18 X s 506 1108 m
 cl s 488 1108 m 24 Y s 488 1132 m cl s 488 1108 m -26 Y s 488 1082 m cl s 524 1131 m -18 X s 506 1131 m cl s 524 1131 m 18 X s 542 1131 m cl s 524 1131 m 20 Y s 524 1151 m cl s 524 1131 m -21 Y s 524 1110 m cl s 560 1144 m -18 X s 542 1144 m cl s
 560 1144 m 18 X s 578 1144 m cl s 560 1144 m 19 Y s 560 1163 m cl s 560 1144 m -19 Y s 560 1125 m cl s 596 1108 m -18 X s 578 1108 m cl s 596 1108 m 18 X s 614 1108 m cl s 596 1108 m 24 Y s 596 1132 m cl s 596 1108 m -26 Y s 596 1082 m cl s 632 1126
 m -18 X s 614 1126 m cl s 632 1126 m 17 X s 649 1126 m cl s 632 1126 m 21 Y s 632 1147 m cl s 632 1126 m -22 Y s 632 1104 m cl s 667 1120 m -18 X s 649 1120 m cl s 667 1120 m 18 X s 685 1120 m cl s 667 1120 m 22 Y s 667 1142 m cl s 667 1120 m -23 Y
 s 667 1097 m cl s 703 1131 m -18 X s 685 1131 m cl s 703 1131 m 18 X s 721 1131 m cl s 703 1131 m 20 Y s 703 1151 m cl s 703 1131 m -21 Y s 703 1110 m cl s 739 1136 m -18 X s 721 1136 m cl s 739 1136 m 18 X s 757 1136 m cl s 739 1136 m 19 Y s 739
 1155 m cl s 739 1136 m -21 Y s 739 1115 m cl s 775 1136 m -18 X s 757 1136 m cl s 775 1136 m 18 X s 793 1136 m cl s 775 1136 m 19 Y s 775 1155 m cl s 775 1136 m -21 Y s 775 1115 m cl s 811 1171 m -18 X s 793 1171 m cl s 811 1171 m 18 X s 829 1171 m
 cl s 811 1171 m 15 Y s 811 1186 m cl s 811 1171 m -15 Y s 811 1156 m cl s 847 1159 m -18 X s 829 1159 m cl s 847 1159 m 17 X s 864 1159 m cl s 847 1159 m 16 Y s 847 1175 m cl s 847 1159 m -17 Y s 847 1142 m cl s 882 1176 m -18 X s 864 1176 m cl s
 882 1176 m 18 X s 900 1176 m cl s 882 1176 m 14 Y s 882 1190 m cl s 882 1176 m -15 Y s 882 1161 m cl s 918 1159 m -18 X s 900 1159 m cl s 918 1159 m 18 X s 936 1159 m cl s 918 1159 m 16 Y s 918 1175 m cl s 918 1159 m -17 Y s 918 1142 m cl s 954 1176
 m -18 X s 936 1176 m cl s 954 1176 m 18 X s 972 1176 m cl s 954 1176 m 14 Y s 954 1190 m cl s 954 1176 m -15 Y s 954 1161 m cl s 990 1179 m -18 X s 972 1179 m cl s 990 1179 m 18 X s 1008 1179 m cl s 990 1179 m 14 Y s 990 1193 m cl s 990 1179 m -15 Y
 s 990 1164 m cl s 1026 1181 m -18 X s 1008 1181 m cl s 1026 1181 m 18 X s 1044 1181 m cl s 1026 1181 m 14 Y s 1026 1195 m cl s 1026 1181 m -14 Y s 1026 1167 m cl s 1062 1186 m -18 X s 1044 1186 m cl s 1062 1186 m 17 X s 1079 1186 m cl s 1062 1186 m
 13 Y s 1062 1199 m cl s 1062 1186 m -14 Y s 1062 1172 m cl s 1097 1192 m -18 X s 1079 1192 m cl s 1097 1192 m 18 X s 1115 1192 m cl s 1097 1192 m 13 Y s 1097 1205 m cl s 1097 1192 m -13 Y s 1097 1179 m cl s 1133 1206 m -18 X s 1115 1206 m cl s 1133
 1206 m 18 X s 1151 1206 m cl s 1133 1206 m 12 Y s 1133 1218 m cl s 1133 1206 m -11 Y s 1133 1195 m cl s 1169 1222 m -18 X s 1151 1222 m cl s 1169 1222 m 18 X s 1187 1222 m cl s 1169 1222 m 10 Y s 1169 1232 m cl s 1169 1222 m -10 Y s 1169 1212 m cl s
 1205 1238 m -18 X s 1187 1238 m cl s 1205 1238 m 18 X s 1223 1238 m cl s 1205 1238 m 9 Y s 1205 1247 m cl s 1205 1238 m -8 Y s 1205 1230 m cl s 1241 1271 m -18 X s 1223 1271 m cl s 1241 1271 m 18 X s 1259 1271 m cl s 1241 1271 m 6 Y s 1241 1277 m cl
 s 1241 1271 m -7 Y s 1241 1264 m cl s 1276 1265 m -17 X s 1259 1265 m cl s 1276 1265 m 18 X s 1294 1265 m cl s 1276 1265 m 7 Y s 1276 1272 m cl s 1276 1265 m -8 Y s 1276 1257 m cl s 1312 1284 m -18 X s 1294 1284 m cl s 1312 1284 m 18 X s 1330 1284 m
 cl s 1312 1284 m 6 Y s 1312 1290 m cl s 1312 1284 m -6 Y s 1312 1278 m cl s 1348 1302 m -18 X s 1330 1302 m cl s 1348 1302 m 18 X s 1366 1302 m cl s 1348 1302 m 5 Y s 1348 1307 m cl s 1348 1302 m -5 Y s 1348 1297 m cl s 1384 1323 m -18 X s 1366 1323
 m cl s 1384 1323 m 18 X s 1402 1323 m cl s 1384 1323 m 4 Y s 1384 1327 m cl s 1384 1323 m -5 Y s 1384 1318 m cl s 1420 1346 m -18 X s 1402 1346 m cl s 1420 1346 m 18 X s 1438 1346 m cl s 1420 1346 m 3 Y s 1420 1349 m cl s 1420 1346 m -4 Y s 1420
 1342 m cl s 1456 1363 m -18 X s 1438 1363 m cl s 1456 1363 m 18 X s 1474 1363 m cl s 1456 1363 m 3 Y s 1456 1366 m cl s 1456 1363 m -4 Y s 1456 1359 m cl s 1491 1382 m -17 X s 1474 1382 m cl s 1491 1382 m 18 X s 1509 1382 m cl s 1491 1382 m 3 Y s
 1491 1385 m cl s 1491 1382 m -3 Y s 1491 1379 m cl s 1527 1410 m -18 X s 1509 1410 m cl s 1527 1410 m 18 X s 1545 1410 m cl s 1527 1410 m 2 Y s 1527 1412 m cl s 1527 1410 m -3 Y s 1527 1407 m cl s 1563 1426 m -18 X s 1545 1426 m cl s 1563 1426 m 18
 X s 1581 1426 m cl s 1563 1426 m 2 Y s 1563 1428 m cl s 1563 1426 m -3 Y s 1563 1423 m cl s 1599 1442 m -18 X s 1581 1442 m cl s 1599 1442 m 18 X s 1617 1442 m cl s 1599 1442 m 2 Y s 1599 1444 m cl s 1599 1442 m -2 Y s 1599 1440 m cl s 1635 1450 m
 -18 X s 1617 1450 m cl s 1635 1450 m 18 X s 1653 1450 m cl s 1635 1450 m 1 Y s 1635 1451 m cl s 1635 1450 m -2 Y s 1635 1448 m cl s 1671 1451 m -18 X s 1653 1451 m cl s 1671 1451 m 18 X s 1689 1451 m cl s 1671 1451 m 2 Y s 1671 1453 m cl s 1671 1451
 m -2 Y s 1671 1449 m cl s 1706 1447 m -17 X s 1689 1447 m cl s 1706 1447 m 18 X s 1724 1447 m cl s 1706 1447 m 2 Y s 1706 1449 m cl s 1706 1447 m -2 Y s 1706 1445 m cl s 1742 1427 m -18 X s 1724 1427 m cl s 1742 1427 m 18 X s 1760 1427 m cl s 1742
 1427 m 2 Y s 1742 1429 m cl s 1742 1427 m -2 Y s 1742 1425 m cl s 1778 1417 m -18 X s 1760 1417 m cl s 1778 1417 m 18 X s 1796 1417 m cl s 1778 1417 m 2 Y s 1778 1419 m cl s 1778 1417 m -3 Y s 1778 1414 m cl s 1814 1383 m -18 X s 1796 1383 m cl s
 1814 1383 m 18 X s 1832 1383 m cl s 1814 1383 m 3 Y s 1814 1386 m cl s 1814 1383 m -2 Y s 1814 1381 m cl s 1850 1359 m -18 X s 1832 1359 m cl s 1850 1359 m 18 X s 1868 1359 m cl s 1850 1359 m 4 Y s 1850 1363 m cl s 1850 1359 m -3 Y s 1850 1356 m cl
 s 1886 1329 m -18 X s 1868 1329 m cl s 1886 1329 m 18 X s 1904 1329 m cl s 1886 1329 m 5 Y s 1886 1334 m cl s 1886 1329 m -4 Y s 1886 1325 m cl s 1921 1291 m -17 X s 1904 1291 m cl s 1921 1291 m 18 X s 1939 1291 m cl s 1921 1291 m 6 Y s 1921 1297 m
 cl s 1921 1291 m -5 Y s 1921 1286 m cl s 1957 1265 m -18 X s 1939 1265 m cl s 1957 1265 m 18 X s 1975 1265 m cl s 1957 1265 m 7 Y s 1957 1272 m cl s 1957 1265 m -7 Y s 1957 1258 m cl s 1993 1239 m -18 X s 1975 1239 m cl s 1993 1239 m 18 X s 2011
 1239 m cl s 1993 1239 m 9 Y s 1993 1248 m cl s 1993 1239 m -8 Y s 1993 1231 m cl s 2029 1203 m -18 X s 2011 1203 m cl s 2029 1203 m 18 X s 2047 1203 m cl s 2029 1203 m 12 Y s 2029 1215 m cl s 2029 1203 m -12 Y s 2029 1191 m cl s 2065 1205 m -18 X s
 2047 1205 m cl s 2065 1205 m 18 X s 2083 1205 m cl s 2065 1205 m 11 Y s 2065 1216 m cl s 2065 1205 m -12 Y s 2065 1193 m cl s 2101 1165 m -18 X s 2083 1165 m cl s 2101 1165 m 18 X s 2119 1165 m cl s 2101 1165 m 16 Y s 2101 1181 m cl s 2101 1165 m
 -16 Y s 2101 1149 m cl s 2136 1148 m -17 X s 2119 1148 m cl s 2136 1148 m 18 X s 2154 1148 m cl s 2136 1148 m 18 Y s 2136 1166 m cl s 2136 1148 m -18 Y s 2136 1130 m cl s /w 31 def /w2 {w 2 div} def /w3 {w 3 div} def 381 1083 417 1114 452 1108 488
 1108 524 1131 560 1144 596 1108 632 1126 667 1120 703 1131 739 1136 775 1136 811 1171 847 1159 882 1176 918 1159 954 1176 990 1179 1026 1181 1062 1186 1097 1192 1133 1206 1169 1222 1205 1238 1241 1271 1276 1265 1312 1284 1348 1302 1384 1323 1420
 1346 1456 1363 1491 1382 1527 1410 1563 1426 1599 1442 1635 1450 1671 1451 1706 1447 1742 1427 1778 1417 1814 1383 1850 1359 1886 1329 1921 1291 1957 1265 1993 1239 2029 1203 2065 1205 2101 1165 2136 1148 50 { m20} R 0 1 1 c 1 1 0 c black 1 1 0 c
 363 1077 m 36 6 d 35 7 d 36 6 d 36 7 d 36 6 d 36 7 d 36 7 d 35 7 d 36 7 d 36 7 d 36 7 d 36 7 d 36 7 d 35 7 d 36 8 d 36 8 d 36 7 d 36 8 d 36 8 d 35 9 d 36 8 d 36 9 d 36 9 d 36 10 d 36 9 d 35 11 d 36 12 d 18 8 d 18 8 d 18 10 d 18 11 d 18 12 d 9 7 d 9
 7 d 9 6 d 9 7 d 9 7 d 9 6 d 9 7 d 8 6 d 9 6 d 9 6 d 18 11 d 18 10 d 18 8 d 9 4 d 9 3 d 9 3 d 9 3 d 9 2 d 9 2 d 9 2 d 9 1 d 9 1 d 18 X 9 -1 d 9 -1 d 9 -1 d 8 -2 d 9 -3 d 9 -2 d 9 -3 d 9 -4 d 9 -3 d 18 -9 d 18 -10 d 18 -11 d 18 -12 d 9 -6 d 9 -7 d 9
 -7 d 9 -7 d 9 -7 d 9 -8 d 9 -7 d 9 -7 d 18 -15 d 17 -15 d 18 -15 d 18 -14 d 18 -13 d 18 -13 d 18 -13 d 36 -26 d 36 -27 d 36 -28 d 35 -30 d -39 Y -35 38 d -36 34 d -36 33 d -36 30 d -18 15 d -18 15 d -18 16 d -18 15 d -18 15 d -17 15 d -18 15 d -9 8
 d -9 7 d -9 8 d -9 7 d -9 7 d -9 7 d -9 7 d -9 7 d -18 13 d -18 12 d -18 10 d -18 9 d -9 4 d -9 3 d -9 3 d -9 3 d -9 2 d -8 2 d -9 1 d -9 1 d -9 1 d -18 X -9 -1 d -9 -1 d -9 -1 d -9 -2 d -9 -2 d -9 -3 d -9 -3 d -9 -4 d -9 -4 d -18 -9 d -18 -10 d -18
 -12 d -9 -6 d -9 -7 d -8 -6 d -9 -7 d -9 -7 d -9 -7 d -9 -6 d -9 -7 d -9 -7 d -9 -6 d -18 -12 d -18 -12 d -18 -10 d -18 -10 d -18 -8 d -36 -14 d -35 -11 d -36 -9 d -36 -9 d -36 -8 d -36 -9 d -36 -8 d -35 -9 d -36 -8 d -36 -9 d -36 -8 d -36 -9 d -36
 -8 d -35 -8 d -36 -9 d -36 -8 d -36 -8 d -36 -8 d -36 -8 d -35 -8 d -36 -8 d -36 -8 d -36 -8 d -36 -7 d -36 -8 d -35 -7 d -36 -8 d f 0 1 1 c 0 1 0 c black 0 1 0 c 363 1071 m 36 6 d 35 7 d 36 7 d 36 7 d 36 6 d 36 7 d 36 7 d 35 7 d 36 8 d 36 7 d 36 7
 d 36 7 d 36 8 d 35 8 d 36 7 d 36 8 d 36 8 d 36 8 d 36 8 d 35 9 d 36 8 d 36 9 d 36 9 d 36 9 d 36 10 d 35 10 d 36 13 d 18 8 d 18 8 d 18 10 d 18 11 d 18 13 d 9 6 d 9 7 d 9 7 d 9 6 d 9 7 d 9 7 d 9 6 d 8 7 d 9 6 d 9 6 d 18 11 d 18 10 d 18 9 d 9 3 d 9 4 d
 9 3 d 9 3 d 9 2 d 9 2 d 9 1 d 9 1 d 9 1 d 18 X 9 -1 d 9 -1 d 9 -1 d 8 -2 d 9 -2 d 9 -3 d 9 -3 d 9 -3 d 9 -4 d 18 -9 d 18 -10 d 18 -11 d 18 -12 d 9 -7 d 9 -6 d 9 -7 d 9 -7 d 9 -8 d 9 -7 d 9 -7 d 9 -8 d 18 -15 d 17 -15 d 18 -15 d 18 -14 d 18 -14 d 18
 -13 d 18 -14 d 36 -27 d 36 -27 d 36 -30 d 35 -31 d -19 Y -35 35 d -36 32 d -36 31 d -36 29 d -18 14 d -18 15 d -18 15 d -18 15 d -18 15 d -17 15 d -18 15 d -9 7 d -9 8 d -9 7 d -9 8 d -9 7 d -9 7 d -9 7 d -9 6 d -18 13 d -18 12 d -18 10 d -18 9 d -9
 3 d -9 4 d -9 3 d -9 2 d -9 3 d -8 2 d -9 1 d -9 1 d -9 1 d -18 X -9 -1 d -9 -1 d -9 -2 d -9 -1 d -9 -3 d -9 -2 d -9 -3 d -9 -4 d -9 -4 d -18 -9 d -18 -10 d -18 -12 d -9 -6 d -9 -6 d -8 -7 d -9 -7 d -9 -6 d -9 -7 d -9 -7 d -9 -6 d -9 -7 d -9 -6 d
 -18 -13 d -18 -11 d -18 -10 d -18 -10 d -18 -8 d -36 -13 d -35 -11 d -36 -9 d -36 -9 d -36 -9 d -36 -8 d -36 -9 d -35 -8 d -36 -9 d -36 -8 d -36 -8 d -36 -9 d -36 -8 d -35 -8 d -36 -8 d -36 -8 d -36 -8 d -36 -7 d -36 -8 d -35 -8 d -36 -7 d -36 -8 d
 -36 -7 d -36 -7 d -36 -7 d -35 -8 d -36 -7 d f 0 0 1 c 9 lw black 0 0 1 c 363 1064 m 36 7 d 35 7 d 36 7 d 36 7 d 36 7 d 36 7 d 36 8 d 35 7 d 36 7 d 36 8 d 36 7 d 36 8 d 36 8 d 35 8 d 36 7 d 36 8 d 36 9 d 36 8 d 36 8 d 35 8 d 36 9 d 36 9 d 36 8 d 36
 9 d 36 10 d 35 11 d 36 13 d 18 7 d 18 9 d 18 11 d 18 11 d 18 12 d 9 7 d 9 6 d 9 7 d 9 7 d 9 6 d 9 7 d 9 7 d 8 6 d 9 6 d 9 7 d 18 11 d 18 10 d 18 9 d 9 4 d 9 3 d 9 3 d 9 3 d 9 2 d 9 2 d 9 2 d 9 1 d 36 X 9 -1 d 9 -2 d 8 -2 d 9 -2 d 9 -3 d 9 -3 d 9 -3
 d 9 -4 d 18 -8 d 18 -11 d 18 -11 d 18 -12 d 9 -7 d 9 -7 d 9 -7 d 9 -7 d 9 -7 d 9 -8 d 9 -7 d 9 -8 d 18 -15 d 17 -15 d 18 -14 d 18 -15 d 18 -14 d 18 -14 d 18 -14 d 36 -28 d 36 -29 d 36 -31 d 35 -33 d s black 3 lw 381 1083 m -18 X s 363 1083 m cl s
 381 1083 m 18 X s 399 1083 m cl s 381 1083 m 30 Y s 381 1113 m cl s 381 1083 m -31 Y s 381 1052 m cl s 417 1114 m -18 X s 399 1114 m cl s 417 1114 m 17 X s 434 1114 m cl s 417 1114 m 24 Y s 417 1138 m cl s 417 1114 m -24 Y s 417 1090 m cl s 452 1108
 m -18 X s 434 1108 m cl s 452 1108 m 18 X s 470 1108 m cl s 452 1108 m 24 Y s 452 1132 m cl s 452 1108 m -26 Y s 452 1082 m cl s 488 1108 m -18 X s 470 1108 m cl s 488 1108 m 18 X s 506 1108 m cl s 488 1108 m 24 Y s 488 1132 m cl s 488 1108 m -26 Y
 s 488 1082 m cl s 524 1131 m -18 X s 506 1131 m cl s 524 1131 m 18 X s 542 1131 m cl s 524 1131 m 20 Y s 524 1151 m cl s 524 1131 m -21 Y s 524 1110 m cl s 560 1144 m -18 X s 542 1144 m cl s 560 1144 m 18 X s 578 1144 m cl s 560 1144 m 19 Y s 560
 1163 m cl s 560 1144 m -19 Y s 560 1125 m cl s 596 1108 m -18 X s 578 1108 m cl s 596 1108 m 18 X s 614 1108 m cl s 596 1108 m 24 Y s 596 1132 m cl s 596 1108 m -26 Y s 596 1082 m cl s 632 1126 m -18 X s 614 1126 m cl s 632 1126 m 17 X s 649 1126 m
 cl s 632 1126 m 21 Y s 632 1147 m cl s 632 1126 m -22 Y s 632 1104 m cl s 667 1120 m -18 X s 649 1120 m cl s 667 1120 m 18 X s 685 1120 m cl s 667 1120 m 22 Y s 667 1142 m cl s 667 1120 m -23 Y s 667 1097 m cl s 703 1131 m -18 X s 685 1131 m cl s
 703 1131 m 18 X s 721 1131 m cl s 703 1131 m 20 Y s 703 1151 m cl s 703 1131 m -21 Y s 703 1110 m cl s 739 1136 m -18 X s 721 1136 m cl s 739 1136 m 18 X s 757 1136 m cl s 739 1136 m 19 Y s 739 1155 m cl s 739 1136 m -21 Y s 739 1115 m cl s 775 1136
 m -18 X s 757 1136 m cl s 775 1136 m 18 X s 793 1136 m cl s 775 1136 m 19 Y s 775 1155 m cl s 775 1136 m -21 Y s 775 1115 m cl s 811 1171 m -18 X s 793 1171 m cl s 811 1171 m 18 X s 829 1171 m cl s 811 1171 m 15 Y s 811 1186 m cl s 811 1171 m -15 Y
 s 811 1156 m cl s 847 1159 m -18 X s 829 1159 m cl s 847 1159 m 17 X s 864 1159 m cl s 847 1159 m 16 Y s 847 1175 m cl s 847 1159 m -17 Y s 847 1142 m cl s 882 1176 m -18 X s 864 1176 m cl s 882 1176 m 18 X s 900 1176 m cl s 882 1176 m 14 Y s 882
 1190 m cl s 882 1176 m -15 Y s 882 1161 m cl s 918 1159 m -18 X s 900 1159 m cl s 918 1159 m 18 X s 936 1159 m cl s 918 1159 m 16 Y s 918 1175 m cl s 918 1159 m -17 Y s 918 1142 m cl s 954 1176 m -18 X s 936 1176 m cl s 954 1176 m 18 X s 972 1176 m
 cl s 954 1176 m 14 Y s 954 1190 m cl s 954 1176 m -15 Y s 954 1161 m cl s 990 1179 m -18 X s 972 1179 m cl s 990 1179 m 18 X s 1008 1179 m cl s 990 1179 m 14 Y s 990 1193 m cl s 990 1179 m -15 Y s 990 1164 m cl s 1026 1181 m -18 X s 1008 1181 m cl s
 1026 1181 m 18 X s 1044 1181 m cl s 1026 1181 m 14 Y s 1026 1195 m cl s 1026 1181 m -14 Y s 1026 1167 m cl s 1062 1186 m -18 X s 1044 1186 m cl s 1062 1186 m 17 X s 1079 1186 m cl s 1062 1186 m 13 Y s 1062 1199 m cl s 1062 1186 m -14 Y s 1062 1172 m
 cl s 1097 1192 m -18 X s 1079 1192 m cl s 1097 1192 m 18 X s 1115 1192 m cl s 1097 1192 m 13 Y s 1097 1205 m cl s 1097 1192 m -13 Y s 1097 1179 m cl s 1133 1206 m -18 X s 1115 1206 m cl s 1133 1206 m 18 X s 1151 1206 m cl s 1133 1206 m 12 Y s 1133
 1218 m cl s 1133 1206 m -11 Y s 1133 1195 m cl s 1169 1222 m -18 X s 1151 1222 m cl s 1169 1222 m 18 X s 1187 1222 m cl s 1169 1222 m 10 Y s 1169 1232 m cl s 1169 1222 m -10 Y s 1169 1212 m cl s 1205 1238 m -18 X s 1187 1238 m cl s 1205 1238 m 18 X
 s 1223 1238 m cl s 1205 1238 m 9 Y s 1205 1247 m cl s 1205 1238 m -8 Y s 1205 1230 m cl s 1241 1271 m -18 X s 1223 1271 m cl s 1241 1271 m 18 X s 1259 1271 m cl s 1241 1271 m 6 Y s 1241 1277 m cl s 1241 1271 m -7 Y s 1241 1264 m cl s 1276 1265 m -17
 X s 1259 1265 m cl s 1276 1265 m 18 X s 1294 1265 m cl s 1276 1265 m 7 Y s 1276 1272 m cl s 1276 1265 m -8 Y s 1276 1257 m cl s 1312 1284 m -18 X s 1294 1284 m cl s 1312 1284 m 18 X s 1330 1284 m cl s 1312 1284 m 6 Y s 1312 1290 m cl s 1312 1284 m
 -6 Y s 1312 1278 m cl s 1348 1302 m -18 X s 1330 1302 m cl s 1348 1302 m 18 X s 1366 1302 m cl s 1348 1302 m 5 Y s 1348 1307 m cl s 1348 1302 m -5 Y s 1348 1297 m cl s 1384 1323 m -18 X s 1366 1323 m cl s 1384 1323 m 18 X s 1402 1323 m cl s 1384
 1323 m 4 Y s 1384 1327 m cl s 1384 1323 m -5 Y s 1384 1318 m cl s 1420 1346 m -18 X s 1402 1346 m cl s 1420 1346 m 18 X s 1438 1346 m cl s 1420 1346 m 3 Y s 1420 1349 m cl s 1420 1346 m -4 Y s 1420 1342 m cl s 1456 1363 m -18 X s 1438 1363 m cl s
 1456 1363 m 18 X s 1474 1363 m cl s 1456 1363 m 3 Y s 1456 1366 m cl s 1456 1363 m -4 Y s 1456 1359 m cl s 1491 1382 m -17 X s 1474 1382 m cl s 1491 1382 m 18 X s 1509 1382 m cl s 1491 1382 m 3 Y s 1491 1385 m cl s 1491 1382 m -3 Y s 1491 1379 m cl
 s 1527 1410 m -18 X s 1509 1410 m cl s 1527 1410 m 18 X s 1545 1410 m cl s 1527 1410 m 2 Y s 1527 1412 m cl s 1527 1410 m -3 Y s 1527 1407 m cl s 1563 1426 m -18 X s 1545 1426 m cl s 1563 1426 m 18 X s 1581 1426 m cl s 1563 1426 m 2 Y s 1563 1428 m
 cl s 1563 1426 m -3 Y s 1563 1423 m cl s 1599 1442 m -18 X s 1581 1442 m cl s 1599 1442 m 18 X s 1617 1442 m cl s 1599 1442 m 2 Y s 1599 1444 m cl s 1599 1442 m -2 Y s 1599 1440 m cl s 1635 1450 m -18 X s 1617 1450 m cl s 1635 1450 m 18 X s 1653
 1450 m cl s 1635 1450 m 1 Y s 1635 1451 m cl s 1635 1450 m -2 Y s 1635 1448 m cl s 1671 1451 m -18 X s 1653 1451 m cl s 1671 1451 m 18 X s 1689 1451 m cl s 1671 1451 m 2 Y s 1671 1453 m cl s 1671 1451 m -2 Y s 1671 1449 m cl s 1706 1447 m -17 X s
 1689 1447 m cl s 1706 1447 m 18 X s 1724 1447 m cl s 1706 1447 m 2 Y s 1706 1449 m cl s 1706 1447 m -2 Y s 1706 1445 m cl s 1742 1427 m -18 X s 1724 1427 m cl s 1742 1427 m 18 X s 1760 1427 m cl s 1742 1427 m 2 Y s 1742 1429 m cl s 1742 1427 m -2 Y
 s 1742 1425 m cl s 1778 1417 m -18 X s 1760 1417 m cl s 1778 1417 m 18 X s 1796 1417 m cl s 1778 1417 m 2 Y s 1778 1419 m cl s 1778 1417 m -3 Y s 1778 1414 m cl s 1814 1383 m -18 X s 1796 1383 m cl s 1814 1383 m 18 X s 1832 1383 m cl s 1814 1383 m 3
 Y s 1814 1386 m cl s 1814 1383 m -2 Y s 1814 1381 m cl s 1850 1359 m -18 X s 1832 1359 m cl s 1850 1359 m 18 X s 1868 1359 m cl s 1850 1359 m 4 Y s 1850 1363 m cl s 1850 1359 m -3 Y s 1850 1356 m cl s 1886 1329 m -18 X s 1868 1329 m cl s 1886 1329 m
 18 X s 1904 1329 m cl s 1886 1329 m 5 Y s 1886 1334 m cl s 1886 1329 m -4 Y s 1886 1325 m cl s 1921 1291 m -17 X s 1904 1291 m cl s 1921 1291 m 18 X s 1939 1291 m cl s 1921 1291 m 6 Y s 1921 1297 m cl s 1921 1291 m -5 Y s 1921 1286 m cl s 1957 1265
 m -18 X s 1939 1265 m cl s 1957 1265 m 18 X s 1975 1265 m cl s 1957 1265 m 7 Y s 1957 1272 m cl s 1957 1265 m -7 Y s 1957 1258 m cl s 1993 1239 m -18 X s 1975 1239 m cl s 1993 1239 m 18 X s 2011 1239 m cl s 1993 1239 m 9 Y s 1993 1248 m cl s 1993
 1239 m -8 Y s 1993 1231 m cl s 2029 1203 m -18 X s 2011 1203 m cl s 2029 1203 m 18 X s 2047 1203 m cl s 2029 1203 m 12 Y s 2029 1215 m cl s 2029 1203 m -12 Y s 2029 1191 m cl s 2065 1205 m -18 X s 2047 1205 m cl s 2065 1205 m 18 X s 2083 1205 m cl s
 2065 1205 m 11 Y s 2065 1216 m cl s 2065 1205 m -12 Y s 2065 1193 m cl s 2101 1165 m -18 X s 2083 1165 m cl s 2101 1165 m 18 X s 2119 1165 m cl s 2101 1165 m 16 Y s 2101 1181 m cl s 2101 1165 m -16 Y s 2101 1149 m cl s 2136 1148 m -17 X s 2119 1148
 m cl s 2136 1148 m 18 X s 2154 1148 m cl s 2136 1148 m 18 Y s 2136 1166 m cl s 2136 1148 m -18 Y s 2136 1130 m cl s 381 1083 417 1114 452 1108 488 1108 524 1131 560 1144 596 1108 632 1126 667 1120 703 1131 739 1136 775 1136 811 1171 847 1159 882
 1176 918 1159 954 1176 990 1179 1026 1181 1062 1186 1097 1192 1133 1206 1169 1222 1205 1238 1241 1271 1276 1265 1312 1284 1348 1302 1384 1323 1420 1346 1456 1363 1491 1382 1527 1410 1563 1426 1599 1442 1635 1450 1671 1451 1706 1447 1742 1427 1778
 1417 1814 1383 1850 1359 1886 1329 1921 1291 1957 1265 1993 1239 2029 1203 2065 1205 2101 1165 2136 1148 50 { m20} R 0.52 0.76 0.64 c[ 4 8] 0 sd 9 lw black 0.52 0.76 0.64 c 363 1064 m 36 7 d 35 7 d 36 7 d 36 7 d 36 7 d 36 7 d 36 8 d 35 7 d 36 7 d 36
 8 d 36 7 d 36 8 d 36 8 d 35 8 d 36 7 d 36 8 d 36 9 d 36 8 d 36 8 d 35 8 d 36 9 d 36 8 d 36 9 d 36 9 d 36 9 d 35 9 d 36 9 d 18 5 d 18 5 d 18 4 d 18 5 d 18 5 d 18 5 d 18 4 d 18 5 d 17 5 d 18 5 d 18 5 d 18 4 d 18 3 d 18 3 d 18 2 d 9 1 d 9 X 9 1 d 54 X
 9 -1 d 8 X 9 -1 d 18 -2 d 18 -3 d 18 -3 d 18 -4 d 18 -5 d 36 -11 d 36 -13 d 18 -7 d 18 -9 d 17 -8 d 18 -10 d 18 -10 d 18 -10 d 18 -11 d 18 -12 d 18 -12 d 18 -13 d 18 -14 d 18 -14 d 18 -15 d 18 -15 d 35 -33 d s 0.54 0.66 0.63 c black 0.54 0.66 0.63 c
 1140 634 m 11 36 d s 1151 670 m 36 105 d 36 98 d 36 89 d 35 82 d 36 74 d 18 34 d 18 32 d 18 30 d 18 29 d 9 13 d 9 13 d 9 12 d 9 12 d 9 12 d 9 11 d 9 10 d 9 10 d 9 10 d 8 9 d 9 8 d 9 8 d 18 15 d 18 13 d 18 10 d 9 5 d 9 4 d 9 4 d 9 3 d 9 3 d 9 2 d 9 2
 d 9 1 d 9 1 d 18 X 9 -1 d 9 -1 d 9 -2 d 8 -2 d 9 -3 d 9 -3 d 9 -3 d 9 -5 d 9 -4 d 18 -11 d 18 -12 d 18 -15 d 9 -8 d 9 -8 d 9 -9 d 9 -10 d 9 -10 d 9 -10 d 9 -11 d 9 -12 d 9 -12 d 9 -12 d 9 -13 d 9 -13 d 17 -28 d 18 -30 d 18 -32 d 18 -35 d 36 -73 d 36
 -82 d 36 -89 d 36 -98 d 35 -105 d s black[  ] 0 sd 3 lw 363 634 m 1791 X s 363 659 m -25 Y s 429 646 m -12 Y s 496 646 m -12 Y s 562 646 m -12 Y s 628 659 m -25 Y s 695 646 m -12 Y s 761 646 m -12 Y s 827 646 m -12 Y s 894 659 m -25 Y s 960 646 m
 -12 Y s 1026 646 m -12 Y s 1093 646 m -12 Y s 1159 659 m -25 Y s 1225 646 m -12 Y s 1292 646 m -12 Y s 1358 646 m -12 Y s 1424 659 m -25 Y s 1491 646 m -12 Y s 1557 646 m -12 Y s 1624 646 m -12 Y s 1690 659 m -25 Y s 1756 646 m -12 Y s 1823 646 m
 -12 Y s 1889 646 m -12 Y s 1955 659 m -25 Y s 1955 659 m -25 Y s 2022 646 m -12 Y s 2088 646 m -12 Y s 2154 646 m -12 Y s 363 1484 m 1791 X s 363 1459 m 25 Y s 429 1471 m 13 Y s 496 1471 m 13 Y s 562 1471 m 13 Y s 628 1459 m 25 Y s 695 1471 m 13 Y s
 761 1471 m 13 Y s 827 1471 m 13 Y s 894 1459 m 25 Y s 960 1471 m 13 Y s 1026 1471 m 13 Y s 1093 1471 m 13 Y s 1159 1459 m 25 Y s 1225 1471 m 13 Y s 1292 1471 m 13 Y s 1358 1471 m 13 Y s 1424 1459 m 25 Y s 1491 1471 m 13 Y s 1557 1471 m 13 Y s 1624
 1471 m 13 Y s 1690 1459 m 25 Y s 1756 1471 m 13 Y s 1823 1471 m 13 Y s 1889 1471 m 13 Y s 1955 1459 m 25 Y s 1955 1459 m 25 Y s 2022 1471 m 13 Y s 2088 1471 m 13 Y s 2154 1471 m 13 Y s 363 634 m 850 Y s 417 634 m -54 X s 390 681 m -27 X s 390 709 m
 -27 X s 390 729 m -27 X s 390 744 m -27 X s 390 757 m -27 X s 390 767 m -27 X s 390 776 m -27 X s 390 784 m -27 X s 417 792 m -54 X s 390 839 m -27 X s 390 867 m -27 X s 390 887 m -27 X s 390 902 m -27 X s 390 915 m -27 X s 390 925 m -27 X s 390 934
 m -27 X s 390 943 m -27 X s 417 950 m -54 X s 390 997 m -27 X s 390 1025 m -27 X s 390 1045 m -27 X s 390 1060 m -27 X s 390 1073 m -27 X s 390 1083 m -27 X s 390 1093 m -27 X s 390 1101 m -27 X s 417 1108 m -54 X s 390 1155 m -27 X s 390 1183 m -27
 X s 390 1203 m -27 X s 390 1218 m -27 X s 390 1231 m -27 X s 390 1241 m -27 X s 390 1251 m -27 X s 390 1259 m -27 X s 417 1266 m -54 X s 390 1314 m -27 X s 390 1341 m -27 X s 390 1361 m -27 X s 390 1376 m -27 X s 390 1389 m -27 X s 390 1400 m -27 X
 s 390 1409 m -27 X s 390 1417 m -27 X s 417 1424 m -54 X s 390 1472 m -27 X s 2154 634 m 850 Y s 2101 634 m 53 X s 2127 681 m 27 X s 2127 709 m 27 X s 2127 729 m 27 X s 2127 744 m 27 X s 2127 757 m 27 X s 2127 767 m 27 X s 2127 776 m 27 X s 2127 784
 m 27 X s 2101 792 m 53 X s 2127 839 m 27 X s 2127 867 m 27 X s 2127 887 m 27 X s 2127 902 m 27 X s 2127 915 m 27 X s 2127 925 m 27 X s 2127 934 m 27 X s 2127 943 m 27 X s 2101 950 m 53 X s 2127 997 m 27 X s 2127 1025 m 27 X s 2127 1045 m 27 X s 2127
 1060 m 27 X s 2127 1073 m 27 X s 2127 1083 m 27 X s 2127 1093 m 27 X s 2127 1101 m 27 X s 2101 1108 m 53 X s 2127 1155 m 27 X s 2127 1183 m 27 X s 2127 1203 m 27 X s 2127 1218 m 27 X s 2127 1231 m 27 X s 2127 1241 m 27 X s 2127 1251 m 27 X s 2127
 1259 m 27 X s 2101 1266 m 53 X s 2127 1314 m 27 X s 2127 1341 m 27 X s 2127 1361 m 27 X s 2127 1376 m 27 X s 2127 1389 m 27 X s 2127 1400 m 27 X s 2127 1409 m 27 X s 2127 1417 m 27 X s 2101 1424 m 53 X s 2127 1472 m 27 X s
 gsave  2268 1077 0 461 C 677.708 1215.31 t 0 r /Helvetica findfont 58.7189 sf 0 0 m (2mu2e) show NC gr  1 1 1 c 453 161 454 1269 bf black
 gsave  2268 1077 0 461 C 566.929 1371.71 t 0 r /Helvetica-Bold findfont 48.9324 sf 0 0 m (MC15) show NC gr  510 1390 m20
 gsave  2268 1077 0 461 C 566.929 1293.51 t 0 r /Helvetica-Bold findfont 48.9324 sf 0 0 m (Projection of Signal pdf) show NC gr  0 0 1 c 9 lw 471 1309 m 79 X s black 3 lw 1 1 1 c 2268 461 0 0 bf black 1 1 1 c 1791 364 363 74 bf black 1791 364 363 74
 bl 363 74 m 1791 X s
 gsave  2268 461 0 0 C 1915.83 13.0329 t 0 r /Helvetica findfont 22.9045 sf 0 0 m (4l Invariant Mass \(GeV\)) show NC gr  363 85 m -11 Y s 429 79 m -5 Y s 496 79 m -5 Y s 562 79 m -5 Y s 628 85 m -11 Y s 695 79 m -5 Y s 761 79 m -5 Y s 827 79 m -5 Y
 s 894 85 m -11 Y s 960 79 m -5 Y s 1026 79 m -5 Y s 1093 79 m -5 Y s 1159 85 m -11 Y s 1225 79 m -5 Y s 1292 79 m -5 Y s 1358 79 m -5 Y s 1424 85 m -11 Y s 1491 79 m -5 Y s 1557 79 m -5 Y s 1624 79 m -5 Y s 1690 85 m -11 Y s 1756 79 m -5 Y s 1823 79
 m -5 Y s 1889 79 m -5 Y s 1955 85 m -11 Y s 1955 85 m -11 Y s 2022 79 m -5 Y s 2088 79 m -5 Y s 2154 79 m -5 Y s
 gsave  2268 461 0 0 C 342.112 55.3896 t 0 r /Helvetica findfont 22.9045 sf 0 0 m (400) show NC gr 
 gsave  2268 461 0 0 C 606.028 55.3896 t 0 r /Helvetica findfont 22.9045 sf 0 0 m (420) show NC gr 
 gsave  2268 461 0 0 C 873.201 55.3896 t 0 r /Helvetica findfont 22.9045 sf 0 0 m (440) show NC gr 
 gsave  2268 461 0 0 C 1137.12 55.3896 t 0 r /Helvetica findfont 22.9045 sf 0 0 m (460) show NC gr 
 gsave  2268 461 0 0 C 1404.29 55.3896 t 0 r /Helvetica findfont 22.9045 sf 0 0 m (480) show NC gr 
 gsave  2268 461 0 0 C 1668.21 55.3896 t 0 r /Helvetica findfont 22.9045 sf 0 0 m (500) show NC gr 
 gsave  2268 461 0 0 C 1935.38 55.3896 t 0 r /Helvetica findfont 22.9045 sf 0 0 m (520) show NC gr  363 438 m 1791 X s 363 427 m 11 Y s 429 433 m 5 Y s 496 433 m 5 Y s 562 433 m 5 Y s 628 427 m 11 Y s 695 433 m 5 Y s 761 433 m 5 Y s 827 433 m 5 Y s
 894 427 m 11 Y s 960 433 m 5 Y s 1026 433 m 5 Y s 1093 433 m 5 Y s 1159 427 m 11 Y s 1225 433 m 5 Y s 1292 433 m 5 Y s 1358 433 m 5 Y s 1424 427 m 11 Y s 1491 433 m 5 Y s 1557 433 m 5 Y s 1624 433 m 5 Y s 1690 427 m 11 Y s 1756 433 m 5 Y s 1823 433
 m 5 Y s 1889 433 m 5 Y s 1955 427 m 11 Y s 1955 427 m 11 Y s 2022 433 m 5 Y s 2088 433 m 5 Y s 2154 433 m 5 Y s 363 74 m 364 Y s 417 74 m -54 X s 390 81 m -27 X s 390 88 m -27 X s 390 96 m -27 X s 390 103 m -27 X s 417 110 m -54 X s 390 118 m -27 X
 s 390 125 m -27 X s 390 132 m -27 X s 390 139 m -27 X s 417 147 m -54 X s 390 154 m -27 X s 390 161 m -27 X s 390 169 m -27 X s 390 176 m -27 X s 417 183 m -54 X s 390 190 m -27 X s 390 198 m -27 X s 390 205 m -27 X s 390 212 m -27 X s 417 220 m -54
 X s 390 227 m -27 X s 390 234 m -27 X s 390 241 m -27 X s 390 249 m -27 X s 417 256 m -54 X s 390 263 m -27 X s 390 271 m -27 X s 390 278 m -27 X s 390 285 m -27 X s 417 293 m -54 X s 390 300 m -27 X s 390 307 m -27 X s 390 314 m -27 X s 390 322 m
 -27 X s 417 329 m -54 X s 390 336 m -27 X s 390 344 m -27 X s 390 351 m -27 X s 390 358 m -27 X s 417 365 m -54 X s 390 373 m -27 X s 390 380 m -27 X s 390 387 m -27 X s 390 395 m -27 X s 417 402 m -54 X s 390 409 m -27 X s 390 416 m -27 X s 390 424
 m -27 X s 390 431 m -27 X s 417 438 m -54 X s
 gsave  2268 461 0 0 C 329.08 65.1643 t 0 r /Helvetica findfont 22.9045 sf 0 0 m (\2555) show NC gr 
 gsave  2268 461 0 0 C 329.08 101.005 t 0 r /Helvetica findfont 22.9045 sf 0 0 m (\2554) show NC gr 
 gsave  2268 461 0 0 C 329.08 140.103 t 0 r /Helvetica findfont 22.9045 sf 0 0 m (\2553) show NC gr 
 gsave  2268 461 0 0 C 329.08 175.944 t 0 r /Helvetica findfont 22.9045 sf 0 0 m (\2552) show NC gr 
 gsave  2268 461 0 0 C 332.338 211.784 t 0 r /Helvetica findfont 22.9045 sf 0 0 m (\2551) show NC gr 
 gsave  2268 461 0 0 C 335.596 247.624 t 0 r /Helvetica findfont 22.9045 sf 0 0 m (0) show NC gr 
 gsave  2268 461 0 0 C 338.854 283.465 t 0 r /Helvetica findfont 22.9045 sf 0 0 m (1) show NC gr 
 gsave  2268 461 0 0 C 335.596 319.305 t 0 r /Helvetica findfont 22.9045 sf 0 0 m (2) show NC gr 
 gsave  2268 461 0 0 C 335.596 358.403 t 0 r /Helvetica findfont 22.9045 sf 0 0 m (3) show NC gr 
 gsave  2268 461 0 0 C 335.596 394.244 t 0 r /Helvetica findfont 22.9045 sf 0 0 m (4) show NC gr 
 gsave  2268 461 0 0 C 335.596 430.084 t 0 r /Helvetica findfont 22.9045 sf 0 0 m (5) show NC gr  2154 74 m 364 Y s 2101 74 m 53 X s 2127 81 m 27 X s 2127 88 m 27 X s 2127 96 m 27 X s 2127 103 m 27 X s 2101 110 m 53 X s 2127 118 m 27 X s 2127 125 m
 27 X s 2127 132 m 27 X s 2127 139 m 27 X s 2101 147 m 53 X s 2127 154 m 27 X s 2127 161 m 27 X s 2127 169 m 27 X s 2127 176 m 27 X s 2101 183 m 53 X s 2127 190 m 27 X s 2127 198 m 27 X s 2127 205 m 27 X s 2127 212 m 27 X s 2101 220 m 53 X s 2127 227
 m 27 X s 2127 234 m 27 X s 2127 241 m 27 X s 2127 249 m 27 X s 2101 256 m 53 X s 2127 263 m 27 X s 2127 271 m 27 X s 2127 278 m 27 X s 2127 285 m 27 X s 2101 293 m 53 X s 2127 300 m 27 X s 2127 307 m 27 X s 2127 314 m 27 X s 2127 322 m 27 X s 2101
 329 m 53 X s 2127 336 m 27 X s 2127 344 m 27 X s 2127 351 m 27 X s 2127 358 m 27 X s 2101 365 m 53 X s 2127 373 m 27 X s 2127 380 m 27 X s 2127 387 m 27 X s 2127 395 m 27 X s 2101 402 m 53 X s 2127 409 m 27 X s 2127 416 m 27 X s 2127 424 m 27 X s
 2127 431 m 27 X s 2101 438 m 53 X s 6 lw 0.2 0.8 0.2 c black 3 lw 0.2 0.8 0.2 c 363 256 m 20 Y 36 X 34 Y 35 X -17 Y 36 X -8 Y 36 X 27 Y 36 X 13 Y 36 X -72 Y 36 X 19 Y 35 X -22 Y 36 X 4 Y 36 X -4 Y 36 X -14 Y 36 X 58 Y 36 X -46 Y 35 X 23 Y 36 X -60 Y
 36 X 19 Y 36 X -17 Y 36 X -19 Y 36 X -16 Y 35 X -12 Y 36 X 13 Y 36 X 22 Y 36 X 25 Y 36 X 109 Y 36 X -83 Y 35 X 47 Y 36 X 27 Y 36 X 23 Y 36 X 9 Y 36 X -79 Y 36 X -91 Y 35 X 52 Y 36 X -59 Y 36 X 51 Y 36 X 26 Y 36 X 22 Y 36 X 52 Y 35 X -126 Y 36 X 132
 Y 36 X -135 Y 36 X 46 Y 36 X -1 Y 36 X -50 Y 35 X 29 Y 36 X 16 Y 36 X -29 Y 36 X 93 Y 36 X -34 Y 36 X 25 Y 35 X -42 Y f 6 lw black 0.2 0.8 0.2 c black 363 276 m 36 X 34 Y 35 X -17 Y 36 X -8 Y 36 X 27 Y 36 X 13 Y 36 X -72 Y 36 X 19 Y 35 X -22 Y 36 X
 4 Y 36 X -4 Y 36 X -14 Y 36 X 58 Y 36 X -46 Y 35 X 23 Y 36 X -60 Y 36 X 19 Y 36 X -17 Y 36 X -19 Y 36 X -16 Y 35 X -12 Y 36 X 13 Y 36 X 22 Y 36 X 25 Y 36 X 109 Y 36 X -83 Y 35 X 47 Y 36 X 27 Y 36 X 23 Y 36 X 9 Y 36 X -79 Y 36 X -91 Y 35 X 52 Y 36 X
 -59 Y 36 X 51 Y 36 X 26 Y 36 X 22 Y 36 X 52 Y 35 X -126 Y 36 X 132 Y 36 X -135 Y 36 X 46 Y 36 X -1 Y 36 X -50 Y 35 X 29 Y 36 X 16 Y 36 X -29 Y 36 X 93 Y 36 X -34 Y 36 X 25 Y 35 X s 3 lw 363 74 m 1791 X s 363 85 m -11 Y s 429 79 m -5 Y s 496 79 m -5
 Y s 562 79 m -5 Y s 628 85 m -11 Y s 695 79 m -5 Y s 761 79 m -5 Y s 827 79 m -5 Y s 894 85 m -11 Y s 960 79 m -5 Y s 1026 79 m -5 Y s 1093 79 m -5 Y s 1159 85 m -11 Y s 1225 79 m -5 Y s 1292 79 m -5 Y s 1358 79 m -5 Y s 1424 85 m -11 Y s 1491 79 m
 -5 Y s 1557 79 m -5 Y s 1624 79 m -5 Y s 1690 85 m -11 Y s 1756 79 m -5 Y s 1823 79 m -5 Y s 1889 79 m -5 Y s 1955 85 m -11 Y s 1955 85 m -11 Y s 2022 79 m -5 Y s 2088 79 m -5 Y s 2154 79 m -5 Y s 363 438 m 1791 X s 363 427 m 11 Y s 429 433 m 5 Y s
 496 433 m 5 Y s 562 433 m 5 Y s 628 427 m 11 Y s 695 433 m 5 Y s 761 433 m 5 Y s 827 433 m 5 Y s 894 427 m 11 Y s 960 433 m 5 Y s 1026 433 m 5 Y s 1093 433 m 5 Y s 1159 427 m 11 Y s 1225 433 m 5 Y s 1292 433 m 5 Y s 1358 433 m 5 Y s 1424 427 m 11 Y
 s 1491 433 m 5 Y s 1557 433 m 5 Y s 1624 433 m 5 Y s 1690 427 m 11 Y s 1756 433 m 5 Y s 1823 433 m 5 Y s 1889 433 m 5 Y s 1955 427 m 11 Y s 1955 427 m 11 Y s 2022 433 m 5 Y s 2088 433 m 5 Y s 2154 433 m 5 Y s 363 74 m 364 Y s 417 74 m -54 X s 390 81
 m -27 X s 390 88 m -27 X s 390 96 m -27 X s 390 103 m -27 X s 417 110 m -54 X s 390 118 m -27 X s 390 125 m -27 X s 390 132 m -27 X s 390 139 m -27 X s 417 147 m -54 X s 390 154 m -27 X s 390 161 m -27 X s 390 169 m -27 X s 390 176 m -27 X s 417 183
 m -54 X s 390 190 m -27 X s 390 198 m -27 X s 390 205 m -27 X s 390 212 m -27 X s 417 220 m -54 X s 390 227 m -27 X s 390 234 m -27 X s 390 241 m -27 X s 390 249 m -27 X s 417 256 m -54 X s 390 263 m -27 X s 390 271 m -27 X s 390 278 m -27 X s 390
 285 m -27 X s 417 293 m -54 X s 390 300 m -27 X s 390 307 m -27 X s 390 314 m -27 X s 390 322 m -27 X s 417 329 m -54 X s 390 336 m -27 X s 390 344 m -27 X s 390 351 m -27 X s 390 358 m -27 X s 417 365 m -54 X s 390 373 m -27 X s 390 380 m -27 X s
 390 387 m -27 X s 390 395 m -27 X s 417 402 m -54 X s 390 409 m -27 X s 390 416 m -27 X s 390 424 m -27 X s 390 431 m -27 X s 417 438 m -54 X s 2154 74 m 364 Y s 2101 74 m 53 X s 2127 81 m 27 X s 2127 88 m 27 X s 2127 96 m 27 X s 2127 103 m 27 X s
 2101 110 m 53 X s 2127 118 m 27 X s 2127 125 m 27 X s 2127 132 m 27 X s 2127 139 m 27 X s 2101 147 m 53 X s 2127 154 m 27 X s 2127 161 m 27 X s 2127 169 m 27 X s 2127 176 m 27 X s 2101 183 m 53 X s 2127 190 m 27 X s 2127 198 m 27 X s 2127 205 m 27 X
 s 2127 212 m 27 X s 2101 220 m 53 X s 2127 227 m 27 X s 2127 234 m 27 X s 2127 241 m 27 X s 2127 249 m 27 X s 2101 256 m 53 X s 2127 263 m 27 X s 2127 271 m 27 X s 2127 278 m 27 X s 2127 285 m 27 X s 2101 293 m 53 X s 2127 300 m 27 X s 2127 307 m 27
 X s 2127 314 m 27 X s 2127 322 m 27 X s 2101 329 m 53 X s 2127 336 m 27 X s 2127 344 m 27 X s 2127 351 m 27 X s 2127 358 m 27 X s 2101 365 m 53 X s 2127 373 m 27 X s 2127 380 m 27 X s 2127 387 m 27 X s 2127 395 m 27 X s 2101 402 m 53 X s 2127 409 m
 27 X s 2127 416 m 27 X s 2127 424 m 27 X s 2127 431 m 27 X s 2101 438 m 53 X s
 gr  gr showpage
end
%%EOF
