%!PS-Adobe-2.0 EPSF-2.0
%%BoundingBox:  0 0 567 384
%%Title: H4l2015_plotfit/VBF_mass_signal_400_H4l_4e.eps: 
%%Creator: ROOT Version 5.34/07
%%CreationDate: Mon Nov  9 16:30:36 2015
%%EndComments
%%BeginProlog
80 dict begin
/s {stroke} def /l {lineto} def /m {moveto} def /t {translate} def
/r {rotate} def /rl {roll}  def /R {repeat} def
/d {rlineto} def /rm {rmoveto} def /gr {grestore} def /f {eofill} def
/c {setrgbcolor} def /black {0 setgray} def /sd {setdash} def
/cl {closepath} def /sf {scalefont setfont} def /lw {setlinewidth} def
/box {m dup 0 exch d exch 0 d 0 exch neg d cl} def
/NC{systemdict begin initclip end}def/C{NC box clip newpath}def
/bl {box s} def /bf {box f} def /Y { 0 exch d} def /X { 0 d} def 
/K {{pop pop 0 moveto} exch kshow} bind def
/ita {/ang 15 def gsave [1 0 ang dup sin exch cos div 1 0 0] concat} def 
/mp {newpath /y exch def /x exch def} def
/side {[w .77 mul w .23 mul] .385 w mul sd w 0 l currentpoint t -144 r} def
/mr {mp x y w2 0 360 arc} def /m24 {mr s} def /m20 {mr f} def
/mb {mp x y w2 add m w2 neg 0 d 0 w neg d w 0 d 0 w d cl} def
/mt {mp x y w2 add m w2 neg w neg d w 0 d cl} def
/m21 {mb f} def /m25 {mb s} def /m22 {mt f} def /m26{mt s} def
/m23 {mp x y w2 sub m w2 w d w neg 0 d cl f} def
/m27 {mp x y w2 add m w3 neg w2 neg d w3 w2 neg d w3 w2 d cl s} def
/m28 {mp x w2 sub y w2 sub w3 add m w3 0 d  0 w3 neg d w3 0 d 0 w3 d w3 0 d  0 w3 d w3 neg 0 d 0 w3 d w3 neg 0 d 0 w3 neg d w3 neg 0 d cl s } def
/m29 {mp gsave x w2 sub y w2 add w3 sub m currentpoint t 4 {side} repeat cl fill gr} def
/m30 {mp gsave x w2 sub y w2 add w3 sub m currentpoint t 4 {side} repeat cl s gr} def
/m31 {mp x y w2 sub m 0 w d x w2 sub y m w 0 d x w2 sub y w2 add m w w neg d x w2 sub y w2 sub m w w d s} def
/m32 {mp x y w2 sub m w2 w d w neg 0 d cl s} def
/m33 {mp x y w2 add m w3 neg w2 neg d w3 w2 neg d w3 w2 d cl f} def
/m34 {mp x w2 sub y w2 sub w3 add m w3 0 d  0 w3 neg d w3 0 d 0 w3 d w3 0 d  0 w3 d w3 neg 0 d 0 w3 d w3 neg 0 d 0 w3 neg d w3 neg 0 d cl f } def
/m2 {mp x y w2 sub m 0 w d x w2 sub y m w 0 d s} def
/m5 {mp x w2 sub y w2 sub m w w d x w2 sub y w2 add m w w neg d s} def
/reEncode {exch findfont dup length dict begin {1 index /FID eq  {pop pop} {def} ifelse } forall /Encoding exch def currentdict end dup /FontName get exch definefont pop } def [/Times-Bold /Times-Italic /Times-BoldItalic /Helvetica /Helvetica-Oblique
 /Helvetica-Bold /Helvetica-BoldOblique /Courier /Courier-Oblique /Courier-Bold /Courier-BoldOblique /Times-Roman /AvantGarde-Book /AvantGarde-BookOblique /AvantGarde-Demi /AvantGarde-DemiOblique /Bookman-Demi /Bookman-DemiItalic /Bookman-Light
 /Bookman-LightItalic /Helvetica-Narrow /Helvetica-Narrow-Bold /Helvetica-Narrow-BoldOblique /Helvetica-Narrow-Oblique /NewCenturySchlbk-Roman /NewCenturySchlbk-Bold /NewCenturySchlbk-BoldItalic /NewCenturySchlbk-Italic /Palatino-Bold
 /Palatino-BoldItalic /Palatino-Italic /Palatino-Roman ] {ISOLatin1Encoding reEncode } forall
%%EndProlog
%%BeginSetup
%%EndSetup
newpath  gsave  .25 .25 scale  gsave  0 0 t black[  ] 0 sd 3 lw 1 1 1 c 2268 1538 0 0 bf black 1 1 1 c 2222 738 23 784 bf black 1 1 1 c 2222 739 23 15 bf black 1 1 1 c 2268 1077 0 461 bf black 1 1 1 c 1791 850 363 634 bf black 1791 850 363 634 bl 363
 634 m 1791 X s
 gsave  2268 1077 0 461 C 1642.14 498.507 t 0 r /Helvetica findfont 48.9324 sf 0 0 m (4l Invariant Mass \(GeV\)) show NC gr  397 659 m -25 Y s 482 646 m -12 Y s 568 646 m -12 Y s 653 646 m -12 Y s 738 659 m -25 Y s 824 646 m -12 Y s 909 646 m -12 Y s
 994 646 m -12 Y s 1079 659 m -25 Y s 1165 646 m -12 Y s 1250 646 m -12 Y s 1335 646 m -12 Y s 1421 659 m -25 Y s 1506 646 m -12 Y s 1591 646 m -12 Y s 1677 646 m -12 Y s 1762 659 m -25 Y s 1847 646 m -12 Y s 1933 646 m -12 Y s 2018 646 m -12 Y s
 2103 659 m -25 Y s 397 659 m -25 Y s 2103 659 m -25 Y s
 gsave  2268 1077 0 461 C 351.887 586.478 t 0 r /Helvetica findfont 48.9324 sf 0 0 m (320) show NC gr 
 gsave  2268 1077 0 461 C 693.999 586.478 t 0 r /Helvetica findfont 48.9324 sf 0 0 m (340) show NC gr 
 gsave  2268 1077 0 461 C 1036.11 586.478 t 0 r /Helvetica findfont 48.9324 sf 0 0 m (360) show NC gr 
 gsave  2268 1077 0 461 C 1378.22 586.478 t 0 r /Helvetica findfont 48.9324 sf 0 0 m (380) show NC gr 
 gsave  2268 1077 0 461 C 1717.08 586.478 t 0 r /Helvetica findfont 48.9324 sf 0 0 m (400) show NC gr 
 gsave  2268 1077 0 461 C 2059.19 586.478 t 0 r /Helvetica findfont 48.9324 sf 0 0 m (420) show NC gr  363 1484 m 1791 X s 397 1459 m 25 Y s 482 1471 m 13 Y s 568 1471 m 13 Y s 653 1471 m 13 Y s 738 1459 m 25 Y s 824 1471 m 13 Y s 909 1471 m 13 Y s
 994 1471 m 13 Y s 1079 1459 m 25 Y s 1165 1471 m 13 Y s 1250 1471 m 13 Y s 1335 1471 m 13 Y s 1421 1459 m 25 Y s 1506 1471 m 13 Y s 1591 1471 m 13 Y s 1677 1471 m 13 Y s 1762 1459 m 25 Y s 1847 1471 m 13 Y s 1933 1471 m 13 Y s 2018 1471 m 13 Y s
 2103 1459 m 25 Y s 397 1459 m 25 Y s 2103 1459 m 25 Y s 363 634 m 850 Y s
 gsave  2268 1077 0 461 C 120.554 1058.92 t 90 r /Helvetica findfont 48.9324 sf 0 0 m (Events / \( 2.1 GeV \)) show NC gr  417 634 m -54 X s
 gsave  2268 1077 0 461 C 312.788 632.093 t 0 r /Helvetica findfont 32.6216 sf 0 0 m (\2552) show NC gr 
 gsave  2268 1077 0 461 C 260.657 612.544 t 0 r /Helvetica findfont 48.9324 sf 0 0 m (10) show NC gr  390 683 m -27 X s 390 712 m -27 X s 390 733 m -27 X s 390 749 m -27 X s 390 762 m -27 X s 390 773 m -27 X s 390 782 m -27 X s 390 791 m -27 X s 417
 798 m -54 X s
 gsave  2268 1077 0 461 C 319.305 795.004 t 0 r /Helvetica findfont 32.6216 sf 0 0 m (\2551) show NC gr 
 gsave  2268 1077 0 461 C 267.173 775.455 t 0 r /Helvetica findfont 48.9324 sf 0 0 m (10) show NC gr  390 848 m -27 X s 390 877 m -27 X s 390 897 m -27 X s 390 913 m -27 X s 390 926 m -27 X s 390 937 m -27 X s 390 947 m -27 X s 390 955 m -27 X s 417
 963 m -54 X s
 gsave  2268 1077 0 461 C 342.425 941.815 t 0 r  -27 0 t /Helvetica findfont 48.9324 sf 0 0 m (1) show NC gr  390 1012 m -27 X s 390 1041 m -27 X s 390 1062 m -27 X s 390 1078 m -27 X s 390 1091 m -27 X s 390 1102 m -27 X s 390 1111 m -27 X s 390
 1120 m -27 X s 417 1127 m -54 X s
 gsave  2268 1077 0 461 C 342.425 1106.35 t 0 r  -55 0 t /Helvetica findfont 48.9324 sf 0 0 m (10) show NC gr  390 1177 m -27 X s 390 1206 m -27 X s 390 1226 m -27 X s 390 1242 m -27 X s 390 1255 m -27 X s 390 1266 m -27 X s 390 1276 m -27 X s 390
 1284 m -27 X s 417 1292 m -54 X s
 gsave  2268 1077 0 461 C 322.563 1290.25 t 0 r /Helvetica findfont 32.6216 sf 0 0 m (2) show NC gr 
 gsave  2268 1077 0 461 C 270.432 1270.7 t 0 r /Helvetica findfont 48.9324 sf 0 0 m (10) show NC gr  390 1341 m -27 X s 390 1370 m -27 X s 390 1391 m -27 X s 390 1407 m -27 X s 390 1420 m -27 X s 390 1431 m -27 X s 390 1440 m -27 X s 390 1449 m -27 X
 s 417 1456 m -54 X s
 gsave  2268 1077 0 461 C 322.563 1456.42 t 0 r /Helvetica findfont 32.6216 sf 0 0 m (3) show NC gr 
 gsave  2268 1077 0 461 C 270.432 1433.61 t 0 r /Helvetica findfont 48.9324 sf 0 0 m (10) show NC gr  2154 634 m 850 Y s 2101 634 m 53 X s 2127 683 m 27 X s 2127 712 m 27 X s 2127 733 m 27 X s 2127 749 m 27 X s 2127 762 m 27 X s 2127 773 m 27 X s
 2127 782 m 27 X s 2127 791 m 27 X s 2101 798 m 53 X s 2127 848 m 27 X s 2127 877 m 27 X s 2127 897 m 27 X s 2127 913 m 27 X s 2127 926 m 27 X s 2127 937 m 27 X s 2127 947 m 27 X s 2127 955 m 27 X s 2101 963 m 53 X s 2127 1012 m 27 X s 2127 1041 m 27
 X s 2127 1062 m 27 X s 2127 1078 m 27 X s 2127 1091 m 27 X s 2127 1102 m 27 X s 2127 1111 m 27 X s 2127 1120 m 27 X s 2101 1127 m 53 X s 2127 1177 m 27 X s 2127 1206 m 27 X s 2127 1226 m 27 X s 2127 1242 m 27 X s 2127 1255 m 27 X s 2127 1266 m 27 X
 s 2127 1276 m 27 X s 2127 1284 m 27 X s 2101 1292 m 53 X s 2127 1341 m 27 X s 2127 1370 m 27 X s 2127 1391 m 27 X s 2127 1407 m 27 X s 2127 1420 m 27 X s 2127 1431 m 27 X s 2127 1440 m 27 X s 2127 1449 m 27 X s 2101 1456 m 53 X s 381 1012 m -18 X s
 363 1012 m cl s 381 1012 m 18 X s 399 1012 m cl s 381 1012 m 60 Y s 381 1072 m cl s 381 1012 m -74 Y s 381 938 m cl s 417 1041 m -18 X s 399 1041 m cl s 417 1041 m 17 X s 434 1041 m cl s 417 1041 m 49 Y s 417 1090 m cl s 417 1041 m -56 Y s 417 985 m
 cl s 452 634 m -18 X s 434 634 m cl s 452 634 m 18 X s 470 634 m cl s 452 634 m 339 Y s 452 973 m cl s 488 1012 m -18 X s 470 1012 m cl s 488 1012 m 18 X s 506 1012 m cl s 488 1012 m 60 Y s 488 1072 m cl s 488 1012 m -74 Y s 488 938 m cl s 524 1041
 m -18 X s 506 1041 m cl s 524 1041 m 18 X s 542 1041 m cl s 524 1041 m 49 Y s 524 1090 m cl s 524 1041 m -56 Y s 524 985 m cl s 560 1062 m -18 X s 542 1062 m cl s 560 1062 m 18 X s 578 1062 m cl s 560 1062 m 41 Y s 560 1103 m cl s 560 1062 m -47 Y s
 560 1015 m cl s 596 1012 m -18 X s 578 1012 m cl s 596 1012 m 18 X s 614 1012 m cl s 596 1012 m 60 Y s 596 1072 m cl s 596 1012 m -74 Y s 596 938 m cl s 632 1012 m -18 X s 614 1012 m cl s 632 1012 m 17 X s 649 1012 m cl s 632 1012 m 60 Y s 632 1072
 m cl s 632 1012 m -74 Y s 632 938 m cl s 667 1041 m -18 X s 649 1041 m cl s 667 1041 m 18 X s 685 1041 m cl s 667 1041 m 49 Y s 667 1090 m cl s 667 1041 m -56 Y s 667 985 m cl s 703 1062 m -18 X s 685 1062 m cl s 703 1062 m 18 X s 721 1062 m cl s
 703 1062 m 41 Y s 703 1103 m cl s 703 1062 m -47 Y s 703 1015 m cl s 739 1041 m -18 X s 721 1041 m cl s 739 1041 m 18 X s 757 1041 m cl s 739 1041 m 49 Y s 739 1090 m cl s 739 1041 m -56 Y s 739 985 m cl s 775 1041 m -18 X s 757 1041 m cl s 775 1041
 m 18 X s 793 1041 m cl s 775 1041 m 49 Y s 775 1090 m cl s 775 1041 m -56 Y s 775 985 m cl s 811 1041 m -18 X s 793 1041 m cl s 811 1041 m 18 X s 829 1041 m cl s 811 1041 m 49 Y s 811 1090 m cl s 811 1041 m -56 Y s 811 985 m cl s 847 1102 m -18 X s
 829 1102 m cl s 847 1102 m 17 X s 864 1102 m cl s 847 1102 m 31 Y s 847 1133 m cl s 847 1102 m -33 Y s 847 1069 m cl s 882 1102 m -18 X s 864 1102 m cl s 882 1102 m 18 X s 900 1102 m cl s 882 1102 m 31 Y s 882 1133 m cl s 882 1102 m -33 Y s 882 1069
 m cl s 918 1102 m -18 X s 900 1102 m cl s 918 1102 m 18 X s 936 1102 m cl s 918 1102 m 31 Y s 918 1133 m cl s 918 1102 m -33 Y s 918 1069 m cl s 954 1078 m -18 X s 936 1078 m cl s 954 1078 m 18 X s 972 1078 m cl s 954 1078 m 37 Y s 954 1115 m cl s
 954 1078 m -41 Y s 954 1037 m cl s 990 1041 m -18 X s 972 1041 m cl s 990 1041 m 18 X s 1008 1041 m cl s 990 1041 m 49 Y s 990 1090 m cl s 990 1041 m -56 Y s 990 985 m cl s 1026 1127 m -18 X s 1008 1127 m cl s 1026 1127 m 18 X s 1044 1127 m cl s
 1026 1127 m 26 Y s 1026 1153 m cl s 1026 1127 m -26 Y s 1026 1101 m cl s 1062 1062 m -18 X s 1044 1062 m cl s 1062 1062 m 17 X s 1079 1062 m cl s 1062 1062 m 41 Y s 1062 1103 m cl s 1062 1062 m -47 Y s 1062 1015 m cl s 1097 1134 m -18 X s 1079 1134
 m cl s 1097 1134 m 18 X s 1115 1134 m cl s 1097 1134 m 24 Y s 1097 1158 m cl s 1097 1134 m -25 Y s 1097 1109 m cl s 1133 1127 m -18 X s 1115 1127 m cl s 1133 1127 m 18 X s 1151 1127 m cl s 1133 1127 m 26 Y s 1133 1153 m cl s 1133 1127 m -26 Y s 1133
 1101 m cl s 1169 1120 m -18 X s 1151 1120 m cl s 1169 1120 m 18 X s 1187 1120 m cl s 1169 1120 m 27 Y s 1169 1147 m cl s 1169 1120 m -29 Y s 1169 1091 m cl s 1205 1146 m -18 X s 1187 1146 m cl s 1205 1146 m 18 X s 1223 1146 m cl s 1205 1146 m 22 Y s
 1205 1168 m cl s 1205 1146 m -23 Y s 1205 1123 m cl s 1241 1165 m -18 X s 1223 1165 m cl s 1241 1165 m 18 X s 1259 1165 m cl s 1241 1165 m 19 Y s 1241 1184 m cl s 1241 1165 m -20 Y s 1241 1145 m cl s 1276 1161 m -17 X s 1259 1161 m cl s 1276 1161 m
 18 X s 1294 1161 m cl s 1276 1161 m 19 Y s 1276 1180 m cl s 1276 1161 m -21 Y s 1276 1140 m cl s 1312 1190 m -18 X s 1294 1190 m cl s 1312 1190 m 18 X s 1330 1190 m cl s 1312 1190 m 16 Y s 1312 1206 m cl s 1312 1190 m -16 Y s 1312 1174 m cl s 1348
 1161 m -18 X s 1330 1161 m cl s 1348 1161 m 18 X s 1366 1161 m cl s 1348 1161 m 19 Y s 1348 1180 m cl s 1348 1161 m -21 Y s 1348 1140 m cl s 1384 1213 m -18 X s 1366 1213 m cl s 1384 1213 m 18 X s 1402 1213 m cl s 1384 1213 m 13 Y s 1384 1226 m cl s
 1384 1213 m -14 Y s 1384 1199 m cl s 1420 1249 m -18 X s 1402 1249 m cl s 1420 1249 m 18 X s 1438 1249 m cl s 1420 1249 m 10 Y s 1420 1259 m cl s 1420 1249 m -10 Y s 1420 1239 m cl s 1456 1265 m -18 X s 1438 1265 m cl s 1456 1265 m 18 X s 1474 1265
 m cl s 1456 1265 m 9 Y s 1456 1274 m cl s 1456 1265 m -9 Y s 1456 1256 m cl s 1491 1285 m -17 X s 1474 1285 m cl s 1491 1285 m 18 X s 1509 1285 m cl s 1491 1285 m 8 Y s 1491 1293 m cl s 1491 1285 m -8 Y s 1491 1277 m cl s 1527 1323 m -18 X s 1509
 1323 m cl s 1527 1323 m 18 X s 1545 1323 m cl s 1527 1323 m 6 Y s 1527 1329 m cl s 1527 1323 m -6 Y s 1527 1317 m cl s 1563 1345 m -18 X s 1545 1345 m cl s 1563 1345 m 18 X s 1581 1345 m cl s 1563 1345 m 5 Y s 1563 1350 m cl s 1563 1345 m -5 Y s
 1563 1340 m cl s 1599 1376 m -18 X s 1581 1376 m cl s 1599 1376 m 18 X s 1617 1376 m cl s 1599 1376 m 3 Y s 1599 1379 m cl s 1599 1376 m -4 Y s 1599 1372 m cl s 1635 1403 m -18 X s 1617 1403 m cl s 1635 1403 m 18 X s 1653 1403 m cl s 1635 1403 m 3 Y
 s 1635 1406 m cl s 1635 1403 m -3 Y s 1635 1400 m cl s 1671 1426 m -18 X s 1653 1426 m cl s 1671 1426 m 18 X s 1689 1426 m cl s 1671 1426 m 3 Y s 1671 1429 m cl s 1671 1426 m -3 Y s 1671 1423 m cl s 1706 1442 m -17 X s 1689 1442 m cl s 1706 1442 m
 18 X s 1724 1442 m cl s 1706 1442 m 3 Y s 1706 1445 m cl s 1706 1442 m -2 Y s 1706 1440 m cl s 1742 1445 m -18 X s 1724 1445 m cl s 1742 1445 m 18 X s 1760 1445 m cl s 1742 1445 m 2 Y s 1742 1447 m cl s 1742 1445 m -3 Y s 1742 1442 m cl s 1778 1424
 m -18 X s 1760 1424 m cl s 1778 1424 m 18 X s 1796 1424 m cl s 1778 1424 m 3 Y s 1778 1427 m cl s 1778 1424 m -2 Y s 1778 1422 m cl s 1814 1403 m -18 X s 1796 1403 m cl s 1814 1403 m 18 X s 1832 1403 m cl s 1814 1403 m 3 Y s 1814 1406 m cl s 1814
 1403 m -4 Y s 1814 1399 m cl s 1850 1345 m -18 X s 1832 1345 m cl s 1850 1345 m 18 X s 1868 1345 m cl s 1850 1345 m 5 Y s 1850 1350 m cl s 1850 1345 m -5 Y s 1850 1340 m cl s 1886 1297 m -18 X s 1868 1297 m cl s 1886 1297 m 18 X s 1904 1297 m cl s
 1886 1297 m 6 Y s 1886 1303 m cl s 1886 1297 m -7 Y s 1886 1290 m cl s 1921 1242 m -17 X s 1904 1242 m cl s 1921 1242 m 18 X s 1939 1242 m cl s 1921 1242 m 11 Y s 1921 1253 m cl s 1921 1242 m -11 Y s 1921 1231 m cl s 1957 1208 m -18 X s 1939 1208 m
 cl s 1957 1208 m 18 X s 1975 1208 m cl s 1957 1208 m 14 Y s 1957 1222 m cl s 1957 1208 m -14 Y s 1957 1194 m cl s 1993 1151 m -18 X s 1975 1151 m cl s 1993 1151 m 18 X s 2011 1151 m cl s 1993 1151 m 21 Y s 1993 1172 m cl s 1993 1151 m -22 Y s 1993
 1129 m cl s 2029 1146 m -18 X s 2011 1146 m cl s 2029 1146 m 18 X s 2047 1146 m cl s 2029 1146 m 22 Y s 2029 1168 m cl s 2029 1146 m -23 Y s 2029 1123 m cl s 2065 1111 m -18 X s 2047 1111 m cl s 2065 1111 m 18 X s 2083 1111 m cl s 2065 1111 m 29 Y s
 2065 1140 m cl s 2065 1111 m -30 Y s 2065 1081 m cl s 2101 1062 m -18 X s 2083 1062 m cl s 2101 1062 m 18 X s 2119 1062 m cl s 2101 1062 m 41 Y s 2101 1103 m cl s 2101 1062 m -47 Y s 2101 1015 m cl s 2136 1012 m -17 X s 2119 1012 m cl s 2136 1012 m
 18 X s 2154 1012 m cl s 2136 1012 m 60 Y s 2136 1072 m cl s 2136 1012 m -74 Y s 2136 938 m cl s /w 31 def /w2 {w 2 div} def /w3 {w 3 div} def 381 1012 417 1041 2 { m20} R 488 1012 524 1041 560 1062 596 1012 632 1012 667 1041 703 1062 739 1041 775
 1041 811 1041 847 1102 882 1102 918 1102 954 1078 990 1041 1026 1127 1062 1062 1097 1134 1133 1127 1169 1120 1205 1146 1241 1165 1276 1161 1312 1190 1348 1161 1384 1213 1420 1249 1456 1265 1491 1285 1527 1323 1563 1345 1599 1376 1635 1403 1671 1426
 1706 1442 1742 1445 1778 1424 1814 1403 1850 1345 1886 1297 1921 1242 1957 1208 1993 1151 2029 1146 2065 1111 2101 1062 2136 1012 47 { m20} R 0 1 1 c 1 1 0 c black 1 1 0 c 363 1021 m 36 4 d 35 4 d 36 4 d 36 4 d 36 4 d 36 4 d 36 5 d 35 4 d 36 5 d 36
 5 d 36 5 d 36 5 d 36 6 d 35 5 d 36 6 d 36 6 d 36 7 d 36 6 d 36 8 d 35 7 d 36 8 d 36 8 d 36 9 d 36 10 d 36 11 d 35 13 d 36 15 d 36 18 d 36 19 d 36 21 d 18 12 d 18 11 d 17 13 d 18 12 d 18 13 d 18 14 d 9 6 d 9 7 d 9 6 d 9 7 d 9 7 d 9 7 d 9 8 d 4 4 d 5
 5 d 4 5 d 5 5 d 9 9 d 18 14 d 9 6 d 9 5 d 9 5 d 4 2 d 5 2 d 4 1 d 4 2 d 5 1 d 4 1 d 5 1 d 22 X 5 -1 d 4 -1 d 5 -2 d 4 -1 d 5 -2 d 4 -2 d 9 -5 d 9 -6 d 18 -14 d 9 -8 d 9 -9 d 9 -9 d 9 -10 d 9 -11 d 9 -11 d 9 -12 d 9 -12 d 9 -11 d 9 -12 d 9 -12 d 9
 -11 d 8 -11 d 9 -10 d 18 -21 d 18 -19 d 18 -20 d 36 -39 d 36 -39 d 36 -42 d 36 -45 d 35 -49 d -179 Y -35 126 d -36 81 d -36 64 d -36 53 d -36 44 d -18 21 d -18 22 d -18 24 d -9 12 d -8 12 d -9 13 d -9 12 d -9 13 d -9 12 d -9 13 d -9 12 d -9 12 d -9
 11 d -9 11 d -9 10 d -9 10 d -9 9 d -18 14 d -9 6 d -9 5 d -4 2 d -5 2 d -4 1 d -5 1 d -4 1 d -5 1 d -4 1 d -5 X -4 1 d -5 X -4 -1 d -5 X -4 -1 d -5 -1 d -4 -1 d -4 -2 d -5 -2 d -4 -2 d -9 -5 d -9 -7 d -9 -7 d -18 -18 d -9 -10 d -5 -4 d -4 -3 d -5
 -4 d -4 -4 d -9 -8 d -9 -7 d -9 -8 d -9 -7 d -9 -7 d -9 -7 d -9 -6 d -18 -13 d -18 -12 d -18 -13 d -17 -12 d -18 -13 d -18 -12 d -36 -25 d -36 -21 d -36 -18 d -36 -15 d -35 -13 d -36 -12 d -36 -10 d -36 -10 d -36 -8 d -36 -9 d -35 -7 d -36 -8 d -36
 -7 d -36 -6 d -36 -7 d -36 -6 d -35 -6 d -36 -5 d -36 -6 d -36 -5 d -36 -5 d -36 -5 d -35 -4 d -36 -5 d -36 -4 d -36 -5 d -36 -4 d -36 -4 d -35 -4 d -36 -4 d f 0 1 1 c 0 1 0 c black 0 1 0 c 363 1016 m 36 4 d 35 4 d 36 4 d 36 4 d 36 4 d 36 4 d 36 5 d
 35 4 d 36 5 d 36 5 d 36 5 d 36 5 d 36 6 d 35 6 d 36 6 d 36 6 d 36 6 d 36 7 d 36 7 d 35 8 d 36 8 d 36 8 d 36 9 d 36 10 d 36 12 d 35 12 d 36 16 d 36 17 d 36 20 d 36 22 d 18 11 d 18 12 d 17 13 d 18 12 d 18 13 d 18 13 d 9 7 d 9 6 d 9 7 d 9 7 d 9 7 d 9 7
 d 9 8 d 4 4 d 5 4 d 4 5 d 5 5 d 9 9 d 18 15 d 9 7 d 9 5 d 9 5 d 4 2 d 5 2 d 4 1 d 4 2 d 5 1 d 4 1 d 5 1 d 18 X 4 -1 d 5 -1 d 4 -1 d 5 -1 d 4 -2 d 5 -2 d 4 -2 d 9 -4 d 9 -6 d 18 -14 d 9 -9 d 9 -9 d 9 -9 d 9 -10 d 9 -11 d 9 -12 d 9 -11 d 9 -12 d 9 -12
 d 9 -12 d 9 -12 d 9 -11 d 8 -12 d 9 -11 d 18 -20 d 18 -21 d 18 -19 d 36 -40 d 36 -42 d 36 -44 d 36 -49 d 35 -54 d -62 Y -35 70 d -36 63 d -36 54 d -36 48 d -36 43 d -18 21 d -18 21 d -18 22 d -9 12 d -8 12 d -9 12 d -9 13 d -9 12 d -9 12 d -9 12 d
 -9 12 d -9 12 d -9 11 d -9 11 d -9 10 d -9 9 d -9 9 d -18 14 d -9 6 d -9 5 d -4 2 d -5 2 d -4 1 d -5 2 d -4 1 d -5 1 d -4 X -5 1 d -9 X -4 -1 d -5 X -4 -1 d -5 -1 d -4 -1 d -4 -2 d -5 -2 d -4 -2 d -9 -5 d -9 -6 d -9 -7 d -18 -17 d -9 -10 d -5 -4 d
 -4 -4 d -5 -4 d -4 -4 d -9 -8 d -9 -7 d -9 -8 d -9 -7 d -9 -7 d -9 -7 d -9 -6 d -18 -12 d -18 -13 d -18 -12 d -17 -13 d -18 -12 d -18 -13 d -36 -23 d -36 -21 d -36 -18 d -36 -15 d -35 -13 d -36 -11 d -36 -10 d -36 -10 d -36 -8 d -36 -8 d -35 -8 d
 -36 -7 d -36 -7 d -36 -7 d -36 -6 d -36 -6 d -35 -6 d -36 -6 d -36 -5 d -36 -5 d -36 -5 d -36 -5 d -35 -5 d -36 -4 d -36 -4 d -36 -5 d -36 -4 d -36 -4 d -35 -4 d -36 -4 d f 0 0 1 c 9 lw black 0 0 1 c 363 1011 m 36 4 d 35 4 d 36 4 d 36 4 d 36 4 d 36
 4 d 36 5 d 35 4 d 36 5 d 36 5 d 36 5 d 36 6 d 36 5 d 35 6 d 36 6 d 36 6 d 36 7 d 36 7 d 36 7 d 35 7 d 36 8 d 36 9 d 36 9 d 36 10 d 36 12 d 35 12 d 36 16 d 36 17 d 36 21 d 36 22 d 18 12 d 18 12 d 17 13 d 18 12 d 18 13 d 18 13 d 9 6 d 9 7 d 9 7 d 9 7
 d 9 7 d 9 7 d 9 8 d 4 4 d 5 4 d 4 5 d 5 4 d 9 9 d 18 16 d 9 7 d 9 6 d 9 5 d 4 2 d 5 2 d 4 1 d 4 2 d 5 1 d 4 1 d 5 1 d 18 X 4 -1 d 5 -1 d 4 -1 d 5 -1 d 4 -2 d 5 -2 d 4 -2 d 9 -5 d 9 -5 d 18 -15 d 9 -8 d 9 -9 d 9 -10 d 9 -11 d 9 -11 d 9 -11 d 9 -12 d
 9 -12 d 9 -12 d 9 -12 d 9 -12 d 9 -12 d 8 -12 d 9 -11 d 18 -22 d 18 -20 d 18 -20 d 36 -42 d 36 -44 d 36 -49 d 36 -53 d 35 -59 d s black 3 lw 381 1012 m -18 X s 363 1012 m cl s 381 1012 m 18 X s 399 1012 m cl s 381 1012 m 60 Y s 381 1072 m cl s 381
 1012 m -74 Y s 381 938 m cl s 417 1041 m -18 X s 399 1041 m cl s 417 1041 m 17 X s 434 1041 m cl s 417 1041 m 49 Y s 417 1090 m cl s 417 1041 m -56 Y s 417 985 m cl s 452 634 m -18 X s 434 634 m cl s 452 634 m 18 X s 470 634 m cl s 452 634 m 339 Y s
 452 973 m cl s 488 1012 m -18 X s 470 1012 m cl s 488 1012 m 18 X s 506 1012 m cl s 488 1012 m 60 Y s 488 1072 m cl s 488 1012 m -74 Y s 488 938 m cl s 524 1041 m -18 X s 506 1041 m cl s 524 1041 m 18 X s 542 1041 m cl s 524 1041 m 49 Y s 524 1090 m
 cl s 524 1041 m -56 Y s 524 985 m cl s 560 1062 m -18 X s 542 1062 m cl s 560 1062 m 18 X s 578 1062 m cl s 560 1062 m 41 Y s 560 1103 m cl s 560 1062 m -47 Y s 560 1015 m cl s 596 1012 m -18 X s 578 1012 m cl s 596 1012 m 18 X s 614 1012 m cl s 596
 1012 m 60 Y s 596 1072 m cl s 596 1012 m -74 Y s 596 938 m cl s 632 1012 m -18 X s 614 1012 m cl s 632 1012 m 17 X s 649 1012 m cl s 632 1012 m 60 Y s 632 1072 m cl s 632 1012 m -74 Y s 632 938 m cl s 667 1041 m -18 X s 649 1041 m cl s 667 1041 m 18
 X s 685 1041 m cl s 667 1041 m 49 Y s 667 1090 m cl s 667 1041 m -56 Y s 667 985 m cl s 703 1062 m -18 X s 685 1062 m cl s 703 1062 m 18 X s 721 1062 m cl s 703 1062 m 41 Y s 703 1103 m cl s 703 1062 m -47 Y s 703 1015 m cl s 739 1041 m -18 X s 721
 1041 m cl s 739 1041 m 18 X s 757 1041 m cl s 739 1041 m 49 Y s 739 1090 m cl s 739 1041 m -56 Y s 739 985 m cl s 775 1041 m -18 X s 757 1041 m cl s 775 1041 m 18 X s 793 1041 m cl s 775 1041 m 49 Y s 775 1090 m cl s 775 1041 m -56 Y s 775 985 m cl
 s 811 1041 m -18 X s 793 1041 m cl s 811 1041 m 18 X s 829 1041 m cl s 811 1041 m 49 Y s 811 1090 m cl s 811 1041 m -56 Y s 811 985 m cl s 847 1102 m -18 X s 829 1102 m cl s 847 1102 m 17 X s 864 1102 m cl s 847 1102 m 31 Y s 847 1133 m cl s 847
 1102 m -33 Y s 847 1069 m cl s 882 1102 m -18 X s 864 1102 m cl s 882 1102 m 18 X s 900 1102 m cl s 882 1102 m 31 Y s 882 1133 m cl s 882 1102 m -33 Y s 882 1069 m cl s 918 1102 m -18 X s 900 1102 m cl s 918 1102 m 18 X s 936 1102 m cl s 918 1102 m
 31 Y s 918 1133 m cl s 918 1102 m -33 Y s 918 1069 m cl s 954 1078 m -18 X s 936 1078 m cl s 954 1078 m 18 X s 972 1078 m cl s 954 1078 m 37 Y s 954 1115 m cl s 954 1078 m -41 Y s 954 1037 m cl s 990 1041 m -18 X s 972 1041 m cl s 990 1041 m 18 X s
 1008 1041 m cl s 990 1041 m 49 Y s 990 1090 m cl s 990 1041 m -56 Y s 990 985 m cl s 1026 1127 m -18 X s 1008 1127 m cl s 1026 1127 m 18 X s 1044 1127 m cl s 1026 1127 m 26 Y s 1026 1153 m cl s 1026 1127 m -26 Y s 1026 1101 m cl s 1062 1062 m -18 X
 s 1044 1062 m cl s 1062 1062 m 17 X s 1079 1062 m cl s 1062 1062 m 41 Y s 1062 1103 m cl s 1062 1062 m -47 Y s 1062 1015 m cl s 1097 1134 m -18 X s 1079 1134 m cl s 1097 1134 m 18 X s 1115 1134 m cl s 1097 1134 m 24 Y s 1097 1158 m cl s 1097 1134 m
 -25 Y s 1097 1109 m cl s 1133 1127 m -18 X s 1115 1127 m cl s 1133 1127 m 18 X s 1151 1127 m cl s 1133 1127 m 26 Y s 1133 1153 m cl s 1133 1127 m -26 Y s 1133 1101 m cl s 1169 1120 m -18 X s 1151 1120 m cl s 1169 1120 m 18 X s 1187 1120 m cl s 1169
 1120 m 27 Y s 1169 1147 m cl s 1169 1120 m -29 Y s 1169 1091 m cl s 1205 1146 m -18 X s 1187 1146 m cl s 1205 1146 m 18 X s 1223 1146 m cl s 1205 1146 m 22 Y s 1205 1168 m cl s 1205 1146 m -23 Y s 1205 1123 m cl s 1241 1165 m -18 X s 1223 1165 m cl
 s 1241 1165 m 18 X s 1259 1165 m cl s 1241 1165 m 19 Y s 1241 1184 m cl s 1241 1165 m -20 Y s 1241 1145 m cl s 1276 1161 m -17 X s 1259 1161 m cl s 1276 1161 m 18 X s 1294 1161 m cl s 1276 1161 m 19 Y s 1276 1180 m cl s 1276 1161 m -21 Y s 1276 1140
 m cl s 1312 1190 m -18 X s 1294 1190 m cl s 1312 1190 m 18 X s 1330 1190 m cl s 1312 1190 m 16 Y s 1312 1206 m cl s 1312 1190 m -16 Y s 1312 1174 m cl s 1348 1161 m -18 X s 1330 1161 m cl s 1348 1161 m 18 X s 1366 1161 m cl s 1348 1161 m 19 Y s 1348
 1180 m cl s 1348 1161 m -21 Y s 1348 1140 m cl s 1384 1213 m -18 X s 1366 1213 m cl s 1384 1213 m 18 X s 1402 1213 m cl s 1384 1213 m 13 Y s 1384 1226 m cl s 1384 1213 m -14 Y s 1384 1199 m cl s 1420 1249 m -18 X s 1402 1249 m cl s 1420 1249 m 18 X
 s 1438 1249 m cl s 1420 1249 m 10 Y s 1420 1259 m cl s 1420 1249 m -10 Y s 1420 1239 m cl s 1456 1265 m -18 X s 1438 1265 m cl s 1456 1265 m 18 X s 1474 1265 m cl s 1456 1265 m 9 Y s 1456 1274 m cl s 1456 1265 m -9 Y s 1456 1256 m cl s 1491 1285 m
 -17 X s 1474 1285 m cl s 1491 1285 m 18 X s 1509 1285 m cl s 1491 1285 m 8 Y s 1491 1293 m cl s 1491 1285 m -8 Y s 1491 1277 m cl s 1527 1323 m -18 X s 1509 1323 m cl s 1527 1323 m 18 X s 1545 1323 m cl s 1527 1323 m 6 Y s 1527 1329 m cl s 1527 1323
 m -6 Y s 1527 1317 m cl s 1563 1345 m -18 X s 1545 1345 m cl s 1563 1345 m 18 X s 1581 1345 m cl s 1563 1345 m 5 Y s 1563 1350 m cl s 1563 1345 m -5 Y s 1563 1340 m cl s 1599 1376 m -18 X s 1581 1376 m cl s 1599 1376 m 18 X s 1617 1376 m cl s 1599
 1376 m 3 Y s 1599 1379 m cl s 1599 1376 m -4 Y s 1599 1372 m cl s 1635 1403 m -18 X s 1617 1403 m cl s 1635 1403 m 18 X s 1653 1403 m cl s 1635 1403 m 3 Y s 1635 1406 m cl s 1635 1403 m -3 Y s 1635 1400 m cl s 1671 1426 m -18 X s 1653 1426 m cl s
 1671 1426 m 18 X s 1689 1426 m cl s 1671 1426 m 3 Y s 1671 1429 m cl s 1671 1426 m -3 Y s 1671 1423 m cl s 1706 1442 m -17 X s 1689 1442 m cl s 1706 1442 m 18 X s 1724 1442 m cl s 1706 1442 m 3 Y s 1706 1445 m cl s 1706 1442 m -2 Y s 1706 1440 m cl
 s 1742 1445 m -18 X s 1724 1445 m cl s 1742 1445 m 18 X s 1760 1445 m cl s 1742 1445 m 2 Y s 1742 1447 m cl s 1742 1445 m -3 Y s 1742 1442 m cl s 1778 1424 m -18 X s 1760 1424 m cl s 1778 1424 m 18 X s 1796 1424 m cl s 1778 1424 m 3 Y s 1778 1427 m
 cl s 1778 1424 m -2 Y s 1778 1422 m cl s 1814 1403 m -18 X s 1796 1403 m cl s 1814 1403 m 18 X s 1832 1403 m cl s 1814 1403 m 3 Y s 1814 1406 m cl s 1814 1403 m -4 Y s 1814 1399 m cl s 1850 1345 m -18 X s 1832 1345 m cl s 1850 1345 m 18 X s 1868
 1345 m cl s 1850 1345 m 5 Y s 1850 1350 m cl s 1850 1345 m -5 Y s 1850 1340 m cl s 1886 1297 m -18 X s 1868 1297 m cl s 1886 1297 m 18 X s 1904 1297 m cl s 1886 1297 m 6 Y s 1886 1303 m cl s 1886 1297 m -7 Y s 1886 1290 m cl s 1921 1242 m -17 X s
 1904 1242 m cl s 1921 1242 m 18 X s 1939 1242 m cl s 1921 1242 m 11 Y s 1921 1253 m cl s 1921 1242 m -11 Y s 1921 1231 m cl s 1957 1208 m -18 X s 1939 1208 m cl s 1957 1208 m 18 X s 1975 1208 m cl s 1957 1208 m 14 Y s 1957 1222 m cl s 1957 1208 m
 -14 Y s 1957 1194 m cl s 1993 1151 m -18 X s 1975 1151 m cl s 1993 1151 m 18 X s 2011 1151 m cl s 1993 1151 m 21 Y s 1993 1172 m cl s 1993 1151 m -22 Y s 1993 1129 m cl s 2029 1146 m -18 X s 2011 1146 m cl s 2029 1146 m 18 X s 2047 1146 m cl s 2029
 1146 m 22 Y s 2029 1168 m cl s 2029 1146 m -23 Y s 2029 1123 m cl s 2065 1111 m -18 X s 2047 1111 m cl s 2065 1111 m 18 X s 2083 1111 m cl s 2065 1111 m 29 Y s 2065 1140 m cl s 2065 1111 m -30 Y s 2065 1081 m cl s 2101 1062 m -18 X s 2083 1062 m cl
 s 2101 1062 m 18 X s 2119 1062 m cl s 2101 1062 m 41 Y s 2101 1103 m cl s 2101 1062 m -47 Y s 2101 1015 m cl s 2136 1012 m -17 X s 2119 1012 m cl s 2136 1012 m 18 X s 2154 1012 m cl s 2136 1012 m 60 Y s 2136 1072 m cl s 2136 1012 m -74 Y s 2136 938
 m cl s 381 1012 417 1041 2 { m20} R 488 1012 524 1041 560 1062 596 1012 632 1012 667 1041 703 1062 739 1041 775 1041 811 1041 847 1102 882 1102 918 1102 954 1078 990 1041 1026 1127 1062 1062 1097 1134 1133 1127 1169 1120 1205 1146 1241 1165 1276
 1161 1312 1190 1348 1161 1384 1213 1420 1249 1456 1265 1491 1285 1527 1323 1563 1345 1599 1376 1635 1403 1671 1426 1706 1442 1742 1445 1778 1424 1814 1403 1850 1345 1886 1297 1921 1242 1957 1208 1993 1151 2029 1146 2065 1111 2101 1062 2136 1012 47 {
 m20} R 0.52 0.76 0.64 c[ 4 8] 0 sd 9 lw black 0.52 0.76 0.64 c 363 1011 m 36 4 d 35 4 d 36 4 d 36 4 d 36 4 d 36 4 d 36 5 d 35 4 d 36 5 d 36 5 d 36 5 d 36 6 d 36 5 d 35 6 d 36 6 d 36 6 d 36 7 d 36 7 d 36 7 d 35 7 d 36 8 d 36 9 d 36 9 d 36 9 d 36 11 d
 35 11 d 36 12 d 36 13 d 36 15 d 36 16 d 36 18 d 17 10 d 18 11 d 18 12 d 18 12 d 9 7 d 9 7 d 9 8 d 9 8 d 9 8 d 9 9 d 9 10 d 4 5 d 5 5 d 4 6 d 5 5 d 9 12 d 18 19 d 9 8 d 9 7 d 9 5 d 4 3 d 5 2 d 4 2 d 4 1 d 5 2 d 4 1 d 5 X 4 1 d 9 X 5 -1 d 4 X 5 -1 d 4
 -1 d 5 -2 d 4 -2 d 5 -2 d 4 -2 d 9 -6 d 9 -7 d 18 -17 d 9 -10 d 9 -11 d 9 -12 d 9 -14 d 9 -15 d 9 -15 d 9 -17 d 9 -18 d 9 -20 d 9 -20 d 9 -21 d 9 -23 d 8 -24 d 9 -24 d 18 -53 d 18 -58 d 18 -62 d 36 -138 d 36 -156 d 10 -47 d s 0.54 0.66 0.63 c black
 0.54 0.66 0.63 c 1131 634 m 20 46 d s 1151 680 m 36 78 d 36 73 d 36 67 d 35 63 d 36 58 d 18 27 d 18 25 d 18 25 d 18 23 d 18 21 d 18 21 d 18 19 d 18 18 d 17 17 d 18 16 d 18 14 d 18 13 d 18 12 d 18 10 d 18 9 d 18 8 d 18 7 d 9 3 d 9 2 d 9 3 d 9 1 d 9 2
 d 9 1 d 8 1 d 9 1 d 27 X 9 -1 d 9 -1 d 9 -1 d 9 -1 d 9 -2 d 9 -3 d 9 -2 d 9 -3 d 9 -3 d 18 -7 d 36 -19 d 18 -11 d 18 -12 d 17 -14 d 18 -14 d 18 -17 d 18 -17 d 18 -19 d 18 -19 d 18 -22 d 18 -22 d 18 -24 d 18 -25 d 18 -26 d 18 -27 d 35 -59 d s black[ 
 ] 0 sd 3 lw 363 634 m 1791 X s 397 659 m -25 Y s 482 646 m -12 Y s 568 646 m -12 Y s 653 646 m -12 Y s 738 659 m -25 Y s 824 646 m -12 Y s 909 646 m -12 Y s 994 646 m -12 Y s 1079 659 m -25 Y s 1165 646 m -12 Y s 1250 646 m -12 Y s 1335 646 m -12 Y
 s 1421 659 m -25 Y s 1506 646 m -12 Y s 1591 646 m -12 Y s 1677 646 m -12 Y s 1762 659 m -25 Y s 1847 646 m -12 Y s 1933 646 m -12 Y s 2018 646 m -12 Y s 2103 659 m -25 Y s 397 659 m -25 Y s 2103 659 m -25 Y s 363 1484 m 1791 X s 397 1459 m 25 Y s
 482 1471 m 13 Y s 568 1471 m 13 Y s 653 1471 m 13 Y s 738 1459 m 25 Y s 824 1471 m 13 Y s 909 1471 m 13 Y s 994 1471 m 13 Y s 1079 1459 m 25 Y s 1165 1471 m 13 Y s 1250 1471 m 13 Y s 1335 1471 m 13 Y s 1421 1459 m 25 Y s 1506 1471 m 13 Y s 1591 1471
 m 13 Y s 1677 1471 m 13 Y s 1762 1459 m 25 Y s 1847 1471 m 13 Y s 1933 1471 m 13 Y s 2018 1471 m 13 Y s 2103 1459 m 25 Y s 397 1459 m 25 Y s 2103 1459 m 25 Y s 363 634 m 850 Y s 417 634 m -54 X s 390 683 m -27 X s 390 712 m -27 X s 390 733 m -27 X s
 390 749 m -27 X s 390 762 m -27 X s 390 773 m -27 X s 390 782 m -27 X s 390 791 m -27 X s 417 798 m -54 X s 390 848 m -27 X s 390 877 m -27 X s 390 897 m -27 X s 390 913 m -27 X s 390 926 m -27 X s 390 937 m -27 X s 390 947 m -27 X s 390 955 m -27 X
 s 417 963 m -54 X s 390 1012 m -27 X s 390 1041 m -27 X s 390 1062 m -27 X s 390 1078 m -27 X s 390 1091 m -27 X s 390 1102 m -27 X s 390 1111 m -27 X s 390 1120 m -27 X s 417 1127 m -54 X s 390 1177 m -27 X s 390 1206 m -27 X s 390 1226 m -27 X s
 390 1242 m -27 X s 390 1255 m -27 X s 390 1266 m -27 X s 390 1276 m -27 X s 390 1284 m -27 X s 417 1292 m -54 X s 390 1341 m -27 X s 390 1370 m -27 X s 390 1391 m -27 X s 390 1407 m -27 X s 390 1420 m -27 X s 390 1431 m -27 X s 390 1440 m -27 X s
 390 1449 m -27 X s 417 1456 m -54 X s 2154 634 m 850 Y s 2101 634 m 53 X s 2127 683 m 27 X s 2127 712 m 27 X s 2127 733 m 27 X s 2127 749 m 27 X s 2127 762 m 27 X s 2127 773 m 27 X s 2127 782 m 27 X s 2127 791 m 27 X s 2101 798 m 53 X s 2127 848 m
 27 X s 2127 877 m 27 X s 2127 897 m 27 X s 2127 913 m 27 X s 2127 926 m 27 X s 2127 937 m 27 X s 2127 947 m 27 X s 2127 955 m 27 X s 2101 963 m 53 X s 2127 1012 m 27 X s 2127 1041 m 27 X s 2127 1062 m 27 X s 2127 1078 m 27 X s 2127 1091 m 27 X s
 2127 1102 m 27 X s 2127 1111 m 27 X s 2127 1120 m 27 X s 2101 1127 m 53 X s 2127 1177 m 27 X s 2127 1206 m 27 X s 2127 1226 m 27 X s 2127 1242 m 27 X s 2127 1255 m 27 X s 2127 1266 m 27 X s 2127 1276 m 27 X s 2127 1284 m 27 X s 2101 1292 m 53 X s
 2127 1341 m 27 X s 2127 1370 m 27 X s 2127 1391 m 27 X s 2127 1407 m 27 X s 2127 1420 m 27 X s 2127 1431 m 27 X s 2127 1440 m 27 X s 2127 1449 m 27 X s 2101 1456 m 53 X s
 gsave  2268 1077 0 461 C 677.708 1215.31 t 0 r /Helvetica findfont 58.7189 sf 0 0 m (4e) show NC gr  1 1 1 c 453 161 454 1269 bf black
 gsave  2268 1077 0 461 C 566.929 1371.71 t 0 r /Helvetica-Bold findfont 48.9324 sf 0 0 m (MC15) show NC gr  510 1390 m20
 gsave  2268 1077 0 461 C 566.929 1293.51 t 0 r /Helvetica-Bold findfont 48.9324 sf 0 0 m (Projection of Signal pdf) show NC gr  0 0 1 c 9 lw 471 1309 m 79 X s black 3 lw 1 1 1 c 2268 461 0 0 bf black 1 1 1 c 1791 364 363 74 bf black 1791 364 363 74
 bl 363 74 m 1791 X s
 gsave  2268 461 0 0 C 1915.83 13.0329 t 0 r /Helvetica findfont 22.9045 sf 0 0 m (4l Invariant Mass \(GeV\)) show NC gr  397 85 m -11 Y s 482 79 m -5 Y s 568 79 m -5 Y s 653 79 m -5 Y s 738 85 m -11 Y s 824 79 m -5 Y s 909 79 m -5 Y s 994 79 m -5 Y
 s 1079 85 m -11 Y s 1165 79 m -5 Y s 1250 79 m -5 Y s 1335 79 m -5 Y s 1421 85 m -11 Y s 1506 79 m -5 Y s 1591 79 m -5 Y s 1677 79 m -5 Y s 1762 85 m -11 Y s 1847 79 m -5 Y s 1933 79 m -5 Y s 2018 79 m -5 Y s 2103 85 m -11 Y s 397 85 m -11 Y s 2103
 85 m -11 Y s
 gsave  2268 461 0 0 C 374.695 55.3896 t 0 r /Helvetica findfont 22.9045 sf 0 0 m (320) show NC gr 
 gsave  2268 461 0 0 C 716.807 55.3896 t 0 r /Helvetica findfont 22.9045 sf 0 0 m (340) show NC gr 
 gsave  2268 461 0 0 C 1058.92 55.3896 t 0 r /Helvetica findfont 22.9045 sf 0 0 m (360) show NC gr 
 gsave  2268 461 0 0 C 1401.03 55.3896 t 0 r /Helvetica findfont 22.9045 sf 0 0 m (380) show NC gr 
 gsave  2268 461 0 0 C 1739.89 55.3896 t 0 r /Helvetica findfont 22.9045 sf 0 0 m (400) show NC gr 
 gsave  2268 461 0 0 C 2082 55.3896 t 0 r /Helvetica findfont 22.9045 sf 0 0 m (420) show NC gr  363 438 m 1791 X s 397 427 m 11 Y s 482 433 m 5 Y s 568 433 m 5 Y s 653 433 m 5 Y s 738 427 m 11 Y s 824 433 m 5 Y s 909 433 m 5 Y s 994 433 m 5 Y s 1079
 427 m 11 Y s 1165 433 m 5 Y s 1250 433 m 5 Y s 1335 433 m 5 Y s 1421 427 m 11 Y s 1506 433 m 5 Y s 1591 433 m 5 Y s 1677 433 m 5 Y s 1762 427 m 11 Y s 1847 433 m 5 Y s 1933 433 m 5 Y s 2018 433 m 5 Y s 2103 427 m 11 Y s 397 427 m 11 Y s 2103 427 m
 11 Y s 363 74 m 364 Y s 417 74 m -54 X s 390 81 m -27 X s 390 88 m -27 X s 390 96 m -27 X s 390 103 m -27 X s 417 110 m -54 X s 390 118 m -27 X s 390 125 m -27 X s 390 132 m -27 X s 390 139 m -27 X s 417 147 m -54 X s 390 154 m -27 X s 390 161 m -27
 X s 390 169 m -27 X s 390 176 m -27 X s 417 183 m -54 X s 390 190 m -27 X s 390 198 m -27 X s 390 205 m -27 X s 390 212 m -27 X s 417 220 m -54 X s 390 227 m -27 X s 390 234 m -27 X s 390 241 m -27 X s 390 249 m -27 X s 417 256 m -54 X s 390 263 m
 -27 X s 390 271 m -27 X s 390 278 m -27 X s 390 285 m -27 X s 417 293 m -54 X s 390 300 m -27 X s 390 307 m -27 X s 390 314 m -27 X s 390 322 m -27 X s 417 329 m -54 X s 390 336 m -27 X s 390 344 m -27 X s 390 351 m -27 X s 390 358 m -27 X s 417 365
 m -54 X s 390 373 m -27 X s 390 380 m -27 X s 390 387 m -27 X s 390 395 m -27 X s 417 402 m -54 X s 390 409 m -27 X s 390 416 m -27 X s 390 424 m -27 X s 390 431 m -27 X s 417 438 m -54 X s
 gsave  2268 461 0 0 C 329.08 65.1643 t 0 r /Helvetica findfont 22.9045 sf 0 0 m (\2555) show NC gr 
 gsave  2268 461 0 0 C 329.08 101.005 t 0 r /Helvetica findfont 22.9045 sf 0 0 m (\2554) show NC gr 
 gsave  2268 461 0 0 C 329.08 140.103 t 0 r /Helvetica findfont 22.9045 sf 0 0 m (\2553) show NC gr 
 gsave  2268 461 0 0 C 329.08 175.944 t 0 r /Helvetica findfont 22.9045 sf 0 0 m (\2552) show NC gr 
 gsave  2268 461 0 0 C 332.338 211.784 t 0 r /Helvetica findfont 22.9045 sf 0 0 m (\2551) show NC gr 
 gsave  2268 461 0 0 C 335.596 247.624 t 0 r /Helvetica findfont 22.9045 sf 0 0 m (0) show NC gr 
 gsave  2268 461 0 0 C 338.854 283.465 t 0 r /Helvetica findfont 22.9045 sf 0 0 m (1) show NC gr 
 gsave  2268 461 0 0 C 335.596 319.305 t 0 r /Helvetica findfont 22.9045 sf 0 0 m (2) show NC gr 
 gsave  2268 461 0 0 C 335.596 358.403 t 0 r /Helvetica findfont 22.9045 sf 0 0 m (3) show NC gr 
 gsave  2268 461 0 0 C 335.596 394.244 t 0 r /Helvetica findfont 22.9045 sf 0 0 m (4) show NC gr 
 gsave  2268 461 0 0 C 335.596 430.084 t 0 r /Helvetica findfont 22.9045 sf 0 0 m (5) show NC gr  2154 74 m 364 Y s 2101 74 m 53 X s 2127 81 m 27 X s 2127 88 m 27 X s 2127 96 m 27 X s 2127 103 m 27 X s 2101 110 m 53 X s 2127 118 m 27 X s 2127 125 m
 27 X s 2127 132 m 27 X s 2127 139 m 27 X s 2101 147 m 53 X s 2127 154 m 27 X s 2127 161 m 27 X s 2127 169 m 27 X s 2127 176 m 27 X s 2101 183 m 53 X s 2127 190 m 27 X s 2127 198 m 27 X s 2127 205 m 27 X s 2127 212 m 27 X s 2101 220 m 53 X s 2127 227
 m 27 X s 2127 234 m 27 X s 2127 241 m 27 X s 2127 249 m 27 X s 2101 256 m 53 X s 2127 263 m 27 X s 2127 271 m 27 X s 2127 278 m 27 X s 2127 285 m 27 X s 2101 293 m 53 X s 2127 300 m 27 X s 2127 307 m 27 X s 2127 314 m 27 X s 2127 322 m 27 X s 2101
 329 m 53 X s 2127 336 m 27 X s 2127 344 m 27 X s 2127 351 m 27 X s 2127 358 m 27 X s 2101 365 m 53 X s 2127 373 m 27 X s 2127 380 m 27 X s 2127 387 m 27 X s 2127 395 m 27 X s 2101 402 m 53 X s 2127 409 m 27 X s 2127 416 m 27 X s 2127 424 m 27 X s
 2127 431 m 27 X s 2101 438 m 53 X s 6 lw 0.2 0.8 0.2 c black 3 lw 0.2 0.8 0.2 c 363 256 m 36 X 19 Y 35 X -90 Y 36 X 66 Y 36 X 16 Y 36 X 14 Y 36 X -37 Y 36 X -2 Y 35 X 11 Y 36 X 13 Y 36 X -19 Y 36 X -4 Y 36 X -4 Y 36 X 50 Y 35 X -6 Y 36 X -6 Y 36 X
 -32 Y 36 X -35 Y 36 X 77 Y 36 X -79 Y 35 X 69 Y 36 X -23 Y 36 X -21 Y 36 X 21 Y 36 X 16 Y 36 X -30 Y 35 X 29 Y 36 X -100 Y 36 X 67 Y 36 X 46 Y 36 X -21 Y 36 X -22 Y 35 X 74 Y 36 X -19 Y 36 X 28 Y 36 X -60 Y 36 X -72 Y 36 X 30 Y 35 X 59 Y 36 X -37 Y
 36 X 110 Y 36 X -142 Y 36 X 13 Y 36 X -15 Y 35 X 34 Y 36 X -30 Y 36 X 65 Y 36 X 8 Y 36 X -7 Y 36 X -3 Y 35 X -19 Y f 6 lw black 0.2 0.8 0.2 c black 363 256 m 36 X 19 Y 35 X -90 Y 36 X 66 Y 36 X 16 Y 36 X 14 Y 36 X -37 Y 36 X -2 Y 35 X 11 Y 36 X 13 Y
 36 X -19 Y 36 X -4 Y 36 X -4 Y 36 X 50 Y 35 X -6 Y 36 X -6 Y 36 X -32 Y 36 X -35 Y 36 X 77 Y 36 X -79 Y 35 X 69 Y 36 X -23 Y 36 X -21 Y 36 X 21 Y 36 X 16 Y 36 X -30 Y 35 X 29 Y 36 X -100 Y 36 X 67 Y 36 X 46 Y 36 X -21 Y 36 X -22 Y 35 X 74 Y 36 X -19
 Y 36 X 28 Y 36 X -60 Y 36 X -72 Y 36 X 30 Y 35 X 59 Y 36 X -37 Y 36 X 110 Y 36 X -142 Y 36 X 13 Y 36 X -15 Y 35 X 34 Y 36 X -30 Y 36 X 65 Y 36 X 8 Y 36 X -7 Y 36 X -3 Y 35 X s 3 lw 363 74 m 1791 X s 397 85 m -11 Y s 482 79 m -5 Y s 568 79 m -5 Y s
 653 79 m -5 Y s 738 85 m -11 Y s 824 79 m -5 Y s 909 79 m -5 Y s 994 79 m -5 Y s 1079 85 m -11 Y s 1165 79 m -5 Y s 1250 79 m -5 Y s 1335 79 m -5 Y s 1421 85 m -11 Y s 1506 79 m -5 Y s 1591 79 m -5 Y s 1677 79 m -5 Y s 1762 85 m -11 Y s 1847 79 m -5
 Y s 1933 79 m -5 Y s 2018 79 m -5 Y s 2103 85 m -11 Y s 397 85 m -11 Y s 2103 85 m -11 Y s 363 438 m 1791 X s 397 427 m 11 Y s 482 433 m 5 Y s 568 433 m 5 Y s 653 433 m 5 Y s 738 427 m 11 Y s 824 433 m 5 Y s 909 433 m 5 Y s 994 433 m 5 Y s 1079 427
 m 11 Y s 1165 433 m 5 Y s 1250 433 m 5 Y s 1335 433 m 5 Y s 1421 427 m 11 Y s 1506 433 m 5 Y s 1591 433 m 5 Y s 1677 433 m 5 Y s 1762 427 m 11 Y s 1847 433 m 5 Y s 1933 433 m 5 Y s 2018 433 m 5 Y s 2103 427 m 11 Y s 397 427 m 11 Y s 2103 427 m 11 Y
 s 363 74 m 364 Y s 417 74 m -54 X s 390 81 m -27 X s 390 88 m -27 X s 390 96 m -27 X s 390 103 m -27 X s 417 110 m -54 X s 390 118 m -27 X s 390 125 m -27 X s 390 132 m -27 X s 390 139 m -27 X s 417 147 m -54 X s 390 154 m -27 X s 390 161 m -27 X s
 390 169 m -27 X s 390 176 m -27 X s 417 183 m -54 X s 390 190 m -27 X s 390 198 m -27 X s 390 205 m -27 X s 390 212 m -27 X s 417 220 m -54 X s 390 227 m -27 X s 390 234 m -27 X s 390 241 m -27 X s 390 249 m -27 X s 417 256 m -54 X s 390 263 m -27 X
 s 390 271 m -27 X s 390 278 m -27 X s 390 285 m -27 X s 417 293 m -54 X s 390 300 m -27 X s 390 307 m -27 X s 390 314 m -27 X s 390 322 m -27 X s 417 329 m -54 X s 390 336 m -27 X s 390 344 m -27 X s 390 351 m -27 X s 390 358 m -27 X s 417 365 m -54
 X s 390 373 m -27 X s 390 380 m -27 X s 390 387 m -27 X s 390 395 m -27 X s 417 402 m -54 X s 390 409 m -27 X s 390 416 m -27 X s 390 424 m -27 X s 390 431 m -27 X s 417 438 m -54 X s 2154 74 m 364 Y s 2101 74 m 53 X s 2127 81 m 27 X s 2127 88 m 27
 X s 2127 96 m 27 X s 2127 103 m 27 X s 2101 110 m 53 X s 2127 118 m 27 X s 2127 125 m 27 X s 2127 132 m 27 X s 2127 139 m 27 X s 2101 147 m 53 X s 2127 154 m 27 X s 2127 161 m 27 X s 2127 169 m 27 X s 2127 176 m 27 X s 2101 183 m 53 X s 2127 190 m
 27 X s 2127 198 m 27 X s 2127 205 m 27 X s 2127 212 m 27 X s 2101 220 m 53 X s 2127 227 m 27 X s 2127 234 m 27 X s 2127 241 m 27 X s 2127 249 m 27 X s 2101 256 m 53 X s 2127 263 m 27 X s 2127 271 m 27 X s 2127 278 m 27 X s 2127 285 m 27 X s 2101 293
 m 53 X s 2127 300 m 27 X s 2127 307 m 27 X s 2127 314 m 27 X s 2127 322 m 27 X s 2101 329 m 53 X s 2127 336 m 27 X s 2127 344 m 27 X s 2127 351 m 27 X s 2127 358 m 27 X s 2101 365 m 53 X s 2127 373 m 27 X s 2127 380 m 27 X s 2127 387 m 27 X s 2127
 395 m 27 X s 2101 402 m 53 X s 2127 409 m 27 X s 2127 416 m 27 X s 2127 424 m 27 X s 2127 431 m 27 X s 2101 438 m 53 X s
 gr  gr showpage
end
%%EOF
