%!PS-Adobe-2.0 EPSF-2.0
%%BoundingBox:  0 0 567 384
%%Title: H4l2015_plotfit/VBF_mass_signal_200_H4l_2mu2e.eps: 
%%Creator: ROOT Version 5.34/07
%%CreationDate: Mon Nov  9 16:28:21 2015
%%EndComments
%%BeginProlog
80 dict begin
/s {stroke} def /l {lineto} def /m {moveto} def /t {translate} def
/r {rotate} def /rl {roll}  def /R {repeat} def
/d {rlineto} def /rm {rmoveto} def /gr {grestore} def /f {eofill} def
/c {setrgbcolor} def /black {0 setgray} def /sd {setdash} def
/cl {closepath} def /sf {scalefont setfont} def /lw {setlinewidth} def
/box {m dup 0 exch d exch 0 d 0 exch neg d cl} def
/NC{systemdict begin initclip end}def/C{NC box clip newpath}def
/bl {box s} def /bf {box f} def /Y { 0 exch d} def /X { 0 d} def 
/K {{pop pop 0 moveto} exch kshow} bind def
/ita {/ang 15 def gsave [1 0 ang dup sin exch cos div 1 0 0] concat} def 
/mp {newpath /y exch def /x exch def} def
/side {[w .77 mul w .23 mul] .385 w mul sd w 0 l currentpoint t -144 r} def
/mr {mp x y w2 0 360 arc} def /m24 {mr s} def /m20 {mr f} def
/mb {mp x y w2 add m w2 neg 0 d 0 w neg d w 0 d 0 w d cl} def
/mt {mp x y w2 add m w2 neg w neg d w 0 d cl} def
/m21 {mb f} def /m25 {mb s} def /m22 {mt f} def /m26{mt s} def
/m23 {mp x y w2 sub m w2 w d w neg 0 d cl f} def
/m27 {mp x y w2 add m w3 neg w2 neg d w3 w2 neg d w3 w2 d cl s} def
/m28 {mp x w2 sub y w2 sub w3 add m w3 0 d  0 w3 neg d w3 0 d 0 w3 d w3 0 d  0 w3 d w3 neg 0 d 0 w3 d w3 neg 0 d 0 w3 neg d w3 neg 0 d cl s } def
/m29 {mp gsave x w2 sub y w2 add w3 sub m currentpoint t 4 {side} repeat cl fill gr} def
/m30 {mp gsave x w2 sub y w2 add w3 sub m currentpoint t 4 {side} repeat cl s gr} def
/m31 {mp x y w2 sub m 0 w d x w2 sub y m w 0 d x w2 sub y w2 add m w w neg d x w2 sub y w2 sub m w w d s} def
/m32 {mp x y w2 sub m w2 w d w neg 0 d cl s} def
/m33 {mp x y w2 add m w3 neg w2 neg d w3 w2 neg d w3 w2 d cl f} def
/m34 {mp x w2 sub y w2 sub w3 add m w3 0 d  0 w3 neg d w3 0 d 0 w3 d w3 0 d  0 w3 d w3 neg 0 d 0 w3 d w3 neg 0 d 0 w3 neg d w3 neg 0 d cl f } def
/m2 {mp x y w2 sub m 0 w d x w2 sub y m w 0 d s} def
/m5 {mp x w2 sub y w2 sub m w w d x w2 sub y w2 add m w w neg d s} def
/reEncode {exch findfont dup length dict begin {1 index /FID eq  {pop pop} {def} ifelse } forall /Encoding exch def currentdict end dup /FontName get exch definefont pop } def [/Times-Bold /Times-Italic /Times-BoldItalic /Helvetica /Helvetica-Oblique
 /Helvetica-Bold /Helvetica-BoldOblique /Courier /Courier-Oblique /Courier-Bold /Courier-BoldOblique /Times-Roman /AvantGarde-Book /AvantGarde-BookOblique /AvantGarde-Demi /AvantGarde-DemiOblique /Bookman-Demi /Bookman-DemiItalic /Bookman-Light
 /Bookman-LightItalic /Helvetica-Narrow /Helvetica-Narrow-Bold /Helvetica-Narrow-BoldOblique /Helvetica-Narrow-Oblique /NewCenturySchlbk-Roman /NewCenturySchlbk-Bold /NewCenturySchlbk-BoldItalic /NewCenturySchlbk-Italic /Palatino-Bold
 /Palatino-BoldItalic /Palatino-Italic /Palatino-Roman ] {ISOLatin1Encoding reEncode } forall
%%EndProlog
%%BeginSetup
%%EndSetup
newpath  gsave  .25 .25 scale  gsave  0 0 t black[  ] 0 sd 3 lw 1 1 1 c 2268 1538 0 0 bf black 1 1 1 c 2222 738 23 784 bf black 1 1 1 c 2222 739 23 15 bf black 1 1 1 c 2268 1077 0 461 bf black 1 1 1 c 1791 850 363 634 bf black 1791 850 363 634 bl 363
 634 m 1791 X s
 gsave  2268 1077 0 461 C 1642.14 498.507 t 0 r /Helvetica findfont 48.9324 sf 0 0 m (4l Invariant Mass \(GeV\)) show NC gr  402 659 m -25 Y s 441 646 m -12 Y s 480 646 m -12 Y s 519 646 m -12 Y s 558 646 m -12 Y s 597 659 m -25 Y s 635 646 m -12 Y s
 674 646 m -12 Y s 713 646 m -12 Y s 752 646 m -12 Y s 791 659 m -25 Y s 830 646 m -12 Y s 869 646 m -12 Y s 908 646 m -12 Y s 947 646 m -12 Y s 986 659 m -25 Y s 1025 646 m -12 Y s 1064 646 m -12 Y s 1103 646 m -12 Y s 1142 646 m -12 Y s 1181 659 m
 -25 Y s 1220 646 m -12 Y s 1259 646 m -12 Y s 1298 646 m -12 Y s 1336 646 m -12 Y s 1375 659 m -25 Y s 1414 646 m -12 Y s 1453 646 m -12 Y s 1492 646 m -12 Y s 1531 646 m -12 Y s 1570 659 m -25 Y s 1609 646 m -12 Y s 1648 646 m -12 Y s 1687 646 m
 -12 Y s 1726 646 m -12 Y s 1765 659 m -25 Y s 1804 646 m -12 Y s 1843 646 m -12 Y s 1882 646 m -12 Y s 1921 646 m -12 Y s 1960 659 m -25 Y s 1999 646 m -12 Y s 2037 646 m -12 Y s 2076 646 m -12 Y s 2115 646 m -12 Y s 2154 659 m -25 Y s 402 659 m -25
 Y s 363 646 m -12 Y s
 gsave  2268 1077 0 461 C 358.403 586.478 t 0 r /Helvetica findfont 48.9324 sf 0 0 m (165) show NC gr 
 gsave  2268 1077 0 461 C 553.896 586.478 t 0 r /Helvetica findfont 48.9324 sf 0 0 m (170) show NC gr 
 gsave  2268 1077 0 461 C 746.131 586.478 t 0 r /Helvetica findfont 48.9324 sf 0 0 m (175) show NC gr 
 gsave  2268 1077 0 461 C 941.624 586.478 t 0 r /Helvetica findfont 48.9324 sf 0 0 m (180) show NC gr 
 gsave  2268 1077 0 461 C 1137.12 586.478 t 0 r /Helvetica findfont 48.9324 sf 0 0 m (185) show NC gr 
 gsave  2268 1077 0 461 C 1332.61 586.478 t 0 r /Helvetica findfont 48.9324 sf 0 0 m (190) show NC gr 
 gsave  2268 1077 0 461 C 1524.84 586.478 t 0 r /Helvetica findfont 48.9324 sf 0 0 m (195) show NC gr 
 gsave  2268 1077 0 461 C 1720.34 586.478 t 0 r /Helvetica findfont 48.9324 sf 0 0 m (200) show NC gr 
 gsave  2268 1077 0 461 C 1915.83 586.478 t 0 r /Helvetica findfont 48.9324 sf 0 0 m (205) show NC gr 
 gsave  2268 1077 0 461 C 2111.32 586.478 t 0 r /Helvetica findfont 48.9324 sf 0 0 m (210) show NC gr  363 1484 m 1791 X s 402 1459 m 25 Y s 441 1471 m 13 Y s 480 1471 m 13 Y s 519 1471 m 13 Y s 558 1471 m 13 Y s 597 1459 m 25 Y s 635 1471 m 13 Y s
 674 1471 m 13 Y s 713 1471 m 13 Y s 752 1471 m 13 Y s 791 1459 m 25 Y s 830 1471 m 13 Y s 869 1471 m 13 Y s 908 1471 m 13 Y s 947 1471 m 13 Y s 986 1459 m 25 Y s 1025 1471 m 13 Y s 1064 1471 m 13 Y s 1103 1471 m 13 Y s 1142 1471 m 13 Y s 1181 1459 m
 25 Y s 1220 1471 m 13 Y s 1259 1471 m 13 Y s 1298 1471 m 13 Y s 1336 1471 m 13 Y s 1375 1459 m 25 Y s 1414 1471 m 13 Y s 1453 1471 m 13 Y s 1492 1471 m 13 Y s 1531 1471 m 13 Y s 1570 1459 m 25 Y s 1609 1471 m 13 Y s 1648 1471 m 13 Y s 1687 1471 m 13
 Y s 1726 1471 m 13 Y s 1765 1459 m 25 Y s 1804 1471 m 13 Y s 1843 1471 m 13 Y s 1882 1471 m 13 Y s 1921 1471 m 13 Y s 1960 1459 m 25 Y s 1999 1471 m 13 Y s 2037 1471 m 13 Y s 2076 1471 m 13 Y s 2115 1471 m 13 Y s 2154 1459 m 25 Y s 402 1459 m 25 Y s
 363 1471 m 13 Y s 363 634 m 850 Y s
 gsave  2268 1077 0 461 C 120.554 1032.85 t 90 r /Helvetica findfont 48.9324 sf 0 0 m (Events / \( 0.92 GeV \)) show NC gr  417 634 m -54 X s
 gsave  2268 1077 0 461 C 312.788 632.093 t 0 r /Helvetica findfont 32.6216 sf 0 0 m (\2552) show NC gr 
 gsave  2268 1077 0 461 C 260.657 612.544 t 0 r /Helvetica findfont 48.9324 sf 0 0 m (10) show NC gr  390 682 m -27 X s 390 711 m -27 X s 390 731 m -27 X s 390 747 m -27 X s 390 760 m -27 X s 390 771 m -27 X s 390 780 m -27 X s 390 788 m -27 X s 417
 796 m -54 X s
 gsave  2268 1077 0 461 C 319.305 795.004 t 0 r /Helvetica findfont 32.6216 sf 0 0 m (\2551) show NC gr 
 gsave  2268 1077 0 461 C 267.173 775.455 t 0 r /Helvetica findfont 48.9324 sf 0 0 m (10) show NC gr  390 845 m -27 X s 390 873 m -27 X s 390 893 m -27 X s 390 909 m -27 X s 390 922 m -27 X s 390 933 m -27 X s 390 942 m -27 X s 390 950 m -27 X s 417
 958 m -54 X s
 gsave  2268 1077 0 461 C 342.425 937.01 t 0 r  -27 0 t /Helvetica findfont 48.9324 sf 0 0 m (1) show NC gr  390 1007 m -27 X s 390 1035 m -27 X s 390 1055 m -27 X s 390 1071 m -27 X s 390 1084 m -27 X s 390 1095 m -27 X s 390 1104 m -27 X s 390 1113
 m -27 X s 417 1120 m -54 X s
 gsave  2268 1077 0 461 C 342.425 1099.14 t 0 r  -55 0 t /Helvetica findfont 48.9324 sf 0 0 m (10) show NC gr  390 1169 m -27 X s 390 1197 m -27 X s 390 1218 m -27 X s 390 1233 m -27 X s 390 1246 m -27 X s 390 1257 m -27 X s 390 1266 m -27 X s 390
 1275 m -27 X s 417 1282 m -54 X s
 gsave  2268 1077 0 461 C 322.563 1280.48 t 0 r /Helvetica findfont 32.6216 sf 0 0 m (2) show NC gr 
 gsave  2268 1077 0 461 C 270.432 1260.93 t 0 r /Helvetica findfont 48.9324 sf 0 0 m (10) show NC gr  390 1331 m -27 X s 390 1359 m -27 X s 390 1380 m -27 X s 390 1395 m -27 X s 390 1408 m -27 X s 390 1419 m -27 X s 390 1429 m -27 X s 390 1437 m -27
 X s 417 1444 m -54 X s
 gsave  2268 1077 0 461 C 322.563 1446.65 t 0 r /Helvetica findfont 32.6216 sf 0 0 m (3) show NC gr 
 gsave  2268 1077 0 461 C 270.432 1423.84 t 0 r /Helvetica findfont 48.9324 sf 0 0 m (10) show NC gr  2154 634 m 850 Y s 2101 634 m 53 X s 2127 682 m 27 X s 2127 711 m 27 X s 2127 731 m 27 X s 2127 747 m 27 X s 2127 760 m 27 X s 2127 771 m 27 X s
 2127 780 m 27 X s 2127 788 m 27 X s 2101 796 m 53 X s 2127 845 m 27 X s 2127 873 m 27 X s 2127 893 m 27 X s 2127 909 m 27 X s 2127 922 m 27 X s 2127 933 m 27 X s 2127 942 m 27 X s 2127 950 m 27 X s 2101 958 m 53 X s 2127 1007 m 27 X s 2127 1035 m 27
 X s 2127 1055 m 27 X s 2127 1071 m 27 X s 2127 1084 m 27 X s 2127 1095 m 27 X s 2127 1104 m 27 X s 2127 1113 m 27 X s 2101 1120 m 53 X s 2127 1169 m 27 X s 2127 1197 m 27 X s 2127 1218 m 27 X s 2127 1233 m 27 X s 2127 1246 m 27 X s 2127 1257 m 27 X
 s 2127 1266 m 27 X s 2127 1275 m 27 X s 2101 1282 m 53 X s 2127 1331 m 27 X s 2127 1359 m 27 X s 2127 1380 m 27 X s 2127 1395 m 27 X s 2127 1408 m 27 X s 2127 1419 m 27 X s 2127 1429 m 27 X s 2127 1437 m 27 X s 2101 1444 m 53 X s 381 1138 m -18 X s
 363 1138 m cl s 381 1138 m 18 X s 399 1138 m cl s 381 1138 m 22 Y s 381 1160 m cl s 381 1138 m -22 Y s 381 1116 m cl s 417 1138 m -18 X s 399 1138 m cl s 417 1138 m 17 X s 434 1138 m cl s 417 1138 m 22 Y s 417 1160 m cl s 417 1138 m -22 Y s 417 1116
 m cl s 452 1153 m -18 X s 434 1153 m cl s 452 1153 m 18 X s 470 1153 m cl s 452 1153 m 20 Y s 452 1173 m cl s 452 1153 m -20 Y s 452 1133 m cl s 488 1149 m -18 X s 470 1149 m cl s 488 1149 m 18 X s 506 1149 m cl s 488 1149 m 20 Y s 488 1169 m cl s
 488 1149 m -21 Y s 488 1128 m cl s 524 1095 m -18 X s 506 1095 m cl s 524 1095 m 18 X s 542 1095 m cl s 524 1095 m 30 Y s 524 1125 m cl s 524 1095 m -33 Y s 524 1062 m cl s 560 1113 m -18 X s 542 1113 m cl s 560 1113 m 18 X s 578 1113 m cl s 560
 1113 m 26 Y s 560 1139 m cl s 560 1113 m -28 Y s 560 1085 m cl s 596 1169 m -18 X s 578 1169 m cl s 596 1169 m 18 X s 614 1169 m cl s 596 1169 m 17 Y s 596 1186 m cl s 596 1169 m -18 Y s 596 1151 m cl s 632 1144 m -18 X s 614 1144 m cl s 632 1144 m
 17 X s 649 1144 m cl s 632 1144 m 21 Y s 632 1165 m cl s 632 1144 m -22 Y s 632 1122 m cl s 667 1153 m -18 X s 649 1153 m cl s 667 1153 m 18 X s 685 1153 m cl s 667 1153 m 20 Y s 667 1173 m cl s 667 1153 m -20 Y s 667 1133 m cl s 703 1127 m -18 X s
 685 1127 m cl s 703 1127 m 18 X s 721 1127 m cl s 703 1127 m 23 Y s 703 1150 m cl s 703 1127 m -25 Y s 703 1102 m cl s 739 1138 m -18 X s 721 1138 m cl s 739 1138 m 18 X s 757 1138 m cl s 739 1138 m 22 Y s 739 1160 m cl s 739 1138 m -22 Y s 739 1116
 m cl s 775 1127 m -18 X s 757 1127 m cl s 775 1127 m 18 X s 793 1127 m cl s 775 1127 m 23 Y s 775 1150 m cl s 775 1127 m -25 Y s 775 1102 m cl s 811 1187 m -18 X s 793 1187 m cl s 811 1187 m 18 X s 829 1187 m cl s 811 1187 m 15 Y s 811 1202 m cl s
 811 1187 m -15 Y s 811 1172 m cl s 847 1179 m -18 X s 829 1179 m cl s 847 1179 m 17 X s 864 1179 m cl s 847 1179 m 16 Y s 847 1195 m cl s 847 1179 m -17 Y s 847 1162 m cl s 882 1169 m -18 X s 864 1169 m cl s 882 1169 m 18 X s 900 1169 m cl s 882
 1169 m 17 Y s 882 1186 m cl s 882 1169 m -18 Y s 882 1151 m cl s 918 1192 m -18 X s 900 1192 m cl s 918 1192 m 18 X s 936 1192 m cl s 918 1192 m 15 Y s 918 1207 m cl s 918 1192 m -14 Y s 918 1178 m cl s 954 1192 m -18 X s 936 1192 m cl s 954 1192 m
 18 X s 972 1192 m cl s 954 1192 m 15 Y s 954 1207 m cl s 954 1192 m -14 Y s 954 1178 m cl s 990 1185 m -18 X s 972 1185 m cl s 990 1185 m 18 X s 1008 1185 m cl s 990 1185 m 15 Y s 990 1200 m cl s 990 1185 m -16 Y s 990 1169 m cl s 1026 1212 m -18 X
 s 1008 1212 m cl s 1026 1212 m 18 X s 1044 1212 m cl s 1026 1212 m 13 Y s 1026 1225 m cl s 1026 1212 m -12 Y s 1026 1200 m cl s 1062 1204 m -18 X s 1044 1204 m cl s 1062 1204 m 17 X s 1079 1204 m cl s 1062 1204 m 13 Y s 1062 1217 m cl s 1062 1204 m
 -13 Y s 1062 1191 m cl s 1097 1232 m -18 X s 1079 1232 m cl s 1097 1232 m 18 X s 1115 1232 m cl s 1097 1232 m 11 Y s 1097 1243 m cl s 1097 1232 m -11 Y s 1097 1221 m cl s 1133 1212 m -18 X s 1115 1212 m cl s 1133 1212 m 18 X s 1151 1212 m cl s 1133
 1212 m 13 Y s 1133 1225 m cl s 1133 1212 m -12 Y s 1133 1200 m cl s 1169 1256 m -18 X s 1151 1256 m cl s 1169 1256 m 18 X s 1187 1256 m cl s 1169 1256 m 9 Y s 1169 1265 m cl s 1169 1256 m -9 Y s 1169 1247 m cl s 1205 1233 m -18 X s 1187 1233 m cl s
 1205 1233 m 18 X s 1223 1233 m cl s 1205 1233 m 11 Y s 1205 1244 m cl s 1205 1233 m -10 Y s 1205 1223 m cl s 1241 1272 m -18 X s 1223 1272 m cl s 1241 1272 m 18 X s 1259 1272 m cl s 1241 1272 m 7 Y s 1241 1279 m cl s 1241 1272 m -9 Y s 1241 1263 m
 cl s 1276 1275 m -17 X s 1259 1275 m cl s 1276 1275 m 18 X s 1294 1275 m cl s 1276 1275 m 8 Y s 1276 1283 m cl s 1276 1275 m -7 Y s 1276 1268 m cl s 1312 1298 m -18 X s 1294 1298 m cl s 1312 1298 m 18 X s 1330 1298 m cl s 1312 1298 m 6 Y s 1312 1304
 m cl s 1312 1298 m -6 Y s 1312 1292 m cl s 1348 1300 m -18 X s 1330 1300 m cl s 1348 1300 m 18 X s 1366 1300 m cl s 1348 1300 m 6 Y s 1348 1306 m cl s 1348 1300 m -7 Y s 1348 1293 m cl s 1384 1307 m -18 X s 1366 1307 m cl s 1384 1307 m 18 X s 1402
 1307 m cl s 1384 1307 m 6 Y s 1384 1313 m cl s 1384 1307 m -6 Y s 1384 1301 m cl s 1420 1336 m -18 X s 1402 1336 m cl s 1420 1336 m 18 X s 1438 1336 m cl s 1420 1336 m 5 Y s 1420 1341 m cl s 1420 1336 m -5 Y s 1420 1331 m cl s 1456 1354 m -18 X s
 1438 1354 m cl s 1456 1354 m 18 X s 1474 1354 m cl s 1456 1354 m 5 Y s 1456 1359 m cl s 1456 1354 m -4 Y s 1456 1350 m cl s 1491 1365 m -17 X s 1474 1365 m cl s 1491 1365 m 18 X s 1509 1365 m cl s 1491 1365 m 4 Y s 1491 1369 m cl s 1491 1365 m -4 Y
 s 1491 1361 m cl s 1527 1389 m -18 X s 1509 1389 m cl s 1527 1389 m 18 X s 1545 1389 m cl s 1527 1389 m 3 Y s 1527 1392 m cl s 1527 1389 m -3 Y s 1527 1386 m cl s 1563 1405 m -18 X s 1545 1405 m cl s 1563 1405 m 18 X s 1581 1405 m cl s 1563 1405 m 3
 Y s 1563 1408 m cl s 1563 1405 m -3 Y s 1563 1402 m cl s 1599 1417 m -18 X s 1581 1417 m cl s 1599 1417 m 18 X s 1617 1417 m cl s 1599 1417 m 3 Y s 1599 1420 m cl s 1599 1417 m -3 Y s 1599 1414 m cl s 1635 1432 m -18 X s 1617 1432 m cl s 1635 1432 m
 18 X s 1653 1432 m cl s 1635 1432 m 2 Y s 1635 1434 m cl s 1635 1432 m -2 Y s 1635 1430 m cl s 1671 1441 m -18 X s 1653 1441 m cl s 1671 1441 m 18 X s 1689 1441 m cl s 1671 1441 m 2 Y s 1671 1443 m cl s 1671 1441 m -2 Y s 1671 1439 m cl s 1706 1450
 m -17 X s 1689 1450 m cl s 1706 1450 m 18 X s 1724 1450 m cl s 1706 1450 m 2 Y s 1706 1452 m cl s 1706 1450 m -2 Y s 1706 1448 m cl s 1742 1447 m -18 X s 1724 1447 m cl s 1742 1447 m 18 X s 1760 1447 m cl s 1742 1447 m 3 Y s 1742 1450 m cl s 1742
 1447 m -2 Y s 1742 1445 m cl s 1778 1437 m -18 X s 1760 1437 m cl s 1778 1437 m 18 X s 1796 1437 m cl s 1778 1437 m 2 Y s 1778 1439 m cl s 1778 1437 m -2 Y s 1778 1435 m cl s 1814 1424 m -18 X s 1796 1424 m cl s 1814 1424 m 18 X s 1832 1424 m cl s
 1814 1424 m 2 Y s 1814 1426 m cl s 1814 1424 m -3 Y s 1814 1421 m cl s 1850 1408 m -18 X s 1832 1408 m cl s 1850 1408 m 18 X s 1868 1408 m cl s 1850 1408 m 3 Y s 1850 1411 m cl s 1850 1408 m -3 Y s 1850 1405 m cl s 1886 1385 m -18 X s 1868 1385 m cl
 s 1886 1385 m 18 X s 1904 1385 m cl s 1886 1385 m 4 Y s 1886 1389 m cl s 1886 1385 m -3 Y s 1886 1382 m cl s 1921 1348 m -17 X s 1904 1348 m cl s 1921 1348 m 18 X s 1939 1348 m cl s 1921 1348 m 5 Y s 1921 1353 m cl s 1921 1348 m -4 Y s 1921 1344 m
 cl s 1957 1314 m -18 X s 1939 1314 m cl s 1957 1314 m 18 X s 1975 1314 m cl s 1957 1314 m 5 Y s 1957 1319 m cl s 1957 1314 m -6 Y s 1957 1308 m cl s 1993 1275 m -18 X s 1975 1275 m cl s 1993 1275 m 18 X s 2011 1275 m cl s 1993 1275 m 8 Y s 1993 1283
 m cl s 1993 1275 m -7 Y s 1993 1268 m cl s 2029 1251 m -18 X s 2011 1251 m cl s 2029 1251 m 18 X s 2047 1251 m cl s 2029 1251 m 9 Y s 2029 1260 m cl s 2029 1251 m -10 Y s 2029 1241 m cl s 2065 1200 m -18 X s 2047 1200 m cl s 2065 1200 m 18 X s 2083
 1200 m cl s 2065 1200 m 13 Y s 2065 1213 m cl s 2065 1200 m -14 Y s 2065 1186 m cl s 2101 1210 m -18 X s 2083 1210 m cl s 2101 1210 m 18 X s 2119 1210 m cl s 2101 1210 m 13 Y s 2101 1223 m cl s 2101 1210 m -13 Y s 2101 1197 m cl s 2136 1169 m -17 X
 s 2119 1169 m cl s 2136 1169 m 18 X s 2154 1169 m cl s 2136 1169 m 17 Y s 2136 1186 m cl s 2136 1169 m -18 Y s 2136 1151 m cl s /w 31 def /w2 {w 2 div} def /w3 {w 3 div} def 381 1138 417 1138 452 1153 488 1149 524 1095 560 1113 596 1169 632 1144 667
 1153 703 1127 739 1138 775 1127 811 1187 847 1179 882 1169 918 1192 954 1192 990 1185 1026 1212 1062 1204 1097 1232 1133 1212 1169 1256 1205 1233 1241 1272 1276 1275 1312 1298 1348 1300 1384 1307 1420 1336 1456 1354 1491 1365 1527 1389 1563 1405
 1599 1417 1635 1432 1671 1441 1706 1450 1742 1447 1778 1437 1814 1424 1850 1408 1886 1385 1921 1348 1957 1314 1993 1275 2029 1251 2065 1200 2101 1210 2136 1169 50 { m20} R 0 1 1 c 1 1 0 c black 1 1 0 c 363 1099 m 36 6 d 35 6 d 36 6 d 36 6 d 36 7 d
 36 6 d 36 7 d 35 6 d 36 7 d 36 6 d 36 7 d 36 7 d 36 7 d 35 7 d 36 7 d 36 7 d 36 7 d 36 8 d 36 7 d 35 8 d 36 8 d 36 9 d 36 8 d 36 9 d 36 9 d 35 9 d 36 10 d 36 11 d 18 7 d 18 7 d 18 8 d 18 9 d 18 9 d 18 10 d 17 11 d 18 10 d 18 11 d 18 10 d 18 9 d 18 9
 d 36 15 d 9 3 d 9 3 d 9 2 d 9 2 d 9 2 d 9 2 d 9 1 d 9 1 d 8 X 9 1 d 9 -1 d 9 X 9 -1 d 9 -1 d 9 -1 d 9 -2 d 9 -3 d 9 -2 d 9 -3 d 9 -3 d 18 -7 d 18 -8 d 18 -10 d 18 -10 d 18 -12 d 18 -13 d 17 -14 d 9 -7 d 9 -8 d 18 -15 d 18 -16 d 18 -17 d 18 -17 d 18
 -18 d 18 -18 d 18 -18 d 18 -18 d 36 -38 d 35 -40 d -48 Y -35 52 d -36 49 d -18 22 d -18 22 d -18 21 d -18 20 d -18 19 d -18 18 d -18 17 d -18 16 d -9 8 d -9 7 d -17 15 d -18 13 d -18 12 d -18 12 d -18 10 d -18 8 d -18 8 d -9 3 d -9 3 d -9 2 d -9 2 d
 -9 2 d -9 2 d -9 1 d -9 1 d -35 X -9 -1 d -9 -1 d -9 -2 d -9 -2 d -9 -2 d -9 -3 d -9 -3 d -9 -3 d -36 -16 d -18 -9 d -18 -10 d -18 -11 d -18 -11 d -18 -10 d -17 -11 d -18 -10 d -18 -9 d -18 -10 d -18 -8 d -18 -8 d -18 -7 d -36 -13 d -36 -10 d -35 -9
 d -36 -8 d -36 -8 d -36 -8 d -36 -8 d -36 -8 d -35 -8 d -36 -8 d -36 -8 d -36 -8 d -36 -9 d -36 -7 d -35 -8 d -36 -8 d -36 -8 d -36 -8 d -36 -8 d -36 -7 d -35 -8 d -36 -7 d -36 -8 d -36 -7 d -36 -7 d -36 -8 d -35 -7 d -36 -7 d f 0 1 1 c 0 1 0 c
 black 0 1 0 c 363 1093 m 36 6 d 35 6 d 36 7 d 36 6 d 36 7 d 36 7 d 36 6 d 35 7 d 36 7 d 36 7 d 36 7 d 36 7 d 36 7 d 35 7 d 36 7 d 36 8 d 36 7 d 36 8 d 36 7 d 35 8 d 36 8 d 36 8 d 36 9 d 36 8 d 36 9 d 35 9 d 36 10 d 36 12 d 18 7 d 18 7 d 18 8 d 18 9
 d 18 9 d 18 11 d 17 10 d 18 11 d 18 10 d 18 10 d 18 10 d 18 9 d 36 15 d 9 3 d 9 3 d 9 2 d 9 2 d 9 2 d 9 2 d 9 1 d 9 1 d 8 1 d 18 X 9 -1 d 9 -1 d 9 -1 d 9 -1 d 9 -2 d 9 -2 d 9 -3 d 9 -3 d 9 -3 d 18 -7 d 18 -8 d 18 -10 d 18 -11 d 18 -12 d 18 -12 d 17
 -14 d 9 -8 d 9 -7 d 18 -16 d 18 -16 d 18 -18 d 18 -17 d 18 -18 d 18 -19 d 18 -19 d 18 -19 d 36 -40 d 35 -41 d -24 Y -35 48 d -36 45 d -18 21 d -18 21 d -18 20 d -18 19 d -18 19 d -18 17 d -18 17 d -18 16 d -9 8 d -9 7 d -17 14 d -18 14 d -18 12 d
 -18 11 d -18 10 d -18 8 d -18 8 d -9 3 d -9 3 d -9 2 d -9 2 d -9 2 d -9 2 d -9 1 d -9 1 d -27 X -8 -1 d -9 X -9 -2 d -9 -1 d -9 -2 d -9 -2 d -9 -3 d -9 -3 d -9 -3 d -36 -16 d -18 -9 d -18 -10 d -18 -10 d -18 -11 d -18 -10 d -17 -11 d -18 -10 d -18
 -10 d -18 -9 d -18 -8 d -18 -8 d -18 -7 d -36 -12 d -36 -10 d -35 -9 d -36 -9 d -36 -8 d -36 -8 d -36 -8 d -36 -8 d -35 -8 d -36 -8 d -36 -8 d -36 -8 d -36 -7 d -36 -8 d -35 -8 d -36 -7 d -36 -8 d -36 -7 d -36 -8 d -36 -7 d -35 -7 d -36 -8 d -36 -7
 d -36 -7 d -36 -7 d -36 -7 d -35 -6 d -36 -7 d f 0 0 1 c 9 lw black 0 0 1 c 363 1087 m 36 6 d 35 7 d 36 6 d 36 7 d 36 7 d 36 7 d 36 7 d 35 7 d 36 7 d 36 7 d 36 7 d 36 7 d 36 7 d 35 8 d 36 7 d 36 8 d 36 8 d 36 7 d 36 8 d 35 8 d 36 8 d 36 8 d 36 8 d
 36 9 d 36 8 d 35 10 d 36 10 d 36 12 d 18 6 d 18 8 d 18 8 d 18 9 d 18 10 d 18 10 d 17 10 d 18 11 d 18 10 d 18 11 d 18 9 d 18 9 d 36 16 d 9 3 d 9 3 d 9 3 d 9 2 d 9 2 d 9 1 d 9 1 d 9 1 d 8 1 d 18 X 9 -1 d 9 X 9 -2 d 9 -1 d 9 -2 d 9 -2 d 9 -3 d 9 -2 d 9
 -4 d 18 -7 d 18 -8 d 18 -10 d 18 -11 d 18 -12 d 18 -13 d 17 -14 d 9 -7 d 9 -8 d 18 -16 d 18 -17 d 18 -17 d 18 -18 d 18 -19 d 18 -19 d 18 -20 d 18 -20 d 36 -42 d 35 -44 d s black 3 lw 381 1138 m -18 X s 363 1138 m cl s 381 1138 m 18 X s 399 1138 m cl
 s 381 1138 m 22 Y s 381 1160 m cl s 381 1138 m -22 Y s 381 1116 m cl s 417 1138 m -18 X s 399 1138 m cl s 417 1138 m 17 X s 434 1138 m cl s 417 1138 m 22 Y s 417 1160 m cl s 417 1138 m -22 Y s 417 1116 m cl s 452 1153 m -18 X s 434 1153 m cl s 452
 1153 m 18 X s 470 1153 m cl s 452 1153 m 20 Y s 452 1173 m cl s 452 1153 m -20 Y s 452 1133 m cl s 488 1149 m -18 X s 470 1149 m cl s 488 1149 m 18 X s 506 1149 m cl s 488 1149 m 20 Y s 488 1169 m cl s 488 1149 m -21 Y s 488 1128 m cl s 524 1095 m
 -18 X s 506 1095 m cl s 524 1095 m 18 X s 542 1095 m cl s 524 1095 m 30 Y s 524 1125 m cl s 524 1095 m -33 Y s 524 1062 m cl s 560 1113 m -18 X s 542 1113 m cl s 560 1113 m 18 X s 578 1113 m cl s 560 1113 m 26 Y s 560 1139 m cl s 560 1113 m -28 Y s
 560 1085 m cl s 596 1169 m -18 X s 578 1169 m cl s 596 1169 m 18 X s 614 1169 m cl s 596 1169 m 17 Y s 596 1186 m cl s 596 1169 m -18 Y s 596 1151 m cl s 632 1144 m -18 X s 614 1144 m cl s 632 1144 m 17 X s 649 1144 m cl s 632 1144 m 21 Y s 632 1165
 m cl s 632 1144 m -22 Y s 632 1122 m cl s 667 1153 m -18 X s 649 1153 m cl s 667 1153 m 18 X s 685 1153 m cl s 667 1153 m 20 Y s 667 1173 m cl s 667 1153 m -20 Y s 667 1133 m cl s 703 1127 m -18 X s 685 1127 m cl s 703 1127 m 18 X s 721 1127 m cl s
 703 1127 m 23 Y s 703 1150 m cl s 703 1127 m -25 Y s 703 1102 m cl s 739 1138 m -18 X s 721 1138 m cl s 739 1138 m 18 X s 757 1138 m cl s 739 1138 m 22 Y s 739 1160 m cl s 739 1138 m -22 Y s 739 1116 m cl s 775 1127 m -18 X s 757 1127 m cl s 775
 1127 m 18 X s 793 1127 m cl s 775 1127 m 23 Y s 775 1150 m cl s 775 1127 m -25 Y s 775 1102 m cl s 811 1187 m -18 X s 793 1187 m cl s 811 1187 m 18 X s 829 1187 m cl s 811 1187 m 15 Y s 811 1202 m cl s 811 1187 m -15 Y s 811 1172 m cl s 847 1179 m
 -18 X s 829 1179 m cl s 847 1179 m 17 X s 864 1179 m cl s 847 1179 m 16 Y s 847 1195 m cl s 847 1179 m -17 Y s 847 1162 m cl s 882 1169 m -18 X s 864 1169 m cl s 882 1169 m 18 X s 900 1169 m cl s 882 1169 m 17 Y s 882 1186 m cl s 882 1169 m -18 Y s
 882 1151 m cl s 918 1192 m -18 X s 900 1192 m cl s 918 1192 m 18 X s 936 1192 m cl s 918 1192 m 15 Y s 918 1207 m cl s 918 1192 m -14 Y s 918 1178 m cl s 954 1192 m -18 X s 936 1192 m cl s 954 1192 m 18 X s 972 1192 m cl s 954 1192 m 15 Y s 954 1207
 m cl s 954 1192 m -14 Y s 954 1178 m cl s 990 1185 m -18 X s 972 1185 m cl s 990 1185 m 18 X s 1008 1185 m cl s 990 1185 m 15 Y s 990 1200 m cl s 990 1185 m -16 Y s 990 1169 m cl s 1026 1212 m -18 X s 1008 1212 m cl s 1026 1212 m 18 X s 1044 1212 m
 cl s 1026 1212 m 13 Y s 1026 1225 m cl s 1026 1212 m -12 Y s 1026 1200 m cl s 1062 1204 m -18 X s 1044 1204 m cl s 1062 1204 m 17 X s 1079 1204 m cl s 1062 1204 m 13 Y s 1062 1217 m cl s 1062 1204 m -13 Y s 1062 1191 m cl s 1097 1232 m -18 X s 1079
 1232 m cl s 1097 1232 m 18 X s 1115 1232 m cl s 1097 1232 m 11 Y s 1097 1243 m cl s 1097 1232 m -11 Y s 1097 1221 m cl s 1133 1212 m -18 X s 1115 1212 m cl s 1133 1212 m 18 X s 1151 1212 m cl s 1133 1212 m 13 Y s 1133 1225 m cl s 1133 1212 m -12 Y s
 1133 1200 m cl s 1169 1256 m -18 X s 1151 1256 m cl s 1169 1256 m 18 X s 1187 1256 m cl s 1169 1256 m 9 Y s 1169 1265 m cl s 1169 1256 m -9 Y s 1169 1247 m cl s 1205 1233 m -18 X s 1187 1233 m cl s 1205 1233 m 18 X s 1223 1233 m cl s 1205 1233 m 11
 Y s 1205 1244 m cl s 1205 1233 m -10 Y s 1205 1223 m cl s 1241 1272 m -18 X s 1223 1272 m cl s 1241 1272 m 18 X s 1259 1272 m cl s 1241 1272 m 7 Y s 1241 1279 m cl s 1241 1272 m -9 Y s 1241 1263 m cl s 1276 1275 m -17 X s 1259 1275 m cl s 1276 1275
 m 18 X s 1294 1275 m cl s 1276 1275 m 8 Y s 1276 1283 m cl s 1276 1275 m -7 Y s 1276 1268 m cl s 1312 1298 m -18 X s 1294 1298 m cl s 1312 1298 m 18 X s 1330 1298 m cl s 1312 1298 m 6 Y s 1312 1304 m cl s 1312 1298 m -6 Y s 1312 1292 m cl s 1348
 1300 m -18 X s 1330 1300 m cl s 1348 1300 m 18 X s 1366 1300 m cl s 1348 1300 m 6 Y s 1348 1306 m cl s 1348 1300 m -7 Y s 1348 1293 m cl s 1384 1307 m -18 X s 1366 1307 m cl s 1384 1307 m 18 X s 1402 1307 m cl s 1384 1307 m 6 Y s 1384 1313 m cl s
 1384 1307 m -6 Y s 1384 1301 m cl s 1420 1336 m -18 X s 1402 1336 m cl s 1420 1336 m 18 X s 1438 1336 m cl s 1420 1336 m 5 Y s 1420 1341 m cl s 1420 1336 m -5 Y s 1420 1331 m cl s 1456 1354 m -18 X s 1438 1354 m cl s 1456 1354 m 18 X s 1474 1354 m
 cl s 1456 1354 m 5 Y s 1456 1359 m cl s 1456 1354 m -4 Y s 1456 1350 m cl s 1491 1365 m -17 X s 1474 1365 m cl s 1491 1365 m 18 X s 1509 1365 m cl s 1491 1365 m 4 Y s 1491 1369 m cl s 1491 1365 m -4 Y s 1491 1361 m cl s 1527 1389 m -18 X s 1509 1389
 m cl s 1527 1389 m 18 X s 1545 1389 m cl s 1527 1389 m 3 Y s 1527 1392 m cl s 1527 1389 m -3 Y s 1527 1386 m cl s 1563 1405 m -18 X s 1545 1405 m cl s 1563 1405 m 18 X s 1581 1405 m cl s 1563 1405 m 3 Y s 1563 1408 m cl s 1563 1405 m -3 Y s 1563
 1402 m cl s 1599 1417 m -18 X s 1581 1417 m cl s 1599 1417 m 18 X s 1617 1417 m cl s 1599 1417 m 3 Y s 1599 1420 m cl s 1599 1417 m -3 Y s 1599 1414 m cl s 1635 1432 m -18 X s 1617 1432 m cl s 1635 1432 m 18 X s 1653 1432 m cl s 1635 1432 m 2 Y s
 1635 1434 m cl s 1635 1432 m -2 Y s 1635 1430 m cl s 1671 1441 m -18 X s 1653 1441 m cl s 1671 1441 m 18 X s 1689 1441 m cl s 1671 1441 m 2 Y s 1671 1443 m cl s 1671 1441 m -2 Y s 1671 1439 m cl s 1706 1450 m -17 X s 1689 1450 m cl s 1706 1450 m 18
 X s 1724 1450 m cl s 1706 1450 m 2 Y s 1706 1452 m cl s 1706 1450 m -2 Y s 1706 1448 m cl s 1742 1447 m -18 X s 1724 1447 m cl s 1742 1447 m 18 X s 1760 1447 m cl s 1742 1447 m 3 Y s 1742 1450 m cl s 1742 1447 m -2 Y s 1742 1445 m cl s 1778 1437 m
 -18 X s 1760 1437 m cl s 1778 1437 m 18 X s 1796 1437 m cl s 1778 1437 m 2 Y s 1778 1439 m cl s 1778 1437 m -2 Y s 1778 1435 m cl s 1814 1424 m -18 X s 1796 1424 m cl s 1814 1424 m 18 X s 1832 1424 m cl s 1814 1424 m 2 Y s 1814 1426 m cl s 1814 1424
 m -3 Y s 1814 1421 m cl s 1850 1408 m -18 X s 1832 1408 m cl s 1850 1408 m 18 X s 1868 1408 m cl s 1850 1408 m 3 Y s 1850 1411 m cl s 1850 1408 m -3 Y s 1850 1405 m cl s 1886 1385 m -18 X s 1868 1385 m cl s 1886 1385 m 18 X s 1904 1385 m cl s 1886
 1385 m 4 Y s 1886 1389 m cl s 1886 1385 m -3 Y s 1886 1382 m cl s 1921 1348 m -17 X s 1904 1348 m cl s 1921 1348 m 18 X s 1939 1348 m cl s 1921 1348 m 5 Y s 1921 1353 m cl s 1921 1348 m -4 Y s 1921 1344 m cl s 1957 1314 m -18 X s 1939 1314 m cl s
 1957 1314 m 18 X s 1975 1314 m cl s 1957 1314 m 5 Y s 1957 1319 m cl s 1957 1314 m -6 Y s 1957 1308 m cl s 1993 1275 m -18 X s 1975 1275 m cl s 1993 1275 m 18 X s 2011 1275 m cl s 1993 1275 m 8 Y s 1993 1283 m cl s 1993 1275 m -7 Y s 1993 1268 m cl
 s 2029 1251 m -18 X s 2011 1251 m cl s 2029 1251 m 18 X s 2047 1251 m cl s 2029 1251 m 9 Y s 2029 1260 m cl s 2029 1251 m -10 Y s 2029 1241 m cl s 2065 1200 m -18 X s 2047 1200 m cl s 2065 1200 m 18 X s 2083 1200 m cl s 2065 1200 m 13 Y s 2065 1213
 m cl s 2065 1200 m -14 Y s 2065 1186 m cl s 2101 1210 m -18 X s 2083 1210 m cl s 2101 1210 m 18 X s 2119 1210 m cl s 2101 1210 m 13 Y s 2101 1223 m cl s 2101 1210 m -13 Y s 2101 1197 m cl s 2136 1169 m -17 X s 2119 1169 m cl s 2136 1169 m 18 X s
 2154 1169 m cl s 2136 1169 m 17 Y s 2136 1186 m cl s 2136 1169 m -18 Y s 2136 1151 m cl s 381 1138 417 1138 452 1153 488 1149 524 1095 560 1113 596 1169 632 1144 667 1153 703 1127 739 1138 775 1127 811 1187 847 1179 882 1169 918 1192 954 1192 990
 1185 1026 1212 1062 1204 1097 1232 1133 1212 1169 1256 1205 1233 1241 1272 1276 1275 1312 1298 1348 1300 1384 1307 1420 1336 1456 1354 1491 1365 1527 1389 1563 1405 1599 1417 1635 1432 1671 1441 1706 1450 1742 1447 1778 1437 1814 1424 1850 1408 1886
 1385 1921 1348 1957 1314 1993 1275 2029 1251 2065 1200 2101 1210 2136 1169 50 { m20} R 0.52 0.76 0.64 c[ 4 8] 0 sd 9 lw black 0.52 0.76 0.64 c 363 1087 m 36 6 d 35 7 d 36 6 d 36 7 d 36 7 d 36 7 d 36 7 d 35 7 d 36 7 d 36 7 d 36 7 d 36 7 d 36 7 d 35 8
 d 36 7 d 36 8 d 36 8 d 36 7 d 36 8 d 35 8 d 36 8 d 36 8 d 36 8 d 36 9 d 36 8 d 35 9 d 36 8 d 36 9 d 36 9 d 36 9 d 18 4 d 18 5 d 17 4 d 18 5 d 18 4 d 18 5 d 18 5 d 18 4 d 18 5 d 18 5 d 9 2 d 9 2 d 9 1 d 9 2 d 9 1 d 9 1 d 9 1 d 9 X 8 1 d 18 X 9 -1 d 9
 X 9 -1 d 9 -1 d 9 -1 d 9 -1 d 9 -2 d 9 -2 d 9 -2 d 18 -5 d 18 -5 d 36 -14 d 36 -17 d 17 -10 d 18 -11 d 18 -11 d 18 -13 d 18 -13 d 18 -14 d 18 -15 d 18 -16 d 18 -17 d 18 -18 d 18 -18 d 18 -19 d 17 -21 d 18 -21 d s 0.54 0.66 0.63 c black 0.54 0.66
 0.63 c 1149 634 m 2 5 d s 1151 639 m 36 97 d 36 90 d 36 85 d 35 77 d 36 72 d 36 64 d 18 30 d 18 29 d 18 26 d 18 26 d 18 23 d 9 11 d 9 11 d 9 10 d 8 10 d 9 10 d 9 9 d 9 9 d 9 8 d 9 8 d 9 7 d 18 14 d 18 12 d 18 11 d 18 9 d 9 4 d 9 3 d 9 3 d 9 3 d 9 2
 d 9 2 d 9 1 d 9 1 d 8 1 d 27 X 9 -1 d 9 -2 d 9 -2 d 9 -2 d 9 -2 d 9 -3 d 9 -4 d 9 -4 d 18 -8 d 18 -11 d 18 -12 d 18 -13 d 9 -8 d 9 -8 d 9 -8 d 9 -9 d 8 -9 d 9 -9 d 9 -10 d 9 -10 d 9 -11 d 9 -11 d 18 -23 d 18 -25 d 18 -27 d 18 -28 d 18 -30 d 36 -65 d
 36 -71 d 35 -77 d s black[  ] 0 sd 3 lw 363 634 m 1791 X s 402 659 m -25 Y s 441 646 m -12 Y s 480 646 m -12 Y s 519 646 m -12 Y s 558 646 m -12 Y s 597 659 m -25 Y s 635 646 m -12 Y s 674 646 m -12 Y s 713 646 m -12 Y s 752 646 m -12 Y s 791 659 m
 -25 Y s 830 646 m -12 Y s 869 646 m -12 Y s 908 646 m -12 Y s 947 646 m -12 Y s 986 659 m -25 Y s 1025 646 m -12 Y s 1064 646 m -12 Y s 1103 646 m -12 Y s 1142 646 m -12 Y s 1181 659 m -25 Y s 1220 646 m -12 Y s 1259 646 m -12 Y s 1298 646 m -12 Y s
 1336 646 m -12 Y s 1375 659 m -25 Y s 1414 646 m -12 Y s 1453 646 m -12 Y s 1492 646 m -12 Y s 1531 646 m -12 Y s 1570 659 m -25 Y s 1609 646 m -12 Y s 1648 646 m -12 Y s 1687 646 m -12 Y s 1726 646 m -12 Y s 1765 659 m -25 Y s 1804 646 m -12 Y s
 1843 646 m -12 Y s 1882 646 m -12 Y s 1921 646 m -12 Y s 1960 659 m -25 Y s 1999 646 m -12 Y s 2037 646 m -12 Y s 2076 646 m -12 Y s 2115 646 m -12 Y s 2154 659 m -25 Y s 402 659 m -25 Y s 363 646 m -12 Y s 363 1484 m 1791 X s 402 1459 m 25 Y s 441
 1471 m 13 Y s 480 1471 m 13 Y s 519 1471 m 13 Y s 558 1471 m 13 Y s 597 1459 m 25 Y s 635 1471 m 13 Y s 674 1471 m 13 Y s 713 1471 m 13 Y s 752 1471 m 13 Y s 791 1459 m 25 Y s 830 1471 m 13 Y s 869 1471 m 13 Y s 908 1471 m 13 Y s 947 1471 m 13 Y s
 986 1459 m 25 Y s 1025 1471 m 13 Y s 1064 1471 m 13 Y s 1103 1471 m 13 Y s 1142 1471 m 13 Y s 1181 1459 m 25 Y s 1220 1471 m 13 Y s 1259 1471 m 13 Y s 1298 1471 m 13 Y s 1336 1471 m 13 Y s 1375 1459 m 25 Y s 1414 1471 m 13 Y s 1453 1471 m 13 Y s
 1492 1471 m 13 Y s 1531 1471 m 13 Y s 1570 1459 m 25 Y s 1609 1471 m 13 Y s 1648 1471 m 13 Y s 1687 1471 m 13 Y s 1726 1471 m 13 Y s 1765 1459 m 25 Y s 1804 1471 m 13 Y s 1843 1471 m 13 Y s 1882 1471 m 13 Y s 1921 1471 m 13 Y s 1960 1459 m 25 Y s
 1999 1471 m 13 Y s 2037 1471 m 13 Y s 2076 1471 m 13 Y s 2115 1471 m 13 Y s 2154 1459 m 25 Y s 402 1459 m 25 Y s 363 1471 m 13 Y s 363 634 m 850 Y s 417 634 m -54 X s 390 682 m -27 X s 390 711 m -27 X s 390 731 m -27 X s 390 747 m -27 X s 390 760 m
 -27 X s 390 771 m -27 X s 390 780 m -27 X s 390 788 m -27 X s 417 796 m -54 X s 390 845 m -27 X s 390 873 m -27 X s 390 893 m -27 X s 390 909 m -27 X s 390 922 m -27 X s 390 933 m -27 X s 390 942 m -27 X s 390 950 m -27 X s 417 958 m -54 X s 390
 1007 m -27 X s 390 1035 m -27 X s 390 1055 m -27 X s 390 1071 m -27 X s 390 1084 m -27 X s 390 1095 m -27 X s 390 1104 m -27 X s 390 1113 m -27 X s 417 1120 m -54 X s 390 1169 m -27 X s 390 1197 m -27 X s 390 1218 m -27 X s 390 1233 m -27 X s 390
 1246 m -27 X s 390 1257 m -27 X s 390 1266 m -27 X s 390 1275 m -27 X s 417 1282 m -54 X s 390 1331 m -27 X s 390 1359 m -27 X s 390 1380 m -27 X s 390 1395 m -27 X s 390 1408 m -27 X s 390 1419 m -27 X s 390 1429 m -27 X s 390 1437 m -27 X s 417
 1444 m -54 X s 2154 634 m 850 Y s 2101 634 m 53 X s 2127 682 m 27 X s 2127 711 m 27 X s 2127 731 m 27 X s 2127 747 m 27 X s 2127 760 m 27 X s 2127 771 m 27 X s 2127 780 m 27 X s 2127 788 m 27 X s 2101 796 m 53 X s 2127 845 m 27 X s 2127 873 m 27 X s
 2127 893 m 27 X s 2127 909 m 27 X s 2127 922 m 27 X s 2127 933 m 27 X s 2127 942 m 27 X s 2127 950 m 27 X s 2101 958 m 53 X s 2127 1007 m 27 X s 2127 1035 m 27 X s 2127 1055 m 27 X s 2127 1071 m 27 X s 2127 1084 m 27 X s 2127 1095 m 27 X s 2127 1104
 m 27 X s 2127 1113 m 27 X s 2101 1120 m 53 X s 2127 1169 m 27 X s 2127 1197 m 27 X s 2127 1218 m 27 X s 2127 1233 m 27 X s 2127 1246 m 27 X s 2127 1257 m 27 X s 2127 1266 m 27 X s 2127 1275 m 27 X s 2101 1282 m 53 X s 2127 1331 m 27 X s 2127 1359 m
 27 X s 2127 1380 m 27 X s 2127 1395 m 27 X s 2127 1408 m 27 X s 2127 1419 m 27 X s 2127 1429 m 27 X s 2127 1437 m 27 X s 2101 1444 m 53 X s
 gsave  2268 1077 0 461 C 677.708 1215.31 t 0 r /Helvetica findfont 58.7189 sf 0 0 m (2mu2e) show NC gr  1 1 1 c 453 161 454 1269 bf black
 gsave  2268 1077 0 461 C 566.929 1371.71 t 0 r /Helvetica-Bold findfont 48.9324 sf 0 0 m (MC15) show NC gr  510 1390 m20
 gsave  2268 1077 0 461 C 566.929 1293.51 t 0 r /Helvetica-Bold findfont 48.9324 sf 0 0 m (Projection of Signal pdf) show NC gr  0 0 1 c 9 lw 471 1309 m 79 X s black 3 lw 1 1 1 c 2268 461 0 0 bf black 1 1 1 c 1791 364 363 74 bf black 1791 364 363 74
 bl 363 74 m 1791 X s
 gsave  2268 461 0 0 C 1915.83 13.0329 t 0 r /Helvetica findfont 22.9045 sf 0 0 m (4l Invariant Mass \(GeV\)) show NC gr  402 85 m -11 Y s 441 79 m -5 Y s 480 79 m -5 Y s 519 79 m -5 Y s 558 79 m -5 Y s 597 85 m -11 Y s 635 79 m -5 Y s 674 79 m -5 Y
 s 713 79 m -5 Y s 752 79 m -5 Y s 791 85 m -11 Y s 830 79 m -5 Y s 869 79 m -5 Y s 908 79 m -5 Y s 947 79 m -5 Y s 986 85 m -11 Y s 1025 79 m -5 Y s 1064 79 m -5 Y s 1103 79 m -5 Y s 1142 79 m -5 Y s 1181 85 m -11 Y s 1220 79 m -5 Y s 1259 79 m -5 Y
 s 1298 79 m -5 Y s 1336 79 m -5 Y s 1375 85 m -11 Y s 1414 79 m -5 Y s 1453 79 m -5 Y s 1492 79 m -5 Y s 1531 79 m -5 Y s 1570 85 m -11 Y s 1609 79 m -5 Y s 1648 79 m -5 Y s 1687 79 m -5 Y s 1726 79 m -5 Y s 1765 85 m -11 Y s 1804 79 m -5 Y s 1843
 79 m -5 Y s 1882 79 m -5 Y s 1921 79 m -5 Y s 1960 85 m -11 Y s 1999 79 m -5 Y s 2037 79 m -5 Y s 2076 79 m -5 Y s 2115 79 m -5 Y s 2154 85 m -11 Y s 402 85 m -11 Y s 363 79 m -5 Y s
 gsave  2268 461 0 0 C 381.211 55.3896 t 0 r /Helvetica findfont 22.9045 sf 0 0 m (165) show NC gr 
 gsave  2268 461 0 0 C 576.704 55.3896 t 0 r /Helvetica findfont 22.9045 sf 0 0 m (170) show NC gr 
 gsave  2268 461 0 0 C 768.938 55.3896 t 0 r /Helvetica findfont 22.9045 sf 0 0 m (175) show NC gr 
 gsave  2268 461 0 0 C 964.431 55.3896 t 0 r /Helvetica findfont 22.9045 sf 0 0 m (180) show NC gr 
 gsave  2268 461 0 0 C 1159.92 55.3896 t 0 r /Helvetica findfont 22.9045 sf 0 0 m (185) show NC gr 
 gsave  2268 461 0 0 C 1355.42 55.3896 t 0 r /Helvetica findfont 22.9045 sf 0 0 m (190) show NC gr 
 gsave  2268 461 0 0 C 1547.65 55.3896 t 0 r /Helvetica findfont 22.9045 sf 0 0 m (195) show NC gr 
 gsave  2268 461 0 0 C 1743.14 55.3896 t 0 r /Helvetica findfont 22.9045 sf 0 0 m (200) show NC gr 
 gsave  2268 461 0 0 C 1938.64 55.3896 t 0 r /Helvetica findfont 22.9045 sf 0 0 m (205) show NC gr 
 gsave  2268 461 0 0 C 2134.13 55.3896 t 0 r /Helvetica findfont 22.9045 sf 0 0 m (210) show NC gr  363 438 m 1791 X s 402 427 m 11 Y s 441 433 m 5 Y s 480 433 m 5 Y s 519 433 m 5 Y s 558 433 m 5 Y s 597 427 m 11 Y s 635 433 m 5 Y s 674 433 m 5 Y s
 713 433 m 5 Y s 752 433 m 5 Y s 791 427 m 11 Y s 830 433 m 5 Y s 869 433 m 5 Y s 908 433 m 5 Y s 947 433 m 5 Y s 986 427 m 11 Y s 1025 433 m 5 Y s 1064 433 m 5 Y s 1103 433 m 5 Y s 1142 433 m 5 Y s 1181 427 m 11 Y s 1220 433 m 5 Y s 1259 433 m 5 Y s
 1298 433 m 5 Y s 1336 433 m 5 Y s 1375 427 m 11 Y s 1414 433 m 5 Y s 1453 433 m 5 Y s 1492 433 m 5 Y s 1531 433 m 5 Y s 1570 427 m 11 Y s 1609 433 m 5 Y s 1648 433 m 5 Y s 1687 433 m 5 Y s 1726 433 m 5 Y s 1765 427 m 11 Y s 1804 433 m 5 Y s 1843 433
 m 5 Y s 1882 433 m 5 Y s 1921 433 m 5 Y s 1960 427 m 11 Y s 1999 433 m 5 Y s 2037 433 m 5 Y s 2076 433 m 5 Y s 2115 433 m 5 Y s 2154 427 m 11 Y s 402 427 m 11 Y s 363 433 m 5 Y s 363 74 m 364 Y s 417 74 m -54 X s 390 81 m -27 X s 390 88 m -27 X s
 390 96 m -27 X s 390 103 m -27 X s 417 110 m -54 X s 390 118 m -27 X s 390 125 m -27 X s 390 132 m -27 X s 390 139 m -27 X s 417 147 m -54 X s 390 154 m -27 X s 390 161 m -27 X s 390 169 m -27 X s 390 176 m -27 X s 417 183 m -54 X s 390 190 m -27 X
 s 390 198 m -27 X s 390 205 m -27 X s 390 212 m -27 X s 417 220 m -54 X s 390 227 m -27 X s 390 234 m -27 X s 390 241 m -27 X s 390 249 m -27 X s 417 256 m -54 X s 390 263 m -27 X s 390 271 m -27 X s 390 278 m -27 X s 390 285 m -27 X s 417 293 m -54
 X s 390 300 m -27 X s 390 307 m -27 X s 390 314 m -27 X s 390 322 m -27 X s 417 329 m -54 X s 390 336 m -27 X s 390 344 m -27 X s 390 351 m -27 X s 390 358 m -27 X s 417 365 m -54 X s 390 373 m -27 X s 390 380 m -27 X s 390 387 m -27 X s 390 395 m
 -27 X s 417 402 m -54 X s 390 409 m -27 X s 390 416 m -27 X s 390 424 m -27 X s 390 431 m -27 X s 417 438 m -54 X s
 gsave  2268 461 0 0 C 329.08 65.1643 t 0 r /Helvetica findfont 22.9045 sf 0 0 m (\2555) show NC gr 
 gsave  2268 461 0 0 C 329.08 101.005 t 0 r /Helvetica findfont 22.9045 sf 0 0 m (\2554) show NC gr 
 gsave  2268 461 0 0 C 329.08 140.103 t 0 r /Helvetica findfont 22.9045 sf 0 0 m (\2553) show NC gr 
 gsave  2268 461 0 0 C 329.08 175.944 t 0 r /Helvetica findfont 22.9045 sf 0 0 m (\2552) show NC gr 
 gsave  2268 461 0 0 C 332.338 211.784 t 0 r /Helvetica findfont 22.9045 sf 0 0 m (\2551) show NC gr 
 gsave  2268 461 0 0 C 335.596 247.624 t 0 r /Helvetica findfont 22.9045 sf 0 0 m (0) show NC gr 
 gsave  2268 461 0 0 C 338.854 283.465 t 0 r /Helvetica findfont 22.9045 sf 0 0 m (1) show NC gr 
 gsave  2268 461 0 0 C 335.596 319.305 t 0 r /Helvetica findfont 22.9045 sf 0 0 m (2) show NC gr 
 gsave  2268 461 0 0 C 335.596 358.403 t 0 r /Helvetica findfont 22.9045 sf 0 0 m (3) show NC gr 
 gsave  2268 461 0 0 C 335.596 394.244 t 0 r /Helvetica findfont 22.9045 sf 0 0 m (4) show NC gr 
 gsave  2268 461 0 0 C 335.596 430.084 t 0 r /Helvetica findfont 22.9045 sf 0 0 m (5) show NC gr  2154 74 m 364 Y s 2101 74 m 53 X s 2127 81 m 27 X s 2127 88 m 27 X s 2127 96 m 27 X s 2127 103 m 27 X s 2101 110 m 53 X s 2127 118 m 27 X s 2127 125 m
 27 X s 2127 132 m 27 X s 2127 139 m 27 X s 2101 147 m 53 X s 2127 154 m 27 X s 2127 161 m 27 X s 2127 169 m 27 X s 2127 176 m 27 X s 2101 183 m 53 X s 2127 190 m 27 X s 2127 198 m 27 X s 2127 205 m 27 X s 2127 212 m 27 X s 2101 220 m 53 X s 2127 227
 m 27 X s 2127 234 m 27 X s 2127 241 m 27 X s 2127 249 m 27 X s 2101 256 m 53 X s 2127 263 m 27 X s 2127 271 m 27 X s 2127 278 m 27 X s 2127 285 m 27 X s 2101 293 m 53 X s 2127 300 m 27 X s 2127 307 m 27 X s 2127 314 m 27 X s 2127 322 m 27 X s 2101
 329 m 53 X s 2127 336 m 27 X s 2127 344 m 27 X s 2127 351 m 27 X s 2127 358 m 27 X s 2101 365 m 53 X s 2127 373 m 27 X s 2127 380 m 27 X s 2127 387 m 27 X s 2127 395 m 27 X s 2101 402 m 53 X s 2127 409 m 27 X s 2127 416 m 27 X s 2127 424 m 27 X s
 2127 431 m 27 X s 2101 438 m 53 X s 6 lw 0.2 0.8 0.2 c black 3 lw 0.2 0.8 0.2 c 363 256 m 66 Y 36 X -6 Y 35 X 15 Y 36 X -15 Y 36 X -84 Y 36 X 11 Y 36 X 82 Y 36 X -57 Y 35 X 6 Y 36 X -56 Y 36 X 5 Y 36 X -34 Y 36 X 102 Y 36 X -38 Y 35 X -38 Y 36 X 35
 Y 36 X -20 Y 36 X -41 Y 36 X 49 Y 36 X -47 Y 35 X 58 Y 36 X -94 Y 36 X 124 Y 36 X -121 Y 36 X 118 Y 36 X -23 Y 35 X 69 Y 36 X -51 Y 36 X -28 Y 36 X 89 Y 36 X 12 Y 36 X -81 Y 35 X 30 Y 36 X -45 Y 36 X -66 Y 36 X 13 Y 36 X 12 Y 36 X 99 Y 35 X -1 Y 36
 X -41 Y 36 X -2 Y 36 X 33 Y 36 X -4 Y 36 X -90 Y 35 X -13 Y 36 X -4 Y 36 X 62 Y 36 X -30 Y 36 X 124 Y 36 X -19 Y 35 X -65 Y f 6 lw black 0.2 0.8 0.2 c black 363 322 m 36 X -6 Y 35 X 15 Y 36 X -15 Y 36 X -84 Y 36 X 11 Y 36 X 82 Y 36 X -57 Y 35 X 6 Y
 36 X -56 Y 36 X 5 Y 36 X -34 Y 36 X 102 Y 36 X -38 Y 35 X -38 Y 36 X 35 Y 36 X -20 Y 36 X -41 Y 36 X 49 Y 36 X -47 Y 35 X 58 Y 36 X -94 Y 36 X 124 Y 36 X -121 Y 36 X 118 Y 36 X -23 Y 35 X 69 Y 36 X -51 Y 36 X -28 Y 36 X 89 Y 36 X 12 Y 36 X -81 Y 35
 X 30 Y 36 X -45 Y 36 X -66 Y 36 X 13 Y 36 X 12 Y 36 X 99 Y 35 X -1 Y 36 X -41 Y 36 X -2 Y 36 X 33 Y 36 X -4 Y 36 X -90 Y 35 X -13 Y 36 X -4 Y 36 X 62 Y 36 X -30 Y 36 X 124 Y 36 X -19 Y 35 X s 3 lw 363 74 m 1791 X s 402 85 m -11 Y s 441 79 m -5 Y s
 480 79 m -5 Y s 519 79 m -5 Y s 558 79 m -5 Y s 597 85 m -11 Y s 635 79 m -5 Y s 674 79 m -5 Y s 713 79 m -5 Y s 752 79 m -5 Y s 791 85 m -11 Y s 830 79 m -5 Y s 869 79 m -5 Y s 908 79 m -5 Y s 947 79 m -5 Y s 986 85 m -11 Y s 1025 79 m -5 Y s 1064
 79 m -5 Y s 1103 79 m -5 Y s 1142 79 m -5 Y s 1181 85 m -11 Y s 1220 79 m -5 Y s 1259 79 m -5 Y s 1298 79 m -5 Y s 1336 79 m -5 Y s 1375 85 m -11 Y s 1414 79 m -5 Y s 1453 79 m -5 Y s 1492 79 m -5 Y s 1531 79 m -5 Y s 1570 85 m -11 Y s 1609 79 m -5
 Y s 1648 79 m -5 Y s 1687 79 m -5 Y s 1726 79 m -5 Y s 1765 85 m -11 Y s 1804 79 m -5 Y s 1843 79 m -5 Y s 1882 79 m -5 Y s 1921 79 m -5 Y s 1960 85 m -11 Y s 1999 79 m -5 Y s 2037 79 m -5 Y s 2076 79 m -5 Y s 2115 79 m -5 Y s 2154 85 m -11 Y s 402
 85 m -11 Y s 363 79 m -5 Y s 363 438 m 1791 X s 402 427 m 11 Y s 441 433 m 5 Y s 480 433 m 5 Y s 519 433 m 5 Y s 558 433 m 5 Y s 597 427 m 11 Y s 635 433 m 5 Y s 674 433 m 5 Y s 713 433 m 5 Y s 752 433 m 5 Y s 791 427 m 11 Y s 830 433 m 5 Y s 869
 433 m 5 Y s 908 433 m 5 Y s 947 433 m 5 Y s 986 427 m 11 Y s 1025 433 m 5 Y s 1064 433 m 5 Y s 1103 433 m 5 Y s 1142 433 m 5 Y s 1181 427 m 11 Y s 1220 433 m 5 Y s 1259 433 m 5 Y s 1298 433 m 5 Y s 1336 433 m 5 Y s 1375 427 m 11 Y s 1414 433 m 5 Y s
 1453 433 m 5 Y s 1492 433 m 5 Y s 1531 433 m 5 Y s 1570 427 m 11 Y s 1609 433 m 5 Y s 1648 433 m 5 Y s 1687 433 m 5 Y s 1726 433 m 5 Y s 1765 427 m 11 Y s 1804 433 m 5 Y s 1843 433 m 5 Y s 1882 433 m 5 Y s 1921 433 m 5 Y s 1960 427 m 11 Y s 1999 433
 m 5 Y s 2037 433 m 5 Y s 2076 433 m 5 Y s 2115 433 m 5 Y s 2154 427 m 11 Y s 402 427 m 11 Y s 363 433 m 5 Y s 363 74 m 364 Y s 417 74 m -54 X s 390 81 m -27 X s 390 88 m -27 X s 390 96 m -27 X s 390 103 m -27 X s 417 110 m -54 X s 390 118 m -27 X s
 390 125 m -27 X s 390 132 m -27 X s 390 139 m -27 X s 417 147 m -54 X s 390 154 m -27 X s 390 161 m -27 X s 390 169 m -27 X s 390 176 m -27 X s 417 183 m -54 X s 390 190 m -27 X s 390 198 m -27 X s 390 205 m -27 X s 390 212 m -27 X s 417 220 m -54 X
 s 390 227 m -27 X s 390 234 m -27 X s 390 241 m -27 X s 390 249 m -27 X s 417 256 m -54 X s 390 263 m -27 X s 390 271 m -27 X s 390 278 m -27 X s 390 285 m -27 X s 417 293 m -54 X s 390 300 m -27 X s 390 307 m -27 X s 390 314 m -27 X s 390 322 m -27
 X s 417 329 m -54 X s 390 336 m -27 X s 390 344 m -27 X s 390 351 m -27 X s 390 358 m -27 X s 417 365 m -54 X s 390 373 m -27 X s 390 380 m -27 X s 390 387 m -27 X s 390 395 m -27 X s 417 402 m -54 X s 390 409 m -27 X s 390 416 m -27 X s 390 424 m
 -27 X s 390 431 m -27 X s 417 438 m -54 X s 2154 74 m 364 Y s 2101 74 m 53 X s 2127 81 m 27 X s 2127 88 m 27 X s 2127 96 m 27 X s 2127 103 m 27 X s 2101 110 m 53 X s 2127 118 m 27 X s 2127 125 m 27 X s 2127 132 m 27 X s 2127 139 m 27 X s 2101 147 m
 53 X s 2127 154 m 27 X s 2127 161 m 27 X s 2127 169 m 27 X s 2127 176 m 27 X s 2101 183 m 53 X s 2127 190 m 27 X s 2127 198 m 27 X s 2127 205 m 27 X s 2127 212 m 27 X s 2101 220 m 53 X s 2127 227 m 27 X s 2127 234 m 27 X s 2127 241 m 27 X s 2127 249
 m 27 X s 2101 256 m 53 X s 2127 263 m 27 X s 2127 271 m 27 X s 2127 278 m 27 X s 2127 285 m 27 X s 2101 293 m 53 X s 2127 300 m 27 X s 2127 307 m 27 X s 2127 314 m 27 X s 2127 322 m 27 X s 2101 329 m 53 X s 2127 336 m 27 X s 2127 344 m 27 X s 2127
 351 m 27 X s 2127 358 m 27 X s 2101 365 m 53 X s 2127 373 m 27 X s 2127 380 m 27 X s 2127 387 m 27 X s 2127 395 m 27 X s 2101 402 m 53 X s 2127 409 m 27 X s 2127 416 m 27 X s 2127 424 m 27 X s 2127 431 m 27 X s 2101 438 m 53 X s
 gr  gr showpage
end
%%EOF
