%!PS-Adobe-2.0 EPSF-2.0
%%BoundingBox:  0 0 567 384
%%Title: H4l2015_plotfit/VBF_mass_signal_500_H4l_4e.eps: 
%%Creator: ROOT Version 5.34/07
%%CreationDate: Mon Nov  9 16:30:37 2015
%%EndComments
%%BeginProlog
80 dict begin
/s {stroke} def /l {lineto} def /m {moveto} def /t {translate} def
/r {rotate} def /rl {roll}  def /R {repeat} def
/d {rlineto} def /rm {rmoveto} def /gr {grestore} def /f {eofill} def
/c {setrgbcolor} def /black {0 setgray} def /sd {setdash} def
/cl {closepath} def /sf {scalefont setfont} def /lw {setlinewidth} def
/box {m dup 0 exch d exch 0 d 0 exch neg d cl} def
/NC{systemdict begin initclip end}def/C{NC box clip newpath}def
/bl {box s} def /bf {box f} def /Y { 0 exch d} def /X { 0 d} def 
/K {{pop pop 0 moveto} exch kshow} bind def
/ita {/ang 15 def gsave [1 0 ang dup sin exch cos div 1 0 0] concat} def 
/mp {newpath /y exch def /x exch def} def
/side {[w .77 mul w .23 mul] .385 w mul sd w 0 l currentpoint t -144 r} def
/mr {mp x y w2 0 360 arc} def /m24 {mr s} def /m20 {mr f} def
/mb {mp x y w2 add m w2 neg 0 d 0 w neg d w 0 d 0 w d cl} def
/mt {mp x y w2 add m w2 neg w neg d w 0 d cl} def
/m21 {mb f} def /m25 {mb s} def /m22 {mt f} def /m26{mt s} def
/m23 {mp x y w2 sub m w2 w d w neg 0 d cl f} def
/m27 {mp x y w2 add m w3 neg w2 neg d w3 w2 neg d w3 w2 d cl s} def
/m28 {mp x w2 sub y w2 sub w3 add m w3 0 d  0 w3 neg d w3 0 d 0 w3 d w3 0 d  0 w3 d w3 neg 0 d 0 w3 d w3 neg 0 d 0 w3 neg d w3 neg 0 d cl s } def
/m29 {mp gsave x w2 sub y w2 add w3 sub m currentpoint t 4 {side} repeat cl fill gr} def
/m30 {mp gsave x w2 sub y w2 add w3 sub m currentpoint t 4 {side} repeat cl s gr} def
/m31 {mp x y w2 sub m 0 w d x w2 sub y m w 0 d x w2 sub y w2 add m w w neg d x w2 sub y w2 sub m w w d s} def
/m32 {mp x y w2 sub m w2 w d w neg 0 d cl s} def
/m33 {mp x y w2 add m w3 neg w2 neg d w3 w2 neg d w3 w2 d cl f} def
/m34 {mp x w2 sub y w2 sub w3 add m w3 0 d  0 w3 neg d w3 0 d 0 w3 d w3 0 d  0 w3 d w3 neg 0 d 0 w3 d w3 neg 0 d 0 w3 neg d w3 neg 0 d cl f } def
/m2 {mp x y w2 sub m 0 w d x w2 sub y m w 0 d s} def
/m5 {mp x w2 sub y w2 sub m w w d x w2 sub y w2 add m w w neg d s} def
/reEncode {exch findfont dup length dict begin {1 index /FID eq  {pop pop} {def} ifelse } forall /Encoding exch def currentdict end dup /FontName get exch definefont pop } def [/Times-Bold /Times-Italic /Times-BoldItalic /Helvetica /Helvetica-Oblique
 /Helvetica-Bold /Helvetica-BoldOblique /Courier /Courier-Oblique /Courier-Bold /Courier-BoldOblique /Times-Roman /AvantGarde-Book /AvantGarde-BookOblique /AvantGarde-Demi /AvantGarde-DemiOblique /Bookman-Demi /Bookman-DemiItalic /Bookman-Light
 /Bookman-LightItalic /Helvetica-Narrow /Helvetica-Narrow-Bold /Helvetica-Narrow-BoldOblique /Helvetica-Narrow-Oblique /NewCenturySchlbk-Roman /NewCenturySchlbk-Bold /NewCenturySchlbk-BoldItalic /NewCenturySchlbk-Italic /Palatino-Bold
 /Palatino-BoldItalic /Palatino-Italic /Palatino-Roman ] {ISOLatin1Encoding reEncode } forall
%%EndProlog
%%BeginSetup
%%EndSetup
newpath  gsave  .25 .25 scale  gsave  0 0 t black[  ] 0 sd 3 lw 1 1 1 c 2268 1538 0 0 bf black 1 1 1 c 2222 738 23 784 bf black 1 1 1 c 2222 739 23 15 bf black 1 1 1 c 2268 1077 0 461 bf black 1 1 1 c 1791 850 363 634 bf black 1791 850 363 634 bl 363
 634 m 1791 X s
 gsave  2268 1077 0 461 C 1642.14 498.507 t 0 r /Helvetica findfont 48.9324 sf 0 0 m (4l Invariant Mass \(GeV\)) show NC gr  512 659 m -25 Y s 587 646 m -12 Y s 661 646 m -12 Y s 736 646 m -12 Y s 811 659 m -25 Y s 885 646 m -12 Y s 960 646 m -12 Y s
 1035 646 m -12 Y s 1109 659 m -25 Y s 1184 646 m -12 Y s 1259 646 m -12 Y s 1333 646 m -12 Y s 1408 659 m -25 Y s 1483 646 m -12 Y s 1557 646 m -12 Y s 1632 646 m -12 Y s 1706 659 m -25 Y s 1781 646 m -12 Y s 1856 646 m -12 Y s 1930 646 m -12 Y s
 2005 659 m -25 Y s 512 659 m -25 Y s 437 646 m -12 Y s 363 646 m -12 Y s 2005 659 m -25 Y s 2080 646 m -12 Y s 2154 646 m -12 Y s
 gsave  2268 1077 0 461 C 469.183 586.478 t 0 r /Helvetica findfont 48.9324 sf 0 0 m (420) show NC gr 
 gsave  2268 1077 0 461 C 765.68 586.478 t 0 r /Helvetica findfont 48.9324 sf 0 0 m (440) show NC gr 
 gsave  2268 1077 0 461 C 1065.44 586.478 t 0 r /Helvetica findfont 48.9324 sf 0 0 m (460) show NC gr 
 gsave  2268 1077 0 461 C 1365.19 586.478 t 0 r /Helvetica findfont 48.9324 sf 0 0 m (480) show NC gr 
 gsave  2268 1077 0 461 C 1661.69 586.478 t 0 r /Helvetica findfont 48.9324 sf 0 0 m (500) show NC gr 
 gsave  2268 1077 0 461 C 1961.44 586.478 t 0 r /Helvetica findfont 48.9324 sf 0 0 m (520) show NC gr  363 1484 m 1791 X s 512 1459 m 25 Y s 587 1471 m 13 Y s 661 1471 m 13 Y s 736 1471 m 13 Y s 811 1459 m 25 Y s 885 1471 m 13 Y s 960 1471 m 13 Y s
 1035 1471 m 13 Y s 1109 1459 m 25 Y s 1184 1471 m 13 Y s 1259 1471 m 13 Y s 1333 1471 m 13 Y s 1408 1459 m 25 Y s 1483 1471 m 13 Y s 1557 1471 m 13 Y s 1632 1471 m 13 Y s 1706 1459 m 25 Y s 1781 1471 m 13 Y s 1856 1471 m 13 Y s 1930 1471 m 13 Y s
 2005 1459 m 25 Y s 512 1459 m 25 Y s 437 1471 m 13 Y s 363 1471 m 13 Y s 2005 1459 m 25 Y s 2080 1471 m 13 Y s 2154 1471 m 13 Y s 363 634 m 850 Y s
 gsave  2268 1077 0 461 C 120.554 1058.92 t 90 r /Helvetica findfont 48.9324 sf 0 0 m (Events / \( 2.4 GeV \)) show NC gr  417 634 m -54 X s
 gsave  2268 1077 0 461 C 312.788 632.093 t 0 r /Helvetica findfont 32.6216 sf 0 0 m (\2552) show NC gr 
 gsave  2268 1077 0 461 C 260.657 612.544 t 0 r /Helvetica findfont 48.9324 sf 0 0 m (10) show NC gr  390 683 m -27 X s 390 711 m -27 X s 390 731 m -27 X s 390 747 m -27 X s 390 760 m -27 X s 390 771 m -27 X s 390 780 m -27 X s 390 789 m -27 X s 417
 796 m -54 X s
 gsave  2268 1077 0 461 C 319.305 795.004 t 0 r /Helvetica findfont 32.6216 sf 0 0 m (\2551) show NC gr 
 gsave  2268 1077 0 461 C 267.173 775.455 t 0 r /Helvetica findfont 48.9324 sf 0 0 m (10) show NC gr  390 845 m -27 X s 390 874 m -27 X s 390 894 m -27 X s 390 910 m -27 X s 390 923 m -27 X s 390 933 m -27 X s 390 943 m -27 X s 390 951 m -27 X s 417
 959 m -54 X s
 gsave  2268 1077 0 461 C 342.425 937.72 t 0 r  -27 0 t /Helvetica findfont 48.9324 sf 0 0 m (1) show NC gr  390 1007 m -27 X s 390 1036 m -27 X s 390 1056 m -27 X s 390 1072 m -27 X s 390 1085 m -27 X s 390 1096 m -27 X s 390 1105 m -27 X s 390 1114
 m -27 X s 417 1121 m -54 X s
 gsave  2268 1077 0 461 C 342.425 1100.2 t 0 r  -55 0 t /Helvetica findfont 48.9324 sf 0 0 m (10) show NC gr  390 1170 m -27 X s 390 1199 m -27 X s 390 1219 m -27 X s 390 1235 m -27 X s 390 1247 m -27 X s 390 1258 m -27 X s 390 1268 m -27 X s 390
 1276 m -27 X s 417 1284 m -54 X s
 gsave  2268 1077 0 461 C 322.563 1280.48 t 0 r /Helvetica findfont 32.6216 sf 0 0 m (2) show NC gr 
 gsave  2268 1077 0 461 C 270.432 1260.93 t 0 r /Helvetica findfont 48.9324 sf 0 0 m (10) show NC gr  390 1332 m -27 X s 390 1361 m -27 X s 390 1381 m -27 X s 390 1397 m -27 X s 390 1410 m -27 X s 390 1421 m -27 X s 390 1430 m -27 X s 390 1439 m -27
 X s 417 1446 m -54 X s
 gsave  2268 1077 0 461 C 322.563 1446.65 t 0 r /Helvetica findfont 32.6216 sf 0 0 m (3) show NC gr 
 gsave  2268 1077 0 461 C 270.432 1423.84 t 0 r /Helvetica findfont 48.9324 sf 0 0 m (10) show NC gr  2154 634 m 850 Y s 2101 634 m 53 X s 2127 683 m 27 X s 2127 711 m 27 X s 2127 731 m 27 X s 2127 747 m 27 X s 2127 760 m 27 X s 2127 771 m 27 X s
 2127 780 m 27 X s 2127 789 m 27 X s 2101 796 m 53 X s 2127 845 m 27 X s 2127 874 m 27 X s 2127 894 m 27 X s 2127 910 m 27 X s 2127 923 m 27 X s 2127 933 m 27 X s 2127 943 m 27 X s 2127 951 m 27 X s 2101 959 m 53 X s 2127 1007 m 27 X s 2127 1036 m 27
 X s 2127 1056 m 27 X s 2127 1072 m 27 X s 2127 1085 m 27 X s 2127 1096 m 27 X s 2127 1105 m 27 X s 2127 1114 m 27 X s 2101 1121 m 53 X s 2127 1170 m 27 X s 2127 1199 m 27 X s 2127 1219 m 27 X s 2127 1235 m 27 X s 2127 1247 m 27 X s 2127 1258 m 27 X
 s 2127 1268 m 27 X s 2127 1276 m 27 X s 2101 1284 m 53 X s 2127 1332 m 27 X s 2127 1361 m 27 X s 2127 1381 m 27 X s 2127 1397 m 27 X s 2127 1410 m 27 X s 2127 1421 m 27 X s 2127 1430 m 27 X s 2127 1439 m 27 X s 2101 1446 m 53 X s 381 1036 m -18 X s
 363 1036 m cl s 381 1036 m 18 X s 399 1036 m cl s 381 1036 m 48 Y s 381 1084 m cl s 381 1036 m -55 Y s 381 981 m cl s 417 634 m -18 X s 399 634 m cl s 417 634 m 17 X s 434 634 m cl s 417 634 m 334 Y s 417 968 m cl s 452 1036 m -18 X s 434 1036 m cl
 s 452 1036 m 18 X s 470 1036 m cl s 452 1036 m 48 Y s 452 1084 m cl s 452 1036 m -55 Y s 452 981 m cl s 488 959 m -18 X s 470 959 m cl s 488 959 m 18 X s 506 959 m cl s 488 959 m 84 Y s 488 1043 m cl s 488 959 m -124 Y s 488 835 m cl s 524 1007 m
 -18 X s 506 1007 m cl s 524 1007 m 18 X s 542 1007 m cl s 524 1007 m 60 Y s 524 1067 m cl s 524 1007 m -73 Y s 524 934 m cl s 560 1056 m -18 X s 542 1056 m cl s 560 1056 m 18 X s 578 1056 m cl s 560 1056 m 42 Y s 560 1098 m cl s 560 1056 m -46 Y s
 560 1010 m cl s 596 1056 m -18 X s 578 1056 m cl s 596 1056 m 18 X s 614 1056 m cl s 596 1056 m 42 Y s 596 1098 m cl s 596 1056 m -46 Y s 596 1010 m cl s 632 1007 m -18 X s 614 1007 m cl s 632 1007 m 17 X s 649 1007 m cl s 632 1007 m 60 Y s 632 1067
 m cl s 632 1007 m -73 Y s 632 934 m cl s 667 1007 m -18 X s 649 1007 m cl s 667 1007 m 18 X s 685 1007 m cl s 667 1007 m 60 Y s 667 1067 m cl s 667 1007 m -73 Y s 667 934 m cl s 703 1072 m -18 X s 685 1072 m cl s 703 1072 m 18 X s 721 1072 m cl s
 703 1072 m 37 Y s 703 1109 m cl s 703 1072 m -40 Y s 703 1032 m cl s 739 1085 m -18 X s 721 1085 m cl s 739 1085 m 18 X s 757 1085 m cl s 739 1085 m 33 Y s 739 1118 m cl s 739 1085 m -36 Y s 739 1049 m cl s 775 1036 m -18 X s 757 1036 m cl s 775
 1036 m 18 X s 793 1036 m cl s 775 1036 m 48 Y s 775 1084 m cl s 775 1036 m -55 Y s 775 981 m cl s 811 1056 m -18 X s 793 1056 m cl s 811 1056 m 18 X s 829 1056 m cl s 811 1056 m 42 Y s 811 1098 m cl s 811 1056 m -46 Y s 811 1010 m cl s 847 1134 m
 -18 X s 829 1134 m cl s 847 1134 m 17 X s 864 1134 m cl s 847 1134 m 23 Y s 847 1157 m cl s 847 1134 m -24 Y s 847 1110 m cl s 882 1072 m -18 X s 864 1072 m cl s 882 1072 m 18 X s 900 1072 m cl s 882 1072 m 37 Y s 882 1109 m cl s 882 1072 m -40 Y s
 882 1032 m cl s 918 1105 m -18 X s 900 1105 m cl s 918 1105 m 18 X s 936 1105 m cl s 918 1105 m 29 Y s 918 1134 m cl s 918 1105 m -30 Y s 918 1075 m cl s 954 959 m -18 X s 936 959 m cl s 954 959 m 18 X s 972 959 m cl s 954 959 m 84 Y s 954 1043 m cl
 s 954 959 m -124 Y s 954 835 m cl s 990 1121 m -18 X s 972 1121 m cl s 990 1121 m 18 X s 1008 1121 m cl s 990 1121 m 25 Y s 990 1146 m cl s 990 1121 m -26 Y s 990 1095 m cl s 1026 1150 m -18 X s 1008 1150 m cl s 1026 1150 m 18 X s 1044 1150 m cl s
 1026 1150 m 20 Y s 1026 1170 m cl s 1026 1150 m -21 Y s 1026 1129 m cl s 1062 1158 m -18 X s 1044 1158 m cl s 1062 1158 m 17 X s 1079 1158 m cl s 1062 1158 m 19 Y s 1062 1177 m cl s 1062 1158 m -19 Y s 1062 1139 m cl s 1097 1121 m -18 X s 1079 1121
 m cl s 1097 1121 m 18 X s 1115 1121 m cl s 1097 1121 m 25 Y s 1097 1146 m cl s 1097 1121 m -26 Y s 1097 1095 m cl s 1133 1096 m -18 X s 1115 1096 m cl s 1133 1096 m 18 X s 1151 1096 m cl s 1133 1096 m 30 Y s 1133 1126 m cl s 1133 1096 m -33 Y s 1133
 1063 m cl s 1169 1163 m -18 X s 1151 1163 m cl s 1169 1163 m 18 X s 1187 1163 m cl s 1169 1163 m 18 Y s 1169 1181 m cl s 1169 1163 m -19 Y s 1169 1144 m cl s 1205 1173 m -18 X s 1187 1173 m cl s 1205 1173 m 18 X s 1223 1173 m cl s 1205 1173 m 17 Y s
 1205 1190 m cl s 1205 1173 m -17 Y s 1205 1156 m cl s 1241 1180 m -18 X s 1223 1180 m cl s 1241 1180 m 18 X s 1259 1180 m cl s 1241 1180 m 16 Y s 1241 1196 m cl s 1241 1180 m -17 Y s 1241 1163 m cl s 1276 1196 m -17 X s 1259 1196 m cl s 1276 1196 m
 18 X s 1294 1196 m cl s 1276 1196 m 14 Y s 1276 1210 m cl s 1276 1196 m -14 Y s 1276 1182 m cl s 1312 1215 m -18 X s 1294 1215 m cl s 1312 1215 m 18 X s 1330 1215 m cl s 1312 1215 m 13 Y s 1312 1228 m cl s 1312 1215 m -12 Y s 1312 1203 m cl s 1348
 1219 m -18 X s 1330 1219 m cl s 1348 1219 m 18 X s 1366 1219 m cl s 1348 1219 m 12 Y s 1348 1231 m cl s 1348 1219 m -12 Y s 1348 1207 m cl s 1384 1252 m -18 X s 1366 1252 m cl s 1384 1252 m 18 X s 1402 1252 m cl s 1384 1252 m 9 Y s 1384 1261 m cl s
 1384 1252 m -9 Y s 1384 1243 m cl s 1420 1268 m -18 X s 1402 1268 m cl s 1420 1268 m 18 X s 1438 1268 m cl s 1420 1268 m 8 Y s 1420 1276 m cl s 1420 1268 m -9 Y s 1420 1259 m cl s 1456 1293 m -18 X s 1438 1293 m cl s 1456 1293 m 18 X s 1474 1293 m
 cl s 1456 1293 m 6 Y s 1456 1299 m cl s 1456 1293 m -7 Y s 1456 1286 m cl s 1491 1319 m -17 X s 1474 1319 m cl s 1491 1319 m 18 X s 1509 1319 m cl s 1491 1319 m 5 Y s 1491 1324 m cl s 1491 1319 m -6 Y s 1491 1313 m cl s 1527 1344 m -18 X s 1509 1344
 m cl s 1527 1344 m 18 X s 1545 1344 m cl s 1527 1344 m 5 Y s 1527 1349 m cl s 1527 1344 m -4 Y s 1527 1340 m cl s 1563 1374 m -18 X s 1545 1374 m cl s 1563 1374 m 18 X s 1581 1374 m cl s 1563 1374 m 4 Y s 1563 1378 m cl s 1563 1374 m -3 Y s 1563
 1371 m cl s 1599 1405 m -18 X s 1581 1405 m cl s 1599 1405 m 18 X s 1617 1405 m cl s 1599 1405 m 3 Y s 1599 1408 m cl s 1599 1405 m -3 Y s 1599 1402 m cl s 1635 1434 m -18 X s 1617 1434 m cl s 1635 1434 m 18 X s 1653 1434 m cl s 1635 1434 m 2 Y s
 1635 1436 m cl s 1635 1434 m -3 Y s 1635 1431 m cl s 1671 1441 m -18 X s 1653 1441 m cl s 1671 1441 m 18 X s 1689 1441 m cl s 1671 1441 m 2 Y s 1671 1443 m cl s 1671 1441 m -3 Y s 1671 1438 m cl s 1706 1446 m -17 X s 1689 1446 m cl s 1706 1446 m 18
 X s 1724 1446 m cl s 1706 1446 m 2 Y s 1706 1448 m cl s 1706 1446 m -2 Y s 1706 1444 m cl s 1742 1419 m -18 X s 1724 1419 m cl s 1742 1419 m 18 X s 1760 1419 m cl s 1742 1419 m 3 Y s 1742 1422 m cl s 1742 1419 m -3 Y s 1742 1416 m cl s 1778 1368 m
 -18 X s 1760 1368 m cl s 1778 1368 m 18 X s 1796 1368 m cl s 1778 1368 m 4 Y s 1778 1372 m cl s 1778 1368 m -4 Y s 1778 1364 m cl s 1814 1314 m -18 X s 1796 1314 m cl s 1814 1314 m 18 X s 1832 1314 m cl s 1814 1314 m 6 Y s 1814 1320 m cl s 1814 1314
 m -6 Y s 1814 1308 m cl s 1850 1261 m -18 X s 1832 1261 m cl s 1850 1261 m 18 X s 1868 1261 m cl s 1850 1261 m 9 Y s 1850 1270 m cl s 1850 1261 m -8 Y s 1850 1253 m cl s 1886 1211 m -18 X s 1868 1211 m cl s 1886 1211 m 18 X s 1904 1211 m cl s 1886
 1211 m 13 Y s 1886 1224 m cl s 1886 1211 m -12 Y s 1886 1199 m cl s 1921 1188 m -17 X s 1904 1188 m cl s 1921 1188 m 18 X s 1939 1188 m cl s 1921 1188 m 15 Y s 1921 1203 m cl s 1921 1188 m -15 Y s 1921 1173 m cl s 1957 1128 m -18 X s 1939 1128 m cl
 s 1957 1128 m 18 X s 1975 1128 m cl s 1957 1128 m 24 Y s 1957 1152 m cl s 1957 1128 m -25 Y s 1957 1103 m cl s 1993 1128 m -18 X s 1975 1128 m cl s 1993 1128 m 18 X s 2011 1128 m cl s 1993 1128 m 24 Y s 1993 1152 m cl s 1993 1128 m -25 Y s 1993 1103
 m cl s 2029 1096 m -18 X s 2011 1096 m cl s 2029 1096 m 18 X s 2047 1096 m cl s 2029 1096 m 30 Y s 2029 1126 m cl s 2029 1096 m -33 Y s 2029 1063 m cl s 2065 1036 m -18 X s 2047 1036 m cl s 2065 1036 m 18 X s 2083 1036 m cl s 2065 1036 m 48 Y s 2065
 1084 m cl s 2065 1036 m -55 Y s 2065 981 m cl s 2101 1036 m -18 X s 2083 1036 m cl s 2101 1036 m 18 X s 2119 1036 m cl s 2101 1036 m 48 Y s 2101 1084 m cl s 2101 1036 m -55 Y s 2101 981 m cl s 2136 1056 m -17 X s 2119 1056 m cl s 2136 1056 m 18 X s
 2154 1056 m cl s 2136 1056 m 42 Y s 2136 1098 m cl s 2136 1056 m -46 Y s 2136 1010 m cl s /w 31 def /w2 {w 2 div} def /w3 {w 3 div} def 381 1036 m20 452 1036 488 959 524 1007 560 1056 596 1056 632 1007 667 1007 703 1072 739 1085 775 1036 811 1056
 847 1134 882 1072 918 1105 954 959 990 1121 1026 1150 1062 1158 1097 1121 1133 1096 1169 1163 1205 1173 1241 1180 1276 1196 1312 1215 1348 1219 1384 1252 1420 1268 1456 1293 1491 1319 1527 1344 1563 1374 1599 1405 1635 1434 1671 1441 1706 1446 1742
 1419 1778 1368 1814 1314 1850 1261 1886 1211 1921 1188 1957 1128 1993 1128 2029 1096 2065 1036 2101 1036 2136 1056 48 { m20} R 0 1 1 c 1 1 0 c black 1 1 0 c 363 1033 m 36 3 d 35 4 d 36 4 d 36 5 d 36 4 d 36 4 d 36 5 d 35 5 d 36 4 d 36 6 d 36 5 d 36 5
 d 36 6 d 35 6 d 36 6 d 36 7 d 36 6 d 36 8 d 36 7 d 35 8 d 36 9 d 36 10 d 36 11 d 36 12 d 36 14 d 35 15 d 36 16 d 36 17 d 36 19 d 36 20 d 18 10 d 18 11 d 17 11 d 18 12 d 9 6 d 9 7 d 9 6 d 9 7 d 9 8 d 9 9 d 5 4 d 4 5 d 5 5 d 4 6 d 5 5 d 4 6 d 9 9 d 18
 16 d 9 6 d 9 5 d 4 3 d 5 2 d 4 2 d 5 1 d 4 2 d 5 1 d 4 1 d 18 X 5 -1 d 4 -1 d 4 -2 d 5 -1 d 4 -2 d 5 -2 d 4 -3 d 9 -6 d 36 -34 d 9 -10 d 9 -12 d 9 -12 d 9 -13 d 9 -14 d 9 -14 d 9 -14 d 9 -14 d 9 -14 d 9 -13 d 9 -12 d 9 -11 d 18 -18 d 18 -16 d 35 -28
 d 36 -28 d 36 -27 d 36 -29 d 36 -31 d 36 -33 d 35 -36 d -150 Y -35 87 d -36 62 d -36 51 d -36 42 d -36 34 d -36 29 d -35 29 d -18 19 d -18 24 d -9 13 d -9 13 d -9 14 d -9 15 d -9 15 d -9 14 d -9 15 d -9 15 d -9 14 d -9 13 d -9 13 d -9 12 d -36 36 d
 -9 5 d -4 3 d -5 2 d -4 2 d -5 2 d -4 1 d -4 1 d -5 1 d -4 1 d -9 X -5 -1 d -4 X -5 -1 d -4 -1 d -5 -2 d -4 -2 d -5 -2 d -4 -2 d -9 -7 d -9 -7 d -18 -19 d -9 -11 d -4 -5 d -5 -5 d -4 -4 d -5 -5 d -4 -4 d -5 -4 d -9 -8 d -9 -8 d -9 -7 d -9 -7 d -9 -7
 d -9 -7 d -18 -12 d -17 -11 d -18 -11 d -18 -10 d -36 -21 d -36 -19 d -36 -19 d -36 -18 d -35 -16 d -36 -14 d -36 -13 d -36 -11 d -36 -10 d -36 -9 d -35 -9 d -36 -8 d -36 -7 d -36 -7 d -36 -7 d -36 -6 d -35 -6 d -36 -6 d -36 -5 d -36 -6 d -36 -5 d
 -36 -5 d -35 -5 d -36 -4 d -36 -5 d -36 -4 d -36 -5 d -36 -4 d -35 -4 d -36 -4 d f 0 1 1 c 0 1 0 c black 0 1 0 c 363 1028 m 36 4 d 35 4 d 36 4 d 36 4 d 36 5 d 36 4 d 36 5 d 35 5 d 36 4 d 36 6 d 36 5 d 36 5 d 36 6 d 35 6 d 36 6 d 36 7 d 36 7 d 36 7 d
 36 8 d 35 8 d 36 9 d 36 10 d 36 11 d 36 12 d 36 14 d 35 15 d 36 16 d 36 18 d 36 19 d 36 20 d 18 10 d 18 11 d 17 11 d 18 12 d 9 6 d 9 7 d 9 7 d 9 7 d 9 8 d 9 8 d 5 5 d 4 4 d 5 5 d 4 5 d 5 6 d 4 5 d 9 10 d 18 16 d 9 7 d 9 5 d 4 3 d 5 2 d 4 2 d 5 1 d 4
 2 d 5 1 d 4 1 d 18 X 5 -1 d 4 -1 d 4 -2 d 5 -1 d 4 -2 d 5 -3 d 4 -2 d 9 -6 d 36 -34 d 9 -11 d 9 -12 d 9 -13 d 9 -13 d 9 -14 d 9 -14 d 9 -14 d 9 -15 d 9 -13 d 9 -14 d 9 -12 d 9 -11 d 18 -19 d 18 -17 d 35 -28 d 36 -28 d 36 -29 d 36 -30 d 36 -33 d 36
 -36 d 35 -39 d -60 Y -35 53 d -36 47 d -36 43 d -36 37 d -36 32 d -36 28 d -35 29 d -18 18 d -18 22 d -9 12 d -9 14 d -9 13 d -9 15 d -9 14 d -9 15 d -9 14 d -9 15 d -9 13 d -9 14 d -9 12 d -9 11 d -36 36 d -9 6 d -4 2 d -5 2 d -4 2 d -5 2 d -4 1 d
 -4 1 d -5 1 d -4 1 d -9 X -5 -1 d -4 X -5 -1 d -4 -1 d -5 -2 d -4 -2 d -5 -2 d -4 -3 d -9 -5 d -9 -8 d -18 -18 d -9 -10 d -4 -6 d -5 -4 d -4 -5 d -5 -5 d -4 -4 d -5 -4 d -9 -8 d -9 -8 d -9 -8 d -9 -7 d -9 -6 d -9 -7 d -18 -12 d -17 -11 d -18 -11 d
 -18 -10 d -36 -20 d -36 -20 d -36 -18 d -36 -18 d -35 -15 d -36 -14 d -36 -13 d -36 -11 d -36 -10 d -36 -9 d -35 -8 d -36 -8 d -36 -8 d -36 -6 d -36 -7 d -36 -6 d -35 -6 d -36 -6 d -36 -6 d -36 -5 d -36 -5 d -36 -5 d -35 -5 d -36 -5 d -36 -4 d -36
 -4 d -36 -5 d -36 -4 d -35 -4 d -36 -4 d f 0 0 1 c 9 lw black 0 0 1 c 363 1024 m 36 4 d 35 4 d 36 4 d 36 4 d 36 4 d 36 5 d 36 5 d 35 4 d 36 5 d 36 5 d 36 6 d 36 5 d 36 6 d 35 6 d 36 6 d 36 7 d 36 7 d 36 7 d 36 8 d 35 8 d 36 9 d 36 10 d 36 11 d 36 12
 d 36 14 d 35 16 d 36 17 d 36 18 d 36 19 d 36 20 d 18 10 d 18 11 d 17 11 d 18 12 d 9 7 d 9 6 d 9 7 d 9 7 d 9 8 d 9 8 d 5 5 d 4 4 d 5 5 d 4 5 d 5 5 d 4 6 d 9 10 d 18 17 d 9 7 d 9 5 d 4 3 d 5 2 d 4 2 d 5 2 d 4 1 d 5 1 d 4 1 d 14 X 4 -1 d 5 X 4 -1 d 4
 -2 d 5 -2 d 4 -1 d 5 -3 d 4 -2 d 9 -6 d 36 -35 d 9 -11 d 9 -12 d 9 -13 d 9 -14 d 9 -14 d 9 -14 d 9 -15 d 9 -14 d 9 -14 d 9 -13 d 9 -13 d 9 -12 d 18 -20 d 18 -17 d 35 -29 d 36 -28 d 36 -30 d 36 -34 d 36 -36 d 36 -40 d 35 -44 d s black 3 lw 381 1036 m
 -18 X s 363 1036 m cl s 381 1036 m 18 X s 399 1036 m cl s 381 1036 m 48 Y s 381 1084 m cl s 381 1036 m -55 Y s 381 981 m cl s 417 634 m -18 X s 399 634 m cl s 417 634 m 17 X s 434 634 m cl s 417 634 m 334 Y s 417 968 m cl s 452 1036 m -18 X s 434
 1036 m cl s 452 1036 m 18 X s 470 1036 m cl s 452 1036 m 48 Y s 452 1084 m cl s 452 1036 m -55 Y s 452 981 m cl s 488 959 m -18 X s 470 959 m cl s 488 959 m 18 X s 506 959 m cl s 488 959 m 84 Y s 488 1043 m cl s 488 959 m -124 Y s 488 835 m cl s 524
 1007 m -18 X s 506 1007 m cl s 524 1007 m 18 X s 542 1007 m cl s 524 1007 m 60 Y s 524 1067 m cl s 524 1007 m -73 Y s 524 934 m cl s 560 1056 m -18 X s 542 1056 m cl s 560 1056 m 18 X s 578 1056 m cl s 560 1056 m 42 Y s 560 1098 m cl s 560 1056 m
 -46 Y s 560 1010 m cl s 596 1056 m -18 X s 578 1056 m cl s 596 1056 m 18 X s 614 1056 m cl s 596 1056 m 42 Y s 596 1098 m cl s 596 1056 m -46 Y s 596 1010 m cl s 632 1007 m -18 X s 614 1007 m cl s 632 1007 m 17 X s 649 1007 m cl s 632 1007 m 60 Y s
 632 1067 m cl s 632 1007 m -73 Y s 632 934 m cl s 667 1007 m -18 X s 649 1007 m cl s 667 1007 m 18 X s 685 1007 m cl s 667 1007 m 60 Y s 667 1067 m cl s 667 1007 m -73 Y s 667 934 m cl s 703 1072 m -18 X s 685 1072 m cl s 703 1072 m 18 X s 721 1072
 m cl s 703 1072 m 37 Y s 703 1109 m cl s 703 1072 m -40 Y s 703 1032 m cl s 739 1085 m -18 X s 721 1085 m cl s 739 1085 m 18 X s 757 1085 m cl s 739 1085 m 33 Y s 739 1118 m cl s 739 1085 m -36 Y s 739 1049 m cl s 775 1036 m -18 X s 757 1036 m cl s
 775 1036 m 18 X s 793 1036 m cl s 775 1036 m 48 Y s 775 1084 m cl s 775 1036 m -55 Y s 775 981 m cl s 811 1056 m -18 X s 793 1056 m cl s 811 1056 m 18 X s 829 1056 m cl s 811 1056 m 42 Y s 811 1098 m cl s 811 1056 m -46 Y s 811 1010 m cl s 847 1134
 m -18 X s 829 1134 m cl s 847 1134 m 17 X s 864 1134 m cl s 847 1134 m 23 Y s 847 1157 m cl s 847 1134 m -24 Y s 847 1110 m cl s 882 1072 m -18 X s 864 1072 m cl s 882 1072 m 18 X s 900 1072 m cl s 882 1072 m 37 Y s 882 1109 m cl s 882 1072 m -40 Y
 s 882 1032 m cl s 918 1105 m -18 X s 900 1105 m cl s 918 1105 m 18 X s 936 1105 m cl s 918 1105 m 29 Y s 918 1134 m cl s 918 1105 m -30 Y s 918 1075 m cl s 954 959 m -18 X s 936 959 m cl s 954 959 m 18 X s 972 959 m cl s 954 959 m 84 Y s 954 1043 m
 cl s 954 959 m -124 Y s 954 835 m cl s 990 1121 m -18 X s 972 1121 m cl s 990 1121 m 18 X s 1008 1121 m cl s 990 1121 m 25 Y s 990 1146 m cl s 990 1121 m -26 Y s 990 1095 m cl s 1026 1150 m -18 X s 1008 1150 m cl s 1026 1150 m 18 X s 1044 1150 m cl
 s 1026 1150 m 20 Y s 1026 1170 m cl s 1026 1150 m -21 Y s 1026 1129 m cl s 1062 1158 m -18 X s 1044 1158 m cl s 1062 1158 m 17 X s 1079 1158 m cl s 1062 1158 m 19 Y s 1062 1177 m cl s 1062 1158 m -19 Y s 1062 1139 m cl s 1097 1121 m -18 X s 1079
 1121 m cl s 1097 1121 m 18 X s 1115 1121 m cl s 1097 1121 m 25 Y s 1097 1146 m cl s 1097 1121 m -26 Y s 1097 1095 m cl s 1133 1096 m -18 X s 1115 1096 m cl s 1133 1096 m 18 X s 1151 1096 m cl s 1133 1096 m 30 Y s 1133 1126 m cl s 1133 1096 m -33 Y s
 1133 1063 m cl s 1169 1163 m -18 X s 1151 1163 m cl s 1169 1163 m 18 X s 1187 1163 m cl s 1169 1163 m 18 Y s 1169 1181 m cl s 1169 1163 m -19 Y s 1169 1144 m cl s 1205 1173 m -18 X s 1187 1173 m cl s 1205 1173 m 18 X s 1223 1173 m cl s 1205 1173 m
 17 Y s 1205 1190 m cl s 1205 1173 m -17 Y s 1205 1156 m cl s 1241 1180 m -18 X s 1223 1180 m cl s 1241 1180 m 18 X s 1259 1180 m cl s 1241 1180 m 16 Y s 1241 1196 m cl s 1241 1180 m -17 Y s 1241 1163 m cl s 1276 1196 m -17 X s 1259 1196 m cl s 1276
 1196 m 18 X s 1294 1196 m cl s 1276 1196 m 14 Y s 1276 1210 m cl s 1276 1196 m -14 Y s 1276 1182 m cl s 1312 1215 m -18 X s 1294 1215 m cl s 1312 1215 m 18 X s 1330 1215 m cl s 1312 1215 m 13 Y s 1312 1228 m cl s 1312 1215 m -12 Y s 1312 1203 m cl s
 1348 1219 m -18 X s 1330 1219 m cl s 1348 1219 m 18 X s 1366 1219 m cl s 1348 1219 m 12 Y s 1348 1231 m cl s 1348 1219 m -12 Y s 1348 1207 m cl s 1384 1252 m -18 X s 1366 1252 m cl s 1384 1252 m 18 X s 1402 1252 m cl s 1384 1252 m 9 Y s 1384 1261 m
 cl s 1384 1252 m -9 Y s 1384 1243 m cl s 1420 1268 m -18 X s 1402 1268 m cl s 1420 1268 m 18 X s 1438 1268 m cl s 1420 1268 m 8 Y s 1420 1276 m cl s 1420 1268 m -9 Y s 1420 1259 m cl s 1456 1293 m -18 X s 1438 1293 m cl s 1456 1293 m 18 X s 1474
 1293 m cl s 1456 1293 m 6 Y s 1456 1299 m cl s 1456 1293 m -7 Y s 1456 1286 m cl s 1491 1319 m -17 X s 1474 1319 m cl s 1491 1319 m 18 X s 1509 1319 m cl s 1491 1319 m 5 Y s 1491 1324 m cl s 1491 1319 m -6 Y s 1491 1313 m cl s 1527 1344 m -18 X s
 1509 1344 m cl s 1527 1344 m 18 X s 1545 1344 m cl s 1527 1344 m 5 Y s 1527 1349 m cl s 1527 1344 m -4 Y s 1527 1340 m cl s 1563 1374 m -18 X s 1545 1374 m cl s 1563 1374 m 18 X s 1581 1374 m cl s 1563 1374 m 4 Y s 1563 1378 m cl s 1563 1374 m -3 Y
 s 1563 1371 m cl s 1599 1405 m -18 X s 1581 1405 m cl s 1599 1405 m 18 X s 1617 1405 m cl s 1599 1405 m 3 Y s 1599 1408 m cl s 1599 1405 m -3 Y s 1599 1402 m cl s 1635 1434 m -18 X s 1617 1434 m cl s 1635 1434 m 18 X s 1653 1434 m cl s 1635 1434 m 2
 Y s 1635 1436 m cl s 1635 1434 m -3 Y s 1635 1431 m cl s 1671 1441 m -18 X s 1653 1441 m cl s 1671 1441 m 18 X s 1689 1441 m cl s 1671 1441 m 2 Y s 1671 1443 m cl s 1671 1441 m -3 Y s 1671 1438 m cl s 1706 1446 m -17 X s 1689 1446 m cl s 1706 1446 m
 18 X s 1724 1446 m cl s 1706 1446 m 2 Y s 1706 1448 m cl s 1706 1446 m -2 Y s 1706 1444 m cl s 1742 1419 m -18 X s 1724 1419 m cl s 1742 1419 m 18 X s 1760 1419 m cl s 1742 1419 m 3 Y s 1742 1422 m cl s 1742 1419 m -3 Y s 1742 1416 m cl s 1778 1368
 m -18 X s 1760 1368 m cl s 1778 1368 m 18 X s 1796 1368 m cl s 1778 1368 m 4 Y s 1778 1372 m cl s 1778 1368 m -4 Y s 1778 1364 m cl s 1814 1314 m -18 X s 1796 1314 m cl s 1814 1314 m 18 X s 1832 1314 m cl s 1814 1314 m 6 Y s 1814 1320 m cl s 1814
 1314 m -6 Y s 1814 1308 m cl s 1850 1261 m -18 X s 1832 1261 m cl s 1850 1261 m 18 X s 1868 1261 m cl s 1850 1261 m 9 Y s 1850 1270 m cl s 1850 1261 m -8 Y s 1850 1253 m cl s 1886 1211 m -18 X s 1868 1211 m cl s 1886 1211 m 18 X s 1904 1211 m cl s
 1886 1211 m 13 Y s 1886 1224 m cl s 1886 1211 m -12 Y s 1886 1199 m cl s 1921 1188 m -17 X s 1904 1188 m cl s 1921 1188 m 18 X s 1939 1188 m cl s 1921 1188 m 15 Y s 1921 1203 m cl s 1921 1188 m -15 Y s 1921 1173 m cl s 1957 1128 m -18 X s 1939 1128
 m cl s 1957 1128 m 18 X s 1975 1128 m cl s 1957 1128 m 24 Y s 1957 1152 m cl s 1957 1128 m -25 Y s 1957 1103 m cl s 1993 1128 m -18 X s 1975 1128 m cl s 1993 1128 m 18 X s 2011 1128 m cl s 1993 1128 m 24 Y s 1993 1152 m cl s 1993 1128 m -25 Y s 1993
 1103 m cl s 2029 1096 m -18 X s 2011 1096 m cl s 2029 1096 m 18 X s 2047 1096 m cl s 2029 1096 m 30 Y s 2029 1126 m cl s 2029 1096 m -33 Y s 2029 1063 m cl s 2065 1036 m -18 X s 2047 1036 m cl s 2065 1036 m 18 X s 2083 1036 m cl s 2065 1036 m 48 Y s
 2065 1084 m cl s 2065 1036 m -55 Y s 2065 981 m cl s 2101 1036 m -18 X s 2083 1036 m cl s 2101 1036 m 18 X s 2119 1036 m cl s 2101 1036 m 48 Y s 2101 1084 m cl s 2101 1036 m -55 Y s 2101 981 m cl s 2136 1056 m -17 X s 2119 1056 m cl s 2136 1056 m 18
 X s 2154 1056 m cl s 2136 1056 m 42 Y s 2136 1098 m cl s 2136 1056 m -46 Y s 2136 1010 m cl s 381 1036 m20 452 1036 488 959 524 1007 560 1056 596 1056 632 1007 667 1007 703 1072 739 1085 775 1036 811 1056 847 1134 882 1072 918 1105 954 959 990 1121
 1026 1150 1062 1158 1097 1121 1133 1096 1169 1163 1205 1173 1241 1180 1276 1196 1312 1215 1348 1219 1384 1252 1420 1268 1456 1293 1491 1319 1527 1344 1563 1374 1599 1405 1635 1434 1671 1441 1706 1446 1742 1419 1778 1368 1814 1314 1850 1261 1886 1211
 1921 1188 1957 1128 1993 1128 2029 1096 2065 1036 2101 1036 2136 1056 48 { m20} R 0.52 0.76 0.64 c[ 4 8] 0 sd 9 lw black 0.52 0.76 0.64 c 363 1024 m 36 4 d 35 4 d 36 4 d 36 4 d 36 4 d 36 5 d 36 5 d 35 4 d 36 5 d 36 5 d 36 6 d 36 5 d 36 6 d 35 6 d 36
 6 d 36 7 d 36 7 d 36 7 d 36 7 d 35 8 d 36 9 d 36 9 d 36 10 d 36 10 d 36 11 d 35 12 d 36 14 d 36 15 d 36 16 d 36 19 d 18 10 d 18 11 d 17 12 d 18 14 d 9 7 d 9 7 d 9 8 d 9 8 d 9 9 d 9 10 d 5 5 d 4 5 d 5 5 d 4 6 d 5 6 d 4 6 d 9 11 d 18 19 d 9 7 d 4 4 d
 5 3 d 4 2 d 5 3 d 4 2 d 5 1 d 4 2 d 5 1 d 4 X 5 1 d 9 X 4 -1 d 5 -1 d 4 -1 d 4 -1 d 5 -2 d 4 -2 d 5 -2 d 4 -3 d 9 -7 d 36 -38 d 9 -12 d 9 -14 d 9 -15 d 5 -9 d 4 -8 d 9 -18 d 9 -19 d 9 -20 d 9 -21 d 9 -23 d 9 -24 d 9 -25 d 9 -27 d 18 -56 d 18 -62 d
 35 -139 d 36 -159 d 20 -100 d s 0.54 0.66 0.63 c black 0.54 0.66 0.63 c 984 634 m 24 43 d s 1008 677 m 36 61 d 35 57 d 36 55 d 36 51 d 36 47 d 36 44 d 18 21 d 18 20 d 17 19 d 18 19 d 18 17 d 18 17 d 18 16 d 18 15 d 18 14 d 18 13 d 18 12 d 18 12 d 18
 11 d 18 9 d 35 18 d 36 14 d 18 5 d 18 5 d 18 4 d 9 2 d 9 1 d 9 1 d 9 1 d 9 1 d 9 1 d 44 X 9 -1 d 9 -1 d 9 -1 d 9 -1 d 9 -2 d 9 -1 d 9 -2 d 18 -5 d 18 -5 d 18 -6 d 18 -7 d 36 -17 d 18 -9 d 18 -10 d 17 -12 d 18 -12 d 18 -13 d 18 -13 d 18 -15 d 18 -15
 d 18 -17 d 18 -17 d 18 -18 d 18 -18 d 18 -20 d 18 -20 d 35 -44 d s black[  ] 0 sd 3 lw 363 634 m 1791 X s 512 659 m -25 Y s 587 646 m -12 Y s 661 646 m -12 Y s 736 646 m -12 Y s 811 659 m -25 Y s 885 646 m -12 Y s 960 646 m -12 Y s 1035 646 m -12 Y
 s 1109 659 m -25 Y s 1184 646 m -12 Y s 1259 646 m -12 Y s 1333 646 m -12 Y s 1408 659 m -25 Y s 1483 646 m -12 Y s 1557 646 m -12 Y s 1632 646 m -12 Y s 1706 659 m -25 Y s 1781 646 m -12 Y s 1856 646 m -12 Y s 1930 646 m -12 Y s 2005 659 m -25 Y s
 512 659 m -25 Y s 437 646 m -12 Y s 363 646 m -12 Y s 2005 659 m -25 Y s 2080 646 m -12 Y s 2154 646 m -12 Y s 363 1484 m 1791 X s 512 1459 m 25 Y s 587 1471 m 13 Y s 661 1471 m 13 Y s 736 1471 m 13 Y s 811 1459 m 25 Y s 885 1471 m 13 Y s 960 1471 m
 13 Y s 1035 1471 m 13 Y s 1109 1459 m 25 Y s 1184 1471 m 13 Y s 1259 1471 m 13 Y s 1333 1471 m 13 Y s 1408 1459 m 25 Y s 1483 1471 m 13 Y s 1557 1471 m 13 Y s 1632 1471 m 13 Y s 1706 1459 m 25 Y s 1781 1471 m 13 Y s 1856 1471 m 13 Y s 1930 1471 m 13
 Y s 2005 1459 m 25 Y s 512 1459 m 25 Y s 437 1471 m 13 Y s 363 1471 m 13 Y s 2005 1459 m 25 Y s 2080 1471 m 13 Y s 2154 1471 m 13 Y s 363 634 m 850 Y s 417 634 m -54 X s 390 683 m -27 X s 390 711 m -27 X s 390 731 m -27 X s 390 747 m -27 X s 390 760
 m -27 X s 390 771 m -27 X s 390 780 m -27 X s 390 789 m -27 X s 417 796 m -54 X s 390 845 m -27 X s 390 874 m -27 X s 390 894 m -27 X s 390 910 m -27 X s 390 923 m -27 X s 390 933 m -27 X s 390 943 m -27 X s 390 951 m -27 X s 417 959 m -54 X s 390
 1007 m -27 X s 390 1036 m -27 X s 390 1056 m -27 X s 390 1072 m -27 X s 390 1085 m -27 X s 390 1096 m -27 X s 390 1105 m -27 X s 390 1114 m -27 X s 417 1121 m -54 X s 390 1170 m -27 X s 390 1199 m -27 X s 390 1219 m -27 X s 390 1235 m -27 X s 390
 1247 m -27 X s 390 1258 m -27 X s 390 1268 m -27 X s 390 1276 m -27 X s 417 1284 m -54 X s 390 1332 m -27 X s 390 1361 m -27 X s 390 1381 m -27 X s 390 1397 m -27 X s 390 1410 m -27 X s 390 1421 m -27 X s 390 1430 m -27 X s 390 1439 m -27 X s 417
 1446 m -54 X s 2154 634 m 850 Y s 2101 634 m 53 X s 2127 683 m 27 X s 2127 711 m 27 X s 2127 731 m 27 X s 2127 747 m 27 X s 2127 760 m 27 X s 2127 771 m 27 X s 2127 780 m 27 X s 2127 789 m 27 X s 2101 796 m 53 X s 2127 845 m 27 X s 2127 874 m 27 X s
 2127 894 m 27 X s 2127 910 m 27 X s 2127 923 m 27 X s 2127 933 m 27 X s 2127 943 m 27 X s 2127 951 m 27 X s 2101 959 m 53 X s 2127 1007 m 27 X s 2127 1036 m 27 X s 2127 1056 m 27 X s 2127 1072 m 27 X s 2127 1085 m 27 X s 2127 1096 m 27 X s 2127 1105
 m 27 X s 2127 1114 m 27 X s 2101 1121 m 53 X s 2127 1170 m 27 X s 2127 1199 m 27 X s 2127 1219 m 27 X s 2127 1235 m 27 X s 2127 1247 m 27 X s 2127 1258 m 27 X s 2127 1268 m 27 X s 2127 1276 m 27 X s 2101 1284 m 53 X s 2127 1332 m 27 X s 2127 1361 m
 27 X s 2127 1381 m 27 X s 2127 1397 m 27 X s 2127 1410 m 27 X s 2127 1421 m 27 X s 2127 1430 m 27 X s 2127 1439 m 27 X s 2101 1446 m 53 X s
 gsave  2268 1077 0 461 C 677.708 1215.31 t 0 r /Helvetica findfont 58.7189 sf 0 0 m (4e) show NC gr  1 1 1 c 453 161 454 1269 bf black
 gsave  2268 1077 0 461 C 566.929 1371.71 t 0 r /Helvetica-Bold findfont 48.9324 sf 0 0 m (MC15) show NC gr  510 1390 m20
 gsave  2268 1077 0 461 C 566.929 1293.51 t 0 r /Helvetica-Bold findfont 48.9324 sf 0 0 m (Projection of Signal pdf) show NC gr  0 0 1 c 9 lw 471 1309 m 79 X s black 3 lw 1 1 1 c 2268 461 0 0 bf black 1 1 1 c 1791 364 363 74 bf black 1791 364 363 74
 bl 363 74 m 1791 X s
 gsave  2268 461 0 0 C 1915.83 13.0329 t 0 r /Helvetica findfont 22.9045 sf 0 0 m (4l Invariant Mass \(GeV\)) show NC gr  512 85 m -11 Y s 587 79 m -5 Y s 661 79 m -5 Y s 736 79 m -5 Y s 811 85 m -11 Y s 885 79 m -5 Y s 960 79 m -5 Y s 1035 79 m -5 Y
 s 1109 85 m -11 Y s 1184 79 m -5 Y s 1259 79 m -5 Y s 1333 79 m -5 Y s 1408 85 m -11 Y s 1483 79 m -5 Y s 1557 79 m -5 Y s 1632 79 m -5 Y s 1706 85 m -11 Y s 1781 79 m -5 Y s 1856 79 m -5 Y s 1930 79 m -5 Y s 2005 85 m -11 Y s 512 85 m -11 Y s 437
 79 m -5 Y s 363 79 m -5 Y s 2005 85 m -11 Y s 2080 79 m -5 Y s 2154 79 m -5 Y s
 gsave  2268 461 0 0 C 491.99 55.3896 t 0 r /Helvetica findfont 22.9045 sf 0 0 m (420) show NC gr 
 gsave  2268 461 0 0 C 788.488 55.3896 t 0 r /Helvetica findfont 22.9045 sf 0 0 m (440) show NC gr 
 gsave  2268 461 0 0 C 1088.24 55.3896 t 0 r /Helvetica findfont 22.9045 sf 0 0 m (460) show NC gr 
 gsave  2268 461 0 0 C 1388 55.3896 t 0 r /Helvetica findfont 22.9045 sf 0 0 m (480) show NC gr 
 gsave  2268 461 0 0 C 1684.5 55.3896 t 0 r /Helvetica findfont 22.9045 sf 0 0 m (500) show NC gr 
 gsave  2268 461 0 0 C 1984.25 55.3896 t 0 r /Helvetica findfont 22.9045 sf 0 0 m (520) show NC gr  363 438 m 1791 X s 512 427 m 11 Y s 587 433 m 5 Y s 661 433 m 5 Y s 736 433 m 5 Y s 811 427 m 11 Y s 885 433 m 5 Y s 960 433 m 5 Y s 1035 433 m 5 Y s
 1109 427 m 11 Y s 1184 433 m 5 Y s 1259 433 m 5 Y s 1333 433 m 5 Y s 1408 427 m 11 Y s 1483 433 m 5 Y s 1557 433 m 5 Y s 1632 433 m 5 Y s 1706 427 m 11 Y s 1781 433 m 5 Y s 1856 433 m 5 Y s 1930 433 m 5 Y s 2005 427 m 11 Y s 512 427 m 11 Y s 437 433
 m 5 Y s 363 433 m 5 Y s 2005 427 m 11 Y s 2080 433 m 5 Y s 2154 433 m 5 Y s 363 74 m 364 Y s 417 74 m -54 X s 390 81 m -27 X s 390 88 m -27 X s 390 96 m -27 X s 390 103 m -27 X s 417 110 m -54 X s 390 118 m -27 X s 390 125 m -27 X s 390 132 m -27 X
 s 390 139 m -27 X s 417 147 m -54 X s 390 154 m -27 X s 390 161 m -27 X s 390 169 m -27 X s 390 176 m -27 X s 417 183 m -54 X s 390 190 m -27 X s 390 198 m -27 X s 390 205 m -27 X s 390 212 m -27 X s 417 220 m -54 X s 390 227 m -27 X s 390 234 m -27
 X s 390 241 m -27 X s 390 249 m -27 X s 417 256 m -54 X s 390 263 m -27 X s 390 271 m -27 X s 390 278 m -27 X s 390 285 m -27 X s 417 293 m -54 X s 390 300 m -27 X s 390 307 m -27 X s 390 314 m -27 X s 390 322 m -27 X s 417 329 m -54 X s 390 336 m
 -27 X s 390 344 m -27 X s 390 351 m -27 X s 390 358 m -27 X s 417 365 m -54 X s 390 373 m -27 X s 390 380 m -27 X s 390 387 m -27 X s 390 395 m -27 X s 417 402 m -54 X s 390 409 m -27 X s 390 416 m -27 X s 390 424 m -27 X s 390 431 m -27 X s 417 438
 m -54 X s
 gsave  2268 461 0 0 C 329.08 65.1643 t 0 r /Helvetica findfont 22.9045 sf 0 0 m (\2555) show NC gr 
 gsave  2268 461 0 0 C 329.08 101.005 t 0 r /Helvetica findfont 22.9045 sf 0 0 m (\2554) show NC gr 
 gsave  2268 461 0 0 C 329.08 140.103 t 0 r /Helvetica findfont 22.9045 sf 0 0 m (\2553) show NC gr 
 gsave  2268 461 0 0 C 329.08 175.944 t 0 r /Helvetica findfont 22.9045 sf 0 0 m (\2552) show NC gr 
 gsave  2268 461 0 0 C 332.338 211.784 t 0 r /Helvetica findfont 22.9045 sf 0 0 m (\2551) show NC gr 
 gsave  2268 461 0 0 C 335.596 247.624 t 0 r /Helvetica findfont 22.9045 sf 0 0 m (0) show NC gr 
 gsave  2268 461 0 0 C 338.854 283.465 t 0 r /Helvetica findfont 22.9045 sf 0 0 m (1) show NC gr 
 gsave  2268 461 0 0 C 335.596 319.305 t 0 r /Helvetica findfont 22.9045 sf 0 0 m (2) show NC gr 
 gsave  2268 461 0 0 C 335.596 358.403 t 0 r /Helvetica findfont 22.9045 sf 0 0 m (3) show NC gr 
 gsave  2268 461 0 0 C 335.596 394.244 t 0 r /Helvetica findfont 22.9045 sf 0 0 m (4) show NC gr 
 gsave  2268 461 0 0 C 335.596 430.084 t 0 r /Helvetica findfont 22.9045 sf 0 0 m (5) show NC gr  2154 74 m 364 Y s 2101 74 m 53 X s 2127 81 m 27 X s 2127 88 m 27 X s 2127 96 m 27 X s 2127 103 m 27 X s 2101 110 m 53 X s 2127 118 m 27 X s 2127 125 m
 27 X s 2127 132 m 27 X s 2127 139 m 27 X s 2101 147 m 53 X s 2127 154 m 27 X s 2127 161 m 27 X s 2127 169 m 27 X s 2127 176 m 27 X s 2101 183 m 53 X s 2127 190 m 27 X s 2127 198 m 27 X s 2127 205 m 27 X s 2127 212 m 27 X s 2101 220 m 53 X s 2127 227
 m 27 X s 2127 234 m 27 X s 2127 241 m 27 X s 2127 249 m 27 X s 2101 256 m 53 X s 2127 263 m 27 X s 2127 271 m 27 X s 2127 278 m 27 X s 2127 285 m 27 X s 2101 293 m 53 X s 2127 300 m 27 X s 2127 307 m 27 X s 2127 314 m 27 X s 2127 322 m 27 X s 2101
 329 m 53 X s 2127 336 m 27 X s 2127 344 m 27 X s 2127 351 m 27 X s 2127 358 m 27 X s 2101 365 m 53 X s 2127 373 m 27 X s 2127 380 m 27 X s 2127 387 m 27 X s 2127 395 m 27 X s 2101 402 m 53 X s 2127 409 m 27 X s 2127 416 m 27 X s 2127 424 m 27 X s
 2127 431 m 27 X s 2101 438 m 53 X s 6 lw 0.2 0.8 0.2 c black 3 lw 0.2 0.8 0.2 c 363 256 m 9 Y 36 X -96 Y 35 X 89 Y 36 X -35 Y 36 X 15 Y 36 X 28 Y 36 X -5 Y 36 X -32 Y 35 X -4 Y 36 X 38 Y 36 X 9 Y 36 X -45 Y 36 X 9 Y 36 X 81 Y 35 X -81 Y 36 X 27 Y 36
 X -122 Y 36 X 126 Y 36 X 35 Y 36 X 5 Y 35 X -75 Y 36 X -50 Y 36 X 82 Y 36 X -1 Y 36 X -15 Y 36 X 3 Y 35 X 7 Y 36 X -43 Y 36 X 46 Y 36 X -16 Y 36 X 26 Y 36 X 29 Y 35 X 10 Y 36 X 12 Y 36 X -84 Y 36 X -24 Y 36 X -76 Y 36 X 208 Y 35 X -32 Y 36 X -92 Y
 36 X 16 Y 36 X 21 Y 36 X -14 Y 36 X 19 Y 35 X -55 Y 36 X 46 Y 72 X -16 Y 36 X 27 Y 36 X 39 Y 35 X -49 Y f 6 lw black 0.2 0.8 0.2 c black 363 265 m 36 X -96 Y 35 X 89 Y 36 X -35 Y 36 X 15 Y 36 X 28 Y 36 X -5 Y 36 X -32 Y 35 X -4 Y 36 X 38 Y 36 X 9 Y
 36 X -45 Y 36 X 9 Y 36 X 81 Y 35 X -81 Y 36 X 27 Y 36 X -122 Y 36 X 126 Y 36 X 35 Y 36 X 5 Y 35 X -75 Y 36 X -50 Y 36 X 82 Y 36 X -1 Y 36 X -15 Y 36 X 3 Y 35 X 7 Y 36 X -43 Y 36 X 46 Y 36 X -16 Y 36 X 26 Y 36 X 29 Y 35 X 10 Y 36 X 12 Y 36 X -84 Y 36
 X -24 Y 36 X -76 Y 36 X 208 Y 35 X -32 Y 36 X -92 Y 36 X 16 Y 36 X 21 Y 36 X -14 Y 36 X 19 Y 35 X -55 Y 36 X 46 Y 72 X -16 Y 36 X 27 Y 36 X 39 Y 35 X s 3 lw 363 74 m 1791 X s 512 85 m -11 Y s 587 79 m -5 Y s 661 79 m -5 Y s 736 79 m -5 Y s 811 85 m
 -11 Y s 885 79 m -5 Y s 960 79 m -5 Y s 1035 79 m -5 Y s 1109 85 m -11 Y s 1184 79 m -5 Y s 1259 79 m -5 Y s 1333 79 m -5 Y s 1408 85 m -11 Y s 1483 79 m -5 Y s 1557 79 m -5 Y s 1632 79 m -5 Y s 1706 85 m -11 Y s 1781 79 m -5 Y s 1856 79 m -5 Y s
 1930 79 m -5 Y s 2005 85 m -11 Y s 512 85 m -11 Y s 437 79 m -5 Y s 363 79 m -5 Y s 2005 85 m -11 Y s 2080 79 m -5 Y s 2154 79 m -5 Y s 363 438 m 1791 X s 512 427 m 11 Y s 587 433 m 5 Y s 661 433 m 5 Y s 736 433 m 5 Y s 811 427 m 11 Y s 885 433 m 5
 Y s 960 433 m 5 Y s 1035 433 m 5 Y s 1109 427 m 11 Y s 1184 433 m 5 Y s 1259 433 m 5 Y s 1333 433 m 5 Y s 1408 427 m 11 Y s 1483 433 m 5 Y s 1557 433 m 5 Y s 1632 433 m 5 Y s 1706 427 m 11 Y s 1781 433 m 5 Y s 1856 433 m 5 Y s 1930 433 m 5 Y s 2005
 427 m 11 Y s 512 427 m 11 Y s 437 433 m 5 Y s 363 433 m 5 Y s 2005 427 m 11 Y s 2080 433 m 5 Y s 2154 433 m 5 Y s 363 74 m 364 Y s 417 74 m -54 X s 390 81 m -27 X s 390 88 m -27 X s 390 96 m -27 X s 390 103 m -27 X s 417 110 m -54 X s 390 118 m -27
 X s 390 125 m -27 X s 390 132 m -27 X s 390 139 m -27 X s 417 147 m -54 X s 390 154 m -27 X s 390 161 m -27 X s 390 169 m -27 X s 390 176 m -27 X s 417 183 m -54 X s 390 190 m -27 X s 390 198 m -27 X s 390 205 m -27 X s 390 212 m -27 X s 417 220 m
 -54 X s 390 227 m -27 X s 390 234 m -27 X s 390 241 m -27 X s 390 249 m -27 X s 417 256 m -54 X s 390 263 m -27 X s 390 271 m -27 X s 390 278 m -27 X s 390 285 m -27 X s 417 293 m -54 X s 390 300 m -27 X s 390 307 m -27 X s 390 314 m -27 X s 390 322
 m -27 X s 417 329 m -54 X s 390 336 m -27 X s 390 344 m -27 X s 390 351 m -27 X s 390 358 m -27 X s 417 365 m -54 X s 390 373 m -27 X s 390 380 m -27 X s 390 387 m -27 X s 390 395 m -27 X s 417 402 m -54 X s 390 409 m -27 X s 390 416 m -27 X s 390
 424 m -27 X s 390 431 m -27 X s 417 438 m -54 X s 2154 74 m 364 Y s 2101 74 m 53 X s 2127 81 m 27 X s 2127 88 m 27 X s 2127 96 m 27 X s 2127 103 m 27 X s 2101 110 m 53 X s 2127 118 m 27 X s 2127 125 m 27 X s 2127 132 m 27 X s 2127 139 m 27 X s 2101
 147 m 53 X s 2127 154 m 27 X s 2127 161 m 27 X s 2127 169 m 27 X s 2127 176 m 27 X s 2101 183 m 53 X s 2127 190 m 27 X s 2127 198 m 27 X s 2127 205 m 27 X s 2127 212 m 27 X s 2101 220 m 53 X s 2127 227 m 27 X s 2127 234 m 27 X s 2127 241 m 27 X s
 2127 249 m 27 X s 2101 256 m 53 X s 2127 263 m 27 X s 2127 271 m 27 X s 2127 278 m 27 X s 2127 285 m 27 X s 2101 293 m 53 X s 2127 300 m 27 X s 2127 307 m 27 X s 2127 314 m 27 X s 2127 322 m 27 X s 2101 329 m 53 X s 2127 336 m 27 X s 2127 344 m 27 X
 s 2127 351 m 27 X s 2127 358 m 27 X s 2101 365 m 53 X s 2127 373 m 27 X s 2127 380 m 27 X s 2127 387 m 27 X s 2127 395 m 27 X s 2101 402 m 53 X s 2127 409 m 27 X s 2127 416 m 27 X s 2127 424 m 27 X s 2127 431 m 27 X s 2101 438 m 53 X s
 gr  gr showpage
end
%%EOF
