%!PS-Adobe-2.0 EPSF-2.0
%%BoundingBox:  0 0 567 384
%%Title: H4l2015_plotfit/VBF_mass_signal_900_H4l_2mu2e.eps: 
%%Creator: ROOT Version 5.34/07
%%CreationDate: Mon Nov  9 16:28:39 2015
%%EndComments
%%BeginProlog
80 dict begin
/s {stroke} def /l {lineto} def /m {moveto} def /t {translate} def
/r {rotate} def /rl {roll}  def /R {repeat} def
/d {rlineto} def /rm {rmoveto} def /gr {grestore} def /f {eofill} def
/c {setrgbcolor} def /black {0 setgray} def /sd {setdash} def
/cl {closepath} def /sf {scalefont setfont} def /lw {setlinewidth} def
/box {m dup 0 exch d exch 0 d 0 exch neg d cl} def
/NC{systemdict begin initclip end}def/C{NC box clip newpath}def
/bl {box s} def /bf {box f} def /Y { 0 exch d} def /X { 0 d} def 
/K {{pop pop 0 moveto} exch kshow} bind def
/ita {/ang 15 def gsave [1 0 ang dup sin exch cos div 1 0 0] concat} def 
/mp {newpath /y exch def /x exch def} def
/side {[w .77 mul w .23 mul] .385 w mul sd w 0 l currentpoint t -144 r} def
/mr {mp x y w2 0 360 arc} def /m24 {mr s} def /m20 {mr f} def
/mb {mp x y w2 add m w2 neg 0 d 0 w neg d w 0 d 0 w d cl} def
/mt {mp x y w2 add m w2 neg w neg d w 0 d cl} def
/m21 {mb f} def /m25 {mb s} def /m22 {mt f} def /m26{mt s} def
/m23 {mp x y w2 sub m w2 w d w neg 0 d cl f} def
/m27 {mp x y w2 add m w3 neg w2 neg d w3 w2 neg d w3 w2 d cl s} def
/m28 {mp x w2 sub y w2 sub w3 add m w3 0 d  0 w3 neg d w3 0 d 0 w3 d w3 0 d  0 w3 d w3 neg 0 d 0 w3 d w3 neg 0 d 0 w3 neg d w3 neg 0 d cl s } def
/m29 {mp gsave x w2 sub y w2 add w3 sub m currentpoint t 4 {side} repeat cl fill gr} def
/m30 {mp gsave x w2 sub y w2 add w3 sub m currentpoint t 4 {side} repeat cl s gr} def
/m31 {mp x y w2 sub m 0 w d x w2 sub y m w 0 d x w2 sub y w2 add m w w neg d x w2 sub y w2 sub m w w d s} def
/m32 {mp x y w2 sub m w2 w d w neg 0 d cl s} def
/m33 {mp x y w2 add m w3 neg w2 neg d w3 w2 neg d w3 w2 d cl f} def
/m34 {mp x w2 sub y w2 sub w3 add m w3 0 d  0 w3 neg d w3 0 d 0 w3 d w3 0 d  0 w3 d w3 neg 0 d 0 w3 d w3 neg 0 d 0 w3 neg d w3 neg 0 d cl f } def
/m2 {mp x y w2 sub m 0 w d x w2 sub y m w 0 d s} def
/m5 {mp x w2 sub y w2 sub m w w d x w2 sub y w2 add m w w neg d s} def
/reEncode {exch findfont dup length dict begin {1 index /FID eq  {pop pop} {def} ifelse } forall /Encoding exch def currentdict end dup /FontName get exch definefont pop } def [/Times-Bold /Times-Italic /Times-BoldItalic /Helvetica /Helvetica-Oblique
 /Helvetica-Bold /Helvetica-BoldOblique /Courier /Courier-Oblique /Courier-Bold /Courier-BoldOblique /Times-Roman /AvantGarde-Book /AvantGarde-BookOblique /AvantGarde-Demi /AvantGarde-DemiOblique /Bookman-Demi /Bookman-DemiItalic /Bookman-Light
 /Bookman-LightItalic /Helvetica-Narrow /Helvetica-Narrow-Bold /Helvetica-Narrow-BoldOblique /Helvetica-Narrow-Oblique /NewCenturySchlbk-Roman /NewCenturySchlbk-Bold /NewCenturySchlbk-BoldItalic /NewCenturySchlbk-Italic /Palatino-Bold
 /Palatino-BoldItalic /Palatino-Italic /Palatino-Roman ] {ISOLatin1Encoding reEncode } forall
%%EndProlog
%%BeginSetup
%%EndSetup
newpath  gsave  .25 .25 scale  gsave  0 0 t black[  ] 0 sd 3 lw 1 1 1 c 2268 1538 0 0 bf black 1 1 1 c 2222 738 23 784 bf black 1 1 1 c 2222 739 23 15 bf black 1 1 1 c 2268 1077 0 461 bf black 1 1 1 c 1791 850 363 634 bf black 1791 850 363 634 bl 363
 634 m 1791 X s
 gsave  2268 1077 0 461 C 1642.14 498.507 t 0 r /Helvetica findfont 48.9324 sf 0 0 m (4l Invariant Mass \(GeV\)) show NC gr  610 659 m -25 Y s 672 646 m -12 Y s 733 646 m -12 Y s 795 646 m -12 Y s 857 646 m -12 Y s 919 659 m -25 Y s 981 646 m -12 Y s
 1042 646 m -12 Y s 1104 646 m -12 Y s 1166 646 m -12 Y s 1228 659 m -25 Y s 1289 646 m -12 Y s 1351 646 m -12 Y s 1413 646 m -12 Y s 1475 646 m -12 Y s 1537 659 m -25 Y s 1598 646 m -12 Y s 1660 646 m -12 Y s 1722 646 m -12 Y s 1784 646 m -12 Y s
 1845 659 m -25 Y s 1907 646 m -12 Y s 1969 646 m -12 Y s 2031 646 m -12 Y s 2093 646 m -12 Y s 2154 659 m -25 Y s 610 659 m -25 Y s 548 646 m -12 Y s 486 646 m -12 Y s 425 646 m -12 Y s 363 646 m -12 Y s
 gsave  2268 1077 0 461 C 566.929 586.478 t 0 r /Helvetica findfont 48.9324 sf 0 0 m (750) show NC gr 
 gsave  2268 1077 0 461 C 876.459 586.478 t 0 r /Helvetica findfont 48.9324 sf 0 0 m (800) show NC gr 
 gsave  2268 1077 0 461 C 1182.73 586.478 t 0 r /Helvetica findfont 48.9324 sf 0 0 m (850) show NC gr 
 gsave  2268 1077 0 461 C 1492.26 586.478 t 0 r /Helvetica findfont 48.9324 sf 0 0 m (900) show NC gr 
 gsave  2268 1077 0 461 C 1801.79 586.478 t 0 r /Helvetica findfont 48.9324 sf 0 0 m (950) show NC gr 
 gsave  2268 1077 0 461 C 2098.29 586.478 t 0 r /Helvetica findfont 48.9324 sf 0 0 m (1000) show NC gr  363 1484 m 1791 X s 610 1459 m 25 Y s 672 1471 m 13 Y s 733 1471 m 13 Y s 795 1471 m 13 Y s 857 1471 m 13 Y s 919 1459 m 25 Y s 981 1471 m 13 Y s
 1042 1471 m 13 Y s 1104 1471 m 13 Y s 1166 1471 m 13 Y s 1228 1459 m 25 Y s 1289 1471 m 13 Y s 1351 1471 m 13 Y s 1413 1471 m 13 Y s 1475 1471 m 13 Y s 1537 1459 m 25 Y s 1598 1471 m 13 Y s 1660 1471 m 13 Y s 1722 1471 m 13 Y s 1784 1471 m 13 Y s
 1845 1459 m 25 Y s 1907 1471 m 13 Y s 1969 1471 m 13 Y s 2031 1471 m 13 Y s 2093 1471 m 13 Y s 2154 1459 m 25 Y s 610 1459 m 25 Y s 548 1471 m 13 Y s 486 1471 m 13 Y s 425 1471 m 13 Y s 363 1471 m 13 Y s 363 634 m 850 Y s
 gsave  2268 1077 0 461 C 120.554 1058.92 t 90 r /Helvetica findfont 48.9324 sf 0 0 m (Events / \( 5.8 GeV \)) show NC gr  417 634 m -54 X s
 gsave  2268 1077 0 461 C 312.788 632.093 t 0 r /Helvetica findfont 32.6216 sf 0 0 m (\2552) show NC gr 
 gsave  2268 1077 0 461 C 260.657 612.544 t 0 r /Helvetica findfont 48.9324 sf 0 0 m (10) show NC gr  390 681 m -27 X s 390 709 m -27 X s 390 728 m -27 X s 390 744 m -27 X s 390 756 m -27 X s 390 766 m -27 X s 390 776 m -27 X s 390 784 m -27 X s 417
 791 m -54 X s
 gsave  2268 1077 0 461 C 319.305 788.488 t 0 r /Helvetica findfont 32.6216 sf 0 0 m (\2551) show NC gr 
 gsave  2268 1077 0 461 C 267.173 768.938 t 0 r /Helvetica findfont 48.9324 sf 0 0 m (10) show NC gr  390 838 m -27 X s 390 866 m -27 X s 390 886 m -27 X s 390 901 m -27 X s 390 913 m -27 X s 390 924 m -27 X s 390 933 m -27 X s 390 941 m -27 X s 417
 948 m -54 X s
 gsave  2268 1077 0 461 C 342.425 927.254 t 0 r  -27 0 t /Helvetica findfont 48.9324 sf 0 0 m (1) show NC gr  390 995 m -27 X s 390 1023 m -27 X s 390 1043 m -27 X s 390 1058 m -27 X s 390 1070 m -27 X s 390 1081 m -27 X s 390 1090 m -27 X s 390 1098
 m -27 X s 417 1105 m -54 X s
 gsave  2268 1077 0 461 C 342.425 1084.5 t 0 r  -55 0 t /Helvetica findfont 48.9324 sf 0 0 m (10) show NC gr  390 1153 m -27 X s 390 1180 m -27 X s 390 1200 m -27 X s 390 1215 m -27 X s 390 1228 m -27 X s 390 1238 m -27 X s 390 1247 m -27 X s 390
 1255 m -27 X s 417 1263 m -54 X s
 gsave  2268 1077 0 461 C 322.563 1260.93 t 0 r /Helvetica findfont 32.6216 sf 0 0 m (2) show NC gr 
 gsave  2268 1077 0 461 C 270.432 1241.38 t 0 r /Helvetica findfont 48.9324 sf 0 0 m (10) show NC gr  390 1310 m -27 X s 390 1338 m -27 X s 390 1357 m -27 X s 390 1373 m -27 X s 390 1385 m -27 X s 390 1396 m -27 X s 390 1405 m -27 X s 390 1413 m -27
 X s 417 1420 m -54 X s
 gsave  2268 1077 0 461 C 322.563 1420.58 t 0 r /Helvetica findfont 32.6216 sf 0 0 m (3) show NC gr 
 gsave  2268 1077 0 461 C 270.432 1397.77 t 0 r /Helvetica findfont 48.9324 sf 0 0 m (10) show NC gr  390 1467 m -27 X s 2154 634 m 850 Y s 2101 634 m 53 X s 2127 681 m 27 X s 2127 709 m 27 X s 2127 728 m 27 X s 2127 744 m 27 X s 2127 756 m 27 X s
 2127 766 m 27 X s 2127 776 m 27 X s 2127 784 m 27 X s 2101 791 m 53 X s 2127 838 m 27 X s 2127 866 m 27 X s 2127 886 m 27 X s 2127 901 m 27 X s 2127 913 m 27 X s 2127 924 m 27 X s 2127 933 m 27 X s 2127 941 m 27 X s 2101 948 m 53 X s 2127 995 m 27 X
 s 2127 1023 m 27 X s 2127 1043 m 27 X s 2127 1058 m 27 X s 2127 1070 m 27 X s 2127 1081 m 27 X s 2127 1090 m 27 X s 2127 1098 m 27 X s 2101 1105 m 53 X s 2127 1153 m 27 X s 2127 1180 m 27 X s 2127 1200 m 27 X s 2127 1215 m 27 X s 2127 1228 m 27 X s
 2127 1238 m 27 X s 2127 1247 m 27 X s 2127 1255 m 27 X s 2101 1263 m 53 X s 2127 1310 m 27 X s 2127 1338 m 27 X s 2127 1357 m 27 X s 2127 1373 m 27 X s 2127 1385 m 27 X s 2127 1396 m 27 X s 2127 1405 m 27 X s 2127 1413 m 27 X s 2101 1420 m 53 X s
 2127 1467 m 27 X s 381 1137 m -18 X s 363 1137 m cl s 381 1137 m 18 X s 399 1137 m cl s 381 1137 m 19 Y s 381 1156 m cl s 381 1137 m -19 Y s 381 1118 m cl s 417 1058 m -18 X s 399 1058 m cl s 417 1058 m 17 X s 434 1058 m cl s 417 1058 m 35 Y s 417
 1093 m cl s 417 1058 m -39 Y s 417 1019 m cl s 452 1118 m -18 X s 434 1118 m cl s 452 1118 m 18 X s 470 1118 m cl s 452 1118 m 22 Y s 452 1140 m cl s 452 1118 m -23 Y s 452 1095 m cl s 488 1090 m -18 X s 470 1090 m cl s 488 1090 m 18 X s 506 1090 m
 cl s 488 1090 m 27 Y s 488 1117 m cl s 488 1090 m -29 Y s 488 1061 m cl s 524 1123 m -18 X s 506 1123 m cl s 524 1123 m 18 X s 542 1123 m cl s 524 1123 m 21 Y s 524 1144 m cl s 524 1123 m -22 Y s 524 1101 m cl s 560 1133 m -18 X s 542 1133 m cl s
 560 1133 m 18 X s 578 1133 m cl s 560 1133 m 20 Y s 560 1153 m cl s 560 1133 m -20 Y s 560 1113 m cl s 596 1128 m -18 X s 578 1128 m cl s 596 1128 m 18 X s 614 1128 m cl s 596 1128 m 21 Y s 596 1149 m cl s 596 1128 m -21 Y s 596 1107 m cl s 632 1168
 m -18 X s 614 1168 m cl s 632 1168 m 17 X s 649 1168 m cl s 632 1168 m 15 Y s 632 1183 m cl s 632 1168 m -15 Y s 632 1153 m cl s 667 1168 m -18 X s 649 1168 m cl s 667 1168 m 18 X s 685 1168 m cl s 667 1168 m 15 Y s 667 1183 m cl s 667 1168 m -15 Y
 s 667 1153 m cl s 703 1137 m -18 X s 685 1137 m cl s 703 1137 m 18 X s 721 1137 m cl s 703 1137 m 19 Y s 703 1156 m cl s 703 1137 m -19 Y s 703 1118 m cl s 739 1123 m -18 X s 721 1123 m cl s 739 1123 m 18 X s 757 1123 m cl s 739 1123 m 21 Y s 739
 1144 m cl s 739 1123 m -22 Y s 739 1101 m cl s 775 1183 m -18 X s 757 1183 m cl s 775 1183 m 18 X s 793 1183 m cl s 775 1183 m 13 Y s 775 1196 m cl s 775 1183 m -14 Y s 775 1169 m cl s 811 1142 m -18 X s 793 1142 m cl s 811 1142 m 18 X s 829 1142 m
 cl s 811 1142 m 18 Y s 811 1160 m cl s 811 1142 m -19 Y s 811 1123 m cl s 847 1183 m -18 X s 829 1183 m cl s 847 1183 m 17 X s 864 1183 m cl s 847 1183 m 13 Y s 847 1196 m cl s 847 1183 m -14 Y s 847 1169 m cl s 882 1200 m -18 X s 864 1200 m cl s
 882 1200 m 18 X s 900 1200 m cl s 882 1200 m 12 Y s 882 1212 m cl s 882 1200 m -12 Y s 882 1188 m cl s 918 1197 m -18 X s 900 1197 m cl s 918 1197 m 18 X s 936 1197 m cl s 918 1197 m 11 Y s 918 1208 m cl s 918 1197 m -13 Y s 918 1184 m cl s 954 1200
 m -18 X s 936 1200 m cl s 954 1200 m 18 X s 972 1200 m cl s 954 1200 m 12 Y s 954 1212 m cl s 954 1200 m -12 Y s 954 1188 m cl s 990 1208 m -18 X s 972 1208 m cl s 990 1208 m 18 X s 1008 1208 m cl s 990 1208 m 11 Y s 990 1219 m cl s 990 1208 m -11 Y
 s 990 1197 m cl s 1026 1224 m -18 X s 1008 1224 m cl s 1026 1224 m 18 X s 1044 1224 m cl s 1026 1224 m 10 Y s 1026 1234 m cl s 1026 1224 m -9 Y s 1026 1215 m cl s 1062 1252 m -18 X s 1044 1252 m cl s 1062 1252 m 17 X s 1079 1252 m cl s 1062 1252 m 8
 Y s 1062 1260 m cl s 1062 1252 m -7 Y s 1062 1245 m cl s 1097 1252 m -18 X s 1079 1252 m cl s 1097 1252 m 18 X s 1115 1252 m cl s 1097 1252 m 7 Y s 1097 1259 m cl s 1097 1252 m -8 Y s 1097 1244 m cl s 1133 1270 m -18 X s 1115 1270 m cl s 1133 1270 m
 18 X s 1151 1270 m cl s 1133 1270 m 7 Y s 1133 1277 m cl s 1133 1270 m -6 Y s 1133 1264 m cl s 1169 1277 m -18 X s 1151 1277 m cl s 1169 1277 m 18 X s 1187 1277 m cl s 1169 1277 m 6 Y s 1169 1283 m cl s 1169 1277 m -6 Y s 1169 1271 m cl s 1205 1314
 m -18 X s 1187 1314 m cl s 1205 1314 m 18 X s 1223 1314 m cl s 1205 1314 m 4 Y s 1205 1318 m cl s 1205 1314 m -5 Y s 1205 1309 m cl s 1241 1335 m -18 X s 1223 1335 m cl s 1241 1335 m 18 X s 1259 1335 m cl s 1241 1335 m 4 Y s 1241 1339 m cl s 1241
 1335 m -4 Y s 1241 1331 m cl s 1276 1353 m -17 X s 1259 1353 m cl s 1276 1353 m 18 X s 1294 1353 m cl s 1276 1353 m 3 Y s 1276 1356 m cl s 1276 1353 m -4 Y s 1276 1349 m cl s 1312 1372 m -18 X s 1294 1372 m cl s 1312 1372 m 18 X s 1330 1372 m cl s
 1312 1372 m 3 Y s 1312 1375 m cl s 1312 1372 m -4 Y s 1312 1368 m cl s 1348 1391 m -18 X s 1330 1391 m cl s 1348 1391 m 18 X s 1366 1391 m cl s 1348 1391 m 2 Y s 1348 1393 m cl s 1348 1391 m -3 Y s 1348 1388 m cl s 1384 1414 m -18 X s 1366 1414 m cl
 s 1384 1414 m 18 X s 1402 1414 m cl s 1384 1414 m 3 Y s 1384 1417 m cl s 1384 1414 m -2 Y s 1384 1412 m cl s 1420 1428 m -18 X s 1402 1428 m cl s 1420 1428 m 18 X s 1438 1428 m cl s 1420 1428 m 2 Y s 1420 1430 m cl s 1420 1428 m -2 Y s 1420 1426 m
 cl s 1456 1440 m -18 X s 1438 1440 m cl s 1456 1440 m 18 X s 1474 1440 m cl s 1456 1440 m 2 Y s 1456 1442 m cl s 1456 1440 m -2 Y s 1456 1438 m cl s 1491 1450 m -17 X s 1474 1450 m cl s 1491 1450 m 18 X s 1509 1450 m cl s 1491 1450 m 2 Y s 1491 1452
 m cl s 1491 1450 m -2 Y s 1491 1448 m cl s 1527 1451 m -18 X s 1509 1451 m cl s 1527 1451 m 18 X s 1545 1451 m cl s 1527 1451 m 2 Y s 1527 1453 m cl s 1527 1451 m -1 Y s 1527 1450 m cl s 1563 1444 m -18 X s 1545 1444 m cl s 1563 1444 m 18 X s 1581
 1444 m cl s 1563 1444 m 2 Y s 1563 1446 m cl s 1563 1444 m -2 Y s 1563 1442 m cl s 1599 1430 m -18 X s 1581 1430 m cl s 1599 1430 m 18 X s 1617 1430 m cl s 1599 1430 m 2 Y s 1599 1432 m cl s 1599 1430 m -2 Y s 1599 1428 m cl s 1635 1410 m -18 X s
 1617 1410 m cl s 1635 1410 m 18 X s 1653 1410 m cl s 1635 1410 m 2 Y s 1635 1412 m cl s 1635 1410 m -2 Y s 1635 1408 m cl s 1671 1382 m -18 X s 1653 1382 m cl s 1671 1382 m 18 X s 1689 1382 m cl s 1671 1382 m 3 Y s 1671 1385 m cl s 1671 1382 m -3 Y
 s 1671 1379 m cl s 1706 1368 m -17 X s 1689 1368 m cl s 1706 1368 m 18 X s 1724 1368 m cl s 1706 1368 m 3 Y s 1706 1371 m cl s 1706 1368 m -4 Y s 1706 1364 m cl s 1742 1341 m -18 X s 1724 1341 m cl s 1742 1341 m 18 X s 1760 1341 m cl s 1742 1341 m 4
 Y s 1742 1345 m cl s 1742 1341 m -4 Y s 1742 1337 m cl s 1778 1316 m -18 X s 1760 1316 m cl s 1778 1316 m 18 X s 1796 1316 m cl s 1778 1316 m 5 Y s 1778 1321 m cl s 1778 1316 m -4 Y s 1778 1312 m cl s 1814 1288 m -18 X s 1796 1288 m cl s 1814 1288 m
 18 X s 1832 1288 m cl s 1814 1288 m 5 Y s 1814 1293 m cl s 1814 1288 m -6 Y s 1814 1282 m cl s 1850 1271 m -18 X s 1832 1271 m cl s 1850 1271 m 18 X s 1868 1271 m cl s 1850 1271 m 6 Y s 1850 1277 m cl s 1850 1271 m -6 Y s 1850 1265 m cl s 1886 1232
 m -18 X s 1868 1232 m cl s 1886 1232 m 18 X s 1904 1232 m cl s 1886 1232 m 9 Y s 1886 1241 m cl s 1886 1232 m -9 Y s 1886 1223 m cl s 1921 1224 m -17 X s 1904 1224 m cl s 1921 1224 m 18 X s 1939 1224 m cl s 1921 1224 m 10 Y s 1921 1234 m cl s 1921
 1224 m -9 Y s 1921 1215 m cl s 1957 1207 m -18 X s 1939 1207 m cl s 1957 1207 m 18 X s 1975 1207 m cl s 1957 1207 m 11 Y s 1957 1218 m cl s 1957 1207 m -12 Y s 1957 1195 m cl s 1993 1153 m -18 X s 1975 1153 m cl s 1993 1153 m 18 X s 2011 1153 m cl s
 1993 1153 m 16 Y s 1993 1169 m cl s 1993 1153 m -17 Y s 1993 1136 m cl s 2029 1149 m -18 X s 2011 1149 m cl s 2029 1149 m 18 X s 2047 1149 m cl s 2029 1149 m 17 Y s 2029 1166 m cl s 2029 1149 m -17 Y s 2029 1132 m cl s 2065 1145 m -18 X s 2047 1145
 m cl s 2065 1145 m 18 X s 2083 1145 m cl s 2065 1145 m 18 Y s 2065 1163 m cl s 2065 1145 m -18 Y s 2065 1127 m cl s 2101 1137 m -18 X s 2083 1137 m cl s 2101 1137 m 18 X s 2119 1137 m cl s 2101 1137 m 19 Y s 2101 1156 m cl s 2101 1137 m -19 Y s 2101
 1118 m cl s 2136 1070 m -17 X s 2119 1070 m cl s 2136 1070 m 18 X s 2154 1070 m cl s 2136 1070 m 32 Y s 2136 1102 m cl s 2136 1070 m -34 Y s 2136 1036 m cl s /w 31 def /w2 {w 2 div} def /w3 {w 3 div} def 381 1137 417 1058 452 1118 488 1090 524 1123
 560 1133 596 1128 632 1168 667 1168 703 1137 739 1123 775 1183 811 1142 847 1183 882 1200 918 1197 954 1200 990 1208 1026 1224 1062 1252 1097 1252 1133 1270 1169 1277 1205 1314 1241 1335 1276 1353 1312 1372 1348 1391 1384 1414 1420 1428 1456 1440
 1491 1450 1527 1451 1563 1444 1599 1430 1635 1410 1671 1382 1706 1368 1742 1341 1778 1316 1814 1288 1850 1271 1886 1232 1921 1224 1957 1207 1993 1153 2029 1149 2065 1145 2101 1137 2136 1070 50 { m20} R 0 1 1 c 1 1 0 c black 1 1 0 c 363 1088 m 36 8 d
 35 7 d 36 7 d 36 8 d 36 7 d 36 8 d 36 8 d 35 7 d 36 8 d 36 8 d 36 9 d 36 8 d 36 8 d 35 9 d 36 9 d 36 9 d 36 9 d 36 10 d 36 10 d 35 11 d 36 11 d 36 12 d 18 8 d 18 7 d 18 9 d 18 10 d 18 11 d 18 12 d 9 6 d 8 7 d 9 6 d 9 7 d 9 6 d 9 6 d 9 7 d 9 5 d 18
 12 d 18 10 d 36 18 d 18 8 d 9 3 d 9 3 d 9 2 d 9 3 d 9 1 d 9 2 d 9 1 d 8 1 d 27 X 9 -1 d 9 -1 d 9 -2 d 9 -1 d 9 -3 d 9 -2 d 9 -3 d 18 -7 d 18 -8 d 18 -9 d 18 -10 d 18 -11 d 9 -6 d 9 -6 d 8 -6 d 9 -6 d 9 -6 d 9 -7 d 9 -6 d 9 -7 d 18 -13 d 18 -12 d 18
 -12 d 18 -11 d 18 -11 d 18 -11 d 18 -10 d 36 -20 d 35 -20 d 36 -22 d 36 -22 d 36 -23 d 36 -25 d 36 -27 d 35 -28 d -46 Y -35 36 d -36 33 d -36 31 d -36 28 d -36 27 d -36 24 d -35 22 d -36 22 d -18 12 d -18 11 d -18 11 d -18 12 d -18 13 d -18 12 d -18
 13 d -9 7 d -9 6 d -9 7 d -9 6 d -9 7 d -8 6 d -9 6 d -9 6 d -18 12 d -18 11 d -18 9 d -18 9 d -18 6 d -9 3 d -9 3 d -9 2 d -9 2 d -9 1 d -9 1 d -9 1 d -27 X -8 -1 d -9 -1 d -9 -1 d -9 -2 d -9 -2 d -9 -3 d -9 -3 d -9 -3 d -18 -8 d -36 -19 d -18 -11
 d -18 -12 d -9 -7 d -9 -6 d -9 -6 d -9 -7 d -9 -6 d -9 -7 d -8 -6 d -9 -6 d -18 -12 d -18 -11 d -18 -11 d -18 -10 d -18 -9 d -18 -7 d -36 -14 d -36 -11 d -35 -10 d -36 -9 d -36 -10 d -36 -9 d -36 -10 d -36 -9 d -35 -10 d -36 -10 d -36 -9 d -36 -9 d
 -36 -10 d -36 -9 d -35 -9 d -36 -9 d -36 -9 d -36 -9 d -36 -9 d -36 -8 d -35 -9 d -36 -8 d f 0 1 1 c 0 1 0 c black 0 1 0 c 363 1082 m 36 8 d 35 7 d 36 8 d 36 8 d 36 8 d 36 7 d 36 8 d 35 9 d 36 8 d 36 8 d 36 8 d 36 9 d 36 9 d 35 9 d 36 9 d 36 9 d 36
 9 d 36 10 d 36 10 d 35 10 d 36 11 d 36 13 d 18 7 d 18 8 d 18 9 d 18 10 d 18 11 d 18 13 d 9 6 d 8 6 d 9 7 d 9 6 d 9 7 d 9 6 d 9 6 d 9 6 d 18 12 d 18 10 d 36 19 d 18 7 d 9 3 d 9 3 d 9 3 d 9 2 d 9 2 d 9 1 d 9 1 d 8 1 d 9 1 d 9 X 9 -1 d 9 -1 d 9 -1 d 9
 -1 d 9 -2 d 9 -2 d 9 -3 d 9 -3 d 18 -7 d 18 -8 d 18 -9 d 18 -10 d 18 -11 d 9 -6 d 9 -6 d 8 -6 d 9 -7 d 9 -6 d 9 -6 d 9 -7 d 9 -6 d 18 -13 d 18 -13 d 18 -12 d 18 -11 d 18 -11 d 18 -11 d 18 -10 d 36 -21 d 35 -21 d 36 -21 d 36 -23 d 36 -25 d 36 -26 d
 36 -27 d 35 -29 d -23 Y -35 33 d -36 31 d -36 28 d -36 27 d -36 25 d -36 23 d -35 22 d -36 22 d -18 11 d -18 11 d -18 11 d -18 12 d -18 12 d -18 13 d -18 13 d -9 6 d -9 7 d -9 6 d -9 7 d -9 6 d -8 6 d -9 6 d -9 6 d -18 12 d -18 11 d -18 9 d -18 8 d
 -18 7 d -9 3 d -9 3 d -9 2 d -9 2 d -9 1 d -9 1 d -9 1 d -27 X -8 -1 d -9 -1 d -9 -1 d -9 -2 d -9 -2 d -9 -3 d -9 -3 d -9 -3 d -18 -8 d -36 -19 d -18 -11 d -18 -12 d -9 -6 d -9 -6 d -9 -7 d -9 -6 d -9 -6 d -9 -7 d -8 -6 d -9 -7 d -18 -12 d -18 -11 d
 -18 -10 d -18 -10 d -18 -8 d -18 -8 d -36 -13 d -36 -11 d -35 -10 d -36 -10 d -36 -9 d -36 -10 d -36 -9 d -36 -10 d -35 -9 d -36 -9 d -36 -9 d -36 -9 d -36 -9 d -36 -9 d -35 -9 d -36 -8 d -36 -9 d -36 -8 d -36 -9 d -36 -8 d -35 -8 d -36 -8 d f 0 0 1
 c 9 lw black 0 0 1 c 363 1076 m 36 8 d 35 7 d 36 8 d 36 8 d 36 8 d 36 9 d 36 8 d 35 8 d 36 9 d 36 8 d 36 9 d 36 9 d 36 9 d 35 9 d 36 9 d 36 9 d 36 10 d 36 10 d 36 9 d 35 11 d 36 11 d 36 13 d 18 7 d 18 8 d 18 10 d 18 10 d 18 11 d 18 12 d 9 6 d 8 7 d
 9 6 d 9 7 d 9 6 d 9 6 d 9 7 d 9 6 d 18 11 d 18 11 d 36 19 d 18 7 d 9 4 d 9 3 d 9 2 d 9 2 d 9 2 d 9 2 d 9 1 d 8 1 d 27 X 9 -1 d 9 -1 d 9 -2 d 9 -2 d 9 -2 d 9 -2 d 9 -3 d 18 -7 d 18 -8 d 18 -10 d 18 -10 d 18 -11 d 9 -6 d 9 -6 d 8 -7 d 9 -6 d 9 -6 d 9
 -7 d 9 -6 d 9 -7 d 18 -13 d 18 -12 d 18 -12 d 18 -12 d 18 -11 d 18 -11 d 18 -11 d 36 -21 d 35 -21 d 36 -22 d 36 -24 d 36 -26 d 36 -27 d 36 -29 d 35 -31 d s black 3 lw 381 1137 m -18 X s 363 1137 m cl s 381 1137 m 18 X s 399 1137 m cl s 381 1137 m 19
 Y s 381 1156 m cl s 381 1137 m -19 Y s 381 1118 m cl s 417 1058 m -18 X s 399 1058 m cl s 417 1058 m 17 X s 434 1058 m cl s 417 1058 m 35 Y s 417 1093 m cl s 417 1058 m -39 Y s 417 1019 m cl s 452 1118 m -18 X s 434 1118 m cl s 452 1118 m 18 X s 470
 1118 m cl s 452 1118 m 22 Y s 452 1140 m cl s 452 1118 m -23 Y s 452 1095 m cl s 488 1090 m -18 X s 470 1090 m cl s 488 1090 m 18 X s 506 1090 m cl s 488 1090 m 27 Y s 488 1117 m cl s 488 1090 m -29 Y s 488 1061 m cl s 524 1123 m -18 X s 506 1123 m
 cl s 524 1123 m 18 X s 542 1123 m cl s 524 1123 m 21 Y s 524 1144 m cl s 524 1123 m -22 Y s 524 1101 m cl s 560 1133 m -18 X s 542 1133 m cl s 560 1133 m 18 X s 578 1133 m cl s 560 1133 m 20 Y s 560 1153 m cl s 560 1133 m -20 Y s 560 1113 m cl s 596
 1128 m -18 X s 578 1128 m cl s 596 1128 m 18 X s 614 1128 m cl s 596 1128 m 21 Y s 596 1149 m cl s 596 1128 m -21 Y s 596 1107 m cl s 632 1168 m -18 X s 614 1168 m cl s 632 1168 m 17 X s 649 1168 m cl s 632 1168 m 15 Y s 632 1183 m cl s 632 1168 m
 -15 Y s 632 1153 m cl s 667 1168 m -18 X s 649 1168 m cl s 667 1168 m 18 X s 685 1168 m cl s 667 1168 m 15 Y s 667 1183 m cl s 667 1168 m -15 Y s 667 1153 m cl s 703 1137 m -18 X s 685 1137 m cl s 703 1137 m 18 X s 721 1137 m cl s 703 1137 m 19 Y s
 703 1156 m cl s 703 1137 m -19 Y s 703 1118 m cl s 739 1123 m -18 X s 721 1123 m cl s 739 1123 m 18 X s 757 1123 m cl s 739 1123 m 21 Y s 739 1144 m cl s 739 1123 m -22 Y s 739 1101 m cl s 775 1183 m -18 X s 757 1183 m cl s 775 1183 m 18 X s 793
 1183 m cl s 775 1183 m 13 Y s 775 1196 m cl s 775 1183 m -14 Y s 775 1169 m cl s 811 1142 m -18 X s 793 1142 m cl s 811 1142 m 18 X s 829 1142 m cl s 811 1142 m 18 Y s 811 1160 m cl s 811 1142 m -19 Y s 811 1123 m cl s 847 1183 m -18 X s 829 1183 m
 cl s 847 1183 m 17 X s 864 1183 m cl s 847 1183 m 13 Y s 847 1196 m cl s 847 1183 m -14 Y s 847 1169 m cl s 882 1200 m -18 X s 864 1200 m cl s 882 1200 m 18 X s 900 1200 m cl s 882 1200 m 12 Y s 882 1212 m cl s 882 1200 m -12 Y s 882 1188 m cl s 918
 1197 m -18 X s 900 1197 m cl s 918 1197 m 18 X s 936 1197 m cl s 918 1197 m 11 Y s 918 1208 m cl s 918 1197 m -13 Y s 918 1184 m cl s 954 1200 m -18 X s 936 1200 m cl s 954 1200 m 18 X s 972 1200 m cl s 954 1200 m 12 Y s 954 1212 m cl s 954 1200 m
 -12 Y s 954 1188 m cl s 990 1208 m -18 X s 972 1208 m cl s 990 1208 m 18 X s 1008 1208 m cl s 990 1208 m 11 Y s 990 1219 m cl s 990 1208 m -11 Y s 990 1197 m cl s 1026 1224 m -18 X s 1008 1224 m cl s 1026 1224 m 18 X s 1044 1224 m cl s 1026 1224 m
 10 Y s 1026 1234 m cl s 1026 1224 m -9 Y s 1026 1215 m cl s 1062 1252 m -18 X s 1044 1252 m cl s 1062 1252 m 17 X s 1079 1252 m cl s 1062 1252 m 8 Y s 1062 1260 m cl s 1062 1252 m -7 Y s 1062 1245 m cl s 1097 1252 m -18 X s 1079 1252 m cl s 1097
 1252 m 18 X s 1115 1252 m cl s 1097 1252 m 7 Y s 1097 1259 m cl s 1097 1252 m -8 Y s 1097 1244 m cl s 1133 1270 m -18 X s 1115 1270 m cl s 1133 1270 m 18 X s 1151 1270 m cl s 1133 1270 m 7 Y s 1133 1277 m cl s 1133 1270 m -6 Y s 1133 1264 m cl s
 1169 1277 m -18 X s 1151 1277 m cl s 1169 1277 m 18 X s 1187 1277 m cl s 1169 1277 m 6 Y s 1169 1283 m cl s 1169 1277 m -6 Y s 1169 1271 m cl s 1205 1314 m -18 X s 1187 1314 m cl s 1205 1314 m 18 X s 1223 1314 m cl s 1205 1314 m 4 Y s 1205 1318 m cl
 s 1205 1314 m -5 Y s 1205 1309 m cl s 1241 1335 m -18 X s 1223 1335 m cl s 1241 1335 m 18 X s 1259 1335 m cl s 1241 1335 m 4 Y s 1241 1339 m cl s 1241 1335 m -4 Y s 1241 1331 m cl s 1276 1353 m -17 X s 1259 1353 m cl s 1276 1353 m 18 X s 1294 1353 m
 cl s 1276 1353 m 3 Y s 1276 1356 m cl s 1276 1353 m -4 Y s 1276 1349 m cl s 1312 1372 m -18 X s 1294 1372 m cl s 1312 1372 m 18 X s 1330 1372 m cl s 1312 1372 m 3 Y s 1312 1375 m cl s 1312 1372 m -4 Y s 1312 1368 m cl s 1348 1391 m -18 X s 1330 1391
 m cl s 1348 1391 m 18 X s 1366 1391 m cl s 1348 1391 m 2 Y s 1348 1393 m cl s 1348 1391 m -3 Y s 1348 1388 m cl s 1384 1414 m -18 X s 1366 1414 m cl s 1384 1414 m 18 X s 1402 1414 m cl s 1384 1414 m 3 Y s 1384 1417 m cl s 1384 1414 m -2 Y s 1384
 1412 m cl s 1420 1428 m -18 X s 1402 1428 m cl s 1420 1428 m 18 X s 1438 1428 m cl s 1420 1428 m 2 Y s 1420 1430 m cl s 1420 1428 m -2 Y s 1420 1426 m cl s 1456 1440 m -18 X s 1438 1440 m cl s 1456 1440 m 18 X s 1474 1440 m cl s 1456 1440 m 2 Y s
 1456 1442 m cl s 1456 1440 m -2 Y s 1456 1438 m cl s 1491 1450 m -17 X s 1474 1450 m cl s 1491 1450 m 18 X s 1509 1450 m cl s 1491 1450 m 2 Y s 1491 1452 m cl s 1491 1450 m -2 Y s 1491 1448 m cl s 1527 1451 m -18 X s 1509 1451 m cl s 1527 1451 m 18
 X s 1545 1451 m cl s 1527 1451 m 2 Y s 1527 1453 m cl s 1527 1451 m -1 Y s 1527 1450 m cl s 1563 1444 m -18 X s 1545 1444 m cl s 1563 1444 m 18 X s 1581 1444 m cl s 1563 1444 m 2 Y s 1563 1446 m cl s 1563 1444 m -2 Y s 1563 1442 m cl s 1599 1430 m
 -18 X s 1581 1430 m cl s 1599 1430 m 18 X s 1617 1430 m cl s 1599 1430 m 2 Y s 1599 1432 m cl s 1599 1430 m -2 Y s 1599 1428 m cl s 1635 1410 m -18 X s 1617 1410 m cl s 1635 1410 m 18 X s 1653 1410 m cl s 1635 1410 m 2 Y s 1635 1412 m cl s 1635 1410
 m -2 Y s 1635 1408 m cl s 1671 1382 m -18 X s 1653 1382 m cl s 1671 1382 m 18 X s 1689 1382 m cl s 1671 1382 m 3 Y s 1671 1385 m cl s 1671 1382 m -3 Y s 1671 1379 m cl s 1706 1368 m -17 X s 1689 1368 m cl s 1706 1368 m 18 X s 1724 1368 m cl s 1706
 1368 m 3 Y s 1706 1371 m cl s 1706 1368 m -4 Y s 1706 1364 m cl s 1742 1341 m -18 X s 1724 1341 m cl s 1742 1341 m 18 X s 1760 1341 m cl s 1742 1341 m 4 Y s 1742 1345 m cl s 1742 1341 m -4 Y s 1742 1337 m cl s 1778 1316 m -18 X s 1760 1316 m cl s
 1778 1316 m 18 X s 1796 1316 m cl s 1778 1316 m 5 Y s 1778 1321 m cl s 1778 1316 m -4 Y s 1778 1312 m cl s 1814 1288 m -18 X s 1796 1288 m cl s 1814 1288 m 18 X s 1832 1288 m cl s 1814 1288 m 5 Y s 1814 1293 m cl s 1814 1288 m -6 Y s 1814 1282 m cl
 s 1850 1271 m -18 X s 1832 1271 m cl s 1850 1271 m 18 X s 1868 1271 m cl s 1850 1271 m 6 Y s 1850 1277 m cl s 1850 1271 m -6 Y s 1850 1265 m cl s 1886 1232 m -18 X s 1868 1232 m cl s 1886 1232 m 18 X s 1904 1232 m cl s 1886 1232 m 9 Y s 1886 1241 m
 cl s 1886 1232 m -9 Y s 1886 1223 m cl s 1921 1224 m -17 X s 1904 1224 m cl s 1921 1224 m 18 X s 1939 1224 m cl s 1921 1224 m 10 Y s 1921 1234 m cl s 1921 1224 m -9 Y s 1921 1215 m cl s 1957 1207 m -18 X s 1939 1207 m cl s 1957 1207 m 18 X s 1975
 1207 m cl s 1957 1207 m 11 Y s 1957 1218 m cl s 1957 1207 m -12 Y s 1957 1195 m cl s 1993 1153 m -18 X s 1975 1153 m cl s 1993 1153 m 18 X s 2011 1153 m cl s 1993 1153 m 16 Y s 1993 1169 m cl s 1993 1153 m -17 Y s 1993 1136 m cl s 2029 1149 m -18 X
 s 2011 1149 m cl s 2029 1149 m 18 X s 2047 1149 m cl s 2029 1149 m 17 Y s 2029 1166 m cl s 2029 1149 m -17 Y s 2029 1132 m cl s 2065 1145 m -18 X s 2047 1145 m cl s 2065 1145 m 18 X s 2083 1145 m cl s 2065 1145 m 18 Y s 2065 1163 m cl s 2065 1145 m
 -18 Y s 2065 1127 m cl s 2101 1137 m -18 X s 2083 1137 m cl s 2101 1137 m 18 X s 2119 1137 m cl s 2101 1137 m 19 Y s 2101 1156 m cl s 2101 1137 m -19 Y s 2101 1118 m cl s 2136 1070 m -17 X s 2119 1070 m cl s 2136 1070 m 18 X s 2154 1070 m cl s 2136
 1070 m 32 Y s 2136 1102 m cl s 2136 1070 m -34 Y s 2136 1036 m cl s 381 1137 417 1058 452 1118 488 1090 524 1123 560 1133 596 1128 632 1168 667 1168 703 1137 739 1123 775 1183 811 1142 847 1183 882 1200 918 1197 954 1200 990 1208 1026 1224 1062 1252
 1097 1252 1133 1270 1169 1277 1205 1314 1241 1335 1276 1353 1312 1372 1348 1391 1384 1414 1420 1428 1456 1440 1491 1450 1527 1451 1563 1444 1599 1430 1635 1410 1671 1382 1706 1368 1742 1341 1778 1316 1814 1288 1850 1271 1886 1232 1921 1224 1957 1207
 1993 1153 2029 1149 2065 1145 2101 1137 2136 1070 50 { m20} R 0.52 0.76 0.64 c[ 4 8] 0 sd 9 lw black 0.52 0.76 0.64 c 363 1076 m 36 8 d 35 7 d 36 8 d 36 8 d 36 8 d 36 9 d 36 8 d 35 8 d 36 9 d 36 8 d 36 9 d 36 9 d 36 9 d 35 9 d 36 9 d 36 9 d 36 10 d
 36 9 d 36 10 d 35 10 d 36 10 d 36 10 d 18 5 d 18 5 d 18 6 d 18 5 d 18 5 d 18 5 d 17 6 d 18 5 d 36 10 d 18 4 d 18 3 d 18 3 d 18 3 d 18 2 d 18 2 d 18 2 d 18 1 d 53 X 18 -1 d 18 -1 d 18 -2 d 18 -2 d 18 -2 d 18 -3 d 18 -4 d 18 -3 d 18 -5 d 35 -9 d 36
 -12 d 36 -13 d 18 -8 d 18 -7 d 18 -8 d 18 -9 d 18 -9 d 18 -10 d 17 -9 d 18 -11 d 18 -11 d 18 -11 d 18 -11 d 18 -12 d 36 -26 d 36 -27 d 36 -29 d 35 -31 d s 0.54 0.66 0.63 c black 0.54 0.66 0.63 c 967 634 m 5 14 d s 972 648 m 36 102 d 36 94 d 35 88 d
 36 81 d 36 74 d 18 34 d 18 32 d 18 31 d 18 29 d 18 27 d 18 25 d 9 12 d 8 12 d 9 11 d 9 10 d 9 11 d 9 9 d 9 10 d 9 8 d 9 9 d 9 8 d 9 7 d 9 8 d 18 12 d 18 12 d 18 9 d 9 4 d 9 3 d 9 4 d 9 2 d 9 2 d 9 2 d 9 1 d 8 1 d 9 1 d 9 X 9 -1 d 9 X 9 -2 d 9 -2 d 9
 -2 d 9 -2 d 9 -4 d 9 -3 d 9 -4 d 9 -5 d 18 -10 d 18 -12 d 18 -13 d 9 -8 d 9 -8 d 9 -8 d 9 -9 d 8 -10 d 9 -9 d 9 -11 d 9 -10 d 9 -11 d 9 -12 d 9 -12 d 9 -12 d 18 -26 d 18 -28 d 18 -30 d 18 -31 d 36 -69 d 36 -75 d 35 -83 d 36 -89 d 36 -97 d 32 -91 d s
 black[  ] 0 sd 3 lw 363 634 m 1791 X s 610 659 m -25 Y s 672 646 m -12 Y s 733 646 m -12 Y s 795 646 m -12 Y s 857 646 m -12 Y s 919 659 m -25 Y s 981 646 m -12 Y s 1042 646 m -12 Y s 1104 646 m -12 Y s 1166 646 m -12 Y s 1228 659 m -25 Y s 1289 646
 m -12 Y s 1351 646 m -12 Y s 1413 646 m -12 Y s 1475 646 m -12 Y s 1537 659 m -25 Y s 1598 646 m -12 Y s 1660 646 m -12 Y s 1722 646 m -12 Y s 1784 646 m -12 Y s 1845 659 m -25 Y s 1907 646 m -12 Y s 1969 646 m -12 Y s 2031 646 m -12 Y s 2093 646 m
 -12 Y s 2154 659 m -25 Y s 610 659 m -25 Y s 548 646 m -12 Y s 486 646 m -12 Y s 425 646 m -12 Y s 363 646 m -12 Y s 363 1484 m 1791 X s 610 1459 m 25 Y s 672 1471 m 13 Y s 733 1471 m 13 Y s 795 1471 m 13 Y s 857 1471 m 13 Y s 919 1459 m 25 Y s 981
 1471 m 13 Y s 1042 1471 m 13 Y s 1104 1471 m 13 Y s 1166 1471 m 13 Y s 1228 1459 m 25 Y s 1289 1471 m 13 Y s 1351 1471 m 13 Y s 1413 1471 m 13 Y s 1475 1471 m 13 Y s 1537 1459 m 25 Y s 1598 1471 m 13 Y s 1660 1471 m 13 Y s 1722 1471 m 13 Y s 1784
 1471 m 13 Y s 1845 1459 m 25 Y s 1907 1471 m 13 Y s 1969 1471 m 13 Y s 2031 1471 m 13 Y s 2093 1471 m 13 Y s 2154 1459 m 25 Y s 610 1459 m 25 Y s 548 1471 m 13 Y s 486 1471 m 13 Y s 425 1471 m 13 Y s 363 1471 m 13 Y s 363 634 m 850 Y s 417 634 m -54
 X s 390 681 m -27 X s 390 709 m -27 X s 390 728 m -27 X s 390 744 m -27 X s 390 756 m -27 X s 390 766 m -27 X s 390 776 m -27 X s 390 784 m -27 X s 417 791 m -54 X s 390 838 m -27 X s 390 866 m -27 X s 390 886 m -27 X s 390 901 m -27 X s 390 913 m
 -27 X s 390 924 m -27 X s 390 933 m -27 X s 390 941 m -27 X s 417 948 m -54 X s 390 995 m -27 X s 390 1023 m -27 X s 390 1043 m -27 X s 390 1058 m -27 X s 390 1070 m -27 X s 390 1081 m -27 X s 390 1090 m -27 X s 390 1098 m -27 X s 417 1105 m -54 X s
 390 1153 m -27 X s 390 1180 m -27 X s 390 1200 m -27 X s 390 1215 m -27 X s 390 1228 m -27 X s 390 1238 m -27 X s 390 1247 m -27 X s 390 1255 m -27 X s 417 1263 m -54 X s 390 1310 m -27 X s 390 1338 m -27 X s 390 1357 m -27 X s 390 1373 m -27 X s
 390 1385 m -27 X s 390 1396 m -27 X s 390 1405 m -27 X s 390 1413 m -27 X s 417 1420 m -54 X s 390 1467 m -27 X s 2154 634 m 850 Y s 2101 634 m 53 X s 2127 681 m 27 X s 2127 709 m 27 X s 2127 728 m 27 X s 2127 744 m 27 X s 2127 756 m 27 X s 2127 766
 m 27 X s 2127 776 m 27 X s 2127 784 m 27 X s 2101 791 m 53 X s 2127 838 m 27 X s 2127 866 m 27 X s 2127 886 m 27 X s 2127 901 m 27 X s 2127 913 m 27 X s 2127 924 m 27 X s 2127 933 m 27 X s 2127 941 m 27 X s 2101 948 m 53 X s 2127 995 m 27 X s 2127
 1023 m 27 X s 2127 1043 m 27 X s 2127 1058 m 27 X s 2127 1070 m 27 X s 2127 1081 m 27 X s 2127 1090 m 27 X s 2127 1098 m 27 X s 2101 1105 m 53 X s 2127 1153 m 27 X s 2127 1180 m 27 X s 2127 1200 m 27 X s 2127 1215 m 27 X s 2127 1228 m 27 X s 2127
 1238 m 27 X s 2127 1247 m 27 X s 2127 1255 m 27 X s 2101 1263 m 53 X s 2127 1310 m 27 X s 2127 1338 m 27 X s 2127 1357 m 27 X s 2127 1373 m 27 X s 2127 1385 m 27 X s 2127 1396 m 27 X s 2127 1405 m 27 X s 2127 1413 m 27 X s 2101 1420 m 53 X s 2127
 1467 m 27 X s
 gsave  2268 1077 0 461 C 677.708 1215.31 t 0 r /Helvetica findfont 58.7189 sf 0 0 m (2mu2e) show NC gr  1 1 1 c 453 161 454 1269 bf black
 gsave  2268 1077 0 461 C 566.929 1371.71 t 0 r /Helvetica-Bold findfont 48.9324 sf 0 0 m (MC15) show NC gr  510 1390 m20
 gsave  2268 1077 0 461 C 566.929 1293.51 t 0 r /Helvetica-Bold findfont 48.9324 sf 0 0 m (Projection of Signal pdf) show NC gr  0 0 1 c 9 lw 471 1309 m 79 X s black 3 lw 1 1 1 c 2268 461 0 0 bf black 1 1 1 c 1791 364 363 74 bf black 1791 364 363 74
 bl 363 74 m 1791 X s
 gsave  2268 461 0 0 C 1915.83 13.0329 t 0 r /Helvetica findfont 22.9045 sf 0 0 m (4l Invariant Mass \(GeV\)) show NC gr  610 85 m -11 Y s 672 79 m -5 Y s 733 79 m -5 Y s 795 79 m -5 Y s 857 79 m -5 Y s 919 85 m -11 Y s 981 79 m -5 Y s 1042 79 m -5 Y
 s 1104 79 m -5 Y s 1166 79 m -5 Y s 1228 85 m -11 Y s 1289 79 m -5 Y s 1351 79 m -5 Y s 1413 79 m -5 Y s 1475 79 m -5 Y s 1537 85 m -11 Y s 1598 79 m -5 Y s 1660 79 m -5 Y s 1722 79 m -5 Y s 1784 79 m -5 Y s 1845 85 m -11 Y s 1907 79 m -5 Y s 1969
 79 m -5 Y s 2031 79 m -5 Y s 2093 79 m -5 Y s 2154 85 m -11 Y s 610 85 m -11 Y s 548 79 m -5 Y s 486 79 m -5 Y s 425 79 m -5 Y s 363 79 m -5 Y s
 gsave  2268 461 0 0 C 589.737 55.3896 t 0 r /Helvetica findfont 22.9045 sf 0 0 m (750) show NC gr 
 gsave  2268 461 0 0 C 899.267 55.3896 t 0 r /Helvetica findfont 22.9045 sf 0 0 m (800) show NC gr 
 gsave  2268 461 0 0 C 1205.54 55.3896 t 0 r /Helvetica findfont 22.9045 sf 0 0 m (850) show NC gr 
 gsave  2268 461 0 0 C 1515.07 55.3896 t 0 r /Helvetica findfont 22.9045 sf 0 0 m (900) show NC gr 
 gsave  2268 461 0 0 C 1824.6 55.3896 t 0 r /Helvetica findfont 22.9045 sf 0 0 m (950) show NC gr 
 gsave  2268 461 0 0 C 2127.61 55.3896 t 0 r /Helvetica findfont 22.9045 sf 0 0 m (1000) show NC gr  363 438 m 1791 X s 610 427 m 11 Y s 672 433 m 5 Y s 733 433 m 5 Y s 795 433 m 5 Y s 857 433 m 5 Y s 919 427 m 11 Y s 981 433 m 5 Y s 1042 433 m 5 Y s
 1104 433 m 5 Y s 1166 433 m 5 Y s 1228 427 m 11 Y s 1289 433 m 5 Y s 1351 433 m 5 Y s 1413 433 m 5 Y s 1475 433 m 5 Y s 1537 427 m 11 Y s 1598 433 m 5 Y s 1660 433 m 5 Y s 1722 433 m 5 Y s 1784 433 m 5 Y s 1845 427 m 11 Y s 1907 433 m 5 Y s 1969 433
 m 5 Y s 2031 433 m 5 Y s 2093 433 m 5 Y s 2154 427 m 11 Y s 610 427 m 11 Y s 548 433 m 5 Y s 486 433 m 5 Y s 425 433 m 5 Y s 363 433 m 5 Y s 363 74 m 364 Y s 417 74 m -54 X s 390 81 m -27 X s 390 88 m -27 X s 390 96 m -27 X s 390 103 m -27 X s 417
 110 m -54 X s 390 118 m -27 X s 390 125 m -27 X s 390 132 m -27 X s 390 139 m -27 X s 417 147 m -54 X s 390 154 m -27 X s 390 161 m -27 X s 390 169 m -27 X s 390 176 m -27 X s 417 183 m -54 X s 390 190 m -27 X s 390 198 m -27 X s 390 205 m -27 X s
 390 212 m -27 X s 417 220 m -54 X s 390 227 m -27 X s 390 234 m -27 X s 390 241 m -27 X s 390 249 m -27 X s 417 256 m -54 X s 390 263 m -27 X s 390 271 m -27 X s 390 278 m -27 X s 390 285 m -27 X s 417 293 m -54 X s 390 300 m -27 X s 390 307 m -27 X
 s 390 314 m -27 X s 390 322 m -27 X s 417 329 m -54 X s 390 336 m -27 X s 390 344 m -27 X s 390 351 m -27 X s 390 358 m -27 X s 417 365 m -54 X s 390 373 m -27 X s 390 380 m -27 X s 390 387 m -27 X s 390 395 m -27 X s 417 402 m -54 X s 390 409 m -27
 X s 390 416 m -27 X s 390 424 m -27 X s 390 431 m -27 X s 417 438 m -54 X s
 gsave  2268 461 0 0 C 329.08 65.1643 t 0 r /Helvetica findfont 22.9045 sf 0 0 m (\2555) show NC gr 
 gsave  2268 461 0 0 C 329.08 101.005 t 0 r /Helvetica findfont 22.9045 sf 0 0 m (\2554) show NC gr 
 gsave  2268 461 0 0 C 329.08 140.103 t 0 r /Helvetica findfont 22.9045 sf 0 0 m (\2553) show NC gr 
 gsave  2268 461 0 0 C 329.08 175.944 t 0 r /Helvetica findfont 22.9045 sf 0 0 m (\2552) show NC gr 
 gsave  2268 461 0 0 C 332.338 211.784 t 0 r /Helvetica findfont 22.9045 sf 0 0 m (\2551) show NC gr 
 gsave  2268 461 0 0 C 335.596 247.624 t 0 r /Helvetica findfont 22.9045 sf 0 0 m (0) show NC gr 
 gsave  2268 461 0 0 C 338.854 283.465 t 0 r /Helvetica findfont 22.9045 sf 0 0 m (1) show NC gr 
 gsave  2268 461 0 0 C 335.596 319.305 t 0 r /Helvetica findfont 22.9045 sf 0 0 m (2) show NC gr 
 gsave  2268 461 0 0 C 335.596 358.403 t 0 r /Helvetica findfont 22.9045 sf 0 0 m (3) show NC gr 
 gsave  2268 461 0 0 C 335.596 394.244 t 0 r /Helvetica findfont 22.9045 sf 0 0 m (4) show NC gr 
 gsave  2268 461 0 0 C 335.596 430.084 t 0 r /Helvetica findfont 22.9045 sf 0 0 m (5) show NC gr  2154 74 m 364 Y s 2101 74 m 53 X s 2127 81 m 27 X s 2127 88 m 27 X s 2127 96 m 27 X s 2127 103 m 27 X s 2101 110 m 53 X s 2127 118 m 27 X s 2127 125 m
 27 X s 2127 132 m 27 X s 2127 139 m 27 X s 2101 147 m 53 X s 2127 154 m 27 X s 2127 161 m 27 X s 2127 169 m 27 X s 2127 176 m 27 X s 2101 183 m 53 X s 2127 190 m 27 X s 2127 198 m 27 X s 2127 205 m 27 X s 2127 212 m 27 X s 2101 220 m 53 X s 2127 227
 m 27 X s 2127 234 m 27 X s 2127 241 m 27 X s 2127 249 m 27 X s 2101 256 m 53 X s 2127 263 m 27 X s 2127 271 m 27 X s 2127 278 m 27 X s 2127 285 m 27 X s 2101 293 m 53 X s 2127 300 m 27 X s 2127 307 m 27 X s 2127 314 m 27 X s 2127 322 m 27 X s 2101
 329 m 53 X s 2127 336 m 27 X s 2127 344 m 27 X s 2127 351 m 27 X s 2127 358 m 27 X s 2101 365 m 53 X s 2127 373 m 27 X s 2127 380 m 27 X s 2127 387 m 27 X s 2127 395 m 27 X s 2101 402 m 53 X s 2127 409 m 27 X s 2127 416 m 27 X s 2127 424 m 27 X s
 2127 431 m 27 X s 2101 438 m 53 X s 6 lw 0.2 0.8 0.2 c black 3 lw 0.2 0.8 0.2 c 363 256 m 84 Y 36 X -113 Y 35 X 65 Y 36 X -52 Y 36 X 37 Y 36 X 4 Y 36 X -24 Y 36 X 67 Y 35 X -15 Y 36 X -83 Y 36 X -47 Y 36 X 110 Y 36 X -122 Y 36 X 73 Y 35 X 24 Y 36 X
 -40 Y 36 X -21 Y 36 X -10 Y 36 X 19 Y 36 X 75 Y 35 X -54 Y 36 X 34 Y 36 X -39 Y 36 X 130 Y 36 X 13 Y 36 X -44 Y 35 X -68 Y 36 X -70 Y 36 X 39 Y 36 X -50 Y 36 X 14 Y 36 X 92 Y 35 X 46 Y 36 X -20 Y 36 X -29 Y 36 X -46 Y 36 X -82 Y 36 X 132 Y 35 X -11
 Y 72 X -35 Y 36 X 34 Y 36 X -83 Y 36 X 58 Y 35 X 14 Y 36 X -75 Y 36 X 54 Y 36 X 45 Y 36 X 29 Y 36 X -61 Y 35 X 2 Y f 6 lw black 0.2 0.8 0.2 c black 363 340 m 36 X -113 Y 35 X 65 Y 36 X -52 Y 36 X 37 Y 36 X 4 Y 36 X -24 Y 36 X 67 Y 35 X -15 Y 36 X
 -83 Y 36 X -47 Y 36 X 110 Y 36 X -122 Y 36 X 73 Y 35 X 24 Y 36 X -40 Y 36 X -21 Y 36 X -10 Y 36 X 19 Y 36 X 75 Y 35 X -54 Y 36 X 34 Y 36 X -39 Y 36 X 130 Y 36 X 13 Y 36 X -44 Y 35 X -68 Y 36 X -70 Y 36 X 39 Y 36 X -50 Y 36 X 14 Y 36 X 92 Y 35 X 46 Y
 36 X -20 Y 36 X -29 Y 36 X -46 Y 36 X -82 Y 36 X 132 Y 35 X -11 Y 72 X -35 Y 36 X 34 Y 36 X -83 Y 36 X 58 Y 35 X 14 Y 36 X -75 Y 36 X 54 Y 36 X 45 Y 36 X 29 Y 36 X -61 Y 35 X s 3 lw 363 74 m 1791 X s 610 85 m -11 Y s 672 79 m -5 Y s 733 79 m -5 Y s
 795 79 m -5 Y s 857 79 m -5 Y s 919 85 m -11 Y s 981 79 m -5 Y s 1042 79 m -5 Y s 1104 79 m -5 Y s 1166 79 m -5 Y s 1228 85 m -11 Y s 1289 79 m -5 Y s 1351 79 m -5 Y s 1413 79 m -5 Y s 1475 79 m -5 Y s 1537 85 m -11 Y s 1598 79 m -5 Y s 1660 79 m -5
 Y s 1722 79 m -5 Y s 1784 79 m -5 Y s 1845 85 m -11 Y s 1907 79 m -5 Y s 1969 79 m -5 Y s 2031 79 m -5 Y s 2093 79 m -5 Y s 2154 85 m -11 Y s 610 85 m -11 Y s 548 79 m -5 Y s 486 79 m -5 Y s 425 79 m -5 Y s 363 79 m -5 Y s 363 438 m 1791 X s 610 427
 m 11 Y s 672 433 m 5 Y s 733 433 m 5 Y s 795 433 m 5 Y s 857 433 m 5 Y s 919 427 m 11 Y s 981 433 m 5 Y s 1042 433 m 5 Y s 1104 433 m 5 Y s 1166 433 m 5 Y s 1228 427 m 11 Y s 1289 433 m 5 Y s 1351 433 m 5 Y s 1413 433 m 5 Y s 1475 433 m 5 Y s 1537
 427 m 11 Y s 1598 433 m 5 Y s 1660 433 m 5 Y s 1722 433 m 5 Y s 1784 433 m 5 Y s 1845 427 m 11 Y s 1907 433 m 5 Y s 1969 433 m 5 Y s 2031 433 m 5 Y s 2093 433 m 5 Y s 2154 427 m 11 Y s 610 427 m 11 Y s 548 433 m 5 Y s 486 433 m 5 Y s 425 433 m 5 Y s
 363 433 m 5 Y s 363 74 m 364 Y s 417 74 m -54 X s 390 81 m -27 X s 390 88 m -27 X s 390 96 m -27 X s 390 103 m -27 X s 417 110 m -54 X s 390 118 m -27 X s 390 125 m -27 X s 390 132 m -27 X s 390 139 m -27 X s 417 147 m -54 X s 390 154 m -27 X s 390
 161 m -27 X s 390 169 m -27 X s 390 176 m -27 X s 417 183 m -54 X s 390 190 m -27 X s 390 198 m -27 X s 390 205 m -27 X s 390 212 m -27 X s 417 220 m -54 X s 390 227 m -27 X s 390 234 m -27 X s 390 241 m -27 X s 390 249 m -27 X s 417 256 m -54 X s
 390 263 m -27 X s 390 271 m -27 X s 390 278 m -27 X s 390 285 m -27 X s 417 293 m -54 X s 390 300 m -27 X s 390 307 m -27 X s 390 314 m -27 X s 390 322 m -27 X s 417 329 m -54 X s 390 336 m -27 X s 390 344 m -27 X s 390 351 m -27 X s 390 358 m -27 X
 s 417 365 m -54 X s 390 373 m -27 X s 390 380 m -27 X s 390 387 m -27 X s 390 395 m -27 X s 417 402 m -54 X s 390 409 m -27 X s 390 416 m -27 X s 390 424 m -27 X s 390 431 m -27 X s 417 438 m -54 X s 2154 74 m 364 Y s 2101 74 m 53 X s 2127 81 m 27 X
 s 2127 88 m 27 X s 2127 96 m 27 X s 2127 103 m 27 X s 2101 110 m 53 X s 2127 118 m 27 X s 2127 125 m 27 X s 2127 132 m 27 X s 2127 139 m 27 X s 2101 147 m 53 X s 2127 154 m 27 X s 2127 161 m 27 X s 2127 169 m 27 X s 2127 176 m 27 X s 2101 183 m 53 X
 s 2127 190 m 27 X s 2127 198 m 27 X s 2127 205 m 27 X s 2127 212 m 27 X s 2101 220 m 53 X s 2127 227 m 27 X s 2127 234 m 27 X s 2127 241 m 27 X s 2127 249 m 27 X s 2101 256 m 53 X s 2127 263 m 27 X s 2127 271 m 27 X s 2127 278 m 27 X s 2127 285 m 27
 X s 2101 293 m 53 X s 2127 300 m 27 X s 2127 307 m 27 X s 2127 314 m 27 X s 2127 322 m 27 X s 2101 329 m 53 X s 2127 336 m 27 X s 2127 344 m 27 X s 2127 351 m 27 X s 2127 358 m 27 X s 2101 365 m 53 X s 2127 373 m 27 X s 2127 380 m 27 X s 2127 387 m
 27 X s 2127 395 m 27 X s 2101 402 m 53 X s 2127 409 m 27 X s 2127 416 m 27 X s 2127 424 m 27 X s 2127 431 m 27 X s 2101 438 m 53 X s
 gr  gr showpage
end
%%EOF
