%!PS-Adobe-2.0 EPSF-2.0
%%BoundingBox:  0 0 567 384
%%Title: H4l2015_plotfit/VBF_mass_signal_1000_H4l_4e.eps: 
%%Creator: ROOT Version 5.34/07
%%CreationDate: Mon Nov  9 16:30:45 2015
%%EndComments
%%BeginProlog
80 dict begin
/s {stroke} def /l {lineto} def /m {moveto} def /t {translate} def
/r {rotate} def /rl {roll}  def /R {repeat} def
/d {rlineto} def /rm {rmoveto} def /gr {grestore} def /f {eofill} def
/c {setrgbcolor} def /black {0 setgray} def /sd {setdash} def
/cl {closepath} def /sf {scalefont setfont} def /lw {setlinewidth} def
/box {m dup 0 exch d exch 0 d 0 exch neg d cl} def
/NC{systemdict begin initclip end}def/C{NC box clip newpath}def
/bl {box s} def /bf {box f} def /Y { 0 exch d} def /X { 0 d} def 
/K {{pop pop 0 moveto} exch kshow} bind def
/ita {/ang 15 def gsave [1 0 ang dup sin exch cos div 1 0 0] concat} def 
/mp {newpath /y exch def /x exch def} def
/side {[w .77 mul w .23 mul] .385 w mul sd w 0 l currentpoint t -144 r} def
/mr {mp x y w2 0 360 arc} def /m24 {mr s} def /m20 {mr f} def
/mb {mp x y w2 add m w2 neg 0 d 0 w neg d w 0 d 0 w d cl} def
/mt {mp x y w2 add m w2 neg w neg d w 0 d cl} def
/m21 {mb f} def /m25 {mb s} def /m22 {mt f} def /m26{mt s} def
/m23 {mp x y w2 sub m w2 w d w neg 0 d cl f} def
/m27 {mp x y w2 add m w3 neg w2 neg d w3 w2 neg d w3 w2 d cl s} def
/m28 {mp x w2 sub y w2 sub w3 add m w3 0 d  0 w3 neg d w3 0 d 0 w3 d w3 0 d  0 w3 d w3 neg 0 d 0 w3 d w3 neg 0 d 0 w3 neg d w3 neg 0 d cl s } def
/m29 {mp gsave x w2 sub y w2 add w3 sub m currentpoint t 4 {side} repeat cl fill gr} def
/m30 {mp gsave x w2 sub y w2 add w3 sub m currentpoint t 4 {side} repeat cl s gr} def
/m31 {mp x y w2 sub m 0 w d x w2 sub y m w 0 d x w2 sub y w2 add m w w neg d x w2 sub y w2 sub m w w d s} def
/m32 {mp x y w2 sub m w2 w d w neg 0 d cl s} def
/m33 {mp x y w2 add m w3 neg w2 neg d w3 w2 neg d w3 w2 d cl f} def
/m34 {mp x w2 sub y w2 sub w3 add m w3 0 d  0 w3 neg d w3 0 d 0 w3 d w3 0 d  0 w3 d w3 neg 0 d 0 w3 d w3 neg 0 d 0 w3 neg d w3 neg 0 d cl f } def
/m2 {mp x y w2 sub m 0 w d x w2 sub y m w 0 d s} def
/m5 {mp x w2 sub y w2 sub m w w d x w2 sub y w2 add m w w neg d s} def
/reEncode {exch findfont dup length dict begin {1 index /FID eq  {pop pop} {def} ifelse } forall /Encoding exch def currentdict end dup /FontName get exch definefont pop } def [/Times-Bold /Times-Italic /Times-BoldItalic /Helvetica /Helvetica-Oblique
 /Helvetica-Bold /Helvetica-BoldOblique /Courier /Courier-Oblique /Courier-Bold /Courier-BoldOblique /Times-Roman /AvantGarde-Book /AvantGarde-BookOblique /AvantGarde-Demi /AvantGarde-DemiOblique /Bookman-Demi /Bookman-DemiItalic /Bookman-Light
 /Bookman-LightItalic /Helvetica-Narrow /Helvetica-Narrow-Bold /Helvetica-Narrow-BoldOblique /Helvetica-Narrow-Oblique /NewCenturySchlbk-Roman /NewCenturySchlbk-Bold /NewCenturySchlbk-BoldItalic /NewCenturySchlbk-Italic /Palatino-Bold
 /Palatino-BoldItalic /Palatino-Italic /Palatino-Roman ] {ISOLatin1Encoding reEncode } forall
%%EndProlog
%%BeginSetup
%%EndSetup
newpath  gsave  .25 .25 scale  gsave  0 0 t black[  ] 0 sd 3 lw 1 1 1 c 2268 1538 0 0 bf black 1 1 1 c 2222 738 23 784 bf black 1 1 1 c 2222 739 23 15 bf black 1 1 1 c 2268 1077 0 461 bf black 1 1 1 c 1791 850 363 634 bf black 1791 850 363 634 bl 363
 634 m 1791 X s
 gsave  2268 1077 0 461 C 1642.14 498.507 t 0 r /Helvetica findfont 48.9324 sf 0 0 m (4l Invariant Mass \(GeV\)) show NC gr  363 659 m -25 Y s 399 646 m -12 Y s 436 646 m -12 Y s 473 646 m -12 Y s 509 659 m -25 Y s 546 646 m -12 Y s 582 646 m -12 Y s
 619 646 m -12 Y s 655 659 m -25 Y s 692 646 m -12 Y s 728 646 m -12 Y s 765 646 m -12 Y s 802 659 m -25 Y s 838 646 m -12 Y s 875 646 m -12 Y s 911 646 m -12 Y s 948 659 m -25 Y s 984 646 m -12 Y s 1021 646 m -12 Y s 1057 646 m -12 Y s 1094 659 m
 -25 Y s 1131 646 m -12 Y s 1167 646 m -12 Y s 1204 646 m -12 Y s 1240 659 m -25 Y s 1277 646 m -12 Y s 1313 646 m -12 Y s 1350 646 m -12 Y s 1387 659 m -25 Y s 1423 646 m -12 Y s 1460 646 m -12 Y s 1496 646 m -12 Y s 1533 659 m -25 Y s 1569 646 m
 -12 Y s 1606 646 m -12 Y s 1642 646 m -12 Y s 1679 659 m -25 Y s 1716 646 m -12 Y s 1752 646 m -12 Y s 1789 646 m -12 Y s 1825 659 m -25 Y s 1862 646 m -12 Y s 1898 646 m -12 Y s 1935 646 m -12 Y s 1972 659 m -25 Y s 2008 646 m -12 Y s 2045 646 m
 -12 Y s 2081 646 m -12 Y s 2118 659 m -25 Y s 2118 659 m -25 Y s 2154 646 m -12 Y s
 gsave  2268 1077 0 461 C 319.305 586.478 t 0 r /Helvetica findfont 48.9324 sf 0 0 m (800) show NC gr 
 gsave  2268 1077 0 461 C 465.925 586.478 t 0 r /Helvetica findfont 48.9324 sf 0 0 m (820) show NC gr 
 gsave  2268 1077 0 461 C 612.544 586.478 t 0 r /Helvetica findfont 48.9324 sf 0 0 m (840) show NC gr 
 gsave  2268 1077 0 461 C 759.164 586.478 t 0 r /Helvetica findfont 48.9324 sf 0 0 m (860) show NC gr 
 gsave  2268 1077 0 461 C 902.525 586.478 t 0 r /Helvetica findfont 48.9324 sf 0 0 m (880) show NC gr 
 gsave  2268 1077 0 461 C 1049.14 586.478 t 0 r /Helvetica findfont 48.9324 sf 0 0 m (900) show NC gr 
 gsave  2268 1077 0 461 C 1195.76 586.478 t 0 r /Helvetica findfont 48.9324 sf 0 0 m (920) show NC gr 
 gsave  2268 1077 0 461 C 1342.38 586.478 t 0 r /Helvetica findfont 48.9324 sf 0 0 m (940) show NC gr 
 gsave  2268 1077 0 461 C 1489 586.478 t 0 r /Helvetica findfont 48.9324 sf 0 0 m (960) show NC gr 
 gsave  2268 1077 0 461 C 1635.62 586.478 t 0 r /Helvetica findfont 48.9324 sf 0 0 m (980) show NC gr 
 gsave  2268 1077 0 461 C 1769.21 586.478 t 0 r /Helvetica findfont 48.9324 sf 0 0 m (1000) show NC gr 
 gsave  2268 1077 0 461 C 1915.83 586.478 t 0 r /Helvetica findfont 48.9324 sf 0 0 m (1020) show NC gr 
 gsave  2268 1077 0 461 C 2059.19 586.478 t 0 r /Helvetica findfont 48.9324 sf 0 0 m (1040) show NC gr  363 1484 m 1791 X s 363 1459 m 25 Y s 399 1471 m 13 Y s 436 1471 m 13 Y s 473 1471 m 13 Y s 509 1459 m 25 Y s 546 1471 m 13 Y s 582 1471 m 13 Y s
 619 1471 m 13 Y s 655 1459 m 25 Y s 692 1471 m 13 Y s 728 1471 m 13 Y s 765 1471 m 13 Y s 802 1459 m 25 Y s 838 1471 m 13 Y s 875 1471 m 13 Y s 911 1471 m 13 Y s 948 1459 m 25 Y s 984 1471 m 13 Y s 1021 1471 m 13 Y s 1057 1471 m 13 Y s 1094 1459 m
 25 Y s 1131 1471 m 13 Y s 1167 1471 m 13 Y s 1204 1471 m 13 Y s 1240 1459 m 25 Y s 1277 1471 m 13 Y s 1313 1471 m 13 Y s 1350 1471 m 13 Y s 1387 1459 m 25 Y s 1423 1471 m 13 Y s 1460 1471 m 13 Y s 1496 1471 m 13 Y s 1533 1459 m 25 Y s 1569 1471 m 13
 Y s 1606 1471 m 13 Y s 1642 1471 m 13 Y s 1679 1459 m 25 Y s 1716 1471 m 13 Y s 1752 1471 m 13 Y s 1789 1471 m 13 Y s 1825 1459 m 25 Y s 1862 1471 m 13 Y s 1898 1471 m 13 Y s 1935 1471 m 13 Y s 1972 1459 m 25 Y s 2008 1471 m 13 Y s 2045 1471 m 13 Y
 s 2081 1471 m 13 Y s 2118 1459 m 25 Y s 2118 1459 m 25 Y s 2154 1471 m 13 Y s 363 634 m 850 Y s
 gsave  2268 1077 0 461 C 120.554 1058.92 t 90 r /Helvetica findfont 48.9324 sf 0 0 m (Events / \( 4.9 GeV \)) show NC gr  417 634 m -54 X s
 gsave  2268 1077 0 461 C 312.788 632.093 t 0 r /Helvetica findfont 32.6216 sf 0 0 m (\2552) show NC gr 
 gsave  2268 1077 0 461 C 260.657 612.544 t 0 r /Helvetica findfont 48.9324 sf 0 0 m (10) show NC gr  390 681 m -27 X s 390 708 m -27 X s 390 728 m -27 X s 390 743 m -27 X s 390 755 m -27 X s 390 766 m -27 X s 390 775 m -27 X s 390 783 m -27 X s 417
 790 m -54 X s
 gsave  2268 1077 0 461 C 319.305 788.488 t 0 r /Helvetica findfont 32.6216 sf 0 0 m (\2551) show NC gr 
 gsave  2268 1077 0 461 C 267.173 768.938 t 0 r /Helvetica findfont 48.9324 sf 0 0 m (10) show NC gr  390 837 m -27 X s 390 865 m -27 X s 390 884 m -27 X s 390 899 m -27 X s 390 912 m -27 X s 390 922 m -27 X s 390 931 m -27 X s 390 939 m -27 X s 417
 946 m -54 X s
 gsave  2268 1077 0 461 C 342.425 925.478 t 0 r  -27 0 t /Helvetica findfont 48.9324 sf 0 0 m (1) show NC gr  390 993 m -27 X s 390 1021 m -27 X s 390 1040 m -27 X s 390 1056 m -27 X s 390 1068 m -27 X s 390 1078 m -27 X s 390 1088 m -27 X s 390 1096
 m -27 X s 417 1103 m -54 X s
 gsave  2268 1077 0 461 C 342.425 1081.84 t 0 r  -55 0 t /Helvetica findfont 48.9324 sf 0 0 m (10) show NC gr  390 1150 m -27 X s 390 1177 m -27 X s 390 1197 m -27 X s 390 1212 m -27 X s 390 1224 m -27 X s 390 1235 m -27 X s 390 1244 m -27 X s 390
 1252 m -27 X s 417 1259 m -54 X s
 gsave  2268 1077 0 461 C 322.563 1257.67 t 0 r /Helvetica findfont 32.6216 sf 0 0 m (2) show NC gr 
 gsave  2268 1077 0 461 C 270.432 1238.12 t 0 r /Helvetica findfont 48.9324 sf 0 0 m (10) show NC gr  390 1306 m -27 X s 390 1334 m -27 X s 390 1353 m -27 X s 390 1368 m -27 X s 390 1381 m -27 X s 390 1391 m -27 X s 390 1400 m -27 X s 390 1408 m -27
 X s 417 1415 m -54 X s
 gsave  2268 1077 0 461 C 322.563 1417.32 t 0 r /Helvetica findfont 32.6216 sf 0 0 m (3) show NC gr 
 gsave  2268 1077 0 461 C 270.432 1394.52 t 0 r /Helvetica findfont 48.9324 sf 0 0 m (10) show NC gr  390 1462 m -27 X s 2154 634 m 850 Y s 2101 634 m 53 X s 2127 681 m 27 X s 2127 708 m 27 X s 2127 728 m 27 X s 2127 743 m 27 X s 2127 755 m 27 X s
 2127 766 m 27 X s 2127 775 m 27 X s 2127 783 m 27 X s 2101 790 m 53 X s 2127 837 m 27 X s 2127 865 m 27 X s 2127 884 m 27 X s 2127 899 m 27 X s 2127 912 m 27 X s 2127 922 m 27 X s 2127 931 m 27 X s 2127 939 m 27 X s 2101 946 m 53 X s 2127 993 m 27 X
 s 2127 1021 m 27 X s 2127 1040 m 27 X s 2127 1056 m 27 X s 2127 1068 m 27 X s 2127 1078 m 27 X s 2127 1088 m 27 X s 2127 1096 m 27 X s 2101 1103 m 53 X s 2127 1150 m 27 X s 2127 1177 m 27 X s 2127 1197 m 27 X s 2127 1212 m 27 X s 2127 1224 m 27 X s
 2127 1235 m 27 X s 2127 1244 m 27 X s 2127 1252 m 27 X s 2101 1259 m 53 X s 2127 1306 m 27 X s 2127 1334 m 27 X s 2127 1353 m 27 X s 2127 1368 m 27 X s 2127 1381 m 27 X s 2127 1391 m 27 X s 2127 1400 m 27 X s 2127 1408 m 27 X s 2101 1415 m 53 X s
 2127 1462 m 27 X s 381 946 m -18 X s 363 946 m cl s 381 946 m 18 X s 399 946 m cl s 381 946 m 81 Y s 381 1027 m cl s 381 946 m -119 Y s 381 827 m cl s 417 993 m -18 X s 399 993 m cl s 417 993 m 17 X s 434 993 m cl s 417 993 m 58 Y s 417 1051 m cl s
 417 993 m -70 Y s 417 923 m cl s 452 634 m -18 X s 434 634 m cl s 452 634 m 18 X s 470 634 m cl s 452 634 m 322 Y s 452 956 m cl s 488 946 m -18 X s 470 946 m cl s 488 946 m 18 X s 506 946 m cl s 488 946 m 81 Y s 488 1027 m cl s 488 946 m -119 Y s
 488 827 m cl s 524 993 m -18 X s 506 993 m cl s 524 993 m 18 X s 542 993 m cl s 524 993 m 58 Y s 524 1051 m cl s 524 993 m -70 Y s 524 923 m cl s 560 1040 m -18 X s 542 1040 m cl s 560 1040 m 18 X s 578 1040 m cl s 560 1040 m 40 Y s 560 1080 m cl s
 560 1040 m -44 Y s 560 996 m cl s 596 1021 m -18 X s 578 1021 m cl s 596 1021 m 18 X s 614 1021 m cl s 596 1021 m 46 Y s 596 1067 m cl s 596 1021 m -53 Y s 596 968 m cl s 632 1021 m -18 X s 614 1021 m cl s 632 1021 m 17 X s 649 1021 m cl s 632 1021
 m 46 Y s 632 1067 m cl s 632 1021 m -53 Y s 632 968 m cl s 667 1088 m -18 X s 649 1088 m cl s 667 1088 m 18 X s 685 1088 m cl s 667 1088 m 27 Y s 667 1115 m cl s 667 1088 m -29 Y s 667 1059 m cl s 703 1040 m -18 X s 685 1040 m cl s 703 1040 m 18 X s
 721 1040 m cl s 703 1040 m 40 Y s 703 1080 m cl s 703 1040 m -44 Y s 703 996 m cl s 739 1021 m -18 X s 721 1021 m cl s 739 1021 m 18 X s 757 1021 m cl s 739 1021 m 46 Y s 739 1067 m cl s 739 1021 m -53 Y s 739 968 m cl s 775 1088 m -18 X s 757 1088
 m cl s 775 1088 m 18 X s 793 1088 m cl s 775 1088 m 27 Y s 775 1115 m cl s 775 1088 m -29 Y s 775 1059 m cl s 811 993 m -18 X s 793 993 m cl s 811 993 m 18 X s 829 993 m cl s 811 993 m 58 Y s 811 1051 m cl s 811 993 m -70 Y s 811 923 m cl s 847 993
 m -18 X s 829 993 m cl s 847 993 m 17 X s 864 993 m cl s 847 993 m 58 Y s 847 1051 m cl s 847 993 m -70 Y s 847 923 m cl s 882 1078 m -18 X s 864 1078 m cl s 882 1078 m 18 X s 900 1078 m cl s 882 1078 m 30 Y s 882 1108 m cl s 882 1078 m -31 Y s 882
 1047 m cl s 918 1021 m -18 X s 900 1021 m cl s 918 1021 m 18 X s 936 1021 m cl s 918 1021 m 46 Y s 918 1067 m cl s 918 1021 m -53 Y s 918 968 m cl s 954 1021 m -18 X s 936 1021 m cl s 954 1021 m 18 X s 972 1021 m cl s 954 1021 m 46 Y s 954 1067 m cl
 s 954 1021 m -53 Y s 954 968 m cl s 990 1021 m -18 X s 972 1021 m cl s 990 1021 m 18 X s 1008 1021 m cl s 990 1021 m 46 Y s 990 1067 m cl s 990 1021 m -53 Y s 990 968 m cl s 1026 1078 m -18 X s 1008 1078 m cl s 1026 1078 m 18 X s 1044 1078 m cl s
 1026 1078 m 30 Y s 1026 1108 m cl s 1026 1078 m -31 Y s 1026 1047 m cl s 1062 1088 m -18 X s 1044 1088 m cl s 1062 1088 m 17 X s 1079 1088 m cl s 1062 1088 m 27 Y s 1062 1115 m cl s 1062 1088 m -29 Y s 1062 1059 m cl s 1097 1078 m -18 X s 1079 1078
 m cl s 1097 1078 m 18 X s 1115 1078 m cl s 1097 1078 m 30 Y s 1097 1108 m cl s 1097 1078 m -31 Y s 1097 1047 m cl s 1133 1040 m -18 X s 1115 1040 m cl s 1133 1040 m 18 X s 1151 1040 m cl s 1133 1040 m 40 Y s 1133 1080 m cl s 1133 1040 m -44 Y s 1133
 996 m cl s 1169 1103 m -18 X s 1151 1103 m cl s 1169 1103 m 18 X s 1187 1103 m cl s 1169 1103 m 24 Y s 1169 1127 m cl s 1169 1103 m -26 Y s 1169 1077 m cl s 1205 1121 m -18 X s 1187 1121 m cl s 1205 1121 m 18 X s 1223 1121 m cl s 1205 1121 m 20 Y s
 1205 1141 m cl s 1205 1121 m -22 Y s 1205 1099 m cl s 1241 1121 m -18 X s 1223 1121 m cl s 1241 1121 m 18 X s 1259 1121 m cl s 1241 1121 m 20 Y s 1241 1141 m cl s 1241 1121 m -22 Y s 1241 1099 m cl s 1276 1135 m -17 X s 1259 1135 m cl s 1276 1135 m
 18 X s 1294 1135 m cl s 1276 1135 m 18 Y s 1276 1153 m cl s 1276 1135 m -20 Y s 1276 1115 m cl s 1312 1153 m -18 X s 1294 1153 m cl s 1312 1153 m 18 X s 1330 1153 m cl s 1312 1153 m 16 Y s 1312 1169 m cl s 1312 1153 m -16 Y s 1312 1137 m cl s 1348
 1126 m -18 X s 1330 1126 m cl s 1348 1126 m 18 X s 1366 1126 m cl s 1348 1126 m 20 Y s 1348 1146 m cl s 1348 1126 m -21 Y s 1348 1105 m cl s 1384 1170 m -18 X s 1366 1170 m cl s 1384 1170 m 18 X s 1402 1170 m cl s 1384 1170 m 14 Y s 1384 1184 m cl s
 1384 1170 m -14 Y s 1384 1156 m cl s 1420 1190 m -18 X s 1402 1190 m cl s 1420 1190 m 18 X s 1438 1190 m cl s 1420 1190 m 12 Y s 1420 1202 m cl s 1420 1190 m -13 Y s 1420 1177 m cl s 1456 1188 m -18 X s 1438 1188 m cl s 1456 1188 m 18 X s 1474 1188
 m cl s 1456 1188 m 12 Y s 1456 1200 m cl s 1456 1188 m -13 Y s 1456 1175 m cl s 1491 1200 m -17 X s 1474 1200 m cl s 1491 1200 m 18 X s 1509 1200 m cl s 1491 1200 m 11 Y s 1491 1211 m cl s 1491 1200 m -11 Y s 1491 1189 m cl s 1527 1223 m -18 X s
 1509 1223 m cl s 1527 1223 m 18 X s 1545 1223 m cl s 1527 1223 m 10 Y s 1527 1233 m cl s 1527 1223 m -9 Y s 1527 1214 m cl s 1563 1241 m -18 X s 1545 1241 m cl s 1563 1241 m 18 X s 1581 1241 m cl s 1563 1241 m 8 Y s 1563 1249 m cl s 1563 1241 m -8 Y
 s 1563 1233 m cl s 1599 1253 m -18 X s 1581 1253 m cl s 1599 1253 m 18 X s 1617 1253 m cl s 1599 1253 m 7 Y s 1599 1260 m cl s 1599 1253 m -8 Y s 1599 1245 m cl s 1635 1290 m -18 X s 1617 1290 m cl s 1635 1290 m 18 X s 1653 1290 m cl s 1635 1290 m 6
 Y s 1635 1296 m cl s 1635 1290 m -5 Y s 1635 1285 m cl s 1671 1316 m -18 X s 1653 1316 m cl s 1671 1316 m 18 X s 1689 1316 m cl s 1671 1316 m 5 Y s 1671 1321 m cl s 1671 1316 m -4 Y s 1671 1312 m cl s 1706 1357 m -17 X s 1689 1357 m cl s 1706 1357 m
 18 X s 1724 1357 m cl s 1706 1357 m 3 Y s 1706 1360 m cl s 1706 1357 m -3 Y s 1706 1354 m cl s 1742 1406 m -18 X s 1724 1406 m cl s 1742 1406 m 18 X s 1760 1406 m cl s 1742 1406 m 2 Y s 1742 1408 m cl s 1742 1406 m -2 Y s 1742 1404 m cl s 1778 1437
 m -18 X s 1760 1437 m cl s 1778 1437 m 18 X s 1796 1437 m cl s 1778 1437 m 2 Y s 1778 1439 m cl s 1778 1437 m -2 Y s 1778 1435 m cl s 1814 1449 m -18 X s 1796 1449 m cl s 1814 1449 m 18 X s 1832 1449 m cl s 1814 1449 m 1 Y s 1814 1450 m cl s 1814
 1449 m -2 Y s 1814 1447 m cl s 1850 1427 m -18 X s 1832 1427 m cl s 1850 1427 m 18 X s 1868 1427 m cl s 1850 1427 m 2 Y s 1850 1429 m cl s 1850 1427 m -2 Y s 1850 1425 m cl s 1886 1367 m -18 X s 1868 1367 m cl s 1886 1367 m 18 X s 1904 1367 m cl s
 1886 1367 m 3 Y s 1886 1370 m cl s 1886 1367 m -3 Y s 1886 1364 m cl s 1921 1288 m -17 X s 1904 1288 m cl s 1921 1288 m 18 X s 1939 1288 m cl s 1921 1288 m 5 Y s 1921 1293 m cl s 1921 1288 m -6 Y s 1921 1282 m cl s 1957 1215 m -18 X s 1939 1215 m cl
 s 1957 1215 m 18 X s 1975 1215 m cl s 1957 1215 m 10 Y s 1957 1225 m cl s 1957 1215 m -10 Y s 1957 1205 m cl s 1993 1162 m -18 X s 1975 1162 m cl s 1993 1162 m 18 X s 2011 1162 m cl s 1993 1162 m 15 Y s 1993 1177 m cl s 1993 1162 m -15 Y s 1993 1147
 m cl s 2029 1109 m -18 X s 2011 1109 m cl s 2029 1109 m 18 X s 2047 1109 m cl s 2029 1109 m 23 Y s 2029 1132 m cl s 2029 1109 m -24 Y s 2029 1085 m cl s 2065 1088 m -18 X s 2047 1088 m cl s 2065 1088 m 18 X s 2083 1088 m cl s 2065 1088 m 27 Y s 2065
 1115 m cl s 2065 1088 m -29 Y s 2065 1059 m cl s 2101 1096 m -18 X s 2083 1096 m cl s 2101 1096 m 18 X s 2119 1096 m cl s 2101 1096 m 25 Y s 2101 1121 m cl s 2101 1096 m -27 Y s 2101 1069 m cl s 2136 1068 m -17 X s 2119 1068 m cl s 2136 1068 m 18 X
 s 2154 1068 m cl s 2136 1068 m 32 Y s 2136 1100 m cl s 2136 1068 m -34 Y s 2136 1034 m cl s /w 31 def /w2 {w 2 div} def /w3 {w 3 div} def 381 946 417 993 2 { m20} R 488 946 524 993 560 1040 596 1021 632 1021 667 1088 703 1040 739 1021 775 1088 811
 993 847 993 882 1078 918 1021 954 1021 990 1021 1026 1078 1062 1088 1097 1078 1133 1040 1169 1103 1205 1121 1241 1121 1276 1135 1312 1153 1348 1126 1384 1170 1420 1190 1456 1188 1491 1200 1527 1223 1563 1241 1599 1253 1635 1290 1671 1316 1706 1357
 1742 1406 1778 1437 1814 1449 1850 1427 1886 1367 1921 1288 1957 1215 1993 1162 2029 1109 2065 1088 2101 1096 2136 1068 47 { m20} R 0 1 1 c 1 1 0 c black 1 1 0 c 363 999 m 36 3 d 35 4 d 36 3 d 36 4 d 36 3 d 36 4 d 36 4 d 35 4 d 36 5 d 36 4 d 36 5 d
 36 4 d 36 5 d 35 5 d 36 5 d 36 6 d 36 5 d 36 6 d 36 6 d 35 7 d 36 6 d 36 8 d 36 7 d 36 8 d 36 9 d 35 9 d 36 11 d 36 12 d 36 12 d 36 14 d 36 15 d 35 17 d 36 17 d 36 20 d 18 11 d 18 11 d 18 12 d 18 13 d 9 8 d 9 7 d 9 8 d 9 8 d 8 10 d 9 10 d 5 5 d 4 6
 d 5 6 d 4 7 d 5 7 d 4 7 d 5 8 d 4 6 d 18 22 d 5 5 d 4 4 d 5 3 d 4 3 d 5 3 d 4 2 d 5 2 d 4 1 d 5 1 d 8 X 5 -1 d 4 -1 d 5 -2 d 4 -2 d 5 -3 d 4 -4 d 5 -3 d 4 -5 d 5 -4 d 18 -24 d 4 -7 d 5 -7 d 4 -8 d 5 -9 d 4 -8 d 5 -9 d 4 -10 d 5 -9 d 4 -11 d 4 -10 d
 5 -11 d 4 -10 d 5 -12 d 4 -10 d 9 -22 d 9 -20 d 9 -17 d 18 -27 d 36 -31 d 36 -23 d 36 -21 d 36 -21 d 35 -24 d -98 Y -35 56 d -36 42 d -36 30 d -36 23 d -36 37 d -18 35 d -9 21 d -9 22 d -9 23 d -4 12 d -5 11 d -4 11 d -5 12 d -4 11 d -4 11 d -5 10 d
 -4 10 d -5 10 d -4 10 d -5 9 d -4 8 d -5 8 d -4 8 d -18 25 d -5 5 d -4 4 d -5 4 d -4 3 d -5 3 d -4 2 d -5 2 d -4 1 d -5 1 d -4 1 d -4 X -5 -1 d -4 -1 d -5 -2 d -4 -2 d -5 -3 d -4 -3 d -5 -4 d -4 -4 d -5 -5 d -18 -25 d -4 -8 d -5 -7 d -4 -7 d -5 -6 d
 -4 -6 d -5 -6 d -4 -5 d -5 -6 d -9 -10 d -8 -9 d -9 -9 d -9 -9 d -9 -7 d -9 -8 d -18 -13 d -18 -13 d -18 -11 d -18 -11 d -36 -20 d -36 -19 d -35 -18 d -36 -16 d -36 -14 d -36 -13 d -36 -12 d -36 -10 d -35 -10 d -36 -9 d -36 -8 d -36 -8 d -36 -7 d
 -36 -7 d -35 -6 d -36 -7 d -36 -6 d -36 -5 d -36 -6 d -36 -5 d -35 -5 d -36 -5 d -36 -5 d -36 -4 d -36 -5 d -36 -4 d -35 -4 d -36 -4 d -36 -4 d -36 -4 d -36 -3 d -36 -4 d -35 -4 d -36 -3 d f 0 1 1 c 0 1 0 c black 0 1 0 c 363 995 m 36 4 d 35 3 d 36 4
 d 36 3 d 36 4 d 36 4 d 36 4 d 35 4 d 36 4 d 36 5 d 36 4 d 36 5 d 36 5 d 35 5 d 36 5 d 36 5 d 36 6 d 36 6 d 36 6 d 35 7 d 36 6 d 36 7 d 36 8 d 36 8 d 36 9 d 35 10 d 36 10 d 36 12 d 36 13 d 36 14 d 36 15 d 35 16 d 36 18 d 36 20 d 18 11 d 18 11 d 18 12
 d 18 14 d 9 7 d 9 7 d 9 8 d 9 9 d 8 9 d 9 10 d 5 6 d 4 6 d 5 6 d 4 6 d 5 7 d 4 7 d 5 8 d 4 7 d 18 22 d 5 5 d 4 4 d 5 4 d 4 3 d 5 2 d 4 3 d 5 1 d 4 2 d 13 X 5 -1 d 4 -1 d 5 -2 d 4 -2 d 5 -3 d 4 -3 d 5 -4 d 4 -5 d 5 -4 d 18 -24 d 4 -7 d 5 -8 d 4 -8 d
 5 -8 d 4 -9 d 5 -9 d 4 -10 d 5 -10 d 4 -10 d 4 -11 d 5 -11 d 4 -11 d 5 -11 d 4 -11 d 9 -21 d 9 -21 d 9 -18 d 18 -28 d 36 -32 d 36 -24 d 36 -21 d 36 -23 d 35 -26 d -50 Y -35 41 d -36 35 d -36 27 d -36 22 d -36 35 d -18 33 d -9 20 d -9 21 d -9 23 d -4
 11 d -5 12 d -4 11 d -5 11 d -4 11 d -4 11 d -5 10 d -4 10 d -5 10 d -4 9 d -5 8 d -4 9 d -5 8 d -4 7 d -18 25 d -5 4 d -4 5 d -5 4 d -4 3 d -5 3 d -4 2 d -5 2 d -4 1 d -5 1 d -4 1 d -4 X -5 -1 d -4 -1 d -5 -2 d -4 -2 d -5 -3 d -4 -3 d -5 -4 d -4 -4
 d -5 -5 d -18 -24 d -4 -8 d -5 -7 d -4 -7 d -5 -6 d -4 -6 d -5 -6 d -4 -6 d -5 -5 d -9 -10 d -8 -10 d -9 -9 d -9 -8 d -9 -8 d -9 -7 d -18 -13 d -18 -13 d -18 -11 d -18 -11 d -36 -20 d -36 -19 d -35 -17 d -36 -16 d -36 -14 d -36 -13 d -36 -11 d -36
 -11 d -35 -9 d -36 -9 d -36 -8 d -36 -8 d -36 -7 d -36 -7 d -35 -7 d -36 -6 d -36 -6 d -36 -6 d -36 -5 d -36 -5 d -35 -5 d -36 -5 d -36 -5 d -36 -4 d -36 -5 d -36 -4 d -35 -4 d -36 -4 d -36 -4 d -36 -4 d -36 -4 d -36 -3 d -35 -4 d -36 -3 d f 0 0 1 c
 9 lw black 0 0 1 c 363 992 m 36 3 d 35 4 d 36 3 d 36 4 d 36 4 d 36 4 d 36 4 d 35 4 d 36 4 d 36 4 d 36 5 d 36 4 d 36 5 d 35 5 d 36 6 d 36 5 d 36 6 d 36 6 d 36 6 d 35 6 d 36 7 d 36 7 d 36 8 d 36 8 d 36 9 d 35 9 d 36 11 d 36 12 d 36 12 d 36 15 d 36 15
 d 35 17 d 36 18 d 36 20 d 18 11 d 18 11 d 18 13 d 18 13 d 9 7 d 9 8 d 9 8 d 9 9 d 8 9 d 9 10 d 5 6 d 4 5 d 5 6 d 4 7 d 5 6 d 4 7 d 5 8 d 4 7 d 18 23 d 5 5 d 4 4 d 5 4 d 4 3 d 5 3 d 4 2 d 5 2 d 4 1 d 5 X 4 1 d 4 -1 d 5 -1 d 4 -1 d 5 -2 d 4 -2 d 5 -3
 d 4 -3 d 5 -4 d 4 -5 d 5 -4 d 18 -25 d 4 -7 d 5 -8 d 4 -8 d 5 -8 d 4 -9 d 5 -10 d 4 -10 d 5 -10 d 4 -10 d 4 -11 d 5 -11 d 4 -11 d 5 -11 d 4 -11 d 9 -22 d 9 -21 d 9 -19 d 18 -30 d 36 -34 d 36 -23 d 36 -24 d 36 -28 d 35 -30 d s black 3 lw 381 946 m
 -18 X s 363 946 m cl s 381 946 m 18 X s 399 946 m cl s 381 946 m 81 Y s 381 1027 m cl s 381 946 m -119 Y s 381 827 m cl s 417 993 m -18 X s 399 993 m cl s 417 993 m 17 X s 434 993 m cl s 417 993 m 58 Y s 417 1051 m cl s 417 993 m -70 Y s 417 923 m
 cl s 452 634 m -18 X s 434 634 m cl s 452 634 m 18 X s 470 634 m cl s 452 634 m 322 Y s 452 956 m cl s 488 946 m -18 X s 470 946 m cl s 488 946 m 18 X s 506 946 m cl s 488 946 m 81 Y s 488 1027 m cl s 488 946 m -119 Y s 488 827 m cl s 524 993 m -18
 X s 506 993 m cl s 524 993 m 18 X s 542 993 m cl s 524 993 m 58 Y s 524 1051 m cl s 524 993 m -70 Y s 524 923 m cl s 560 1040 m -18 X s 542 1040 m cl s 560 1040 m 18 X s 578 1040 m cl s 560 1040 m 40 Y s 560 1080 m cl s 560 1040 m -44 Y s 560 996 m
 cl s 596 1021 m -18 X s 578 1021 m cl s 596 1021 m 18 X s 614 1021 m cl s 596 1021 m 46 Y s 596 1067 m cl s 596 1021 m -53 Y s 596 968 m cl s 632 1021 m -18 X s 614 1021 m cl s 632 1021 m 17 X s 649 1021 m cl s 632 1021 m 46 Y s 632 1067 m cl s 632
 1021 m -53 Y s 632 968 m cl s 667 1088 m -18 X s 649 1088 m cl s 667 1088 m 18 X s 685 1088 m cl s 667 1088 m 27 Y s 667 1115 m cl s 667 1088 m -29 Y s 667 1059 m cl s 703 1040 m -18 X s 685 1040 m cl s 703 1040 m 18 X s 721 1040 m cl s 703 1040 m
 40 Y s 703 1080 m cl s 703 1040 m -44 Y s 703 996 m cl s 739 1021 m -18 X s 721 1021 m cl s 739 1021 m 18 X s 757 1021 m cl s 739 1021 m 46 Y s 739 1067 m cl s 739 1021 m -53 Y s 739 968 m cl s 775 1088 m -18 X s 757 1088 m cl s 775 1088 m 18 X s
 793 1088 m cl s 775 1088 m 27 Y s 775 1115 m cl s 775 1088 m -29 Y s 775 1059 m cl s 811 993 m -18 X s 793 993 m cl s 811 993 m 18 X s 829 993 m cl s 811 993 m 58 Y s 811 1051 m cl s 811 993 m -70 Y s 811 923 m cl s 847 993 m -18 X s 829 993 m cl s
 847 993 m 17 X s 864 993 m cl s 847 993 m 58 Y s 847 1051 m cl s 847 993 m -70 Y s 847 923 m cl s 882 1078 m -18 X s 864 1078 m cl s 882 1078 m 18 X s 900 1078 m cl s 882 1078 m 30 Y s 882 1108 m cl s 882 1078 m -31 Y s 882 1047 m cl s 918 1021 m
 -18 X s 900 1021 m cl s 918 1021 m 18 X s 936 1021 m cl s 918 1021 m 46 Y s 918 1067 m cl s 918 1021 m -53 Y s 918 968 m cl s 954 1021 m -18 X s 936 1021 m cl s 954 1021 m 18 X s 972 1021 m cl s 954 1021 m 46 Y s 954 1067 m cl s 954 1021 m -53 Y s
 954 968 m cl s 990 1021 m -18 X s 972 1021 m cl s 990 1021 m 18 X s 1008 1021 m cl s 990 1021 m 46 Y s 990 1067 m cl s 990 1021 m -53 Y s 990 968 m cl s 1026 1078 m -18 X s 1008 1078 m cl s 1026 1078 m 18 X s 1044 1078 m cl s 1026 1078 m 30 Y s 1026
 1108 m cl s 1026 1078 m -31 Y s 1026 1047 m cl s 1062 1088 m -18 X s 1044 1088 m cl s 1062 1088 m 17 X s 1079 1088 m cl s 1062 1088 m 27 Y s 1062 1115 m cl s 1062 1088 m -29 Y s 1062 1059 m cl s 1097 1078 m -18 X s 1079 1078 m cl s 1097 1078 m 18 X
 s 1115 1078 m cl s 1097 1078 m 30 Y s 1097 1108 m cl s 1097 1078 m -31 Y s 1097 1047 m cl s 1133 1040 m -18 X s 1115 1040 m cl s 1133 1040 m 18 X s 1151 1040 m cl s 1133 1040 m 40 Y s 1133 1080 m cl s 1133 1040 m -44 Y s 1133 996 m cl s 1169 1103 m
 -18 X s 1151 1103 m cl s 1169 1103 m 18 X s 1187 1103 m cl s 1169 1103 m 24 Y s 1169 1127 m cl s 1169 1103 m -26 Y s 1169 1077 m cl s 1205 1121 m -18 X s 1187 1121 m cl s 1205 1121 m 18 X s 1223 1121 m cl s 1205 1121 m 20 Y s 1205 1141 m cl s 1205
 1121 m -22 Y s 1205 1099 m cl s 1241 1121 m -18 X s 1223 1121 m cl s 1241 1121 m 18 X s 1259 1121 m cl s 1241 1121 m 20 Y s 1241 1141 m cl s 1241 1121 m -22 Y s 1241 1099 m cl s 1276 1135 m -17 X s 1259 1135 m cl s 1276 1135 m 18 X s 1294 1135 m cl
 s 1276 1135 m 18 Y s 1276 1153 m cl s 1276 1135 m -20 Y s 1276 1115 m cl s 1312 1153 m -18 X s 1294 1153 m cl s 1312 1153 m 18 X s 1330 1153 m cl s 1312 1153 m 16 Y s 1312 1169 m cl s 1312 1153 m -16 Y s 1312 1137 m cl s 1348 1126 m -18 X s 1330
 1126 m cl s 1348 1126 m 18 X s 1366 1126 m cl s 1348 1126 m 20 Y s 1348 1146 m cl s 1348 1126 m -21 Y s 1348 1105 m cl s 1384 1170 m -18 X s 1366 1170 m cl s 1384 1170 m 18 X s 1402 1170 m cl s 1384 1170 m 14 Y s 1384 1184 m cl s 1384 1170 m -14 Y s
 1384 1156 m cl s 1420 1190 m -18 X s 1402 1190 m cl s 1420 1190 m 18 X s 1438 1190 m cl s 1420 1190 m 12 Y s 1420 1202 m cl s 1420 1190 m -13 Y s 1420 1177 m cl s 1456 1188 m -18 X s 1438 1188 m cl s 1456 1188 m 18 X s 1474 1188 m cl s 1456 1188 m
 12 Y s 1456 1200 m cl s 1456 1188 m -13 Y s 1456 1175 m cl s 1491 1200 m -17 X s 1474 1200 m cl s 1491 1200 m 18 X s 1509 1200 m cl s 1491 1200 m 11 Y s 1491 1211 m cl s 1491 1200 m -11 Y s 1491 1189 m cl s 1527 1223 m -18 X s 1509 1223 m cl s 1527
 1223 m 18 X s 1545 1223 m cl s 1527 1223 m 10 Y s 1527 1233 m cl s 1527 1223 m -9 Y s 1527 1214 m cl s 1563 1241 m -18 X s 1545 1241 m cl s 1563 1241 m 18 X s 1581 1241 m cl s 1563 1241 m 8 Y s 1563 1249 m cl s 1563 1241 m -8 Y s 1563 1233 m cl s
 1599 1253 m -18 X s 1581 1253 m cl s 1599 1253 m 18 X s 1617 1253 m cl s 1599 1253 m 7 Y s 1599 1260 m cl s 1599 1253 m -8 Y s 1599 1245 m cl s 1635 1290 m -18 X s 1617 1290 m cl s 1635 1290 m 18 X s 1653 1290 m cl s 1635 1290 m 6 Y s 1635 1296 m cl
 s 1635 1290 m -5 Y s 1635 1285 m cl s 1671 1316 m -18 X s 1653 1316 m cl s 1671 1316 m 18 X s 1689 1316 m cl s 1671 1316 m 5 Y s 1671 1321 m cl s 1671 1316 m -4 Y s 1671 1312 m cl s 1706 1357 m -17 X s 1689 1357 m cl s 1706 1357 m 18 X s 1724 1357 m
 cl s 1706 1357 m 3 Y s 1706 1360 m cl s 1706 1357 m -3 Y s 1706 1354 m cl s 1742 1406 m -18 X s 1724 1406 m cl s 1742 1406 m 18 X s 1760 1406 m cl s 1742 1406 m 2 Y s 1742 1408 m cl s 1742 1406 m -2 Y s 1742 1404 m cl s 1778 1437 m -18 X s 1760 1437
 m cl s 1778 1437 m 18 X s 1796 1437 m cl s 1778 1437 m 2 Y s 1778 1439 m cl s 1778 1437 m -2 Y s 1778 1435 m cl s 1814 1449 m -18 X s 1796 1449 m cl s 1814 1449 m 18 X s 1832 1449 m cl s 1814 1449 m 1 Y s 1814 1450 m cl s 1814 1449 m -2 Y s 1814
 1447 m cl s 1850 1427 m -18 X s 1832 1427 m cl s 1850 1427 m 18 X s 1868 1427 m cl s 1850 1427 m 2 Y s 1850 1429 m cl s 1850 1427 m -2 Y s 1850 1425 m cl s 1886 1367 m -18 X s 1868 1367 m cl s 1886 1367 m 18 X s 1904 1367 m cl s 1886 1367 m 3 Y s
 1886 1370 m cl s 1886 1367 m -3 Y s 1886 1364 m cl s 1921 1288 m -17 X s 1904 1288 m cl s 1921 1288 m 18 X s 1939 1288 m cl s 1921 1288 m 5 Y s 1921 1293 m cl s 1921 1288 m -6 Y s 1921 1282 m cl s 1957 1215 m -18 X s 1939 1215 m cl s 1957 1215 m 18
 X s 1975 1215 m cl s 1957 1215 m 10 Y s 1957 1225 m cl s 1957 1215 m -10 Y s 1957 1205 m cl s 1993 1162 m -18 X s 1975 1162 m cl s 1993 1162 m 18 X s 2011 1162 m cl s 1993 1162 m 15 Y s 1993 1177 m cl s 1993 1162 m -15 Y s 1993 1147 m cl s 2029 1109
 m -18 X s 2011 1109 m cl s 2029 1109 m 18 X s 2047 1109 m cl s 2029 1109 m 23 Y s 2029 1132 m cl s 2029 1109 m -24 Y s 2029 1085 m cl s 2065 1088 m -18 X s 2047 1088 m cl s 2065 1088 m 18 X s 2083 1088 m cl s 2065 1088 m 27 Y s 2065 1115 m cl s 2065
 1088 m -29 Y s 2065 1059 m cl s 2101 1096 m -18 X s 2083 1096 m cl s 2101 1096 m 18 X s 2119 1096 m cl s 2101 1096 m 25 Y s 2101 1121 m cl s 2101 1096 m -27 Y s 2101 1069 m cl s 2136 1068 m -17 X s 2119 1068 m cl s 2136 1068 m 18 X s 2154 1068 m cl
 s 2136 1068 m 32 Y s 2136 1100 m cl s 2136 1068 m -34 Y s 2136 1034 m cl s 381 946 417 993 2 { m20} R 488 946 524 993 560 1040 596 1021 632 1021 667 1088 703 1040 739 1021 775 1088 811 993 847 993 882 1078 918 1021 954 1021 990 1021 1026 1078 1062
 1088 1097 1078 1133 1040 1169 1103 1205 1121 1241 1121 1276 1135 1312 1153 1348 1126 1384 1170 1420 1190 1456 1188 1491 1200 1527 1223 1563 1241 1599 1253 1635 1290 1671 1316 1706 1357 1742 1406 1778 1437 1814 1449 1850 1427 1886 1367 1921 1288 1957
 1215 1993 1162 2029 1109 2065 1088 2101 1096 2136 1068 47 { m20} R 0.52 0.76 0.64 c[ 4 8] 0 sd 9 lw black 0.52 0.76 0.64 c 363 992 m 36 3 d 35 4 d 36 3 d 36 4 d 36 4 d 36 4 d 36 4 d 35 4 d 36 4 d 36 4 d 36 5 d 36 4 d 36 5 d 35 5 d 36 6 d 36 5 d 36 6
 d 36 6 d 36 6 d 35 6 d 36 7 d 36 7 d 36 8 d 36 8 d 36 8 d 35 9 d 36 10 d 36 10 d 36 12 d 36 12 d 36 14 d 35 15 d 36 17 d 36 19 d 18 11 d 18 12 d 18 13 d 18 14 d 9 8 d 9 8 d 9 9 d 9 9 d 8 11 d 9 10 d 5 6 d 4 6 d 5 7 d 4 6 d 5 7 d 4 8 d 5 7 d 4 8 d 18
 24 d 5 5 d 4 4 d 5 4 d 4 3 d 5 3 d 4 2 d 5 2 d 4 1 d 5 1 d 8 X 5 -1 d 4 -2 d 5 -1 d 4 -3 d 5 -3 d 4 -3 d 5 -4 d 4 -5 d 5 -5 d 9 -11 d 9 -14 d 4 -7 d 5 -8 d 4 -9 d 5 -9 d 4 -10 d 5 -10 d 4 -10 d 5 -11 d 4 -12 d 4 -12 d 5 -13 d 4 -13 d 5 -14 d 4 -14 d
 9 -30 d 9 -32 d 9 -35 d 18 -74 d 36 -174 d 36 -207 d 9 -59 d s 0.54 0.66 0.63 c black 0.54 0.66 0.63 c 1148 634 m 3 5 d s 1151 639 m 36 59 d 36 56 d 36 52 d 35 50 d 36 45 d 36 43 d 18 19 d 18 20 d 18 18 d 18 17 d 18 17 d 18 16 d 17 15 d 18 14 d 18
 13 d 18 12 d 18 12 d 18 11 d 18 10 d 18 9 d 36 16 d 18 6 d 18 6 d 17 5 d 18 4 d 9 2 d 9 1 d 9 2 d 9 1 d 9 1 d 9 1 d 45 X 9 -1 d 9 X 9 -1 d 9 -1 d 9 -2 d 9 -1 d 9 -2 d 18 -4 d 17 -5 d 18 -6 d 36 -14 d 18 -9 d 18 -9 d 18 -10 d 18 -11 d 18 -11 d 18 -13
 d 18 -13 d 18 -15 d 17 -15 d 18 -15 d s black[  ] 0 sd 3 lw 363 634 m 1791 X s 363 659 m -25 Y s 399 646 m -12 Y s 436 646 m -12 Y s 473 646 m -12 Y s 509 659 m -25 Y s 546 646 m -12 Y s 582 646 m -12 Y s 619 646 m -12 Y s 655 659 m -25 Y s 692 646
 m -12 Y s 728 646 m -12 Y s 765 646 m -12 Y s 802 659 m -25 Y s 838 646 m -12 Y s 875 646 m -12 Y s 911 646 m -12 Y s 948 659 m -25 Y s 984 646 m -12 Y s 1021 646 m -12 Y s 1057 646 m -12 Y s 1094 659 m -25 Y s 1131 646 m -12 Y s 1167 646 m -12 Y s
 1204 646 m -12 Y s 1240 659 m -25 Y s 1277 646 m -12 Y s 1313 646 m -12 Y s 1350 646 m -12 Y s 1387 659 m -25 Y s 1423 646 m -12 Y s 1460 646 m -12 Y s 1496 646 m -12 Y s 1533 659 m -25 Y s 1569 646 m -12 Y s 1606 646 m -12 Y s 1642 646 m -12 Y s
 1679 659 m -25 Y s 1716 646 m -12 Y s 1752 646 m -12 Y s 1789 646 m -12 Y s 1825 659 m -25 Y s 1862 646 m -12 Y s 1898 646 m -12 Y s 1935 646 m -12 Y s 1972 659 m -25 Y s 2008 646 m -12 Y s 2045 646 m -12 Y s 2081 646 m -12 Y s 2118 659 m -25 Y s
 2118 659 m -25 Y s 2154 646 m -12 Y s 363 1484 m 1791 X s 363 1459 m 25 Y s 399 1471 m 13 Y s 436 1471 m 13 Y s 473 1471 m 13 Y s 509 1459 m 25 Y s 546 1471 m 13 Y s 582 1471 m 13 Y s 619 1471 m 13 Y s 655 1459 m 25 Y s 692 1471 m 13 Y s 728 1471 m
 13 Y s 765 1471 m 13 Y s 802 1459 m 25 Y s 838 1471 m 13 Y s 875 1471 m 13 Y s 911 1471 m 13 Y s 948 1459 m 25 Y s 984 1471 m 13 Y s 1021 1471 m 13 Y s 1057 1471 m 13 Y s 1094 1459 m 25 Y s 1131 1471 m 13 Y s 1167 1471 m 13 Y s 1204 1471 m 13 Y s
 1240 1459 m 25 Y s 1277 1471 m 13 Y s 1313 1471 m 13 Y s 1350 1471 m 13 Y s 1387 1459 m 25 Y s 1423 1471 m 13 Y s 1460 1471 m 13 Y s 1496 1471 m 13 Y s 1533 1459 m 25 Y s 1569 1471 m 13 Y s 1606 1471 m 13 Y s 1642 1471 m 13 Y s 1679 1459 m 25 Y s
 1716 1471 m 13 Y s 1752 1471 m 13 Y s 1789 1471 m 13 Y s 1825 1459 m 25 Y s 1862 1471 m 13 Y s 1898 1471 m 13 Y s 1935 1471 m 13 Y s 1972 1459 m 25 Y s 2008 1471 m 13 Y s 2045 1471 m 13 Y s 2081 1471 m 13 Y s 2118 1459 m 25 Y s 2118 1459 m 25 Y s
 2154 1471 m 13 Y s 363 634 m 850 Y s 417 634 m -54 X s 390 681 m -27 X s 390 708 m -27 X s 390 728 m -27 X s 390 743 m -27 X s 390 755 m -27 X s 390 766 m -27 X s 390 775 m -27 X s 390 783 m -27 X s 417 790 m -54 X s 390 837 m -27 X s 390 865 m -27
 X s 390 884 m -27 X s 390 899 m -27 X s 390 912 m -27 X s 390 922 m -27 X s 390 931 m -27 X s 390 939 m -27 X s 417 946 m -54 X s 390 993 m -27 X s 390 1021 m -27 X s 390 1040 m -27 X s 390 1056 m -27 X s 390 1068 m -27 X s 390 1078 m -27 X s 390
 1088 m -27 X s 390 1096 m -27 X s 417 1103 m -54 X s 390 1150 m -27 X s 390 1177 m -27 X s 390 1197 m -27 X s 390 1212 m -27 X s 390 1224 m -27 X s 390 1235 m -27 X s 390 1244 m -27 X s 390 1252 m -27 X s 417 1259 m -54 X s 390 1306 m -27 X s 390
 1334 m -27 X s 390 1353 m -27 X s 390 1368 m -27 X s 390 1381 m -27 X s 390 1391 m -27 X s 390 1400 m -27 X s 390 1408 m -27 X s 417 1415 m -54 X s 390 1462 m -27 X s 2154 634 m 850 Y s 2101 634 m 53 X s 2127 681 m 27 X s 2127 708 m 27 X s 2127 728
 m 27 X s 2127 743 m 27 X s 2127 755 m 27 X s 2127 766 m 27 X s 2127 775 m 27 X s 2127 783 m 27 X s 2101 790 m 53 X s 2127 837 m 27 X s 2127 865 m 27 X s 2127 884 m 27 X s 2127 899 m 27 X s 2127 912 m 27 X s 2127 922 m 27 X s 2127 931 m 27 X s 2127
 939 m 27 X s 2101 946 m 53 X s 2127 993 m 27 X s 2127 1021 m 27 X s 2127 1040 m 27 X s 2127 1056 m 27 X s 2127 1068 m 27 X s 2127 1078 m 27 X s 2127 1088 m 27 X s 2127 1096 m 27 X s 2101 1103 m 53 X s 2127 1150 m 27 X s 2127 1177 m 27 X s 2127 1197
 m 27 X s 2127 1212 m 27 X s 2127 1224 m 27 X s 2127 1235 m 27 X s 2127 1244 m 27 X s 2127 1252 m 27 X s 2101 1259 m 53 X s 2127 1306 m 27 X s 2127 1334 m 27 X s 2127 1353 m 27 X s 2127 1368 m 27 X s 2127 1381 m 27 X s 2127 1391 m 27 X s 2127 1400 m
 27 X s 2127 1408 m 27 X s 2101 1415 m 53 X s 2127 1462 m 27 X s
 gsave  2268 1077 0 461 C 677.708 1215.31 t 0 r /Helvetica findfont 58.7189 sf 0 0 m (4e) show NC gr  1 1 1 c 453 161 454 1269 bf black
 gsave  2268 1077 0 461 C 566.929 1371.71 t 0 r /Helvetica-Bold findfont 48.9324 sf 0 0 m (MC15) show NC gr  510 1390 m20
 gsave  2268 1077 0 461 C 566.929 1293.51 t 0 r /Helvetica-Bold findfont 48.9324 sf 0 0 m (Projection of Signal pdf) show NC gr  0 0 1 c 9 lw 471 1309 m 79 X s black 3 lw 1 1 1 c 2268 461 0 0 bf black 1 1 1 c 1791 364 363 74 bf black 1791 364 363 74
 bl 363 74 m 1791 X s
 gsave  2268 461 0 0 C 1915.83 13.0329 t 0 r /Helvetica findfont 22.9045 sf 0 0 m (4l Invariant Mass \(GeV\)) show NC gr  363 85 m -11 Y s 399 79 m -5 Y s 436 79 m -5 Y s 473 79 m -5 Y s 509 85 m -11 Y s 546 79 m -5 Y s 582 79 m -5 Y s 619 79 m -5 Y
 s 655 85 m -11 Y s 692 79 m -5 Y s 728 79 m -5 Y s 765 79 m -5 Y s 802 85 m -11 Y s 838 79 m -5 Y s 875 79 m -5 Y s 911 79 m -5 Y s 948 85 m -11 Y s 984 79 m -5 Y s 1021 79 m -5 Y s 1057 79 m -5 Y s 1094 85 m -11 Y s 1131 79 m -5 Y s 1167 79 m -5 Y
 s 1204 79 m -5 Y s 1240 85 m -11 Y s 1277 79 m -5 Y s 1313 79 m -5 Y s 1350 79 m -5 Y s 1387 85 m -11 Y s 1423 79 m -5 Y s 1460 79 m -5 Y s 1496 79 m -5 Y s 1533 85 m -11 Y s 1569 79 m -5 Y s 1606 79 m -5 Y s 1642 79 m -5 Y s 1679 85 m -11 Y s 1716
 79 m -5 Y s 1752 79 m -5 Y s 1789 79 m -5 Y s 1825 85 m -11 Y s 1862 79 m -5 Y s 1898 79 m -5 Y s 1935 79 m -5 Y s 1972 85 m -11 Y s 2008 79 m -5 Y s 2045 79 m -5 Y s 2081 79 m -5 Y s 2118 85 m -11 Y s 2118 85 m -11 Y s 2154 79 m -5 Y s
 gsave  2268 461 0 0 C 342.112 55.3896 t 0 r /Helvetica findfont 22.9045 sf 0 0 m (800) show NC gr 
 gsave  2268 461 0 0 C 488.732 55.3896 t 0 r /Helvetica findfont 22.9045 sf 0 0 m (820) show NC gr 
 gsave  2268 461 0 0 C 635.352 55.3896 t 0 r /Helvetica findfont 22.9045 sf 0 0 m (840) show NC gr 
 gsave  2268 461 0 0 C 781.971 55.3896 t 0 r /Helvetica findfont 22.9045 sf 0 0 m (860) show NC gr 
 gsave  2268 461 0 0 C 925.333 55.3896 t 0 r /Helvetica findfont 22.9045 sf 0 0 m (880) show NC gr 
 gsave  2268 461 0 0 C 1071.95 55.3896 t 0 r /Helvetica findfont 22.9045 sf 0 0 m (900) show NC gr 
 gsave  2268 461 0 0 C 1218.57 55.3896 t 0 r /Helvetica findfont 22.9045 sf 0 0 m (920) show NC gr 
 gsave  2268 461 0 0 C 1365.19 55.3896 t 0 r /Helvetica findfont 22.9045 sf 0 0 m (940) show NC gr 
 gsave  2268 461 0 0 C 1511.81 55.3896 t 0 r /Helvetica findfont 22.9045 sf 0 0 m (960) show NC gr 
 gsave  2268 461 0 0 C 1658.43 55.3896 t 0 r /Helvetica findfont 22.9045 sf 0 0 m (980) show NC gr 
 gsave  2268 461 0 0 C 1798.53 55.3896 t 0 r /Helvetica findfont 22.9045 sf 0 0 m (1000) show NC gr 
 gsave  2268 461 0 0 C 1945.15 55.3896 t 0 r /Helvetica findfont 22.9045 sf 0 0 m (1020) show NC gr 
 gsave  2268 461 0 0 C 2088.51 55.3896 t 0 r /Helvetica findfont 22.9045 sf 0 0 m (1040) show NC gr  363 438 m 1791 X s 363 427 m 11 Y s 399 433 m 5 Y s 436 433 m 5 Y s 473 433 m 5 Y s 509 427 m 11 Y s 546 433 m 5 Y s 582 433 m 5 Y s 619 433 m 5 Y s
 655 427 m 11 Y s 692 433 m 5 Y s 728 433 m 5 Y s 765 433 m 5 Y s 802 427 m 11 Y s 838 433 m 5 Y s 875 433 m 5 Y s 911 433 m 5 Y s 948 427 m 11 Y s 984 433 m 5 Y s 1021 433 m 5 Y s 1057 433 m 5 Y s 1094 427 m 11 Y s 1131 433 m 5 Y s 1167 433 m 5 Y s
 1204 433 m 5 Y s 1240 427 m 11 Y s 1277 433 m 5 Y s 1313 433 m 5 Y s 1350 433 m 5 Y s 1387 427 m 11 Y s 1423 433 m 5 Y s 1460 433 m 5 Y s 1496 433 m 5 Y s 1533 427 m 11 Y s 1569 433 m 5 Y s 1606 433 m 5 Y s 1642 433 m 5 Y s 1679 427 m 11 Y s 1716
 433 m 5 Y s 1752 433 m 5 Y s 1789 433 m 5 Y s 1825 427 m 11 Y s 1862 433 m 5 Y s 1898 433 m 5 Y s 1935 433 m 5 Y s 1972 427 m 11 Y s 2008 433 m 5 Y s 2045 433 m 5 Y s 2081 433 m 5 Y s 2118 427 m 11 Y s 2118 427 m 11 Y s 2154 433 m 5 Y s 363 74 m 364
 Y s 417 74 m -54 X s 390 81 m -27 X s 390 88 m -27 X s 390 96 m -27 X s 390 103 m -27 X s 417 110 m -54 X s 390 118 m -27 X s 390 125 m -27 X s 390 132 m -27 X s 390 139 m -27 X s 417 147 m -54 X s 390 154 m -27 X s 390 161 m -27 X s 390 169 m -27 X
 s 390 176 m -27 X s 417 183 m -54 X s 390 190 m -27 X s 390 198 m -27 X s 390 205 m -27 X s 390 212 m -27 X s 417 220 m -54 X s 390 227 m -27 X s 390 234 m -27 X s 390 241 m -27 X s 390 249 m -27 X s 417 256 m -54 X s 390 263 m -27 X s 390 271 m -27
 X s 390 278 m -27 X s 390 285 m -27 X s 417 293 m -54 X s 390 300 m -27 X s 390 307 m -27 X s 390 314 m -27 X s 390 322 m -27 X s 417 329 m -54 X s 390 336 m -27 X s 390 344 m -27 X s 390 351 m -27 X s 390 358 m -27 X s 417 365 m -54 X s 390 373 m
 -27 X s 390 380 m -27 X s 390 387 m -27 X s 390 395 m -27 X s 417 402 m -54 X s 390 409 m -27 X s 390 416 m -27 X s 390 424 m -27 X s 390 431 m -27 X s 417 438 m -54 X s
 gsave  2268 461 0 0 C 329.08 65.1643 t 0 r /Helvetica findfont 22.9045 sf 0 0 m (\2555) show NC gr 
 gsave  2268 461 0 0 C 329.08 101.005 t 0 r /Helvetica findfont 22.9045 sf 0 0 m (\2554) show NC gr 
 gsave  2268 461 0 0 C 329.08 140.103 t 0 r /Helvetica findfont 22.9045 sf 0 0 m (\2553) show NC gr 
 gsave  2268 461 0 0 C 329.08 175.944 t 0 r /Helvetica findfont 22.9045 sf 0 0 m (\2552) show NC gr 
 gsave  2268 461 0 0 C 332.338 211.784 t 0 r /Helvetica findfont 22.9045 sf 0 0 m (\2551) show NC gr 
 gsave  2268 461 0 0 C 335.596 247.624 t 0 r /Helvetica findfont 22.9045 sf 0 0 m (0) show NC gr 
 gsave  2268 461 0 0 C 338.854 283.465 t 0 r /Helvetica findfont 22.9045 sf 0 0 m (1) show NC gr 
 gsave  2268 461 0 0 C 335.596 319.305 t 0 r /Helvetica findfont 22.9045 sf 0 0 m (2) show NC gr 
 gsave  2268 461 0 0 C 335.596 358.403 t 0 r /Helvetica findfont 22.9045 sf 0 0 m (3) show NC gr 
 gsave  2268 461 0 0 C 335.596 394.244 t 0 r /Helvetica findfont 22.9045 sf 0 0 m (4) show NC gr 
 gsave  2268 461 0 0 C 335.596 430.084 t 0 r /Helvetica findfont 22.9045 sf 0 0 m (5) show NC gr  2154 74 m 364 Y s 2101 74 m 53 X s 2127 81 m 27 X s 2127 88 m 27 X s 2127 96 m 27 X s 2127 103 m 27 X s 2101 110 m 53 X s 2127 118 m 27 X s 2127 125 m
 27 X s 2127 132 m 27 X s 2127 139 m 27 X s 2101 147 m 53 X s 2127 154 m 27 X s 2127 161 m 27 X s 2127 169 m 27 X s 2127 176 m 27 X s 2101 183 m 53 X s 2127 190 m 27 X s 2127 198 m 27 X s 2127 205 m 27 X s 2127 212 m 27 X s 2101 220 m 53 X s 2127 227
 m 27 X s 2127 234 m 27 X s 2127 241 m 27 X s 2127 249 m 27 X s 2101 256 m 53 X s 2127 263 m 27 X s 2127 271 m 27 X s 2127 278 m 27 X s 2127 285 m 27 X s 2101 293 m 53 X s 2127 300 m 27 X s 2127 307 m 27 X s 2127 314 m 27 X s 2127 322 m 27 X s 2101
 329 m 53 X s 2127 336 m 27 X s 2127 344 m 27 X s 2127 351 m 27 X s 2127 358 m 27 X s 2101 365 m 53 X s 2127 373 m 27 X s 2127 380 m 27 X s 2127 387 m 27 X s 2127 395 m 27 X s 2101 402 m 53 X s 2127 409 m 27 X s 2127 416 m 27 X s 2127 424 m 27 X s
 2127 431 m 27 X s 2101 438 m 53 X s 6 lw 0.2 0.8 0.2 c black 3 lw 0.2 0.8 0.2 c 363 256 m -16 Y 36 X 15 Y 35 X -69 Y 36 X 49 Y 36 X 15 Y 36 X 32 Y 36 X -21 Y 36 X -4 Y 35 X 63 Y 36 X -51 Y 36 X -20 Y 36 X 62 Y 36 X -84 Y 36 X -4 Y 35 X 65 Y 36 X -59
 Y 36 X -5 Y 36 X -6 Y 36 X 43 Y 36 X 5 Y 35 X -20 Y 36 X -46 Y 36 X 57 Y 36 X 18 Y 36 X -15 Y 36 X 10 Y 35 X 20 Y 36 X -78 Y 36 X 67 Y 36 X 20 Y 36 X -48 Y 36 X -13 Y 35 X 16 Y 36 X -5 Y 36 X -44 Y 36 X 75 Y 36 X -12 Y 36 X 50 Y 35 X -8 Y 36 X -156
 Y 36 X 84 Y 36 X 69 Y 36 X -68 Y 36 X 23 Y 35 X 37 Y 36 X -32 Y 36 X -41 Y 36 X 8 Y 36 X 45 Y 36 X -2 Y 35 X -21 Y f 6 lw black 0.2 0.8 0.2 c black 363 240 m 36 X 15 Y 35 X -69 Y 36 X 49 Y 36 X 15 Y 36 X 32 Y 36 X -21 Y 36 X -4 Y 35 X 63 Y 36 X -51
 Y 36 X -20 Y 36 X 62 Y 36 X -84 Y 36 X -4 Y 35 X 65 Y 36 X -59 Y 36 X -5 Y 36 X -6 Y 36 X 43 Y 36 X 5 Y 35 X -20 Y 36 X -46 Y 36 X 57 Y 36 X 18 Y 36 X -15 Y 36 X 10 Y 35 X 20 Y 36 X -78 Y 36 X 67 Y 36 X 20 Y 36 X -48 Y 36 X -13 Y 35 X 16 Y 36 X -5 Y
 36 X -44 Y 36 X 75 Y 36 X -12 Y 36 X 50 Y 35 X -8 Y 36 X -156 Y 36 X 84 Y 36 X 69 Y 36 X -68 Y 36 X 23 Y 35 X 37 Y 36 X -32 Y 36 X -41 Y 36 X 8 Y 36 X 45 Y 36 X -2 Y 35 X s 3 lw 363 74 m 1791 X s 363 85 m -11 Y s 399 79 m -5 Y s 436 79 m -5 Y s 473
 79 m -5 Y s 509 85 m -11 Y s 546 79 m -5 Y s 582 79 m -5 Y s 619 79 m -5 Y s 655 85 m -11 Y s 692 79 m -5 Y s 728 79 m -5 Y s 765 79 m -5 Y s 802 85 m -11 Y s 838 79 m -5 Y s 875 79 m -5 Y s 911 79 m -5 Y s 948 85 m -11 Y s 984 79 m -5 Y s 1021 79 m
 -5 Y s 1057 79 m -5 Y s 1094 85 m -11 Y s 1131 79 m -5 Y s 1167 79 m -5 Y s 1204 79 m -5 Y s 1240 85 m -11 Y s 1277 79 m -5 Y s 1313 79 m -5 Y s 1350 79 m -5 Y s 1387 85 m -11 Y s 1423 79 m -5 Y s 1460 79 m -5 Y s 1496 79 m -5 Y s 1533 85 m -11 Y s
 1569 79 m -5 Y s 1606 79 m -5 Y s 1642 79 m -5 Y s 1679 85 m -11 Y s 1716 79 m -5 Y s 1752 79 m -5 Y s 1789 79 m -5 Y s 1825 85 m -11 Y s 1862 79 m -5 Y s 1898 79 m -5 Y s 1935 79 m -5 Y s 1972 85 m -11 Y s 2008 79 m -5 Y s 2045 79 m -5 Y s 2081 79
 m -5 Y s 2118 85 m -11 Y s 2118 85 m -11 Y s 2154 79 m -5 Y s 363 438 m 1791 X s 363 427 m 11 Y s 399 433 m 5 Y s 436 433 m 5 Y s 473 433 m 5 Y s 509 427 m 11 Y s 546 433 m 5 Y s 582 433 m 5 Y s 619 433 m 5 Y s 655 427 m 11 Y s 692 433 m 5 Y s 728
 433 m 5 Y s 765 433 m 5 Y s 802 427 m 11 Y s 838 433 m 5 Y s 875 433 m 5 Y s 911 433 m 5 Y s 948 427 m 11 Y s 984 433 m 5 Y s 1021 433 m 5 Y s 1057 433 m 5 Y s 1094 427 m 11 Y s 1131 433 m 5 Y s 1167 433 m 5 Y s 1204 433 m 5 Y s 1240 427 m 11 Y s
 1277 433 m 5 Y s 1313 433 m 5 Y s 1350 433 m 5 Y s 1387 427 m 11 Y s 1423 433 m 5 Y s 1460 433 m 5 Y s 1496 433 m 5 Y s 1533 427 m 11 Y s 1569 433 m 5 Y s 1606 433 m 5 Y s 1642 433 m 5 Y s 1679 427 m 11 Y s 1716 433 m 5 Y s 1752 433 m 5 Y s 1789 433
 m 5 Y s 1825 427 m 11 Y s 1862 433 m 5 Y s 1898 433 m 5 Y s 1935 433 m 5 Y s 1972 427 m 11 Y s 2008 433 m 5 Y s 2045 433 m 5 Y s 2081 433 m 5 Y s 2118 427 m 11 Y s 2118 427 m 11 Y s 2154 433 m 5 Y s 363 74 m 364 Y s 417 74 m -54 X s 390 81 m -27 X s
 390 88 m -27 X s 390 96 m -27 X s 390 103 m -27 X s 417 110 m -54 X s 390 118 m -27 X s 390 125 m -27 X s 390 132 m -27 X s 390 139 m -27 X s 417 147 m -54 X s 390 154 m -27 X s 390 161 m -27 X s 390 169 m -27 X s 390 176 m -27 X s 417 183 m -54 X s
 390 190 m -27 X s 390 198 m -27 X s 390 205 m -27 X s 390 212 m -27 X s 417 220 m -54 X s 390 227 m -27 X s 390 234 m -27 X s 390 241 m -27 X s 390 249 m -27 X s 417 256 m -54 X s 390 263 m -27 X s 390 271 m -27 X s 390 278 m -27 X s 390 285 m -27 X
 s 417 293 m -54 X s 390 300 m -27 X s 390 307 m -27 X s 390 314 m -27 X s 390 322 m -27 X s 417 329 m -54 X s 390 336 m -27 X s 390 344 m -27 X s 390 351 m -27 X s 390 358 m -27 X s 417 365 m -54 X s 390 373 m -27 X s 390 380 m -27 X s 390 387 m -27
 X s 390 395 m -27 X s 417 402 m -54 X s 390 409 m -27 X s 390 416 m -27 X s 390 424 m -27 X s 390 431 m -27 X s 417 438 m -54 X s 2154 74 m 364 Y s 2101 74 m 53 X s 2127 81 m 27 X s 2127 88 m 27 X s 2127 96 m 27 X s 2127 103 m 27 X s 2101 110 m 53 X
 s 2127 118 m 27 X s 2127 125 m 27 X s 2127 132 m 27 X s 2127 139 m 27 X s 2101 147 m 53 X s 2127 154 m 27 X s 2127 161 m 27 X s 2127 169 m 27 X s 2127 176 m 27 X s 2101 183 m 53 X s 2127 190 m 27 X s 2127 198 m 27 X s 2127 205 m 27 X s 2127 212 m 27
 X s 2101 220 m 53 X s 2127 227 m 27 X s 2127 234 m 27 X s 2127 241 m 27 X s 2127 249 m 27 X s 2101 256 m 53 X s 2127 263 m 27 X s 2127 271 m 27 X s 2127 278 m 27 X s 2127 285 m 27 X s 2101 293 m 53 X s 2127 300 m 27 X s 2127 307 m 27 X s 2127 314 m
 27 X s 2127 322 m 27 X s 2101 329 m 53 X s 2127 336 m 27 X s 2127 344 m 27 X s 2127 351 m 27 X s 2127 358 m 27 X s 2101 365 m 53 X s 2127 373 m 27 X s 2127 380 m 27 X s 2127 387 m 27 X s 2127 395 m 27 X s 2101 402 m 53 X s 2127 409 m 27 X s 2127 416
 m 27 X s 2127 424 m 27 X s 2127 431 m 27 X s 2101 438 m 53 X s
 gr  gr showpage
end
%%EOF
