%!PS-Adobe-2.0 EPSF-2.0
%%BoundingBox:  0 0 567 384
%%Title: H4l2015_plotfit/VBF_mass_signal_600_H4l_2mu2e.eps: 
%%Creator: ROOT Version 5.34/07
%%CreationDate: Mon Nov  9 16:28:30 2015
%%EndComments
%%BeginProlog
80 dict begin
/s {stroke} def /l {lineto} def /m {moveto} def /t {translate} def
/r {rotate} def /rl {roll}  def /R {repeat} def
/d {rlineto} def /rm {rmoveto} def /gr {grestore} def /f {eofill} def
/c {setrgbcolor} def /black {0 setgray} def /sd {setdash} def
/cl {closepath} def /sf {scalefont setfont} def /lw {setlinewidth} def
/box {m dup 0 exch d exch 0 d 0 exch neg d cl} def
/NC{systemdict begin initclip end}def/C{NC box clip newpath}def
/bl {box s} def /bf {box f} def /Y { 0 exch d} def /X { 0 d} def 
/K {{pop pop 0 moveto} exch kshow} bind def
/ita {/ang 15 def gsave [1 0 ang dup sin exch cos div 1 0 0] concat} def 
/mp {newpath /y exch def /x exch def} def
/side {[w .77 mul w .23 mul] .385 w mul sd w 0 l currentpoint t -144 r} def
/mr {mp x y w2 0 360 arc} def /m24 {mr s} def /m20 {mr f} def
/mb {mp x y w2 add m w2 neg 0 d 0 w neg d w 0 d 0 w d cl} def
/mt {mp x y w2 add m w2 neg w neg d w 0 d cl} def
/m21 {mb f} def /m25 {mb s} def /m22 {mt f} def /m26{mt s} def
/m23 {mp x y w2 sub m w2 w d w neg 0 d cl f} def
/m27 {mp x y w2 add m w3 neg w2 neg d w3 w2 neg d w3 w2 d cl s} def
/m28 {mp x w2 sub y w2 sub w3 add m w3 0 d  0 w3 neg d w3 0 d 0 w3 d w3 0 d  0 w3 d w3 neg 0 d 0 w3 d w3 neg 0 d 0 w3 neg d w3 neg 0 d cl s } def
/m29 {mp gsave x w2 sub y w2 add w3 sub m currentpoint t 4 {side} repeat cl fill gr} def
/m30 {mp gsave x w2 sub y w2 add w3 sub m currentpoint t 4 {side} repeat cl s gr} def
/m31 {mp x y w2 sub m 0 w d x w2 sub y m w 0 d x w2 sub y w2 add m w w neg d x w2 sub y w2 sub m w w d s} def
/m32 {mp x y w2 sub m w2 w d w neg 0 d cl s} def
/m33 {mp x y w2 add m w3 neg w2 neg d w3 w2 neg d w3 w2 d cl f} def
/m34 {mp x w2 sub y w2 sub w3 add m w3 0 d  0 w3 neg d w3 0 d 0 w3 d w3 0 d  0 w3 d w3 neg 0 d 0 w3 d w3 neg 0 d 0 w3 neg d w3 neg 0 d cl f } def
/m2 {mp x y w2 sub m 0 w d x w2 sub y m w 0 d s} def
/m5 {mp x w2 sub y w2 sub m w w d x w2 sub y w2 add m w w neg d s} def
/reEncode {exch findfont dup length dict begin {1 index /FID eq  {pop pop} {def} ifelse } forall /Encoding exch def currentdict end dup /FontName get exch definefont pop } def [/Times-Bold /Times-Italic /Times-BoldItalic /Helvetica /Helvetica-Oblique
 /Helvetica-Bold /Helvetica-BoldOblique /Courier /Courier-Oblique /Courier-Bold /Courier-BoldOblique /Times-Roman /AvantGarde-Book /AvantGarde-BookOblique /AvantGarde-Demi /AvantGarde-DemiOblique /Bookman-Demi /Bookman-DemiItalic /Bookman-Light
 /Bookman-LightItalic /Helvetica-Narrow /Helvetica-Narrow-Bold /Helvetica-Narrow-BoldOblique /Helvetica-Narrow-Oblique /NewCenturySchlbk-Roman /NewCenturySchlbk-Bold /NewCenturySchlbk-BoldItalic /NewCenturySchlbk-Italic /Palatino-Bold
 /Palatino-BoldItalic /Palatino-Italic /Palatino-Roman ] {ISOLatin1Encoding reEncode } forall
%%EndProlog
%%BeginSetup
%%EndSetup
newpath  gsave  .25 .25 scale  gsave  0 0 t black[  ] 0 sd 3 lw 1 1 1 c 2268 1538 0 0 bf black 1 1 1 c 2222 738 23 784 bf black 1 1 1 c 2222 739 23 15 bf black 1 1 1 c 2268 1077 0 461 bf black 1 1 1 c 1791 850 363 634 bf black 1791 850 363 634 bl 363
 634 m 1791 X s
 gsave  2268 1077 0 461 C 1642.14 498.507 t 0 r /Helvetica findfont 48.9324 sf 0 0 m (4l Invariant Mass \(GeV\)) show NC gr  450 659 m -25 Y s 494 646 m -12 Y s 538 646 m -12 Y s 581 646 m -12 Y s 625 659 m -25 Y s 669 646 m -12 Y s 712 646 m -12 Y s
 756 646 m -12 Y s 800 659 m -25 Y s 843 646 m -12 Y s 887 646 m -12 Y s 931 646 m -12 Y s 975 659 m -25 Y s 1018 646 m -12 Y s 1062 646 m -12 Y s 1106 646 m -12 Y s 1149 659 m -25 Y s 1193 646 m -12 Y s 1237 646 m -12 Y s 1280 646 m -12 Y s 1324 659
 m -25 Y s 1368 646 m -12 Y s 1412 646 m -12 Y s 1455 646 m -12 Y s 1499 659 m -25 Y s 1543 646 m -12 Y s 1586 646 m -12 Y s 1630 646 m -12 Y s 1674 659 m -25 Y s 1717 646 m -12 Y s 1761 646 m -12 Y s 1805 646 m -12 Y s 1848 659 m -25 Y s 1892 646 m
 -12 Y s 1936 646 m -12 Y s 1980 646 m -12 Y s 2023 659 m -25 Y s 450 659 m -25 Y s 407 646 m -12 Y s 363 646 m -12 Y s 2023 659 m -25 Y s 2067 646 m -12 Y s 2111 646 m -12 Y s 2154 646 m -12 Y s
 gsave  2268 1077 0 461 C 407.277 586.478 t 0 r /Helvetica findfont 48.9324 sf 0 0 m (460) show NC gr 
 gsave  2268 1077 0 461 C 579.962 586.478 t 0 r /Helvetica findfont 48.9324 sf 0 0 m (480) show NC gr 
 gsave  2268 1077 0 461 C 755.906 586.478 t 0 r /Helvetica findfont 48.9324 sf 0 0 m (500) show NC gr 
 gsave  2268 1077 0 461 C 931.849 586.478 t 0 r /Helvetica findfont 48.9324 sf 0 0 m (520) show NC gr 
 gsave  2268 1077 0 461 C 1104.53 586.478 t 0 r /Helvetica findfont 48.9324 sf 0 0 m (540) show NC gr 
 gsave  2268 1077 0 461 C 1280.48 586.478 t 0 r /Helvetica findfont 48.9324 sf 0 0 m (560) show NC gr 
 gsave  2268 1077 0 461 C 1456.42 586.478 t 0 r /Helvetica findfont 48.9324 sf 0 0 m (580) show NC gr 
 gsave  2268 1077 0 461 C 1629.11 586.478 t 0 r /Helvetica findfont 48.9324 sf 0 0 m (600) show NC gr 
 gsave  2268 1077 0 461 C 1805.05 586.478 t 0 r /Helvetica findfont 48.9324 sf 0 0 m (620) show NC gr 
 gsave  2268 1077 0 461 C 1977.74 586.478 t 0 r /Helvetica findfont 48.9324 sf 0 0 m (640) show NC gr  363 1484 m 1791 X s 450 1459 m 25 Y s 494 1471 m 13 Y s 538 1471 m 13 Y s 581 1471 m 13 Y s 625 1459 m 25 Y s 669 1471 m 13 Y s 712 1471 m 13 Y s
 756 1471 m 13 Y s 800 1459 m 25 Y s 843 1471 m 13 Y s 887 1471 m 13 Y s 931 1471 m 13 Y s 975 1459 m 25 Y s 1018 1471 m 13 Y s 1062 1471 m 13 Y s 1106 1471 m 13 Y s 1149 1459 m 25 Y s 1193 1471 m 13 Y s 1237 1471 m 13 Y s 1280 1471 m 13 Y s 1324
 1459 m 25 Y s 1368 1471 m 13 Y s 1412 1471 m 13 Y s 1455 1471 m 13 Y s 1499 1459 m 25 Y s 1543 1471 m 13 Y s 1586 1471 m 13 Y s 1630 1471 m 13 Y s 1674 1459 m 25 Y s 1717 1471 m 13 Y s 1761 1471 m 13 Y s 1805 1471 m 13 Y s 1848 1459 m 25 Y s 1892
 1471 m 13 Y s 1936 1471 m 13 Y s 1980 1471 m 13 Y s 2023 1459 m 25 Y s 450 1459 m 25 Y s 407 1471 m 13 Y s 363 1471 m 13 Y s 2023 1459 m 25 Y s 2067 1471 m 13 Y s 2111 1471 m 13 Y s 2154 1471 m 13 Y s 363 634 m 850 Y s
 gsave  2268 1077 0 461 C 120.554 1058.92 t 90 r /Helvetica findfont 48.9324 sf 0 0 m (Events / \( 4.1 GeV \)) show NC gr  417 634 m -54 X s
 gsave  2268 1077 0 461 C 312.788 632.093 t 0 r /Helvetica findfont 32.6216 sf 0 0 m (\2552) show NC gr 
 gsave  2268 1077 0 461 C 260.657 612.544 t 0 r /Helvetica findfont 48.9324 sf 0 0 m (10) show NC gr  390 680 m -27 X s 390 708 m -27 X s 390 727 m -27 X s 390 742 m -27 X s 390 755 m -27 X s 390 765 m -27 X s 390 774 m -27 X s 390 782 m -27 X s 417
 789 m -54 X s
 gsave  2268 1077 0 461 C 319.305 788.488 t 0 r /Helvetica findfont 32.6216 sf 0 0 m (\2551) show NC gr 
 gsave  2268 1077 0 461 C 267.173 768.938 t 0 r /Helvetica findfont 48.9324 sf 0 0 m (10) show NC gr  390 836 m -27 X s 390 863 m -27 X s 390 883 m -27 X s 390 898 m -27 X s 390 910 m -27 X s 390 921 m -27 X s 390 930 m -27 X s 390 938 m -27 X s 417
 945 m -54 X s
 gsave  2268 1077 0 461 C 342.425 923.909 t 0 r  -27 0 t /Helvetica findfont 48.9324 sf 0 0 m (1) show NC gr  390 992 m -27 X s 390 1019 m -27 X s 390 1038 m -27 X s 390 1054 m -27 X s 390 1066 m -27 X s 390 1076 m -27 X s 390 1085 m -27 X s 390 1093
 m -27 X s 417 1100 m -54 X s
 gsave  2268 1077 0 461 C 342.425 1079.49 t 0 r  -55 0 t /Helvetica findfont 48.9324 sf 0 0 m (10) show NC gr  390 1147 m -27 X s 390 1175 m -27 X s 390 1194 m -27 X s 390 1209 m -27 X s 390 1221 m -27 X s 390 1232 m -27 X s 390 1241 m -27 X s 390
 1249 m -27 X s 417 1256 m -54 X s
 gsave  2268 1077 0 461 C 322.563 1254.41 t 0 r /Helvetica findfont 32.6216 sf 0 0 m (2) show NC gr 
 gsave  2268 1077 0 461 C 270.432 1234.86 t 0 r /Helvetica findfont 48.9324 sf 0 0 m (10) show NC gr  390 1303 m -27 X s 390 1330 m -27 X s 390 1350 m -27 X s 390 1365 m -27 X s 390 1377 m -27 X s 390 1387 m -27 X s 390 1396 m -27 X s 390 1404 m -27
 X s 417 1411 m -54 X s
 gsave  2268 1077 0 461 C 322.563 1414.06 t 0 r /Helvetica findfont 32.6216 sf 0 0 m (3) show NC gr 
 gsave  2268 1077 0 461 C 270.432 1391.26 t 0 r /Helvetica findfont 48.9324 sf 0 0 m (10) show NC gr  390 1458 m -27 X s 2154 634 m 850 Y s 2101 634 m 53 X s 2127 680 m 27 X s 2127 708 m 27 X s 2127 727 m 27 X s 2127 742 m 27 X s 2127 755 m 27 X s
 2127 765 m 27 X s 2127 774 m 27 X s 2127 782 m 27 X s 2101 789 m 53 X s 2127 836 m 27 X s 2127 863 m 27 X s 2127 883 m 27 X s 2127 898 m 27 X s 2127 910 m 27 X s 2127 921 m 27 X s 2127 930 m 27 X s 2127 938 m 27 X s 2101 945 m 53 X s 2127 992 m 27 X
 s 2127 1019 m 27 X s 2127 1038 m 27 X s 2127 1054 m 27 X s 2127 1066 m 27 X s 2127 1076 m 27 X s 2127 1085 m 27 X s 2127 1093 m 27 X s 2101 1100 m 53 X s 2127 1147 m 27 X s 2127 1175 m 27 X s 2127 1194 m 27 X s 2127 1209 m 27 X s 2127 1221 m 27 X s
 2127 1232 m 27 X s 2127 1241 m 27 X s 2127 1249 m 27 X s 2101 1256 m 53 X s 2127 1303 m 27 X s 2127 1330 m 27 X s 2127 1350 m 27 X s 2127 1365 m 27 X s 2127 1377 m 27 X s 2127 1387 m 27 X s 2127 1396 m 27 X s 2127 1404 m 27 X s 2101 1411 m 53 X s
 2127 1458 m 27 X s 381 1066 m -18 X s 363 1066 m cl s 381 1066 m 18 X s 399 1066 m cl s 381 1066 m 31 Y s 381 1097 m cl s 381 1066 m -34 Y s 381 1032 m cl s 417 1093 m -18 X s 399 1093 m cl s 417 1093 m 17 X s 434 1093 m cl s 417 1093 m 26 Y s 417
 1119 m cl s 417 1093 m -27 Y s 417 1066 m cl s 452 1085 m -18 X s 434 1085 m cl s 452 1085 m 18 X s 470 1085 m cl s 452 1085 m 27 Y s 452 1112 m cl s 452 1085 m -28 Y s 452 1057 m cl s 488 1076 m -18 X s 470 1076 m cl s 488 1076 m 18 X s 506 1076 m
 cl s 488 1076 m 29 Y s 488 1105 m cl s 488 1076 m -31 Y s 488 1045 m cl s 524 1019 m -18 X s 506 1019 m cl s 524 1019 m 18 X s 542 1019 m cl s 524 1019 m 46 Y s 524 1065 m cl s 524 1019 m -53 Y s 524 966 m cl s 560 1100 m -18 X s 542 1100 m cl s 560
 1100 m 18 X s 578 1100 m cl s 560 1100 m 24 Y s 560 1124 m cl s 560 1100 m -25 Y s 560 1075 m cl s 596 1123 m -18 X s 578 1123 m cl s 596 1123 m 18 X s 614 1123 m cl s 596 1123 m 20 Y s 596 1143 m cl s 596 1123 m -21 Y s 596 1102 m cl s 632 1076 m
 -18 X s 614 1076 m cl s 632 1076 m 17 X s 649 1076 m cl s 632 1076 m 29 Y s 632 1105 m cl s 632 1076 m -31 Y s 632 1045 m cl s 667 1093 m -18 X s 649 1093 m cl s 667 1093 m 18 X s 685 1093 m cl s 667 1093 m 26 Y s 667 1119 m cl s 667 1093 m -27 Y s
 667 1066 m cl s 703 1118 m -18 X s 685 1118 m cl s 703 1118 m 18 X s 721 1118 m cl s 703 1118 m 21 Y s 703 1139 m cl s 703 1118 m -22 Y s 703 1096 m cl s 739 1100 m -18 X s 721 1100 m cl s 739 1100 m 18 X s 757 1100 m cl s 739 1100 m 24 Y s 739 1124
 m cl s 739 1100 m -25 Y s 739 1075 m cl s 775 1128 m -18 X s 757 1128 m cl s 775 1128 m 18 X s 793 1128 m cl s 775 1128 m 19 Y s 775 1147 m cl s 775 1128 m -20 Y s 775 1108 m cl s 811 1150 m -18 X s 793 1150 m cl s 811 1150 m 18 X s 829 1150 m cl s
 811 1150 m 17 Y s 811 1167 m cl s 811 1150 m -16 Y s 811 1134 m cl s 847 1128 m -18 X s 829 1128 m cl s 847 1128 m 17 X s 864 1128 m cl s 847 1128 m 19 Y s 847 1147 m cl s 847 1128 m -20 Y s 847 1108 m cl s 882 1140 m -18 X s 864 1140 m cl s 882
 1140 m 18 X s 900 1140 m cl s 882 1140 m 18 Y s 882 1158 m cl s 882 1140 m -18 Y s 882 1122 m cl s 918 1162 m -18 X s 900 1162 m cl s 918 1162 m 18 X s 936 1162 m cl s 918 1162 m 15 Y s 918 1177 m cl s 918 1162 m -15 Y s 918 1147 m cl s 954 1147 m
 -18 X s 936 1147 m cl s 954 1147 m 18 X s 972 1147 m cl s 954 1147 m 17 Y s 954 1164 m cl s 954 1147 m -17 Y s 954 1130 m cl s 990 1150 m -18 X s 972 1150 m cl s 990 1150 m 18 X s 1008 1150 m cl s 990 1150 m 17 Y s 990 1167 m cl s 990 1150 m -16 Y s
 990 1134 m cl s 1026 1157 m -18 X s 1008 1157 m cl s 1026 1157 m 18 X s 1044 1157 m cl s 1026 1157 m 15 Y s 1026 1172 m cl s 1026 1157 m -16 Y s 1026 1141 m cl s 1062 1172 m -18 X s 1044 1172 m cl s 1062 1172 m 17 X s 1079 1172 m cl s 1062 1172 m 14
 Y s 1062 1186 m cl s 1062 1172 m -14 Y s 1062 1158 m cl s 1097 1187 m -18 X s 1079 1187 m cl s 1097 1187 m 18 X s 1115 1187 m cl s 1097 1187 m 12 Y s 1097 1199 m cl s 1097 1187 m -12 Y s 1097 1175 m cl s 1133 1208 m -18 X s 1115 1208 m cl s 1133
 1208 m 18 X s 1151 1208 m cl s 1133 1208 m 10 Y s 1133 1218 m cl s 1133 1208 m -11 Y s 1133 1197 m cl s 1169 1205 m -18 X s 1151 1205 m cl s 1169 1205 m 18 X s 1187 1205 m cl s 1169 1205 m 10 Y s 1169 1215 m cl s 1169 1205 m -11 Y s 1169 1194 m cl s
 1205 1209 m -18 X s 1187 1209 m cl s 1205 1209 m 18 X s 1223 1209 m cl s 1205 1209 m 10 Y s 1205 1219 m cl s 1205 1209 m -10 Y s 1205 1199 m cl s 1241 1234 m -18 X s 1223 1234 m cl s 1241 1234 m 18 X s 1259 1234 m cl s 1241 1234 m 8 Y s 1241 1242 m
 cl s 1241 1234 m -9 Y s 1241 1225 m cl s 1276 1252 m -17 X s 1259 1252 m cl s 1276 1252 m 18 X s 1294 1252 m cl s 1276 1252 m 7 Y s 1276 1259 m cl s 1276 1252 m -8 Y s 1276 1244 m cl s 1312 1260 m -18 X s 1294 1260 m cl s 1312 1260 m 18 X s 1330
 1260 m cl s 1312 1260 m 7 Y s 1312 1267 m cl s 1312 1260 m -6 Y s 1312 1254 m cl s 1348 1268 m -18 X s 1330 1268 m cl s 1348 1268 m 18 X s 1366 1268 m cl s 1348 1268 m 6 Y s 1348 1274 m cl s 1348 1268 m -7 Y s 1348 1261 m cl s 1384 1305 m -18 X s
 1366 1305 m cl s 1384 1305 m 18 X s 1402 1305 m cl s 1384 1305 m 5 Y s 1384 1310 m cl s 1384 1305 m -5 Y s 1384 1300 m cl s 1420 1323 m -18 X s 1402 1323 m cl s 1420 1323 m 18 X s 1438 1323 m cl s 1420 1323 m 4 Y s 1420 1327 m cl s 1420 1323 m -4 Y
 s 1420 1319 m cl s 1456 1343 m -18 X s 1438 1343 m cl s 1456 1343 m 18 X s 1474 1343 m cl s 1456 1343 m 3 Y s 1456 1346 m cl s 1456 1343 m -4 Y s 1456 1339 m cl s 1491 1375 m -17 X s 1474 1375 m cl s 1491 1375 m 18 X s 1509 1375 m cl s 1491 1375 m 3
 Y s 1491 1378 m cl s 1491 1375 m -3 Y s 1491 1372 m cl s 1527 1399 m -18 X s 1509 1399 m cl s 1527 1399 m 18 X s 1545 1399 m cl s 1527 1399 m 2 Y s 1527 1401 m cl s 1527 1399 m -2 Y s 1527 1397 m cl s 1563 1423 m -18 X s 1545 1423 m cl s 1563 1423 m
 18 X s 1581 1423 m cl s 1563 1423 m 2 Y s 1563 1425 m cl s 1563 1423 m -2 Y s 1563 1421 m cl s 1599 1439 m -18 X s 1581 1439 m cl s 1599 1439 m 18 X s 1617 1439 m cl s 1599 1439 m 1 Y s 1599 1440 m cl s 1599 1439 m -2 Y s 1599 1437 m cl s 1635 1450
 m -18 X s 1617 1450 m cl s 1635 1450 m 18 X s 1653 1450 m cl s 1635 1450 m 2 Y s 1635 1452 m cl s 1635 1450 m -2 Y s 1635 1448 m cl s 1671 1452 m -18 X s 1653 1452 m cl s 1671 1452 m 18 X s 1689 1452 m cl s 1671 1452 m 1 Y s 1671 1453 m cl s 1671
 1452 m -2 Y s 1671 1450 m cl s 1706 1439 m -17 X s 1689 1439 m cl s 1706 1439 m 18 X s 1724 1439 m cl s 1706 1439 m 2 Y s 1706 1441 m cl s 1706 1439 m -2 Y s 1706 1437 m cl s 1742 1418 m -18 X s 1724 1418 m cl s 1742 1418 m 18 X s 1760 1418 m cl s
 1742 1418 m 2 Y s 1742 1420 m cl s 1742 1418 m -2 Y s 1742 1416 m cl s 1778 1389 m -18 X s 1760 1389 m cl s 1778 1389 m 18 X s 1796 1389 m cl s 1778 1389 m 3 Y s 1778 1392 m cl s 1778 1389 m -2 Y s 1778 1387 m cl s 1814 1360 m -18 X s 1796 1360 m cl
 s 1814 1360 m 18 X s 1832 1360 m cl s 1814 1360 m 4 Y s 1814 1364 m cl s 1814 1360 m -3 Y s 1814 1357 m cl s 1850 1324 m -18 X s 1832 1324 m cl s 1850 1324 m 18 X s 1868 1324 m cl s 1850 1324 m 4 Y s 1850 1328 m cl s 1850 1324 m -5 Y s 1850 1319 m
 cl s 1886 1293 m -18 X s 1868 1293 m cl s 1886 1293 m 18 X s 1904 1293 m cl s 1886 1293 m 5 Y s 1886 1298 m cl s 1886 1293 m -6 Y s 1886 1287 m cl s 1921 1266 m -17 X s 1904 1266 m cl s 1921 1266 m 18 X s 1939 1266 m cl s 1921 1266 m 6 Y s 1921 1272
 m cl s 1921 1266 m -6 Y s 1921 1260 m cl s 1957 1208 m -18 X s 1939 1208 m cl s 1957 1208 m 18 X s 1975 1208 m cl s 1957 1208 m 10 Y s 1957 1218 m cl s 1957 1208 m -11 Y s 1957 1197 m cl s 1993 1181 m -18 X s 1975 1181 m cl s 1993 1181 m 18 X s 2011
 1181 m cl s 1993 1181 m 13 Y s 1993 1194 m cl s 1993 1181 m -13 Y s 1993 1168 m cl s 2029 1162 m -18 X s 2011 1162 m cl s 2029 1162 m 18 X s 2047 1162 m cl s 2029 1162 m 15 Y s 2029 1177 m cl s 2029 1162 m -15 Y s 2029 1147 m cl s 2065 1154 m -18 X
 s 2047 1154 m cl s 2065 1154 m 18 X s 2083 1154 m cl s 2065 1154 m 15 Y s 2065 1169 m cl s 2065 1154 m -16 Y s 2065 1138 m cl s 2101 1140 m -18 X s 2083 1140 m cl s 2101 1140 m 18 X s 2119 1140 m cl s 2101 1140 m 18 Y s 2101 1158 m cl s 2101 1140 m
 -18 Y s 2101 1122 m cl s 2136 1113 m -17 X s 2119 1113 m cl s 2136 1113 m 18 X s 2154 1113 m cl s 2136 1113 m 21 Y s 2136 1134 m cl s 2136 1113 m -23 Y s 2136 1090 m cl s /w 31 def /w2 {w 2 div} def /w3 {w 3 div} def 381 1066 417 1093 452 1085 488
 1076 524 1019 560 1100 596 1123 632 1076 667 1093 703 1118 739 1100 775 1128 811 1150 847 1128 882 1140 918 1162 954 1147 990 1150 1026 1157 1062 1172 1097 1187 1133 1208 1169 1205 1205 1209 1241 1234 1276 1252 1312 1260 1348 1268 1384 1305 1420
 1323 1456 1343 1491 1375 1527 1399 1563 1423 1599 1439 1635 1450 1671 1452 1706 1439 1742 1418 1778 1389 1814 1360 1850 1324 1886 1293 1921 1266 1957 1208 1993 1181 2029 1162 2065 1154 2101 1140 2136 1113 50 { m20} R 0 1 1 c 1 1 0 c black 1 1 0 c
 363 1047 m 36 7 d 35 7 d 36 7 d 36 7 d 36 7 d 36 7 d 36 7 d 35 7 d 36 8 d 36 7 d 36 8 d 36 7 d 36 8 d 35 8 d 36 8 d 36 8 d 36 8 d 36 9 d 36 8 d 35 9 d 36 9 d 36 9 d 36 9 d 36 10 d 36 10 d 35 11 d 36 11 d 36 14 d 18 9 d 18 10 d 18 13 d 9 7 d 9 7 d 9
 8 d 9 8 d 9 8 d 9 8 d 9 8 d 8 8 d 9 7 d 9 8 d 9 7 d 9 7 d 18 12 d 18 11 d 9 4 d 9 5 d 9 3 d 9 3 d 9 3 d 9 2 d 9 2 d 4 X 5 1 d 22 X 5 -1 d 9 -1 d 9 -2 d 9 -2 d 8 -3 d 9 -4 d 9 -3 d 9 -5 d 36 -22 d 9 -7 d 9 -7 d 9 -7 d 9 -8 d 9 -8 d 9 -8 d 9 -8 d 9 -9
 d 9 -8 d 9 -9 d 9 -9 d 9 -8 d 18 -17 d 18 -15 d 17 -15 d 18 -14 d 36 -27 d 36 -28 d 36 -28 d 36 -31 d 36 -32 d 35 -36 d -46 Y -35 44 d -36 40 d -36 37 d -36 34 d -36 31 d -36 31 d -18 16 d -17 16 d -18 16 d -18 17 d -9 9 d -9 9 d -9 8 d -9 9 d -9 9
 d -9 8 d -9 9 d -9 8 d -9 8 d -9 8 d -9 7 d -9 7 d -36 24 d -9 4 d -9 4 d -9 4 d -8 2 d -9 3 d -9 2 d -9 1 d -5 X -4 1 d -9 X -5 -1 d -9 X -4 -1 d -9 -1 d -9 -2 d -9 -3 d -9 -3 d -9 -4 d -9 -4 d -9 -5 d -18 -11 d -18 -14 d -9 -7 d -9 -7 d -9 -8 d -9
 -8 d -8 -8 d -9 -9 d -9 -8 d -9 -8 d -9 -8 d -9 -7 d -9 -7 d -9 -8 d -18 -13 d -18 -11 d -18 -10 d -36 -16 d -36 -11 d -35 -10 d -36 -10 d -36 -9 d -36 -9 d -36 -9 d -36 -9 d -35 -10 d -36 -9 d -36 -9 d -36 -9 d -36 -9 d -36 -9 d -35 -9 d -36 -9 d
 -36 -8 d -36 -9 d -36 -8 d -36 -9 d -35 -8 d -36 -8 d -36 -8 d -36 -8 d -36 -8 d -36 -8 d -35 -8 d -36 -8 d f 0 1 1 c 0 1 0 c black 0 1 0 c 363 1041 m 36 7 d 35 7 d 36 7 d 36 7 d 36 8 d 36 7 d 36 7 d 35 8 d 36 8 d 36 7 d 36 8 d 36 8 d 36 8 d 35 8 d
 36 8 d 36 8 d 36 9 d 36 8 d 36 9 d 35 9 d 36 9 d 36 9 d 36 9 d 36 10 d 36 10 d 35 10 d 36 12 d 36 14 d 18 9 d 18 11 d 18 12 d 9 7 d 9 8 d 9 7 d 9 8 d 9 8 d 9 8 d 9 8 d 8 8 d 9 8 d 9 8 d 9 7 d 9 7 d 18 12 d 18 11 d 9 5 d 9 4 d 9 4 d 9 3 d 9 2 d 9 3 d
 9 1 d 4 1 d 9 X 5 1 d 4 X 5 -1 d 9 X 9 -1 d 9 -2 d 9 -3 d 8 -3 d 9 -3 d 9 -4 d 9 -5 d 36 -22 d 9 -7 d 9 -7 d 9 -7 d 9 -8 d 9 -8 d 9 -8 d 9 -9 d 9 -8 d 9 -9 d 9 -9 d 9 -8 d 9 -9 d 18 -16 d 18 -16 d 17 -15 d 18 -15 d 36 -28 d 36 -28 d 36 -29 d 36 -32
 d 36 -34 d 35 -37 d -22 Y -35 40 d -36 38 d -36 35 d -36 32 d -36 30 d -36 30 d -18 15 d -17 16 d -18 16 d -18 17 d -9 9 d -9 8 d -9 9 d -9 9 d -9 8 d -9 9 d -9 8 d -9 8 d -9 8 d -9 8 d -9 7 d -9 7 d -36 23 d -9 5 d -9 4 d -9 3 d -8 3 d -9 2 d -9 2
 d -9 1 d -5 1 d -22 X -5 -1 d -4 X -9 -2 d -9 -2 d -9 -2 d -9 -4 d -9 -3 d -9 -5 d -9 -4 d -18 -12 d -18 -13 d -9 -7 d -9 -7 d -9 -8 d -9 -8 d -8 -8 d -9 -8 d -9 -8 d -9 -8 d -9 -8 d -9 -8 d -9 -7 d -9 -7 d -18 -13 d -18 -11 d -18 -10 d -36 -15 d
 -36 -11 d -35 -10 d -36 -10 d -36 -9 d -36 -10 d -36 -9 d -36 -9 d -35 -9 d -36 -9 d -36 -9 d -36 -9 d -36 -9 d -36 -8 d -35 -9 d -36 -8 d -36 -9 d -36 -8 d -36 -8 d -36 -8 d -35 -8 d -36 -8 d -36 -8 d -36 -8 d -36 -7 d -36 -8 d -35 -7 d -36 -8 d f
 0 0 1 c 9 lw black 0 0 1 c 363 1035 m 36 7 d 35 7 d 36 7 d 36 8 d 36 7 d 36 8 d 36 7 d 35 8 d 36 8 d 36 8 d 36 8 d 36 8 d 36 8 d 35 8 d 36 9 d 36 8 d 36 9 d 36 9 d 36 8 d 35 9 d 36 9 d 36 10 d 36 9 d 36 9 d 36 10 d 35 10 d 36 12 d 36 15 d 18 9 d 18
 11 d 18 13 d 9 7 d 9 7 d 9 8 d 9 8 d 9 8 d 9 8 d 9 8 d 8 8 d 9 8 d 9 7 d 9 8 d 9 7 d 18 12 d 18 11 d 9 5 d 9 4 d 9 4 d 9 3 d 9 3 d 9 2 d 9 2 d 4 X 5 1 d 22 X 5 -1 d 9 -1 d 9 -2 d 9 -2 d 8 -3 d 9 -4 d 9 -4 d 9 -4 d 36 -23 d 9 -7 d 9 -7 d 9 -7 d 9 -8
 d 9 -8 d 9 -9 d 9 -8 d 9 -9 d 9 -8 d 9 -9 d 9 -9 d 9 -8 d 18 -17 d 18 -16 d 17 -16 d 18 -14 d 36 -29 d 36 -29 d 36 -31 d 36 -33 d 36 -36 d 35 -38 d s black 3 lw 381 1066 m -18 X s 363 1066 m cl s 381 1066 m 18 X s 399 1066 m cl s 381 1066 m 31 Y s
 381 1097 m cl s 381 1066 m -34 Y s 381 1032 m cl s 417 1093 m -18 X s 399 1093 m cl s 417 1093 m 17 X s 434 1093 m cl s 417 1093 m 26 Y s 417 1119 m cl s 417 1093 m -27 Y s 417 1066 m cl s 452 1085 m -18 X s 434 1085 m cl s 452 1085 m 18 X s 470
 1085 m cl s 452 1085 m 27 Y s 452 1112 m cl s 452 1085 m -28 Y s 452 1057 m cl s 488 1076 m -18 X s 470 1076 m cl s 488 1076 m 18 X s 506 1076 m cl s 488 1076 m 29 Y s 488 1105 m cl s 488 1076 m -31 Y s 488 1045 m cl s 524 1019 m -18 X s 506 1019 m
 cl s 524 1019 m 18 X s 542 1019 m cl s 524 1019 m 46 Y s 524 1065 m cl s 524 1019 m -53 Y s 524 966 m cl s 560 1100 m -18 X s 542 1100 m cl s 560 1100 m 18 X s 578 1100 m cl s 560 1100 m 24 Y s 560 1124 m cl s 560 1100 m -25 Y s 560 1075 m cl s 596
 1123 m -18 X s 578 1123 m cl s 596 1123 m 18 X s 614 1123 m cl s 596 1123 m 20 Y s 596 1143 m cl s 596 1123 m -21 Y s 596 1102 m cl s 632 1076 m -18 X s 614 1076 m cl s 632 1076 m 17 X s 649 1076 m cl s 632 1076 m 29 Y s 632 1105 m cl s 632 1076 m
 -31 Y s 632 1045 m cl s 667 1093 m -18 X s 649 1093 m cl s 667 1093 m 18 X s 685 1093 m cl s 667 1093 m 26 Y s 667 1119 m cl s 667 1093 m -27 Y s 667 1066 m cl s 703 1118 m -18 X s 685 1118 m cl s 703 1118 m 18 X s 721 1118 m cl s 703 1118 m 21 Y s
 703 1139 m cl s 703 1118 m -22 Y s 703 1096 m cl s 739 1100 m -18 X s 721 1100 m cl s 739 1100 m 18 X s 757 1100 m cl s 739 1100 m 24 Y s 739 1124 m cl s 739 1100 m -25 Y s 739 1075 m cl s 775 1128 m -18 X s 757 1128 m cl s 775 1128 m 18 X s 793
 1128 m cl s 775 1128 m 19 Y s 775 1147 m cl s 775 1128 m -20 Y s 775 1108 m cl s 811 1150 m -18 X s 793 1150 m cl s 811 1150 m 18 X s 829 1150 m cl s 811 1150 m 17 Y s 811 1167 m cl s 811 1150 m -16 Y s 811 1134 m cl s 847 1128 m -18 X s 829 1128 m
 cl s 847 1128 m 17 X s 864 1128 m cl s 847 1128 m 19 Y s 847 1147 m cl s 847 1128 m -20 Y s 847 1108 m cl s 882 1140 m -18 X s 864 1140 m cl s 882 1140 m 18 X s 900 1140 m cl s 882 1140 m 18 Y s 882 1158 m cl s 882 1140 m -18 Y s 882 1122 m cl s 918
 1162 m -18 X s 900 1162 m cl s 918 1162 m 18 X s 936 1162 m cl s 918 1162 m 15 Y s 918 1177 m cl s 918 1162 m -15 Y s 918 1147 m cl s 954 1147 m -18 X s 936 1147 m cl s 954 1147 m 18 X s 972 1147 m cl s 954 1147 m 17 Y s 954 1164 m cl s 954 1147 m
 -17 Y s 954 1130 m cl s 990 1150 m -18 X s 972 1150 m cl s 990 1150 m 18 X s 1008 1150 m cl s 990 1150 m 17 Y s 990 1167 m cl s 990 1150 m -16 Y s 990 1134 m cl s 1026 1157 m -18 X s 1008 1157 m cl s 1026 1157 m 18 X s 1044 1157 m cl s 1026 1157 m
 15 Y s 1026 1172 m cl s 1026 1157 m -16 Y s 1026 1141 m cl s 1062 1172 m -18 X s 1044 1172 m cl s 1062 1172 m 17 X s 1079 1172 m cl s 1062 1172 m 14 Y s 1062 1186 m cl s 1062 1172 m -14 Y s 1062 1158 m cl s 1097 1187 m -18 X s 1079 1187 m cl s 1097
 1187 m 18 X s 1115 1187 m cl s 1097 1187 m 12 Y s 1097 1199 m cl s 1097 1187 m -12 Y s 1097 1175 m cl s 1133 1208 m -18 X s 1115 1208 m cl s 1133 1208 m 18 X s 1151 1208 m cl s 1133 1208 m 10 Y s 1133 1218 m cl s 1133 1208 m -11 Y s 1133 1197 m cl s
 1169 1205 m -18 X s 1151 1205 m cl s 1169 1205 m 18 X s 1187 1205 m cl s 1169 1205 m 10 Y s 1169 1215 m cl s 1169 1205 m -11 Y s 1169 1194 m cl s 1205 1209 m -18 X s 1187 1209 m cl s 1205 1209 m 18 X s 1223 1209 m cl s 1205 1209 m 10 Y s 1205 1219 m
 cl s 1205 1209 m -10 Y s 1205 1199 m cl s 1241 1234 m -18 X s 1223 1234 m cl s 1241 1234 m 18 X s 1259 1234 m cl s 1241 1234 m 8 Y s 1241 1242 m cl s 1241 1234 m -9 Y s 1241 1225 m cl s 1276 1252 m -17 X s 1259 1252 m cl s 1276 1252 m 18 X s 1294
 1252 m cl s 1276 1252 m 7 Y s 1276 1259 m cl s 1276 1252 m -8 Y s 1276 1244 m cl s 1312 1260 m -18 X s 1294 1260 m cl s 1312 1260 m 18 X s 1330 1260 m cl s 1312 1260 m 7 Y s 1312 1267 m cl s 1312 1260 m -6 Y s 1312 1254 m cl s 1348 1268 m -18 X s
 1330 1268 m cl s 1348 1268 m 18 X s 1366 1268 m cl s 1348 1268 m 6 Y s 1348 1274 m cl s 1348 1268 m -7 Y s 1348 1261 m cl s 1384 1305 m -18 X s 1366 1305 m cl s 1384 1305 m 18 X s 1402 1305 m cl s 1384 1305 m 5 Y s 1384 1310 m cl s 1384 1305 m -5 Y
 s 1384 1300 m cl s 1420 1323 m -18 X s 1402 1323 m cl s 1420 1323 m 18 X s 1438 1323 m cl s 1420 1323 m 4 Y s 1420 1327 m cl s 1420 1323 m -4 Y s 1420 1319 m cl s 1456 1343 m -18 X s 1438 1343 m cl s 1456 1343 m 18 X s 1474 1343 m cl s 1456 1343 m 3
 Y s 1456 1346 m cl s 1456 1343 m -4 Y s 1456 1339 m cl s 1491 1375 m -17 X s 1474 1375 m cl s 1491 1375 m 18 X s 1509 1375 m cl s 1491 1375 m 3 Y s 1491 1378 m cl s 1491 1375 m -3 Y s 1491 1372 m cl s 1527 1399 m -18 X s 1509 1399 m cl s 1527 1399 m
 18 X s 1545 1399 m cl s 1527 1399 m 2 Y s 1527 1401 m cl s 1527 1399 m -2 Y s 1527 1397 m cl s 1563 1423 m -18 X s 1545 1423 m cl s 1563 1423 m 18 X s 1581 1423 m cl s 1563 1423 m 2 Y s 1563 1425 m cl s 1563 1423 m -2 Y s 1563 1421 m cl s 1599 1439
 m -18 X s 1581 1439 m cl s 1599 1439 m 18 X s 1617 1439 m cl s 1599 1439 m 1 Y s 1599 1440 m cl s 1599 1439 m -2 Y s 1599 1437 m cl s 1635 1450 m -18 X s 1617 1450 m cl s 1635 1450 m 18 X s 1653 1450 m cl s 1635 1450 m 2 Y s 1635 1452 m cl s 1635
 1450 m -2 Y s 1635 1448 m cl s 1671 1452 m -18 X s 1653 1452 m cl s 1671 1452 m 18 X s 1689 1452 m cl s 1671 1452 m 1 Y s 1671 1453 m cl s 1671 1452 m -2 Y s 1671 1450 m cl s 1706 1439 m -17 X s 1689 1439 m cl s 1706 1439 m 18 X s 1724 1439 m cl s
 1706 1439 m 2 Y s 1706 1441 m cl s 1706 1439 m -2 Y s 1706 1437 m cl s 1742 1418 m -18 X s 1724 1418 m cl s 1742 1418 m 18 X s 1760 1418 m cl s 1742 1418 m 2 Y s 1742 1420 m cl s 1742 1418 m -2 Y s 1742 1416 m cl s 1778 1389 m -18 X s 1760 1389 m cl
 s 1778 1389 m 18 X s 1796 1389 m cl s 1778 1389 m 3 Y s 1778 1392 m cl s 1778 1389 m -2 Y s 1778 1387 m cl s 1814 1360 m -18 X s 1796 1360 m cl s 1814 1360 m 18 X s 1832 1360 m cl s 1814 1360 m 4 Y s 1814 1364 m cl s 1814 1360 m -3 Y s 1814 1357 m
 cl s 1850 1324 m -18 X s 1832 1324 m cl s 1850 1324 m 18 X s 1868 1324 m cl s 1850 1324 m 4 Y s 1850 1328 m cl s 1850 1324 m -5 Y s 1850 1319 m cl s 1886 1293 m -18 X s 1868 1293 m cl s 1886 1293 m 18 X s 1904 1293 m cl s 1886 1293 m 5 Y s 1886 1298
 m cl s 1886 1293 m -6 Y s 1886 1287 m cl s 1921 1266 m -17 X s 1904 1266 m cl s 1921 1266 m 18 X s 1939 1266 m cl s 1921 1266 m 6 Y s 1921 1272 m cl s 1921 1266 m -6 Y s 1921 1260 m cl s 1957 1208 m -18 X s 1939 1208 m cl s 1957 1208 m 18 X s 1975
 1208 m cl s 1957 1208 m 10 Y s 1957 1218 m cl s 1957 1208 m -11 Y s 1957 1197 m cl s 1993 1181 m -18 X s 1975 1181 m cl s 1993 1181 m 18 X s 2011 1181 m cl s 1993 1181 m 13 Y s 1993 1194 m cl s 1993 1181 m -13 Y s 1993 1168 m cl s 2029 1162 m -18 X
 s 2011 1162 m cl s 2029 1162 m 18 X s 2047 1162 m cl s 2029 1162 m 15 Y s 2029 1177 m cl s 2029 1162 m -15 Y s 2029 1147 m cl s 2065 1154 m -18 X s 2047 1154 m cl s 2065 1154 m 18 X s 2083 1154 m cl s 2065 1154 m 15 Y s 2065 1169 m cl s 2065 1154 m
 -16 Y s 2065 1138 m cl s 2101 1140 m -18 X s 2083 1140 m cl s 2101 1140 m 18 X s 2119 1140 m cl s 2101 1140 m 18 Y s 2101 1158 m cl s 2101 1140 m -18 Y s 2101 1122 m cl s 2136 1113 m -17 X s 2119 1113 m cl s 2136 1113 m 18 X s 2154 1113 m cl s 2136
 1113 m 21 Y s 2136 1134 m cl s 2136 1113 m -23 Y s 2136 1090 m cl s 381 1066 417 1093 452 1085 488 1076 524 1019 560 1100 596 1123 632 1076 667 1093 703 1118 739 1100 775 1128 811 1150 847 1128 882 1140 918 1162 954 1147 990 1150 1026 1157 1062 1172
 1097 1187 1133 1208 1169 1205 1205 1209 1241 1234 1276 1252 1312 1260 1348 1268 1384 1305 1420 1323 1456 1343 1491 1375 1527 1399 1563 1423 1599 1439 1635 1450 1671 1452 1706 1439 1742 1418 1778 1389 1814 1360 1850 1324 1886 1293 1921 1266 1957 1208
 1993 1181 2029 1162 2065 1154 2101 1140 2136 1113 50 { m20} R 0.52 0.76 0.64 c[ 4 8] 0 sd 9 lw black 0.52 0.76 0.64 c 363 1035 m 36 7 d 35 7 d 36 7 d 36 8 d 36 7 d 36 8 d 36 7 d 35 8 d 36 8 d 36 8 d 36 8 d 36 8 d 36 8 d 35 8 d 36 9 d 36 8 d 36 9 d
 36 9 d 36 8 d 35 9 d 36 9 d 36 10 d 36 9 d 36 9 d 36 10 d 35 10 d 36 10 d 18 5 d 18 5 d 18 5 d 18 5 d 18 5 d 18 5 d 18 5 d 18 6 d 17 5 d 18 5 d 18 5 d 18 5 d 18 3 d 18 3 d 9 1 d 9 1 d 9 1 d 9 1 d 18 X 9 1 d 9 X 9 -1 d 9 X 9 -1 d 9 X 8 -1 d 9 -1 d 9
 -2 d 9 -1 d 18 -4 d 18 -4 d 18 -4 d 18 -6 d 36 -13 d 36 -16 d 18 -9 d 18 -10 d 17 -10 d 18 -12 d 18 -11 d 18 -13 d 18 -13 d 18 -14 d 18 -15 d 18 -15 d 18 -16 d 18 -17 d 18 -18 d 18 -18 d 35 -38 d s 0.54 0.66 0.63 c black 0.54 0.66 0.63 c 1200 634 m
 23 82 d s 1223 716 m 36 117 d 35 106 d 36 97 d 36 85 d 18 40 d 18 36 d 18 34 d 9 16 d 9 15 d 9 15 d 9 14 d 9 13 d 9 13 d 9 12 d 8 12 d 9 11 d 9 10 d 9 9 d 9 9 d 9 8 d 9 8 d 18 13 d 9 6 d 9 5 d 9 4 d 9 4 d 9 3 d 9 2 d 4 1 d 5 1 d 4 1 d 5 X 4 1 d 14 X
 4 -1 d 5 X 4 -1 d 5 -1 d 4 -1 d 5 -1 d 9 -2 d 8 -4 d 9 -4 d 9 -4 d 9 -6 d 18 -12 d 18 -16 d 9 -8 d 9 -9 d 9 -10 d 9 -11 d 9 -11 d 9 -12 d 9 -12 d 9 -13 d 9 -14 d 9 -14 d 9 -15 d 9 -16 d 9 -16 d 9 -17 d 18 -36 d 17 -38 d 18 -41 d 36 -90 d 36 -100 d
 36 -111 d 36 -120 d 10 -36 d s black[  ] 0 sd 3 lw 363 634 m 1791 X s 450 659 m -25 Y s 494 646 m -12 Y s 538 646 m -12 Y s 581 646 m -12 Y s 625 659 m -25 Y s 669 646 m -12 Y s 712 646 m -12 Y s 756 646 m -12 Y s 800 659 m -25 Y s 843 646 m -12 Y s
 887 646 m -12 Y s 931 646 m -12 Y s 975 659 m -25 Y s 1018 646 m -12 Y s 1062 646 m -12 Y s 1106 646 m -12 Y s 1149 659 m -25 Y s 1193 646 m -12 Y s 1237 646 m -12 Y s 1280 646 m -12 Y s 1324 659 m -25 Y s 1368 646 m -12 Y s 1412 646 m -12 Y s 1455
 646 m -12 Y s 1499 659 m -25 Y s 1543 646 m -12 Y s 1586 646 m -12 Y s 1630 646 m -12 Y s 1674 659 m -25 Y s 1717 646 m -12 Y s 1761 646 m -12 Y s 1805 646 m -12 Y s 1848 659 m -25 Y s 1892 646 m -12 Y s 1936 646 m -12 Y s 1980 646 m -12 Y s 2023
 659 m -25 Y s 450 659 m -25 Y s 407 646 m -12 Y s 363 646 m -12 Y s 2023 659 m -25 Y s 2067 646 m -12 Y s 2111 646 m -12 Y s 2154 646 m -12 Y s 363 1484 m 1791 X s 450 1459 m 25 Y s 494 1471 m 13 Y s 538 1471 m 13 Y s 581 1471 m 13 Y s 625 1459 m 25
 Y s 669 1471 m 13 Y s 712 1471 m 13 Y s 756 1471 m 13 Y s 800 1459 m 25 Y s 843 1471 m 13 Y s 887 1471 m 13 Y s 931 1471 m 13 Y s 975 1459 m 25 Y s 1018 1471 m 13 Y s 1062 1471 m 13 Y s 1106 1471 m 13 Y s 1149 1459 m 25 Y s 1193 1471 m 13 Y s 1237
 1471 m 13 Y s 1280 1471 m 13 Y s 1324 1459 m 25 Y s 1368 1471 m 13 Y s 1412 1471 m 13 Y s 1455 1471 m 13 Y s 1499 1459 m 25 Y s 1543 1471 m 13 Y s 1586 1471 m 13 Y s 1630 1471 m 13 Y s 1674 1459 m 25 Y s 1717 1471 m 13 Y s 1761 1471 m 13 Y s 1805
 1471 m 13 Y s 1848 1459 m 25 Y s 1892 1471 m 13 Y s 1936 1471 m 13 Y s 1980 1471 m 13 Y s 2023 1459 m 25 Y s 450 1459 m 25 Y s 407 1471 m 13 Y s 363 1471 m 13 Y s 2023 1459 m 25 Y s 2067 1471 m 13 Y s 2111 1471 m 13 Y s 2154 1471 m 13 Y s 363 634 m
 850 Y s 417 634 m -54 X s 390 680 m -27 X s 390 708 m -27 X s 390 727 m -27 X s 390 742 m -27 X s 390 755 m -27 X s 390 765 m -27 X s 390 774 m -27 X s 390 782 m -27 X s 417 789 m -54 X s 390 836 m -27 X s 390 863 m -27 X s 390 883 m -27 X s 390 898
 m -27 X s 390 910 m -27 X s 390 921 m -27 X s 390 930 m -27 X s 390 938 m -27 X s 417 945 m -54 X s 390 992 m -27 X s 390 1019 m -27 X s 390 1038 m -27 X s 390 1054 m -27 X s 390 1066 m -27 X s 390 1076 m -27 X s 390 1085 m -27 X s 390 1093 m -27 X
 s 417 1100 m -54 X s 390 1147 m -27 X s 390 1175 m -27 X s 390 1194 m -27 X s 390 1209 m -27 X s 390 1221 m -27 X s 390 1232 m -27 X s 390 1241 m -27 X s 390 1249 m -27 X s 417 1256 m -54 X s 390 1303 m -27 X s 390 1330 m -27 X s 390 1350 m -27 X s
 390 1365 m -27 X s 390 1377 m -27 X s 390 1387 m -27 X s 390 1396 m -27 X s 390 1404 m -27 X s 417 1411 m -54 X s 390 1458 m -27 X s 2154 634 m 850 Y s 2101 634 m 53 X s 2127 680 m 27 X s 2127 708 m 27 X s 2127 727 m 27 X s 2127 742 m 27 X s 2127
 755 m 27 X s 2127 765 m 27 X s 2127 774 m 27 X s 2127 782 m 27 X s 2101 789 m 53 X s 2127 836 m 27 X s 2127 863 m 27 X s 2127 883 m 27 X s 2127 898 m 27 X s 2127 910 m 27 X s 2127 921 m 27 X s 2127 930 m 27 X s 2127 938 m 27 X s 2101 945 m 53 X s
 2127 992 m 27 X s 2127 1019 m 27 X s 2127 1038 m 27 X s 2127 1054 m 27 X s 2127 1066 m 27 X s 2127 1076 m 27 X s 2127 1085 m 27 X s 2127 1093 m 27 X s 2101 1100 m 53 X s 2127 1147 m 27 X s 2127 1175 m 27 X s 2127 1194 m 27 X s 2127 1209 m 27 X s
 2127 1221 m 27 X s 2127 1232 m 27 X s 2127 1241 m 27 X s 2127 1249 m 27 X s 2101 1256 m 53 X s 2127 1303 m 27 X s 2127 1330 m 27 X s 2127 1350 m 27 X s 2127 1365 m 27 X s 2127 1377 m 27 X s 2127 1387 m 27 X s 2127 1396 m 27 X s 2127 1404 m 27 X s
 2101 1411 m 53 X s 2127 1458 m 27 X s
 gsave  2268 1077 0 461 C 677.708 1215.31 t 0 r /Helvetica findfont 58.7189 sf 0 0 m (2mu2e) show NC gr  1 1 1 c 453 161 454 1269 bf black
 gsave  2268 1077 0 461 C 566.929 1371.71 t 0 r /Helvetica-Bold findfont 48.9324 sf 0 0 m (MC15) show NC gr  510 1390 m20
 gsave  2268 1077 0 461 C 566.929 1293.51 t 0 r /Helvetica-Bold findfont 48.9324 sf 0 0 m (Projection of Signal pdf) show NC gr  0 0 1 c 9 lw 471 1309 m 79 X s black 3 lw 1 1 1 c 2268 461 0 0 bf black 1 1 1 c 1791 364 363 74 bf black 1791 364 363 74
 bl 363 74 m 1791 X s
 gsave  2268 461 0 0 C 1915.83 13.0329 t 0 r /Helvetica findfont 22.9045 sf 0 0 m (4l Invariant Mass \(GeV\)) show NC gr  450 85 m -11 Y s 494 79 m -5 Y s 538 79 m -5 Y s 581 79 m -5 Y s 625 85 m -11 Y s 669 79 m -5 Y s 712 79 m -5 Y s 756 79 m -5 Y
 s 800 85 m -11 Y s 843 79 m -5 Y s 887 79 m -5 Y s 931 79 m -5 Y s 975 85 m -11 Y s 1018 79 m -5 Y s 1062 79 m -5 Y s 1106 79 m -5 Y s 1149 85 m -11 Y s 1193 79 m -5 Y s 1237 79 m -5 Y s 1280 79 m -5 Y s 1324 85 m -11 Y s 1368 79 m -5 Y s 1412 79 m
 -5 Y s 1455 79 m -5 Y s 1499 85 m -11 Y s 1543 79 m -5 Y s 1586 79 m -5 Y s 1630 79 m -5 Y s 1674 85 m -11 Y s 1717 79 m -5 Y s 1761 79 m -5 Y s 1805 79 m -5 Y s 1848 85 m -11 Y s 1892 79 m -5 Y s 1936 79 m -5 Y s 1980 79 m -5 Y s 2023 85 m -11 Y s
 450 85 m -11 Y s 407 79 m -5 Y s 363 79 m -5 Y s 2023 85 m -11 Y s 2067 79 m -5 Y s 2111 79 m -5 Y s 2154 79 m -5 Y s
 gsave  2268 461 0 0 C 430.084 55.3896 t 0 r /Helvetica findfont 22.9045 sf 0 0 m (460) show NC gr 
 gsave  2268 461 0 0 C 602.769 55.3896 t 0 r /Helvetica findfont 22.9045 sf 0 0 m (480) show NC gr 
 gsave  2268 461 0 0 C 778.713 55.3896 t 0 r /Helvetica findfont 22.9045 sf 0 0 m (500) show NC gr 
 gsave  2268 461 0 0 C 954.657 55.3896 t 0 r /Helvetica findfont 22.9045 sf 0 0 m (520) show NC gr 
 gsave  2268 461 0 0 C 1127.34 55.3896 t 0 r /Helvetica findfont 22.9045 sf 0 0 m (540) show NC gr 
 gsave  2268 461 0 0 C 1303.29 55.3896 t 0 r /Helvetica findfont 22.9045 sf 0 0 m (560) show NC gr 
 gsave  2268 461 0 0 C 1479.23 55.3896 t 0 r /Helvetica findfont 22.9045 sf 0 0 m (580) show NC gr 
 gsave  2268 461 0 0 C 1651.91 55.3896 t 0 r /Helvetica findfont 22.9045 sf 0 0 m (600) show NC gr 
 gsave  2268 461 0 0 C 1827.86 55.3896 t 0 r /Helvetica findfont 22.9045 sf 0 0 m (620) show NC gr 
 gsave  2268 461 0 0 C 2000.54 55.3896 t 0 r /Helvetica findfont 22.9045 sf 0 0 m (640) show NC gr  363 438 m 1791 X s 450 427 m 11 Y s 494 433 m 5 Y s 538 433 m 5 Y s 581 433 m 5 Y s 625 427 m 11 Y s 669 433 m 5 Y s 712 433 m 5 Y s 756 433 m 5 Y s
 800 427 m 11 Y s 843 433 m 5 Y s 887 433 m 5 Y s 931 433 m 5 Y s 975 427 m 11 Y s 1018 433 m 5 Y s 1062 433 m 5 Y s 1106 433 m 5 Y s 1149 427 m 11 Y s 1193 433 m 5 Y s 1237 433 m 5 Y s 1280 433 m 5 Y s 1324 427 m 11 Y s 1368 433 m 5 Y s 1412 433 m 5
 Y s 1455 433 m 5 Y s 1499 427 m 11 Y s 1543 433 m 5 Y s 1586 433 m 5 Y s 1630 433 m 5 Y s 1674 427 m 11 Y s 1717 433 m 5 Y s 1761 433 m 5 Y s 1805 433 m 5 Y s 1848 427 m 11 Y s 1892 433 m 5 Y s 1936 433 m 5 Y s 1980 433 m 5 Y s 2023 427 m 11 Y s 450
 427 m 11 Y s 407 433 m 5 Y s 363 433 m 5 Y s 2023 427 m 11 Y s 2067 433 m 5 Y s 2111 433 m 5 Y s 2154 433 m 5 Y s 363 74 m 364 Y s 417 74 m -54 X s 390 81 m -27 X s 390 88 m -27 X s 390 96 m -27 X s 390 103 m -27 X s 417 110 m -54 X s 390 118 m -27
 X s 390 125 m -27 X s 390 132 m -27 X s 390 139 m -27 X s 417 147 m -54 X s 390 154 m -27 X s 390 161 m -27 X s 390 169 m -27 X s 390 176 m -27 X s 417 183 m -54 X s 390 190 m -27 X s 390 198 m -27 X s 390 205 m -27 X s 390 212 m -27 X s 417 220 m
 -54 X s 390 227 m -27 X s 390 234 m -27 X s 390 241 m -27 X s 390 249 m -27 X s 417 256 m -54 X s 390 263 m -27 X s 390 271 m -27 X s 390 278 m -27 X s 390 285 m -27 X s 417 293 m -54 X s 390 300 m -27 X s 390 307 m -27 X s 390 314 m -27 X s 390 322
 m -27 X s 417 329 m -54 X s 390 336 m -27 X s 390 344 m -27 X s 390 351 m -27 X s 390 358 m -27 X s 417 365 m -54 X s 390 373 m -27 X s 390 380 m -27 X s 390 387 m -27 X s 390 395 m -27 X s 417 402 m -54 X s 390 409 m -27 X s 390 416 m -27 X s 390
 424 m -27 X s 390 431 m -27 X s 417 438 m -54 X s
 gsave  2268 461 0 0 C 329.08 65.1643 t 0 r /Helvetica findfont 22.9045 sf 0 0 m (\2555) show NC gr 
 gsave  2268 461 0 0 C 329.08 101.005 t 0 r /Helvetica findfont 22.9045 sf 0 0 m (\2554) show NC gr 
 gsave  2268 461 0 0 C 329.08 140.103 t 0 r /Helvetica findfont 22.9045 sf 0 0 m (\2553) show NC gr 
 gsave  2268 461 0 0 C 329.08 175.944 t 0 r /Helvetica findfont 22.9045 sf 0 0 m (\2552) show NC gr 
 gsave  2268 461 0 0 C 332.338 211.784 t 0 r /Helvetica findfont 22.9045 sf 0 0 m (\2551) show NC gr 
 gsave  2268 461 0 0 C 335.596 247.624 t 0 r /Helvetica findfont 22.9045 sf 0 0 m (0) show NC gr 
 gsave  2268 461 0 0 C 338.854 283.465 t 0 r /Helvetica findfont 22.9045 sf 0 0 m (1) show NC gr 
 gsave  2268 461 0 0 C 335.596 319.305 t 0 r /Helvetica findfont 22.9045 sf 0 0 m (2) show NC gr 
 gsave  2268 461 0 0 C 335.596 358.403 t 0 r /Helvetica findfont 22.9045 sf 0 0 m (3) show NC gr 
 gsave  2268 461 0 0 C 335.596 394.244 t 0 r /Helvetica findfont 22.9045 sf 0 0 m (4) show NC gr 
 gsave  2268 461 0 0 C 335.596 430.084 t 0 r /Helvetica findfont 22.9045 sf 0 0 m (5) show NC gr  2154 74 m 364 Y s 2101 74 m 53 X s 2127 81 m 27 X s 2127 88 m 27 X s 2127 96 m 27 X s 2127 103 m 27 X s 2101 110 m 53 X s 2127 118 m 27 X s 2127 125 m
 27 X s 2127 132 m 27 X s 2127 139 m 27 X s 2101 147 m 53 X s 2127 154 m 27 X s 2127 161 m 27 X s 2127 169 m 27 X s 2127 176 m 27 X s 2101 183 m 53 X s 2127 190 m 27 X s 2127 198 m 27 X s 2127 205 m 27 X s 2127 212 m 27 X s 2101 220 m 53 X s 2127 227
 m 27 X s 2127 234 m 27 X s 2127 241 m 27 X s 2127 249 m 27 X s 2101 256 m 53 X s 2127 263 m 27 X s 2127 271 m 27 X s 2127 278 m 27 X s 2127 285 m 27 X s 2101 293 m 53 X s 2127 300 m 27 X s 2127 307 m 27 X s 2127 314 m 27 X s 2127 322 m 27 X s 2101
 329 m 53 X s 2127 336 m 27 X s 2127 344 m 27 X s 2127 351 m 27 X s 2127 358 m 27 X s 2101 365 m 53 X s 2127 373 m 27 X s 2127 380 m 27 X s 2127 387 m 27 X s 2127 395 m 27 X s 2101 402 m 53 X s 2127 409 m 27 X s 2127 416 m 27 X s 2127 424 m 27 X s
 2127 431 m 27 X s 2101 438 m 53 X s 6 lw 0.2 0.8 0.2 c black 3 lw 0.2 0.8 0.2 c 363 256 m 31 Y 36 X 25 Y 35 X -16 Y 36 X -19 Y 36 X -60 Y 36 X 76 Y 36 X 25 Y 36 X -78 Y 35 X 10 Y 36 X 28 Y 36 X -41 Y 36 X 31 Y 36 X 32 Y 36 X -63 Y 35 X 6 Y 36 X 31 Y
 36 X -54 Y 36 X -16 Y 36 X -11 Y 36 X 14 Y 35 X 12 Y 36 X 35 Y 36 X -42 Y 36 X -24 Y 36 X 57 Y 36 X 38 Y 35 X -9 Y 36 X -35 Y 36 X 145 Y 36 X -25 Y 36 X -81 Y 36 X 8 Y 35 X -84 Y 36 X -4 Y 36 X -20 Y 36 X 89 Y 36 X 77 Y 36 X -55 Y 35 X -37 Y 36 X
 -38 Y 36 X 44 Y 36 X -23 Y 36 X 25 Y 36 X 28 Y 35 X -132 Y 36 X 29 Y 36 X 42 Y 36 X 55 Y 36 X 32 Y 71 X -58 Y f 6 lw black 0.2 0.8 0.2 c black 363 287 m 36 X 25 Y 35 X -16 Y 36 X -19 Y 36 X -60 Y 36 X 76 Y 36 X 25 Y 36 X -78 Y 35 X 10 Y 36 X 28 Y 36
 X -41 Y 36 X 31 Y 36 X 32 Y 36 X -63 Y 35 X 6 Y 36 X 31 Y 36 X -54 Y 36 X -16 Y 36 X -11 Y 36 X 14 Y 35 X 12 Y 36 X 35 Y 36 X -42 Y 36 X -24 Y 36 X 57 Y 36 X 38 Y 35 X -9 Y 36 X -35 Y 36 X 145 Y 36 X -25 Y 36 X -81 Y 36 X 8 Y 35 X -84 Y 36 X -4 Y 36
 X -20 Y 36 X 89 Y 36 X 77 Y 36 X -55 Y 35 X -37 Y 36 X -38 Y 36 X 44 Y 36 X -23 Y 36 X 25 Y 36 X 28 Y 35 X -132 Y 36 X 29 Y 36 X 42 Y 36 X 55 Y 36 X 32 Y 71 X s 3 lw 363 74 m 1791 X s 450 85 m -11 Y s 494 79 m -5 Y s 538 79 m -5 Y s 581 79 m -5 Y s
 625 85 m -11 Y s 669 79 m -5 Y s 712 79 m -5 Y s 756 79 m -5 Y s 800 85 m -11 Y s 843 79 m -5 Y s 887 79 m -5 Y s 931 79 m -5 Y s 975 85 m -11 Y s 1018 79 m -5 Y s 1062 79 m -5 Y s 1106 79 m -5 Y s 1149 85 m -11 Y s 1193 79 m -5 Y s 1237 79 m -5 Y s
 1280 79 m -5 Y s 1324 85 m -11 Y s 1368 79 m -5 Y s 1412 79 m -5 Y s 1455 79 m -5 Y s 1499 85 m -11 Y s 1543 79 m -5 Y s 1586 79 m -5 Y s 1630 79 m -5 Y s 1674 85 m -11 Y s 1717 79 m -5 Y s 1761 79 m -5 Y s 1805 79 m -5 Y s 1848 85 m -11 Y s 1892 79
 m -5 Y s 1936 79 m -5 Y s 1980 79 m -5 Y s 2023 85 m -11 Y s 450 85 m -11 Y s 407 79 m -5 Y s 363 79 m -5 Y s 2023 85 m -11 Y s 2067 79 m -5 Y s 2111 79 m -5 Y s 2154 79 m -5 Y s 363 438 m 1791 X s 450 427 m 11 Y s 494 433 m 5 Y s 538 433 m 5 Y s
 581 433 m 5 Y s 625 427 m 11 Y s 669 433 m 5 Y s 712 433 m 5 Y s 756 433 m 5 Y s 800 427 m 11 Y s 843 433 m 5 Y s 887 433 m 5 Y s 931 433 m 5 Y s 975 427 m 11 Y s 1018 433 m 5 Y s 1062 433 m 5 Y s 1106 433 m 5 Y s 1149 427 m 11 Y s 1193 433 m 5 Y s
 1237 433 m 5 Y s 1280 433 m 5 Y s 1324 427 m 11 Y s 1368 433 m 5 Y s 1412 433 m 5 Y s 1455 433 m 5 Y s 1499 427 m 11 Y s 1543 433 m 5 Y s 1586 433 m 5 Y s 1630 433 m 5 Y s 1674 427 m 11 Y s 1717 433 m 5 Y s 1761 433 m 5 Y s 1805 433 m 5 Y s 1848 427
 m 11 Y s 1892 433 m 5 Y s 1936 433 m 5 Y s 1980 433 m 5 Y s 2023 427 m 11 Y s 450 427 m 11 Y s 407 433 m 5 Y s 363 433 m 5 Y s 2023 427 m 11 Y s 2067 433 m 5 Y s 2111 433 m 5 Y s 2154 433 m 5 Y s 363 74 m 364 Y s 417 74 m -54 X s 390 81 m -27 X s
 390 88 m -27 X s 390 96 m -27 X s 390 103 m -27 X s 417 110 m -54 X s 390 118 m -27 X s 390 125 m -27 X s 390 132 m -27 X s 390 139 m -27 X s 417 147 m -54 X s 390 154 m -27 X s 390 161 m -27 X s 390 169 m -27 X s 390 176 m -27 X s 417 183 m -54 X s
 390 190 m -27 X s 390 198 m -27 X s 390 205 m -27 X s 390 212 m -27 X s 417 220 m -54 X s 390 227 m -27 X s 390 234 m -27 X s 390 241 m -27 X s 390 249 m -27 X s 417 256 m -54 X s 390 263 m -27 X s 390 271 m -27 X s 390 278 m -27 X s 390 285 m -27 X
 s 417 293 m -54 X s 390 300 m -27 X s 390 307 m -27 X s 390 314 m -27 X s 390 322 m -27 X s 417 329 m -54 X s 390 336 m -27 X s 390 344 m -27 X s 390 351 m -27 X s 390 358 m -27 X s 417 365 m -54 X s 390 373 m -27 X s 390 380 m -27 X s 390 387 m -27
 X s 390 395 m -27 X s 417 402 m -54 X s 390 409 m -27 X s 390 416 m -27 X s 390 424 m -27 X s 390 431 m -27 X s 417 438 m -54 X s 2154 74 m 364 Y s 2101 74 m 53 X s 2127 81 m 27 X s 2127 88 m 27 X s 2127 96 m 27 X s 2127 103 m 27 X s 2101 110 m 53 X
 s 2127 118 m 27 X s 2127 125 m 27 X s 2127 132 m 27 X s 2127 139 m 27 X s 2101 147 m 53 X s 2127 154 m 27 X s 2127 161 m 27 X s 2127 169 m 27 X s 2127 176 m 27 X s 2101 183 m 53 X s 2127 190 m 27 X s 2127 198 m 27 X s 2127 205 m 27 X s 2127 212 m 27
 X s 2101 220 m 53 X s 2127 227 m 27 X s 2127 234 m 27 X s 2127 241 m 27 X s 2127 249 m 27 X s 2101 256 m 53 X s 2127 263 m 27 X s 2127 271 m 27 X s 2127 278 m 27 X s 2127 285 m 27 X s 2101 293 m 53 X s 2127 300 m 27 X s 2127 307 m 27 X s 2127 314 m
 27 X s 2127 322 m 27 X s 2101 329 m 53 X s 2127 336 m 27 X s 2127 344 m 27 X s 2127 351 m 27 X s 2127 358 m 27 X s 2101 365 m 53 X s 2127 373 m 27 X s 2127 380 m 27 X s 2127 387 m 27 X s 2127 395 m 27 X s 2101 402 m 53 X s 2127 409 m 27 X s 2127 416
 m 27 X s 2127 424 m 27 X s 2127 431 m 27 X s 2101 438 m 53 X s
 gr  gr showpage
end
%%EOF
