%!PS-Adobe-2.0 EPSF-2.0
%%BoundingBox:  0 0 567 384
%%Title: H4l2015_plotfit/VBF_mass_signal_400_H4l_4mu.eps: 
%%Creator: ROOT Version 5.34/07
%%CreationDate: Mon Nov  9 16:29:36 2015
%%EndComments
%%BeginProlog
80 dict begin
/s {stroke} def /l {lineto} def /m {moveto} def /t {translate} def
/r {rotate} def /rl {roll}  def /R {repeat} def
/d {rlineto} def /rm {rmoveto} def /gr {grestore} def /f {eofill} def
/c {setrgbcolor} def /black {0 setgray} def /sd {setdash} def
/cl {closepath} def /sf {scalefont setfont} def /lw {setlinewidth} def
/box {m dup 0 exch d exch 0 d 0 exch neg d cl} def
/NC{systemdict begin initclip end}def/C{NC box clip newpath}def
/bl {box s} def /bf {box f} def /Y { 0 exch d} def /X { 0 d} def 
/K {{pop pop 0 moveto} exch kshow} bind def
/ita {/ang 15 def gsave [1 0 ang dup sin exch cos div 1 0 0] concat} def 
/mp {newpath /y exch def /x exch def} def
/side {[w .77 mul w .23 mul] .385 w mul sd w 0 l currentpoint t -144 r} def
/mr {mp x y w2 0 360 arc} def /m24 {mr s} def /m20 {mr f} def
/mb {mp x y w2 add m w2 neg 0 d 0 w neg d w 0 d 0 w d cl} def
/mt {mp x y w2 add m w2 neg w neg d w 0 d cl} def
/m21 {mb f} def /m25 {mb s} def /m22 {mt f} def /m26{mt s} def
/m23 {mp x y w2 sub m w2 w d w neg 0 d cl f} def
/m27 {mp x y w2 add m w3 neg w2 neg d w3 w2 neg d w3 w2 d cl s} def
/m28 {mp x w2 sub y w2 sub w3 add m w3 0 d  0 w3 neg d w3 0 d 0 w3 d w3 0 d  0 w3 d w3 neg 0 d 0 w3 d w3 neg 0 d 0 w3 neg d w3 neg 0 d cl s } def
/m29 {mp gsave x w2 sub y w2 add w3 sub m currentpoint t 4 {side} repeat cl fill gr} def
/m30 {mp gsave x w2 sub y w2 add w3 sub m currentpoint t 4 {side} repeat cl s gr} def
/m31 {mp x y w2 sub m 0 w d x w2 sub y m w 0 d x w2 sub y w2 add m w w neg d x w2 sub y w2 sub m w w d s} def
/m32 {mp x y w2 sub m w2 w d w neg 0 d cl s} def
/m33 {mp x y w2 add m w3 neg w2 neg d w3 w2 neg d w3 w2 d cl f} def
/m34 {mp x w2 sub y w2 sub w3 add m w3 0 d  0 w3 neg d w3 0 d 0 w3 d w3 0 d  0 w3 d w3 neg 0 d 0 w3 d w3 neg 0 d 0 w3 neg d w3 neg 0 d cl f } def
/m2 {mp x y w2 sub m 0 w d x w2 sub y m w 0 d s} def
/m5 {mp x w2 sub y w2 sub m w w d x w2 sub y w2 add m w w neg d s} def
/reEncode {exch findfont dup length dict begin {1 index /FID eq  {pop pop} {def} ifelse } forall /Encoding exch def currentdict end dup /FontName get exch definefont pop } def [/Times-Bold /Times-Italic /Times-BoldItalic /Helvetica /Helvetica-Oblique
 /Helvetica-Bold /Helvetica-BoldOblique /Courier /Courier-Oblique /Courier-Bold /Courier-BoldOblique /Times-Roman /AvantGarde-Book /AvantGarde-BookOblique /AvantGarde-Demi /AvantGarde-DemiOblique /Bookman-Demi /Bookman-DemiItalic /Bookman-Light
 /Bookman-LightItalic /Helvetica-Narrow /Helvetica-Narrow-Bold /Helvetica-Narrow-BoldOblique /Helvetica-Narrow-Oblique /NewCenturySchlbk-Roman /NewCenturySchlbk-Bold /NewCenturySchlbk-BoldItalic /NewCenturySchlbk-Italic /Palatino-Bold
 /Palatino-BoldItalic /Palatino-Italic /Palatino-Roman ] {ISOLatin1Encoding reEncode } forall
%%EndProlog
%%BeginSetup
%%EndSetup
newpath  gsave  .25 .25 scale  gsave  0 0 t black[  ] 0 sd 3 lw 1 1 1 c 2268 1538 0 0 bf black 1 1 1 c 2222 738 23 784 bf black 1 1 1 c 2222 739 23 15 bf black 1 1 1 c 2268 1077 0 461 bf black 1 1 1 c 1791 850 363 634 bf black 1791 850 363 634 bl 363
 634 m 1791 X s
 gsave  2268 1077 0 461 C 1642.14 498.507 t 0 r /Helvetica findfont 48.9324 sf 0 0 m (4l Invariant Mass \(GeV\)) show NC gr  363 659 m -25 Y s 427 646 m -12 Y s 491 646 m -12 Y s 555 646 m -12 Y s 619 659 m -25 Y s 683 646 m -12 Y s 747 646 m -12 Y s
 811 646 m -12 Y s 875 659 m -25 Y s 939 646 m -12 Y s 1003 646 m -12 Y s 1067 646 m -12 Y s 1131 659 m -25 Y s 1195 646 m -12 Y s 1259 646 m -12 Y s 1323 646 m -12 Y s 1387 659 m -25 Y s 1451 646 m -12 Y s 1515 646 m -12 Y s 1578 646 m -12 Y s 1642
 659 m -25 Y s 1706 646 m -12 Y s 1770 646 m -12 Y s 1834 646 m -12 Y s 1898 659 m -25 Y s 1962 646 m -12 Y s 2026 646 m -12 Y s 2090 646 m -12 Y s 2154 659 m -25 Y s
 gsave  2268 1077 0 461 C 319.305 586.478 t 0 r /Helvetica findfont 48.9324 sf 0 0 m (300) show NC gr 
 gsave  2268 1077 0 461 C 573.446 586.478 t 0 r /Helvetica findfont 48.9324 sf 0 0 m (320) show NC gr 
 gsave  2268 1077 0 461 C 830.844 586.478 t 0 r /Helvetica findfont 48.9324 sf 0 0 m (340) show NC gr 
 gsave  2268 1077 0 461 C 1088.24 586.478 t 0 r /Helvetica findfont 48.9324 sf 0 0 m (360) show NC gr 
 gsave  2268 1077 0 461 C 1342.38 586.478 t 0 r /Helvetica findfont 48.9324 sf 0 0 m (380) show NC gr 
 gsave  2268 1077 0 461 C 1599.78 586.478 t 0 r /Helvetica findfont 48.9324 sf 0 0 m (400) show NC gr 
 gsave  2268 1077 0 461 C 1853.92 586.478 t 0 r /Helvetica findfont 48.9324 sf 0 0 m (420) show NC gr 
 gsave  2268 1077 0 461 C 2111.32 586.478 t 0 r /Helvetica findfont 48.9324 sf 0 0 m (440) show NC gr  363 1484 m 1791 X s 363 1459 m 25 Y s 427 1471 m 13 Y s 491 1471 m 13 Y s 555 1471 m 13 Y s 619 1459 m 25 Y s 683 1471 m 13 Y s 747 1471 m 13 Y s
 811 1471 m 13 Y s 875 1459 m 25 Y s 939 1471 m 13 Y s 1003 1471 m 13 Y s 1067 1471 m 13 Y s 1131 1459 m 25 Y s 1195 1471 m 13 Y s 1259 1471 m 13 Y s 1323 1471 m 13 Y s 1387 1459 m 25 Y s 1451 1471 m 13 Y s 1515 1471 m 13 Y s 1578 1471 m 13 Y s 1642
 1459 m 25 Y s 1706 1471 m 13 Y s 1770 1471 m 13 Y s 1834 1471 m 13 Y s 1898 1459 m 25 Y s 1962 1471 m 13 Y s 2026 1471 m 13 Y s 2090 1471 m 13 Y s 2154 1459 m 25 Y s 363 634 m 850 Y s
 gsave  2268 1077 0 461 C 120.554 1058.92 t 90 r /Helvetica findfont 48.9324 sf 0 0 m (Events / \( 2.8 GeV \)) show NC gr  417 634 m -54 X s
 gsave  2268 1077 0 461 C 312.788 632.093 t 0 r /Helvetica findfont 32.6216 sf 0 0 m (\2552) show NC gr 
 gsave  2268 1077 0 461 C 260.657 612.544 t 0 r /Helvetica findfont 48.9324 sf 0 0 m (10) show NC gr  390 684 m -27 X s 390 713 m -27 X s 390 734 m -27 X s 390 750 m -27 X s 390 763 m -27 X s 390 774 m -27 X s 390 784 m -27 X s 390 792 m -27 X s 417
 800 m -54 X s
 gsave  2268 1077 0 461 C 319.305 798.262 t 0 r /Helvetica findfont 32.6216 sf 0 0 m (\2551) show NC gr 
 gsave  2268 1077 0 461 C 267.173 778.713 t 0 r /Helvetica findfont 48.9324 sf 0 0 m (10) show NC gr  390 850 m -27 X s 390 879 m -27 X s 390 900 m -27 X s 390 916 m -27 X s 390 929 m -27 X s 390 940 m -27 X s 390 950 m -27 X s 390 958 m -27 X s 417
 966 m -54 X s
 gsave  2268 1077 0 461 C 342.425 945.167 t 0 r  -27 0 t /Helvetica findfont 48.9324 sf 0 0 m (1) show NC gr  390 1016 m -27 X s 390 1045 m -27 X s 390 1066 m -27 X s 390 1082 m -27 X s 390 1095 m -27 X s 390 1106 m -27 X s 390 1116 m -27 X s 390
 1125 m -27 X s 417 1132 m -54 X s
 gsave  2268 1077 0 461 C 342.425 1111.37 t 0 r  -55 0 t /Helvetica findfont 48.9324 sf 0 0 m (10) show NC gr  390 1182 m -27 X s 390 1212 m -27 X s 390 1232 m -27 X s 390 1248 m -27 X s 390 1262 m -27 X s 390 1273 m -27 X s 390 1282 m -27 X s 390
 1291 m -27 X s 417 1298 m -54 X s
 gsave  2268 1077 0 461 C 322.563 1296.77 t 0 r /Helvetica findfont 32.6216 sf 0 0 m (2) show NC gr 
 gsave  2268 1077 0 461 C 270.432 1277.22 t 0 r /Helvetica findfont 48.9324 sf 0 0 m (10) show NC gr  390 1348 m -27 X s 390 1378 m -27 X s 390 1398 m -27 X s 390 1415 m -27 X s 390 1428 m -27 X s 390 1439 m -27 X s 390 1449 m -27 X s 390 1457 m -27
 X s 417 1465 m -54 X s
 gsave  2268 1077 0 461 C 322.563 1466.2 t 0 r /Helvetica findfont 32.6216 sf 0 0 m (3) show NC gr 
 gsave  2268 1077 0 461 C 270.432 1443.39 t 0 r /Helvetica findfont 48.9324 sf 0 0 m (10) show NC gr  2154 634 m 850 Y s 2101 634 m 53 X s 2127 684 m 27 X s 2127 713 m 27 X s 2127 734 m 27 X s 2127 750 m 27 X s 2127 763 m 27 X s 2127 774 m 27 X s
 2127 784 m 27 X s 2127 792 m 27 X s 2101 800 m 53 X s 2127 850 m 27 X s 2127 879 m 27 X s 2127 900 m 27 X s 2127 916 m 27 X s 2127 929 m 27 X s 2127 940 m 27 X s 2127 950 m 27 X s 2127 958 m 27 X s 2101 966 m 53 X s 2127 1016 m 27 X s 2127 1045 m 27
 X s 2127 1066 m 27 X s 2127 1082 m 27 X s 2127 1095 m 27 X s 2127 1106 m 27 X s 2127 1116 m 27 X s 2127 1125 m 27 X s 2101 1132 m 53 X s 2127 1182 m 27 X s 2127 1212 m 27 X s 2127 1232 m 27 X s 2127 1248 m 27 X s 2127 1262 m 27 X s 2127 1273 m 27 X
 s 2127 1282 m 27 X s 2127 1291 m 27 X s 2101 1298 m 53 X s 2127 1348 m 27 X s 2127 1378 m 27 X s 2127 1398 m 27 X s 2127 1415 m 27 X s 2127 1428 m 27 X s 2127 1439 m 27 X s 2127 1449 m 27 X s 2127 1457 m 27 X s 2101 1465 m 53 X s 381 1045 m -18 X s
 363 1045 m cl s 381 1045 m 18 X s 399 1045 m cl s 381 1045 m 49 Y s 381 1094 m cl s 381 1045 m -56 Y s 381 989 m cl s 417 1082 m -18 X s 399 1082 m cl s 417 1082 m 17 X s 434 1082 m cl s 417 1082 m 37 Y s 417 1119 m cl s 417 1082 m -41 Y s 417 1041
 m cl s 452 1116 m -18 X s 434 1116 m cl s 452 1116 m 18 X s 470 1116 m cl s 452 1116 m 29 Y s 452 1145 m cl s 452 1116 m -31 Y s 452 1085 m cl s 488 1106 m -18 X s 470 1106 m cl s 488 1106 m 18 X s 506 1106 m cl s 488 1106 m 32 Y s 488 1138 m cl s
 488 1106 m -33 Y s 488 1073 m cl s 524 1066 m -18 X s 506 1066 m cl s 524 1066 m 18 X s 542 1066 m cl s 524 1066 m 42 Y s 524 1108 m cl s 524 1066 m -47 Y s 524 1019 m cl s 560 1095 m -18 X s 542 1095 m cl s 560 1095 m 18 X s 578 1095 m cl s 560
 1095 m 34 Y s 560 1129 m cl s 560 1095 m -36 Y s 560 1059 m cl s 596 1066 m -18 X s 578 1066 m cl s 596 1066 m 18 X s 614 1066 m cl s 596 1066 m 42 Y s 596 1108 m cl s 596 1066 m -47 Y s 596 1019 m cl s 632 1066 m -18 X s 614 1066 m cl s 632 1066 m
 17 X s 649 1066 m cl s 632 1066 m 42 Y s 632 1108 m cl s 632 1066 m -47 Y s 632 1019 m cl s 667 1106 m -18 X s 649 1106 m cl s 667 1106 m 18 X s 685 1106 m cl s 667 1106 m 32 Y s 667 1138 m cl s 667 1106 m -33 Y s 667 1073 m cl s 703 1125 m -18 X s
 685 1125 m cl s 703 1125 m 18 X s 721 1125 m cl s 703 1125 m 27 Y s 703 1152 m cl s 703 1125 m -29 Y s 703 1096 m cl s 739 1157 m -18 X s 721 1157 m cl s 739 1157 m 18 X s 757 1157 m cl s 739 1157 m 21 Y s 739 1178 m cl s 739 1157 m -23 Y s 739 1134
 m cl s 775 1145 m -18 X s 757 1145 m cl s 775 1145 m 18 X s 793 1145 m cl s 775 1145 m 24 Y s 775 1169 m cl s 775 1145 m -24 Y s 775 1121 m cl s 811 1145 m -18 X s 793 1145 m cl s 811 1145 m 18 X s 829 1145 m cl s 811 1145 m 24 Y s 811 1169 m cl s
 811 1145 m -24 Y s 811 1121 m cl s 847 1145 m -18 X s 829 1145 m cl s 847 1145 m 17 X s 864 1145 m cl s 847 1145 m 24 Y s 847 1169 m cl s 847 1145 m -24 Y s 847 1121 m cl s 882 1145 m -18 X s 864 1145 m cl s 882 1145 m 18 X s 900 1145 m cl s 882
 1145 m 24 Y s 882 1169 m cl s 882 1145 m -24 Y s 882 1121 m cl s 918 1145 m -18 X s 900 1145 m cl s 918 1145 m 18 X s 936 1145 m cl s 918 1145 m 24 Y s 918 1169 m cl s 918 1145 m -24 Y s 918 1121 m cl s 954 1175 m -18 X s 936 1175 m cl s 954 1175 m
 18 X s 972 1175 m cl s 954 1175 m 18 Y s 954 1193 m cl s 954 1175 m -20 Y s 954 1155 m cl s 990 1189 m -18 X s 972 1189 m cl s 990 1189 m 18 X s 1008 1189 m cl s 990 1189 m 17 Y s 990 1206 m cl s 990 1189 m -17 Y s 990 1172 m cl s 1026 1192 m -18 X
 s 1008 1192 m cl s 1026 1192 m 18 X s 1044 1192 m cl s 1026 1192 m 17 Y s 1026 1209 m cl s 1026 1192 m -16 Y s 1026 1176 m cl s 1062 1189 m -18 X s 1044 1189 m cl s 1062 1189 m 17 X s 1079 1189 m cl s 1062 1189 m 17 Y s 1062 1206 m cl s 1062 1189 m
 -17 Y s 1062 1172 m cl s 1097 1221 m -18 X s 1079 1221 m cl s 1097 1221 m 18 X s 1115 1221 m cl s 1097 1221 m 13 Y s 1097 1234 m cl s 1097 1221 m -14 Y s 1097 1207 m cl s 1133 1236 m -18 X s 1115 1236 m cl s 1133 1236 m 18 X s 1151 1236 m cl s 1133
 1236 m 12 Y s 1133 1248 m cl s 1133 1236 m -12 Y s 1133 1224 m cl s 1169 1225 m -18 X s 1151 1225 m cl s 1169 1225 m 18 X s 1187 1225 m cl s 1169 1225 m 13 Y s 1169 1238 m cl s 1169 1225 m -13 Y s 1169 1212 m cl s 1205 1230 m -18 X s 1187 1230 m cl
 s 1205 1230 m 18 X s 1223 1230 m cl s 1205 1230 m 13 Y s 1205 1243 m cl s 1205 1230 m -12 Y s 1205 1218 m cl s 1241 1229 m -18 X s 1223 1229 m cl s 1241 1229 m 18 X s 1259 1229 m cl s 1241 1229 m 12 Y s 1241 1241 m cl s 1241 1229 m -13 Y s 1241 1216
 m cl s 1276 1257 m -17 X s 1259 1257 m cl s 1276 1257 m 18 X s 1294 1257 m cl s 1276 1257 m 10 Y s 1276 1267 m cl s 1276 1257 m -11 Y s 1276 1246 m cl s 1312 1278 m -18 X s 1294 1278 m cl s 1312 1278 m 18 X s 1330 1278 m cl s 1312 1278 m 8 Y s 1312
 1286 m cl s 1312 1278 m -9 Y s 1312 1269 m cl s 1348 1311 m -18 X s 1330 1311 m cl s 1348 1311 m 18 X s 1366 1311 m cl s 1348 1311 m 7 Y s 1348 1318 m cl s 1348 1311 m -7 Y s 1348 1304 m cl s 1384 1329 m -18 X s 1366 1329 m cl s 1384 1329 m 18 X s
 1402 1329 m cl s 1384 1329 m 6 Y s 1384 1335 m cl s 1384 1329 m -6 Y s 1384 1323 m cl s 1420 1353 m -18 X s 1402 1353 m cl s 1420 1353 m 18 X s 1438 1353 m cl s 1420 1353 m 5 Y s 1420 1358 m cl s 1420 1353 m -5 Y s 1420 1348 m cl s 1456 1381 m -18 X
 s 1438 1381 m cl s 1456 1381 m 18 X s 1474 1381 m cl s 1456 1381 m 4 Y s 1456 1385 m cl s 1456 1381 m -5 Y s 1456 1376 m cl s 1491 1401 m -17 X s 1474 1401 m cl s 1491 1401 m 18 X s 1509 1401 m cl s 1491 1401 m 4 Y s 1491 1405 m cl s 1491 1401 m -4
 Y s 1491 1397 m cl s 1527 1424 m -18 X s 1509 1424 m cl s 1527 1424 m 18 X s 1545 1424 m cl s 1527 1424 m 3 Y s 1527 1427 m cl s 1527 1424 m -3 Y s 1527 1421 m cl s 1563 1440 m -18 X s 1545 1440 m cl s 1563 1440 m 18 X s 1581 1440 m cl s 1563 1440 m
 3 Y s 1563 1443 m cl s 1563 1440 m -2 Y s 1563 1438 m cl s 1599 1448 m -18 X s 1581 1448 m cl s 1599 1448 m 18 X s 1617 1448 m cl s 1599 1448 m 3 Y s 1599 1451 m cl s 1599 1448 m -2 Y s 1599 1446 m cl s 1635 1449 m -18 X s 1617 1449 m cl s 1635 1449
 m 18 X s 1653 1449 m cl s 1635 1449 m 2 Y s 1635 1451 m cl s 1635 1449 m -3 Y s 1635 1446 m cl s 1671 1440 m -18 X s 1653 1440 m cl s 1671 1440 m 18 X s 1689 1440 m cl s 1671 1440 m 2 Y s 1671 1442 m cl s 1671 1440 m -3 Y s 1671 1437 m cl s 1706
 1425 m -17 X s 1689 1425 m cl s 1706 1425 m 18 X s 1724 1425 m cl s 1706 1425 m 3 Y s 1706 1428 m cl s 1706 1425 m -3 Y s 1706 1422 m cl s 1742 1396 m -18 X s 1724 1396 m cl s 1742 1396 m 18 X s 1760 1396 m cl s 1742 1396 m 4 Y s 1742 1400 m cl s
 1742 1396 m -4 Y s 1742 1392 m cl s 1778 1373 m -18 X s 1760 1373 m cl s 1778 1373 m 18 X s 1796 1373 m cl s 1778 1373 m 4 Y s 1778 1377 m cl s 1778 1373 m -5 Y s 1778 1368 m cl s 1814 1331 m -18 X s 1796 1331 m cl s 1814 1331 m 18 X s 1832 1331 m
 cl s 1814 1331 m 6 Y s 1814 1337 m cl s 1814 1331 m -5 Y s 1814 1326 m cl s 1850 1307 m -18 X s 1832 1307 m cl s 1850 1307 m 18 X s 1868 1307 m cl s 1850 1307 m 7 Y s 1850 1314 m cl s 1850 1307 m -7 Y s 1850 1300 m cl s 1886 1277 m -18 X s 1868 1277
 m cl s 1886 1277 m 18 X s 1904 1277 m cl s 1886 1277 m 9 Y s 1886 1286 m cl s 1886 1277 m -9 Y s 1886 1268 m cl s 1921 1234 m -17 X s 1904 1234 m cl s 1921 1234 m 18 X s 1939 1234 m cl s 1921 1234 m 12 Y s 1921 1246 m cl s 1921 1234 m -12 Y s 1921
 1222 m cl s 1957 1151 m -18 X s 1939 1151 m cl s 1957 1151 m 18 X s 1975 1151 m cl s 1957 1151 m 22 Y s 1957 1173 m cl s 1957 1151 m -23 Y s 1957 1128 m cl s 1993 1125 m -18 X s 1975 1125 m cl s 1993 1125 m 18 X s 2011 1125 m cl s 1993 1125 m 27 Y s
 1993 1152 m cl s 1993 1125 m -29 Y s 1993 1096 m cl s 2029 1066 m -18 X s 2011 1066 m cl s 2029 1066 m 18 X s 2047 1066 m cl s 2029 1066 m 42 Y s 2029 1108 m cl s 2029 1066 m -47 Y s 2029 1019 m cl s 2065 1106 m -18 X s 2047 1106 m cl s 2065 1106 m
 18 X s 2083 1106 m cl s 2065 1106 m 32 Y s 2065 1138 m cl s 2065 1106 m -33 Y s 2065 1073 m cl s 2101 1045 m -18 X s 2083 1045 m cl s 2101 1045 m 18 X s 2119 1045 m cl s 2101 1045 m 49 Y s 2101 1094 m cl s 2101 1045 m -56 Y s 2101 989 m cl s 2136
 1045 m -17 X s 2119 1045 m cl s 2136 1045 m 18 X s 2154 1045 m cl s 2136 1045 m 49 Y s 2136 1094 m cl s 2136 1045 m -56 Y s 2136 989 m cl s /w 31 def /w2 {w 2 div} def /w3 {w 3 div} def 381 1045 417 1082 452 1116 488 1106 524 1066 560 1095 596 1066
 632 1066 667 1106 703 1125 739 1157 775 1145 811 1145 847 1145 882 1145 918 1145 954 1175 990 1189 1026 1192 1062 1189 1097 1221 1133 1236 1169 1225 1205 1230 1241 1229 1276 1257 1312 1278 1348 1311 1384 1329 1420 1353 1456 1381 1491 1401 1527 1424
 1563 1440 1599 1448 1635 1449 1671 1440 1706 1425 1742 1396 1778 1373 1814 1331 1850 1307 1886 1277 1921 1234 1957 1151 1993 1125 2029 1066 2065 1106 2101 1045 2136 1045 50 { m20} R 0 1 1 c 1 1 0 c black 1 1 0 c 363 1070 m 36 6 d 35 7 d 36 6 d 36 7
 d 36 6 d 36 7 d 36 7 d 35 7 d 36 6 d 36 7 d 36 7 d 36 8 d 36 7 d 35 7 d 36 8 d 36 7 d 36 8 d 36 8 d 36 8 d 35 9 d 36 9 d 36 9 d 36 10 d 36 10 d 36 10 d 35 13 d 18 8 d 18 9 d 18 10 d 18 12 d 18 13 d 9 7 d 9 8 d 9 7 d 9 7 d 9 8 d 9 7 d 9 7 d 9 7 d 9 6
 d 9 7 d 17 12 d 18 10 d 18 10 d 9 4 d 9 3 d 9 4 d 9 2 d 9 3 d 9 2 d 9 1 d 9 1 d 9 1 d 9 X 9 -1 d 9 X 9 -2 d 9 -2 d 9 -2 d 9 -3 d 9 -3 d 9 -3 d 17 -9 d 18 -10 d 18 -11 d 18 -13 d 9 -7 d 9 -8 d 9 -7 d 9 -8 d 9 -8 d 9 -9 d 9 -9 d 9 -9 d 9 -9 d 9 -9 d
 18 -19 d 18 -19 d 18 -19 d 17 -18 d 18 -18 d 36 -35 d 36 -36 d 36 -38 d 36 -39 d 36 -43 d 35 -45 d -101 Y -35 66 d -36 58 d -36 53 d -36 49 d -36 46 d -36 45 d -18 21 d -17 21 d -18 21 d -18 20 d -18 19 d -9 10 d -9 9 d -9 10 d -9 9 d -9 9 d -9 8 d
 -9 9 d -9 8 d -9 8 d -9 7 d -18 14 d -18 13 d -18 10 d -17 9 d -9 4 d -9 3 d -9 2 d -9 3 d -9 2 d -9 1 d -9 1 d -27 X -9 -1 d -9 -2 d -9 -2 d -9 -2 d -9 -3 d -9 -3 d -9 -4 d -9 -4 d -18 -10 d -18 -12 d -17 -13 d -9 -7 d -9 -7 d -9 -7 d -9 -8 d -9 -7
 d -9 -8 d -9 -7 d -9 -8 d -9 -7 d -9 -7 d -18 -14 d -18 -12 d -18 -12 d -18 -10 d -18 -9 d -35 -15 d -36 -10 d -36 -10 d -36 -8 d -36 -8 d -36 -9 d -35 -8 d -36 -9 d -36 -8 d -36 -9 d -36 -9 d -36 -9 d -35 -8 d -36 -9 d -36 -9 d -36 -8 d -36 -9 d
 -36 -9 d -35 -8 d -36 -8 d -36 -9 d -36 -8 d -36 -8 d -36 -8 d -35 -8 d -36 -8 d f 0 1 1 c 0 1 0 c black 0 1 0 c 363 1062 m 36 6 d 35 7 d 36 7 d 36 7 d 36 7 d 36 7 d 36 7 d 35 7 d 36 7 d 36 7 d 36 8 d 36 7 d 36 8 d 35 7 d 36 8 d 36 8 d 36 8 d 36 8 d
 36 9 d 35 8 d 36 9 d 36 9 d 36 9 d 36 10 d 36 11 d 35 13 d 18 8 d 18 9 d 18 11 d 18 12 d 18 13 d 9 7 d 9 7 d 9 8 d 9 7 d 9 8 d 9 7 d 9 7 d 9 7 d 9 7 d 9 6 d 17 12 d 18 11 d 18 10 d 9 4 d 9 4 d 9 3 d 9 3 d 9 2 d 9 2 d 9 1 d 9 1 d 9 1 d 18 X 9 -1 d 9
 -2 d 9 -1 d 9 -3 d 9 -3 d 9 -3 d 9 -3 d 17 -9 d 18 -10 d 18 -12 d 18 -13 d 9 -7 d 9 -7 d 9 -8 d 9 -8 d 9 -9 d 9 -8 d 9 -9 d 9 -9 d 9 -9 d 9 -10 d 18 -19 d 18 -19 d 18 -19 d 17 -19 d 18 -18 d 36 -38 d 36 -37 d 36 -39 d 36 -42 d 36 -44 d 35 -47 d -45
 Y -35 55 d -36 50 d -36 48 d -36 44 d -36 43 d -36 41 d -18 21 d -17 20 d -18 20 d -18 20 d -18 19 d -9 10 d -9 9 d -9 9 d -9 9 d -9 9 d -9 9 d -9 8 d -9 8 d -9 8 d -9 7 d -18 14 d -18 12 d -18 10 d -17 9 d -9 3 d -9 4 d -9 2 d -9 3 d -9 1 d -9 2 d
 -9 1 d -27 X -9 -1 d -9 -2 d -9 -2 d -9 -2 d -9 -3 d -9 -3 d -9 -4 d -9 -4 d -18 -10 d -18 -12 d -17 -12 d -9 -7 d -9 -7 d -9 -7 d -9 -8 d -9 -7 d -9 -7 d -9 -8 d -9 -7 d -9 -7 d -9 -7 d -18 -14 d -18 -13 d -18 -11 d -18 -10 d -18 -8 d -35 -14 d -36
 -11 d -36 -9 d -36 -9 d -36 -9 d -36 -8 d -35 -9 d -36 -8 d -36 -9 d -36 -8 d -36 -9 d -36 -8 d -35 -8 d -36 -9 d -36 -8 d -36 -8 d -36 -8 d -36 -8 d -35 -8 d -36 -8 d -36 -7 d -36 -8 d -36 -8 d -36 -7 d -35 -8 d -36 -7 d f 0 0 1 c 9 lw black 0 0 1
 c 363 1053 m 36 7 d 35 7 d 36 7 d 36 7 d 36 7 d 36 8 d 36 7 d 35 8 d 36 7 d 36 8 d 36 8 d 36 7 d 36 8 d 35 8 d 36 8 d 36 8 d 36 9 d 36 8 d 36 8 d 35 9 d 36 9 d 36 8 d 36 9 d 36 10 d 36 11 d 35 13 d 18 9 d 18 9 d 18 11 d 18 12 d 18 14 d 9 7 d 9 7 d 9
 8 d 9 7 d 9 7 d 9 8 d 9 7 d 9 7 d 9 7 d 9 6 d 17 13 d 18 11 d 18 10 d 9 4 d 9 4 d 9 3 d 9 3 d 9 2 d 9 2 d 9 1 d 9 1 d 9 1 d 18 X 9 -1 d 9 -2 d 9 -1 d 9 -3 d 9 -2 d 9 -4 d 9 -3 d 17 -9 d 18 -10 d 18 -12 d 18 -13 d 9 -8 d 9 -7 d 9 -8 d 9 -8 d 9 -9 d 9
 -8 d 9 -9 d 9 -10 d 9 -9 d 9 -9 d 18 -19 d 18 -20 d 18 -19 d 17 -20 d 18 -19 d 36 -40 d 36 -39 d 36 -42 d 36 -44 d 36 -46 d 35 -50 d s black 3 lw 381 1045 m -18 X s 363 1045 m cl s 381 1045 m 18 X s 399 1045 m cl s 381 1045 m 49 Y s 381 1094 m cl s
 381 1045 m -56 Y s 381 989 m cl s 417 1082 m -18 X s 399 1082 m cl s 417 1082 m 17 X s 434 1082 m cl s 417 1082 m 37 Y s 417 1119 m cl s 417 1082 m -41 Y s 417 1041 m cl s 452 1116 m -18 X s 434 1116 m cl s 452 1116 m 18 X s 470 1116 m cl s 452 1116
 m 29 Y s 452 1145 m cl s 452 1116 m -31 Y s 452 1085 m cl s 488 1106 m -18 X s 470 1106 m cl s 488 1106 m 18 X s 506 1106 m cl s 488 1106 m 32 Y s 488 1138 m cl s 488 1106 m -33 Y s 488 1073 m cl s 524 1066 m -18 X s 506 1066 m cl s 524 1066 m 18 X
 s 542 1066 m cl s 524 1066 m 42 Y s 524 1108 m cl s 524 1066 m -47 Y s 524 1019 m cl s 560 1095 m -18 X s 542 1095 m cl s 560 1095 m 18 X s 578 1095 m cl s 560 1095 m 34 Y s 560 1129 m cl s 560 1095 m -36 Y s 560 1059 m cl s 596 1066 m -18 X s 578
 1066 m cl s 596 1066 m 18 X s 614 1066 m cl s 596 1066 m 42 Y s 596 1108 m cl s 596 1066 m -47 Y s 596 1019 m cl s 632 1066 m -18 X s 614 1066 m cl s 632 1066 m 17 X s 649 1066 m cl s 632 1066 m 42 Y s 632 1108 m cl s 632 1066 m -47 Y s 632 1019 m
 cl s 667 1106 m -18 X s 649 1106 m cl s 667 1106 m 18 X s 685 1106 m cl s 667 1106 m 32 Y s 667 1138 m cl s 667 1106 m -33 Y s 667 1073 m cl s 703 1125 m -18 X s 685 1125 m cl s 703 1125 m 18 X s 721 1125 m cl s 703 1125 m 27 Y s 703 1152 m cl s 703
 1125 m -29 Y s 703 1096 m cl s 739 1157 m -18 X s 721 1157 m cl s 739 1157 m 18 X s 757 1157 m cl s 739 1157 m 21 Y s 739 1178 m cl s 739 1157 m -23 Y s 739 1134 m cl s 775 1145 m -18 X s 757 1145 m cl s 775 1145 m 18 X s 793 1145 m cl s 775 1145 m
 24 Y s 775 1169 m cl s 775 1145 m -24 Y s 775 1121 m cl s 811 1145 m -18 X s 793 1145 m cl s 811 1145 m 18 X s 829 1145 m cl s 811 1145 m 24 Y s 811 1169 m cl s 811 1145 m -24 Y s 811 1121 m cl s 847 1145 m -18 X s 829 1145 m cl s 847 1145 m 17 X s
 864 1145 m cl s 847 1145 m 24 Y s 847 1169 m cl s 847 1145 m -24 Y s 847 1121 m cl s 882 1145 m -18 X s 864 1145 m cl s 882 1145 m 18 X s 900 1145 m cl s 882 1145 m 24 Y s 882 1169 m cl s 882 1145 m -24 Y s 882 1121 m cl s 918 1145 m -18 X s 900
 1145 m cl s 918 1145 m 18 X s 936 1145 m cl s 918 1145 m 24 Y s 918 1169 m cl s 918 1145 m -24 Y s 918 1121 m cl s 954 1175 m -18 X s 936 1175 m cl s 954 1175 m 18 X s 972 1175 m cl s 954 1175 m 18 Y s 954 1193 m cl s 954 1175 m -20 Y s 954 1155 m
 cl s 990 1189 m -18 X s 972 1189 m cl s 990 1189 m 18 X s 1008 1189 m cl s 990 1189 m 17 Y s 990 1206 m cl s 990 1189 m -17 Y s 990 1172 m cl s 1026 1192 m -18 X s 1008 1192 m cl s 1026 1192 m 18 X s 1044 1192 m cl s 1026 1192 m 17 Y s 1026 1209 m
 cl s 1026 1192 m -16 Y s 1026 1176 m cl s 1062 1189 m -18 X s 1044 1189 m cl s 1062 1189 m 17 X s 1079 1189 m cl s 1062 1189 m 17 Y s 1062 1206 m cl s 1062 1189 m -17 Y s 1062 1172 m cl s 1097 1221 m -18 X s 1079 1221 m cl s 1097 1221 m 18 X s 1115
 1221 m cl s 1097 1221 m 13 Y s 1097 1234 m cl s 1097 1221 m -14 Y s 1097 1207 m cl s 1133 1236 m -18 X s 1115 1236 m cl s 1133 1236 m 18 X s 1151 1236 m cl s 1133 1236 m 12 Y s 1133 1248 m cl s 1133 1236 m -12 Y s 1133 1224 m cl s 1169 1225 m -18 X
 s 1151 1225 m cl s 1169 1225 m 18 X s 1187 1225 m cl s 1169 1225 m 13 Y s 1169 1238 m cl s 1169 1225 m -13 Y s 1169 1212 m cl s 1205 1230 m -18 X s 1187 1230 m cl s 1205 1230 m 18 X s 1223 1230 m cl s 1205 1230 m 13 Y s 1205 1243 m cl s 1205 1230 m
 -12 Y s 1205 1218 m cl s 1241 1229 m -18 X s 1223 1229 m cl s 1241 1229 m 18 X s 1259 1229 m cl s 1241 1229 m 12 Y s 1241 1241 m cl s 1241 1229 m -13 Y s 1241 1216 m cl s 1276 1257 m -17 X s 1259 1257 m cl s 1276 1257 m 18 X s 1294 1257 m cl s 1276
 1257 m 10 Y s 1276 1267 m cl s 1276 1257 m -11 Y s 1276 1246 m cl s 1312 1278 m -18 X s 1294 1278 m cl s 1312 1278 m 18 X s 1330 1278 m cl s 1312 1278 m 8 Y s 1312 1286 m cl s 1312 1278 m -9 Y s 1312 1269 m cl s 1348 1311 m -18 X s 1330 1311 m cl s
 1348 1311 m 18 X s 1366 1311 m cl s 1348 1311 m 7 Y s 1348 1318 m cl s 1348 1311 m -7 Y s 1348 1304 m cl s 1384 1329 m -18 X s 1366 1329 m cl s 1384 1329 m 18 X s 1402 1329 m cl s 1384 1329 m 6 Y s 1384 1335 m cl s 1384 1329 m -6 Y s 1384 1323 m cl
 s 1420 1353 m -18 X s 1402 1353 m cl s 1420 1353 m 18 X s 1438 1353 m cl s 1420 1353 m 5 Y s 1420 1358 m cl s 1420 1353 m -5 Y s 1420 1348 m cl s 1456 1381 m -18 X s 1438 1381 m cl s 1456 1381 m 18 X s 1474 1381 m cl s 1456 1381 m 4 Y s 1456 1385 m
 cl s 1456 1381 m -5 Y s 1456 1376 m cl s 1491 1401 m -17 X s 1474 1401 m cl s 1491 1401 m 18 X s 1509 1401 m cl s 1491 1401 m 4 Y s 1491 1405 m cl s 1491 1401 m -4 Y s 1491 1397 m cl s 1527 1424 m -18 X s 1509 1424 m cl s 1527 1424 m 18 X s 1545
 1424 m cl s 1527 1424 m 3 Y s 1527 1427 m cl s 1527 1424 m -3 Y s 1527 1421 m cl s 1563 1440 m -18 X s 1545 1440 m cl s 1563 1440 m 18 X s 1581 1440 m cl s 1563 1440 m 3 Y s 1563 1443 m cl s 1563 1440 m -2 Y s 1563 1438 m cl s 1599 1448 m -18 X s
 1581 1448 m cl s 1599 1448 m 18 X s 1617 1448 m cl s 1599 1448 m 3 Y s 1599 1451 m cl s 1599 1448 m -2 Y s 1599 1446 m cl s 1635 1449 m -18 X s 1617 1449 m cl s 1635 1449 m 18 X s 1653 1449 m cl s 1635 1449 m 2 Y s 1635 1451 m cl s 1635 1449 m -3 Y
 s 1635 1446 m cl s 1671 1440 m -18 X s 1653 1440 m cl s 1671 1440 m 18 X s 1689 1440 m cl s 1671 1440 m 2 Y s 1671 1442 m cl s 1671 1440 m -3 Y s 1671 1437 m cl s 1706 1425 m -17 X s 1689 1425 m cl s 1706 1425 m 18 X s 1724 1425 m cl s 1706 1425 m 3
 Y s 1706 1428 m cl s 1706 1425 m -3 Y s 1706 1422 m cl s 1742 1396 m -18 X s 1724 1396 m cl s 1742 1396 m 18 X s 1760 1396 m cl s 1742 1396 m 4 Y s 1742 1400 m cl s 1742 1396 m -4 Y s 1742 1392 m cl s 1778 1373 m -18 X s 1760 1373 m cl s 1778 1373 m
 18 X s 1796 1373 m cl s 1778 1373 m 4 Y s 1778 1377 m cl s 1778 1373 m -5 Y s 1778 1368 m cl s 1814 1331 m -18 X s 1796 1331 m cl s 1814 1331 m 18 X s 1832 1331 m cl s 1814 1331 m 6 Y s 1814 1337 m cl s 1814 1331 m -5 Y s 1814 1326 m cl s 1850 1307
 m -18 X s 1832 1307 m cl s 1850 1307 m 18 X s 1868 1307 m cl s 1850 1307 m 7 Y s 1850 1314 m cl s 1850 1307 m -7 Y s 1850 1300 m cl s 1886 1277 m -18 X s 1868 1277 m cl s 1886 1277 m 18 X s 1904 1277 m cl s 1886 1277 m 9 Y s 1886 1286 m cl s 1886
 1277 m -9 Y s 1886 1268 m cl s 1921 1234 m -17 X s 1904 1234 m cl s 1921 1234 m 18 X s 1939 1234 m cl s 1921 1234 m 12 Y s 1921 1246 m cl s 1921 1234 m -12 Y s 1921 1222 m cl s 1957 1151 m -18 X s 1939 1151 m cl s 1957 1151 m 18 X s 1975 1151 m cl s
 1957 1151 m 22 Y s 1957 1173 m cl s 1957 1151 m -23 Y s 1957 1128 m cl s 1993 1125 m -18 X s 1975 1125 m cl s 1993 1125 m 18 X s 2011 1125 m cl s 1993 1125 m 27 Y s 1993 1152 m cl s 1993 1125 m -29 Y s 1993 1096 m cl s 2029 1066 m -18 X s 2011 1066
 m cl s 2029 1066 m 18 X s 2047 1066 m cl s 2029 1066 m 42 Y s 2029 1108 m cl s 2029 1066 m -47 Y s 2029 1019 m cl s 2065 1106 m -18 X s 2047 1106 m cl s 2065 1106 m 18 X s 2083 1106 m cl s 2065 1106 m 32 Y s 2065 1138 m cl s 2065 1106 m -33 Y s 2065
 1073 m cl s 2101 1045 m -18 X s 2083 1045 m cl s 2101 1045 m 18 X s 2119 1045 m cl s 2101 1045 m 49 Y s 2101 1094 m cl s 2101 1045 m -56 Y s 2101 989 m cl s 2136 1045 m -17 X s 2119 1045 m cl s 2136 1045 m 18 X s 2154 1045 m cl s 2136 1045 m 49 Y s
 2136 1094 m cl s 2136 1045 m -56 Y s 2136 989 m cl s 381 1045 417 1082 452 1116 488 1106 524 1066 560 1095 596 1066 632 1066 667 1106 703 1125 739 1157 775 1145 811 1145 847 1145 882 1145 918 1145 954 1175 990 1189 1026 1192 1062 1189 1097 1221 1133
 1236 1169 1225 1205 1230 1241 1229 1276 1257 1312 1278 1348 1311 1384 1329 1420 1353 1456 1381 1491 1401 1527 1424 1563 1440 1599 1448 1635 1449 1671 1440 1706 1425 1742 1396 1778 1373 1814 1331 1850 1307 1886 1277 1921 1234 1957 1151 1993 1125 2029
 1066 2065 1106 2101 1045 2136 1045 50 { m20} R 0.52 0.76 0.64 c[ 4 8] 0 sd 9 lw black 0.52 0.76 0.64 c 363 1053 m 36 7 d 35 7 d 36 7 d 36 7 d 36 7 d 36 8 d 36 7 d 35 8 d 36 7 d 36 8 d 36 8 d 36 7 d 36 8 d 35 8 d 36 8 d 36 8 d 36 9 d 36 8 d 36 8 d 35
 9 d 36 9 d 36 8 d 36 9 d 36 9 d 36 9 d 35 9 d 36 10 d 18 4 d 18 5 d 18 5 d 18 5 d 18 5 d 18 4 d 18 5 d 18 5 d 17 5 d 18 5 d 18 5 d 9 2 d 9 1 d 9 2 d 9 1 d 9 1 d 9 1 d 9 1 d 45 X 9 -1 d 9 -1 d 9 -1 d 9 -1 d 9 -1 d 9 -2 d 17 -4 d 18 -5 d 18 -6 d 18 -6
 d 36 -16 d 18 -9 d 18 -10 d 18 -11 d 18 -11 d 18 -13 d 18 -13 d 17 -14 d 18 -15 d 18 -16 d 18 -17 d 18 -18 d 18 -18 d 18 -19 d 18 -20 d 36 -43 d 36 -47 d 35 -49 d s 0.54 0.66 0.63 c black 0.54 0.66 0.63 c 1123 634 m 28 89 d s 1151 723 m 36 106 d 36
 97 d 36 88 d 35 81 d 18 36 d 18 35 d 18 33 d 18 30 d 9 14 d 9 14 d 9 14 d 9 13 d 9 12 d 9 12 d 9 11 d 9 11 d 9 10 d 9 9 d 9 9 d 9 9 d 17 16 d 18 13 d 18 11 d 9 5 d 9 4 d 9 4 d 9 3 d 9 3 d 9 2 d 9 2 d 9 1 d 9 1 d 9 X 9 -1 d 9 -1 d 9 -1 d 9 -2 d 9 -3
 d 9 -3 d 9 -4 d 9 -4 d 17 -10 d 18 -12 d 18 -14 d 9 -8 d 9 -9 d 9 -9 d 9 -9 d 9 -10 d 9 -11 d 9 -11 d 9 -11 d 9 -13 d 9 -12 d 9 -14 d 9 -13 d 9 -15 d 9 -15 d 18 -31 d 18 -33 d 17 -36 d 18 -37 d 36 -82 d 36 -90 d 36 -99 d 36 -107 d 21 -68 d s black[ 
 ] 0 sd 3 lw 363 634 m 1791 X s 363 659 m -25 Y s 427 646 m -12 Y s 491 646 m -12 Y s 555 646 m -12 Y s 619 659 m -25 Y s 683 646 m -12 Y s 747 646 m -12 Y s 811 646 m -12 Y s 875 659 m -25 Y s 939 646 m -12 Y s 1003 646 m -12 Y s 1067 646 m -12 Y s
 1131 659 m -25 Y s 1195 646 m -12 Y s 1259 646 m -12 Y s 1323 646 m -12 Y s 1387 659 m -25 Y s 1451 646 m -12 Y s 1515 646 m -12 Y s 1578 646 m -12 Y s 1642 659 m -25 Y s 1706 646 m -12 Y s 1770 646 m -12 Y s 1834 646 m -12 Y s 1898 659 m -25 Y s
 1962 646 m -12 Y s 2026 646 m -12 Y s 2090 646 m -12 Y s 2154 659 m -25 Y s 363 1484 m 1791 X s 363 1459 m 25 Y s 427 1471 m 13 Y s 491 1471 m 13 Y s 555 1471 m 13 Y s 619 1459 m 25 Y s 683 1471 m 13 Y s 747 1471 m 13 Y s 811 1471 m 13 Y s 875 1459
 m 25 Y s 939 1471 m 13 Y s 1003 1471 m 13 Y s 1067 1471 m 13 Y s 1131 1459 m 25 Y s 1195 1471 m 13 Y s 1259 1471 m 13 Y s 1323 1471 m 13 Y s 1387 1459 m 25 Y s 1451 1471 m 13 Y s 1515 1471 m 13 Y s 1578 1471 m 13 Y s 1642 1459 m 25 Y s 1706 1471 m
 13 Y s 1770 1471 m 13 Y s 1834 1471 m 13 Y s 1898 1459 m 25 Y s 1962 1471 m 13 Y s 2026 1471 m 13 Y s 2090 1471 m 13 Y s 2154 1459 m 25 Y s 363 634 m 850 Y s 417 634 m -54 X s 390 684 m -27 X s 390 713 m -27 X s 390 734 m -27 X s 390 750 m -27 X s
 390 763 m -27 X s 390 774 m -27 X s 390 784 m -27 X s 390 792 m -27 X s 417 800 m -54 X s 390 850 m -27 X s 390 879 m -27 X s 390 900 m -27 X s 390 916 m -27 X s 390 929 m -27 X s 390 940 m -27 X s 390 950 m -27 X s 390 958 m -27 X s 417 966 m -54 X
 s 390 1016 m -27 X s 390 1045 m -27 X s 390 1066 m -27 X s 390 1082 m -27 X s 390 1095 m -27 X s 390 1106 m -27 X s 390 1116 m -27 X s 390 1125 m -27 X s 417 1132 m -54 X s 390 1182 m -27 X s 390 1212 m -27 X s 390 1232 m -27 X s 390 1248 m -27 X s
 390 1262 m -27 X s 390 1273 m -27 X s 390 1282 m -27 X s 390 1291 m -27 X s 417 1298 m -54 X s 390 1348 m -27 X s 390 1378 m -27 X s 390 1398 m -27 X s 390 1415 m -27 X s 390 1428 m -27 X s 390 1439 m -27 X s 390 1449 m -27 X s 390 1457 m -27 X s
 417 1465 m -54 X s 2154 634 m 850 Y s 2101 634 m 53 X s 2127 684 m 27 X s 2127 713 m 27 X s 2127 734 m 27 X s 2127 750 m 27 X s 2127 763 m 27 X s 2127 774 m 27 X s 2127 784 m 27 X s 2127 792 m 27 X s 2101 800 m 53 X s 2127 850 m 27 X s 2127 879 m 27
 X s 2127 900 m 27 X s 2127 916 m 27 X s 2127 929 m 27 X s 2127 940 m 27 X s 2127 950 m 27 X s 2127 958 m 27 X s 2101 966 m 53 X s 2127 1016 m 27 X s 2127 1045 m 27 X s 2127 1066 m 27 X s 2127 1082 m 27 X s 2127 1095 m 27 X s 2127 1106 m 27 X s 2127
 1116 m 27 X s 2127 1125 m 27 X s 2101 1132 m 53 X s 2127 1182 m 27 X s 2127 1212 m 27 X s 2127 1232 m 27 X s 2127 1248 m 27 X s 2127 1262 m 27 X s 2127 1273 m 27 X s 2127 1282 m 27 X s 2127 1291 m 27 X s 2101 1298 m 53 X s 2127 1348 m 27 X s 2127
 1378 m 27 X s 2127 1398 m 27 X s 2127 1415 m 27 X s 2127 1428 m 27 X s 2127 1439 m 27 X s 2127 1449 m 27 X s 2127 1457 m 27 X s 2101 1465 m 53 X s
 gsave  2268 1077 0 461 C 677.708 1215.31 t 0 r /Helvetica findfont 58.7189 sf 0 0 m (4mu) show NC gr  1 1 1 c 453 161 454 1269 bf black
 gsave  2268 1077 0 461 C 566.929 1371.71 t 0 r /Helvetica-Bold findfont 48.9324 sf 0 0 m (MC15) show NC gr  510 1390 m20
 gsave  2268 1077 0 461 C 566.929 1293.51 t 0 r /Helvetica-Bold findfont 48.9324 sf 0 0 m (Projection of Signal pdf) show NC gr  0 0 1 c 9 lw 471 1309 m 79 X s black 3 lw 1 1 1 c 2268 461 0 0 bf black 1 1 1 c 1791 364 363 74 bf black 1791 364 363 74
 bl 363 74 m 1791 X s
 gsave  2268 461 0 0 C 1915.83 13.0329 t 0 r /Helvetica findfont 22.9045 sf 0 0 m (4l Invariant Mass \(GeV\)) show NC gr  363 85 m -11 Y s 427 79 m -5 Y s 491 79 m -5 Y s 555 79 m -5 Y s 619 85 m -11 Y s 683 79 m -5 Y s 747 79 m -5 Y s 811 79 m -5 Y
 s 875 85 m -11 Y s 939 79 m -5 Y s 1003 79 m -5 Y s 1067 79 m -5 Y s 1131 85 m -11 Y s 1195 79 m -5 Y s 1259 79 m -5 Y s 1323 79 m -5 Y s 1387 85 m -11 Y s 1451 79 m -5 Y s 1515 79 m -5 Y s 1578 79 m -5 Y s 1642 85 m -11 Y s 1706 79 m -5 Y s 1770 79
 m -5 Y s 1834 79 m -5 Y s 1898 85 m -11 Y s 1962 79 m -5 Y s 2026 79 m -5 Y s 2090 79 m -5 Y s 2154 85 m -11 Y s
 gsave  2268 461 0 0 C 342.112 55.3896 t 0 r /Helvetica findfont 22.9045 sf 0 0 m (300) show NC gr 
 gsave  2268 461 0 0 C 596.253 55.3896 t 0 r /Helvetica findfont 22.9045 sf 0 0 m (320) show NC gr 
 gsave  2268 461 0 0 C 853.652 55.3896 t 0 r /Helvetica findfont 22.9045 sf 0 0 m (340) show NC gr 
 gsave  2268 461 0 0 C 1111.05 55.3896 t 0 r /Helvetica findfont 22.9045 sf 0 0 m (360) show NC gr 
 gsave  2268 461 0 0 C 1365.19 55.3896 t 0 r /Helvetica findfont 22.9045 sf 0 0 m (380) show NC gr 
 gsave  2268 461 0 0 C 1622.59 55.3896 t 0 r /Helvetica findfont 22.9045 sf 0 0 m (400) show NC gr 
 gsave  2268 461 0 0 C 1876.73 55.3896 t 0 r /Helvetica findfont 22.9045 sf 0 0 m (420) show NC gr 
 gsave  2268 461 0 0 C 2134.13 55.3896 t 0 r /Helvetica findfont 22.9045 sf 0 0 m (440) show NC gr  363 438 m 1791 X s 363 427 m 11 Y s 427 433 m 5 Y s 491 433 m 5 Y s 555 433 m 5 Y s 619 427 m 11 Y s 683 433 m 5 Y s 747 433 m 5 Y s 811 433 m 5 Y s
 875 427 m 11 Y s 939 433 m 5 Y s 1003 433 m 5 Y s 1067 433 m 5 Y s 1131 427 m 11 Y s 1195 433 m 5 Y s 1259 433 m 5 Y s 1323 433 m 5 Y s 1387 427 m 11 Y s 1451 433 m 5 Y s 1515 433 m 5 Y s 1578 433 m 5 Y s 1642 427 m 11 Y s 1706 433 m 5 Y s 1770 433
 m 5 Y s 1834 433 m 5 Y s 1898 427 m 11 Y s 1962 433 m 5 Y s 2026 433 m 5 Y s 2090 433 m 5 Y s 2154 427 m 11 Y s 363 74 m 364 Y s 417 74 m -54 X s 390 81 m -27 X s 390 88 m -27 X s 390 96 m -27 X s 390 103 m -27 X s 417 110 m -54 X s 390 118 m -27 X
 s 390 125 m -27 X s 390 132 m -27 X s 390 139 m -27 X s 417 147 m -54 X s 390 154 m -27 X s 390 161 m -27 X s 390 169 m -27 X s 390 176 m -27 X s 417 183 m -54 X s 390 190 m -27 X s 390 198 m -27 X s 390 205 m -27 X s 390 212 m -27 X s 417 220 m -54
 X s 390 227 m -27 X s 390 234 m -27 X s 390 241 m -27 X s 390 249 m -27 X s 417 256 m -54 X s 390 263 m -27 X s 390 271 m -27 X s 390 278 m -27 X s 390 285 m -27 X s 417 293 m -54 X s 390 300 m -27 X s 390 307 m -27 X s 390 314 m -27 X s 390 322 m
 -27 X s 417 329 m -54 X s 390 336 m -27 X s 390 344 m -27 X s 390 351 m -27 X s 390 358 m -27 X s 417 365 m -54 X s 390 373 m -27 X s 390 380 m -27 X s 390 387 m -27 X s 390 395 m -27 X s 417 402 m -54 X s 390 409 m -27 X s 390 416 m -27 X s 390 424
 m -27 X s 390 431 m -27 X s 417 438 m -54 X s
 gsave  2268 461 0 0 C 329.08 65.1643 t 0 r /Helvetica findfont 22.9045 sf 0 0 m (\2555) show NC gr 
 gsave  2268 461 0 0 C 329.08 101.005 t 0 r /Helvetica findfont 22.9045 sf 0 0 m (\2554) show NC gr 
 gsave  2268 461 0 0 C 329.08 140.103 t 0 r /Helvetica findfont 22.9045 sf 0 0 m (\2553) show NC gr 
 gsave  2268 461 0 0 C 329.08 175.944 t 0 r /Helvetica findfont 22.9045 sf 0 0 m (\2552) show NC gr 
 gsave  2268 461 0 0 C 332.338 211.784 t 0 r /Helvetica findfont 22.9045 sf 0 0 m (\2551) show NC gr 
 gsave  2268 461 0 0 C 335.596 247.624 t 0 r /Helvetica findfont 22.9045 sf 0 0 m (0) show NC gr 
 gsave  2268 461 0 0 C 338.854 283.465 t 0 r /Helvetica findfont 22.9045 sf 0 0 m (1) show NC gr 
 gsave  2268 461 0 0 C 335.596 319.305 t 0 r /Helvetica findfont 22.9045 sf 0 0 m (2) show NC gr 
 gsave  2268 461 0 0 C 335.596 358.403 t 0 r /Helvetica findfont 22.9045 sf 0 0 m (3) show NC gr 
 gsave  2268 461 0 0 C 335.596 394.244 t 0 r /Helvetica findfont 22.9045 sf 0 0 m (4) show NC gr 
 gsave  2268 461 0 0 C 335.596 430.084 t 0 r /Helvetica findfont 22.9045 sf 0 0 m (5) show NC gr  2154 74 m 364 Y s 2101 74 m 53 X s 2127 81 m 27 X s 2127 88 m 27 X s 2127 96 m 27 X s 2127 103 m 27 X s 2101 110 m 53 X s 2127 118 m 27 X s 2127 125 m
 27 X s 2127 132 m 27 X s 2127 139 m 27 X s 2101 147 m 53 X s 2127 154 m 27 X s 2127 161 m 27 X s 2127 169 m 27 X s 2127 176 m 27 X s 2101 183 m 53 X s 2127 190 m 27 X s 2127 198 m 27 X s 2127 205 m 27 X s 2127 212 m 27 X s 2101 220 m 53 X s 2127 227
 m 27 X s 2127 234 m 27 X s 2127 241 m 27 X s 2127 249 m 27 X s 2101 256 m 53 X s 2127 263 m 27 X s 2127 271 m 27 X s 2127 278 m 27 X s 2127 285 m 27 X s 2101 293 m 53 X s 2127 300 m 27 X s 2127 307 m 27 X s 2127 314 m 27 X s 2127 322 m 27 X s 2101
 329 m 53 X s 2127 336 m 27 X s 2127 344 m 27 X s 2127 351 m 27 X s 2127 358 m 27 X s 2101 365 m 53 X s 2127 373 m 27 X s 2127 380 m 27 X s 2127 387 m 27 X s 2127 395 m 27 X s 2101 402 m 53 X s 2127 409 m 27 X s 2127 416 m 27 X s 2127 424 m 27 X s
 2127 431 m 27 X s 2101 438 m 53 X s 6 lw 0.2 0.8 0.2 c black 3 lw 0.2 0.8 0.2 c 363 256 m -6 Y 36 X 25 Y 35 X 30 Y 36 X -16 Y 36 X -47 Y 36 X 18 Y 36 X -31 Y 36 X -8 Y 35 X 27 Y 36 X 12 Y 36 X 39 Y 36 X -30 Y 36 X -13 Y 36 X -11 Y 35 X -13 Y 36 X
 -14 Y 36 X 33 Y 36 X 13 Y 36 X -12 Y 36 X -25 Y 35 X 54 Y 36 X 21 Y 36 X -58 Y 36 X -11 Y 36 X -38 Y 36 X 46 Y 35 X 24 Y 36 X 69 Y 36 X -36 Y 36 X -29 Y 36 X -7 Y 36 X -57 Y 35 X 17 Y 36 X 28 Y 36 X 19 Y 36 X 15 Y 36 X -14 Y 36 X 14 Y 35 X -79 Y 36
 X 51 Y 36 X -52 Y 36 X 76 Y 36 X 26 Y 36 X -23 Y 35 X -96 Y 36 X 37 Y 36 X -5 Y 36 X 79 Y 36 X -23 Y 36 X 23 Y 35 X -42 Y f 6 lw black 0.2 0.8 0.2 c black 363 250 m 36 X 25 Y 35 X 30 Y 36 X -16 Y 36 X -47 Y 36 X 18 Y 36 X -31 Y 36 X -8 Y 35 X 27 Y
 36 X 12 Y 36 X 39 Y 36 X -30 Y 36 X -13 Y 36 X -11 Y 35 X -13 Y 36 X -14 Y 36 X 33 Y 36 X 13 Y 36 X -12 Y 36 X -25 Y 35 X 54 Y 36 X 21 Y 36 X -58 Y 36 X -11 Y 36 X -38 Y 36 X 46 Y 35 X 24 Y 36 X 69 Y 36 X -36 Y 36 X -29 Y 36 X -7 Y 36 X -57 Y 35 X
 17 Y 36 X 28 Y 36 X 19 Y 36 X 15 Y 36 X -14 Y 36 X 14 Y 35 X -79 Y 36 X 51 Y 36 X -52 Y 36 X 76 Y 36 X 26 Y 36 X -23 Y 35 X -96 Y 36 X 37 Y 36 X -5 Y 36 X 79 Y 36 X -23 Y 36 X 23 Y 35 X s 3 lw 363 74 m 1791 X s 363 85 m -11 Y s 427 79 m -5 Y s 491
 79 m -5 Y s 555 79 m -5 Y s 619 85 m -11 Y s 683 79 m -5 Y s 747 79 m -5 Y s 811 79 m -5 Y s 875 85 m -11 Y s 939 79 m -5 Y s 1003 79 m -5 Y s 1067 79 m -5 Y s 1131 85 m -11 Y s 1195 79 m -5 Y s 1259 79 m -5 Y s 1323 79 m -5 Y s 1387 85 m -11 Y s
 1451 79 m -5 Y s 1515 79 m -5 Y s 1578 79 m -5 Y s 1642 85 m -11 Y s 1706 79 m -5 Y s 1770 79 m -5 Y s 1834 79 m -5 Y s 1898 85 m -11 Y s 1962 79 m -5 Y s 2026 79 m -5 Y s 2090 79 m -5 Y s 2154 85 m -11 Y s 363 438 m 1791 X s 363 427 m 11 Y s 427
 433 m 5 Y s 491 433 m 5 Y s 555 433 m 5 Y s 619 427 m 11 Y s 683 433 m 5 Y s 747 433 m 5 Y s 811 433 m 5 Y s 875 427 m 11 Y s 939 433 m 5 Y s 1003 433 m 5 Y s 1067 433 m 5 Y s 1131 427 m 11 Y s 1195 433 m 5 Y s 1259 433 m 5 Y s 1323 433 m 5 Y s 1387
 427 m 11 Y s 1451 433 m 5 Y s 1515 433 m 5 Y s 1578 433 m 5 Y s 1642 427 m 11 Y s 1706 433 m 5 Y s 1770 433 m 5 Y s 1834 433 m 5 Y s 1898 427 m 11 Y s 1962 433 m 5 Y s 2026 433 m 5 Y s 2090 433 m 5 Y s 2154 427 m 11 Y s 363 74 m 364 Y s 417 74 m -54
 X s 390 81 m -27 X s 390 88 m -27 X s 390 96 m -27 X s 390 103 m -27 X s 417 110 m -54 X s 390 118 m -27 X s 390 125 m -27 X s 390 132 m -27 X s 390 139 m -27 X s 417 147 m -54 X s 390 154 m -27 X s 390 161 m -27 X s 390 169 m -27 X s 390 176 m -27
 X s 417 183 m -54 X s 390 190 m -27 X s 390 198 m -27 X s 390 205 m -27 X s 390 212 m -27 X s 417 220 m -54 X s 390 227 m -27 X s 390 234 m -27 X s 390 241 m -27 X s 390 249 m -27 X s 417 256 m -54 X s 390 263 m -27 X s 390 271 m -27 X s 390 278 m
 -27 X s 390 285 m -27 X s 417 293 m -54 X s 390 300 m -27 X s 390 307 m -27 X s 390 314 m -27 X s 390 322 m -27 X s 417 329 m -54 X s 390 336 m -27 X s 390 344 m -27 X s 390 351 m -27 X s 390 358 m -27 X s 417 365 m -54 X s 390 373 m -27 X s 390 380
 m -27 X s 390 387 m -27 X s 390 395 m -27 X s 417 402 m -54 X s 390 409 m -27 X s 390 416 m -27 X s 390 424 m -27 X s 390 431 m -27 X s 417 438 m -54 X s 2154 74 m 364 Y s 2101 74 m 53 X s 2127 81 m 27 X s 2127 88 m 27 X s 2127 96 m 27 X s 2127 103
 m 27 X s 2101 110 m 53 X s 2127 118 m 27 X s 2127 125 m 27 X s 2127 132 m 27 X s 2127 139 m 27 X s 2101 147 m 53 X s 2127 154 m 27 X s 2127 161 m 27 X s 2127 169 m 27 X s 2127 176 m 27 X s 2101 183 m 53 X s 2127 190 m 27 X s 2127 198 m 27 X s 2127
 205 m 27 X s 2127 212 m 27 X s 2101 220 m 53 X s 2127 227 m 27 X s 2127 234 m 27 X s 2127 241 m 27 X s 2127 249 m 27 X s 2101 256 m 53 X s 2127 263 m 27 X s 2127 271 m 27 X s 2127 278 m 27 X s 2127 285 m 27 X s 2101 293 m 53 X s 2127 300 m 27 X s
 2127 307 m 27 X s 2127 314 m 27 X s 2127 322 m 27 X s 2101 329 m 53 X s 2127 336 m 27 X s 2127 344 m 27 X s 2127 351 m 27 X s 2127 358 m 27 X s 2101 365 m 53 X s 2127 373 m 27 X s 2127 380 m 27 X s 2127 387 m 27 X s 2127 395 m 27 X s 2101 402 m 53 X
 s 2127 409 m 27 X s 2127 416 m 27 X s 2127 424 m 27 X s 2127 431 m 27 X s 2101 438 m 53 X s
 gr  gr showpage
end
%%EOF
